FIPS,HR_UID,nameid,province,region,analysisTime,dates,pointprevalence_025,pointprevalence_50,pointprevalence_975,pointinfections_025,pointinfections_50,pointinfections_975,pointinfectious_025,pointinfectious_50,pointinfectious_975,pointinfectiousprevalence_05,pointinfectiousprevalence_50,pointinfectiousprevalence_95,infectrate_025,infectrate_50,infectrate_975
26125,0,USMichiganOakland,Michigan,Oakland,2021-01-05 20:01:29.463443,2020-03-09 00:00:00.000000,0.04127938,0.15781589,0.25792749,519,1984,3243,237,741,1117,0.01889426,0.05899772,0.08882661,0.70957242,0.89610883,1.12533375
26125,0,USMichiganOakland,Michigan,Oakland,2021-01-05 20:01:29.463443,2020-03-10 00:00:00.000000,0.04907497,0.17987294,0.29353297,617,2262,3691,276,874,1365,0.02197393,0.06953931,0.10855620,0.70957003,0.89610391,1.12530555
26125,0,USMichiganOakland,Michigan,Oakland,2021-01-05 20:01:29.463443,2020-03-11 00:00:00.000000,0.05747986,0.20457921,0.33431823,722,2572,4204,323,1009,1595,0.02569227,0.08028220,0.12688310,0.70955963,0.89609399,1.12525301
26125,0,USMichiganOakland,Michigan,Oakland,2021-01-05 20:01:29.463443,2020-03-12 00:00:00.000000,0.06716556,0.23225002,0.37911864,844,2920,4767,380,1155,1830,0.03027676,0.09186035,0.14557017,0.70951418,0.89607400,1.12515269
26125,0,USMichiganOakland,Michigan,Oakland,2021-01-05 20:01:29.463443,2020-03-13 00:00:00.000000,0.07835490,0.26312848,0.42853591,985,3309,5389,460,1324,2081,0.03663751,0.10528893,0.16552223,0.70931564,0.89603390,1.12495560
26125,0,USMichiganOakland,Michigan,Oakland,2021-01-05 20:01:29.463443,2020-03-14 00:00:00.000000,0.09335699,0.29694559,0.48319691,1174,3734,6076,542,1532,2355,0.04315893,0.12186059,0.18728415,0.70845694,0.89595418,1.12108336
26125,0,USMichiganOakland,Michigan,Oakland,2021-01-05 20:01:29.463443,2020-03-15 00:00:00.000000,0.11070064,0.33492740,0.54379492,1392,4211,6838,629,1710,2656,0.05003945,0.13605267,0.21125850,0.70490958,0.89576173,1.11022771
26125,0,USMichiganOakland,Michigan,Oakland,2021-01-05 20:01:29.463443,2020-03-16 00:00:00.000000,0.13148679,0.37757778,0.61144807,1653,4748,7689,729,1927,2990,0.05803916,0.15325663,0.23780185,0.69264806,0.89266101,1.09413150
26125,0,USMichiganOakland,Michigan,Oakland,2021-01-05 20:01:29.463443,2020-03-17 00:00:00.000000,0.15650099,0.42555564,0.68631413,1968,5351,8630,847,2135,3362,0.06737281,0.16979400,0.26734891,0.68252716,0.89091210,1.07925007
26125,0,USMichiganOakland,Michigan,Oakland,2021-01-05 20:01:29.463443,2020-03-18 00:00:00.000000,0.18225801,0.47954697,0.76650916,2292,6030,9639,983,2365,3774,0.07822415,0.18813776,0.30015820,0.64430948,0.88655486,1.07890443
26125,0,USMichiganOakland,Michigan,Oakland,2021-01-05 20:01:29.463443,2020-03-19 00:00:00.000000,0.21208976,0.54029953,0.84935647,2667,6794,10681,1142,2642,4224,0.09083221,0.21011192,0.33589896,0.56954491,0.88389998,1.07785881
26125,0,USMichiganOakland,Michigan,Oakland,2021-01-05 20:01:29.463443,2020-03-20 00:00:00.000000,0.24571988,0.60835710,0.93565339,3090,7650,11766,1321,2991,4699,0.10504640,0.23785376,0.37373050,0.52825440,0.87656305,1.05230246
26125,0,USMichiganOakland,Michigan,Oakland,2021-01-05 20:01:29.463443,2020-03-21 00:00:00.000000,0.27543242,0.68304711,1.02831285,3463,8589,12931,1523,3434,5198,0.12112264,0.27310611,0.41340213,0.51469951,0.87041620,0.98038148
26125,0,USMichiganOakland,Michigan,Oakland,2021-01-05 20:01:29.463443,2020-03-22 00:00:00.000000,0.30725218,0.76552230,1.12902310,3863,9627,14198,1757,3882,5728,0.13972340,0.30872977,0.45552009,0.51428644,0.85752925,0.95959544
26125,0,USMichiganOakland,Michigan,Oakland,2021-01-05 20:01:29.463443,2020-03-23 00:00:00.000000,0.34366702,0.85562812,1.23901707,4321,10760,15581,2026,4319,6298,0.16111730,0.34348845,0.50083362,0.51414370,0.84072598,0.95235549
26125,0,USMichiganOakland,Michigan,Oakland,2021-01-05 20:01:29.463443,2020-03-24 00:00:00.000000,0.38853598,0.94197879,1.35851715,4886,11846,17084,2333,4803,6916,0.18556550,0.38194226,0.55001711,0.49439267,0.82378493,0.95828136
26125,0,USMichiganOakland,Michigan,Oakland,2021-01-05 20:01:29.463443,2020-03-25 00:00:00.000000,0.43622682,1.02499469,1.48744396,5485,12890,18705,2683,5307,7588,0.21336251,0.42205554,0.60345401,0.46348440,0.79904523,0.96208439
26125,0,USMichiganOakland,Michigan,Oakland,2021-01-05 20:01:29.463443,2020-03-26 00:00:00.000000,0.48724853,1.14830971,1.63147932,6127,14440,20517,3077,5863,8316,0.24470215,0.46623711,0.66130059,0.45262581,0.78343453,0.95243505
26125,0,USMichiganOakland,Michigan,Oakland,2021-01-05 20:01:29.463443,2020-03-27 00:00:00.000000,0.53980995,1.28456670,1.79532789,6788,16154,22577,3516,6475,9095,0.27963804,0.51488037,0.72324165,0.43437532,0.76936486,0.93577293
26125,0,USMichiganOakland,Michigan,Oakland,2021-01-05 20:01:29.463443,2020-03-28 00:00:00.000000,0.59058092,1.40300015,1.96732091,7427,17643,24740,4000,7172,9954,0.31813225,0.57037184,0.79155267,0.40721670,0.71699901,0.89970270
26125,0,USMichiganOakland,Michigan,Oakland,2021-01-05 20:01:29.463443,2020-03-29 00:00:00.000000,0.63557335,1.50783960,2.13776786,7992,18962,26884,4528,8023,11254,0.36006065,0.63800554,0.89490236,0.36977864,0.66682500,0.86980356
26125,0,USMichiganOakland,Michigan,Oakland,2021-01-05 20:01:29.463443,2020-03-30 00:00:00.000000,0.68884684,1.62948198,2.30149704,8662,20492,28943,5054,8879,12660,0.40195638,0.70611238,1.00671814,0.31064274,0.63062040,0.82547269
26125,0,USMichiganOakland,Michigan,Oakland,2021-01-05 20:01:29.463443,2020-03-31 00:00:00.000000,0.74639970,1.73152244,2.45923594,9386,21775,30926,5495,9622,14111,0.43696299,0.76515872,1.12211362,0.28083079,0.58916279,0.77801289
26125,0,USMichiganOakland,Michigan,Oakland,2021-01-05 20:01:29.463443,2020-04-01 00:00:00.000000,0.80631158,1.83390182,2.61378862,10140,23062,32870,5897,10339,15605,0.46897150,0.82215126,1.24094737,0.23461883,0.56764933,0.76473383
26125,0,USMichiganOakland,Michigan,Oakland,2021-01-05 20:01:29.463443,2020-04-02 00:00:00.000000,0.86300300,1.98815645,2.79594597,10852,25002,35161,6177,10919,16291,0.49118574,0.86831520,1.29542647,0.21937769,0.52947001,0.76039341
26125,0,USMichiganOakland,Michigan,Oakland,2021-01-05 20:01:29.463443,2020-04-03 00:00:00.000000,0.90837296,2.12892913,2.98295063,11423,26773,37513,6400,11619,16860,0.50894675,0.92392665,1.34069714,0.19974387,0.51848155,0.75101440
26125,0,USMichiganOakland,Michigan,Oakland,2021-01-05 20:01:29.463443,2020-04-04 00:00:00.000000,0.95196526,2.20285609,3.05427632,11971,27702,38410,6618,12279,17365,0.52625088,0.97640712,1.38086232,0.16810285,0.44487646,0.73052440
26125,0,USMichiganOakland,Michigan,Oakland,2021-01-05 20:01:29.463443,2020-04-05 00:00:00.000000,0.96283231,2.22426078,3.10073115,12108,27971,38994,6802,12736,18133,0.54091868,1.01279566,1.44196094,0.16264271,0.41338812,0.65666900
26125,0,USMichiganOakland,Michigan,Oakland,2021-01-05 20:01:29.463443,2020-04-06 00:00:00.000000,0.96024968,2.24945113,3.15090777,12075,28288,39625,6918,13106,18916,0.55017050,1.04221589,1.50415551,0.15949782,0.37151995,0.53346563
26125,0,USMichiganOakland,Michigan,Oakland,2021-01-05 20:01:29.463443,2020-04-07 00:00:00.000000,0.97121425,2.25752901,3.18611788,12213,28390,40068,6969,13453,19210,0.55421243,1.06978674,1.52758246,0.15763200,0.31283496,0.47500687
26125,0,USMichiganOakland,Michigan,Oakland,2021-01-05 20:01:29.463443,2020-04-08 00:00:00.000000,0.98808592,2.22247881,3.20562835,12426,27949,40313,7025,13260,19098,0.55865587,1.05443899,1.51865112,0.15655341,0.28895124,0.43512726
26125,0,USMichiganOakland,Michigan,Oakland,2021-01-05 20:01:29.463443,2020-04-09 00:00:00.000000,0.97631101,2.16731635,3.16198084,12277,27255,39764,7230,13171,19044,0.57492113,1.04733086,1.51441096,0.15597377,0.27016446,0.39650164
26125,0,USMichiganOakland,Michigan,Oakland,2021-01-05 20:01:29.463443,2020-04-10 00:00:00.000000,0.96044020,2.09196446,3.03450076,12078,26308,38161,7421,12923,19280,0.59016058,1.02765090,1.53312898,0.15410572,0.25067443,0.34500103
26125,0,USMichiganOakland,Michigan,Oakland,2021-01-05 20:01:29.463443,2020-04-11 00:00:00.000000,0.94169387,2.02512320,2.89054516,11842,25467,36351,7585,12678,19023,0.60315540,1.00815976,1.51271678,0.14796964,0.24371655,0.30902317
26125,0,USMichiganOakland,Michigan,Oakland,2021-01-05 20:01:29.463443,2020-04-12 00:00:00.000000,0.92114836,1.96301524,2.77901388,11584,24686,34948,7628,12404,19240,0.60663218,0.98638554,1.52999144,0.14307286,0.23531379,0.30015063
26125,0,USMichiganOakland,Michigan,Oakland,2021-01-05 20:01:29.463443,2020-04-13 00:00:00.000000,0.89938712,1.91904877,2.63311901,11310,24133,33113,7415,12178,19075,0.58965782,0.96842113,1.51687034,0.13081876,0.22955533,0.29833076
26125,0,USMichiganOakland,Michigan,Oakland,2021-01-05 20:01:29.463443,2020-04-14 00:00:00.000000,0.87712575,1.85481408,2.48836838,11030,23325,31293,7186,11950,18776,0.57146709,0.95024857,1.49309674,0.12758308,0.22877109,0.29740984
26125,0,USMichiganOakland,Michigan,Oakland,2021-01-05 20:01:29.463443,2020-04-15 00:00:00.000000,0.85485276,1.78290364,2.36263815,10750,22421,29712,6949,11633,18413,0.55256870,0.92503151,1.46419311,0.12501007,0.22755364,0.29643613
26125,0,USMichiganOakland,Michigan,Oakland,2021-01-05 20:01:29.463443,2020-04-16 00:00:00.000000,0.83279451,1.71910333,2.32928006,10473,21619,29292,6708,11306,18009,0.53343871,0.89904288,1.43205925,0.12393889,0.22655869,0.29622043
26125,0,USMichiganOakland,Michigan,Oakland,2021-01-05 20:01:29.463443,2020-04-17 00:00:00.000000,0.81103393,1.66143439,2.29862453,10199,20893,28907,6467,10902,17581,0.51425349,0.86691426,1.39801953,0.12151574,0.22488944,0.29597550
26125,0,USMichiganOakland,Michigan,Oakland,2021-01-05 20:01:29.463443,2020-04-18 00:00:00.000000,0.78759406,1.60834671,2.25031254,9904,20226,28299,6220,10564,17139,0.49461515,0.84006717,1.36287408,0.11690672,0.22457147,0.29554005
26125,0,USMichiganOakland,Michigan,Oakland,2021-01-05 20:01:29.463443,2020-04-19 00:00:00.000000,0.75134081,1.55168854,2.15209038,9448,19513,27064,5963,10242,16688,0.47418744,0.81448432,1.32699389,0.11115264,0.22475373,0.29467630
26125,0,USMichiganOakland,Michigan,Oakland,2021-01-05 20:01:29.463443,2020-04-20 00:00:00.000000,0.71575554,1.49680479,2.05635028,9001,18823,25860,5702,9861,16230,0.45341773,0.78418746,1.29060532,0.10556545,0.22199540,0.29301906
26125,0,USMichiganOakland,Michigan,Oakland,2021-01-05 20:01:29.463443,2020-04-21 00:00:00.000000,0.68147317,1.43194880,1.96017822,8570,18007,24650,5441,9554,15767,0.43270421,0.75978887,1.25382201,0.10206236,0.21684024,0.29036016
26125,0,USMichiganOakland,Michigan,Oakland,2021-01-05 20:01:29.463443,2020-04-22 00:00:00.000000,0.64864985,1.37243504,1.86534636,8157,17259,23458,5186,9079,15297,0.41242696,0.72201456,1.21638745,0.10064229,0.21518818,0.28682755
26125,0,USMichiganOakland,Michigan,Oakland,2021-01-05 20:01:29.463443,2020-04-23 00:00:00.000000,0.62265165,1.30484391,1.77519895,7830,16409,22324,4939,8720,14811,0.39279880,0.69342251,1.17776698,0.10024186,0.21716823,0.28621779
26125,0,USMichiganOakland,Michigan,Oakland,2021-01-05 20:01:29.463443,2020-04-24 00:00:00.000000,0.60384580,1.23914077,1.69123746,7593,15583,21268,4702,8410,14308,0.37393863,0.66877982,1.13778591,0.10032940,0.21923421,0.29069376
26125,0,USMichiganOakland,Michigan,Oakland,2021-01-05 20:01:29.463443,2020-04-25 00:00:00.000000,0.58437764,1.17936337,1.61394590,7349,14831,20296,4495,8071,13794,0.35746636,0.64184930,1.09691319,0.10139719,0.22238285,0.30847565
26125,0,USMichiganOakland,Michigan,Oakland,2021-01-05 20:01:29.463443,2020-04-26 00:00:00.000000,0.56326011,1.13105570,1.54375007,7083,14223,19413,4331,7750,13278,0.34444318,0.61632385,1.05583421,0.10256869,0.22436943,0.32836362
26125,0,USMichiganOakland,Michigan,Oakland,2021-01-05 20:01:29.463443,2020-04-27 00:00:00.000000,0.53949043,1.08703584,1.49784498,6784,13670,18836,4174,7409,12766,0.33193079,0.58916269,1.01512700,0.10166684,0.23292501,0.34221945
26125,0,USMichiganOakland,Michigan,Oakland,2021-01-05 20:01:29.463443,2020-04-28 00:00:00.000000,0.51337846,1.05215066,1.45300954,6456,13231,18272,4024,7104,12296,0.31999723,0.56492748,0.97781899,0.10521880,0.24544654,0.34836637
26125,0,USMichiganOakland,Michigan,Oakland,2021-01-05 20:01:29.463443,2020-04-29 00:00:00.000000,0.49625407,1.02014746,1.40944827,6240,12829,17724,3881,6861,11942,0.30865128,0.54564074,0.94966676,0.10619778,0.25194029,0.35209612
26125,0,USMichiganOakland,Michigan,Oakland,2021-01-05 20:01:29.463443,2020-04-30 00:00:00.000000,0.48048583,0.99046742,1.36740643,6042,12455,17196,3748,6642,11593,0.29808211,0.52823338,0.92190804,0.10602590,0.25589582,0.35933499
26125,0,USMichiganOakland,Michigan,Oakland,2021-01-05 20:01:29.463443,2020-05-01 00:00:00.000000,0.46607734,0.96451688,1.32723017,5861,12129,16691,3626,6447,11252,0.28833912,0.51272807,0.89477098,0.10648774,0.25384990,0.36579391
26125,0,USMichiganOakland,Michigan,Oakland,2021-01-05 20:01:29.463443,2020-05-02 00:00:00.000000,0.45283335,0.93883671,1.28933276,5694,11806,16214,3512,6272,10921,0.27931228,0.49878686,0.86847761,0.10554547,0.26396612,0.36699579
26125,0,USMichiganOakland,Michigan,Oakland,2021-01-05 20:01:29.463443,2020-05-03 00:00:00.000000,0.44076896,0.91036146,1.25396603,5543,11448,15769,3407,6137,10604,0.27097724,0.48804871,0.84326506,0.10451084,0.26887451,0.36734026
26125,0,USMichiganOakland,Michigan,Oakland,2021-01-05 20:01:29.463443,2020-05-04 00:00:00.000000,0.42954676,0.88421187,1.22103289,5401,11119,15355,3311,5983,10303,0.26332946,0.47579774,0.81933907,0.10439900,0.27279710,0.36603655
26125,0,USMichiganOakland,Michigan,Oakland,2021-01-05 20:01:29.463443,2020-05-05 00:00:00.000000,0.41883105,0.86551772,1.18997839,5267,10884,14964,3222,5840,10020,0.25626860,0.46445073,0.79679636,0.10649047,0.27475204,0.36413334
26125,0,USMichiganOakland,Michigan,Oakland,2021-01-05 20:01:29.463443,2020-05-06 00:00:00.000000,0.40851209,0.84894082,1.16033948,5137,10676,14592,3139,5716,9753,0.24964257,0.45459194,0.77555038,0.10990106,0.28051385,0.35809731
26125,0,USMichiganOakland,Michigan,Oakland,2021-01-05 20:01:29.463443,2020-05-07 00:00:00.000000,0.39857017,0.83186976,1.13177315,5012,10461,14232,3060,5562,9500,0.24334199,0.44232846,0.75542754,0.11194352,0.28434083,0.34680132
26125,0,USMichiganOakland,Michigan,Oakland,2021-01-05 20:01:29.463443,2020-05-08 00:00:00.000000,0.38904902,0.80990552,1.10395998,4892,10185,13883,2984,5421,9258,0.23730927,0.43110543,0.73623613,0.11445661,0.28649312,0.33981403
26125,0,USMichiganOakland,Michigan,Oakland,2021-01-05 20:01:29.463443,2020-05-09 00:00:00.000000,0.38354093,0.78795970,1.07224968,4823,9909,13484,2911,5293,9026,0.23153093,0.42090422,0.71778071,0.11322163,0.28425313,0.33785722
26125,0,USMichiganOakland,Michigan,Oakland,2021-01-05 20:01:29.463443,2020-05-10 00:00:00.000000,0.37916659,0.76386065,1.02857014,4768,9606,12935,2843,5161,8801,0.22607731,0.41043705,0.69987438,0.11143432,0.27699987,0.33781436
26125,0,USMichiganOakland,Michigan,Oakland,2021-01-05 20:01:29.463443,2020-05-11 00:00:00.000000,0.37497785,0.73281389,0.98605379,4715,9215,12400,2794,5033,8574,0.22222667,0.40028811,0.68181638,0.10829168,0.27328891,0.33604173
26125,0,USMichiganOakland,Michigan,Oakland,2021-01-05 20:01:29.463443,2020-05-12 00:00:00.000000,0.36478532,0.70233957,0.95367433,4587,8832,11993,2762,4880,8270,0.21968255,0.38811457,0.65761034,0.10715838,0.27192468,0.33048789
26125,0,USMichiganOakland,Michigan,Oakland,2021-01-05 20:01:29.463443,2020-05-13 00:00:00.000000,0.35395827,0.67678569,0.92765058,4451,8511,11665,2731,4737,7933,0.21722249,0.37668813,0.63086941,0.10597499,0.26684691,0.32898044
26125,0,USMichiganOakland,Michigan,Oakland,2021-01-05 20:01:29.463443,2020-05-14 00:00:00.000000,0.34696795,0.65221508,0.89979550,4363,8202,11315,2701,4577,7606,0.21481335,0.36401705,0.60488487,0.10574455,0.25717090,0.32363732
26125,0,USMichiganOakland,Michigan,Oakland,2021-01-05 20:01:29.463443,2020-05-15 00:00:00.000000,0.33818165,0.63508332,0.86816682,4252,7986,10917,2671,4447,7290,0.21243894,0.35367697,0.57973224,0.10600442,0.25068183,0.31845274
26125,0,USMichiganOakland,Michigan,Oakland,2021-01-05 20:01:29.463443,2020-05-16 00:00:00.000000,0.32852800,0.61869931,0.84020942,4131,7780,10566,2621,4302,6984,0.20841669,0.34209231,0.55539116,0.10639279,0.24746459,0.31895278
26125,0,USMichiganOakland,Michigan,Oakland,2021-01-05 20:01:29.463443,2020-05-17 00:00:00.000000,0.31915738,0.59744004,0.81295284,4013,7513,10223,2547,4142,6742,0.20254054,0.32940723,0.53614121,0.10776833,0.24650967,0.32737070
26125,0,USMichiganOakland,Michigan,Oakland,2021-01-05 20:01:29.463443,2020-05-18 00:00:00.000000,0.31004585,0.57537377,0.78662839,3899,7235,9892,2475,3990,6533,0.19680750,0.31729261,0.51953082,0.10761107,0.24584757,0.32976383
26125,0,USMichiganOakland,Michigan,Oakland,2021-01-05 20:01:29.463443,2020-05-19 00:00:00.000000,0.30123772,0.55146541,0.76133857,3788,6935,9574,2404,3865,6330,0.19121654,0.30737492,0.50340372,0.10823531,0.24511940,0.34144028
26125,0,USMichiganOakland,Michigan,Oakland,2021-01-05 20:01:29.463443,2020-05-20 00:00:00.000000,0.29275787,0.52692194,0.73731441,3681,6626,9272,2336,3752,6068,0.18578086,0.29835640,0.48251450,0.10965534,0.24412347,0.34498996
26125,0,USMichiganOakland,Michigan,Oakland,2021-01-05 20:01:29.463443,2020-05-21 00:00:00.000000,0.28405441,0.50982649,0.71490874,3572,6411,8990,2268,3635,5812,0.18041402,0.28906381,0.46222769,0.11024215,0.24628358,0.34525118
26125,0,USMichiganOakland,Michigan,Oakland,2021-01-05 20:01:29.463443,2020-05-22 00:00:00.000000,0.27032357,0.49398780,0.69462334,3399,6212,8735,2203,3514,5573,0.17524822,0.27944506,0.44322978,0.11120176,0.25585696,0.34321814
26125,0,USMichiganOakland,Michigan,Oakland,2021-01-05 20:01:29.463443,2020-05-23 00:00:00.000000,0.25929381,0.47570908,0.67700043,3260,5982,8513,2141,3380,5352,0.17030144,0.26881501,0.42565081,0.11312269,0.25351824,0.35162595
26125,0,USMichiganOakland,Michigan,Oakland,2021-01-05 20:01:29.463443,2020-05-24 00:00:00.000000,0.25232642,0.45854727,0.66191667,3173,5766,8324,2082,3265,5207,0.16558495,0.25970154,0.41407576,0.11428171,0.26305194,0.35603879
26125,0,USMichiganOakland,Michigan,Oakland,2021-01-05 20:01:29.463443,2020-05-25 00:00:00.000000,0.24568746,0.44336519,0.64291296,3089,5575,8085,2026,3172,5094,0.16111327,0.25230642,0.40511613,0.11286930,0.27283631,0.36989834
26125,0,USMichiganOakland,Michigan,Oakland,2021-01-05 20:01:29.463443,2020-05-26 00:00:00.000000,0.23920121,0.43120372,0.62624596,3008,5422,7875,1973,3091,4971,0.15689792,0.24581768,0.39529762,0.11206182,0.27600343,0.37577203
26125,0,USMichiganOakland,Michigan,Oakland,2021-01-05 20:01:29.463443,2020-05-27 00:00:00.000000,0.23284857,0.42307582,0.61207942,2928,5320,7697,1912,3014,4836,0.15210399,0.23966736,0.38457121,0.11242150,0.28169226,0.38638533
26125,0,USMichiganOakland,Michigan,Oakland,2021-01-05 20:01:29.463443,2020-05-28 00:00:00.000000,0.22650668,0.41837104,0.60053811,2848,5261,7552,1848,2948,4691,0.14695643,0.23443788,0.37309579,0.11156848,0.29189785,0.39878545
26125,0,USMichiganOakland,Michigan,Oakland,2021-01-05 20:01:29.463443,2020-05-29 00:00:00.000000,0.22017842,0.41807876,0.59200487,2768,5257,7444,1795,2895,4535,0.14275506,0.23023873,0.36062517,0.11100839,0.30456868,0.42293599
26125,0,USMichiganOakland,Michigan,Oakland,2021-01-05 20:01:29.463443,2020-05-30 00:00:00.000000,0.21397769,0.41770184,0.58646931,2690,5252,7375,1749,2868,4379,0.13910974,0.22813479,0.34824406,0.11063011,0.31326282,0.45461679
26125,0,USMichiganOakland,Michigan,Oakland,2021-01-05 20:01:29.463443,2020-05-31 00:00:00.000000,0.20793510,0.41305629,0.58601551,2614,5194,7369,1718,2832,4233,0.13665782,0.22519887,0.33662235,0.11055919,0.31899502,0.46815223
26125,0,USMichiganOakland,Michigan,Oakland,2021-01-05 20:01:29.463443,2020-06-01 00:00:00.000000,0.20212044,0.40445926,0.58837855,2541,5086,7399,1659,2813,4080,0.13195745,0.22371671,0.32445210,0.11120370,0.32598736,0.47726599
26125,0,USMichiganOakland,Michigan,Oakland,2021-01-05 20:01:29.463443,2020-06-02 00:00:00.000000,0.19647637,0.39835399,0.59055917,2470,5009,7426,1592,2772,3946,0.12665157,0.22043966,0.31384186,0.11436809,0.33005833,0.47643735
26125,0,USMichiganOakland,Michigan,Oakland,2021-01-05 20:01:29.463443,2020-06-03 00:00:00.000000,0.19100590,0.39059750,0.59225887,2402,4912,7448,1531,2757,3850,0.12174977,0.21927603,0.30616815,0.11760349,0.33179287,0.46404570
26125,0,USMichiganOakland,Michigan,Oakland,2021-01-05 20:01:29.463443,2020-06-04 00:00:00.000000,0.18570298,0.38741373,0.59304209,2335,4872,7458,1478,2742,3752,0.11756284,0.21809643,0.29840470,0.11776739,0.32621689,0.45199417
26125,0,USMichiganOakland,Michigan,Oakland,2021-01-05 20:01:29.463443,2020-06-05 00:00:00.000000,0.18056228,0.38494540,0.58108263,2270,4841,7307,1437,2726,3653,0.11429940,0.21679713,0.29049663,0.11843971,0.32472160,0.44984092
26125,0,USMichiganOakland,Michigan,Oakland,2021-01-05 20:01:29.463443,2020-06-06 00:00:00.000000,0.17558756,0.37773383,0.57610273,2208,4750,7244,1407,2680,3552,0.11195996,0.21314182,0.28247254,0.12139438,0.32904753,0.46325502
26125,0,USMichiganOakland,Michigan,Oakland,2021-01-05 20:01:29.463443,2020-06-07 00:00:00.000000,0.17082585,0.37223186,0.57520896,2148,4681,7233,1388,2609,3467,0.11037557,0.20752039,0.27576646,0.12322856,0.33275706,0.47326940
26125,0,USMichiganOakland,Michigan,Oakland,2021-01-05 20:01:29.463443,2020-06-08 00:00:00.000000,0.16641966,0.36973462,0.57439352,2092,4649,7223,1365,2579,3421,0.10854579,0.20512881,0.27208145,0.12681288,0.33745836,0.48909084
26125,0,USMichiganOakland,Michigan,Oakland,2021-01-05 20:01:29.463443,2020-06-09 00:00:00.000000,0.16312058,0.37043179,0.57349302,2051,4658,7212,1324,2568,3382,0.10534635,0.20426132,0.26899147,0.13402772,0.34107175,0.49437927
26125,0,USMichiganOakland,Michigan,Oakland,2021-01-05 20:01:29.463443,2020-06-10 00:00:00.000000,0.16092823,0.37150537,0.57252348,2023,4671,7199,1286,2553,3349,0.10227739,0.20306443,0.26633389,0.13755706,0.34410718,0.49797440
26125,0,USMichiganOakland,Michigan,Oakland,2021-01-05 20:01:29.463443,2020-06-11 00:00:00.000000,0.15793589,0.36825741,0.57344935,1986,4631,7211,1250,2534,3333,0.09939786,0.20150386,0.26509857,0.14003521,0.34766110,0.50330069
26125,0,USMichiganOakland,Michigan,Oakland,2021-01-05 20:01:29.463443,2020-06-12 00:00:00.000000,0.15502722,0.36344453,0.57757997,1949,4570,7263,1217,2505,3338,0.09683471,0.19921494,0.26550551,0.14188760,0.35496549,0.50543148
26125,0,USMichiganOakland,Michigan,Oakland,2021-01-05 20:01:29.463443,2020-06-13 00:00:00.000000,0.15262643,0.35866222,0.58545835,1919,4510,7362,1190,2521,3353,0.09468294,0.20049784,0.26668200,0.14312056,0.36958430,0.50322855
26125,0,USMichiganOakland,Michigan,Oakland,2021-01-05 20:01:29.463443,2020-06-14 00:00:00.000000,0.15046371,0.35526506,0.59546728,1892,4467,7488,1168,2517,3384,0.09289353,0.20014717,0.26913547,0.14508604,0.37634032,0.50986935
26125,0,USMichiganOakland,Michigan,Oakland,2021-01-05 20:01:29.463443,2020-06-15 00:00:00.000000,0.14806044,0.35512370,0.59721495,1861,4465,7510,1148,2515,3434,0.09135718,0.20005449,0.27309540,0.15673704,0.36988819,0.52492943
26125,0,USMichiganOakland,Michigan,Oakland,2021-01-05 20:01:29.463443,2020-06-16 00:00:00.000000,0.14465567,0.35539234,0.60774343,1819,4469,7642,1133,2530,3500,0.09014246,0.20123536,0.27832230,0.15797375,0.36561198,0.53264749
26125,0,USMichiganOakland,Michigan,Oakland,2021-01-05 20:01:29.463443,2020-06-17 00:00:00.000000,0.14133147,0.35569541,0.62113259,1777,4473,7811,1122,2542,3575,0.08923159,0.20220384,0.28433973,0.15871162,0.36446015,0.53301117
26125,0,USMichiganOakland,Michigan,Oakland,2021-01-05 20:01:29.463443,2020-06-18 00:00:00.000000,0.13826828,0.35575212,0.63481064,1738,4473,7983,1117,2551,3658,0.08884920,0.20291213,0.29092572,0.15914134,0.36609345,0.53521396
26125,0,USMichiganOakland,Michigan,Oakland,2021-01-05 20:01:29.463443,2020-06-19 00:00:00.000000,0.13713463,0.35887968,0.64862838,1724,4513,8157,1119,2572,3747,0.08905382,0.20455158,0.29797184,0.15944216,0.37145359,0.53616004
26125,0,USMichiganOakland,Michigan,Oakland,2021-01-05 20:01:29.463443,2020-06-20 00:00:00.000000,0.13895682,0.36238332,0.66240878,1747,4557,8330,1127,2565,3814,0.08963902,0.20404062,0.30335078,0.16031784,0.38463214,0.54155919
26125,0,USMichiganOakland,Michigan,Oakland,2021-01-05 20:01:29.463443,2020-06-21 00:00:00.000000,0.14123585,0.36537530,0.67579948,1776,4594,8498,1137,2593,3798,0.09041744,0.20620331,0.30205368,0.16037154,0.40096254,0.54299773
26125,0,USMichiganOakland,Michigan,Oakland,2021-01-05 20:01:29.463443,2020-06-22 00:00:00.000000,0.14391978,0.36803269,0.68792614,1809,4628,8651,1147,2605,3857,0.09125275,0.20721913,0.30676400,0.16408110,0.40729066,0.54315358
26125,0,USMichiganOakland,Michigan,Oakland,2021-01-05 20:01:29.463443,2020-06-23 00:00:00.000000,0.14674399,0.37165464,0.69749223,1845,4673,8771,1156,2619,3931,0.09192248,0.20830121,0.31263577,0.17713440,0.40882069,0.53827561
26125,0,USMichiganOakland,Michigan,Oakland,2021-01-05 20:01:29.463443,2020-06-24 00:00:00.000000,0.14975415,0.37903605,0.70483689,1883,4766,8863,1162,2632,3995,0.09243187,0.20929521,0.31774421,0.17632716,0.41178174,0.54207095
26125,0,USMichiganOakland,Michigan,Oakland,2021-01-05 20:01:29.463443,2020-06-25 00:00:00.000000,0.15311789,0.38814396,0.71104806,1925,4881,8942,1166,2619,4048,0.09278712,0.20827212,0.32194385,0.17615877,0.41003409,0.54803832
26125,0,USMichiganOakland,Michigan,Oakland,2021-01-05 20:01:29.463443,2020-06-26 00:00:00.000000,0.15634641,0.39944179,0.71756553,1966,5023,9023,1169,2633,4115,0.09301941,0.20939949,0.32726854,0.18474096,0.40475357,0.56356186
26125,0,USMichiganOakland,Michigan,Oakland,2021-01-05 20:01:29.463443,2020-06-27 00:00:00.000000,0.15781813,0.41331470,0.73778055,1984,5197,9278,1172,2655,4228,0.09325923,0.21113286,0.33621120,0.19090476,0.43058680,0.58831839
26125,0,USMichiganOakland,Michigan,Oakland,2021-01-05 20:01:29.463443,2020-06-28 00:00:00.000000,0.15920942,0.43000754,0.75894100,2002,5407,9544,1180,2709,4345,0.09383300,0.21546091,0.34554395,0.19096163,0.46115895,0.61276114
26125,0,USMichiganOakland,Michigan,Oakland,2021-01-05 20:01:29.463443,2020-06-29 00:00:00.000000,0.16029272,0.44230599,0.78109837,2015,5562,9822,1193,2769,4468,0.09494225,0.22024306,0.35530280,0.19093929,0.46072879,0.63698984
26125,0,USMichiganOakland,Michigan,Oakland,2021-01-05 20:01:29.463443,2020-06-30 00:00:00.000000,0.16169493,0.45276546,0.80407213,2033,5693,10111,1237,2852,4596,0.09839955,0.22680103,0.36553418,0.19078928,0.46085477,0.65607363
26125,0,USMichiganOakland,Michigan,Oakland,2021-01-05 20:01:29.463443,2020-07-01 00:00:00.000000,0.16340639,0.47597864,0.82083509,2054,5985,10322,1305,2923,4709,0.10379303,0.23243248,0.37446827,0.19035533,0.46174883,0.67214906
26125,0,USMichiganOakland,Michigan,Oakland,2021-01-05 20:01:29.463443,2020-07-02 00:00:00.000000,0.16571210,0.50152023,0.82725162,2083,6307,10403,1340,3002,4771,0.10658579,0.23878076,0.37943884,0.18928338,0.46376287,0.67384747
26125,0,USMichiganOakland,Michigan,Oakland,2021-01-05 20:01:29.463443,2020-07-03 00:00:00.000000,0.17735989,0.52920481,0.84096255,2230,6655,10575,1369,3083,4832,0.10889538,0.24516604,0.38424724,0.18751902,0.46679415,0.67863938
26125,0,USMichiganOakland,Michigan,Oakland,2021-01-05 20:01:29.463443,2020-07-04 00:00:00.000000,0.18276499,0.55139657,0.86287669,2298,6934,10851,1401,3169,4931,0.11147788,0.25203507,0.39214748,0.18802177,0.46598322,0.68201070
26125,0,USMichiganOakland,Michigan,Oakland,2021-01-05 20:01:29.463443,2020-07-05 00:00:00.000000,0.18779688,0.57517598,0.87031885,2361,7233,10944,1438,3288,4968,0.11435119,0.26146302,0.39509052,0.18961644,0.44521692,0.67629809
26125,0,USMichiganOakland,Michigan,Oakland,2021-01-05 20:01:29.463443,2020-07-06 00:00:00.000000,0.19360106,0.59637410,0.87339452,2434,7499,10983,1477,3415,5007,0.11750935,0.27158880,0.39815234,0.19383240,0.43364645,0.59783523
26125,0,USMichiganOakland,Michigan,Oakland,2021-01-05 20:01:29.463443,2020-07-07 00:00:00.000000,0.20386138,0.60442242,0.87441169,2563,7601,10996,1520,3518,5046,0.12093206,0.27980680,0.40124836,0.19939980,0.43725244,0.58078476
26125,0,USMichiganOakland,Michigan,Oakland,2021-01-05 20:01:29.463443,2020-07-08 00:00:00.000000,0.21710920,0.61010675,0.88508901,2730,7672,11130,1567,3625,5233,0.12461651,0.28826638,0.41614752,0.20315556,0.44852349,0.57855436
26125,0,USMichiganOakland,Michigan,Oakland,2021-01-05 20:01:29.463443,2020-07-09 00:00:00.000000,0.23201071,0.61853001,0.91864608,2917,7778,11552,1617,3704,5437,0.12859156,0.29458638,0.43240798,0.20589739,0.45241002,0.57674127
26125,0,USMichiganOakland,Michigan,Oakland,2021-01-05 20:01:29.463443,2020-07-10 00:00:00.000000,0.24218917,0.62914564,0.95130177,3045,7912,11963,1670,3797,5656,0.13286204,0.30196406,0.44977944,0.21205350,0.45817039,0.58692813
26125,0,USMichiganOakland,Michigan,Oakland,2021-01-05 20:01:29.463443,2020-07-11 00:00:00.000000,0.25799356,0.64107278,0.98260265,3244,8062,12357,1727,3861,5884,0.13740379,0.30704175,0.46789605,0.21502507,0.46372255,0.57413545
26125,0,USMichiganOakland,Michigan,Oakland,2021-01-05 20:01:29.463443,2020-07-12 00:00:00.000000,0.27485131,0.65389875,1.01295676,3456,8223,12738,1785,3927,6054,0.14197738,0.31231496,0.48146888,0.21624064,0.46722968,0.58918678
26125,0,USMichiganOakland,Michigan,Oakland,2021-01-05 20:01:29.463443,2020-07-13 00:00:00.000000,0.28199752,0.68072555,1.04303143,3546,8560,13116,1824,4003,6191,0.14506610,0.31837989,0.49236621,0.21679281,0.46895784,0.59540354
26125,0,USMichiganOakland,Michigan,Oakland,2021-01-05 20:01:29.463443,2020-07-14 00:00:00.000000,0.28779778,0.70451973,1.07332021,3619,8859,13497,1863,4106,6334,0.14818368,0.32655768,0.50371886,0.21774829,0.47496285,0.59529408
26125,0,USMichiganOakland,Michigan,Oakland,2021-01-05 20:01:29.463443,2020-07-15 00:00:00.000000,0.29375967,0.72523776,1.10415986,3694,9120,13885,1900,4206,6482,0.15110713,0.33452319,0.51550623,0.22381178,0.47620432,0.59112137
26125,0,USMichiganOakland,Michigan,Oakland,2021-01-05 20:01:29.463443,2020-07-16 00:00:00.000000,0.29987365,0.74104112,1.13611519,3771,9319,14287,1933,4286,6635,0.15372784,0.34084398,0.52766772,0.22866485,0.47729444,0.58431889
26125,0,USMichiganOakland,Michigan,Oakland,2021-01-05 20:01:29.463443,2020-07-17 00:00:00.000000,0.30613243,0.75526569,1.17097472,3849,9498,14725,1963,4378,6792,0.15612240,0.34818655,0.54010119,0.23364794,0.47115177,0.58134730
26125,0,USMichiganOakland,Michigan,Oakland,2021-01-05 20:01:29.463443,2020-07-18 00:00:00.000000,0.31061394,0.76976804,1.19578724,3906,9680,15038,1992,4480,6949,0.15840185,0.35625037,0.55258679,0.22053032,0.46629021,0.60283831
26125,0,USMichiganOakland,Michigan,Oakland,2021-01-05 20:01:29.463443,2020-07-19 00:00:00.000000,0.31138555,0.77951856,1.21862949,3915,9803,15325,2020,4559,7101,0.16067547,0.36258661,0.56467720,0.22300513,0.46642941,0.62310927
26125,0,USMichiganOakland,Michigan,Oakland,2021-01-05 20:01:29.463443,2020-07-20 00:00:00.000000,0.32077519,0.78904750,1.24008037,4034,9922,15595,2063,4626,7244,0.16406625,0.36790684,0.57604183,0.22865198,0.46939311,0.63392017
26125,0,USMichiganOakland,Michigan,Oakland,2021-01-05 20:01:29.463443,2020-07-21 00:00:00.000000,0.32693765,0.79871339,1.26043102,4111,10044,15850,2112,4683,7453,0.16800094,0.37239667,0.59270171,0.23086039,0.46939216,0.63553250
26125,0,USMichiganOakland,Michigan,Oakland,2021-01-05 20:01:29.463443,2020-07-22 00:00:00.000000,0.33429051,0.80835276,1.30235827,4203,10165,16378,2256,4743,7768,0.17942467,0.37719999,0.61775028,0.22867339,0.46707827,0.63429303
26125,0,USMichiganOakland,Michigan,Oakland,2021-01-05 20:01:29.463443,2020-07-23 00:00:00.000000,0.34392017,0.81788311,1.37102713,4325,10285,17241,2406,4791,8101,0.19139650,0.38099619,0.64422854,0.22907729,0.46292708,0.63169677
26125,0,USMichiganOakland,Michigan,Oakland,2021-01-05 20:01:29.463443,2020-07-24 00:00:00.000000,0.35522753,0.82315556,1.43019873,4467,10351,17985,2478,4901,8364,0.19709633,0.38974629,0.66510965,0.23748407,0.45666409,0.62810847
26125,0,USMichiganOakland,Michigan,Oakland,2021-01-05 20:01:29.463443,2020-07-25 00:00:00.000000,0.36432381,0.82709829,1.45620484,4581,10401,18312,2498,4980,8515,0.19866705,0.39602475,0.67711498,0.23285892,0.44531653,0.62381818
26125,0,USMichiganOakland,Michigan,Oakland,2021-01-05 20:01:29.463443,2020-07-26 00:00:00.000000,0.37178762,0.83530970,1.48204745,4675,10504,18637,2526,5097,8669,0.20086767,0.40534619,0.68934879,0.21539163,0.44052551,0.62032606
26125,0,USMichiganOakland,Michigan,Oakland,2021-01-05 20:01:29.463443,2020-07-27 00:00:00.000000,0.37566240,0.85188344,1.50668963,4724,10713,18947,2561,5222,8824,0.20365094,0.41528728,0.70168275,0.20466019,0.44292487,0.62070773
26125,0,USMichiganOakland,Michigan,Oakland,2021-01-05 20:01:29.463443,2020-07-28 00:00:00.000000,0.37944389,0.86697118,1.53956603,4771,10902,19361,2602,5371,8973,0.20692909,0.42713314,0.71357953,0.19739583,0.44761550,0.62041042
26125,0,USMichiganOakland,Michigan,Oakland,2021-01-05 20:01:29.463443,2020-07-29 00:00:00.000000,0.38330995,0.87577795,1.55677306,4820,11013,19577,2648,5487,9124,0.21060014,0.43638452,0.72556388,0.19389659,0.45014546,0.61306097
26125,0,USMichiganOakland,Michigan,Oakland,2021-01-05 20:01:29.463443,2020-07-30 00:00:00.000000,0.38763369,0.88593664,1.56688049,4874,11141,19704,2709,5547,9319,0.21544430,0.44110379,0.74105054,0.19874019,0.43315305,0.59564048
26125,0,USMichiganOakland,Michigan,Oakland,2021-01-05 20:01:29.463443,2020-07-31 00:00:00.000000,0.39329211,0.89992910,1.57403470,4945,11317,19794,2754,5605,9436,0.21903775,0.44570732,0.75035373,0.19640125,0.43164074,0.56893499
26125,0,USMichiganOakland,Michigan,Oakland,2021-01-05 20:01:29.463443,2020-08-01 00:00:00.000000,0.40139815,0.91373642,1.58492724,5047,11491,19931,2818,5745,9499,0.22414921,0.45689854,0.75539021,0.19254500,0.43259470,0.54849606
26125,0,USMichiganOakland,Michigan,Oakland,2021-01-05 20:01:29.463443,2020-08-02 00:00:00.000000,0.40627842,0.92670782,1.59889545,5109,11654,20107,2891,5864,9528,0.22994801,0.46631571,0.75770186,0.19133415,0.43373540,0.55235766
26125,0,USMichiganOakland,Michigan,Oakland,2021-01-05 20:01:29.463443,2020-08-03 00:00:00.000000,0.40133557,0.94198743,1.61229335,5047,11846,20275,2971,5955,9604,0.23630930,0.47359633,0.76370024,0.19280293,0.43430377,0.55437040
26125,0,USMichiganOakland,Michigan,Oakland,2021-01-05 20:01:29.463443,2020-08-04 00:00:00.000000,0.41352714,0.96272319,1.62519197,5200,12107,20438,3057,6013,9689,0.24310026,0.47817116,0.77051005,0.19854340,0.43393451,0.55513255
26125,0,USMichiganOakland,Michigan,Oakland,2021-01-05 20:01:29.463443,2020-08-05 00:00:00.000000,0.42790725,0.97279801,1.63649570,5381,12233,20580,3132,6147,9772,0.24906428,0.48883444,0.77706926,0.19656256,0.43225931,0.55426531
26125,0,USMichiganOakland,Michigan,Oakland,2021-01-05 20:01:29.463443,2020-08-06 00:00:00.000000,0.43878723,0.97921045,1.64195745,5518,12314,20648,3141,6277,9848,0.24983196,0.49917096,0.78311434,0.19016806,0.42856285,0.54613031
26125,0,USMichiganOakland,Michigan,Oakland,2021-01-05 20:01:29.463443,2020-08-07 00:00:00.000000,0.44353898,0.98173666,1.63726186,5577,12346,20589,3199,6325,9903,0.25441877,0.50295757,0.78747731,0.18550398,0.42001906,0.52648812
26125,0,USMichiganOakland,Michigan,Oakland,2021-01-05 20:01:29.463443,2020-08-08 00:00:00.000000,0.44190636,0.98113279,1.62632976,5557,12338,20452,3281,6343,9915,0.26095276,0.50445176,0.78848711,0.18357723,0.39560207,0.52568673
26125,0,USMichiganOakland,Michigan,Oakland,2021-01-05 20:01:29.463443,2020-08-09 00:00:00.000000,0.44027104,0.98217143,1.61127917,5536,12351,20263,3354,6361,9887,0.26670519,0.50583037,0.78621997,0.18063923,0.38083762,0.51562098
26125,0,USMichiganOakland,Michigan,Oakland,2021-01-05 20:01:29.463443,2020-08-10 00:00:00.000000,0.43854211,0.98943396,1.59140147,5515,12442,20013,3392,6414,9825,0.26978219,0.51007079,0.78131835,0.17876882,0.37780986,0.50501998
26125,0,USMichiganOakland,Michigan,Oakland,2021-01-05 20:01:29.463443,2020-08-11 00:00:00.000000,0.43682427,0.99541197,1.56507179,5493,12518,19682,3466,6442,9733,0.27563325,0.51228032,0.77396992,0.17833481,0.36973431,0.49988581
26125,0,USMichiganOakland,Michigan,Oakland,2021-01-05 20:01:29.463443,2020-08-12 00:00:00.000000,0.43509987,0.99026680,1.53129450,5471,12453,19257,3505,6466,9606,0.27872389,0.51416913,0.76386519,0.17699369,0.35603516,0.49467492
26125,0,USMichiganOakland,Michigan,Oakland,2021-01-05 20:01:29.463443,2020-08-13 00:00:00.000000,0.43336998,0.98207145,1.49076746,5449,12350,18747,3532,6472,9439,0.28091114,0.51467564,0.75059183,0.17786157,0.34322840,0.46961539
26125,0,USMichiganOakland,Michigan,Oakland,2021-01-05 20:01:29.463443,2020-08-14 00:00:00.000000,0.43163697,0.97977920,1.44554104,5428,12321,18178,3557,6456,9231,0.28289721,0.51339715,0.73410330,0.17794853,0.33271024,0.45836158
26125,0,USMichiganOakland,Michigan,Oakland,2021-01-05 20:01:29.463443,2020-08-15 00:00:00.000000,0.42990359,0.98168811,1.40095661,5406,12345,17618,3561,6391,8990,0.28319860,0.50824256,0.71487751,0.17290195,0.32707690,0.45544956
26125,0,USMichiganOakland,Michigan,Oakland,2021-01-05 20:01:29.463443,2020-08-16 00:00:00.000000,0.42589786,0.96750825,1.36361041,5356,12167,17148,3556,6341,8723,0.28284088,0.50422740,0.69370284,0.17001843,0.32464715,0.45723028
26125,0,USMichiganOakland,Michigan,Oakland,2021-01-05 20:01:29.463443,2020-08-17 00:00:00.000000,0.42511961,0.94800751,1.35690439,5346,11921,17064,3547,6293,8443,0.28207926,0.50041456,0.67139390,0.17531020,0.32132030,0.46370787
26125,0,USMichiganOakland,Michigan,Oakland,2021-01-05 20:01:29.463443,2020-08-18 00:00:00.000000,0.42512184,0.92872302,1.33551833,5346,11679,16795,3532,6256,8210,0.28091333,0.49746515,0.65291525,0.17162062,0.31957763,0.46433311
26125,0,USMichiganOakland,Michigan,Oakland,2021-01-05 20:01:29.463443,2020-08-19 00:00:00.000000,0.42659782,0.92995315,1.33189099,5364,11694,16749,3514,6238,8171,0.27946059,0.49603423,0.64977968,0.16877597,0.32030804,0.46105543
26125,0,USMichiganOakland,Michigan,Oakland,2021-01-05 20:01:29.463443,2020-08-20 00:00:00.000000,0.43139399,0.92771541,1.33636874,5425,11666,16805,3474,6140,8131,0.27627722,0.48825432,0.64660450,0.16771996,0.32798346,0.45260712
26125,0,USMichiganOakland,Michigan,Oakland,2021-01-05 20:01:29.463443,2020-08-21 00:00:00.000000,0.43703453,0.91270227,1.33257716,5496,11477,16758,3446,6016,8123,0.27402612,0.47840507,0.64596178,0.16028696,0.33470034,0.44659236
26125,0,USMichiganOakland,Michigan,Oakland,2021-01-05 20:01:29.463443,2020-08-22 00:00:00.000000,0.44307335,0.90112318,1.29997539,5572,11332,16348,3452,5892,8115,0.27451727,0.46857641,0.64529473,0.16286888,0.33651081,0.44019697
26125,0,USMichiganOakland,Michigan,Oakland,2021-01-05 20:01:29.463443,2020-08-23 00:00:00.000000,0.43896226,0.88364547,1.28340439,5520,11112,16139,3431,5837,7989,0.27288352,0.46414402,0.63534016,0.16733557,0.33697899,0.42675723
26125,0,USMichiganOakland,Michigan,Oakland,2021-01-05 20:01:29.463443,2020-08-24 00:00:00.000000,0.43259035,0.87077073,1.25345216,5440,10950,15763,3412,5733,7878,0.27132203,0.45593497,0.62646462,0.16737725,0.33064958,0.41567410
26125,0,USMichiganOakland,Michigan,Oakland,2021-01-05 20:01:29.463443,2020-08-25 00:00:00.000000,0.42712803,0.85823991,1.21357023,5371,10793,15261,3393,5638,7707,0.26985001,0.44834794,0.61290596,0.16778798,0.32168737,0.41537096
26125,0,USMichiganOakland,Michigan,Oakland,2021-01-05 20:01:29.463443,2020-08-26 00:00:00.000000,0.42245137,0.85133707,1.17316010,5312,10706,14753,3376,5562,7622,0.26846107,0.44231849,0.60610406,0.16880973,0.31743440,0.41503076
26125,0,USMichiganOakland,Michigan,Oakland,2021-01-05 20:01:29.463443,2020-08-27 00:00:00.000000,0.42563002,0.83953585,1.14667601,5352,10557,14420,3359,5495,7751,0.26717762,0.43701222,0.61635898,0.16897262,0.31800704,0.41840023
26125,0,USMichiganOakland,Michigan,Oakland,2021-01-05 20:01:29.463443,2020-08-28 00:00:00.000000,0.42299525,0.83144430,1.13075582,5319,10456,14220,3346,5420,7915,0.26608952,0.43105644,0.62943846,0.16626202,0.32347033,0.42271288
26125,0,USMichiganOakland,Michigan,Oakland,2021-01-05 20:01:29.463443,2020-08-29 00:00:00.000000,0.41771406,0.82902931,1.11396066,5253,10425,14008,3338,5299,8074,0.26544186,0.42143445,0.64204553,0.16128552,0.32578933,0.42527026
26125,0,USMichiganOakland,Michigan,Oakland,2021-01-05 20:01:29.463443,2020-08-30 00:00:00.000000,0.41319949,0.81476884,1.09659279,5196,10246,13790,3342,5198,8072,0.26575178,0.41336359,0.64187310,0.15376792,0.32360001,0.42739282
26125,0,USMichiganOakland,Michigan,Oakland,2021-01-05 20:01:29.463443,2020-08-31 00:00:00.000000,0.41068819,0.80028684,1.07927444,5164,10064,13572,3335,5086,7977,0.26522061,0.40444301,0.63438388,0.14530361,0.32490857,0.42846840
26125,0,USMichiganOakland,Michigan,Oakland,2021-01-05 20:01:29.463443,2020-09-01 00:00:00.000000,0.40813317,0.78480710,1.06634957,5132,9869,13410,3292,5021,7870,0.26180139,0.39926121,0.62581440,0.14011234,0.32523433,0.42878817
26125,0,USMichiganOakland,Michigan,Oakland,2021-01-05 20:01:29.463443,2020-09-02 00:00:00.000000,0.40672409,0.76511945,1.04839488,5114,9622,13184,3249,4952,7752,0.25836031,0.39384078,0.61649825,0.14184078,0.32649840,0.42977759
26125,0,USMichiganOakland,Michigan,Oakland,2021-01-05 20:01:29.463443,2020-09-03 00:00:00.000000,0.40913679,0.74283262,1.03834737,5145,9341,13058,3204,4893,7630,0.25480834,0.38911777,0.60672961,0.14333081,0.33187248,0.42844959
26125,0,USMichiganOakland,Michigan,Oakland,2021-01-05 20:01:29.463443,2020-09-04 00:00:00.000000,0.41303114,0.72353966,1.03219099,5194,9099,12980,3157,4834,7504,0.25110512,0.38443637,0.59675361,0.14581874,0.34181311,0.43655748
26125,0,USMichiganOakland,Michigan,Oakland,2021-01-05 20:01:29.463443,2020-09-05 00:00:00.000000,0.41814870,0.70638609,1.02785656,5258,8883,12926,3109,4731,7378,0.24727729,0.37622320,0.58675437,0.14819938,0.35555904,0.45182862
26125,0,USMichiganOakland,Michigan,Oakland,2021-01-05 20:01:29.463443,2020-09-06 00:00:00.000000,0.42380993,0.69180035,1.02412249,5329,8699,12879,3060,4647,7254,0.24339569,0.36954644,0.57684367,0.15057123,0.37033653,0.45681913
26125,0,USMichiganOakland,Michigan,Oakland,2021-01-05 20:01:29.463443,2020-09-07 00:00:00.000000,0.42792896,0.67802954,1.02047503,5381,8526,12833,3064,4573,7139,0.24371702,0.36370919,0.56768549,0.15313336,0.37152880,0.46005148
26125,0,USMichiganOakland,Michigan,Oakland,2021-01-05 20:01:29.463443,2020-09-08 00:00:00.000000,0.42618693,0.66805305,1.01686744,5359,8401,12787,3095,4542,7216,0.24617718,0.36121584,0.57382057,0.15609106,0.36510272,0.46028328
26125,0,USMichiganOakland,Michigan,Oakland,2021-01-05 20:01:29.463443,2020-09-09 00:00:00.000000,0.42643572,0.66528459,1.01237903,5362,8366,12731,3103,4488,7295,0.24680041,0.35689852,0.58014559,0.15961441,0.35784501,0.46020899
26125,0,USMichiganOakland,Michigan,Oakland,2021-01-05 20:01:29.463443,2020-09-10 00:00:00.000000,0.42976161,0.67046041,0.99739070,5404,8431,12543,3084,4450,7376,0.24529768,0.35391355,0.58658018,0.16371897,0.35056091,0.45992247
26125,0,USMichiganOakland,Michigan,Oakland,2021-01-05 20:01:29.463443,2020-09-11 00:00:00.000000,0.42507406,0.66607380,0.98229519,5345,8376,12353,3047,4411,7457,0.24233342,0.35077238,0.59299932,0.15629019,0.35232760,0.45932635
26125,0,USMichiganOakland,Michigan,Oakland,2021-01-05 20:01:29.463443,2020-09-12 00:00:00.000000,0.42104013,0.65767556,0.97186631,5294,8270,12222,3019,4352,7535,0.24009926,0.34610851,0.59918248,0.15911045,0.36123016,0.45992970
26125,0,USMichiganOakland,Michigan,Oakland,2021-01-05 20:01:29.463443,2020-09-13 00:00:00.000000,0.41714296,0.64598800,0.97738576,5245,8123,12291,2992,4302,7605,0.23796590,0.34210404,0.60476992,0.15813476,0.37255597,0.46688013
26125,0,USMichiganOakland,Michigan,Oakland,2021-01-05 20:01:29.463443,2020-09-14 00:00:00.000000,0.40834762,0.64730630,0.98049221,5135,8140,12330,2944,4274,7663,0.23414260,0.33990083,0.60937436,0.15772899,0.36950437,0.52519279
26125,0,USMichiganOakland,Michigan,Oakland,2021-01-05 20:01:29.463443,2020-09-15 00:00:00.000000,0.40036396,0.64458399,0.98186025,5034,8106,12347,2895,4252,7690,0.23020940,0.33818001,0.61156150,0.15756489,0.36753182,0.59115859
26125,0,USMichiganOakland,Michigan,Oakland,2021-01-05 20:01:29.463443,2020-09-16 00:00:00.000000,0.39340065,0.64006045,0.98100869,4947,8049,12337,2845,4249,7578,0.22623176,0.33793984,0.60261213,0.15753514,0.37060741,0.61868779
26125,0,USMichiganOakland,Michigan,Oakland,2021-01-05 20:01:29.463443,2020-09-17 00:00:00.000000,0.38737887,0.65335346,0.97592297,4871,8216,12273,2795,4257,7471,0.22225840,0.33857359,0.59408172,0.15806826,0.37922219,0.61952938
26125,0,USMichiganOakland,Michigan,Oakland,2021-01-05 20:01:29.463443,2020-09-18 00:00:00.000000,0.38190341,0.66857442,0.96568293,4802,8407,12144,2745,4293,7375,0.21835463,0.34143556,0.58649697,0.16411241,0.37346948,0.61303957
26125,0,USMichiganOakland,Michigan,Oakland,2021-01-05 20:01:29.463443,2020-09-19 00:00:00.000000,0.37670994,0.67197428,0.95246876,4737,8450,11978,2700,4330,7298,0.21470871,0.34438916,0.58034376,0.16760186,0.36635852,0.59784975
26125,0,USMichiganOakland,Michigan,Oakland,2021-01-05 20:01:29.463443,2020-09-20 00:00:00.000000,0.37168258,0.67336542,0.93813706,4674,8468,11797,2664,4375,7239,0.21187251,0.34791058,0.57570706,0.17264045,0.36161524,0.58327611
26125,0,USMichiganOakland,Michigan,Oakland,2021-01-05 20:01:29.463443,2020-09-21 00:00:00.000000,0.36650227,0.67266442,0.95774696,4609,8459,12044,2646,4371,7197,0.21042596,0.34762914,0.57233391,0.17830818,0.36884324,0.57302806
26125,0,USMichiganOakland,Michigan,Oakland,2021-01-05 20:01:29.463443,2020-09-22 00:00:00.000000,0.36156379,0.67175663,0.97285665,4546,8447,12234,2644,4374,7167,0.21025968,0.34787480,0.56992962,0.17882000,0.37177227,0.57364641
26125,0,USMichiganOakland,Michigan,Oakland,2021-01-05 20:01:29.463443,2020-09-23 00:00:00.000000,0.35682899,0.67579444,0.98695897,4487,8498,12411,2653,4388,7145,0.21099914,0.34892791,0.56818855,0.18300901,0.37429615,0.57603197
26125,0,USMichiganOakland,Michigan,Oakland,2021-01-05 20:01:29.463443,2020-09-24 00:00:00.000000,0.35219632,0.68150681,1.00435204,4429,8570,12630,2670,4411,7129,0.21232241,0.35076829,0.56688293,0.18813158,0.37878200,0.57621269
26125,0,USMichiganOakland,Michigan,Oakland,2021-01-05 20:01:29.463443,2020-09-25 00:00:00.000000,0.35179083,0.68748607,1.02313739,4424,8645,12866,2690,4413,7108,0.21391052,0.35096693,0.56525986,0.18949572,0.38767604,0.57766129
26125,0,USMichiganOakland,Michigan,Oakland,2021-01-05 20:01:29.463443,2020-09-26 00:00:00.000000,0.35353135,0.69384434,1.04266522,4445,8725,13112,2712,4400,7003,0.21568433,0.34988816,0.55691195,0.19519962,0.40417693,0.59450309
26125,0,USMichiganOakland,Michigan,Oakland,2021-01-05 20:01:29.463443,2020-09-27 00:00:00.000000,0.34884047,0.69907418,1.06272943,4386,8791,13364,2736,4437,6909,0.21760491,0.35288716,0.54945750,0.20210846,0.44680180,0.62469460
26125,0,USMichiganOakland,Michigan,Oakland,2021-01-05 20:01:29.463443,2020-09-28 00:00:00.000000,0.34674388,0.70694817,1.08314474,4360,8890,13621,2762,4472,6836,0.21963653,0.35563436,0.54362422,0.20936629,0.47020113,0.66484696
26125,0,USMichiganOakland,Michigan,Oakland,2021-01-05 20:01:29.463443,2020-09-29 00:00:00.000000,0.34711907,0.71782872,1.10415099,4365,9027,13885,2789,4550,6935,0.22180177,0.36180621,0.55145544,0.21262576,0.48174705,0.69557936
26125,0,USMichiganOakland,Michigan,Oakland,2021-01-05 20:01:29.463443,2020-09-30 00:00:00.000000,0.35605829,0.73584874,1.12564123,4477,9253,14155,2819,4622,7034,0.22416444,0.36754783,0.55935572,0.21557386,0.48501548,0.70715691
26125,0,USMichiganOakland,Michigan,Oakland,2021-01-05 20:01:29.463443,2020-10-01 00:00:00.000000,0.36919141,0.75677776,1.14910700,4642,9517,14450,2854,4713,7048,0.22697864,0.37484219,0.56047397,0.22913055,0.48707723,0.72005221
26125,0,USMichiganOakland,Michigan,Oakland,2021-01-05 20:01:29.463443,2020-10-02 00:00:00.000000,0.38478420,0.78538145,1.18411370,4838,9876,14891,2901,4865,7030,0.23075863,0.38690555,0.55903625,0.23224329,0.49676845,0.79679902
26125,0,USMichiganOakland,Michigan,Oakland,2021-01-05 20:01:29.463443,2020-10-03 00:00:00.000000,0.40266775,0.82614264,1.25432626,5063,10389,15774,2968,5010,7022,0.23601477,0.39838956,0.55843130,0.23835076,0.51784921,0.97093960
26125,0,USMichiganOakland,Michigan,Oakland,2021-01-05 20:01:29.463443,2020-10-04 00:00:00.000000,0.42225132,0.87307726,1.32426108,5310,10979,16653,3039,5157,7204,0.24171666,0.41012334,0.57285287,0.24990537,0.54045769,1.03469365
26125,0,USMichiganOakland,Michigan,Oakland,2021-01-05 20:01:29.463443,2020-10-05 00:00:00.000000,0.44317639,0.92750062,1.41534040,5573,11664,17799,3100,5331,7479,0.24652225,0.42396686,0.59476944,0.26632248,0.57515133,1.09079391
26125,0,USMichiganOakland,Michigan,Oakland,2021-01-05 20:01:29.463443,2020-10-06 00:00:00.000000,0.46281601,0.98464331,1.51223229,5820,12382,19017,3184,5632,7713,0.25320361,0.44789123,0.61334956,0.26615824,0.63462135,1.13996595
26125,0,USMichiganOakland,Michigan,Oakland,2021-01-05 20:01:29.463443,2020-10-07 00:00:00.000000,0.48166450,1.05056920,1.61507193,6057,13211,20310,3263,5979,8289,0.25949441,0.47551038,0.65913961,0.26623888,0.70419684,1.17629378
26125,0,USMichiganOakland,Michigan,Oakland,2021-01-05 20:01:29.463443,2020-10-08 00:00:00.000000,0.50106290,1.13423372,1.72423709,6301,14263,21683,3409,6367,8907,0.27113197,0.50635668,0.70834140,0.27528604,0.72280220,1.20542178
26125,0,USMichiganOakland,Michigan,Oakland,2021-01-05 20:01:29.463443,2020-10-09 00:00:00.000000,0.52327175,1.22417775,1.84007074,6580,15395,23140,3543,6707,9569,0.28179825,0.53337633,0.76095093,0.28688711,0.72008520,1.23555312
26125,0,USMichiganOakland,Michigan,Oakland,2021-01-05 20:01:29.463443,2020-10-10 00:00:00.000000,0.54549615,1.32073342,1.96291445,6860,16609,24685,3689,7180,10275,0.29335746,0.57097860,0.81706222,0.29348474,0.72453622,1.24069881
26125,0,USMichiganOakland,Michigan,Oakland,2021-01-05 20:01:29.463443,2020-10-11 00:00:00.000000,0.56865513,1.42428946,2.09310918,7151,17911,26322,3845,7681,11026,0.30581675,0.61083852,0.87681789,0.30363210,0.72743977,1.24154687
26125,0,USMichiganOakland,Michigan,Oakland,2021-01-05 20:01:29.463443,2020-10-12 00:00:00.000000,0.59451024,1.53507065,2.23457151,7476,19304,28101,4010,8108,11826,0.31888672,0.64473358,0.94038391,0.30724504,0.72648486,1.24198521
26125,0,USMichiganOakland,Michigan,Oakland,2021-01-05 20:01:29.463443,2020-10-13 00:00:00.000000,0.63712022,1.65371447,2.40077387,8012,20796,30191,4197,8675,12675,0.33380744,0.68986747,1.00792541,0.31246915,0.72894000,1.24245343
26125,0,USMichiganOakland,Michigan,Oakland,2021-01-05 20:01:29.463443,2020-10-14 00:00:00.000000,0.68361404,1.78065717,2.57738828,8597,22393,32412,4491,9335,13577,0.35712026,0.74234254,1.07962525,0.31290779,0.73533782,1.24310024
26125,0,USMichiganOakland,Michigan,Oakland,2021-01-05 20:01:29.463443,2020-10-15 00:00:00.000000,0.72256007,1.91053669,2.76485114,9086,24026,34770,4811,10040,14528,0.38258186,0.79842962,1.15527978,0.31509569,0.75810450,1.24401422
26125,0,USMichiganOakland,Michigan,Oakland,2021-01-05 20:01:29.463443,2020-10-16 00:00:00.000000,0.75283389,2.02773102,2.96357609,9467,25500,37269,5053,10794,15533,0.40182435,0.85833123,1.23515483,0.34388286,0.77034499,1.24380424
26125,0,USMichiganOakland,Michigan,Oakland,2021-01-05 20:01:29.463443,2020-10-17 00:00:00.000000,0.78857468,2.15144196,3.17394337,9916,27056,39915,5309,11598,16581,0.42216133,0.92225149,1.31848818,0.37492485,0.78285372,1.23453281
26125,0,USMichiganOakland,Michigan,Oakland,2021-01-05 20:01:29.463443,2020-10-18 00:00:00.000000,0.83519873,2.28176287,3.39628930,10503,28695,42711,5582,12451,17471,0.44389961,0.99011350,1.38925593,0.38895686,0.80074542,1.22174231
26125,0,USMichiganOakland,Michigan,Oakland,2021-01-05 20:01:29.463443,2020-10-19 00:00:00.000000,0.88914938,2.41970033,3.63068925,11181,30429,45658,5881,13357,18707,0.46771158,1.06218962,1.48756265,0.40057209,0.81902386,1.23235837
26125,0,USMichiganOakland,Michigan,Oakland,2021-01-05 20:01:29.463443,2020-10-20 00:00:00.000000,0.94826459,2.56692967,3.87756363,11925,32281,48763,6221,14322,20013,0.49471250,1.13885876,1.59140745,0.39737277,0.83429152,1.24259186
26125,0,USMichiganOakland,Michigan,Oakland,2021-01-05 20:01:29.463443,2020-10-21 00:00:00.000000,1.01190038,2.72668389,4.13703083,12725,34290,52026,6615,15319,21390,0.52608455,1.21817707,1.70093572,0.39646793,0.84022793,1.25211389
26125,0,USMichiganOakland,Michigan,Oakland,2021-01-05 20:01:29.463443,2020-10-22 00:00:00.000000,1.08002926,2.90334515,4.40913350,13582,36512,55448,7072,16330,22840,0.56237136,1.29852948,1.81625101,0.39623875,0.84431566,1.25708728
26125,0,USMichiganOakland,Michigan,Oakland,2021-01-05 20:01:29.463443,2020-10-23 00:00:00.000000,1.15284523,3.10148078,4.69380552,14497,39003,59028,7588,17396,24329,0.60344632,1.38334349,1.93460352,0.39621812,0.85548998,1.25417470
26125,0,USMichiganOakland,Michigan,Oakland,2021-01-05 20:01:29.463443,2020-10-24 00:00:00.000000,1.23074261,3.32359249,4.99085731,15477,41796,62764,8160,18525,25883,0.64893602,1.47306840,2.05819171,0.39761556,0.86359428,1.25793173
26125,0,USMichiganOakland,Michigan,Oakland,2021-01-05 20:01:29.463443,2020-10-25 00:00:00.000000,1.31488894,3.56922120,5.29996041,16535,44885,66651,8784,19720,27638,0.69850795,1.56810448,2.19776708,0.39631868,0.88174335,1.27618299
26125,0,USMichiganOakland,Michigan,Oakland,2021-01-05 20:01:29.463443,2020-10-26 00:00:00.000000,1.42727993,3.83639018,5.62073689,17949,48245,70685,9456,20994,29387,0.75199704,1.66940998,2.33679579,0.39961785,0.87616794,1.30241046
26125,0,USMichiganOakland,Michigan,Oakland,2021-01-05 20:01:29.463443,2020-10-27 00:00:00.000000,1.55577819,4.12379892,5.95242950,19565,51860,74856,10179,22396,31206,0.80942754,1.78088919,2.48146876,0.40462590,0.87603741,1.30968665
26125,0,USMichiganOakland,Michigan,Oakland,2021-01-05 20:01:29.463443,2020-10-28 00:00:00.000000,1.69693708,4.43070367,6.29420969,21340,55719,79154,10950,23868,33093,0.87079271,1.89795734,2.63154433,0.40144686,0.86274225,1.30949485
26125,0,USMichiganOakland,Michigan,Oakland,2021-01-05 20:01:29.463443,2020-10-29 00:00:00.000000,1.83879447,4.75686087,6.64504314,23124,59821,83566,11772,25411,35045,0.93610983,2.02063701,2.78670682,0.40355391,0.83492251,1.27035732
26125,0,USMichiganOakland,Michigan,Oakland,2021-01-05 20:01:29.463443,2020-10-30 00:00:00.000000,1.97049063,5.10197978,7.00368814,24780,64161,88077,12643,27024,37055,1.00541286,2.14889833,2.94655725,0.40885455,0.80371760,1.23930600
26125,0,USMichiganOakland,Michigan,Oakland,2021-01-05 20:01:29.463443,2020-10-31 00:00:00.000000,2.09979169,5.42479764,7.36868724,26406,68221,92667,13759,28706,40001,1.09411285,2.28265573,3.18085276,0.39324612,0.79209953,1.16438336
26125,0,USMichiganOakland,Michigan,Oakland,2021-01-05 20:01:29.463443,2020-11-01 00:00:00.000000,2.18213235,5.73428376,7.74672862,27442,72113,97421,14972,30455,42165,1.19057848,2.42176293,3.35288391,0.39152901,0.77525768,1.12671771
26125,0,USMichiganOakland,Michigan,Oakland,2021-01-05 20:01:29.463443,2020-11-02 00:00:00.000000,2.26876954,6.05188643,8.14901743,28531,76107,102480,16238,32269,44201,1.29124647,2.56600699,3.51480027,0.38987027,0.76108679,1.10422438
26125,0,USMichiganOakland,Michigan,Oakland,2021-01-05 20:01:29.463443,2020-11-03 00:00:00.000000,2.41609446,6.37654627,8.54810623,30384,80190,107499,16980,34144,46247,1.35027554,2.71509756,3.67749301,0.38585751,0.75666285,1.09388407
26125,0,USMichiganOakland,Michigan,Oakland,2021-01-05 20:01:29.463443,2020-11-04 00:00:00.000000,2.56963915,6.70695513,8.90315822,32315,84345,111964,17762,36080,48291,1.41243753,2.86907211,3.84001621,0.38029332,0.74470980,1.08997365
26125,0,USMichiganOakland,Michigan,Oakland,2021-01-05 20:01:29.463443,2020-11-05 00:00:00.000000,2.72942303,7.04161572,9.25326599,34324,88554,116367,18871,38058,50320,1.50062844,3.02628131,4.00134911,0.37457631,0.72601194,1.08608197
26125,0,USMichiganOakland,Michigan,Oakland,2021-01-05 20:01:29.463443,2020-11-06 00:00:00.000000,2.89531590,7.37883302,9.59476945,36411,92795,120662,19783,40084,52320,1.57311178,3.18739084,4.16040080,0.36888268,0.70044288,1.07295236
26125,0,USMichiganOakland,Michigan,Oakland,2021-01-05 20:01:29.463443,2020-11-07 00:00:00.000000,3.06694255,7.71671883,9.90993069,38569,97044,124625,20714,42146,54273,1.64718902,3.35137155,4.31571485,0.36296813,0.67369567,1.03805396
26125,0,USMichiganOakland,Michigan,Oakland,2021-01-05 20:01:29.463443,2020-11-08 00:00:00.000000,3.24417858,8.05320076,10.17784955,40798,101275,127995,21662,44235,56161,1.72252977,3.51750077,4.46585776,0.34220018,0.65137492,1.01741678
26125,0,USMichiganOakland,Michigan,Oakland,2021-01-05 20:01:29.463443,2020-11-09 00:00:00.000000,3.42885043,8.38349984,10.37000831,43120,105429,130411,22624,46191,57969,1.79905072,3.67306560,4.60956072,0.33461569,0.64015485,1.00435301
26125,0,USMichiganOakland,Michigan,Oakland,2021-01-05 20:01:29.463443,2020-11-10 00:00:00.000000,3.61876080,8.70507904,10.49845411,45508,109473,132026,23603,47919,59680,1.87691393,3.81043603,4.74560965,0.33167359,0.62284543,0.99827788
26125,0,USMichiganOakland,Michigan,Oakland,2021-01-05 20:01:29.463443,2020-11-11 00:00:00.000000,3.80775803,8.90539168,10.74273658,47885,111992,135098,24602,49548,61223,1.95635991,3.93996479,4.86833386,0.32082914,0.61223593,0.99666820
26125,0,USMichiganOakland,Michigan,Oakland,2021-01-05 20:01:29.463443,2020-11-12 00:00:00.000000,3.95949081,8.97411831,10.91732577,49793,112857,137294,25624,51117,62564,2.03756576,4.06470792,4.97496302,0.31010261,0.59838443,0.99550089
26125,0,USMichiganOakland,Michigan,Oakland,2021-01-05 20:01:29.463443,2020-11-13 00:00:00.000000,4.07050784,8.92656219,11.08735092,51190,112259,139432,26668,52593,64173,2.12058889,4.18206851,5.10290133,0.29981939,0.58806657,0.98944689
26125,0,USMichiganOakland,Michigan,Oakland,2021-01-05 20:01:29.463443,2020-11-14 00:00:00.000000,4.17336192,8.94397653,11.27582656,52483,112478,141802,27733,53842,65349,2.20532064,4.28140506,5.19644368,0.28937686,0.57630506,0.97737623
26125,0,USMichiganOakland,Michigan,Oakland,2021-01-05 20:01:29.463443,2020-11-15 00:00:00.000000,4.27158135,9.04890845,11.48572466,53718,113797,144442,28816,54926,67920,2.29142412,4.36760962,5.40084720,0.27688968,0.57119443,0.94848248
26125,0,USMichiganOakland,Michigan,Oakland,2021-01-05 20:01:29.463443,2020-11-16 00:00:00.000000,4.32410934,8.97716391,11.66714792,54379,112895,146724,29909,56080,69214,2.37832176,4.45937865,5.50373196,0.26273934,0.57506923,0.95846492
26125,0,USMichiganOakland,Michigan,Oakland,2021-01-05 20:01:29.463443,2020-11-17 00:00:00.000000,4.35272536,8.92359503,11.82647339,54739,112221,148727,30385,56493,70019,2.41620617,4.49218985,5.56775761,0.25566298,0.57411054,0.98575702
26125,0,USMichiganOakland,Michigan,Oakland,2021-01-05 20:01:29.463443,2020-11-18 00:00:00.000000,4.38091931,8.91147178,11.78107286,55093,112069,148156,31026,56607,70392,2.46718118,4.50131611,5.59740785,0.25092631,0.57322601,0.96689245
26125,0,USMichiganOakland,Michigan,Oakland,2021-01-05 20:01:29.463443,2020-11-19 00:00:00.000000,4.41016509,8.95422944,11.83583238,55461,112606,148845,31599,56640,70424,2.51274656,4.50392055,5.59996630,0.24854956,0.57388978,0.97867984
26125,0,USMichiganOakland,Michigan,Oakland,2021-01-05 20:01:29.463443,2020-11-20 00:00:00.000000,4.44080317,9.04997496,11.87607325,55846,113811,149351,32080,56512,70193,2.55096737,4.49377402,5.58158738,0.24468658,0.57557613,1.02312721
26125,0,USMichiganOakland,Michigan,Oakland,2021-01-05 20:01:29.463443,2020-11-21 00:00:00.000000,4.47199551,9.07297851,11.89338997,56239,114100,149569,32506,56273,69759,2.58481617,4.47473438,5.54707714,0.23483530,0.58132946,1.07745512
26125,0,USMichiganOakland,Michigan,Oakland,2021-01-05 20:01:29.463443,2020-11-22 00:00:00.000000,4.48201740,9.06086237,11.88912043,56365,113947,149515,32449,55948,69171,2.58032049,4.44887997,5.50033903,0.22105744,0.58196478,1.14947218
26125,0,USMichiganOakland,Michigan,Oakland,2021-01-05 20:01:29.463443,2020-11-23 00:00:00.000000,4.44662504,9.02335319,11.87001189,55920,113476,149275,32599,55521,68695,2.59226762,4.41493163,5.46251183,0.20115512,0.59225763,1.17945669
26125,0,USMichiganOakland,Michigan,Oakland,2021-01-05 20:01:29.463443,2020-11-24 00:00:00.000000,4.40544367,8.98601955,11.83560485,55402,113006,148842,32617,55393,69280,2.59366331,4.40471772,5.50902151,0.19698678,0.59208870,1.21341559
26125,0,USMichiganOakland,Michigan,Oakland,2021-01-05 20:01:29.463443,2020-11-25 00:00:00.000000,4.44190118,9.04411423,11.85100232,55860,113737,149036,32344,55178,69700,2.57196975,4.38765419,5.54244765,0.18850528,0.58451349,1.24645108
26125,0,USMichiganOakland,Michigan,Oakland,2021-01-05 20:01:29.463443,2020-11-26 00:00:00.000000,4.48395700,9.08561007,11.83172044,56389,114259,148793,32022,54931,69923,2.54636448,4.36801519,5.56014934,0.18649557,0.59300306,1.29081587
26125,0,USMichiganOakland,Michigan,Oakland,2021-01-05 20:01:29.463443,2020-11-27 00:00:00.000000,4.37864471,9.09794064,11.77812156,55065,114414,148119,31648,54750,69946,2.51661517,4.35361388,5.56195986,0.17261196,0.61206125,1.35868362
26125,0,USMichiganOakland,Michigan,Oakland,2021-01-05 20:01:29.463443,2020-11-28 00:00:00.000000,4.26848397,9.07039121,11.69088931,53679,114067,147022,31207,54376,69769,2.48151602,4.32385757,5.54789095,0.15926170,0.62323960,1.47403311
26125,0,USMichiganOakland,Michigan,Oakland,2021-01-05 20:01:29.463443,2020-11-29 00:00:00.000000,4.15501288,9.02178088,11.57109835,52252,113456,145516,30678,54159,69160,2.43951340,4.30660834,5.49947968,0.15698803,0.63329394,1.56537852
26125,0,USMichiganOakland,Michigan,Oakland,2021-01-05 20:01:29.463443,2020-11-30 00:00:00.000000,4.03984919,8.95239692,11.43264824,50804,112583,143775,30056,53788,67149,2.39003960,4.27713244,5.33956551,0.15516825,0.64049961,1.61426690
26125,0,USMichiganOakland,Michigan,Oakland,2021-01-05 20:01:29.463443,2020-12-01 00:00:00.000000,3.92487320,8.86318641,11.28255469,49358,111462,141887,29351,53406,65716,2.33396753,4.24675674,5.22559072,0.15363501,0.67483064,1.64071463
26125,0,USMichiganOakland,Michigan,Oakland,2021-01-05 20:01:29.463443,2020-12-02 00:00:00.000000,3.81133403,8.74334440,11.10665361,47930,109954,139675,28588,52993,65009,2.27332527,4.21390981,5.16941621,0.15255222,0.69177949,1.65367854
26125,0,USMichiganOakland,Michigan,Oakland,2021-01-05 20:01:29.463443,2020-12-03 00:00:00.000000,3.70058670,8.57024002,10.90654484,46537,107777,137158,27794,52376,64154,2.21013726,4.16488470,5.10139203,0.14980650,0.71837226,1.66931467
26125,0,USMichiganOakland,Michigan,Oakland,2021-01-05 20:01:29.463443,2020-12-04 00:00:00.000000,3.59481787,8.34799840,10.68408719,45207,104983,134361,27059,51571,63154,2.15171809,4.10081587,5.02191881,0.15099389,0.76809695,1.70154033
26125,0,USMichiganOakland,Michigan,Oakland,2021-01-05 20:01:29.463443,2020-12-05 00:00:00.000000,3.49679636,8.08990795,10.44132646,43975,101737,131308,26309,50675,62019,2.09204588,4.02956438,4.93162251,0.15098962,0.83697056,1.76637113
26125,0,USMichiganOakland,Michigan,Oakland,2021-01-05 20:01:29.463443,2020-12-06 00:00:00.000000,3.40735082,7.79196459,10.18043694,42850,97990,128027,25539,49538,60757,2.03085040,3.93914933,4.83128397,0.15740484,0.86964688,1.78704207
26125,0,USMichiganOakland,Michigan,Oakland,2021-01-05 20:01:29.463443,2020-12-07 00:00:00.000000,3.32474673,7.49134774,9.90094592,41811,94209,124512,24769,48269,59380,1.96961444,3.83824326,4.72179065,0.16146887,0.86821492,1.80222851
26125,0,USMichiganOakland,Michigan,Oakland,2021-01-05 20:01:29.463443,2020-12-08 00:00:00.000000,3.24665083,7.18946297,9.60756262,40829,90413,120823,24014,46697,58206,1.90955758,3.71326440,4.62846568,0.16510391,0.86624428,1.81036829
26125,0,USMichiganOakland,Michigan,Oakland,2021-01-05 20:01:29.463443,2020-12-09 00:00:00.000000,3.12292235,6.97521778,9.32907212,39273,87719,117320,23286,45245,56858,1.85168182,3.59782495,4.52123432,0.16975769,0.86555612,1.84867006
26125,0,USMichiganOakland,Michigan,Oakland,2021-01-05 20:01:29.463443,2020-12-10 00:00:00.000000,2.99480424,6.71555514,9.06019245,37662,84453,113939,22595,44013,54990,1.79673275,3.49983300,4.37273398,0.17534179,0.86599499,1.95621822
26125,0,USMichiganOakland,Michigan,Oakland,2021-01-05 20:01:29.463443,2020-12-11 00:00:00.000000,2.87184065,6.43029432,8.78200915,36115,80866,110441,21946,42612,53067,1.74515356,3.38845664,4.21978042,0.17123090,0.85325469,2.09482049
26125,0,USMichiganOakland,Michigan,Oakland,2021-01-05 20:01:29.463443,2020-12-12 00:00:00.000000,2.75953940,6.14750885,8.49645487,34703,77310,106850,21341,41349,51292,1.69705907,3.28797797,4.07868522,0.16705722,0.78803925,2.23174859
26125,0,USMichiganOakland,Michigan,Oakland,2021-01-05 20:01:29.463443,2020-12-13 00:00:00.000000,2.67130214,5.86839424,8.20541965,33593,73799,103190,20779,40057,49687,1.65236958,3.18529315,3.95106041,0.16457732,0.74138437,2.36705103
26125,0,USMichiganOakland,Michigan,Oakland,2021-01-05 20:01:29.463443,2020-12-14 00:00:00.000000,2.61347343,5.59373060,7.91032077,32866,70345,99478,20221,38857,48245,1.60792608,3.08988430,3.83639664,0.16288559,0.72061139,2.46977379
26125,0,USMichiganOakland,Michigan,Oakland,2021-01-05 20:01:29.463443,2020-12-15 00:00:00.000000,2.57175172,5.32472011,7.61328019,32341,66962,95743,19638,37400,46839,1.56158715,2.97401668,3.72456882,0.16225768,0.71321365,2.53391336
26125,0,USMichiganOakland,Michigan,Oakland,2021-01-05 20:01:29.463443,2020-12-16 00:00:00.000000,2.53648745,5.09321674,7.31585271,31898,64051,92002,19202,35819,45400,1.52689991,2.84825034,3.61017606,0.16359458,0.72011764,2.57594579
26125,0,USMichiganOakland,Michigan,Oakland,2021-01-05 20:01:29.463443,2020-12-17 00:00:00.000000,2.50466733,4.84444677,7.01944033,31498,60922,88275,18860,34588,43938,1.49976910,2.75040953,3.49390839,0.16880941,0.73224912,2.59248271
26125,0,USMichiganOakland,Michigan,Oakland,2021-01-05 20:01:29.463443,2020-12-18 00:00:00.000000,2.45307740,4.59871931,6.72528064,30849,57832,84576,18476,32992,42564,1.46920900,2.62350588,3.38461958,0.17331236,0.75026163,2.57882315
26125,0,USMichiganOakland,Michigan,Oakland,2021-01-05 20:01:29.463443,2020-12-19 00:00:00.000000,2.40154478,4.43210304,6.43448550,30201,55737,80919,18094,31425,41413,1.43886564,2.49884935,3.29311715,0.18140115,0.75588333,2.51459504
26125,0,USMichiganOakland,Michigan,Oakland,2021-01-05 20:01:29.463443,2020-12-20 00:00:00.000000,2.35635309,4.32850386,6.14806889,29633,54434,77317,17740,30246,40262,1.41067164,2.40516085,3.20160150,0.18421334,0.70946240,2.38948889
26125,0,USMichiganOakland,Michigan,Oakland,2021-01-05 20:01:29.463443,2020-12-21 00:00:00.000000,2.31512308,4.11487608,5.86697631,29114,51748,73782,17417,28858,39102,1.38496958,2.29472418,3.10935466,0.18461636,0.69191326,2.38335798
26125,0,USMichiganOakland,Michigan,Oakland,2021-01-05 20:01:29.463443,2020-12-22 00:00:00.000000,2.27624287,3.88660300,5.59199681,28625,48877,70324,17133,28098,38270,1.36239960,2.23431018,3.04321308,0.18468659,0.69051598,2.46259607
26125,0,USMichiganOakland,Michigan,Oakland,2021-01-05 20:01:29.463443,2020-12-23 00:00:00.000000,2.23883599,3.69435885,5.32297612,28155,46459,66940,16898,27333,37701,1.34371713,2.17346019,2.99792977,0.18456768,0.69639030,2.40236112
26125,0,USMichiganOakland,Michigan,Oakland,2021-01-05 20:01:29.463443,2020-12-24 00:00:00.000000,2.20265912,3.59169137,5.09901211,27700,45168,64124,16719,26433,36800,1.32946754,2.10194946,2.92631061,0.18412543,0.70586924,2.31973320
26125,0,USMichiganOakland,Michigan,Oakland,2021-01-05 20:01:29.463443,2020-12-25 00:00:00.000000,2.16828504,3.51787065,4.88136291,27268,44240,61387,16578,25270,36829,1.31828380,2.00942505,2.92862492,0.18260942,0.68395764,2.22999942
26125,0,USMichiganOakland,Michigan,Oakland,2021-01-05 20:01:29.463443,2020-12-26 00:00:00.000000,2.13733206,3.42872470,4.66826021,26878,43119,58707,16141,24155,36485,1.28353981,1.92075942,2.90127026,0.18790736,0.67834624,2.12753514
26125,0,USMichiganOakland,Michigan,Oakland,2021-01-05 20:01:29.463443,2020-12-27 00:00:00.000000,2.11115241,3.29347074,4.55043179,26549,41418,57225,15744,23043,36168,1.25197979,1.83239000,2.87605415,0.19277506,0.68173769,2.01914469
26125,0,USMichiganOakland,Michigan,Oakland,2021-01-05 20:01:29.463443,2020-12-28 00:00:00.000000,2.08853963,3.17682994,4.59223200,26265,39951,57751,15044,21989,35867,1.19626520,1.74858997,2.85206310,0.17692308,0.69091061,1.92472531
26125,0,USMichiganOakland,Michigan,Oakland,2021-01-05 20:01:29.463443,2020-12-29 00:00:00.000000,2.06772657,3.02989022,4.63387347,26003,38103,58274,14509,20852,35572,1.15375544,1.65815169,2.82860343,0.19045744,0.69321915,1.86067165
26125,0,USMichiganOakland,Michigan,Oakland,2021-01-05 20:01:29.463443,2020-12-30 00:00:00.000000,1.97213876,2.87815490,4.48264568,24801,36195,56373,14320,20047,35278,1.13872978,1.59414819,2.80522511,0.19039419,0.69628490,1.82106831
26125,0,USMichiganOakland,Michigan,Oakland,2021-01-05 20:01:29.463443,2020-12-31 00:00:00.000000,1.88731615,2.75715437,4.26664165,23734,34673,53656,14115,19056,34979,1.12242465,1.51535536,2.78147884,0.19439366,0.71510658,1.78753594
26125,0,USMichiganOakland,Michigan,Oakland,2021-01-05 20:01:29.463443,2021-01-01 00:00:00.000000,1.89601117,2.63009547,4.20602692,23843,33075,52894,13375,18364,34666,1.06357587,1.46032285,2.75657047,0.19123785,0.72073042,1.75507348
26125,0,USMichiganOakland,Michigan,Oakland,2021-01-05 20:01:29.463443,2021-01-02 00:00:00.000000,1.83975600,2.59338478,4.14412958,23136,32613,52115,12633,17747,34319,1.00460276,1.41127627,2.72901792,0.19419574,0.72220259,1.77167888
26125,0,USMichiganOakland,Michigan,Oakland,2021-01-05 20:01:29.463443,2021-01-03 00:00:00.000000,1.73533340,2.47259852,4.15401934,21823,31095,52240,11847,16929,33924,0.94210888,1.34619413,2.69762351,0.18735862,0.73270960,1.76539626
26125,0,USMichiganOakland,Michigan,Oakland,2021-01-05 20:01:29.463443,2021-01-04 00:00:00.000000,1.62502182,2.33145145,4.26297771,20436,29319,53610,11105,16559,33484,0.88309865,1.31677233,2.66259301,0.18935158,0.74702979,1.80781801
26125,0,USMichiganOakland,Michigan,Oakland,2021-01-05 20:01:29.463443,2021-01-05 00:00:00.000000,1.52116903,2.22223003,4.36258815,19129,27946,54863,10405,16099,33041,0.82743179,1.28015340,2.62735962,0.18387746,0.78788374,1.83536431
26125,0,USMichiganOakland,Michigan,Oakland,2021-01-05 20:01:29.463443,2021-01-06 00:00:00.000000,1.42347086,2.13487367,4.25428475,17901,26847,53501,9756,15330,33250,0.77582119,1.21901241,2.64397358,0.17923652,0.82468676,1.85813667
26125,0,USMichiganOakland,Michigan,Oakland,2021-01-05 20:01:29.463443,2021-01-07 00:00:00.000000,1.33162714,2.02635516,4.14853296,16746,25483,52171,9146,14843,33741,0.72734611,1.18035828,2.68303307,0.17832765,0.82991966,1.87101898
26125,0,USMichiganOakland,Michigan,Oakland,2021-01-05 20:01:29.463443,2021-01-08 00:00:00.000000,1.24646642,1.91249358,4.04483223,15675,24051,50867,8572,14283,34573,0.68169860,1.13578694,2.74916695,0.17816840,0.82909226,1.87802996
26125,0,USMichiganOakland,Michigan,Oakland,2021-01-05 20:01:29.463443,2021-01-09 00:00:00.000000,1.16698883,1.83370274,4.09896300,14675,23060,51547,8032,13625,35412,0.63874141,1.08347301,2.81587958,0.17810912,0.82876418,1.88176546
26125,0,USMichiganOakland,Michigan,Oakland,2021-01-05 20:01:29.463443,2021-01-10 00:00:00.000000,1.09235534,1.74281472,4.24264134,13737,21917,53354,7524,12893,35006,0.59834001,1.02526893,2.78362773,0.17808727,0.82863430,1.88373329
26125,0,USMichiganOakland,Michigan,Oakland,2021-01-05 20:01:29.463443,2021-01-11 00:00:00.000000,1.02230025,1.68561588,4.38980566,12856,21198,55205,7020,12194,34230,0.55828277,0.96970667,2.72194469,0.17807925,0.82858290,1.88476375
26125,0,USMichiganOakland,Michigan,Oakland,2021-01-05 20:01:29.463443,2021-01-12 00:00:00.000000,0.95290836,1.60262316,4.54000130,11983,20154,57094,6548,11528,34421,0.52068846,0.91672184,2.73709414,0.17807631,0.82856255,1.88530165
26125,0,USMichiganOakland,Michigan,Oakland,2021-01-05 20:01:29.463443,2021-01-13 00:00:00.000000,0.88803276,1.51237649,4.69086091,11167,19019,58991,6105,10893,34598,0.48550091,0.86624466,2.75116573,0.17807523,0.82855449,1.88558198
26125,0,USMichiganOakland,Michigan,Oakland,2021-01-05 20:01:29.463443,2021-01-14 00:00:00.000000,0.82865582,1.44105515,4.84399587,10421,18122,60917,5702,10410,34761,0.45346826,0.82778975,2.76412575,0.17807484,0.82855129,1.88572795
26125,0,USMichiganOakland,Michigan,Oakland,2021-01-05 20:01:29.463443,2021-01-15 00:00:00.000000,0.77367796,1.37287822,4.99930361,9729,17265,62870,5326,9982,34909,0.42358553,0.79376451,2.77594454,0.17807470,0.82855002,1.88580393
26125,0,USMichiganOakland,Michigan,Oakland,2021-01-05 20:01:29.463443,2021-01-16 00:00:00.000000,0.72222824,1.31321471,5.15653583,9082,16514,64847,4974,9571,35043,0.39559422,0.76110174,2.78659585,0.17807464,0.82854952,1.88584347
26125,0,USMichiganOakland,Michigan,Oakland,2021-01-05 20:01:29.463443,2021-01-17 00:00:00.000000,0.67409643,1.26894365,5.25032421,8477,15958,66027,4645,9269,35162,0.36938503,0.73712744,2.79605645,0.17807463,0.82854931,1.88586404
