FIPS,HR_UID,nameid,province,region,analysisTime,dates,pointprevalence_025,pointprevalence_50,pointprevalence_975,pointinfections_025,pointinfections_50,pointinfections_975,pointinfectious_025,pointinfectious_50,pointinfectious_975,pointinfectiousprevalence_05,pointinfectiousprevalence_50,pointinfectiousprevalence_95,infectrate_025,infectrate_50,infectrate_975
51015,0,USVirginiaAugusta,Virginia,Augusta,2021-01-05 07:37:59.003759,2020-03-09 00:00:00.000000,0.00115627,0.00468331,0.01643807,0,3,12,0,1,7,0.00065011,0.00252957,0.00946337,0.37678590,0.55187442,0.82631033
51015,0,USVirginiaAugusta,Virginia,Augusta,2021-01-05 07:37:59.003759,2020-03-10 00:00:00.000000,0.00126326,0.00540908,0.01782021,0,4,13,0,2,7,0.00061914,0.00265148,0.00987200,0.37678590,0.55187442,0.81734159
51015,0,USVirginiaAugusta,Virginia,Augusta,2021-01-05 07:37:59.003759,2020-03-11 00:00:00.000000,0.00136804,0.00607178,0.01929403,1,4,14,0,2,7,0.00061565,0.00287286,0.00999356,0.37678589,0.55187442,0.80570729
51015,0,USVirginiaAugusta,Virginia,Augusta,2021-01-05 07:37:59.003759,2020-03-12 00:00:00.000000,0.00147295,0.00677040,0.02084594,1,5,15,0,2,7,0.00063019,0.00310790,0.01007628,0.37678587,0.55187442,0.80482187
51015,0,USVirginiaAugusta,Virginia,Augusta,2021-01-05 07:37:59.003759,2020-03-13 00:00:00.000000,0.00157969,0.00744992,0.02248978,1,5,16,0,2,7,0.00065681,0.00330985,0.01054958,0.37678579,0.55187440,0.80362998
51015,0,USVirginiaAugusta,Virginia,Augusta,2021-01-05 07:37:59.003759,2020-03-14 00:00:00.000000,0.00168954,0.00809877,0.02423662,1,6,18,0,2,8,0.00069180,0.00361447,0.01155264,0.37678552,0.55187434,0.80179365
51015,0,USVirginiaAugusta,Virginia,Augusta,2021-01-05 07:37:59.003759,2020-03-15 00:00:00.000000,0.00180351,0.00873153,0.02609467,1,6,19,0,2,9,0.00073287,0.00395672,0.01266432,0.37678447,0.55187402,0.79898212
51015,0,USVirginiaAugusta,Virginia,Augusta,2021-01-05 07:37:59.003759,2020-03-16 00:00:00.000000,0.00334209,0.01093095,0.03280211,2,8,24,0,3,10,0.00077866,0.00428444,0.01387979,0.37678016,0.55119053,0.79468758
51015,0,USVirginiaAugusta,Virginia,Augusta,2021-01-05 07:37:59.003759,2020-03-17 00:00:00.000000,0.00547260,0.01390338,0.03820244,4,10,28,0,3,12,0.00120398,0.00517784,0.01592547,0.37676165,0.53936977,0.78788071
51015,0,USVirginiaAugusta,Virginia,Augusta,2021-01-05 07:37:59.003759,2020-03-18 00:00:00.000000,0.00624244,0.01698564,0.04226890,4,12,31,1,4,14,0.00156655,0.00617535,0.01854855,0.36936618,0.50387010,0.76989354
51015,0,USVirginiaAugusta,Virginia,Augusta,2021-01-05 07:37:59.003759,2020-03-19 00:00:00.000000,0.00705518,0.02013866,0.04657958,5,15,35,1,5,15,0.00231489,0.00733237,0.02097602,0.34290243,0.49634063,0.74710116
51015,0,USVirginiaAugusta,Virginia,Augusta,2021-01-05 07:37:59.003759,2020-03-20 00:00:00.000000,0.00791464,0.02284770,0.05222287,5,17,39,2,6,17,0.00326712,0.00860271,0.02315503,0.30908640,0.47870209,0.72916270
51015,0,USVirginiaAugusta,Virginia,Augusta,2021-01-05 07:37:59.003759,2020-03-21 00:00:00.000000,0.00882429,0.02537893,0.05852315,6,19,44,2,7,19,0.00390189,0.01017195,0.02549419,0.30437554,0.46811477,0.71610566
51015,0,USVirginiaAugusta,Virginia,Augusta,2021-01-05 07:37:59.003759,2020-03-22 00:00:00.000000,0.00982739,0.02804008,0.06350573,7,21,47,3,9,21,0.00438545,0.01197229,0.02797586,0.29952910,0.44586640,0.70686096
51015,0,USVirginiaAugusta,Virginia,Augusta,2021-01-05 07:37:59.003759,2020-03-23 00:00:00.000000,0.01479045,0.03271284,0.06905078,11,24,52,3,10,24,0.00490082,0.01359602,0.03206503,0.29945638,0.42649674,0.69191378
51015,0,USVirginiaAugusta,Virginia,Augusta,2021-01-05 07:37:59.003759,2020-03-24 00:00:00.000000,0.01576198,0.03762018,0.07622545,11,28,57,4,11,26,0.00638735,0.01524073,0.03550963,0.27784413,0.40967430,0.67356158
51015,0,USVirginiaAugusta,Virginia,Augusta,2021-01-05 07:37:59.003759,2020-03-25 00:00:00.000000,0.01663315,0.04225028,0.08373401,12,31,63,6,13,29,0.00797161,0.01758049,0.03935419,0.24825905,0.40364264,0.65375345
51015,0,USVirginiaAugusta,Virginia,Augusta,2021-01-05 07:37:59.003759,2020-03-26 00:00:00.000000,0.01746695,0.04650722,0.09161575,13,35,69,6,14,33,0.00880511,0.01952724,0.04368948,0.24051135,0.39170919,0.61063850
51015,0,USVirginiaAugusta,Virginia,Augusta,2021-01-05 07:37:59.003759,2020-03-27 00:00:00.000000,0.01959292,0.05163858,0.09989865,14,39,75,7,16,36,0.00962866,0.02217847,0.04862856,0.23606400,0.38219079,0.62586550
51015,0,USVirginiaAugusta,Virginia,Augusta,2021-01-05 07:37:59.003759,2020-03-28 00:00:00.000000,0.02144379,0.05567539,0.11552286,16,42,87,7,19,40,0.01045175,0.02516877,0.05370856,0.23420038,0.37148939,0.62163368
51015,0,USVirginiaAugusta,Virginia,Augusta,2021-01-05 07:37:59.003759,2020-03-29 00:00:00.000000,0.02360207,0.06024509,0.12356055,17,45,93,8,20,44,0.01106868,0.02761089,0.05888165,0.23304872,0.35764449,0.63703447
51015,0,USVirginiaAugusta,Virginia,Augusta,2021-01-05 07:37:59.003759,2020-03-30 00:00:00.000000,0.02746577,0.06469213,0.12902801,20,48,97,8,22,48,0.01160249,0.02992318,0.06412042,0.22877203,0.34495029,0.65080392
51015,0,USVirginiaAugusta,Virginia,Augusta,2021-01-05 07:37:59.003759,2020-03-31 00:00:00.000000,0.02904865,0.06922138,0.13434426,21,52,101,9,24,51,0.01286616,0.03286865,0.06878633,0.21813088,0.33626162,0.65542940
51015,0,USVirginiaAugusta,Virginia,Augusta,2021-01-05 07:37:59.003759,2020-04-01 00:00:00.000000,0.03063310,0.07403612,0.13941495,23,55,105,11,26,55,0.01459001,0.03546122,0.07303666,0.21828688,0.33050001,0.64554365
51015,0,USVirginiaAugusta,Virginia,Augusta,2021-01-05 07:37:59.003759,2020-04-02 00:00:00.000000,0.03221657,0.07915763,0.14423989,24,59,108,11,28,57,0.01533108,0.03793984,0.07672542,0.21693923,0.31935824,0.61463758
51015,0,USVirginiaAugusta,Virginia,Augusta,2021-01-05 07:37:59.003759,2020-04-03 00:00:00.000000,0.03378995,0.08391741,0.15079467,25,63,113,12,30,60,0.01609993,0.04006145,0.08007184,0.21276341,0.31174629,0.57005220
51015,0,USVirginiaAugusta,Virginia,Augusta,2021-01-05 07:37:59.003759,2020-04-04 00:00:00.000000,0.03534267,0.08902079,0.15728286,26,67,118,12,32,63,0.01688726,0.04239169,0.08431264,0.20312549,0.29937954,0.56008819
51015,0,USVirginiaAugusta,Virginia,Augusta,2021-01-05 07:37:59.003759,2020-04-05 00:00:00.000000,0.03687290,0.09322143,0.16352959,27,70,123,13,34,66,0.01768889,0.04523453,0.08794351,0.19704145,0.29478220,0.55343280
51015,0,USVirginiaAugusta,Virginia,Augusta,2021-01-05 07:37:59.003759,2020-04-06 00:00:00.000000,0.03963226,0.09900224,0.17014242,29,74,128,13,36,69,0.01850466,0.04825678,0.09148297,0.19774967,0.29079231,0.54087348
51015,0,USVirginiaAugusta,Virginia,Augusta,2021-01-05 07:37:59.003759,2020-04-07 00:00:00.000000,0.04237440,0.10264439,0.17805309,32,77,134,14,38,72,0.01964756,0.05089002,0.09560851,0.19051185,0.28520496,0.53466321
51015,0,USVirginiaAugusta,Virginia,Augusta,2021-01-05 07:37:59.003759,2020-04-08 00:00:00.000000,0.04513641,0.10687114,0.18639647,34,80,140,15,40,75,0.02100002,0.05398189,0.10018856,0.17934903,0.27631873,0.51582730
51015,0,USVirginiaAugusta,Virginia,Augusta,2021-01-05 07:37:59.003759,2020-04-09 00:00:00.000000,0.04792118,0.11192091,0.19389322,36,84,146,16,42,79,0.02249230,0.05664634,0.10461640,0.16358364,0.26671466,0.49743789
51015,0,USVirginiaAugusta,Virginia,Augusta,2021-01-05 07:37:59.003759,2020-04-10 00:00:00.000000,0.05072400,0.11767431,0.20140758,38,88,152,18,46,83,0.02408275,0.06089261,0.11040097,0.15278049,0.26338151,0.47538828
51015,0,USVirginiaAugusta,Virginia,Augusta,2021-01-05 07:37:59.003759,2020-04-11 00:00:00.000000,0.05355020,0.12240349,0.20958408,40,92,158,19,48,87,0.02574757,0.06385974,0.11527584,0.15067705,0.25121630,0.43840028
51015,0,USVirginiaAugusta,Virginia,Augusta,2021-01-05 07:37:59.003759,2020-04-12 00:00:00.000000,0.05641936,0.12492357,0.21788351,42,94,164,20,50,89,0.02747532,0.06633769,0.11849700,0.14978201,0.25151617,0.41880992
51015,0,USVirginiaAugusta,Virginia,Augusta,2021-01-05 07:37:59.003759,2020-04-13 00:00:00.000000,0.05852893,0.12826488,0.22715722,44,96,171,22,52,91,0.02926148,0.06894269,0.12163676,0.14943033,0.25245452,0.40481380
51015,0,USVirginiaAugusta,Virginia,Augusta,2021-01-05 07:37:59.003759,2020-04-14 00:00:00.000000,0.06078839,0.13109175,0.23359954,45,99,176,23,54,94,0.03127188,0.07185094,0.12446652,0.14929489,0.24935446,0.39614442
51015,0,USVirginiaAugusta,Virginia,Augusta,2021-01-05 07:37:59.003759,2020-04-15 00:00:00.000000,0.06319282,0.13207168,0.24113901,47,99,182,25,56,96,0.03343202,0.07463808,0.12709485,0.14924527,0.24799358,0.39347614
51015,0,USVirginiaAugusta,Virginia,Augusta,2021-01-05 07:37:59.003759,2020-04-16 00:00:00.000000,0.06570429,0.13546908,0.25107724,49,102,189,26,58,99,0.03568525,0.07701004,0.13120911,0.14923594,0.24621667,0.39249584
51015,0,USVirginiaAugusta,Virginia,Augusta,2021-01-05 07:37:59.003759,2020-04-17 00:00:00.000000,0.06828009,0.13976143,0.26043151,51,105,196,28,60,102,0.03790881,0.07959262,0.13562816,0.14926394,0.24757620,0.38266955
51015,0,USVirginiaAugusta,Virginia,Augusta,2021-01-05 07:37:59.003759,2020-04-18 00:00:00.000000,0.07089708,0.14493436,0.26694462,53,109,201,29,62,105,0.03870243,0.08215278,0.14010475,0.14921256,0.24217827,0.37627120
51015,0,USVirginiaAugusta,Virginia,Augusta,2021-01-05 07:37:59.003759,2020-04-19 00:00:00.000000,0.07366445,0.14939612,0.27281625,55,112,206,30,63,109,0.04045200,0.08412397,0.14452503,0.14942822,0.24155786,0.38107031
51015,0,USVirginiaAugusta,Virginia,Augusta,2021-01-05 07:37:59.003759,2020-04-20 00:00:00.000000,0.08178293,0.15228063,0.27743526,61,115,209,31,65,111,0.04206742,0.08631695,0.14753056,0.14993920,0.23996264,0.37619455
51015,0,USVirginiaAugusta,Virginia,Augusta,2021-01-05 07:37:59.003759,2020-04-21 00:00:00.000000,0.08342721,0.15812993,0.28461079,63,119,215,32,67,112,0.04356082,0.08967165,0.14930975,0.14926670,0.23623963,0.36494112
51015,0,USVirginiaAugusta,Virginia,Augusta,2021-01-05 07:37:59.003759,2020-04-22 00:00:00.000000,0.08507590,0.16083988,0.29191156,64,121,220,34,69,114,0.04529389,0.09230643,0.15125847,0.14443329,0.23345870,0.35579491
51015,0,USVirginiaAugusta,Virginia,Augusta,2021-01-05 07:37:59.003759,2020-04-23 00:00:00.000000,0.08724628,0.16604943,0.29648800,65,125,224,35,71,115,0.04723988,0.09502352,0.15328184,0.13674432,0.23188043,0.35197378
51015,0,USVirginiaAugusta,Virginia,Augusta,2021-01-05 07:37:59.003759,2020-04-24 00:00:00.000000,0.09046288,0.17109892,0.29981236,68,129,226,38,73,117,0.05086519,0.09778071,0.15529102,0.12778424,0.22954369,0.33922367
51015,0,USVirginiaAugusta,Virginia,Augusta,2021-01-05 07:37:59.003759,2020-04-25 00:00:00.000000,0.09365135,0.17599857,0.30677403,70,132,231,39,76,118,0.05231020,0.10113742,0.15733016,0.12560546,0.22876471,0.33674818
51015,0,USVirginiaAugusta,Virginia,Augusta,2021-01-05 07:37:59.003759,2020-04-26 00:00:00.000000,0.09681234,0.18148728,0.31769566,73,137,240,40,78,120,0.05332736,0.10377032,0.15930803,0.11465596,0.22731918,0.33968990
51015,0,USVirginiaAugusta,Virginia,Augusta,2021-01-05 07:37:59.003759,2020-04-27 00:00:00.000000,0.09809730,0.18616309,0.32491283,74,140,245,40,79,124,0.05401428,0.10495876,0.16509165,0.11265990,0.22763969,0.34748947
51015,0,USVirginiaAugusta,Virginia,Augusta,2021-01-05 07:37:59.003759,2020-04-28 00:00:00.000000,0.09937795,0.19082237,0.32889862,75,144,248,41,81,128,0.05525863,0.10746201,0.16960499,0.11207070,0.22407317,0.34806975
51015,0,USVirginiaAugusta,Virginia,Augusta,2021-01-05 07:37:59.003759,2020-04-29 00:00:00.000000,0.10059162,0.19495239,0.33633332,76,147,254,42,83,130,0.05596331,0.11012092,0.17302694,0.11251325,0.22155713,0.34785988
51015,0,USVirginiaAugusta,Virginia,Augusta,2021-01-05 07:37:59.003759,2020-04-30 00:00:00.000000,0.10173919,0.19870529,0.34864075,76,150,263,42,85,132,0.05659875,0.11289740,0.17557851,0.11511755,0.21646666,0.35936467
51015,0,USVirginiaAugusta,Virginia,Augusta,2021-01-05 07:37:59.003759,2020-05-01 00:00:00.000000,0.10291075,0.20196163,0.35508735,77,152,268,43,87,134,0.05713372,0.11525736,0.17856359,0.12106563,0.21566241,0.36313695
51015,0,USVirginiaAugusta,Virginia,Augusta,2021-01-05 07:37:59.003759,2020-05-02 00:00:00.000000,0.10576510,0.20654469,0.36036506,79,156,272,43,88,142,0.05758076,0.11693812,0.18864583,0.11788973,0.21482635,0.36207286
51015,0,USVirginiaAugusta,Virginia,Augusta,2021-01-05 07:37:59.003759,2020-05-03 00:00:00.000000,0.10868186,0.21064715,0.36504992,82,159,275,44,89,149,0.05853646,0.11842163,0.19823921,0.11712118,0.21008821,0.36057903
51015,0,USVirginiaAugusta,Virginia,Augusta,2021-01-05 07:37:59.003759,2020-05-04 00:00:00.000000,0.11135275,0.21270255,0.36906189,84,160,278,44,90,151,0.05945192,0.12035882,0.19996399,0.11699142,0.20633768,0.35902191
51015,0,USVirginiaAugusta,Virginia,Augusta,2021-01-05 07:37:59.003759,2020-05-05 00:00:00.000000,0.11301464,0.21275970,0.37305053,85,160,281,45,92,152,0.06033703,0.12224728,0.20185163,0.11695654,0.20434621,0.35490343
51015,0,USVirginiaAugusta,Virginia,Augusta,2021-01-05 07:37:59.003759,2020-05-06 00:00:00.000000,0.11449513,0.21226546,0.38278118,86,160,289,46,93,154,0.06120806,0.12357941,0.20382927,0.11690925,0.20392506,0.33303254
51015,0,USVirginiaAugusta,Virginia,Augusta,2021-01-05 07:37:59.003759,2020-05-07 00:00:00.000000,0.11610824,0.21255908,0.39155489,87,160,295,47,94,160,0.06343034,0.12562206,0.21223046,0.11600585,0.20185692,0.29215475
51015,0,USVirginiaAugusta,Virginia,Augusta,2021-01-05 07:37:59.003759,2020-05-08 00:00:00.000000,0.11968905,0.21699370,0.39908607,90,163,301,49,96,167,0.06610328,0.12779395,0.22124953,0.11051683,0.20069150,0.29377488
51015,0,USVirginiaAugusta,Virginia,Augusta,2021-01-05 07:37:59.003759,2020-05-09 00:00:00.000000,0.12407371,0.21966811,0.40616039,93,165,306,52,98,174,0.06884244,0.13016791,0.23040639,0.10680302,0.19815346,0.30469424
51015,0,USVirginiaAugusta,Virginia,Augusta,2021-01-05 07:37:59.003759,2020-05-10 00:00:00.000000,0.12820680,0.21898525,0.41403425,96,165,312,53,99,180,0.07031103,0.13181956,0.23899299,0.10503221,0.19908549,0.29774091
51015,0,USVirginiaAugusta,Virginia,Augusta,2021-01-05 07:37:59.003759,2020-05-11 00:00:00.000000,0.12776934,0.22054606,0.41602558,96,166,314,53,99,185,0.07132312,0.13225348,0.24608248,0.10638453,0.19571625,0.29836390
51015,0,USVirginiaAugusta,Virginia,Augusta,2021-01-05 07:37:59.003759,2020-05-12 00:00:00.000000,0.12947446,0.22106587,0.41725588,97,167,315,54,100,188,0.07193962,0.13310477,0.24972721,0.10609412,0.19128825,0.28854192
51015,0,USVirginiaAugusta,Virginia,Augusta,2021-01-05 07:37:59.003759,2020-05-13 00:00:00.000000,0.12923098,0.22217191,0.42014030,97,167,317,54,101,189,0.07234214,0.13401658,0.25054032,0.10610242,0.19391587,0.27442910
51015,0,USVirginiaAugusta,Virginia,Augusta,2021-01-05 07:37:59.003759,2020-05-14 00:00:00.000000,0.12758760,0.22529134,0.42945259,96,170,324,54,100,189,0.07265675,0.13304464,0.25075917,0.10647077,0.19283952,0.27357383
51015,0,USVirginiaAugusta,Virginia,Augusta,2021-01-05 07:37:59.003759,2020-05-15 00:00:00.000000,0.12609545,0.22522029,0.43906898,95,170,331,55,101,189,0.07296035,0.13443866,0.25059266,0.10752674,0.18975841,0.27358575
51015,0,USVirginiaAugusta,Virginia,Augusta,2021-01-05 07:37:59.003759,2020-05-16 00:00:00.000000,0.12500821,0.22700769,0.44918706,94,171,339,55,102,191,0.07329101,0.13628598,0.25292261,0.10918132,0.18831398,0.27361202
51015,0,USVirginiaAugusta,Virginia,Augusta,2021-01-05 07:37:59.003759,2020-05-17 00:00:00.000000,0.12445376,0.22899134,0.45243786,94,173,341,55,103,195,0.07348379,0.13642232,0.25861255,0.10838170,0.18392877,0.27362146
51015,0,USVirginiaAugusta,Virginia,Augusta,2021-01-05 07:37:59.003759,2020-05-18 00:00:00.000000,0.12453479,0.23074775,0.45115638,94,174,340,55,102,199,0.07284191,0.13621178,0.26459913,0.10654070,0.18246447,0.27352895
51015,0,USVirginiaAugusta,Virginia,Augusta,2021-01-05 07:37:59.003759,2020-05-19 00:00:00.000000,0.12457215,0.22985403,0.44921207,94,173,339,54,103,203,0.07222130,0.13639786,0.26889956,0.10571701,0.18255529,0.27344717
51015,0,USVirginiaAugusta,Virginia,Augusta,2021-01-05 07:37:59.003759,2020-05-20 00:00:00.000000,0.12457946,0.22779353,0.44637080,94,172,337,54,103,203,0.07161940,0.13647751,0.26921268,0.10559452,0.18028902,0.27486726
51015,0,USVirginiaAugusta,Virginia,Augusta,2021-01-05 07:37:59.003759,2020-05-21 00:00:00.000000,0.12457787,0.22569564,0.44201272,94,170,333,54,103,203,0.07200433,0.13678776,0.26874520,0.10654000,0.18163023,0.27738780
51015,0,USVirginiaAugusta,Virginia,Augusta,2021-01-05 07:37:59.003759,2020-05-22 00:00:00.000000,0.12457116,0.22362365,0.43597885,94,168,329,55,103,202,0.07283644,0.13687415,0.26772509,0.10651693,0.17952607,0.27035579
51015,0,USVirginiaAugusta,Virginia,Augusta,2021-01-05 07:37:59.003759,2020-05-23 00:00:00.000000,0.12455584,0.22163317,0.42836563,94,167,323,55,103,201,0.07368053,0.13690937,0.26622822,0.10919876,0.17718050,0.25921897
51015,0,USVirginiaAugusta,Virginia,Augusta,2021-01-05 07:37:59.003759,2020-05-24 00:00:00.000000,0.12446027,0.22151134,0.42993139,94,167,324,54,103,199,0.07243436,0.13656582,0.26438190,0.10754708,0.17708666,0.25948444
51015,0,USVirginiaAugusta,Virginia,Augusta,2021-01-05 07:37:59.003759,2020-05-25 00:00:00.000000,0.12457183,0.22285601,0.43106324,94,168,325,53,102,198,0.07116700,0.13534305,0.26230264,0.10463359,0.17853806,0.25875769
51015,0,USVirginiaAugusta,Virginia,Augusta,2021-01-05 07:37:59.003759,2020-05-26 00:00:00.000000,0.12467520,0.22412911,0.43136831,94,169,325,53,101,194,0.07040967,0.13390957,0.25758805,0.10248197,0.17741390,0.25931510
51015,0,USVirginiaAugusta,Virginia,Augusta,2021-01-05 07:37:59.003759,2020-05-27 00:00:00.000000,0.12493320,0.22737236,0.43113671,94,171,325,52,101,190,0.06999475,0.13490047,0.25237200,0.10135761,0.17636041,0.26468040
51015,0,USVirginiaAugusta,Virginia,Augusta,2021-01-05 07:37:59.003759,2020-05-28 00:00:00.000000,0.12661632,0.23236972,0.43059420,95,175,325,53,100,190,0.07023081,0.13307050,0.25157110,0.10048543,0.17468119,0.26792896
51015,0,USVirginiaAugusta,Virginia,Augusta,2021-01-05 07:37:59.003759,2020-05-29 00:00:00.000000,0.12939516,0.23496551,0.42439332,97,177,320,53,100,186,0.07133833,0.13263207,0.24649050,0.10220183,0.17562179,0.27217807
51015,0,USVirginiaAugusta,Virginia,Augusta,2021-01-05 07:37:59.003759,2020-05-30 00:00:00.000000,0.13226813,0.23468486,0.41062024,99,177,310,54,100,181,0.07263551,0.13291805,0.24061120,0.10559794,0.17869593,0.27311842
51015,0,USVirginiaAugusta,Virginia,Augusta,2021-01-05 07:37:59.003759,2020-05-31 00:00:00.000000,0.13144764,0.23399940,0.39651000,99,176,299,54,100,179,0.07232791,0.13344106,0.23718348,0.11003346,0.17649186,0.27556309
51015,0,USVirginiaAugusta,Virginia,Augusta,2021-01-05 07:37:59.003759,2020-06-01 00:00:00.000000,0.12653108,0.23521121,0.38735957,95,177,292,52,101,184,0.06964930,0.13469470,0.24352258,0.11384648,0.17761296,0.27864243
51015,0,USVirginiaAugusta,Virginia,Augusta,2021-01-05 07:37:59.003759,2020-06-02 00:00:00.000000,0.12186869,0.23516552,0.37842966,92,177,285,52,102,188,0.06891410,0.13610188,0.24966844,0.11426526,0.17400708,0.28028956
51015,0,USVirginiaAugusta,Virginia,Augusta,2021-01-05 07:37:59.003759,2020-06-03 00:00:00.000000,0.11749470,0.23288713,0.38039974,88,175,287,51,103,189,0.06780203,0.13688378,0.25105857,0.11350034,0.17434913,0.28007933
51015,0,USVirginiaAugusta,Virginia,Augusta,2021-01-05 07:37:59.003759,2020-06-04 00:00:00.000000,0.11474474,0.23138464,0.38906207,86,174,293,50,104,189,0.06655662,0.13790502,0.25026316,0.11326853,0.17933848,0.27813947
51015,0,USVirginiaAugusta,Virginia,Augusta,2021-01-05 07:37:59.003759,2020-06-05 00:00:00.000000,0.11355722,0.23175457,0.39772703,85,175,300,49,104,188,0.06539458,0.13820315,0.24932674,0.11245343,0.17797161,0.25968173
51015,0,USVirginiaAugusta,Virginia,Augusta,2021-01-05 07:37:59.003759,2020-06-06 00:00:00.000000,0.11273149,0.23157269,0.40629847,85,174,306,48,104,187,0.06443062,0.13820488,0.24829177,0.10997638,0.17800299,0.26957350
51015,0,USVirginiaAugusta,Virginia,Augusta,2021-01-05 07:37:59.003759,2020-06-07 00:00:00.000000,0.11208165,0.23597873,0.41463194,84,178,313,48,104,186,0.06366916,0.13888135,0.24693252,0.10944052,0.17739338,0.26348994
51015,0,USVirginiaAugusta,Virginia,Augusta,2021-01-05 07:37:59.003759,2020-06-08 00:00:00.000000,0.11377504,0.23583355,0.41496118,85,178,313,47,104,185,0.06306984,0.13884721,0.24550347,0.10926129,0.17487567,0.25911604
51015,0,USVirginiaAugusta,Virginia,Augusta,2021-01-05 07:37:59.003759,2020-06-09 00:00:00.000000,0.11552396,0.23784974,0.40561377,87,179,306,47,105,184,0.06307050,0.13897686,0.24426616,0.10931396,0.17116795,0.25365427
51015,0,USVirginiaAugusta,Virginia,Augusta,2021-01-05 07:37:59.003759,2020-06-10 00:00:00.000000,0.11736704,0.23594185,0.39631240,88,178,299,47,104,183,0.06346403,0.13804414,0.24318813,0.10963113,0.17040558,0.25116909
51015,0,USVirginiaAugusta,Virginia,Augusta,2021-01-05 07:37:59.003759,2020-06-11 00:00:00.000000,0.11926855,0.23366742,0.38715509,90,176,292,48,104,183,0.06411211,0.13774366,0.24224102,0.11040374,0.17108908,0.24916779
51015,0,USVirginiaAugusta,Virginia,Augusta,2021-01-05 07:37:59.003759,2020-06-12 00:00:00.000000,0.12123340,0.23368092,0.37816027,91,176,285,49,104,182,0.06492447,0.13840685,0.24139999,0.11168897,0.17244732,0.24900748
51015,0,USVirginiaAugusta,Virginia,Augusta,2021-01-05 07:37:59.003759,2020-06-13 00:00:00.000000,0.12337613,0.23327845,0.36838895,93,176,278,49,105,179,0.06584834,0.14025827,0.23716285,0.11301015,0.17409005,0.24822474
51015,0,USVirginiaAugusta,Virginia,Augusta,2021-01-05 07:37:59.003759,2020-06-14 00:00:00.000000,0.12604837,0.23108507,0.36254728,95,174,273,50,106,175,0.06687702,0.14097994,0.23163232,0.11354837,0.17475706,0.24551380
51015,0,USVirginiaAugusta,Virginia,Augusta,2021-01-05 07:37:59.003759,2020-06-15 00:00:00.000000,0.12694172,0.22732800,0.36340990,95,171,274,50,106,173,0.06622182,0.14086929,0.22992990,0.11306167,0.16927295,0.25023749
51015,0,USVirginiaAugusta,Virginia,Augusta,2021-01-05 07:37:59.003759,2020-06-16 00:00:00.000000,0.12664127,0.22714481,0.36429764,95,171,275,49,104,173,0.06542847,0.13868974,0.23010548,0.11295673,0.16788524,0.24863998
51015,0,USVirginiaAugusta,Virginia,Augusta,2021-01-05 07:37:59.003759,2020-06-17 00:00:00.000000,0.12636242,0.22403886,0.36360114,95,169,274,48,103,173,0.06482330,0.13683990,0.23010743,0.11330543,0.17009918,0.24511012
51015,0,USVirginiaAugusta,Virginia,Augusta,2021-01-05 07:37:59.003759,2020-06-18 00:00:00.000000,0.12386968,0.22478586,0.35900672,93,169,271,48,103,173,0.06436162,0.13680121,0.22995798,0.11228123,0.16991685,0.24626315
51015,0,USVirginiaAugusta,Virginia,Augusta,2021-01-05 07:37:59.003759,2020-06-19 00:00:00.000000,0.12149127,0.22719816,0.35471984,91,171,268,48,104,173,0.06400993,0.13818976,0.22953496,0.11206362,0.16978073,0.25406647
51015,0,USVirginiaAugusta,Virginia,Augusta,2021-01-05 07:37:59.003759,2020-06-20 00:00:00.000000,0.11922124,0.22650299,0.35583846,90,171,268,48,103,172,0.06374471,0.13644396,0.22839860,0.11154593,0.16874083,0.26115417
51015,0,USVirginiaAugusta,Virginia,Augusta,2021-01-05 07:37:59.003759,2020-06-21 00:00:00.000000,0.11707659,0.22406446,0.36249650,88,169,273,48,100,170,0.06355058,0.13321499,0.22614407,0.11020050,0.16502340,0.27036010
51015,0,USVirginiaAugusta,Virginia,Augusta,2021-01-05 07:37:59.003759,2020-06-22 00:00:00.000000,0.11773583,0.22197724,0.36589379,88,167,276,47,100,168,0.06342195,0.13257696,0.22290268,0.10867765,0.16554368,0.27314290
51015,0,USVirginiaAugusta,Virginia,Augusta,2021-01-05 07:37:59.003759,2020-06-23 00:00:00.000000,0.11727338,0.21903141,0.36842860,88,165,278,47,99,165,0.06337897,0.13183092,0.21928472,0.10870849,0.16889882,0.27811260
51015,0,USVirginiaAugusta,Virginia,Augusta,2021-01-05 07:37:59.003759,2020-06-24 00:00:00.000000,0.11707532,0.21678135,0.36787569,88,163,277,47,98,162,0.06343331,0.13007584,0.21553084,0.10900643,0.17286309,0.27903681
51015,0,USVirginiaAugusta,Virginia,Augusta,2021-01-05 07:37:59.003759,2020-06-25 00:00:00.000000,0.11710443,0.21476393,0.36886721,88,162,278,48,96,160,0.06358349,0.12778605,0.21180264,0.10992653,0.17774801,0.27652638
51015,0,USVirginiaAugusta,Virginia,Augusta,2021-01-05 07:37:59.003759,2020-06-26 00:00:00.000000,0.11734211,0.21388162,0.36748726,88,161,277,48,96,159,0.06381430,0.12749006,0.21141664,0.11201785,0.18195820,0.27114231
51015,0,USVirginiaAugusta,Virginia,Augusta,2021-01-05 07:37:59.003759,2020-06-27 00:00:00.000000,0.11775390,0.21312433,0.36590980,88,161,276,48,96,160,0.06410761,0.12745236,0.21277404,0.11202459,0.18233866,0.26668601
51015,0,USVirginiaAugusta,Virginia,Augusta,2021-01-05 07:37:59.003759,2020-06-28 00:00:00.000000,0.11828540,0.21487828,0.36497132,89,162,275,48,96,162,0.06445051,0.12745973,0.21450221,0.11211575,0.18305025,0.26575959
51015,0,USVirginiaAugusta,Virginia,Augusta,2021-01-05 07:37:59.003759,2020-06-29 00:00:00.000000,0.11533264,0.21472163,0.36737264,87,162,277,48,96,163,0.06484528,0.12749596,0.21573695,0.11229422,0.18330019,0.26570526
51015,0,USVirginiaAugusta,Virginia,Augusta,2021-01-05 07:37:59.003759,2020-06-30 00:00:00.000000,0.11732125,0.21571339,0.36959589,88,162,279,49,96,163,0.06565145,0.12731871,0.21684669,0.11405384,0.18453960,0.26548448
51015,0,USVirginiaAugusta,Virginia,Augusta,2021-01-05 07:37:59.003759,2020-07-01 00:00:00.000000,0.12484253,0.21859468,0.37179950,94,165,280,50,96,164,0.06678509,0.12795539,0.21785132,0.11645398,0.18793326,0.26505647
51015,0,USVirginiaAugusta,Virginia,Augusta,2021-01-05 07:37:59.003759,2020-07-02 00:00:00.000000,0.12866662,0.22250195,0.37403373,97,168,282,51,96,165,0.06816654,0.12752359,0.21877709,0.11894728,0.19237706,0.26472220
51015,0,USVirginiaAugusta,Virginia,Augusta,2021-01-05 07:37:59.003759,2020-07-03 00:00:00.000000,0.12739171,0.22560922,0.37637595,96,170,284,50,96,165,0.06739821,0.12826765,0.21964436,0.11943619,0.19427742,0.26447128
51015,0,USVirginiaAugusta,Virginia,Augusta,2021-01-05 07:37:59.003759,2020-07-04 00:00:00.000000,0.12764046,0.22928695,0.37892190,96,173,286,50,96,166,0.06628831,0.12823902,0.22046557,0.11927483,0.19297423,0.26410515
51015,0,USVirginiaAugusta,Virginia,Augusta,2021-01-05 07:37:59.003759,2020-07-05 00:00:00.000000,0.12880083,0.23080173,0.37850902,97,174,285,51,97,167,0.06861012,0.12900092,0.22123913,0.12450161,0.19386265,0.26743560
51015,0,USVirginiaAugusta,Virginia,Augusta,2021-01-05 07:37:59.003759,2020-07-06 00:00:00.000000,0.13117850,0.23125048,0.37272848,99,174,281,51,97,167,0.06831137,0.12929649,0.22192998,0.12424949,0.19736656,0.27807591
51015,0,USVirginiaAugusta,Virginia,Augusta,2021-01-05 07:37:59.003759,2020-07-07 00:00:00.000000,0.13373833,0.23501624,0.36685391,101,177,277,51,98,168,0.06857390,0.13042315,0.22292974,0.12422757,0.19816096,0.28339711
51015,0,USVirginiaAugusta,Virginia,Augusta,2021-01-05 07:37:59.003759,2020-07-08 00:00:00.000000,0.13643458,0.23721190,0.36106310,103,179,272,52,99,169,0.06923329,0.13204570,0.22415642,0.12423453,0.19905589,0.28904921
51015,0,USVirginiaAugusta,Virginia,Augusta,2021-01-05 07:37:59.003759,2020-07-09 00:00:00.000000,0.13932335,0.24106012,0.35542718,105,182,268,53,100,170,0.07016975,0.13303172,0.22553360,0.12280805,0.20005430,0.29714236
51015,0,USVirginiaAugusta,Virginia,Augusta,2021-01-05 07:37:59.003759,2020-07-10 00:00:00.000000,0.14275873,0.24354458,0.35633746,107,184,269,53,101,171,0.07099791,0.13426702,0.22700716,0.12046342,0.20185244,0.30147710
51015,0,USVirginiaAugusta,Virginia,Augusta,2021-01-05 07:37:59.003759,2020-07-11 00:00:00.000000,0.14506650,0.24733749,0.35955727,109,186,271,53,101,172,0.07062646,0.13454543,0.22853114,0.12018331,0.20562440,0.31144723
51015,0,USVirginiaAugusta,Virginia,Augusta,2021-01-05 07:37:59.003759,2020-07-12 00:00:00.000000,0.14390756,0.24664346,0.36361949,108,186,274,53,101,173,0.07031806,0.13457332,0.23002631,0.12419730,0.20825255,0.32323694
51015,0,USVirginiaAugusta,Virginia,Augusta,2021-01-05 07:37:59.003759,2020-07-13 00:00:00.000000,0.14256360,0.24783922,0.37108548,107,187,280,52,103,174,0.07014160,0.13698443,0.23141886,0.12010151,0.21144295,0.32599141
51015,0,USVirginiaAugusta,Virginia,Augusta,2021-01-05 07:37:59.003759,2020-07-14 00:00:00.000000,0.14122923,0.24914999,0.37840008,106,188,285,53,104,175,0.07068820,0.13810247,0.23215305,0.11428186,0.20972963,0.32642580
51015,0,USVirginiaAugusta,Virginia,Augusta,2021-01-05 07:37:59.003759,2020-07-15 00:00:00.000000,0.13995850,0.25173215,0.37584405,105,190,283,54,105,175,0.07169324,0.13988784,0.23224903,0.10940102,0.21230100,0.33113598
51015,0,USVirginiaAugusta,Virginia,Augusta,2021-01-05 07:37:59.003759,2020-07-16 00:00:00.000000,0.13891966,0.25391629,0.37212300,104,191,281,55,106,175,0.07293525,0.14129025,0.23178203,0.10892357,0.21605134,0.33732092
51015,0,USVirginiaAugusta,Virginia,Augusta,2021-01-05 07:37:59.003759,2020-07-17 00:00:00.000000,0.13862084,0.25793380,0.37498802,104,194,283,56,109,176,0.07426121,0.14472768,0.23352801,0.10925436,0.22035471,0.33746621
51015,0,USVirginiaAugusta,Virginia,Augusta,2021-01-05 07:37:59.003759,2020-07-18 00:00:00.000000,0.13961389,0.25983249,0.37946238,105,196,286,56,110,178,0.07480328,0.14601745,0.23638136,0.11352685,0.22934442,0.36456588
51015,0,USVirginiaAugusta,Virginia,Augusta,2021-01-05 07:37:59.003759,2020-07-19 00:00:00.000000,0.14150100,0.26185884,0.38726743,106,197,292,56,110,180,0.07501170,0.14676684,0.23955007,0.12748442,0.23383096,0.36365294
51015,0,USVirginiaAugusta,Virginia,Augusta,2021-01-05 07:37:59.003759,2020-07-20 00:00:00.000000,0.14858750,0.26862932,0.39237005,112,202,296,58,112,183,0.07707833,0.14887488,0.24306960,0.12837586,0.23523966,0.37170069
51015,0,USVirginiaAugusta,Virginia,Augusta,2021-01-05 07:37:59.003759,2020-07-21 00:00:00.000000,0.15594435,0.27649122,0.40401136,117,208,305,59,115,183,0.07908129,0.15299434,0.24243713,0.12872981,0.23544049,0.38192951
51015,0,USVirginiaAugusta,Virginia,Augusta,2021-01-05 07:37:59.003759,2020-07-22 00:00:00.000000,0.15552868,0.28264959,0.41399054,117,213,312,61,117,182,0.08128877,0.15487241,0.24206547,0.12888343,0.23644020,0.38657790
51015,0,USVirginiaAugusta,Virginia,Augusta,2021-01-05 07:37:59.003759,2020-07-23 00:00:00.000000,0.15269758,0.28955340,0.42801931,115,218,323,63,119,189,0.08384328,0.15785988,0.25088085,0.13560674,0.23628678,0.38866072
51015,0,USVirginiaAugusta,Virginia,Augusta,2021-01-05 07:37:59.003759,2020-07-24 00:00:00.000000,0.15504545,0.30008463,0.44083275,117,226,333,65,123,194,0.08674352,0.16366659,0.25720669,0.13782008,0.23935625,0.39023341
51015,0,USVirginiaAugusta,Virginia,Augusta,2021-01-05 07:37:59.003759,2020-07-25 00:00:00.000000,0.16161136,0.30685127,0.45428093,122,231,343,68,126,197,0.09047681,0.16774933,0.26103757,0.14339655,0.24636126,0.38528673
51015,0,USVirginiaAugusta,Virginia,Augusta,2021-01-05 07:37:59.003759,2020-07-26 00:00:00.000000,0.16870246,0.30835196,0.46856300,127,232,354,70,127,201,0.09302994,0.16845475,0.26706089,0.15557825,0.24724516,0.38472176
51015,0,USVirginiaAugusta,Virginia,Augusta,2021-01-05 07:37:59.003759,2020-07-27 00:00:00.000000,0.17238047,0.31153382,0.48100475,130,235,363,71,129,209,0.09509561,0.17175711,0.27738489,0.15656289,0.24629279,0.39045920
51015,0,USVirginiaAugusta,Virginia,Augusta,2021-01-05 07:37:59.003759,2020-07-28 00:00:00.000000,0.17624715,0.32142159,0.49379781,133,242,373,74,130,216,0.09801710,0.17296387,0.28634985,0.15715354,0.25214286,0.39674163
51015,0,USVirginiaAugusta,Virginia,Augusta,2021-01-05 07:37:59.003759,2020-07-29 00:00:00.000000,0.17997457,0.32025417,0.50510101,135,241,381,77,133,222,0.10195921,0.17627270,0.29422970,0.15499988,0.25646056,0.39455450
51015,0,USVirginiaAugusta,Virginia,Augusta,2021-01-05 07:37:59.003759,2020-07-30 00:00:00.000000,0.18335852,0.32676038,0.51794618,138,246,391,80,137,224,0.10598518,0.18259662,0.29695544,0.15189073,0.25564838,0.39697954
51015,0,USVirginiaAugusta,Virginia,Augusta,2021-01-05 07:37:59.003759,2020-07-31 00:00:00.000000,0.18656889,0.33146444,0.53328553,140,250,402,81,143,232,0.10839297,0.18975506,0.30715363,0.15205124,0.25943070,0.37847236
51015,0,USVirginiaAugusta,Virginia,Augusta,2021-01-05 07:37:59.003759,2020-08-01 00:00:00.000000,0.18976986,0.34537471,0.54821298,143,260,414,83,146,237,0.11062262,0.19446202,0.31479223,0.15451565,0.26312997,0.35428219
51015,0,USVirginiaAugusta,Virginia,Augusta,2021-01-05 07:37:59.003759,2020-08-02 00:00:00.000000,0.19300930,0.35310331,0.56014503,145,266,423,85,151,242,0.11274060,0.20058790,0.32052427,0.15336528,0.26667491,0.36081065
51015,0,USVirginiaAugusta,Virginia,Augusta,2021-01-05 07:37:59.003759,2020-08-03 00:00:00.000000,0.20345445,0.35837305,0.57389085,153,270,433,86,153,246,0.11479913,0.20304692,0.32565354,0.15115103,0.26772082,0.36604076
51015,0,USVirginiaAugusta,Virginia,Augusta,2021-01-05 07:37:59.003759,2020-08-04 00:00:00.000000,0.21392660,0.37052703,0.58591116,161,279,442,87,155,249,0.11589812,0.20631230,0.33084570,0.15445413,0.27150912,0.35259976
51015,0,USVirginiaAugusta,Virginia,Augusta,2021-01-05 07:37:59.003759,2020-08-05 00:00:00.000000,0.21774602,0.38318967,0.59769244,164,289,451,87,157,256,0.11619882,0.20804549,0.33934779,0.15673696,0.27435082,0.35242465
51015,0,USVirginiaAugusta,Virginia,Augusta,2021-01-05 07:37:59.003759,2020-08-06 00:00:00.000000,0.21543863,0.39288835,0.61223101,162,296,462,87,158,265,0.11557650,0.20994872,0.35130475,0.16424285,0.27524351,0.35164665
51015,0,USVirginiaAugusta,Virginia,Augusta,2021-01-05 07:37:59.003759,2020-08-07 00:00:00.000000,0.21293796,0.40486969,0.62750059,160,305,474,86,161,274,0.11474150,0.21392165,0.36365374,0.16783550,0.27718467,0.34142916
51015,0,USVirginiaAugusta,Virginia,Augusta,2021-01-05 07:37:59.003759,2020-08-08 00:00:00.000000,0.21015516,0.41196066,0.64308819,158,311,485,85,166,284,0.11373577,0.22010812,0.37636475,0.17009331,0.28034999,0.34760532
51015,0,USVirginiaAugusta,Virginia,Augusta,2021-01-05 07:37:59.003759,2020-08-09 00:00:00.000000,0.21420298,0.41540113,0.66994261,161,313,506,85,172,294,0.11256865,0.22783482,0.38938437,0.17312779,0.27562003,0.35212697
51015,0,USVirginiaAugusta,Virginia,Augusta,2021-01-05 07:37:59.003759,2020-08-10 00:00:00.000000,0.22249838,0.42020905,0.69437388,168,317,524,86,176,303,0.11494640,0.23337441,0.40233802,0.17538751,0.27492817,0.36492321
51015,0,USVirginiaAugusta,Virginia,Augusta,2021-01-05 07:37:59.003759,2020-08-11 00:00:00.000000,0.23109969,0.42870203,0.71702458,174,323,541,88,181,310,0.11646828,0.23960144,0.41106436,0.17770571,0.27925246,0.35918681
51015,0,USVirginiaAugusta,Virginia,Augusta,2021-01-05 07:37:59.003759,2020-08-12 00:00:00.000000,0.23995125,0.43763576,0.73237190,181,330,553,87,186,317,0.11592168,0.24633481,0.41981433,0.18244183,0.27977014,0.35938755
51015,0,USVirginiaAugusta,Virginia,Augusta,2021-01-05 07:37:59.003759,2020-08-13 00:00:00.000000,0.24570400,0.44666029,0.74613836,185,337,563,87,190,323,0.11599273,0.25276215,0.42856258,0.18758009,0.27861773,0.38571010
51015,0,USVirginiaAugusta,Virginia,Augusta,2021-01-05 07:37:59.003759,2020-08-14 00:00:00.000000,0.24906624,0.45692010,0.75988134,188,345,574,88,195,330,0.11672727,0.25877951,0.43738220,0.18529706,0.27690015,0.39712876
51015,0,USVirginiaAugusta,Virginia,Augusta,2021-01-05 07:37:59.003759,2020-08-15 00:00:00.000000,0.25256189,0.46837108,0.77700626,190,353,587,89,199,337,0.11815281,0.26406540,0.44610286,0.18008284,0.27630467,0.40882242
51015,0,USVirginiaAugusta,Virginia,Augusta,2021-01-05 07:37:59.003759,2020-08-16 00:00:00.000000,0.25891736,0.47923860,0.79431062,195,362,600,91,204,342,0.12067657,0.27124258,0.45395421,0.17843196,0.27476881,0.40594888
51015,0,USVirginiaAugusta,Virginia,Augusta,2021-01-05 07:37:59.003759,2020-08-17 00:00:00.000000,0.26876158,0.48148952,0.80509805,203,363,608,95,208,347,0.12682257,0.27651257,0.46024713,0.17820384,0.27379496,0.38493222
51015,0,USVirginiaAugusta,Virginia,Augusta,2021-01-05 07:37:59.003759,2020-08-18 00:00:00.000000,0.27147633,0.48595205,0.82070819,205,367,620,100,211,356,0.13270386,0.28018227,0.47128202,0.17756988,0.27338737,0.37413260
51015,0,USVirginiaAugusta,Virginia,Augusta,2021-01-05 07:37:59.003759,2020-08-19 00:00:00.000000,0.27155775,0.49353524,0.83606172,205,372,631,104,214,367,0.13854950,0.28397102,0.48684652,0.17784105,0.27139639,0.37365645
51015,0,USVirginiaAugusta,Virginia,Augusta,2021-01-05 07:37:59.003759,2020-08-20 00:00:00.000000,0.27123747,0.50517357,0.84831790,204,381,640,109,218,379,0.14448968,0.28927213,0.50266714,0.18065124,0.27048389,0.37341386
51015,0,USVirginiaAugusta,Virginia,Augusta,2021-01-05 07:37:59.003759,2020-08-21 00:00:00.000000,0.27146768,0.51776907,0.87274572,205,391,659,108,221,391,0.14421516,0.29343993,0.51877862,0.18058820,0.26764650,0.37325478
51015,0,USVirginiaAugusta,Virginia,Augusta,2021-01-05 07:37:59.003759,2020-08-22 00:00:00.000000,0.27134654,0.52956119,0.89749782,205,400,678,107,227,404,0.14176471,0.30158671,0.53520902,0.17965406,0.26706509,0.37292663
51015,0,USVirginiaAugusta,Virginia,Augusta,2021-01-05 07:37:59.003759,2020-08-23 00:00:00.000000,0.27267451,0.53972163,0.92244761,206,407,696,107,232,417,0.14254236,0.30706370,0.55197504,0.17897808,0.26776552,0.38055856
51015,0,USVirginiaAugusta,Virginia,Augusta,2021-01-05 07:37:59.003759,2020-08-24 00:00:00.000000,0.27865842,0.55009975,0.93820670,210,415,708,110,235,427,0.14636012,0.31104444,0.56567499,0.17854202,0.26703380,0.39573576
51015,0,USVirginiaAugusta,Virginia,Augusta,2021-01-05 07:37:59.003759,2020-08-25 00:00:00.000000,0.28550126,0.56264170,0.95426023,215,425,721,113,237,435,0.15085271,0.31414890,0.57627719,0.17830983,0.26745970,0.38390085
51015,0,USVirginiaAugusta,Virginia,Augusta,2021-01-05 07:37:59.003759,2020-08-26 00:00:00.000000,0.29321295,0.57478405,0.97109518,221,434,733,117,238,443,0.15580115,0.31593866,0.58711762,0.17831504,0.26744263,0.37112956
51015,0,USVirginiaAugusta,Virginia,Augusta,2021-01-05 07:37:59.003759,2020-08-27 00:00:00.000000,0.30228646,0.58311647,0.99283333,228,440,750,121,240,451,0.16105261,0.31781137,0.59803007,0.17841106,0.26526353,0.37849507
51015,0,USVirginiaAugusta,Virginia,Augusta,2021-01-05 07:37:59.003759,2020-08-28 00:00:00.000000,0.31275542,0.59157443,1.01120459,236,446,764,125,242,460,0.16650612,0.32103731,0.60889300,0.17918100,0.26758568,0.39284274
51015,0,USVirginiaAugusta,Virginia,Augusta,2021-01-05 07:37:59.003759,2020-08-29 00:00:00.000000,0.32411926,0.60006987,1.02617643,244,453,775,129,249,465,0.17184207,0.32970775,0.61557435,0.18131346,0.26685896,0.38406640
51015,0,USVirginiaAugusta,Virginia,Augusta,2021-01-05 07:37:59.003759,2020-08-30 00:00:00.000000,0.33614586,0.60853249,1.04037820,253,459,786,134,254,464,0.17752819,0.33733143,0.61479794,0.18588844,0.26762851,0.37133528
51015,0,USVirginiaAugusta,Virginia,Augusta,2021-01-05 07:37:59.003759,2020-08-31 00:00:00.000000,0.34941200,0.61318275,1.06256772,264,463,802,138,260,461,0.18269731,0.34459441,0.61090855,0.18986164,0.26709302,0.37185744
51015,0,USVirginiaAugusta,Virginia,Augusta,2021-01-05 07:37:59.003759,2020-09-01 00:00:00.000000,0.35713022,0.61895061,1.06976472,269,467,808,140,265,456,0.18643743,0.35164459,0.60454205,0.18003130,0.26050959,0.37196064
51015,0,USVirginiaAugusta,Virginia,Augusta,2021-01-05 07:37:59.003759,2020-09-02 00:00:00.000000,0.36511350,0.62168756,1.05803273,275,469,799,142,269,465,0.18911760,0.35650131,0.61558410,0.17176617,0.26257534,0.37491229
51015,0,USVirginiaAugusta,Virginia,Augusta,2021-01-05 07:37:59.003759,2020-09-03 00:00:00.000000,0.37327522,0.63062517,1.06273150,282,476,802,148,274,475,0.19697067,0.36359264,0.62925885,0.16703687,0.25852146,0.38021523
51015,0,USVirginiaAugusta,Virginia,Augusta,2021-01-05 07:37:59.003759,2020-09-04 00:00:00.000000,0.38156482,0.64184536,1.06601019,288,484,805,153,276,485,0.20261648,0.36577491,0.64252450,0.16596868,0.25776796,0.37876628
51015,0,USVirginiaAugusta,Virginia,Augusta,2021-01-05 07:37:59.003759,2020-09-05 00:00:00.000000,0.38988850,0.65414506,1.08005657,294,494,816,156,275,495,0.20713016,0.36512952,0.65564296,0.16603774,0.26154224,0.38122589
51015,0,USVirginiaAugusta,Virginia,Augusta,2021-01-05 07:37:59.003759,2020-09-06 00:00:00.000000,0.39803247,0.66304601,1.11263452,300,500,840,159,278,505,0.21165056,0.36881594,0.66939413,0.16632191,0.26066816,0.37980557
51015,0,USVirginiaAugusta,Virginia,Augusta,2021-01-05 07:37:59.003759,2020-09-07 00:00:00.000000,0.40707029,0.66646785,1.14531071,307,503,865,163,283,517,0.21622648,0.37516885,0.68451388,0.16799096,0.26286310,0.38133577
51015,0,USVirginiaAugusta,Virginia,Augusta,2021-01-05 07:37:59.003759,2020-09-08 00:00:00.000000,0.42038664,0.67777640,1.17826331,317,512,890,166,288,529,0.22089123,0.38149329,0.70053842,0.16843396,0.26277830,0.38203151
51015,0,USVirginiaAugusta,Virginia,Augusta,2021-01-05 07:37:59.003759,2020-09-09 00:00:00.000000,0.43139969,0.69074276,1.21135108,325,521,915,167,291,541,0.22229084,0.38567743,0.71612772,0.16830911,0.26433664,0.38251051
51015,0,USVirginiaAugusta,Virginia,Augusta,2021-01-05 07:37:59.003759,2020-09-10 00:00:00.000000,0.43814973,0.70371169,1.23309611,331,531,931,168,295,551,0.22366765,0.39141131,0.73025464,0.16830408,0.26357118,0.38308019
51015,0,USVirginiaAugusta,Virginia,Augusta,2021-01-05 07:37:59.003759,2020-09-11 00:00:00.000000,0.44055445,0.71398526,1.22829694,332,539,928,170,302,558,0.22503557,0.40003955,0.73965618,0.16834019,0.26260187,0.38386386
51015,0,USVirginiaAugusta,Virginia,Augusta,2021-01-05 07:37:59.003759,2020-09-12 00:00:00.000000,0.44302397,0.72854612,1.22102046,334,550,922,173,308,564,0.22923813,0.40881022,0.74675220,0.16851629,0.25651549,0.38551609
51015,0,USVirginiaAugusta,Virginia,Augusta,2021-01-05 07:37:59.003759,2020-09-13 00:00:00.000000,0.44556788,0.74684002,1.21149284,336,564,915,178,316,565,0.23679687,0.41912055,0.74828167,0.16908949,0.25566846,0.38623438
51015,0,USVirginiaAugusta,Virginia,Augusta,2021-01-05 07:37:59.003759,2020-09-14 00:00:00.000000,0.45621761,0.75463146,1.22313801,344,570,924,184,324,565,0.24466118,0.42982866,0.74894358,0.17018619,0.25715504,0.37899785
51015,0,USVirginiaAugusta,Virginia,Augusta,2021-01-05 07:37:59.003759,2020-09-15 00:00:00.000000,0.46710199,0.76110306,1.23464380,352,575,932,187,331,566,0.24861866,0.43845124,0.74928794,0.17092562,0.25929673,0.37607169
51015,0,USVirginiaAugusta,Virginia,Augusta,2021-01-05 07:37:59.003759,2020-09-16 00:00:00.000000,0.47871037,0.76407880,1.24560458,361,577,941,191,338,566,0.25280618,0.44753220,0.74951545,0.16967855,0.26488564,0.37577428
51015,0,USVirginiaAugusta,Virginia,Augusta,2021-01-05 07:37:59.003759,2020-09-17 00:00:00.000000,0.49175612,0.77482424,1.25928296,371,585,951,194,344,566,0.25764452,0.45647646,0.74984424,0.16319975,0.26435905,0.37575331
51015,0,USVirginiaAugusta,Virginia,Augusta,2021-01-05 07:37:59.003759,2020-09-18 00:00:00.000000,0.49440131,0.78834113,1.28247618,373,595,969,198,351,567,0.26328808,0.46496008,0.75055450,0.15806364,0.26990269,0.37578928
51015,0,USVirginiaAugusta,Virginia,Augusta,2021-01-05 07:37:59.003759,2020-09-19 00:00:00.000000,0.49474507,0.80096928,1.30208115,373,605,983,203,357,568,0.26963765,0.47266204,0.75198884,0.15878889,0.27642764,0.37573487
51015,0,USVirginiaAugusta,Virginia,Augusta,2021-01-05 07:37:59.003759,2020-09-20 00:00:00.000000,0.50986427,0.81345478,1.31571067,385,614,994,209,356,570,0.27661836,0.47241910,0.75446284,0.16199794,0.26998539,0.37529141
51015,0,USVirginiaAugusta,Virginia,Augusta,2021-01-05 07:37:59.003759,2020-09-21 00:00:00.000000,0.52906459,0.82655205,1.32345093,399,624,999,209,357,572,0.27694090,0.47345511,0.75813095,0.16581629,0.26592001,0.37843633
51015,0,USVirginiaAugusta,Virginia,Augusta,2021-01-05 07:37:59.003759,2020-09-22 00:00:00.000000,0.53824978,0.83625564,1.35201312,406,631,1021,210,362,576,0.27852349,0.48006917,0.76264431,0.16804466,0.26545842,0.37487398
51015,0,USVirginiaAugusta,Virginia,Augusta,2021-01-05 07:37:59.003759,2020-09-23 00:00:00.000000,0.54330906,0.84611793,1.37403905,410,639,1038,213,368,580,0.28224227,0.48734774,0.76792297,0.16365800,0.26615893,0.38184761
51015,0,USVirginiaAugusta,Virginia,Augusta,2021-01-05 07:37:59.003759,2020-09-24 00:00:00.000000,0.54829999,0.86206226,1.37810464,414,651,1041,218,374,584,0.28891005,0.49594508,0.77380425,0.16237653,0.26250419,0.38269677
51015,0,USVirginiaAugusta,Virginia,Augusta,2021-01-05 07:37:59.003759,2020-09-25 00:00:00.000000,0.55285472,0.87158284,1.39350978,417,658,1052,223,386,600,0.29547792,0.51213158,0.79419975,0.16931729,0.25723421,0.38050169
51015,0,USVirginiaAugusta,Virginia,Augusta,2021-01-05 07:37:59.003759,2020-09-26 00:00:00.000000,0.55512196,0.88264933,1.40178882,419,666,1059,228,390,619,0.30202567,0.51742084,0.81979400,0.16851079,0.25889749,0.37632930
51015,0,USVirginiaAugusta,Virginia,Augusta,2021-01-05 07:37:59.003759,2020-09-27 00:00:00.000000,0.55881613,0.90036603,1.40102434,422,680,1058,233,394,638,0.30860104,0.52210956,0.84491389,0.16652129,0.25872001,0.38162001
51015,0,USVirginiaAugusta,Virginia,Augusta,2021-01-05 07:37:59.003759,2020-09-28 00:00:00.000000,0.56059622,0.92474007,1.40991865,423,698,1065,238,398,640,0.31523801,0.52699683,0.84823587,0.16307584,0.25838159,0.39494322
51015,0,USVirginiaAugusta,Virginia,Augusta,2021-01-05 07:37:59.003759,2020-09-29 00:00:00.000000,0.56212966,0.93834659,1.42260480,424,708,1074,241,405,641,0.31973667,0.53627894,0.84853180,0.15947979,0.25703315,0.39791473
51015,0,USVirginiaAugusta,Virginia,Augusta,2021-01-05 07:37:59.003759,2020-09-30 00:00:00.000000,0.56349180,0.94370396,1.43242171,425,713,1082,248,410,640,0.32856545,0.54334070,0.84832861,0.15892086,0.26057154,0.40230567
51015,0,USVirginiaAugusta,Virginia,Augusta,2021-01-05 07:37:59.003759,2020-10-01 00:00:00.000000,0.56471861,0.95644928,1.46465779,426,722,1106,255,417,640,0.33797437,0.55281154,0.84778162,0.15868254,0.26165027,0.39818920
51015,0,USVirginiaAugusta,Virginia,Augusta,2021-01-05 07:37:59.003759,2020-10-02 00:00:00.000000,0.56594724,0.97325826,1.48445269,427,735,1121,259,422,649,0.34369415,0.55886167,0.85938588,0.15816195,0.26730521,0.39815526
51015,0,USVirginiaAugusta,Virginia,Augusta,2021-01-05 07:37:59.003759,2020-10-03 00:00:00.000000,0.57692420,0.98800936,1.50449503,435,746,1136,264,424,658,0.34965848,0.56218045,0.87200356,0.15763062,0.27062594,0.39809824
51015,0,USVirginiaAugusta,Virginia,Augusta,2021-01-05 07:37:59.003759,2020-10-04 00:00:00.000000,0.59472770,1.00830684,1.52493153,449,761,1152,265,424,668,0.35181861,0.56156387,0.88428152,0.15715982,0.27165273,0.39802174
51015,0,USVirginiaAugusta,Virginia,Augusta,2021-01-05 07:37:59.003759,2020-10-05 00:00:00.000000,0.61127177,1.02916933,1.60952457,461,777,1216,266,429,681,0.35280518,0.56801414,0.90253812,0.15676778,0.26976868,0.39790881
51015,0,USVirginiaAugusta,Virginia,Augusta,2021-01-05 07:37:59.003759,2020-10-06 00:00:00.000000,0.62810574,1.04564789,1.69543765,474,790,1281,265,436,711,0.35086241,0.57734707,0.94181687,0.15649273,0.27430758,0.38999025
51015,0,USVirginiaAugusta,Virginia,Augusta,2021-01-05 07:37:59.003759,2020-10-07 00:00:00.000000,0.64490278,1.06280303,1.74022434,487,803,1314,265,439,721,0.35198702,0.58159549,0.95546856,0.15661685,0.27400376,0.37777889
51015,0,USVirginiaAugusta,Virginia,Augusta,2021-01-05 07:37:59.003759,2020-10-08 00:00:00.000000,0.66140073,1.08177752,1.78477873,499,817,1348,268,445,732,0.35587226,0.58982351,0.96898130,0.17758772,0.27736832,0.41300812
51015,0,USVirginiaAugusta,Virginia,Augusta,2021-01-05 07:37:59.003759,2020-10-09 00:00:00.000000,0.67753895,1.10188379,1.82979523,511,832,1382,275,452,742,0.36463039,0.59901005,0.98303352,0.17706730,0.28102945,0.42454489
51015,0,USVirginiaAugusta,Virginia,Augusta,2021-01-05 07:37:59.003759,2020-10-10 00:00:00.000000,0.69350618,1.12288417,1.87541754,523,848,1417,282,461,753,0.37355488,0.61056491,0.99758599,0.17706325,0.28235652,0.42605397
51015,0,USVirginiaAugusta,Virginia,Augusta,2021-01-05 07:37:59.003759,2020-10-11 00:00:00.000000,0.70952902,1.14473380,1.92181473,536,864,1452,289,471,765,0.38256729,0.62336400,1.01260977,0.17624195,0.28401575,0.42620756
51015,0,USVirginiaAugusta,Virginia,Augusta,2021-01-05 07:37:59.003759,2020-10-12 00:00:00.000000,0.72625578,1.17310984,1.96877095,548,886,1487,294,482,769,0.38985094,0.63809856,1.01841953,0.17652098,0.28589190,0.42603684
51015,0,USVirginiaAugusta,Virginia,Augusta,2021-01-05 07:37:59.003759,2020-10-13 00:00:00.000000,0.74315540,1.19506419,2.01599657,561,902,1523,299,498,772,0.39604427,0.66036851,1.02243106,0.17748476,0.28874157,0.42547493
51015,0,USVirginiaAugusta,Virginia,Augusta,2021-01-05 07:37:59.003759,2020-10-14 00:00:00.000000,0.76012202,1.22553724,2.06405992,574,925,1559,304,506,775,0.40330034,0.67040483,1.02616328,0.17895390,0.29556858,0.42390982
51015,0,USVirginiaAugusta,Virginia,Augusta,2021-01-05 07:37:59.003759,2020-10-15 00:00:00.000000,0.77697848,1.25564957,2.11295138,587,948,1596,310,516,784,0.41128465,0.68365036,1.03772497,0.18269453,0.30402179,0.41978601
51015,0,USVirginiaAugusta,Virginia,Augusta,2021-01-05 07:37:59.003759,2020-10-16 00:00:00.000000,0.79375629,1.28931119,2.15436043,599,974,1627,317,526,799,0.42009988,0.69629213,1.05872945,0.19362935,0.31013197,0.42509437
51015,0,USVirginiaAugusta,Virginia,Augusta,2021-01-05 07:37:59.003759,2020-10-17 00:00:00.000000,0.81077710,1.32457520,2.18959240,612,1000,1654,324,540,822,0.42997668,0.71553969,1.08833756,0.20772044,0.31794656,0.44182351
51015,0,USVirginiaAugusta,Virginia,Augusta,2021-01-05 07:37:59.003759,2020-10-18 00:00:00.000000,0.82855810,1.35705519,2.22651570,626,1025,1682,333,554,848,0.44078538,0.73345398,1.12250359,0.21803328,0.31903675,0.45314638
51015,0,USVirginiaAugusta,Virginia,Augusta,2021-01-05 07:37:59.003759,2020-10-19 00:00:00.000000,0.85093781,1.38139812,2.27481970,642,1043,1718,341,569,876,0.45239981,0.75346056,1.16051891,0.21835927,0.32698924,0.45694289
51015,0,USVirginiaAugusta,Virginia,Augusta,2021-01-05 07:37:59.003759,2020-10-20 00:00:00.000000,0.90358150,1.40604507,2.32535948,682,1062,1756,354,586,905,0.46897058,0.77683698,1.19822552,0.21841650,0.33333431,0.45713373
51015,0,USVirginiaAugusta,Virginia,Augusta,2021-01-05 07:37:59.003759,2020-10-21 00:00:00.000000,0.91622140,1.44015895,2.37908062,692,1088,1797,362,603,932,0.47922314,0.79869643,1.23467761,0.21848798,0.33682335,0.46565596
51015,0,USVirginiaAugusta,Virginia,Augusta,2021-01-05 07:37:59.003759,2020-10-22 00:00:00.000000,0.92945298,1.47758247,2.43748750,702,1116,1841,370,614,957,0.48988320,0.81345475,1.26722617,0.21879193,0.33620231,0.49216159
51015,0,USVirginiaAugusta,Virginia,Augusta,2021-01-05 07:37:59.003759,2020-10-23 00:00:00.000000,0.94361294,1.53372872,2.50345637,712,1158,1891,375,627,978,0.49656518,0.82987381,1.29530893,0.22033005,0.34019155,0.49731854
51015,0,USVirginiaAugusta,Virginia,Augusta,2021-01-05 07:37:59.003759,2020-10-24 00:00:00.000000,0.97586530,1.57622533,2.58113316,737,1190,1950,382,642,997,0.50673527,0.85000092,1.31988632,0.22787375,0.34362797,0.49787121
51015,0,USVirginiaAugusta,Virginia,Augusta,2021-01-05 07:37:59.003759,2020-10-25 00:00:00.000000,1.01860431,1.63316885,2.67390758,769,1233,2020,400,655,1026,0.52941335,0.86800193,1.35883208,0.23850655,0.35854525,0.50195194
51015,0,USVirginiaAugusta,Virginia,Augusta,2021-01-05 07:37:59.003759,2020-10-26 00:00:00.000000,1.06791324,1.69928588,2.77744887,806,1283,2098,412,668,1070,0.54578645,0.88540550,1.41639700,0.25009981,0.36587213,0.51505326
51015,0,USVirginiaAugusta,Virginia,Augusta,2021-01-05 07:37:59.003759,2020-10-27 00:00:00.000000,1.11631210,1.76328405,2.89316241,843,1332,2186,422,691,1116,0.55931436,0.91504102,1.47713607,0.26108952,0.37393816,0.51949129
51015,0,USVirginiaAugusta,Virginia,Augusta,2021-01-05 07:37:59.003759,2020-10-28 00:00:00.000000,1.14803557,1.81132940,3.01788876,867,1368,2280,434,717,1164,0.57464568,0.95018009,1.54072853,0.26610739,0.37145463,0.53994179
51015,0,USVirginiaAugusta,Virginia,Augusta,2021-01-05 07:37:59.003759,2020-10-29 00:00:00.000000,1.18142238,1.88943697,3.14997572,892,1427,2380,456,744,1214,0.60415810,0.98511305,1.60685225,0.26930523,0.37217727,0.55578958
51015,0,USVirginiaAugusta,Virginia,Augusta,2021-01-05 07:37:59.003759,2020-10-30 00:00:00.000000,1.21729643,1.96881897,3.27704703,919,1487,2476,480,775,1265,0.63637178,1.02646412,1.67522965,0.27711249,0.37551228,0.55205579
51015,0,USVirginiaAugusta,Virginia,Augusta,2021-01-05 07:37:59.003759,2020-10-31 00:00:00.000000,1.25607252,2.07040562,3.38333941,949,1564,2556,507,804,1319,0.67162354,1.06489627,1.74569125,0.28538049,0.37845407,0.55417650
51015,0,USVirginiaAugusta,Virginia,Augusta,2021-01-05 07:37:59.003759,2020-11-01 00:00:00.000000,1.29733897,2.16087769,3.48958374,980,1632,2636,533,843,1357,0.70645718,1.11634658,1.79628898,0.30021734,0.39651957,0.56043503
51015,0,USVirginiaAugusta,Virginia,Augusta,2021-01-05 07:37:59.003759,2020-11-02 00:00:00.000000,1.34268397,2.25575502,3.59512700,1014,1704,2716,555,874,1393,0.73532902,1.15677252,1.84440380,0.30509515,0.40572815,0.55477366
51015,0,USVirginiaAugusta,Virginia,Augusta,2021-01-05 07:37:59.003759,2020-11-03 00:00:00.000000,1.38960687,2.34451756,3.70068803,1049,1771,2796,579,910,1432,0.76725555,1.20532122,1.89629926,0.30573794,0.41456947,0.55488788
51015,0,USVirginiaAugusta,Virginia,Augusta,2021-01-05 07:37:59.003759,2020-11-04 00:00:00.000000,1.44155570,2.44910892,3.80787727,1089,1850,2877,606,943,1474,0.80215114,1.24840491,1.95186124,0.30591586,0.41579031,0.55587028
51015,0,USVirginiaAugusta,Virginia,Augusta,2021-01-05 07:37:59.003759,2020-11-05 00:00:00.000000,1.51070545,2.56453893,3.91986345,1141,1937,2961,634,992,1519,0.83985827,1.31396748,2.01077433,0.30580054,0.41734152,0.55780623
51015,0,USVirginiaAugusta,Virginia,Augusta,2021-01-05 07:37:59.003759,2020-11-06 00:00:00.000000,1.58380689,2.68173651,4.04193010,1196,2026,3054,665,1041,1570,0.88021532,1.37861205,2.07833219,0.30658109,0.43039252,0.57885547
51015,0,USVirginiaAugusta,Virginia,Augusta,2021-01-05 07:37:59.003759,2020-11-07 00:00:00.000000,1.66063393,2.82847236,4.17983845,1254,2137,3158,697,1086,1657,0.92287542,1.43780233,2.19304681,0.31252865,0.43101955,0.57449950
51015,0,USVirginiaAugusta,Virginia,Augusta,2021-01-05 07:37:59.003759,2020-11-08 00:00:00.000000,1.74188485,2.96862536,4.33517002,1316,2243,3275,728,1144,1747,0.96432839,1.51449505,2.31269650,0.32849581,0.44445061,0.62068083
51015,0,USVirginiaAugusta,Virginia,Augusta,2021-01-05 07:37:59.003759,2020-11-09 00:00:00.000000,1.85840157,3.13756532,4.51153711,1404,2370,3408,761,1203,1841,1.00838434,1.59316062,2.43661121,0.32008790,0.44602842,0.63009117
51015,0,USVirginiaAugusta,Virginia,Augusta,2021-01-05 07:37:59.003759,2020-11-10 00:00:00.000000,2.01772448,3.32537518,4.69787938,1524,2512,3549,797,1260,1937,1.05539542,1.66770362,2.56470420,0.31522228,0.45776282,0.63240269
51015,0,USVirginiaAugusta,Virginia,Augusta,2021-01-05 07:37:59.003759,2020-11-11 00:00:00.000000,2.17561280,3.47015742,4.91132919,1643,2621,3710,834,1326,2013,1.10509537,1.75615734,2.66481173,0.31785154,0.45527609,0.63598457
51015,0,USVirginiaAugusta,Virginia,Augusta,2021-01-05 07:37:59.003759,2020-11-12 00:00:00.000000,2.25166423,3.61042743,5.14467007,1701,2727,3887,874,1406,2130,1.15762368,1.86100680,2.81934259,0.32616666,0.46193829,0.64782110
51015,0,USVirginiaAugusta,Virginia,Augusta,2021-01-05 07:37:59.003759,2020-11-13 00:00:00.000000,2.34819873,3.81355145,5.44990728,1774,2881,4117,916,1471,2247,1.21330067,1.94798193,2.97425189,0.33171459,0.46505215,0.66401968
51015,0,USVirginiaAugusta,Virginia,Augusta,2021-01-05 07:37:59.003759,2020-11-14 00:00:00.000000,2.47722025,4.02084459,5.76419729,1871,3038,4355,960,1548,2366,1.27162734,2.04936607,3.13176920,0.34537780,0.47256937,0.68884898
51015,0,USVirginiaAugusta,Virginia,Augusta,2021-01-05 07:37:59.003759,2020-11-15 00:00:00.000000,2.63581773,4.30251476,6.08790598,1991,3250,4599,1010,1624,2485,1.33679137,2.14988558,3.28968052,0.35617423,0.47921531,0.70649578
51015,0,USVirginiaAugusta,Virginia,Augusta,2021-01-05 07:37:59.003759,2020-11-16 00:00:00.000000,2.82334026,4.59289556,6.42806003,2133,3470,4856,1055,1715,2609,1.39673760,2.27062215,3.45413991,0.35651536,0.48379251,0.72640014
51015,0,USVirginiaAugusta,Virginia,Augusta,2021-01-05 07:37:59.003759,2020-11-17 00:00:00.000000,3.02490683,4.84240539,6.85099425,2285,3658,5176,1101,1811,2732,1.45836492,2.39705037,3.61600274,0.35764415,0.49131809,0.76867189
51015,0,USVirginiaAugusta,Virginia,Augusta,2021-01-05 07:37:59.003759,2020-11-18 00:00:00.000000,3.20707657,5.13600116,7.38766298,2423,3880,5581,1150,1910,2837,1.52247193,2.52904884,3.75573741,0.36095820,0.50572784,0.81219230
51015,0,USVirginiaAugusta,Virginia,Augusta,2021-01-05 07:37:59.003759,2020-11-19 00:00:00.000000,3.36565557,5.43325617,7.96465122,2543,4105,6017,1201,2015,2947,1.58959100,2.66757771,3.90100045,0.36386179,0.52085432,0.83836300
51015,0,USVirginiaAugusta,Virginia,Augusta,2021-01-05 07:37:59.003759,2020-11-20 00:00:00.000000,3.56241515,5.80344993,8.58367942,2691,4384,6485,1255,2139,3131,1.66105974,2.83180813,4.14433874,0.36664513,0.54665335,0.85696031
51015,0,USVirginiaAugusta,Virginia,Augusta,2021-01-05 07:37:59.003759,2020-11-21 00:00:00.000000,3.79023376,6.15599484,9.23857911,2863,4651,6980,1314,2284,3324,1.73956025,3.02306291,4.39955926,0.37273818,0.56075593,0.87938798
51015,0,USVirginiaAugusta,Virginia,Augusta,2021-01-05 07:37:59.003759,2020-11-22 00:00:00.000000,4.03865268,6.66909025,9.90802023,3051,5039,7486,1381,2438,3485,1.82829436,3.22692359,4.61291700,0.38725597,0.60126983,0.89299780
51015,0,USVirginiaAugusta,Virginia,Augusta,2021-01-05 07:37:59.003759,2020-11-23 00:00:00.000000,4.30352443,7.23061110,10.59131522,3251,5463,8002,1457,2622,3655,1.92906232,3.47102257,4.83836096,0.42343735,0.61577610,0.90173237
51015,0,USVirginiaAugusta,Virginia,Augusta,2021-01-05 07:37:59.003759,2020-11-24 00:00:00.000000,4.58321575,7.76714203,11.39380598,3462,5868,8608,1543,2841,3912,2.04319721,3.76030048,5.17778022,0.43816539,0.63693959,0.93524553
51015,0,USVirginiaAugusta,Virginia,Augusta,2021-01-05 07:37:59.003759,2020-11-25 00:00:00.000000,4.87818948,8.32245135,12.23953256,3685,6288,9247,1642,3052,4204,2.17347940,4.03997432,5.56475234,0.45931419,0.67561833,0.95988770
51015,0,USVirginiaAugusta,Virginia,Augusta,2021-01-05 07:37:59.003759,2020-11-26 00:00:00.000000,5.19111553,8.99184886,13.41316622,3922,6794,10134,1757,3289,4528,2.32604752,4.35348102,5.99315026,0.47224215,0.68770053,0.97375423
51015,0,USVirginiaAugusta,Virginia,Augusta,2021-01-05 07:37:59.003759,2020-11-27 00:00:00.000000,5.53330350,9.79949638,14.79885995,4180,7404,11181,1893,3584,4890,2.50564268,4.74356531,6.47195522,0.49301590,0.70039882,0.98159368
51015,0,USVirginiaAugusta,Virginia,Augusta,2021-01-05 07:37:59.003759,2020-11-28 00:00:00.000000,5.94249091,10.72206167,16.29048048,4490,8101,12308,2049,3891,5288,2.71243032,5.14991220,6.99926655,0.50983737,0.72134564,0.98641857
51015,0,USVirginiaAugusta,Virginia,Augusta,2021-01-05 07:37:59.003759,2020-11-29 00:00:00.000000,6.46735173,11.53175242,17.85713175,4886,8713,13492,2225,4163,5701,2.94487670,5.51050014,7.54536692,0.53741158,0.74831906,0.98997959
51015,0,USVirginiaAugusta,Virginia,Augusta,2021-01-05 07:37:59.003759,2020-11-30 00:00:00.000000,7.09119513,12.46320851,19.51307406,5357,9416,14743,2419,4488,6196,3.20192976,5.94048358,8.20112102,0.55150230,0.77577375,1.04791499
51015,0,USVirginiaAugusta,Virginia,Augusta,2021-01-05 07:37:59.003759,2020-12-01 00:00:00.000000,7.77615487,13.55632914,21.14246729,5875,10242,15974,2631,4875,6701,3.48227641,6.45278242,8.86929191,0.55150085,0.78457043,1.07241896
51015,0,USVirginiaAugusta,Virginia,Augusta,2021-01-05 07:37:59.003759,2020-12-02 00:00:00.000000,8.51272049,14.71309795,22.45353913,6432,11116,16965,2860,5273,7236,3.78603294,6.97962935,9.57674972,0.55222833,0.78861049,1.06996174
51015,0,USVirginiaAugusta,Virginia,Augusta,2021-01-05 07:37:59.003759,2020-12-03 00:00:00.000000,9.30003996,15.91030966,23.72953372,7026,12021,17929,3108,5704,7797,4.11347755,7.55042731,10.32018130,0.56457431,0.78017248,1.04278671
51015,0,USVirginiaAugusta,Virginia,Augusta,2021-01-05 07:37:59.003759,2020-12-04 00:00:00.000000,10.13811859,17.15301296,25.12492282,7660,12960,18983,3373,6210,8383,4.46487151,8.21983802,11.09589528,0.56071242,0.76289826,0.98229396
51015,0,USVirginiaAugusta,Virginia,Augusta,2021-01-05 07:37:59.003759,2020-12-05 00:00:00.000000,11.02574562,18.49411302,26.99027260,8330,13973,20393,3657,6715,8990,4.84007829,8.88750619,11.89873937,0.54183318,0.73663970,0.97808140
51015,0,USVirginiaAugusta,Virginia,Augusta,2021-01-05 07:37:59.003759,2020-12-06 00:00:00.000000,11.95941065,19.78177096,28.49564357,9036,14946,21530,3957,7207,9608,5.23770170,9.53950463,12.71662459,0.51753566,0.70516998,0.97641895
51015,0,USVirginiaAugusta,Virginia,Augusta,2021-01-05 07:37:59.003759,2020-12-07 00:00:00.000000,12.91677294,20.73258504,29.58261740,9759,15665,22352,4271,7779,10336,5.65278485,10.29601992,13.68005859,0.42348777,0.68354930,0.95937873
51015,0,USVirginiaAugusta,Virginia,Augusta,2021-01-05 07:37:59.003759,2020-12-08 00:00:00.000000,13.33734931,21.54890918,30.56814627,10077,16281,23096,4587,8259,11122,6.07129837,10.93135207,14.72103705,0.40300768,0.63548718,0.91044275
51015,0,USVirginiaAugusta,Virginia,Augusta,2021-01-05 07:37:59.003759,2020-12-09 00:00:00.000000,13.50441398,22.21236026,31.42166942,10203,16783,23741,4880,8753,11856,6.45905179,11.58571997,15.69235313,0.34408196,0.58970557,0.90300539
51015,0,USVirginiaAugusta,Virginia,Augusta,2021-01-05 07:37:59.003759,2020-12-10 00:00:00.000000,14.08460959,22.80459073,32.14670628,10642,17230,24289,5123,9107,12475,6.78022986,12.05334793,16.51049554,0.30583616,0.52160903,0.89097953
51015,0,USVirginiaAugusta,Virginia,Augusta,2021-01-05 07:37:59.003759,2020-12-11 00:00:00.000000,14.66881999,23.24584162,32.73475367,11083,17564,24733,5307,9461,12935,7.02397292,12.52224792,17.12026100,0.28338591,0.47077520,0.83422822
51015,0,USVirginiaAugusta,Virginia,Augusta,2021-01-05 07:37:59.003759,2020-12-12 00:00:00.000000,14.94240450,23.15089305,33.17690701,11290,17492,25067,5439,9659,13243,7.19866515,12.78486930,17.52824977,0.25728165,0.43880412,0.77391892
51015,0,USVirginiaAugusta,Virginia,Augusta,2021-01-05 07:37:59.003759,2020-12-13 00:00:00.000000,14.92385125,22.86312950,33.46565113,11276,17274,25285,5630,9837,13415,7.45216171,13.02028194,17.75530982,0.24841448,0.41770870,0.72195756
51015,0,USVirginiaAugusta,Virginia,Augusta,2021-01-05 07:37:59.003759,2020-12-14 00:00:00.000000,14.76606505,22.72370788,33.59475422,11156,17169,25383,5776,9922,13515,7.64538901,13.13270456,17.88740825,0.24197878,0.40189017,0.69238748
51015,0,USVirginiaAugusta,Virginia,Augusta,2021-01-05 07:37:59.003759,2020-12-15 00:00:00.000000,14.54387136,22.37729251,33.56713027,10989,16907,25362,5852,9967,13465,7.74529070,13.19226219,17.82077671,0.23567859,0.39861280,0.69109262
51015,0,USVirginiaAugusta,Virginia,Augusta,2021-01-05 07:37:59.003759,2020-12-16 00:00:00.000000,14.28029398,21.93730906,33.38610068,10789,16575,25225,5872,9984,13370,7.77195850,13.21422163,17.69618919,0.23095674,0.39389878,0.68982538
51015,0,USVirginiaAugusta,Virginia,Augusta,2021-01-05 07:37:59.003759,2020-12-17 00:00:00.000000,13.98012883,21.71850426,33.05752778,10563,16410,24977,5850,9927,13239,7.74284699,13.13855311,17.52284674,0.23196660,0.39669481,0.68733759
51015,0,USVirginiaAugusta,Virginia,Augusta,2021-01-05 07:37:59.003759,2020-12-18 00:00:00.000000,13.64768634,21.47423205,32.56988652,10311,16225,24609,5795,9839,13077,7.67018080,13.02203009,17.30850501,0.23433742,0.39335131,0.68102192
51015,0,USVirginiaAugusta,Virginia,Augusta,2021-01-05 07:37:59.003759,2020-12-19 00:00:00.000000,13.12090976,20.98840405,31.92143814,9913,15858,24119,5614,9717,12891,7.43074430,12.86142837,17.06238260,0.23740390,0.39710071,0.66576729
51015,0,USVirginiaAugusta,Virginia,Augusta,2021-01-05 07:37:59.003759,2020-12-20 00:00:00.000000,12.45467707,20.63279124,31.14804857,9410,15589,23534,5375,9556,12692,7.11482641,12.64749139,16.79896922,0.23706934,0.39622967,0.68123643
51015,0,USVirginiaAugusta,Virginia,Augusta,2021-01-05 07:37:59.003759,2020-12-21 00:00:00.000000,12.07494763,20.24866905,30.43828306,9123,15299,22998,5283,9376,12666,6.99293249,12.40985212,16.76408220,0.23307532,0.39935439,0.68568952
51015,0,USVirginiaAugusta,Virginia,Augusta,2021-01-05 07:37:59.003759,2020-12-22 00:00:00.000000,11.88677719,19.94510500,29.69340460,8981,15070,22435,5187,9182,12671,6.86532585,12.15343224,16.77066430,0.23260555,0.41056600,0.68673850
51015,0,USVirginiaAugusta,Virginia,Augusta,2021-01-05 07:37:59.003759,2020-12-23 00:00:00.000000,11.69879093,19.57721730,28.86359274,8839,14792,21808,5092,8966,12679,6.73933594,11.86684212,16.78064377,0.23278186,0.41471347,0.68714084
51015,0,USVirginiaAugusta,Virginia,Augusta,2021-01-05 07:37:59.003759,2020-12-24 00:00:00.000000,11.50741687,18.97955651,27.96172955,8694,14340,21127,4998,8773,12689,6.61516001,11.61214670,16.79380753,0.23306373,0.42654736,0.68764733
51015,0,USVirginiaAugusta,Virginia,Augusta,2021-01-05 07:37:59.003759,2020-12-25 00:00:00.000000,11.31278043,18.52784624,27.00156231,8547,13999,20401,4910,8585,12698,6.49899504,11.36262084,16.80681547,0.24790690,0.42841383,0.68876753
51015,0,USVirginiaAugusta,Virginia,Augusta,2021-01-05 07:37:59.003759,2020-12-26 00:00:00.000000,11.11655503,18.02083662,25.99779086,8399,13616,19643,4834,8369,12704,6.39804141,11.07714526,16.81415253,0.23568466,0.43455822,0.71598804
51015,0,USVirginiaAugusta,Virginia,Augusta,2021-01-05 07:37:59.003759,2020-12-27 00:00:00.000000,10.75206249,17.51932600,24.96583400,8124,13237,18863,4756,8210,12701,6.29544539,10.86666812,16.81001326,0.23116584,0.44089889,0.76911302
51015,0,USVirginiaAugusta,Virginia,Augusta,2021-01-05 07:37:59.003759,2020-12-28 00:00:00.000000,10.19894379,17.20769511,23.91302955,7706,13001,18068,4612,8013,12685,6.10499208,10.60593626,16.78958219,0.22902459,0.44875288,0.80254714
51015,0,USVirginiaAugusta,Virginia,Augusta,2021-01-05 07:37:59.003759,2020-12-29 00:00:00.000000,9.73953493,16.54947409,22.85424283,7358,12504,17268,4471,7778,12655,5.91822295,10.29455673,16.74887402,0.22637883,0.45341370,0.81421984
51015,0,USVirginiaAugusta,Virginia,Augusta,2021-01-05 07:37:59.003759,2020-12-30 00:00:00.000000,9.74829265,15.87152732,22.07568062,7365,11992,16679,4332,7607,12607,5.73442533,10.06828177,16.68595074,0.22070138,0.45931087,0.86544847
51015,0,USVirginiaAugusta,Virginia,Augusta,2021-01-05 07:37:59.003759,2020-12-31 00:00:00.000000,9.59782497,15.29517689,21.86754093,7251,11556,16522,4195,7358,12447,5.55258622,9.73858554,16.47401752,0.21446208,0.46182262,0.87457630
51015,0,USVirginiaAugusta,Virginia,Augusta,2021-01-05 07:37:59.003759,2021-01-01 00:00:00.000000,9.23677880,14.76619435,21.61939629,6979,11157,16335,4058,7133,12112,5.37169734,9.44134452,16.03048501,0.20745839,0.46381717,0.88091472
51015,0,USVirginiaAugusta,Virginia,Augusta,2021-01-05 07:37:59.003759,2021-01-02 00:00:00.000000,8.88782770,14.14245264,21.31423878,6715,10685,16104,3944,6920,11764,5.22020148,9.15948334,15.57079264,0.20056744,0.45958840,0.88181764
51015,0,USVirginiaAugusta,Virginia,Augusta,2021-01-05 07:37:59.003759,2021-01-03 00:00:00.000000,8.55001682,13.73341360,20.96472376,6460,10376,15840,3828,6627,11408,5.06678211,8.77090513,15.09835353,0.20999735,0.46210516,0.88345270
51015,0,USVirginiaAugusta,Virginia,Augusta,2021-01-05 07:37:59.003759,2021-01-04 00:00:00.000000,8.21957077,13.22037555,20.58662603,6210,9989,15554,3708,6417,11043,4.90786218,8.49284294,14.61642634,0.20563592,0.46640777,0.88896859
51015,0,USVirginiaAugusta,Virginia,Augusta,2021-01-05 07:37:59.003759,2021-01-05 00:00:00.000000,7.85881672,12.71080464,20.18969396,5937,9604,15254,3546,6236,10674,4.69397437,8.25371463,14.12811240,0.20492873,0.46962855,0.90846491
51015,0,USVirginiaAugusta,Virginia,Augusta,2021-01-05 07:37:59.003759,2021-01-06 00:00:00.000000,7.47195507,12.24949855,19.77683053,5645,9255,14942,3386,6023,10333,4.48241108,7.97243227,13.67690803,0.20481057,0.47104249,0.94344626
51015,0,USVirginiaAugusta,Virginia,Augusta,2021-01-05 07:37:59.003759,2021-01-07 00:00:00.000000,7.19375140,11.77540161,19.35041685,5435,8897,14620,3240,5779,10233,4.28864668,7.64872277,13.54348072,0.20478556,0.47304353,0.94588485
51015,0,USVirginiaAugusta,Virginia,Augusta,2021-01-05 07:37:59.003759,2021-01-08 00:00:00.000000,6.74328269,11.42521937,18.75492913,5095,8632,14170,3104,5591,10118,4.10854648,7.40005477,13.39175961,0.20477803,0.47348716,0.94758395
51015,0,USVirginiaAugusta,Virginia,Augusta,2021-01-05 07:37:59.003759,2021-01-09 00:00:00.000000,6.32275128,10.92191453,18.39341390,4777,8252,13897,2955,5384,9988,3.91192537,7.12659902,13.21907969,0.20477504,0.47358302,0.94823460
51015,0,USVirginiaAugusta,Virginia,Augusta,2021-01-05 07:37:59.003759,2021-01-10 00:00:00.000000,5.92735765,10.53300730,17.55773342,4478,7958,13266,2820,5141,9570,3.73307913,6.80423750,12.66610990,0.20477369,0.47360363,0.94842312
51015,0,USVirginiaAugusta,Virginia,Augusta,2021-01-05 07:37:59.003759,2021-01-11 00:00:00.000000,5.55462902,10.08021154,17.08544515,4196,7616,12909,2691,4931,9110,3.56211996,6.52631372,12.05735312,0.20477305,0.47360805,0.94847334
51015,0,USVirginiaAugusta,Virginia,Augusta,2021-01-05 07:37:59.003759,2021-01-12 00:00:00.000000,5.20367406,9.61856365,16.68261465,3931,7267,12605,2565,4773,8664,3.39555735,6.31722078,11.46791892,0.20477275,0.47360900,0.94848652
51015,0,USVirginiaAugusta,Virginia,Augusta,2021-01-05 07:37:59.003759,2021-01-13 00:00:00.000000,4.89756875,9.19612010,16.25721843,3700,6948,12283,2443,4582,8234,3.23383198,6.06506316,10.89832416,0.20477260,0.47360921,0.94848999
51015,0,USVirginiaAugusta,Virginia,Augusta,2021-01-05 07:37:59.003759,2021-01-14 00:00:00.000000,4.58008087,8.73123880,15.81243019,3460,6597,11947,2337,4375,7819,3.09393890,5.79122998,10.34892002,0.20477253,0.47360925,0.94849091
51015,0,USVirginiaAugusta,Virginia,Augusta,2021-01-05 07:37:59.003759,2021-01-15 00:00:00.000000,4.26556277,8.36310699,15.35139953,3222,6318,11599,2222,4205,7419,2.94134820,5.56622829,9.81991036,0.20477250,0.47360926,0.94849117
51015,0,USVirginiaAugusta,Virginia,Augusta,2021-01-05 07:37:59.003759,2021-01-16 00:00:00.000000,3.98905385,7.96431660,14.87721181,3014,6017,11240,2097,4044,7192,2.77659748,5.35299054,9.51950126,0.20477248,0.47360926,0.94849124
51015,0,USVirginiaAugusta,Virginia,Augusta,2021-01-05 07:37:59.003759,2021-01-17 00:00:00.000000,3.72975476,7.57185096,14.39285346,2818,5721,10874,1990,3850,6975,2.63403450,5.09563675,9.23213010,0.20477248,0.47360927,0.94849126
