FIPS,HR_UID,nameid,province,region,analysisTime,dates,pointprevalence_025,pointprevalence_50,pointprevalence_975,pointinfections_025,pointinfections_50,pointinfections_975,pointinfectious_025,pointinfectious_50,pointinfectious_975,pointinfectiousprevalence_05,pointinfectiousprevalence_50,pointinfectiousprevalence_95,infectrate_025,infectrate_50,infectrate_975
20001,0,USKansasAllen,Kansas,Allen,2021-01-05 23:03:56.601438,2020-03-09 00:00:00.000000,0.00105431,0.01169927,0.05383506,0,1,6,0,0,3,0.00044688,0.00600955,0.02890260,0.37041521,0.53410713,0.74000957
20001,0,USKansasAllen,Kansas,Allen,2021-01-05 23:03:56.601438,2020-03-10 00:00:00.000000,0.00124879,0.01284239,0.05684558,0,1,7,0,0,3,0.00049588,0.00605976,0.02822743,0.36953118,0.53402819,0.73995396
20001,0,USKansasAllen,Kansas,Allen,2021-01-05 23:03:56.601438,2020-03-11 00:00:00.000000,0.00145216,0.01400902,0.06003689,0,1,7,0,0,3,0.00056891,0.00629064,0.02996947,0.36778191,0.53388257,0.73987555
20001,0,USKansasAllen,Kansas,Allen,2021-01-05 23:03:56.601438,2020-03-12 00:00:00.000000,0.00167099,0.01522316,0.06457934,0,1,7,0,0,3,0.00065913,0.00659246,0.03021087,0.36489680,0.53359662,0.73976633
20001,0,USKansasAllen,Kansas,Allen,2021-01-05 23:03:56.601438,2020-03-13 00:00:00.000000,0.00191042,0.01650294,0.07064357,0,2,8,0,0,4,0.00076351,0.00691690,0.03242138,0.36085291,0.53265279,0.73961652
20001,0,USKansasAllen,Kansas,Allen,2021-01-05 23:03:56.601438,2020-03-14 00:00:00.000000,0.00217485,0.01789995,0.07717055,0,2,9,0,0,4,0.00088116,0.00732270,0.03509549,0.35176417,0.53220050,0.73941461
20001,0,USKansasAllen,Kansas,Allen,2021-01-05 23:03:56.601438,2020-03-15 00:00:00.000000,0.00241625,0.01956384,0.08422577,0,2,10,0,0,4,0.00097484,0.00780615,0.03815050,0.33829854,0.53041203,0.73914574
20001,0,USKansasAllen,Kansas,Allen,2021-01-05 23:03:56.601438,2020-03-16 00:00:00.000000,0.00261160,0.02134673,0.09186299,0,2,11,0,1,5,0.00103794,0.00834957,0.04155130,0.32852054,0.52770893,0.73431267
20001,0,USKansasAllen,Kansas,Allen,2021-01-05 23:03:56.601438,2020-03-17 00:00:00.000000,0.00282055,0.02306417,0.10011432,0,2,12,0,1,5,0.00111017,0.00894134,0.04482038,0.30736160,0.52534154,0.72394202
20001,0,USKansasAllen,Kansas,Allen,2021-01-05 23:03:56.601438,2020-03-18 00:00:00.000000,0.00304078,0.02459260,0.10895083,0,3,13,0,1,5,0.00119095,0.00961382,0.04783603,0.29031334,0.51990967,0.73806092
20001,0,USKansasAllen,Kansas,Allen,2021-01-05 23:03:56.601438,2020-03-19 00:00:00.000000,0.00324616,0.02623875,0.11817226,0,3,14,0,1,6,0.00127956,0.01042963,0.05105696,0.27628198,0.51354211,0.73615246
20001,0,USKansasAllen,Kansas,Allen,2021-01-05 23:03:56.601438,2020-03-20 00:00:00.000000,0.00341207,0.02809446,0.12719825,0,3,15,0,1,6,0.00137215,0.01120664,0.05444500,0.26503816,0.49283289,0.72714413
20001,0,USKansasAllen,Kansas,Allen,2021-01-05 23:03:56.601438,2020-03-21 00:00:00.000000,0.00363789,0.02958687,0.13505129,0,3,16,0,1,7,0.00146268,0.01215252,0.05786349,0.25656304,0.47587809,0.70106992
20001,0,USKansasAllen,Kansas,Allen,2021-01-05 23:03:56.601438,2020-03-22 00:00:00.000000,0.00403930,0.03155567,0.14110480,0,3,17,0,1,7,0.00155114,0.01312003,0.06116791,0.24480201,0.45020710,0.68922093
20001,0,USKansasAllen,Kansas,Allen,2021-01-05 23:03:56.601438,2020-03-23 00:00:00.000000,0.00450209,0.03403873,0.14571153,0,4,18,0,1,7,0.00165114,0.01409787,0.06435910,0.23025105,0.43020638,0.68102752
20001,0,USKansasAllen,Kansas,Allen,2021-01-05 23:03:56.601438,2020-03-24 00:00:00.000000,0.00502023,0.03591524,0.14955314,0,4,18,0,1,8,0.00183620,0.01531056,0.06749298,0.22873769,0.41746029,0.66735199
20001,0,USKansasAllen,Kansas,Allen,2021-01-05 23:03:56.601438,2020-03-25 00:00:00.000000,0.00557147,0.03747661,0.15307104,0,4,18,0,2,8,0.00204423,0.01627401,0.07062253,0.22211964,0.40360673,0.64843733
20001,0,USKansasAllen,Kansas,Allen,2021-01-05 23:03:56.601438,2020-03-26 00:00:00.000000,0.00612022,0.03862050,0.16023750,0,4,19,0,2,9,0.00227373,0.01715402,0.07564987,0.21916979,0.39884892,0.61516352
20001,0,USKansasAllen,Kansas,Allen,2021-01-05 23:03:56.601438,2020-03-27 00:00:00.000000,0.00664249,0.04012310,0.16678756,0,4,20,0,2,9,0.00251864,0.01803909,0.08060350,0.19042694,0.38964592,0.58016639
20001,0,USKansasAllen,Kansas,Allen,2021-01-05 23:03:56.601438,2020-03-28 00:00:00.000000,0.00715357,0.04197128,0.17121936,0,5,21,0,2,10,0.00277115,0.01901773,0.08511896,0.18247250,0.38563235,0.56109119
20001,0,USKansasAllen,Kansas,Allen,2021-01-05 23:03:56.601438,2020-03-29 00:00:00.000000,0.00768081,0.04283937,0.17326165,0,5,21,0,2,10,0.00302758,0.02013753,0.08791377,0.17809371,0.37948216,0.54749461
20001,0,USKansasAllen,Kansas,Allen,2021-01-05 23:03:56.601438,2020-03-30 00:00:00.000000,0.00824097,0.04352764,0.17382643,1,5,21,0,2,11,0.00328907,0.02096294,0.08988679,0.17584503,0.37461730,0.52576937
20001,0,USKansasAllen,Kansas,Allen,2021-01-05 23:03:56.601438,2020-03-31 00:00:00.000000,0.00884193,0.04485391,0.17369798,1,5,21,0,2,11,0.00355883,0.02159714,0.09181009,0.17464232,0.36145446,0.49894945
20001,0,USKansasAllen,Kansas,Allen,2021-01-05 23:03:56.601438,2020-04-01 00:00:00.000000,0.00933708,0.04633350,0.17615369,1,5,21,0,2,11,0.00384036,0.02241973,0.09375056,0.17366155,0.35406514,0.49559234
20001,0,USKansasAllen,Kansas,Allen,2021-01-05 23:03:56.601438,2020-04-02 00:00:00.000000,0.00979890,0.04785981,0.17695062,1,5,21,0,2,11,0.00413662,0.02314133,0.09597465,0.17174800,0.33438498,0.47530208
20001,0,USKansasAllen,Kansas,Allen,2021-01-05 23:03:56.601438,2020-04-03 00:00:00.000000,0.01028067,0.04950691,0.17996704,1,6,22,0,2,11,0.00444883,0.02378645,0.09661227,0.15130105,0.32706081,0.45626106
20001,0,USKansasAllen,Kansas,Allen,2021-01-05 23:03:56.601438,2020-04-04 00:00:00.000000,0.01078163,0.05036033,0.18441249,1,6,22,0,2,12,0.00477089,0.02413732,0.09740490,0.13960081,0.31040826,0.41903743
20001,0,USKansasAllen,Kansas,Allen,2021-01-05 23:03:56.601438,2020-04-05 00:00:00.000000,0.01099866,0.05164123,0.19046213,1,6,23,0,3,12,0.00508261,0.02457953,0.10170463,0.13755528,0.30317824,0.41754256
20001,0,USKansasAllen,Kansas,Allen,2021-01-05 23:03:56.601438,2020-04-06 00:00:00.000000,0.01108841,0.05299737,0.19560615,1,6,24,0,3,13,0.00537275,0.02550718,0.10569312,0.13248078,0.29605408,0.41927538
20001,0,USKansasAllen,Kansas,Allen,2021-01-05 23:03:56.601438,2020-04-07 00:00:00.000000,0.01115292,0.05372392,0.20004813,1,6,24,0,3,13,0.00564490,0.02630379,0.10927822,0.13020283,0.28439097,0.42124895
20001,0,USKansasAllen,Kansas,Allen,2021-01-05 23:03:56.601438,2020-04-08 00:00:00.000000,0.01120069,0.05449891,0.20401907,1,6,25,0,3,13,0.00587723,0.02637261,0.11198956,0.13004014,0.28044959,0.42195638
20001,0,USKansasAllen,Kansas,Allen,2021-01-05 23:03:56.601438,2020-04-09 00:00:00.000000,0.01123567,0.05532386,0.20770454,1,6,25,0,3,14,0.00602778,0.02658739,0.11534834,0.12887547,0.27452367,0.41188087
20001,0,USKansasAllen,Kansas,Allen,2021-01-05 23:03:56.601438,2020-04-10 00:00:00.000000,0.01125313,0.05606903,0.21255186,1,6,26,0,3,14,0.00613549,0.02734639,0.11798499,0.12339739,0.26997043,0.40507370
20001,0,USKansasAllen,Kansas,Allen,2021-01-05 23:03:56.601438,2020-04-11 00:00:00.000000,0.01123251,0.05517485,0.21906695,1,6,27,0,3,14,0.00621193,0.02778280,0.12041553,0.11724814,0.25919789,0.40331104
20001,0,USKansasAllen,Kansas,Allen,2021-01-05 23:03:56.601438,2020-04-12 00:00:00.000000,0.01116145,0.05510943,0.22318062,1,6,27,0,3,15,0.00626685,0.02798661,0.12264639,0.11239786,0.24662145,0.40046381
20001,0,USKansasAllen,Kansas,Allen,2021-01-05 23:03:56.601438,2020-04-13 00:00:00.000000,0.01106232,0.05489202,0.22542499,1,6,27,0,3,15,0.00630721,0.02810927,0.12446994,0.11065268,0.23517190,0.38848272
20001,0,USKansasAllen,Kansas,Allen,2021-01-05 23:03:56.601438,2020-04-14 00:00:00.000000,0.01095250,0.05560082,0.22688204,1,6,28,0,3,15,0.00633738,0.02815170,0.12557971,0.10627451,0.22799033,0.38347593
20001,0,USKansasAllen,Kansas,Allen,2021-01-05 23:03:56.601438,2020-04-15 00:00:00.000000,0.01083514,0.05472325,0.22766945,1,6,28,0,3,15,0.00633056,0.02812583,0.12604680,0.10251872,0.22155867,0.38308517
20001,0,USKansasAllen,Kansas,Allen,2021-01-05 23:03:56.601438,2020-04-16 00:00:00.000000,0.01069399,0.05416211,0.22715914,1,6,28,0,3,15,0.00627954,0.02785403,0.12606582,0.09838125,0.21850575,0.38302122
20001,0,USKansasAllen,Kansas,Allen,2021-01-05 23:03:56.601438,2020-04-17 00:00:00.000000,0.01047496,0.05519898,0.22488389,1,6,27,0,3,15,0.00621708,0.02800424,0.12577590,0.09218568,0.21568351,0.38293780
20001,0,USKansasAllen,Kansas,Allen,2021-01-05 23:03:56.601438,2020-04-18 00:00:00.000000,0.01018573,0.05717956,0.22146868,1,7,27,0,3,15,0.00613096,0.02843187,0.12522579,0.08535834,0.21217921,0.38284556
20001,0,USKansasAllen,Kansas,Allen,2021-01-05 23:03:56.601438,2020-04-19 00:00:00.000000,0.00987953,0.05696276,0.21759161,1,7,26,0,3,15,0.00601503,0.02892026,0.12431336,0.08240478,0.20771968,0.38276187
20001,0,USKansasAllen,Kansas,Allen,2021-01-05 23:03:56.601438,2020-04-20 00:00:00.000000,0.00957280,0.05689783,0.21353963,1,7,26,0,3,15,0.00587611,0.02942040,0.12275476,0.08122483,0.20208131,0.38271122
20001,0,USKansasAllen,Kansas,Allen,2021-01-05 23:03:56.601438,2020-04-21 00:00:00.000000,0.00927126,0.05770869,0.20942106,1,7,25,0,3,14,0.00572294,0.03000441,0.12041620,0.08075708,0.19650113,0.38275678
20001,0,USKansasAllen,Kansas,Allen,2021-01-05 23:03:56.601438,2020-04-22 00:00:00.000000,0.00898059,0.05734143,0.20528784,1,7,25,0,3,14,0.00556225,0.03008989,0.11745319,0.07996916,0.19421524,0.38310067
20001,0,USKansasAllen,Kansas,Allen,2021-01-05 23:03:56.601438,2020-04-23 00:00:00.000000,0.00871097,0.05747231,0.20114192,1,7,24,0,3,14,0.00539940,0.02976002,0.11552048,0.07922281,0.19371495,0.37639215
20001,0,USKansasAllen,Kansas,Allen,2021-01-05 23:03:56.601438,2020-04-24 00:00:00.000000,0.00847847,0.05595019,0.19692599,1,6,24,0,3,14,0.00523996,0.02918139,0.11435492,0.07917575,0.19192148,0.35735478
20001,0,USKansasAllen,Kansas,Allen,2021-01-05 23:03:56.601438,2020-04-25 00:00:00.000000,0.00829137,0.05486604,0.19255891,1,6,23,0,3,14,0.00509090,0.02855605,0.11339630,0.07195257,0.19003557,0.34431091
20001,0,USKansasAllen,Kansas,Allen,2021-01-05 23:03:56.601438,2020-04-26 00:00:00.000000,0.00813763,0.05314982,0.18795695,1,6,23,0,3,13,0.00495839,0.02819533,0.11259065,0.06669820,0.18225614,0.32335668
20001,0,USKansasAllen,Kansas,Allen,2021-01-05 23:03:56.601438,2020-04-27 00:00:00.000000,0.00800158,0.05093190,0.18308398,0,6,22,0,3,13,0.00484354,0.02788382,0.11188006,0.06441212,0.17634923,0.30359710
20001,0,USKansasAllen,Kansas,Allen,2021-01-05 23:03:56.601438,2020-04-28 00:00:00.000000,0.00787479,0.05008682,0.17798005,0,6,22,0,3,13,0.00474347,0.02740592,0.11117817,0.06434225,0.17490638,0.29388947
20001,0,USKansasAllen,Kansas,Allen,2021-01-05 23:03:56.601438,2020-04-29 00:00:00.000000,0.00775355,0.04941518,0.17274720,0,6,21,0,3,13,0.00465447,0.02730945,0.11031702,0.06419808,0.17076955,0.29213845
20001,0,USKansasAllen,Kansas,Allen,2021-01-05 23:03:56.601438,2020-04-30 00:00:00.000000,0.00763613,0.04908394,0.16749448,0,6,20,0,3,13,0.00457344,0.02669210,0.10917072,0.06327830,0.16564996,0.28897494
20001,0,USKansasAllen,Kansas,Allen,2021-01-05 23:03:56.601438,2020-05-01 00:00:00.000000,0.00752232,0.04874898,0.16228601,0,6,20,0,3,13,0.00449812,0.02625896,0.10776393,0.05931665,0.16862648,0.28391728
20001,0,USKansasAllen,Kansas,Allen,2021-01-05 23:03:56.601438,2020-05-02 00:00:00.000000,0.00741196,0.04693934,0.15714865,0,5,19,0,3,13,0.00442693,0.02581059,0.10616625,0.05685262,0.16761154,0.27741003
20001,0,USKansasAllen,Kansas,Allen,2021-01-05 23:03:56.601438,2020-05-03 00:00:00.000000,0.00737340,0.04549898,0.15209116,0,5,18,0,3,12,0.00435881,0.02535179,0.10443819,0.05690008,0.16286342,0.27300160
20001,0,USKansasAllen,Kansas,Allen,2021-01-05 23:03:56.601438,2020-05-04 00:00:00.000000,0.01735748,0.05616953,0.16679912,2,6,20,0,3,12,0.00429294,0.02488964,0.10262336,0.05706384,0.15962392,0.27467946
20001,0,USKansasAllen,Kansas,Allen,2021-01-05 23:03:56.601438,2020-05-05 00:00:00.000000,0.02202846,0.06948933,0.18161444,2,8,22,0,3,12,0.00671860,0.02588210,0.10231462,0.05743517,0.15795073,0.27503659
20001,0,USKansasAllen,Kansas,Allen,2021-01-05 23:03:56.601438,2020-05-06 00:00:00.000000,0.02732553,0.08007093,0.19681904,3,9,24,1,3,12,0.00878299,0.02766627,0.10304837,0.05818598,0.15624551,0.27191785
20001,0,USKansasAllen,Kansas,Allen,2021-01-05 23:03:56.601438,2020-05-07 00:00:00.000000,0.03274888,0.09104912,0.21213470,4,11,26,1,4,12,0.01069956,0.03251208,0.10448774,0.05943826,0.15379971,0.26305710
20001,0,USKansasAllen,Kansas,Allen,2021-01-05 23:03:56.601438,2020-05-08 00:00:00.000000,0.03633720,0.10437082,0.23192355,4,12,28,1,4,13,0.01294699,0.03688946,0.10633026,0.06098668,0.15440209,0.25867316
20001,0,USKansasAllen,Kansas,Allen,2021-01-05 23:03:56.601438,2020-05-09 00:00:00.000000,0.03849766,0.11168825,0.24284768,4,13,30,1,5,13,0.01508287,0.04086814,0.10820794,0.06063757,0.15098663,0.25270531
20001,0,USKansasAllen,Kansas,Allen,2021-01-05 23:03:56.601438,2020-05-10 00:00:00.000000,0.04051632,0.12234980,0.27190396,5,15,33,2,5,14,0.01669383,0.04738611,0.11461114,0.05830379,0.14750345,0.24979678
20001,0,USKansasAllen,Kansas,Allen,2021-01-05 23:03:56.601438,2020-05-11 00:00:00.000000,0.04961005,0.13428352,0.29026618,6,16,35,2,6,15,0.01833960,0.05207308,0.12561995,0.05723490,0.14650522,0.24082216
20001,0,USKansasAllen,Kansas,Allen,2021-01-05 23:03:56.601438,2020-05-12 00:00:00.000000,0.05679823,0.14841013,0.30666970,7,18,37,2,6,17,0.02053881,0.05543217,0.13925526,0.05796096,0.14317226,0.23465068
20001,0,USKansasAllen,Kansas,Allen,2021-01-05 23:03:56.601438,2020-05-13 00:00:00.000000,0.06252830,0.15843487,0.30311716,7,19,37,2,7,18,0.02354838,0.05950000,0.14782879,0.05702798,0.13890808,0.23461632
20001,0,USKansasAllen,Kansas,Allen,2021-01-05 23:03:56.601438,2020-05-14 00:00:00.000000,0.06897378,0.17015272,0.31230395,8,21,38,3,8,18,0.02684615,0.06839632,0.15344316,0.05826153,0.13795784,0.23430346
20001,0,USKansasAllen,Kansas,Allen,2021-01-05 23:03:56.601438,2020-05-15 00:00:00.000000,0.07546495,0.18001688,0.32019789,9,22,39,3,9,19,0.03053939,0.07494954,0.16160848,0.05560525,0.13546381,0.23348141
20001,0,USKansasAllen,Kansas,Allen,2021-01-05 23:03:56.601438,2020-05-16 00:00:00.000000,0.07869970,0.18897155,0.35659369,9,23,44,4,10,20,0.03439330,0.08187104,0.16665802,0.05526928,0.13542744,0.23163464
20001,0,USKansasAllen,Kansas,Allen,2021-01-05 23:03:56.601438,2020-05-17 00:00:00.000000,0.07987217,0.19475586,0.36298552,9,24,44,4,10,20,0.03733291,0.08576553,0.16740506,0.05525076,0.13369230,0.23291111
20001,0,USKansasAllen,Kansas,Allen,2021-01-05 23:03:56.601438,2020-05-18 00:00:00.000000,0.07568823,0.19127962,0.35434833,9,23,43,5,11,21,0.04069421,0.09289664,0.17155297,0.05524562,0.13045325,0.23307980
20001,0,USKansasAllen,Kansas,Allen,2021-01-05 23:03:56.601438,2020-05-19 00:00:00.000000,0.07210470,0.18904818,0.34532421,8,23,42,5,11,22,0.04108610,0.09473922,0.18150145,0.05528543,0.12993983,0.23309256
20001,0,USKansasAllen,Kansas,Allen,2021-01-05 23:03:56.601438,2020-05-20 00:00:00.000000,0.06873472,0.18399349,0.33377798,8,22,41,4,11,22,0.04041856,0.09396881,0.18159264,0.05680421,0.12957785,0.22893016
20001,0,USKansasAllen,Kansas,Allen,2021-01-05 23:03:56.601438,2020-05-21 00:00:00.000000,0.06527444,0.18032243,0.31962836,8,22,39,4,11,22,0.03972256,0.09314235,0.18003787,0.06035688,0.13068182,0.22937251
20001,0,USKansasAllen,Kansas,Allen,2021-01-05 23:03:56.601438,2020-05-22 00:00:00.000000,0.06183417,0.17674418,0.31524965,7,21,38,4,11,21,0.03860984,0.09220461,0.17730651,0.06020197,0.12871812,0.23058205
20001,0,USKansasAllen,Kansas,Allen,2021-01-05 23:03:56.601438,2020-05-23 00:00:00.000000,0.05847677,0.17054944,0.30565465,7,21,37,4,11,21,0.03722308,0.09086880,0.17368584,0.05667371,0.12648421,0.23217753
20001,0,USKansasAllen,Kansas,Allen,2021-01-05 23:03:56.601438,2020-05-24 00:00:00.000000,0.05521389,0.16242104,0.29392935,6,20,36,4,11,20,0.03566421,0.08911193,0.16955435,0.05647511,0.12540785,0.22846104
20001,0,USKansasAllen,Kansas,Allen,2021-01-05 23:03:56.601438,2020-05-25 00:00:00.000000,0.06592496,0.16788679,0.28795649,8,20,35,4,10,21,0.03401209,0.08659021,0.17027063,0.05376903,0.12413616,0.22403120
20001,0,USKansasAllen,Kansas,Allen,2021-01-05 23:03:56.601438,2020-05-26 00:00:00.000000,0.06987070,0.17417095,0.28605273,8,21,35,4,10,20,0.03339473,0.08775394,0.16748407,0.05295938,0.12222290,0.22353565
20001,0,USKansasAllen,Kansas,Allen,2021-01-05 23:03:56.601438,2020-05-27 00:00:00.000000,0.07394254,0.18579318,0.28973828,9,22,35,4,11,19,0.03417611,0.08978716,0.16151446,0.05312785,0.11904379,0.22349940
20001,0,USKansasAllen,Kansas,Allen,2021-01-05 23:03:56.601438,2020-05-28 00:00:00.000000,0.07589277,0.19498001,0.29329342,9,24,36,4,11,19,0.03564627,0.09088111,0.15924922,0.05609517,0.11869963,0.22500836
20001,0,USKansasAllen,Kansas,Allen,2021-01-05 23:03:56.601438,2020-05-29 00:00:00.000000,0.07869870,0.20081852,0.31446430,9,24,38,4,11,19,0.03862598,0.09262042,0.15514913,0.05335472,0.11856089,0.22505947
20001,0,USKansasAllen,Kansas,Allen,2021-01-05 23:03:56.601438,2020-05-30 00:00:00.000000,0.08193258,0.20585384,0.34071409,10,25,42,5,11,19,0.04134951,0.09627227,0.15361932,0.05232920,0.11760625,0.22503681
20001,0,USKansasAllen,Kansas,Allen,2021-01-05 23:03:56.601438,2020-05-31 00:00:00.000000,0.08652773,0.21030860,0.36612915,10,26,45,5,12,19,0.04228725,0.09957140,0.15391549,0.05198477,0.11807105,0.22501584
20001,0,USKansasAllen,Kansas,Allen,2021-01-05 23:03:56.601438,2020-06-01 00:00:00.000000,0.09516420,0.21755400,0.38325964,11,26,47,5,12,19,0.04386209,0.10242207,0.15784142,0.05186147,0.11849950,0.22498976
20001,0,USKansasAllen,Kansas,Allen,2021-01-05 23:03:56.601438,2020-06-02 00:00:00.000000,0.09997678,0.23048990,0.39938691,12,28,49,5,13,20,0.04672966,0.10554466,0.16579389,0.05177080,0.11747174,0.22495027
20001,0,USKansasAllen,Kansas,Allen,2021-01-05 23:03:56.601438,2020-06-03 00:00:00.000000,0.10462020,0.23389230,0.41441951,12,28,51,6,13,21,0.05104812,0.10746733,0.17614026,0.05178016,0.11546510,0.22487925
20001,0,USKansasAllen,Kansas,Allen,2021-01-05 23:03:56.601438,2020-06-04 00:00:00.000000,0.10906421,0.23872099,0.42838067,13,29,52,6,13,23,0.05413258,0.11139340,0.18621235,0.05258940,0.11469351,0.22241938
20001,0,USKansasAllen,Kansas,Allen,2021-01-05 23:03:56.601438,2020-06-05 00:00:00.000000,0.11140965,0.24385300,0.41778093,13,30,51,6,14,24,0.05612669,0.11654257,0.19596012,0.05303481,0.11402090,0.21179191
20001,0,USKansasAllen,Kansas,Allen,2021-01-05 23:03:56.601438,2020-06-06 00:00:00.000000,0.11182669,0.24679378,0.41591051,13,30,51,7,14,25,0.05673945,0.11991950,0.20534799,0.05235395,0.11297630,0.20780812
20001,0,USKansasAllen,Kansas,Allen,2021-01-05 23:03:56.601438,2020-06-07 00:00:00.000000,0.11219663,0.25151013,0.43051371,13,31,53,7,15,26,0.05722372,0.12401271,0.21434759,0.05184994,0.11396863,0.20682538
20001,0,USKansasAllen,Kansas,Allen,2021-01-05 23:03:56.601438,2020-06-08 00:00:00.000000,0.12534048,0.25484613,0.45841761,15,31,56,7,15,27,0.05761352,0.12423142,0.22312678,0.05437265,0.11102163,0.20586199
20001,0,USKansasAllen,Kansas,Allen,2021-01-05 23:03:56.601438,2020-06-09 00:00:00.000000,0.13615359,0.25891402,0.48140022,16,32,59,7,15,28,0.05951471,0.12515053,0.23415534,0.05426556,0.11065752,0.20426038
20001,0,USKansasAllen,Kansas,Allen,2021-01-05 23:03:56.601438,2020-06-10 00:00:00.000000,0.14340606,0.26736313,0.49639399,17,33,61,7,15,30,0.06123547,0.12786619,0.24681707,0.04973466,0.11028964,0.19706536
20001,0,USKansasAllen,Kansas,Allen,2021-01-05 23:03:56.601438,2020-06-11 00:00:00.000000,0.15041899,0.27070228,0.51136448,18,33,63,8,16,30,0.06476098,0.12952991,0.24950242,0.04742047,0.10917346,0.19302604
20001,0,USKansasAllen,Kansas,Allen,2021-01-05 23:03:56.601438,2020-06-12 00:00:00.000000,0.15716244,0.27268239,0.52613496,19,33,65,8,16,32,0.06889475,0.13035454,0.26444701,0.04625100,0.10745265,0.18797624
20001,0,USKansasAllen,Kansas,Allen,2021-01-05 23:03:56.601438,2020-06-13 00:00:00.000000,0.16363473,0.27929911,0.54005241,20,34,66,9,16,33,0.07322705,0.13381382,0.27220514,0.04556045,0.10632466,0.18052060
20001,0,USKansasAllen,Kansas,Allen,2021-01-05 23:03:56.601438,2020-06-14 00:00:00.000000,0.16986462,0.28450723,0.55216602,21,35,68,9,17,34,0.07764218,0.13940220,0.27992023,0.04662418,0.10498289,0.17439634
20001,0,USKansasAllen,Kansas,Allen,2021-01-05 23:03:56.601438,2020-06-15 00:00:00.000000,0.17309320,0.28703328,0.55468902,21,35,68,10,17,35,0.08206087,0.14241870,0.28717474,0.04996826,0.10369853,0.17000306
20001,0,USKansasAllen,Kansas,Allen,2021-01-05 23:03:56.601438,2020-06-16 00:00:00.000000,0.17626690,0.29412773,0.55670036,21,36,68,10,17,36,0.08507183,0.14386250,0.29235432,0.04911627,0.10291116,0.17334300
20001,0,USKansasAllen,Kansas,Allen,2021-01-05 23:03:56.601438,2020-06-17 00:00:00.000000,0.17587928,0.29557449,0.55809717,21,36,69,10,18,36,0.08742096,0.14686488,0.29604687,0.04883019,0.10093223,0.17550666
20001,0,USKansasAllen,Kansas,Allen,2021-01-05 23:03:56.601438,2020-06-18 00:00:00.000000,0.17587249,0.30587511,0.54832294,21,37,67,11,18,36,0.08974326,0.14755905,0.29867263,0.04877146,0.10026064,0.17671089
20001,0,USKansasAllen,Kansas,Allen,2021-01-05 23:03:56.601438,2020-06-19 00:00:00.000000,0.17373658,0.31463940,0.53238621,21,38,65,11,18,37,0.08997788,0.15158648,0.30047723,0.04859160,0.09977583,0.17739266
20001,0,USKansasAllen,Kansas,Allen,2021-01-05 23:03:56.601438,2020-06-20 00:00:00.000000,0.17001221,0.32059220,0.51625024,21,39,63,11,19,37,0.08921082,0.15500720,0.30022173,0.04842937,0.09970893,0.17330746
20001,0,USKansasAllen,Kansas,Allen,2021-01-05 23:03:56.601438,2020-06-21 00:00:00.000000,0.16908689,0.31827052,0.52147946,20,39,64,10,19,36,0.08797381,0.15690756,0.29359265,0.04727046,0.10105320,0.16215887
20001,0,USKansasAllen,Kansas,Allen,2021-01-05 23:03:56.601438,2020-06-22 00:00:00.000000,0.17610126,0.31653550,0.54331585,21,39,67,10,19,36,0.08655943,0.15669321,0.29800672,0.04629702,0.10127920,0.15805028
20001,0,USKansasAllen,Kansas,Allen,2021-01-05 23:03:56.601438,2020-06-23 00:00:00.000000,0.17691774,0.32225653,0.54109947,21,39,66,10,19,37,0.08762587,0.15736090,0.29942802,0.04628984,0.10107892,0.15697264
20001,0,USKansasAllen,Kansas,Allen,2021-01-05 23:03:56.601438,2020-06-24 00:00:00.000000,0.17699060,0.32685394,0.57048126,21,40,70,11,19,37,0.09102187,0.15996959,0.29978526,0.04701593,0.10075778,0.15616502
20001,0,USKansasAllen,Kansas,Allen,2021-01-05 23:03:56.601438,2020-06-25 00:00:00.000000,0.17739030,0.33050961,0.56053959,21,40,69,11,20,36,0.09197951,0.16251027,0.29218012,0.04727864,0.10086869,0.15568475
20001,0,USKansasAllen,Kansas,Allen,2021-01-05 23:03:56.601438,2020-06-26 00:00:00.000000,0.17795358,0.32550633,0.58743382,22,40,72,11,19,37,0.09156764,0.15988287,0.30569899,0.04733233,0.10026613,0.15552273
20001,0,USKansasAllen,Kansas,Allen,2021-01-05 23:03:56.601438,2020-06-27 00:00:00.000000,0.17860606,0.32185624,0.62358582,22,39,77,11,19,40,0.09139534,0.16150136,0.32780397,0.04895087,0.10095683,0.15582654
20001,0,USKansasAllen,Kansas,Allen,2021-01-05 23:03:56.601438,2020-06-28 00:00:00.000000,0.17931065,0.32523007,0.65832709,22,40,81,11,19,43,0.09139786,0.16108119,0.35013105,0.04968634,0.10211002,0.15689116
20001,0,USKansasAllen,Kansas,Allen,2021-01-05 23:03:56.601438,2020-06-29 00:00:00.000000,0.17977636,0.33349759,0.65702791,22,41,81,11,20,46,0.09152556,0.16308770,0.37229192,0.04899128,0.10204586,0.15808881
20001,0,USKansasAllen,Kansas,Allen,2021-01-05 23:03:56.601438,2020-06-30 00:00:00.000000,0.18026558,0.34823468,0.65461926,22,43,80,11,20,47,0.09168103,0.16682577,0.38662581,0.04871384,0.10231367,0.15847198
20001,0,USKansasAllen,Kansas,Allen,2021-01-05 23:03:56.601438,2020-07-01 00:00:00.000000,0.18078004,0.34281030,0.65111077,22,42,80,11,20,48,0.09185698,0.16971763,0.39539576,0.04862754,0.10248622,0.15850672
20001,0,USKansasAllen,Kansas,Allen,2021-01-05 23:03:56.601438,2020-07-02 00:00:00.000000,0.17887498,0.34245305,0.64717173,22,42,80,11,21,49,0.09205059,0.17475081,0.40031605,0.04863093,0.10200576,0.15603391
20001,0,USKansasAllen,Kansas,Allen,2021-01-05 23:03:56.601438,2020-07-03 00:00:00.000000,0.17702106,0.33987377,0.64303406,21,42,79,11,22,49,0.09226506,0.17860040,0.40264603,0.04893402,0.10223326,0.15556729
20001,0,USKansasAllen,Kansas,Allen,2021-01-05 23:03:56.601438,2020-07-04 00:00:00.000000,0.17544171,0.33488986,0.66125099,21,41,81,11,22,49,0.09131754,0.18037228,0.40325418,0.05107605,0.10361848,0.15013781
20001,0,USKansasAllen,Kansas,Allen,2021-01-05 23:03:56.601438,2020-07-05 00:00:00.000000,0.17436985,0.33382016,0.69858005,21,41,86,11,22,49,0.08998307,0.17985386,0.40271271,0.05249874,0.10483232,0.15116628
20001,0,USKansasAllen,Kansas,Allen,2021-01-05 23:03:56.601438,2020-07-06 00:00:00.000000,0.17036275,0.33658942,0.68331133,21,41,84,10,22,49,0.08887621,0.17903283,0.40139937,0.05480215,0.10399976,0.15089462
20001,0,USKansasAllen,Kansas,Allen,2021-01-05 23:03:56.601438,2020-07-07 00:00:00.000000,0.19192850,0.34194860,0.68907229,23,42,85,11,22,49,0.09210845,0.17895561,0.39697310,0.05698712,0.10402472,0.16043675
20001,0,USKansasAllen,Kansas,Allen,2021-01-05 23:03:56.601438,2020-07-08 00:00:00.000000,0.19929752,0.34966695,0.67635806,24,43,83,11,22,50,0.09536729,0.17893374,0.40945086,0.05780876,0.10541261,0.16047047
20001,0,USKansasAllen,Kansas,Allen,2021-01-05 23:03:56.601438,2020-07-09 00:00:00.000000,0.19452092,0.35324016,0.65927393,24,43,81,11,22,49,0.09099512,0.17946228,0.40295577,0.05913008,0.10572208,0.16009262
20001,0,USKansasAllen,Kansas,Allen,2021-01-05 23:03:56.601438,2020-07-10 00:00:00.000000,0.19061322,0.35704836,0.64233742,23,44,79,11,22,48,0.09492589,0.17936958,0.39516115,0.06013084,0.10592404,0.15925892
20001,0,USKansasAllen,Kansas,Allen,2021-01-05 23:03:56.601438,2020-07-11 00:00:00.000000,0.18705883,0.36083892,0.62605341,23,44,77,12,22,48,0.10125250,0.18072586,0.39421423,0.05804819,0.10655485,0.16755692
20001,0,USKansasAllen,Kansas,Allen,2021-01-05 23:03:56.601438,2020-07-12 00:00:00.000000,0.18374443,0.36656687,0.61049595,22,45,75,12,22,47,0.09890137,0.18235228,0.38576452,0.05592281,0.10649238,0.16984534
20001,0,USKansasAllen,Kansas,Allen,2021-01-05 23:03:56.601438,2020-07-13 00:00:00.000000,0.18402699,0.36762979,0.60863515,22,45,75,11,22,46,0.09676316,0.18231559,0.37686362,0.05576243,0.10647891,0.16895934
20001,0,USKansasAllen,Kansas,Allen,2021-01-05 23:03:56.601438,2020-07-14 00:00:00.000000,0.18268462,0.36661255,0.60715313,22,45,75,11,22,45,0.09615348,0.18301286,0.37048179,0.05563086,0.10636271,0.16978519
20001,0,USKansasAllen,Kansas,Allen,2021-01-05 23:03:56.601438,2020-07-15 00:00:00.000000,0.18173952,0.37565407,0.60613837,22,46,74,11,22,45,0.09654500,0.18409716,0.36597961,0.05571498,0.10661495,0.16944262
20001,0,USKansasAllen,Kansas,Allen,2021-01-05 23:03:56.601438,2020-07-16 00:00:00.000000,0.18106987,0.37528564,0.60536998,22,46,74,12,22,44,0.09763627,0.18503653,0.36283936,0.05577863,0.10687628,0.16808679
20001,0,USKansasAllen,Kansas,Allen,2021-01-05 23:03:56.601438,2020-07-17 00:00:00.000000,0.18064855,0.37636211,0.60473461,22,46,74,12,22,44,0.09920854,0.18377290,0.36063670,0.05587336,0.10938768,0.16466524
20001,0,USKansasAllen,Kansas,Allen,2021-01-05 23:03:56.601438,2020-07-18 00:00:00.000000,0.18051476,0.37338419,0.60418798,22,46,74,12,22,44,0.10116650,0.18305759,0.35907184,0.05542746,0.11174052,0.16372860
20001,0,USKansasAllen,Kansas,Allen,2021-01-05 23:03:56.601438,2020-07-19 00:00:00.000000,0.18048645,0.37553732,0.60358701,22,46,74,12,22,44,0.10156577,0.18195251,0.35794027,0.05747778,0.11242957,0.17037613
20001,0,USKansasAllen,Kansas,Allen,2021-01-05 23:03:56.601438,2020-07-20 00:00:00.000000,0.17720919,0.38067152,0.60173592,21,47,74,12,22,44,0.10135282,0.18272461,0.35710549,0.05836937,0.11651519,0.18301525
20001,0,USKansasAllen,Kansas,Allen,2021-01-05 23:03:56.601438,2020-07-21 00:00:00.000000,0.17442270,0.38768904,0.60533938,21,47,74,12,22,44,0.10133759,0.18560553,0.35784516,0.05842541,0.11869714,0.17993793
20001,0,USKansasAllen,Kansas,Allen,2021-01-05 23:03:56.601438,2020-07-22 00:00:00.000000,0.17714051,0.38999375,0.60965818,21,48,75,12,23,44,0.09932648,0.18853609,0.35670031,0.05866869,0.11992126,0.17790582
20001,0,USKansasAllen,Kansas,Allen,2021-01-05 23:03:56.601438,2020-07-23 00:00:00.000000,0.17240089,0.38504639,0.61819304,21,47,76,11,23,44,0.09667836,0.19190816,0.35691302,0.05981047,0.11957672,0.19547982
20001,0,USKansasAllen,Kansas,Allen,2021-01-05 23:03:56.601438,2020-07-24 00:00:00.000000,0.16796825,0.38641946,0.62377234,20,47,77,12,24,44,0.09783351,0.19837493,0.35725816,0.06372750,0.11917727,0.19662360
20001,0,USKansasAllen,Kansas,Allen,2021-01-05 23:03:56.601438,2020-07-25 00:00:00.000000,0.16386822,0.38943131,0.62931198,20,48,77,11,25,44,0.09682885,0.20262848,0.35770009,0.06597784,0.12032909,0.20338714
20001,0,USKansasAllen,Kansas,Allen,2021-01-05 23:03:56.601438,2020-07-26 00:00:00.000000,0.16009747,0.39467260,0.63489286,19,48,78,11,25,44,0.09484285,0.20342756,0.35822686,0.06687419,0.12471996,0.20463012
20001,0,USKansasAllen,Kansas,Allen,2021-01-05 23:03:56.601438,2020-07-27 00:00:00.000000,0.16466152,0.40575029,0.63270393,20,50,78,11,25,44,0.09269960,0.20373568,0.35885890,0.06718708,0.13214377,0.20462480
20001,0,USKansasAllen,Kansas,Allen,2021-01-05 23:03:56.601438,2020-07-28 00:00:00.000000,0.16235818,0.41294268,0.63278150,20,51,78,11,25,44,0.09116899,0.20266454,0.36045383,0.06733685,0.13481950,0.20428313
20001,0,USKansasAllen,Kansas,Allen,2021-01-05 23:03:56.601438,2020-07-29 00:00:00.000000,0.16028198,0.42105704,0.64931645,19,52,80,11,25,44,0.09010541,0.20820217,0.36219817,0.06763611,0.13317822,0.20598314
20001,0,USKansasAllen,Kansas,Allen,2021-01-05 23:03:56.601438,2020-07-30 00:00:00.000000,0.15842227,0.43227538,0.63973822,19,53,79,11,25,44,0.09005702,0.20605203,0.36248622,0.06885722,0.13908613,0.20766090
20001,0,USKansasAllen,Kansas,Allen,2021-01-05 23:03:56.601438,2020-07-31 00:00:00.000000,0.15680988,0.44235788,0.66199899,19,54,81,11,25,44,0.09315697,0.20403629,0.36175886,0.07228329,0.13940452,0.21625796
20001,0,USKansasAllen,Kansas,Allen,2021-01-05 23:03:56.601438,2020-08-01 00:00:00.000000,0.15651261,0.45324877,0.71172411,19,56,88,11,25,44,0.09320573,0.20711561,0.36310353,0.07545472,0.14129251,0.21892914
20001,0,USKansasAllen,Kansas,Allen,2021-01-05 23:03:56.601438,2020-08-02 00:00:00.000000,0.15755310,0.45405137,0.75181510,19,56,92,11,26,45,0.09209341,0.21772406,0.36506495,0.07729547,0.14450409,0.22897194
20001,0,USKansasAllen,Kansas,Allen,2021-01-05 23:03:56.601438,2020-08-03 00:00:00.000000,0.17303417,0.45918604,0.74704142,21,56,92,11,27,45,0.09119867,0.22136359,0.36730207,0.07947900,0.14886333,0.23142544
20001,0,USKansasAllen,Kansas,Allen,2021-01-05 23:03:56.601438,2020-08-04 00:00:00.000000,0.18858830,0.47091107,0.74161867,23,58,91,11,28,45,0.09348706,0.22663741,0.36791728,0.08369807,0.15452996,0.23242550
20001,0,USKansasAllen,Kansas,Allen,2021-01-05 23:03:56.601438,2020-08-05 00:00:00.000000,0.20429527,0.47298167,0.73520875,25,58,90,12,28,46,0.09806622,0.22916687,0.37438106,0.08435440,0.15713422,0.23278165
20001,0,USKansasAllen,Kansas,Allen,2021-01-05 23:03:56.601438,2020-08-06 00:00:00.000000,0.21477790,0.47702334,0.72805376,26,59,90,12,28,46,0.10424597,0.23440270,0.37543033,0.08545744,0.15950928,0.23279652
20001,0,USKansasAllen,Kansas,Allen,2021-01-05 23:03:56.601438,2020-08-07 00:00:00.000000,0.22225942,0.48463040,0.72630051,27,59,89,13,29,47,0.10965553,0.23788430,0.38128506,0.08777045,0.16370148,0.22772190
20001,0,USKansasAllen,Kansas,Allen,2021-01-05 23:03:56.601438,2020-08-08 00:00:00.000000,0.23011409,0.49359872,0.73970622,28,61,91,14,29,47,0.11386226,0.23817494,0.38058967,0.08819900,0.16784991,0.22419299
20001,0,USKansasAllen,Kansas,Allen,2021-01-05 23:03:56.601438,2020-08-09 00:00:00.000000,0.23841680,0.50733237,0.77221514,29,62,95,14,29,47,0.11850198,0.24231013,0.38573270,0.08854176,0.16998041,0.23875144
20001,0,USKansasAllen,Kansas,Allen,2021-01-05 23:03:56.601438,2020-08-10 00:00:00.000000,0.23255273,0.49705714,0.76699260,28,61,94,15,30,48,0.12611468,0.24478465,0.39305289,0.09009207,0.17414823,0.26135009
20001,0,USKansasAllen,Kansas,Allen,2021-01-05 23:03:56.601438,2020-08-11 00:00:00.000000,0.22702569,0.48787838,0.76172769,28,60,94,15,30,49,0.12860546,0.24456995,0.40046467,0.09015544,0.17632697,0.26754645
20001,0,USKansasAllen,Kansas,Allen,2021-01-05 23:03:56.601438,2020-08-12 00:00:00.000000,0.22125807,0.48436747,0.75607839,27,59,93,15,30,50,0.12788028,0.24294292,0.41052183,0.09025728,0.18129331,0.27399072
20001,0,USKansasAllen,Kansas,Allen,2021-01-05 23:03:56.601438,2020-08-13 00:00:00.000000,0.21353355,0.47396460,0.75044511,26,58,92,15,29,51,0.12607404,0.24184865,0.41587280,0.09071730,0.18309817,0.28409322
20001,0,USKansasAllen,Kansas,Allen,2021-01-05 23:03:56.601438,2020-08-14 00:00:00.000000,0.20555122,0.46646108,0.74530798,25,57,92,15,29,50,0.12364438,0.24030902,0.40844841,0.09302942,0.18571761,0.28432828
20001,0,USKansasAllen,Kansas,Allen,2021-01-05 23:03:56.601438,2020-08-15 00:00:00.000000,0.19822134,0.46209236,0.74123888,24,57,91,14,29,49,0.11876377,0.23691899,0.40115872,0.10286439,0.19090521,0.28441278
20001,0,USKansasAllen,Kansas,Allen,2021-01-05 23:03:56.601438,2020-08-16 00:00:00.000000,0.19153117,0.45510143,0.73881945,23,56,91,14,28,49,0.11354028,0.23146752,0.40399860,0.11785179,0.19542920,0.28446552
20001,0,USKansasAllen,Kansas,Allen,2021-01-05 23:03:56.601438,2020-08-17 00:00:00.000000,0.19145780,0.46425737,0.77620076,23,57,96,13,28,50,0.10835776,0.22827172,0.40848122,0.12141996,0.19671751,0.28450994
20001,0,USKansasAllen,Kansas,Allen,2021-01-05 23:03:56.601438,2020-08-18 00:00:00.000000,0.19161269,0.47850212,0.81231635,23,59,100,12,28,51,0.10415593,0.23007927,0.41979837,0.12202245,0.19937662,0.28583192
20001,0,USKansasAllen,Kansas,Allen,2021-01-05 23:03:56.601438,2020-08-19 00:00:00.000000,0.19204789,0.48997163,0.82919910,23,60,102,12,28,52,0.10069319,0.23275390,0.42415429,0.12410051,0.20679404,0.28840209
20001,0,USKansasAllen,Kansas,Allen,2021-01-05 23:03:56.601438,2020-08-20 00:00:00.000000,0.19271744,0.50980619,0.86444696,23,63,106,12,29,52,0.09779974,0.23640576,0.42795680,0.12542353,0.21303267,0.29237160
20001,0,USKansasAllen,Kansas,Allen,2021-01-05 23:03:56.601438,2020-08-21 00:00:00.000000,0.19673850,0.52647320,0.90276532,24,65,111,11,29,53,0.09537810,0.23979021,0.43320018,0.12593425,0.21621919,0.30578329
20001,0,USKansasAllen,Kansas,Allen,2021-01-05 23:03:56.601438,2020-08-22 00:00:00.000000,0.20467127,0.53975084,0.94378524,25,66,116,11,30,54,0.09461182,0.24288544,0.44012194,0.12756065,0.22272990,0.32430156
20001,0,USKansasAllen,Kansas,Allen,2021-01-05 23:03:56.601438,2020-08-23 00:00:00.000000,0.21284960,0.55775544,0.98681224,26,68,122,12,30,55,0.09730155,0.24844637,0.44873403,0.13735103,0.22521652,0.33118007
20001,0,USKansasAllen,Kansas,Allen,2021-01-05 23:03:56.601438,2020-08-24 00:00:00.000000,0.23275523,0.57471518,1.02915193,28,71,127,12,32,56,0.10043839,0.26093766,0.45878419,0.13965447,0.23584777,0.33938449
20001,0,USKansasAllen,Kansas,Allen,2021-01-05 23:03:56.601438,2020-08-25 00:00:00.000000,0.26699291,0.59198541,1.07260910,33,73,132,13,33,58,0.10588278,0.27178773,0.46990572,0.14425041,0.24242441,0.34654705
20001,0,USKansasAllen,Kansas,Allen,2021-01-05 23:03:56.601438,2020-08-26 00:00:00.000000,0.29345145,0.61081928,1.11694832,36,75,138,13,34,60,0.11283013,0.28035183,0.48886246,0.15356015,0.24971310,0.35736891
20001,0,USKansasAllen,Kansas,Allen,2021-01-05 23:03:56.601438,2020-08-27 00:00:00.000000,0.29935430,0.65160323,1.16206821,37,80,143,15,35,62,0.12365814,0.28747528,0.50861917,0.15381864,0.25381078,0.37290965
20001,0,USKansasAllen,Kansas,Allen,2021-01-05 23:03:56.601438,2020-08-28 00:00:00.000000,0.31245953,0.67992027,1.20792630,38,84,149,16,36,66,0.13602403,0.29626062,0.53449643,0.15472450,0.25407778,0.38806316
20001,0,USKansasAllen,Kansas,Allen,2021-01-05 23:03:56.601438,2020-08-29 00:00:00.000000,0.33229042,0.71292319,1.23028294,41,88,152,18,37,69,0.14884554,0.30341230,0.56346137,0.15695441,0.25631596,0.39712388
20001,0,USKansasAllen,Kansas,Allen,2021-01-05 23:03:56.601438,2020-08-30 00:00:00.000000,0.35251689,0.74026050,1.26134049,43,91,156,20,39,73,0.16203903,0.31864950,0.59256141,0.17937751,0.26296039,0.40713794
20001,0,USKansasAllen,Kansas,Allen,2021-01-05 23:03:56.601438,2020-08-31 00:00:00.000000,0.36403696,0.76586498,1.30110021,45,94,160,20,41,76,0.16623355,0.33307734,0.62185033,0.18268188,0.26786871,0.41855707
20001,0,USKansasAllen,Kansas,Allen,2021-01-05 23:03:56.601438,2020-09-01 00:00:00.000000,0.37715173,0.79649199,1.34023381,46,98,165,21,42,80,0.17220411,0.34534231,0.65309697,0.18267565,0.27370993,0.41851350
20001,0,USKansasAllen,Kansas,Allen,2021-01-05 23:03:56.601438,2020-09-02 00:00:00.000000,0.39319745,0.82237391,1.37950197,48,101,170,22,44,84,0.18049671,0.35936974,0.68645648,0.18344858,0.27813941,0.43218173
20001,0,USKansasAllen,Kansas,Allen,2021-01-05 23:03:56.601438,2020-09-03 00:00:00.000000,0.41297837,0.84760180,1.44513939,51,104,178,23,47,89,0.19045088,0.38037650,0.72034129,0.18557982,0.28601247,0.43705476
20001,0,USKansasAllen,Kansas,Allen,2021-01-05 23:03:56.601438,2020-09-04 00:00:00.000000,0.43693752,0.89059567,1.52193471,54,110,188,24,49,92,0.19994824,0.39630130,0.74435850,0.19083665,0.29192535,0.44446601
20001,0,USKansasAllen,Kansas,Allen,2021-01-05 23:03:56.601438,2020-09-05 00:00:00.000000,0.46387447,0.92835831,1.60189119,57,114,198,25,50,94,0.20412902,0.41032142,0.76374383,0.19979433,0.29452159,0.45708259
20001,0,USKansasAllen,Kansas,Allen,2021-01-05 23:03:56.601438,2020-09-06 00:00:00.000000,0.49285999,0.97795741,1.68454681,60,120,208,26,52,96,0.21023439,0.42320767,0.78389169,0.18820115,0.29660376,0.47097287
20001,0,USKansasAllen,Kansas,Allen,2021-01-05 23:03:56.601438,2020-09-07 00:00:00.000000,0.52309830,1.01831299,1.72833040,64,125,213,27,55,99,0.22220481,0.44618327,0.80490050,0.17435405,0.30101364,0.47931828
20001,0,USKansasAllen,Kansas,Allen,2021-01-05 23:03:56.601438,2020-09-08 00:00:00.000000,0.55543022,1.06493756,1.74928423,68,131,216,29,58,102,0.23536559,0.47092454,0.82923575,0.17400905,0.30133019,0.48262943
20001,0,USKansasAllen,Kansas,Allen,2021-01-05 23:03:56.601438,2020-09-09 00:00:00.000000,0.58879434,1.12219376,1.77455211,72,138,219,30,60,105,0.24956838,0.49130129,0.85651233,0.17544390,0.30323419,0.48374033
20001,0,USKansasAllen,Kansas,Allen,2021-01-05 23:03:56.601438,2020-09-10 00:00:00.000000,0.62271045,1.18025577,1.84624360,77,145,228,32,63,109,0.26542897,0.51209622,0.88731565,0.17853522,0.30620773,0.48420236
20001,0,USKansasAllen,Kansas,Allen,2021-01-05 23:03:56.601438,2020-09-11 00:00:00.000000,0.65807494,1.22809911,1.96304945,81,151,242,34,66,113,0.28032911,0.53849565,0.91771286,0.18459619,0.30555438,0.48360008
20001,0,USKansasAllen,Kansas,Allen,2021-01-05 23:03:56.601438,2020-09-12 00:00:00.000000,0.69333785,1.28050306,2.03421071,85,158,251,36,69,118,0.29662420,0.56157812,0.95916705,0.19275291,0.31435988,0.48680071
20001,0,USKansasAllen,Kansas,Allen,2021-01-05 23:03:56.601438,2020-09-13 00:00:00.000000,0.72072971,1.32705797,2.09592487,89,164,259,38,72,125,0.31383260,0.58328590,1.01441519,0.20570974,0.31998807,0.48962697
20001,0,USKansasAllen,Kansas,Allen,2021-01-05 23:03:56.601438,2020-09-14 00:00:00.000000,0.75855727,1.38041534,2.16818647,93,170,268,41,75,131,0.33221384,0.60891511,1.06219944,0.21668723,0.31951132,0.49392023
20001,0,USKansasAllen,Kansas,Allen,2021-01-05 23:03:56.601438,2020-09-15 00:00:00.000000,0.79954890,1.46112000,2.24490081,98,180,277,43,79,135,0.34959807,0.64187063,1.09360287,0.23108056,0.32296651,0.49733289
20001,0,USKansasAllen,Kansas,Allen,2021-01-05 23:03:56.601438,2020-09-16 00:00:00.000000,0.87138167,1.53962648,2.32512629,107,190,287,45,83,139,0.36868993,0.67764749,1.12672031,0.23209414,0.32315650,0.49891614
20001,0,USKansasAllen,Kansas,Allen,2021-01-05 23:03:56.601438,2020-09-17 00:00:00.000000,0.92736093,1.64162648,2.40808637,114,203,297,48,88,145,0.39348887,0.71397940,1.17385450,0.23631124,0.32462976,0.49891286
20001,0,USKansasAllen,Kansas,Allen,2021-01-05 23:03:56.601438,2020-09-18 00:00:00.000000,1.01084904,1.71106266,2.49335218,125,211,308,51,93,152,0.41498392,0.75255032,1.23301435,0.23787665,0.32809493,0.49666703
20001,0,USKansasAllen,Kansas,Allen,2021-01-05 23:03:56.601438,2020-09-19 00:00:00.000000,1.06803464,1.74124898,2.58029703,132,215,319,54,96,159,0.43682620,0.78366822,1.29249611,0.22693635,0.32424138,0.48869895
20001,0,USKansasAllen,Kansas,Allen,2021-01-05 23:03:56.601438,2020-09-20 00:00:00.000000,1.10173429,1.81792382,2.74794942,136,224,339,56,102,167,0.45883247,0.82752236,1.35226879,0.22550267,0.32218322,0.48796268
20001,0,USKansasAllen,Kansas,Allen,2021-01-05 23:03:56.601438,2020-09-21 00:00:00.000000,1.15444344,1.88713626,2.93583382,142,233,363,59,108,174,0.48089632,0.87358274,1.41204941,0.22517715,0.32081332,0.48811642
20001,0,USKansasAllen,Kansas,Allen,2021-01-05 23:03:56.601438,2020-09-22 00:00:00.000000,1.20827592,1.95339301,3.11952371,149,241,385,62,111,182,0.50494498,0.89852834,1.47487929,0.22511163,0.31757500,0.48032205
20001,0,USKansasAllen,Kansas,Allen,2021-01-05 23:03:56.601438,2020-09-23 00:00:00.000000,1.26870575,2.03430995,3.25316367,156,251,402,65,114,190,0.53044942,0.92756127,1.53906417,0.22510134,0.31131565,0.46100596
20001,0,USKansasAllen,Kansas,Allen,2021-01-05 23:03:56.601438,2020-09-24 00:00:00.000000,1.31743333,2.12961736,3.29989381,162,263,408,68,119,200,0.55711854,0.96439933,1.61802616,0.22511281,0.30865752,0.46441816
20001,0,USKansasAllen,Kansas,Allen,2021-01-05 23:03:56.601438,2020-09-25 00:00:00.000000,1.37289193,2.21437085,3.34700671,169,273,413,72,123,210,0.58478497,1.00230702,1.70281385,0.22515154,0.30080040,0.45019932
20001,0,USKansasAllen,Kansas,Allen,2021-01-05 23:03:56.601438,2020-09-26 00:00:00.000000,1.42931243,2.28980045,3.39509107,176,283,419,76,128,219,0.61759070,1.04172533,1.77782288,0.22527088,0.30371946,0.44340131
20001,0,USKansasAllen,Kansas,Allen,2021-01-05 23:03:56.601438,2020-09-27 00:00:00.000000,1.48703897,2.36987735,3.44364119,183,293,425,81,133,227,0.65773901,1.07955702,1.84214657,0.22564824,0.29539943,0.44726525
20001,0,USKansasAllen,Kansas,Allen,2021-01-05 23:03:56.601438,2020-09-28 00:00:00.000000,1.53536757,2.43471915,3.48906836,189,301,431,86,138,231,0.70073867,1.12089973,1.86946858,0.22146290,0.29947163,0.44570191
20001,0,USKansasAllen,Kansas,Allen,2021-01-05 23:03:56.601438,2020-09-29 00:00:00.000000,1.58658468,2.50086350,3.56613196,196,309,441,92,142,237,0.74500240,1.15372266,1.91734686,0.22069434,0.30067921,0.44909738
20001,0,USKansasAllen,Kansas,Allen,2021-01-05 23:03:56.601438,2020-09-30 00:00:00.000000,1.64043177,2.56633136,3.64918557,202,317,451,97,148,243,0.79145597,1.20133854,1.96975219,0.22151269,0.30099640,0.44913293
20001,0,USKansasAllen,Kansas,Allen,2021-01-05 23:03:56.601438,2020-10-01 00:00:00.000000,1.69645727,2.63443990,3.75468862,209,325,464,103,153,249,0.84051738,1.23808374,2.01979317,0.22015224,0.30109560,0.44468134
20001,0,USKansasAllen,Kansas,Allen,2021-01-05 23:03:56.601438,2020-10-02 00:00:00.000000,1.75488036,2.72408625,3.90444212,217,336,482,108,157,255,0.87318140,1.27695100,2.06849501,0.22389777,0.30039792,0.43305113
20001,0,USKansasAllen,Kansas,Allen,2021-01-05 23:03:56.601438,2020-10-03 00:00:00.000000,1.81712947,2.81458901,3.97499977,224,348,491,111,161,260,0.90202764,1.30850752,2.10598310,0.22749320,0.29760817,0.42579023
20001,0,USKansasAllen,Kansas,Allen,2021-01-05 23:03:56.601438,2020-10-04 00:00:00.000000,1.88419068,2.90402761,4.06340179,233,359,502,115,166,264,0.93137085,1.34570510,2.14049598,0.22770790,0.29998149,0.42359770
20001,0,USKansasAllen,Kansas,Allen,2021-01-05 23:03:56.601438,2020-10-05 00:00:00.000000,1.93821686,2.96399526,4.16227279,239,366,514,118,170,269,0.96075113,1.38066163,2.17942338,0.22818194,0.29719623,0.42912434
20001,0,USKansasAllen,Kansas,Allen,2021-01-05 23:03:56.601438,2020-10-06 00:00:00.000000,1.99488132,3.01265876,4.26121086,246,372,527,122,174,275,0.98798876,1.41371651,2.22351508,0.22918824,0.29753849,0.43372787
20001,0,USKansasAllen,Kansas,Allen,2021-01-05 23:03:56.601438,2020-10-07 00:00:00.000000,2.05351001,3.05132049,4.36070370,253,377,539,125,179,281,1.01412044,1.44817148,2.27364738,0.23126214,0.30160798,0.44086208
20001,0,USKansasAllen,Kansas,Allen,2021-01-05 23:03:56.601438,2020-10-08 00:00:00.000000,2.11443013,3.12755703,4.46073381,261,386,551,128,182,287,1.04073147,1.47527400,2.32720131,0.23289984,0.31207872,0.44541309
20001,0,USKansasAllen,Kansas,Allen,2021-01-05 23:03:56.601438,2020-10-09 00:00:00.000000,2.17794857,3.18841642,4.57292450,269,394,565,132,187,294,1.06939560,1.51527706,2.37944677,0.23425533,0.31521784,0.44765150
20001,0,USKansasAllen,Kansas,Allen,2021-01-05 23:03:56.601438,2020-10-10 00:00:00.000000,2.24405889,3.25931288,4.70729538,277,403,582,136,192,300,1.10108512,1.55656689,2.43282968,0.23637364,0.31855073,0.45630156
20001,0,USKansasAllen,Kansas,Allen,2021-01-05 23:03:56.601438,2020-10-11 00:00:00.000000,2.31249343,3.36055466,4.84537319,286,415,599,140,197,308,1.13605359,1.59627514,2.49231479,0.23341908,0.32039175,0.46908876
20001,0,USKansasAllen,Kansas,Allen,2021-01-05 23:03:56.601438,2020-10-12 00:00:00.000000,2.34463929,3.47803014,5.00556261,290,430,619,145,202,313,1.17412746,1.63918763,2.53531955,0.23633964,0.32646826,0.47367626
20001,0,USKansasAllen,Kansas,Allen,2021-01-05 23:03:56.601438,2020-10-13 00:00:00.000000,2.38002981,3.59127726,5.18288937,294,444,641,147,208,320,1.19334895,1.68449461,2.59073070,0.23944867,0.33118871,0.48186970
20001,0,USKansasAllen,Kansas,Allen,2021-01-05 23:03:56.601438,2020-10-14 00:00:00.000000,2.45896212,3.73831739,5.36555523,304,462,663,148,216,325,1.20178169,1.74662125,2.62923091,0.24012905,0.33849620,0.49380430
20001,0,USKansasAllen,Kansas,Allen,2021-01-05 23:03:56.601438,2020-10-15 00:00:00.000000,2.54410555,3.90077927,5.54849121,314,482,686,149,222,333,1.21091687,1.79753560,2.69270097,0.24272273,0.34458613,0.50229813
20001,0,USKansasAllen,Kansas,Allen,2021-01-05 23:03:56.601438,2020-10-16 00:00:00.000000,2.64400370,4.07535466,5.73071455,327,504,708,151,227,343,1.22142682,1.83982631,2.78041922,0.24726203,0.35926751,0.50825014
20001,0,USKansasAllen,Kansas,Allen,2021-01-05 23:03:56.601438,2020-10-17 00:00:00.000000,2.79159513,4.18464293,5.91341037,345,517,731,152,233,353,1.23548501,1.89038528,2.85501995,0.25747718,0.37423841,0.52553871
20001,0,USKansasAllen,Kansas,Allen,2021-01-05 23:03:56.601438,2020-10-18 00:00:00.000000,2.99880910,4.36676923,6.09717543,370,540,754,156,240,362,1.26243101,1.94238227,2.93286997,0.26709196,0.39806061,0.55100215
20001,0,USKansasAllen,Kansas,Allen,2021-01-05 23:03:56.601438,2020-10-19 00:00:00.000000,3.22618010,4.52127635,6.32680293,399,559,782,165,249,374,1.34086326,2.01798223,3.02507616,0.26209534,0.41929755,0.59228166
20001,0,USKansasAllen,Kansas,Allen,2021-01-05 23:03:56.601438,2020-10-20 00:00:00.000000,3.35783787,4.68741657,6.59729613,415,579,816,176,261,386,1.43069025,2.11324532,3.12231958,0.26086641,0.42463775,0.61562964
20001,0,USKansasAllen,Kansas,Allen,2021-01-05 23:03:56.601438,2020-10-21 00:00:00.000000,3.43675726,4.87497828,6.87488341,425,602,850,189,277,398,1.53046020,2.24477432,3.21835279,0.29925709,0.43272272,0.61832422
20001,0,USKansasAllen,Kansas,Allen,2021-01-05 23:03:56.601438,2020-10-22 00:00:00.000000,3.53132751,5.09093218,7.12777966,436,629,881,202,291,409,1.63923434,2.35616773,3.31370367,0.30630982,0.44643222,0.61154982
20001,0,USKansasAllen,Kansas,Allen,2021-01-05 23:03:56.601438,2020-10-23 00:00:00.000000,3.66425588,5.34023746,7.45540466,453,660,922,216,303,421,1.74677115,2.45135149,3.40879351,0.31560793,0.45442821,0.61504727
20001,0,USKansasAllen,Kansas,Allen,2021-01-05 23:03:56.601438,2020-10-24 00:00:00.000000,3.91791677,5.61841570,7.90206674,484,694,977,221,318,433,1.79271533,2.57182933,3.50413835,0.32519124,0.47335900,0.62056516
20001,0,USKansasAllen,Kansas,Allen,2021-01-05 23:03:56.601438,2020-10-25 00:00:00.000000,4.18856262,5.93199307,8.32221259,518,733,1029,228,337,450,1.84754643,2.73117239,3.63871923,0.33143458,0.48189782,0.62377175
20001,0,USKansasAllen,Kansas,Allen,2021-01-05 23:03:56.601438,2020-10-26 00:00:00.000000,4.48361663,6.28132666,8.77387348,554,776,1085,241,355,471,1.95319062,2.87815214,3.81154640,0.33547419,0.49383344,0.64218662
20001,0,USKansasAllen,Kansas,Allen,2021-01-05 23:03:56.601438,2020-10-27 00:00:00.000000,4.74502710,6.64827294,9.25711131,586,822,1145,257,373,497,2.08041281,3.02282319,4.01827788,0.33859924,0.49668240,0.64894049
20001,0,USKansasAllen,Kansas,Allen,2021-01-05 23:03:56.601438,2020-10-28 00:00:00.000000,5.02111335,7.00332385,9.89132358,621,866,1223,270,393,530,2.18880657,3.17757084,4.29072455,0.34308581,0.49313348,0.63335222
20001,0,USKansasAllen,Kansas,Allen,2021-01-05 23:03:56.601438,2020-10-29 00:00:00.000000,5.28702812,7.38078787,10.44767896,653,912,1292,285,411,567,2.30785570,3.32773770,4.58999128,0.33657583,0.49092867,0.62989914
20001,0,USKansasAllen,Kansas,Allen,2021-01-05 23:03:56.601438,2020-10-30 00:00:00.000000,5.58568176,7.78516434,10.78262048,690,962,1333,301,435,607,2.43644172,3.52223493,4.91459354,0.34952862,0.49268398,0.63303850
20001,0,USKansasAllen,Kansas,Allen,2021-01-05 23:03:56.601438,2020-10-31 00:00:00.000000,5.94740861,8.21334072,11.30540133,735,1015,1398,318,451,650,2.57756611,3.65226681,5.25646065,0.34952027,0.49123195,0.65038578
20001,0,USKansasAllen,Kansas,Allen,2021-01-05 23:03:56.601438,2020-11-01 00:00:00.000000,6.36011451,8.61074512,11.81345780,786,1065,1461,338,475,679,2.73879588,3.84673520,5.49388491,0.35766763,0.48936007,0.63441180
20001,0,USKansasAllen,Kansas,Allen,2021-01-05 23:03:56.601438,2020-11-02 00:00:00.000000,6.81205514,9.01388405,12.29802473,842,1114,1521,360,499,716,2.91800929,4.03548634,5.78897551,0.33479108,0.48311299,0.63215526
20001,0,USKansasAllen,Kansas,Allen,2021-01-05 23:03:56.601438,2020-11-03 00:00:00.000000,7.19003153,9.35477142,12.71505854,889,1157,1572,384,523,741,3.10795821,4.22878491,5.99268366,0.32122223,0.47850385,0.62689239
20001,0,USKansasAllen,Kansas,Allen,2021-01-05 23:03:56.601438,2020-11-04 00:00:00.000000,7.45535641,9.70187546,13.06230639,922,1200,1615,406,546,766,3.28785953,4.41963571,6.19611675,0.32159244,0.46926035,0.61381097
20001,0,USKansasAllen,Kansas,Allen,2021-01-05 23:03:56.601438,2020-11-05 00:00:00.000000,7.63503075,10.08772252,13.58519159,944,1247,1680,426,571,806,3.44698832,4.62399841,6.51920295,0.32294013,0.46164233,0.60361648
20001,0,USKansasAllen,Kansas,Allen,2021-01-05 23:03:56.601438,2020-11-06 00:00:00.000000,7.84107129,10.52027528,14.07588603,969,1301,1741,447,600,847,3.61639253,4.85836732,6.84957622,0.32395070,0.45658151,0.60387732
20001,0,USKansasAllen,Kansas,Allen,2021-01-05 23:03:56.601438,2020-11-07 00:00:00.000000,8.22141067,10.87329333,14.50701334,1016,1344,1794,463,625,887,3.74724700,5.05846857,7.17716829,0.32011325,0.44629170,0.61442659
20001,0,USKansasAllen,Kansas,Allen,2021-01-05 23:03:56.601438,2020-11-08 00:00:00.000000,8.59436278,11.04647224,14.88890364,1063,1366,1841,474,652,927,3.83780891,5.27910193,7.49550998,0.31626773,0.43456970,0.61905347
20001,0,USKansasAllen,Kansas,Allen,2021-01-05 23:03:56.601438,2020-11-09 00:00:00.000000,8.96922286,11.36487501,15.27569799,1109,1405,1889,484,673,956,3.91958121,5.44490326,7.73205049,0.30398890,0.42764759,0.59509782
20001,0,USKansasAllen,Kansas,Allen,2021-01-05 23:03:56.601438,2020-11-10 00:00:00.000000,9.29201983,11.64458127,15.85788974,1149,1440,1961,493,695,976,3.99136762,5.61982007,7.89245048,0.29276539,0.42091232,0.56229932
20001,0,USKansasAllen,Kansas,Allen,2021-01-05 23:03:56.601438,2020-11-11 00:00:00.000000,9.48391348,11.80743426,16.42869415,1173,1460,2032,501,714,1001,4.05371187,5.77340644,8.09374107,0.29449791,0.41558379,0.56290023
20001,0,USKansasAllen,Kansas,Allen,2021-01-05 23:03:56.601438,2020-11-12 00:00:00.000000,9.58184619,12.09546861,16.98603159,1185,1496,2101,515,729,1026,4.16829360,5.89871347,8.29724171,0.29265134,0.40379016,0.56255899
20001,0,USKansasAllen,Kansas,Allen,2021-01-05 23:03:56.601438,2020-11-13 00:00:00.000000,9.67390298,12.42892928,17.52263244,1196,1537,2167,531,746,1049,4.29894025,6.03490890,8.48174645,0.28815107,0.40227810,0.56105391
20001,0,USKansasAllen,Kansas,Allen,2021-01-05 23:03:56.601438,2020-11-14 00:00:00.000000,9.76276357,12.58177206,18.02982597,1207,1556,2230,547,764,1069,4.42846974,6.17810899,8.64807529,0.28228211,0.40628715,0.55642465
20001,0,USKansasAllen,Kansas,Allen,2021-01-05 23:03:56.601438,2020-11-15 00:00:00.000000,9.85281172,12.75703627,18.50258810,1218,1577,2288,555,776,1088,4.49365926,6.27444723,8.79756871,0.27394862,0.40146770,0.54395914
20001,0,USKansasAllen,Kansas,Allen,2021-01-05 23:03:56.601438,2020-11-16 00:00:00.000000,9.94106524,13.00389181,18.64003442,1229,1608,2305,568,796,1104,4.59696190,6.43889659,8.93207429,0.26851404,0.40170331,0.52036049
20001,0,USKansasAllen,Kansas,Allen,2021-01-05 23:03:56.601438,2020-11-17 00:00:00.000000,10.03169087,13.18756259,18.73685191,1240,1631,2317,578,809,1133,4.67649694,6.54172046,9.16042291,0.26018088,0.39982036,0.52319589
20001,0,USKansasAllen,Kansas,Allen,2021-01-05 23:03:56.601438,2020-11-18 00:00:00.000000,10.12903708,13.50685319,18.81128393,1252,1670,2326,586,825,1171,4.74449328,6.67602019,9.47125746,0.25154648,0.40520746,0.52607315
20001,0,USKansasAllen,Kansas,Allen,2021-01-05 23:03:56.601438,2020-11-19 00:00:00.000000,10.23851440,13.66550595,18.86745238,1266,1690,2333,595,833,1197,4.81688143,6.74073258,9.68364865,0.25020627,0.40736440,0.52955021
20001,0,USKansasAllen,Kansas,Allen,2021-01-05 23:03:56.601438,2020-11-20 00:00:00.000000,10.36566337,13.80107020,18.88395186,1282,1707,2335,604,843,1208,4.89059173,6.82054918,9.77022096,0.24499361,0.41275852,0.53603509
20001,0,USKansasAllen,Kansas,Allen,2021-01-05 23:03:56.601438,2020-11-21 00:00:00.000000,10.51449154,13.92208912,18.78416909,1300,1722,2323,614,859,1217,4.96406789,6.95017736,9.84047270,0.24818108,0.41367166,0.54566988
20001,0,USKansasAllen,Kansas,Allen,2021-01-05 23:03:56.601438,2020-11-22 00:00:00.000000,10.61948033,14.01897386,18.68212760,1313,1734,2310,623,870,1225,5.03679351,7.04170841,9.90408327,0.29493693,0.41977863,0.55398984
20001,0,USKansasAllen,Kansas,Allen,2021-01-05 23:03:56.601438,2020-11-23 00:00:00.000000,10.72156644,14.24939174,19.02563830,1326,1762,2353,632,879,1245,5.11020497,7.11068580,10.06836846,0.29466397,0.41394068,0.55907208
20001,0,USKansasAllen,Kansas,Allen,2021-01-05 23:03:56.601438,2020-11-24 00:00:00.000000,10.82712080,14.29230245,19.27629860,1339,1767,2384,641,890,1263,5.18633913,7.20175472,10.21698226,0.29547246,0.41280242,0.56479973
20001,0,USKansasAllen,Kansas,Allen,2021-01-05 23:03:56.601438,2020-11-25 00:00:00.000000,10.92161463,14.29831501,19.20576359,1350,1768,2375,651,901,1280,5.26949287,7.28669153,10.34854023,0.29684697,0.41990938,0.57320133
20001,0,USKansasAllen,Kansas,Allen,2021-01-05 23:03:56.601438,2020-11-26 00:00:00.000000,10.94462207,14.41035845,19.16137140,1353,1782,2370,663,900,1293,5.36190940,7.27828778,10.45953411,0.28906283,0.42482616,0.58422435
20001,0,USKansasAllen,Kansas,Allen,2021-01-05 23:03:56.601438,2020-11-27 00:00:00.000000,10.71803903,14.61546294,19.16746408,1325,1807,2370,676,902,1300,5.46588872,7.29990895,10.51100170,0.30175251,0.41949710,0.58447816
20001,0,USKansasAllen,Kansas,Allen,2021-01-05 23:03:56.601438,2020-11-28 00:00:00.000000,10.49546163,14.70287153,19.00499277,1298,1818,2350,690,902,1300,5.58381263,7.29381244,10.51381839,0.31170920,0.41977826,0.60185088
20001,0,USKansasAllen,Kansas,Allen,2021-01-05 23:03:56.601438,2020-11-29 00:00:00.000000,10.42162737,14.69880265,18.92969981,1289,1818,2341,693,906,1306,5.60421513,7.32919577,10.56261645,0.31559808,0.42392826,0.61547002
20001,0,USKansasAllen,Kansas,Allen,2021-01-05 23:03:56.601438,2020-11-30 00:00:00.000000,10.44365904,14.67141735,18.82610701,1291,1814,2328,692,910,1314,5.59716065,7.35958375,10.62581133,0.31750389,0.43019501,0.62471261
20001,0,USKansasAllen,Kansas,Allen,2021-01-05 23:03:56.601438,2020-12-01 00:00:00.000000,10.46276313,14.67857480,18.90447999,1294,1815,2338,686,913,1317,5.55163715,7.38482202,10.65065929,0.32261592,0.43011003,0.65447630
20001,0,USKansasAllen,Kansas,Allen,2021-01-05 23:03:56.601438,2020-12-02 00:00:00.000000,10.47672023,14.68260625,19.20209205,1295,1816,2375,674,913,1323,5.45013880,7.38594523,10.69938485,0.31965809,0.42765089,0.72365368
20001,0,USKansasAllen,Kansas,Allen,2021-01-05 23:03:56.601438,2020-12-03 00:00:00.000000,10.49141413,14.75906869,19.41976643,1297,1825,2402,682,919,1320,5.51476402,7.43267013,10.67344898,0.32187210,0.42500512,0.73285254
20001,0,USKansasAllen,Kansas,Allen,2021-01-05 23:03:56.601438,2020-12-04 00:00:00.000000,10.54220847,14.92054567,19.69356867,1303,1845,2435,680,927,1334,5.49939123,7.49839478,10.78630160,0.32814082,0.42864788,0.73612091
20001,0,USKansasAllen,Kansas,Allen,2021-01-05 23:03:56.601438,2020-12-05 00:00:00.000000,10.32271467,14.97129696,19.93550681,1276,1851,2465,675,936,1335,5.45830483,7.56749237,10.79383885,0.33203360,0.45496641,0.74076576
20001,0,USKansasAllen,Kansas,Allen,2021-01-05 23:03:56.601438,2020-12-06 00:00:00.000000,10.43457554,15.09667146,20.13292256,1290,1867,2490,669,944,1333,5.41491998,7.63579330,10.78239923,0.33328669,0.48260289,0.74949958
20001,0,USKansasAllen,Kansas,Allen,2021-01-05 23:03:56.601438,2020-12-07 00:00:00.000000,10.70118027,14.97579529,20.20437705,1323,1852,2499,665,944,1330,5.37955328,7.63233848,10.75527326,0.35584775,0.50625722,0.76704754
20001,0,USKansasAllen,Kansas,Allen,2021-01-05 23:03:56.601438,2020-12-08 00:00:00.000000,10.97389598,14.98808411,20.30055457,1357,1853,2510,663,942,1325,5.36279785,7.61741156,10.71776336,0.33302185,0.54154840,0.78040366
20001,0,USKansasAllen,Kansas,Allen,2021-01-05 23:03:56.601438,2020-12-09 00:00:00.000000,11.21769671,15.01866034,20.38647934,1387,1857,2521,664,939,1319,5.37576719,7.59207335,10.67085337,0.33304528,0.55724536,0.80699800
20001,0,USKansasAllen,Kansas,Allen,2021-01-05 23:03:56.601438,2020-12-10 00:00:00.000000,11.56685205,15.16623120,20.43242451,1430,1875,2527,688,941,1318,5.56536906,7.61360037,10.65941612,0.33320156,0.58507779,0.83099362
20001,0,USKansasAllen,Kansas,Allen,2021-01-05 23:03:56.601438,2020-12-11 00:00:00.000000,11.64801377,15.20356315,20.44035747,1440,1880,2528,697,948,1324,5.63962081,7.66576443,10.70954423,0.33392133,0.60800451,0.89407918
20001,0,USKansasAllen,Kansas,Allen,2021-01-05 23:03:56.601438,2020-12-12 00:00:00.000000,11.53738597,15.38589776,20.41066136,1427,1903,2524,698,956,1330,5.64495966,7.72963979,10.75390489,0.33796684,0.61965871,0.92480282
20001,0,USKansasAllen,Kansas,Allen,2021-01-05 23:03:56.601438,2020-12-13 00:00:00.000000,11.49139443,15.40877637,20.34383177,1421,1905,2516,702,963,1334,5.68061797,7.79131908,10.78722167,0.36039802,0.63084845,0.93665957
20001,0,USKansasAllen,Kansas,Allen,2021-01-05 23:03:56.601438,2020-12-14 00:00:00.000000,11.38768066,15.67200413,20.32464491,1408,1938,2513,709,968,1337,5.73800527,7.82926071,10.81495587,0.37805258,0.65762340,0.96989685
20001,0,USKansasAllen,Kansas,Allen,2021-01-05 23:03:56.601438,2020-12-15 00:00:00.000000,11.25723263,15.93229369,20.65225499,1392,1970,2554,714,972,1369,5.77480822,7.86377957,11.06851667,0.38116046,0.67926174,0.99425282
20001,0,USKansasAllen,Kansas,Allen,2021-01-05 23:03:56.601438,2020-12-16 00:00:00.000000,11.13493112,16.14071422,20.39042314,1377,1996,2522,720,975,1397,5.82234083,7.88278495,11.30104439,0.38465686,0.68937681,1.01060889
20001,0,USKansasAllen,Kansas,Allen,2021-01-05 23:03:56.601438,2020-12-17 00:00:00.000000,11.07466304,16.30745582,20.39027584,1369,2017,2522,727,988,1422,5.87817827,7.99564220,11.50452921,0.40508178,0.69696573,1.02203525
20001,0,USKansasAllen,Kansas,Allen,2021-01-05 23:03:56.601438,2020-12-18 00:00:00.000000,11.07304783,16.42131761,20.38116598,1369,2031,2520,724,1008,1443,5.86082307,8.15065173,11.67259904,0.45518102,0.71073233,1.05546844
20001,0,USKansasAllen,Kansas,Allen,2021-01-05 23:03:56.601438,2020-12-19 00:00:00.000000,11.15068962,16.58436241,20.24208222,1379,2051,2503,723,1016,1459,5.85090899,8.21671134,11.79941410,0.47379171,0.71994871,1.08535844
20001,0,USKansasAllen,Kansas,Allen,2021-01-05 23:03:56.601438,2020-12-20 00:00:00.000000,11.29681040,16.60426814,20.14066034,1397,2053,2491,723,1020,1469,5.85052036,8.24726223,11.88122368,0.47737116,0.71821672,1.09122412
20001,0,USKansasAllen,Kansas,Allen,2021-01-05 23:03:56.601438,2020-12-21 00:00:00.000000,11.28566799,16.45133661,20.03570751,1395,2034,2478,723,1018,1474,5.85221961,8.23587366,11.91784868,0.48064113,0.73340219,1.11289618
20001,0,USKansasAllen,Kansas,Allen,2021-01-05 23:03:56.601438,2020-12-22 00:00:00.000000,11.24972298,16.37180587,19.87558588,1391,2025,2458,723,1024,1472,5.84960277,8.28272539,11.90243589,0.48148686,0.74875958,1.11648112
20001,0,USKansasAllen,Kansas,Allen,2021-01-05 23:03:56.601438,2020-12-23 00:00:00.000000,11.39388915,16.25993443,19.71772667,1409,2011,2438,722,1025,1464,5.83906008,8.28900860,11.83730229,0.48306141,0.72537610,1.14748248
20001,0,USKansasAllen,Kansas,Allen,2021-01-05 23:03:56.601438,2020-12-24 00:00:00.000000,11.31094318,16.23187095,19.54017893,1399,2007,2416,719,1020,1450,5.81873403,8.24943508,11.72504831,0.48633259,0.73522428,1.20075997
20001,0,USKansasAllen,Kansas,Allen,2021-01-05 23:03:56.601438,2020-12-25 00:00:00.000000,11.19110819,15.97219037,19.35588792,1384,1975,2394,715,1019,1418,5.78747254,8.24414802,11.46707167,0.49904448,0.76460619,1.24930381
20001,0,USKansasAllen,Kansas,Allen,2021-01-05 23:03:56.601438,2020-12-26 00:00:00.000000,11.04763946,15.82213364,19.10330722,1366,1957,2362,710,1014,1395,5.74498655,8.19797936,11.28540181,0.50116315,0.75655139,1.26970552
20001,0,USKansasAllen,Kansas,Allen,2021-01-05 23:03:56.601438,2020-12-27 00:00:00.000000,10.88117360,15.47007886,18.95377464,1345,1913,2344,704,997,1378,5.69247501,8.06650479,11.14561243,0.49973919,0.75570578,1.27876761
20001,0,USKansasAllen,Kansas,Allen,2021-01-05 23:03:56.601438,2020-12-28 00:00:00.000000,10.68603492,15.04673854,18.74762435,1321,1861,2318,694,988,1364,5.61672776,7.99573915,11.03412721,0.49614981,0.75990241,1.28271348
20001,0,USKansasAllen,Kansas,Allen,2021-01-05 23:03:56.601438,2020-12-29 00:00:00.000000,10.44108123,14.77684698,18.50658153,1291,1827,2289,672,979,1353,5.43299871,7.91502913,10.94060006,0.49241562,0.76331748,1.28565678
20001,0,USKansasAllen,Kansas,Allen,2021-01-05 23:03:56.601438,2020-12-30 00:00:00.000000,10.21133785,14.58371369,18.16973412,1263,1803,2247,648,970,1340,5.24160474,7.84656886,10.83659022,0.45001734,0.76240010,1.30105538
20001,0,USKansasAllen,Kansas,Allen,2021-01-05 23:03:56.601438,2020-12-31 00:00:00.000000,9.97097772,14.48134915,17.76964365,1233,1791,2197,632,955,1322,5.11312631,7.72151122,10.69490453,0.44383952,0.76440432,1.31010970
20001,0,USKansasAllen,Kansas,Allen,2021-01-05 23:03:56.601438,2021-01-01 00:00:00.000000,9.69650024,14.05334526,17.54669148,1199,1738,2170,626,945,1295,5.06356263,7.64033768,10.47184567,0.44869568,0.76612037,1.34592413
20001,0,USKansasAllen,Kansas,Allen,2021-01-05 23:03:56.601438,2021-01-02 00:00:00.000000,9.41286643,13.48841084,17.28684421,1164,1668,2138,618,933,1263,5.00244473,7.54685086,10.21344494,0.44898323,0.75891595,1.40382619
20001,0,USKansasAllen,Kansas,Allen,2021-01-05 23:03:56.601438,2021-01-03 00:00:00.000000,9.12247982,13.14771039,16.98509282,1128,1626,2100,609,920,1238,4.92957686,7.44403492,10.01122891,0.43843165,0.74537149,1.51091802
20001,0,USKansasAllen,Kansas,Allen,2021-01-05 23:03:56.601438,2021-01-04 00:00:00.000000,8.97661089,12.73889877,16.64682266,1110,1575,2059,599,906,1213,4.84286419,7.32716899,9.81292679,0.42953793,0.74649438,1.48689844
20001,0,USKansasAllen,Kansas,Allen,2021-01-05 23:03:56.601438,2021-01-05 00:00:00.000000,8.50829330,12.18631095,16.27762851,1052,1507,2013,586,888,1184,4.74190085,7.17957814,9.58039015,0.41321531,0.75115702,1.47419596
20001,0,USKansasAllen,Kansas,Allen,2021-01-05 23:03:56.601438,2021-01-06 00:00:00.000000,8.02102363,11.86909335,15.88092908,992,1468,1964,572,871,1158,4.62853854,7.04671349,9.36669311,0.41299889,0.75926716,1.46910204
20001,0,USKansasAllen,Kansas,Allen,2021-01-05 23:03:56.601438,2021-01-07 00:00:00.000000,7.55655181,11.38869932,15.46021704,934,1408,1912,545,840,1121,4.41040630,6.79618717,9.06934283,0.41290759,0.76034148,1.46722561
20001,0,USKansasAllen,Kansas,Allen,2021-01-05 23:03:56.601438,2021-01-08 00:00:00.000000,7.11211562,10.87743103,15.29732973,879,1345,1892,527,801,1104,4.26810772,6.48292172,8.92834664,0.41287133,0.76066938,1.46655625
20001,0,USKansasAllen,Kansas,Allen,2021-01-05 23:03:56.601438,2021-01-09 00:00:00.000000,6.68790896,10.39352179,15.19466466,827,1285,1879,504,764,1086,4.07987195,6.17733678,8.78420026,0.41285722,0.76076850,1.46632025
20001,0,USKansasAllen,Kansas,Allen,2021-01-05 23:03:56.601438,2021-01-10 00:00:00.000000,6.28391129,10.04346087,15.04991852,777,1242,1861,481,736,1067,3.89563279,5.95264949,8.62743709,0.41285289,0.76079844,1.46623739
20001,0,USKansasAllen,Kansas,Allen,2021-01-05 23:03:56.601438,2021-01-11 00:00:00.000000,5.89992053,9.55352757,14.86496160,729,1181,1838,459,716,1041,3.71561218,5.79343359,8.42247743,0.41285261,0.76080750,1.46620834
20001,0,USKansasAllen,Kansas,Allen,2021-01-05 23:03:56.601438,2021-01-12 00:00:00.000000,5.53558814,9.06898151,14.64207970,684,1121,1811,437,690,1025,3.54005308,5.58654383,8.28724715,0.41285247,0.76081025,1.46619816
20001,0,USKansasAllen,Kansas,Allen,2021-01-05 23:03:56.601438,2021-01-13 00:00:00.000000,5.19045230,8.59691755,14.38390382,642,1063,1779,416,665,1002,3.36919653,5.37994461,8.10556448,0.41285240,0.76081109,1.46619460
20001,0,USKansasAllen,Kansas,Allen,2021-01-05 23:03:56.601438,2021-01-14 00:00:00.000000,4.86407075,8.19400165,14.09334545,601,1013,1743,393,638,985,3.17737167,5.16562420,7.97136793,0.41285236,0.76081134,1.46619335
20001,0,USKansasAllen,Kansas,Allen,2021-01-05 23:03:56.601438,2021-01-15 00:00:00.000000,4.55711881,7.82547450,13.77352992,563,967,1703,364,607,971,2.94894446,4.91033103,7.85526460,0.41285234,0.76081142,1.46619291
20001,0,USKansasAllen,Kansas,Allen,2021-01-05 23:03:56.601438,2021-01-16 00:00:00.000000,4.26735542,7.48675869,13.42772999,527,926,1660,338,576,955,2.73417431,4.66235437,7.72112702,0.41285233,0.76081144,1.46619276
20001,0,USKansasAllen,Kansas,Allen,2021-01-05 23:03:56.601438,2021-01-17 00:00:00.000000,3.99411128,7.14124903,13.05905663,494,883,1615,313,550,936,2.53281121,4.45263728,7.57031119,0.41285232,0.76081145,1.46619271
