FIPS,HR_UID,nameid,province,region,analysisTime,dates,pointprevalence_025,pointprevalence_50,pointprevalence_975,pointinfections_025,pointinfections_50,pointinfections_975,pointinfectious_025,pointinfectious_50,pointinfectious_975,pointinfectiousprevalence_05,pointinfectiousprevalence_50,pointinfectiousprevalence_95,infectrate_025,infectrate_50,infectrate_975
21153,0,USKentuckyMagoffin,Kentucky,Magoffin,2021-01-05 20:46:18.714688,2020-03-09 00:00:00.000000,0.00094400,0.01513827,0.06483094,0,1,7,0,0,5,0.00049507,0.00789698,0.04357015,0.34320701,0.56557656,0.80585215
21153,0,USKentuckyMagoffin,Kentucky,Magoffin,2021-01-05 20:46:18.714688,2020-03-10 00:00:00.000000,0.00106693,0.01714248,0.07002214,0,2,8,0,0,4,0.00052440,0.00800368,0.04044217,0.34290453,0.56546397,0.80573399
21153,0,USKentuckyMagoffin,Kentucky,Magoffin,2021-01-05 20:46:18.714688,2020-03-11 00:00:00.000000,0.00121277,0.01873359,0.07509745,0,2,9,0,1,4,0.00057046,0.00839694,0.03935820,0.34227381,0.56527053,0.80551584
21153,0,USKentuckyMagoffin,Kentucky,Magoffin,2021-01-05 20:46:18.714688,2020-03-12 00:00:00.000000,0.00143762,0.02049024,0.08016260,0,2,9,0,1,4,0.00062928,0.00894452,0.03959465,0.34220625,0.56493824,0.80398925
21153,0,USKentuckyMagoffin,Kentucky,Magoffin,2021-01-05 20:46:18.714688,2020-03-13 00:00:00.000000,0.00166850,0.02244889,0.08529110,0,2,10,0,1,4,0.00069913,0.00973544,0.04069537,0.34211468,0.56456355,0.80325107
21153,0,USKentuckyMagoffin,Kentucky,Magoffin,2021-01-05 20:46:18.714688,2020-03-14 00:00:00.000000,0.00191022,0.02403932,0.09053342,0,2,11,0,1,5,0.00077956,0.01097577,0.04237419,0.34195694,0.56229029,0.78958845
21153,0,USKentuckyMagoffin,Kentucky,Magoffin,2021-01-05 20:46:18.714688,2020-03-15 00:00:00.000000,0.00216762,0.02625002,0.09592002,0,3,11,0,1,5,0.00087087,0.01253827,0.04445246,0.34170160,0.55839755,0.78978429
21153,0,USKentuckyMagoffin,Kentucky,Magoffin,2021-01-05 20:46:18.714688,2020-03-16 00:00:00.000000,0.00244683,0.02861709,0.10154357,0,3,12,0,1,5,0.00097385,0.01401974,0.04688176,0.34131993,0.55058937,0.79739630
21153,0,USKentuckyMagoffin,Kentucky,Magoffin,2021-01-05 20:46:18.714688,2020-03-17 00:00:00.000000,0.00275610,0.03116062,0.11324843,0,3,13,0,1,6,0.00108959,0.01492421,0.05231495,0.34071350,0.53562837,0.79351873
21153,0,USKentuckyMagoffin,Kentucky,Magoffin,2021-01-05 20:46:18.714688,2020-03-18 00:00:00.000000,0.00309729,0.03389672,0.12621495,0,4,15,0,1,7,0.00121949,0.01607107,0.05837299,0.33168566,0.52097568,0.78648309
21153,0,USKentuckyMagoffin,Kentucky,Magoffin,2021-01-05 20:46:18.714688,2020-03-19 00:00:00.000000,0.00332753,0.03683268,0.14042370,0,4,17,0,2,7,0.00136517,0.01740594,0.06511026,0.31320595,0.51106203,0.70287369
21153,0,USKentuckyMagoffin,Kentucky,Magoffin,2021-01-05 20:46:18.714688,2020-03-20 00:00:00.000000,0.00357519,0.03988195,0.15556097,0,4,18,0,2,8,0.00149478,0.01882130,0.07256249,0.28266419,0.49672811,0.69730251
21153,0,USKentuckyMagoffin,Kentucky,Magoffin,2021-01-05 20:46:18.714688,2020-03-21 00:00:00.000000,0.00383967,0.04267908,0.16975623,0,5,20,0,2,9,0.00160523,0.02029565,0.07952009,0.27622939,0.48320836,0.69536812
21153,0,USKentuckyMagoffin,Kentucky,Magoffin,2021-01-05 20:46:18.714688,2020-03-22 00:00:00.000000,0.00417064,0.04429158,0.17542729,0,5,21,0,2,10,0.00169682,0.02183353,0.08380754,0.25906646,0.45658167,0.69497558
21153,0,USKentuckyMagoffin,Kentucky,Magoffin,2021-01-05 20:46:18.714688,2020-03-23 00:00:00.000000,0.00452447,0.04640232,0.18045098,0,5,21,0,2,10,0.00184050,0.02398103,0.08757586,0.24990575,0.42559138,0.69470537
21153,0,USKentuckyMagoffin,Kentucky,Magoffin,2021-01-05 20:46:18.714688,2020-03-24 00:00:00.000000,0.00472787,0.04778620,0.18504759,0,5,22,0,3,11,0.00195960,0.02625785,0.09108638,0.24792771,0.41489501,0.69616817
21153,0,USKentuckyMagoffin,Kentucky,Magoffin,2021-01-05 20:46:18.714688,2020-03-25 00:00:00.000000,0.00501360,0.04888249,0.18940283,0,5,23,0,3,11,0.00208133,0.02818451,0.09434883,0.24786955,0.40439144,0.71852800
21153,0,USKentuckyMagoffin,Kentucky,Magoffin,2021-01-05 20:46:18.714688,2020-03-26 00:00:00.000000,0.00531503,0.05107195,0.19364281,0,6,23,0,3,11,0.00220598,0.02882493,0.09739524,0.24767491,0.39238067,0.79218647
21153,0,USKentuckyMagoffin,Kentucky,Magoffin,2021-01-05 20:46:18.714688,2020-03-27 00:00:00.000000,0.00561927,0.05336132,0.19870479,0,6,24,0,3,12,0.00233402,0.02970040,0.10026671,0.24689703,0.38348824,0.81172117
21153,0,USKentuckyMagoffin,Kentucky,Magoffin,2021-01-05 20:46:18.714688,2020-03-28 00:00:00.000000,0.00593226,0.05566022,0.20369004,0,6,24,0,3,12,0.00246567,0.03131912,0.10300384,0.24030028,0.36815304,0.81785996
21153,0,USKentuckyMagoffin,Kentucky,Magoffin,2021-01-05 20:46:18.714688,2020-03-29 00:00:00.000000,0.00625892,0.05757320,0.20780669,0,7,25,0,4,12,0.00260069,0.03293668,0.10563825,0.21826851,0.35188943,0.79634214
21153,0,USKentuckyMagoffin,Kentucky,Magoffin,2021-01-05 20:46:18.714688,2020-03-30 00:00:00.000000,0.00660245,0.06011058,0.21144956,0,7,25,0,4,13,0.00273923,0.03445170,0.10818381,0.21533761,0.34223460,0.75182316
21153,0,USKentuckyMagoffin,Kentucky,Magoffin,2021-01-05 20:46:18.714688,2020-03-31 00:00:00.000000,0.00696501,0.06375494,0.21489063,0,7,26,0,4,13,0.00288194,0.03554367,0.11064570,0.20946829,0.33478114,0.71832453
21153,0,USKentuckyMagoffin,Kentucky,Magoffin,2021-01-05 20:46:18.714688,2020-04-01 00:00:00.000000,0.00734816,0.06596447,0.21825019,0,8,26,0,4,13,0.00302757,0.03653930,0.11304103,0.20472707,0.32603817,0.69375340
21153,0,USKentuckyMagoffin,Kentucky,Magoffin,2021-01-05 20:46:18.714688,2020-04-02 00:00:00.000000,0.00775303,0.06821994,0.22853385,0,8,27,0,4,14,0.00316534,0.03749868,0.11897173,0.18669475,0.31576384,0.66912885
21153,0,USKentuckyMagoffin,Kentucky,Magoffin,2021-01-05 20:46:18.714688,2020-04-03 00:00:00.000000,0.00818083,0.07022454,0.24071185,0,8,29,0,4,15,0.00328643,0.03836608,0.12658799,0.17917812,0.29968827,0.64485977
21153,0,USKentuckyMagoffin,Kentucky,Magoffin,2021-01-05 20:46:18.714688,2020-04-04 00:00:00.000000,0.00863286,0.07173829,0.25085696,1,8,30,0,4,16,0.00339531,0.03915130,0.13415631,0.17904430,0.29720349,0.61920665
21153,0,USKentuckyMagoffin,Kentucky,Magoffin,2021-01-05 20:46:18.714688,2020-04-05 00:00:00.000000,0.00910955,0.07286641,0.26077275,1,8,31,0,4,17,0.00349720,0.04020798,0.14117054,0.17889487,0.29040158,0.59768960
21153,0,USKentuckyMagoffin,Kentucky,Magoffin,2021-01-05 20:46:18.714688,2020-04-06 00:00:00.000000,0.00961003,0.07315017,0.27060520,1,8,32,0,4,17,0.00359529,0.04074605,0.14777157,0.16913984,0.27311242,0.59855263
21153,0,USKentuckyMagoffin,Kentucky,Magoffin,2021-01-05 20:46:18.714688,2020-04-07 00:00:00.000000,0.00993207,0.07327314,0.26977704,1,8,32,0,5,18,0.00369042,0.04156399,0.15410125,0.16084042,0.25943361,0.59878589
21153,0,USKentuckyMagoffin,Kentucky,Magoffin,2021-01-05 20:46:18.714688,2020-04-08 00:00:00.000000,0.00980392,0.07306186,0.26539180,1,8,32,0,5,19,0.00377955,0.04311672,0.16016287,0.15566437,0.24856746,0.59835605
21153,0,USKentuckyMagoffin,Kentucky,Magoffin,2021-01-05 20:46:18.714688,2020-04-09 00:00:00.000000,0.00973216,0.07364312,0.26103297,1,8,31,0,5,19,0.00385440,0.04340024,0.16215984,0.15825873,0.24063392,0.59674824
21153,0,USKentuckyMagoffin,Kentucky,Magoffin,2021-01-05 20:46:18.714688,2020-04-10 00:00:00.000000,0.00955858,0.07405469,0.25742061,1,9,31,0,5,19,0.00390790,0.04363126,0.16059932,0.15751336,0.24059618,0.54549068
21153,0,USKentuckyMagoffin,Kentucky,Magoffin,2021-01-05 20:46:18.714688,2020-04-11 00:00:00.000000,0.00941296,0.07374027,0.25528932,1,8,31,0,5,19,0.00394111,0.04480153,0.15862341,0.15634247,0.24038450,0.55628501
21153,0,USKentuckyMagoffin,Kentucky,Magoffin,2021-01-05 20:46:18.714688,2020-04-12 00:00:00.000000,0.00972219,0.07338770,0.25333793,1,8,30,0,5,19,0.00395927,0.04508325,0.15640435,0.15254602,0.22567891,0.58105191
21153,0,USKentuckyMagoffin,Kentucky,Magoffin,2021-01-05 20:46:18.714688,2020-04-13 00:00:00.000000,0.00971906,0.07332109,0.25909201,1,8,31,0,5,18,0.00406952,0.04501446,0.15405050,0.14842657,0.22418453,0.56712588
21153,0,USKentuckyMagoffin,Kentucky,Magoffin,2021-01-05 20:46:18.714688,2020-04-14 00:00:00.000000,0.00971689,0.07322291,0.26992152,1,8,32,0,5,18,0.00425859,0.04477098,0.15163959,0.14218845,0.22260567,0.54462210
21153,0,USKentuckyMagoffin,Kentucky,Magoffin,2021-01-05 20:46:18.714688,2020-04-15 00:00:00.000000,0.00971552,0.07230684,0.27016432,1,8,32,0,5,18,0.00440199,0.04425057,0.14922809,0.13498809,0.22207253,0.51336809
21153,0,USKentuckyMagoffin,Kentucky,Magoffin,2021-01-05 20:46:18.714688,2020-04-16 00:00:00.000000,0.00971455,0.07242893,0.26720536,1,8,32,0,5,18,0.00417128,0.04350862,0.14801759,0.13106120,0.21925713,0.48023166
21153,0,USKentuckyMagoffin,Kentucky,Magoffin,2021-01-05 20:46:18.714688,2020-04-17 00:00:00.000000,0.00971256,0.07201647,0.26452125,1,8,32,0,5,18,0.00394030,0.04272195,0.15032252,0.12877359,0.21489362,0.46295813
21153,0,USKentuckyMagoffin,Kentucky,Magoffin,2021-01-05 20:46:18.714688,2020-04-18 00:00:00.000000,0.00970285,0.07098573,0.26203969,1,8,31,0,5,18,0.00386434,0.04181143,0.15056385,0.12587185,0.20846002,0.45791767
21153,0,USKentuckyMagoffin,Kentucky,Magoffin,2021-01-05 20:46:18.714688,2020-04-19 00:00:00.000000,0.00966591,0.07010381,0.25962962,1,8,31,0,5,18,0.00382396,0.04168320,0.15057097,0.12220252,0.19779311,0.45009572
21153,0,USKentuckyMagoffin,Kentucky,Magoffin,2021-01-05 20:46:18.714688,2020-04-20 00:00:00.000000,0.00959572,0.07040442,0.25724878,1,8,31,0,5,18,0.00378226,0.04188375,0.15394091,0.11801975,0.19097994,0.44180590
21153,0,USKentuckyMagoffin,Kentucky,Magoffin,2021-01-05 20:46:18.714688,2020-04-21 00:00:00.000000,0.00951158,0.07008440,0.25484251,1,8,30,0,5,18,0.00374002,0.04130641,0.15435089,0.11333292,0.19191331,0.43234741
21153,0,USKentuckyMagoffin,Kentucky,Magoffin,2021-01-05 20:46:18.714688,2020-04-22 00:00:00.000000,0.00942181,0.06982152,0.24751957,1,8,30,0,5,18,0.00369802,0.04147173,0.15442762,0.10832508,0.19272080,0.43135887
21153,0,USKentuckyMagoffin,Kentucky,Magoffin,2021-01-05 20:46:18.714688,2020-04-23 00:00:00.000000,0.00932642,0.06987087,0.24282167,1,8,29,0,5,18,0.00365761,0.04164062,0.15417768,0.10382698,0.19067249,0.43004611
21153,0,USKentuckyMagoffin,Kentucky,Magoffin,2021-01-05 20:46:18.714688,2020-04-24 00:00:00.000000,0.00922128,0.06922453,0.24368857,1,8,29,0,5,18,0.00362274,0.04186361,0.15061093,0.10074838,0.18617708,0.42759576
21153,0,USKentuckyMagoffin,Kentucky,Magoffin,2021-01-05 20:46:18.714688,2020-04-25 00:00:00.000000,0.00909887,0.06790205,0.24222519,1,8,29,0,4,17,0.00360290,0.04103868,0.14616847,0.09387005,0.17740180,0.44314356
21153,0,USKentuckyMagoffin,Kentucky,Magoffin,2021-01-05 20:46:18.714688,2020-04-26 00:00:00.000000,0.00895204,0.06605426,0.23843923,1,8,28,0,4,17,0.00360838,0.04079161,0.14158296,0.09087277,0.17440968,0.41893969
21153,0,USKentuckyMagoffin,Kentucky,Magoffin,2021-01-05 20:46:18.714688,2020-04-27 00:00:00.000000,0.01589859,0.08130600,0.25058793,1,9,30,0,4,16,0.00363946,0.04041516,0.13680341,0.09068199,0.17214463,0.42077056
21153,0,USKentuckyMagoffin,Kentucky,Magoffin,2021-01-05 20:46:18.714688,2020-04-28 00:00:00.000000,0.02272077,0.09468920,0.25604826,2,11,31,0,5,16,0.00606080,0.04293413,0.13706094,0.09047393,0.17081255,0.41167819
21153,0,USKentuckyMagoffin,Kentucky,Magoffin,2021-01-05 20:46:18.714688,2020-04-29 00:00:00.000000,0.03155339,0.11086336,0.26145441,3,13,31,1,5,16,0.00878922,0.04724825,0.13873676,0.09060987,0.16860830,0.39303545
21153,0,USKentuckyMagoffin,Kentucky,Magoffin,2021-01-05 20:46:18.714688,2020-04-30 00:00:00.000000,0.03754887,0.12453071,0.26667967,4,15,32,1,6,17,0.01185454,0.05425441,0.14073899,0.09072122,0.16605731,0.38258191
21153,0,USKentuckyMagoffin,Kentucky,Magoffin,2021-01-05 20:46:18.714688,2020-05-01 00:00:00.000000,0.04352567,0.13845249,0.27155442,5,16,33,1,7,17,0.01644063,0.06270938,0.14517400,0.09124314,0.16594334,0.36429117
21153,0,USKentuckyMagoffin,Kentucky,Magoffin,2021-01-05 20:46:18.714688,2020-05-02 00:00:00.000000,0.04944686,0.15057451,0.27593241,6,18,33,2,8,18,0.01979573,0.06771557,0.15170634,0.09176802,0.16575652,0.35145350
21153,0,USKentuckyMagoffin,Kentucky,Magoffin,2021-01-05 20:46:18.714688,2020-05-03 00:00:00.000000,0.05528922,0.16473724,0.27979326,6,20,34,2,8,19,0.02299229,0.07298427,0.15849972,0.09250064,0.16418622,0.34289394
21153,0,USKentuckyMagoffin,Kentucky,Magoffin,2021-01-05 20:46:18.714688,2020-05-04 00:00:00.000000,0.06438456,0.17058381,0.28656672,7,20,34,3,9,20,0.02621234,0.07898461,0.16509388,0.09159234,0.16538387,0.33413951
21153,0,USKentuckyMagoffin,Kentucky,Magoffin,2021-01-05 20:46:18.714688,2020-05-05 00:00:00.000000,0.07718022,0.17591422,0.30099696,9,21,36,3,10,20,0.02960208,0.08327241,0.16961328,0.08602239,0.16539129,0.32598873
21153,0,USKentuckyMagoffin,Kentucky,Magoffin,2021-01-05 20:46:18.714688,2020-05-06 00:00:00.000000,0.08987982,0.18324186,0.31796831,10,22,38,4,10,21,0.03393463,0.08904989,0.17525546,0.08153110,0.16516969,0.32617711
21153,0,USKentuckyMagoffin,Kentucky,Magoffin,2021-01-05 20:46:18.714688,2020-05-07 00:00:00.000000,0.10233764,0.19613821,0.33498476,12,23,40,4,11,22,0.03908118,0.09472384,0.18182048,0.07741842,0.16482523,0.32595121
21153,0,USKentuckyMagoffin,Kentucky,Magoffin,2021-01-05 20:46:18.714688,2020-05-08 00:00:00.000000,0.11066004,0.20086678,0.35202209,13,24,42,5,12,22,0.04461852,0.09974636,0.18912104,0.07193297,0.16489182,0.32515140
21153,0,USKentuckyMagoffin,Kentucky,Magoffin,2021-01-05 20:46:18.714688,2020-05-09 00:00:00.000000,0.11316922,0.20831291,0.36909563,13,25,44,5,12,23,0.04682494,0.10460133,0.19704529,0.07602097,0.16071474,0.29778840
21153,0,USKentuckyMagoffin,Kentucky,Magoffin,2021-01-05 20:46:18.714688,2020-05-10 00:00:00.000000,0.12772992,0.21774420,0.38585681,15,26,46,6,13,25,0.05400836,0.11126154,0.20822657,0.07851965,0.15656469,0.29692193
21153,0,USKentuckyMagoffin,Kentucky,Magoffin,2021-01-05 20:46:18.714688,2020-05-11 00:00:00.000000,0.13280103,0.23884565,0.40499117,16,29,49,7,14,27,0.05779790,0.11689368,0.22493901,0.07849503,0.15450323,0.29670925
21153,0,USKentuckyMagoffin,Kentucky,Magoffin,2021-01-05 20:46:18.714688,2020-05-12 00:00:00.000000,0.13744296,0.24764917,0.42666081,16,30,51,7,15,28,0.06107348,0.12347486,0.23843078,0.07853837,0.15202577,0.29647729
21153,0,USKentuckyMagoffin,Kentucky,Magoffin,2021-01-05 20:46:18.714688,2020-05-13 00:00:00.000000,0.14210564,0.25101937,0.45307804,17,30,55,7,15,30,0.06558614,0.13003330,0.24957477,0.07862051,0.15274823,0.29604195
21153,0,USKentuckyMagoffin,Kentucky,Magoffin,2021-01-05 20:46:18.714688,2020-05-14 00:00:00.000000,0.15259628,0.25408460,0.47973136,18,30,58,8,16,31,0.07154381,0.13740275,0.25913964,0.07372310,0.15437722,0.29771768
21153,0,USKentuckyMagoffin,Kentucky,Magoffin,2021-01-05 20:46:18.714688,2020-05-15 00:00:00.000000,0.15754248,0.25800153,0.48064909,19,31,58,8,17,32,0.07351269,0.14048341,0.26674727,0.06935968,0.15515150,0.29432517
21153,0,USKentuckyMagoffin,Kentucky,Magoffin,2021-01-05 20:46:18.714688,2020-05-16 00:00:00.000000,0.15944859,0.27099775,0.49895692,19,32,60,9,17,33,0.07767840,0.14686022,0.27233703,0.07121650,0.14916930,0.29286539
21153,0,USKentuckyMagoffin,Kentucky,Magoffin,2021-01-05 20:46:18.714688,2020-05-17 00:00:00.000000,0.16112458,0.27990942,0.51541338,19,34,62,9,18,33,0.08202714,0.15077071,0.27264580,0.07501144,0.15018147,0.29092354
21153,0,USKentuckyMagoffin,Kentucky,Magoffin,2021-01-05 20:46:18.714688,2020-05-18 00:00:00.000000,0.15642645,0.27370441,0.50628088,19,33,61,10,18,33,0.08314531,0.14958315,0.27281794,0.07922048,0.14953494,0.30287518
21153,0,USKentuckyMagoffin,Kentucky,Magoffin,2021-01-05 20:46:18.714688,2020-05-19 00:00:00.000000,0.15270466,0.26966803,0.49780502,18,32,60,10,18,33,0.08264001,0.14967062,0.27610499,0.07962347,0.14801579,0.30588835
21153,0,USKentuckyMagoffin,Kentucky,Magoffin,2021-01-05 20:46:18.714688,2020-05-20 00:00:00.000000,0.14827532,0.26595128,0.48917073,18,32,59,10,18,33,0.08227596,0.15058320,0.27700244,0.07877362,0.14798792,0.30772096
21153,0,USKentuckyMagoffin,Kentucky,Magoffin,2021-01-05 20:46:18.714688,2020-05-21 00:00:00.000000,0.14203650,0.26097462,0.48047379,17,31,58,9,18,33,0.08109770,0.15017727,0.27789432,0.07890124,0.14607243,0.31172972
21153,0,USKentuckyMagoffin,Kentucky,Magoffin,2021-01-05 20:46:18.714688,2020-05-22 00:00:00.000000,0.13479848,0.25543331,0.47178521,16,31,57,9,18,33,0.07944851,0.14923263,0.27705178,0.07976340,0.14616059,0.31786089
21153,0,USKentuckyMagoffin,Kentucky,Magoffin,2021-01-05 20:46:18.714688,2020-05-23 00:00:00.000000,0.12801759,0.24858302,0.46645618,15,30,56,9,17,33,0.07759356,0.14628869,0.27506003,0.08162301,0.14196732,0.32302325
21153,0,USKentuckyMagoffin,Kentucky,Magoffin,2021-01-05 20:46:18.714688,2020-05-24 00:00:00.000000,0.12170441,0.24446870,0.46194196,14,29,56,9,17,33,0.07560441,0.14375565,0.27483555,0.08479636,0.13979650,0.32552557
21153,0,USKentuckyMagoffin,Kentucky,Magoffin,2021-01-05 20:46:18.714688,2020-05-25 00:00:00.000000,0.12954505,0.25308059,0.46318108,15,30,56,8,17,33,0.07356101,0.14081057,0.27407612,0.08652164,0.13786594,0.32644965
21153,0,USKentuckyMagoffin,Kentucky,Magoffin,2021-01-05 20:46:18.714688,2020-05-26 00:00:00.000000,0.13768320,0.25969097,0.46136388,16,31,56,8,16,33,0.07387905,0.13965633,0.27360875,0.08614240,0.14104707,0.32674724
21153,0,USKentuckyMagoffin,Kentucky,Magoffin,2021-01-05 20:46:18.714688,2020-05-27 00:00:00.000000,0.14633368,0.26899384,0.46376121,17,32,56,9,17,33,0.07559559,0.14160272,0.27295806,0.08605229,0.13988698,0.32671687
21153,0,USKentuckyMagoffin,Kentucky,Magoffin,2021-01-05 20:46:18.714688,2020-05-28 00:00:00.000000,0.15514954,0.27601208,0.46801888,18,33,56,9,17,33,0.07765630,0.14264736,0.27252007,0.08722461,0.14036738,0.32625528
21153,0,USKentuckyMagoffin,Kentucky,Magoffin,2021-01-05 20:46:18.714688,2020-05-29 00:00:00.000000,0.15570413,0.28248189,0.47378026,18,34,57,9,17,33,0.07910930,0.14661363,0.27701514,0.08579430,0.13991730,0.32481921
21153,0,USKentuckyMagoffin,Kentucky,Magoffin,2021-01-05 20:46:18.714688,2020-05-30 00:00:00.000000,0.15519243,0.28689032,0.48028476,18,34,58,9,18,34,0.08088920,0.15100764,0.28116004,0.08517384,0.14070567,0.32102945
21153,0,USKentuckyMagoffin,Kentucky,Magoffin,2021-01-05 20:46:18.714688,2020-05-31 00:00:00.000000,0.15562466,0.29168054,0.49608789,18,35,60,10,19,34,0.08287264,0.15822729,0.28475387,0.08370292,0.14197013,0.31230141
21153,0,USKentuckyMagoffin,Kentucky,Magoffin,2021-01-05 20:46:18.714688,2020-06-01 00:00:00.000000,0.16348136,0.30236735,0.52299315,19,36,63,10,19,34,0.08497336,0.16245176,0.28775698,0.08142369,0.14545262,0.31067627
21153,0,USKentuckyMagoffin,Kentucky,Magoffin,2021-01-05 20:46:18.714688,2020-06-02 00:00:00.000000,0.16851963,0.32113295,0.55939143,20,39,68,10,20,35,0.08759523,0.16686601,0.28919966,0.08007537,0.14403441,0.31055742
21153,0,USKentuckyMagoffin,Kentucky,Magoffin,2021-01-05 20:46:18.714688,2020-06-03 00:00:00.000000,0.17362606,0.33003043,0.59643465,21,40,72,10,21,35,0.08906071,0.17336436,0.29399651,0.08046543,0.14530365,0.31025858
21153,0,USKentuckyMagoffin,Kentucky,Magoffin,2021-01-05 20:46:18.714688,2020-06-04 00:00:00.000000,0.17873529,0.33632081,0.60552171,21,40,73,11,21,37,0.09194807,0.17947535,0.31089873,0.08205914,0.14858030,0.30985886
21153,0,USKentuckyMagoffin,Kentucky,Magoffin,2021-01-05 20:46:18.714688,2020-06-05 00:00:00.000000,0.18379681,0.34129968,0.60400637,22,41,73,11,22,38,0.09169593,0.18174277,0.32014738,0.08062681,0.14951526,0.31257430
21153,0,USKentuckyMagoffin,Kentucky,Magoffin,2021-01-05 20:46:18.714688,2020-06-06 00:00:00.000000,0.18321180,0.33848380,0.60282619,22,41,73,11,22,41,0.09237603,0.18284896,0.33723230,0.07258512,0.14950319,0.32185551
21153,0,USKentuckyMagoffin,Kentucky,Magoffin,2021-01-05 20:46:18.714688,2020-06-07 00:00:00.000000,0.18213849,0.34449625,0.63228022,22,41,76,11,22,43,0.09379077,0.18568106,0.35640727,0.07260329,0.15546090,0.33249542
21153,0,USKentuckyMagoffin,Kentucky,Magoffin,2021-01-05 20:46:18.714688,2020-06-08 00:00:00.000000,0.18060863,0.34965859,0.63416086,21,42,77,11,22,45,0.09526891,0.18714207,0.37622055,0.07170270,0.16099327,0.34371521
21153,0,USKentuckyMagoffin,Kentucky,Magoffin,2021-01-05 20:46:18.714688,2020-06-09 00:00:00.000000,0.17965694,0.36127154,0.65234046,21,43,79,11,23,46,0.09588444,0.19357984,0.38604468,0.07207985,0.16354102,0.34928410
21153,0,USKentuckyMagoffin,Kentucky,Magoffin,2021-01-05 20:46:18.714688,2020-06-10 00:00:00.000000,0.17906915,0.36781744,0.67766902,21,44,82,11,24,48,0.09764733,0.19945974,0.40109925,0.07761701,0.16390484,0.34977958
21153,0,USKentuckyMagoffin,Kentucky,Magoffin,2021-01-05 20:46:18.714688,2020-06-11 00:00:00.000000,0.17868702,0.37400857,0.70284776,21,45,85,11,24,50,0.09751820,0.20353843,0.41613607,0.08056389,0.16619172,0.35034379
21153,0,USKentuckyMagoffin,Kentucky,Magoffin,2021-01-05 20:46:18.714688,2020-06-12 00:00:00.000000,0.17846048,0.38282873,0.72765456,21,46,88,11,25,51,0.09712484,0.20895902,0.42640053,0.08251508,0.16740143,0.35081462
21153,0,USKentuckyMagoffin,Kentucky,Magoffin,2021-01-05 20:46:18.714688,2020-06-13 00:00:00.000000,0.17835830,0.39616290,0.75192188,21,48,91,11,25,52,0.09682289,0.21073028,0.43150415,0.08385508,0.16831891,0.35103007
21153,0,USKentuckyMagoffin,Kentucky,Magoffin,2021-01-05 20:46:18.714688,2020-06-14 00:00:00.000000,0.17734941,0.40916914,0.76201236,21,49,92,11,26,53,0.09660404,0.21384061,0.44299022,0.08456370,0.16745718,0.35086596
21153,0,USKentuckyMagoffin,Kentucky,Magoffin,2021-01-05 20:46:18.714688,2020-06-15 00:00:00.000000,0.19789716,0.42026872,0.76876277,24,51,93,11,26,55,0.09645479,0.21990198,0.45717778,0.08492706,0.16409939,0.33776402
21153,0,USKentuckyMagoffin,Kentucky,Magoffin,2021-01-05 20:46:18.714688,2020-06-16 00:00:00.000000,0.23227513,0.43704842,0.78591381,28,53,95,11,26,56,0.09785361,0.22113300,0.46864939,0.08567812,0.16485958,0.31429257
21153,0,USKentuckyMagoffin,Kentucky,Magoffin,2021-01-05 20:46:18.714688,2020-06-17 00:00:00.000000,0.22424530,0.44777508,0.79671694,27,54,96,13,27,58,0.10817530,0.22380028,0.48016523,0.08668795,0.16792392,0.30123449
21153,0,USKentuckyMagoffin,Kentucky,Magoffin,2021-01-05 20:46:18.714688,2020-06-18 00:00:00.000000,0.21702250,0.46112108,0.80230669,26,56,97,14,28,59,0.11644129,0.23763205,0.48616182,0.08925959,0.16881817,0.30080283
21153,0,USKentuckyMagoffin,Kentucky,Magoffin,2021-01-05 20:46:18.714688,2020-06-19 00:00:00.000000,0.21953745,0.47017699,0.80732696,26,57,98,14,29,59,0.11795910,0.24556344,0.49290043,0.09022057,0.17185535,0.32957204
21153,0,USKentuckyMagoffin,Kentucky,Magoffin,2021-01-05 20:46:18.714688,2020-06-20 00:00:00.000000,0.22819221,0.47224101,0.82141345,27,57,99,14,30,60,0.11954858,0.25271094,0.49861804,0.09194798,0.17428249,0.35252438
21153,0,USKentuckyMagoffin,Kentucky,Magoffin,2021-01-05 20:46:18.714688,2020-06-21 00:00:00.000000,0.23668366,0.47880230,0.88929582,28,58,108,14,31,61,0.12120518,0.25939280,0.50353658,0.08884314,0.17703306,0.35753746
21153,0,USKentuckyMagoffin,Kentucky,Magoffin,2021-01-05 20:46:18.714688,2020-06-22 00:00:00.000000,0.25913751,0.49504288,0.91378296,31,60,111,14,32,61,0.12297486,0.26538547,0.50785159,0.08858491,0.17803848,0.36828906
21153,0,USKentuckyMagoffin,Kentucky,Magoffin,2021-01-05 20:46:18.714688,2020-06-23 00:00:00.000000,0.26008926,0.51015035,0.93491790,31,62,113,15,32,62,0.12542358,0.26755084,0.51214735,0.09049437,0.17986964,0.35430274
21153,0,USKentuckyMagoffin,Kentucky,Magoffin,2021-01-05 20:46:18.714688,2020-06-24 00:00:00.000000,0.26146790,0.51951461,0.95258428,31,63,115,15,33,62,0.12841737,0.27752224,0.51657702,0.09349678,0.18073980,0.34097026
21153,0,USKentuckyMagoffin,Kentucky,Magoffin,2021-01-05 20:46:18.714688,2020-06-25 00:00:00.000000,0.26330998,0.52172654,0.96876724,32,63,117,16,34,63,0.13192781,0.28175251,0.52122105,0.09759136,0.18123005,0.33786934
21153,0,USKentuckyMagoffin,Kentucky,Magoffin,2021-01-05 20:46:18.714688,2020-06-26 00:00:00.000000,0.26562838,0.52841009,0.98444772,32,64,119,16,35,63,0.13578522,0.29068354,0.52607386,0.10091431,0.17955743,0.35910825
21153,0,USKentuckyMagoffin,Kentucky,Magoffin,2021-01-05 20:46:18.714688,2020-06-27 00:00:00.000000,0.26839196,0.54275809,1.00006790,32,66,121,17,35,64,0.13984815,0.29373667,0.53113429,0.10543383,0.18113417,0.34377003
21153,0,USKentuckyMagoffin,Kentucky,Magoffin,2021-01-05 20:46:18.714688,2020-06-28 00:00:00.000000,0.27152786,0.54461752,1.01288926,33,66,123,17,36,65,0.14401374,0.29814372,0.53645336,0.11181457,0.18092815,0.33824069
21153,0,USKentuckyMagoffin,Kentucky,Magoffin,2021-01-05 20:46:18.714688,2020-06-29 00:00:00.000000,0.27809141,0.56034479,1.01289215,33,68,123,18,36,65,0.14821129,0.30121328,0.54213517,0.11497423,0.18157059,0.33615065
21153,0,USKentuckyMagoffin,Kentucky,Magoffin,2021-01-05 20:46:18.714688,2020-06-30 00:00:00.000000,0.28416622,0.58871116,1.01238219,34,71,123,18,37,66,0.15298514,0.30956210,0.54695317,0.11712605,0.18796170,0.33055212
21153,0,USKentuckyMagoffin,Kentucky,Magoffin,2021-01-05 20:46:18.714688,2020-07-01 00:00:00.000000,0.28986068,0.59930988,1.01522729,35,72,123,19,38,67,0.15808595,0.31724959,0.55173798,0.11746434,0.19204015,0.32986491
21153,0,USKentuckyMagoffin,Kentucky,Magoffin,2021-01-05 20:46:18.714688,2020-07-02 00:00:00.000000,0.29285947,0.61065799,1.02219120,35,74,124,19,39,67,0.16335252,0.32354474,0.55725251,0.11750898,0.19537850,0.32974645
21153,0,USKentuckyMagoffin,Kentucky,Magoffin,2021-01-05 20:46:18.714688,2020-07-03 00:00:00.000000,0.29635227,0.63335754,1.02905537,36,77,125,20,40,68,0.16835704,0.33113131,0.56393960,0.11763132,0.19966112,0.33732969
21153,0,USKentuckyMagoffin,Kentucky,Magoffin,2021-01-05 20:46:18.714688,2020-07-04 00:00:00.000000,0.30141546,0.65340914,1.03592226,36,79,125,20,40,69,0.17005290,0.33703444,0.57189897,0.11803927,0.20332699,0.34405382
21153,0,USKentuckyMagoffin,Kentucky,Magoffin,2021-01-05 20:46:18.714688,2020-07-05 00:00:00.000000,0.30801037,0.66014057,1.05097208,37,80,127,20,41,70,0.17220138,0.34311779,0.58101880,0.11998141,0.20789865,0.34702014
21153,0,USKentuckyMagoffin,Kentucky,Magoffin,2021-01-05 20:46:18.714688,2020-07-06 00:00:00.000000,0.32709065,0.69438152,1.08236221,39,84,131,21,43,71,0.17495853,0.35545439,0.59110677,0.12486769,0.20953944,0.35542077
21153,0,USKentuckyMagoffin,Kentucky,Magoffin,2021-01-05 20:46:18.714688,2020-07-07 00:00:00.000000,0.34362121,0.71064650,1.12200905,41,86,136,22,44,73,0.18225442,0.36438534,0.60140619,0.13105929,0.21478318,0.35895827
21153,0,USKentuckyMagoffin,Kentucky,Magoffin,2021-01-05 20:46:18.714688,2020-07-08 00:00:00.000000,0.36324466,0.73013437,1.16342435,44,88,141,23,45,74,0.19096122,0.37645374,0.61189594,0.14278528,0.21862624,0.36570659
21153,0,USKentuckyMagoffin,Kentucky,Magoffin,2021-01-05 20:46:18.714688,2020-07-09 00:00:00.000000,0.37328117,0.73104627,1.20666502,45,88,146,24,48,75,0.20476532,0.39727868,0.62255349,0.14677558,0.22107583,0.37116537
21153,0,USKentuckyMagoffin,Kentucky,Magoffin,2021-01-05 20:46:18.714688,2020-07-10 00:00:00.000000,0.38307358,0.74854990,1.25128968,46,91,152,25,50,78,0.21253210,0.41283747,0.64727705,0.14922827,0.22253066,0.36289939
21153,0,USKentuckyMagoffin,Kentucky,Magoffin,2021-01-05 20:46:18.714688,2020-07-11 00:00:00.000000,0.40303789,0.77495784,1.29672348,49,94,157,26,50,82,0.21788215,0.41839677,0.67831715,0.15832003,0.23101564,0.36463562
21153,0,USKentuckyMagoffin,Kentucky,Magoffin,2021-01-05 20:46:18.714688,2020-07-12 00:00:00.000000,0.42804699,0.78794900,1.34251142,52,95,163,27,52,86,0.22329082,0.42769430,0.71079389,0.16219231,0.23591276,0.36928980
21153,0,USKentuckyMagoffin,Kentucky,Magoffin,2021-01-05 20:46:18.714688,2020-07-13 00:00:00.000000,0.45547439,0.82021026,1.37441419,55,99,167,27,52,90,0.22885498,0.43246505,0.74447485,0.16569243,0.23875621,0.37156118
21153,0,USKentuckyMagoffin,Kentucky,Magoffin,2021-01-05 20:46:18.714688,2020-07-14 00:00:00.000000,0.50416939,0.85938718,1.40753690,61,104,171,28,53,94,0.23461268,0.44397799,0.77302814,0.17006693,0.24215063,0.37181536
21153,0,USKentuckyMagoffin,Kentucky,Magoffin,2021-01-05 20:46:18.714688,2020-07-15 00:00:00.000000,0.51314900,0.89890034,1.44091351,62,109,175,30,56,97,0.25297476,0.46065655,0.79993438,0.17108947,0.24415413,0.37063046
21153,0,USKentuckyMagoffin,Kentucky,Magoffin,2021-01-05 20:46:18.714688,2020-07-16 00:00:00.000000,0.54513432,0.95335815,1.47427850,66,115,179,31,56,100,0.26170992,0.46672333,0.82611265,0.17300178,0.24731096,0.37184069
21153,0,USKentuckyMagoffin,Kentucky,Magoffin,2021-01-05 20:46:18.714688,2020-07-17 00:00:00.000000,0.56041656,1.00781316,1.51646782,68,122,184,34,59,103,0.28060037,0.48824722,0.85113727,0.17845242,0.25034338,0.37709690
21153,0,USKentuckyMagoffin,Kentucky,Magoffin,2021-01-05 20:46:18.714688,2020-07-18 00:00:00.000000,0.57784043,1.04452661,1.57267425,70,127,191,35,61,104,0.29397442,0.50894171,0.85628463,0.18427362,0.25402125,0.38540607
21153,0,USKentuckyMagoffin,Kentucky,Magoffin,2021-01-05 20:46:18.714688,2020-07-19 00:00:00.000000,0.59748828,1.07976422,1.64157825,72,131,199,36,64,105,0.30218457,0.52988225,0.86496450,0.18358169,0.25476411,0.39580525
21153,0,USKentuckyMagoffin,Kentucky,Magoffin,2021-01-05 20:46:18.714688,2020-07-20 00:00:00.000000,0.62296094,1.11463274,1.67337477,75,135,203,37,66,112,0.31139578,0.54449908,0.92841982,0.18578993,0.25452009,0.40600906
21153,0,USKentuckyMagoffin,Kentucky,Magoffin,2021-01-05 20:46:18.714688,2020-07-21 00:00:00.000000,0.67402386,1.15831038,1.74767674,81,140,212,38,68,116,0.32000801,0.56037741,0.95596220,0.18040109,0.25581098,0.42085542
21153,0,USKentuckyMagoffin,Kentucky,Magoffin,2021-01-05 20:46:18.714688,2020-07-22 00:00:00.000000,0.67331448,1.18366279,1.82542491,81,143,221,40,71,119,0.33035494,0.58610179,0.98284178,0.17965929,0.25530573,0.43903742
21153,0,USKentuckyMagoffin,Kentucky,Magoffin,2021-01-05 20:46:18.714688,2020-07-23 00:00:00.000000,0.66742235,1.22365349,1.90609893,81,148,231,42,74,122,0.34942317,0.61507239,1.00779859,0.17991289,0.25345166,0.44924138
21153,0,USKentuckyMagoffin,Kentucky,Magoffin,2021-01-05 20:46:18.714688,2020-07-24 00:00:00.000000,0.66334741,1.26927153,1.98969744,80,154,241,43,78,125,0.35827776,0.64152412,1.03006947,0.18120451,0.25187826,0.45165417
21153,0,USKentuckyMagoffin,Kentucky,Magoffin,2021-01-05 20:46:18.714688,2020-07-25 00:00:00.000000,0.70174820,1.30254708,2.07590709,85,158,252,45,80,130,0.37529312,0.66279186,1.07162681,0.18348606,0.25592359,0.44907421
21153,0,USKentuckyMagoffin,Kentucky,Magoffin,2021-01-05 20:46:18.714688,2020-07-26 00:00:00.000000,0.74414358,1.34533754,2.12926611,90,163,258,46,82,136,0.38228924,0.68155351,1.12453492,0.18246112,0.25069412,0.45246005
21153,0,USKentuckyMagoffin,Kentucky,Magoffin,2021-01-05 20:46:18.714688,2020-07-27 00:00:00.000000,0.81925480,1.38260794,2.23524922,99,168,271,46,85,144,0.37889444,0.70495199,1.18468422,0.17769903,0.25179336,0.44155084
21153,0,USKentuckyMagoffin,Kentucky,Magoffin,2021-01-05 20:46:18.714688,2020-07-28 00:00:00.000000,0.85083674,1.42713169,2.33873123,103,173,284,48,89,150,0.39492399,0.73299169,1.23871156,0.18466033,0.25564391,0.43432245
21153,0,USKentuckyMagoffin,Kentucky,Magoffin,2021-01-05 20:46:18.714688,2020-07-29 00:00:00.000000,0.86802754,1.46756632,2.37535086,105,178,288,51,92,156,0.42176252,0.75926696,1.28974962,0.18952220,0.25398255,0.43448222
21153,0,USKentuckyMagoffin,Kentucky,Magoffin,2021-01-05 20:46:18.714688,2020-07-30 00:00:00.000000,0.90710383,1.50674226,2.41090002,110,183,293,55,97,162,0.45436076,0.80029513,1.33952280,0.18800941,0.25123788,0.42908560
21153,0,USKentuckyMagoffin,Kentucky,Magoffin,2021-01-05 20:46:18.714688,2020-07-31 00:00:00.000000,0.94318646,1.55027932,2.48162355,114,188,301,56,100,170,0.46617806,0.82542742,1.40341067,0.17782684,0.24701668,0.41626667
21153,0,USKentuckyMagoffin,Kentucky,Magoffin,2021-01-05 20:46:18.714688,2020-08-01 00:00:00.000000,0.95070121,1.59868578,2.53931396,115,194,308,57,102,178,0.47506083,0.84081161,1.46894025,0.17017718,0.24336644,0.40861083
21153,0,USKentuckyMagoffin,Kentucky,Magoffin,2021-01-05 20:46:18.714688,2020-08-02 00:00:00.000000,0.95848167,1.62616148,2.63269030,116,197,320,61,104,185,0.50576921,0.85783811,1.52672724,0.16379223,0.24034696,0.40110786
21153,0,USKentuckyMagoffin,Kentucky,Magoffin,2021-01-05 20:46:18.714688,2020-08-03 00:00:00.000000,1.02872977,1.64801956,2.71503890,125,200,330,65,106,192,0.54067899,0.87319017,1.58124840,0.16689867,0.23237323,0.40048526
21153,0,USKentuckyMagoffin,Kentucky,Magoffin,2021-01-05 20:46:18.714688,2020-08-04 00:00:00.000000,1.09880929,1.65424174,2.78474175,133,201,338,68,108,197,0.56133018,0.89134302,1.62370560,0.16050407,0.23245685,0.39967665
21153,0,USKentuckyMagoffin,Kentucky,Magoffin,2021-01-05 20:46:18.714688,2020-08-05 00:00:00.000000,1.10511109,1.67779370,2.84174722,134,204,345,69,111,201,0.57341022,0.91521606,1.65784089,0.16012554,0.23034485,0.39813437
21153,0,USKentuckyMagoffin,Kentucky,Magoffin,2021-01-05 20:46:18.714688,2020-08-06 00:00:00.000000,1.10886914,1.69092135,2.89212630,134,205,351,70,114,205,0.58092497,0.94513198,1.68626364,0.16035186,0.22947003,0.38181109
21153,0,USKentuckyMagoffin,Kentucky,Magoffin,2021-01-05 20:46:18.714688,2020-08-07 00:00:00.000000,1.11160009,1.72744275,2.93646319,135,210,357,71,118,208,0.58623610,0.97210190,1.71077748,0.16076369,0.22937564,0.38056739
21153,0,USKentuckyMagoffin,Kentucky,Magoffin,2021-01-05 20:46:18.714688,2020-08-08 00:00:00.000000,1.11493606,1.74649448,2.96888495,135,212,361,71,119,210,0.59045989,0.97918440,1.73265265,0.15543572,0.22773200,0.37400969
21153,0,USKentuckyMagoffin,Kentucky,Magoffin,2021-01-05 20:46:18.714688,2020-08-09 00:00:00.000000,1.12349343,1.77203457,2.98241447,136,215,362,72,120,213,0.59410949,0.99405046,1.75283725,0.15537022,0.22325235,0.34806743
21153,0,USKentuckyMagoffin,Kentucky,Magoffin,2021-01-05 20:46:18.714688,2020-08-10 00:00:00.000000,1.12348408,1.78630448,2.97388525,136,217,361,72,123,215,0.59740767,1.01553820,1.77212804,0.15617386,0.21813831,0.34577347
21153,0,USKentuckyMagoffin,Kentucky,Magoffin,2021-01-05 20:46:18.714688,2020-08-11 00:00:00.000000,1.13778528,1.80421931,2.98983160,138,219,363,72,126,217,0.59831000,1.03926096,1.78818512,0.15505036,0.21452491,0.33498712
21153,0,USKentuckyMagoffin,Kentucky,Magoffin,2021-01-05 20:46:18.714688,2020-08-12 00:00:00.000000,1.13439881,1.80572836,3.00191065,137,219,365,72,128,219,0.59767428,1.06033293,1.80290928,0.15401002,0.20970071,0.32889257
21153,0,USKentuckyMagoffin,Kentucky,Magoffin,2021-01-05 20:46:18.714688,2020-08-13 00:00:00.000000,1.12387011,1.79840134,3.01147200,136,218,366,72,128,221,0.59585286,1.05353430,1.81807738,0.15020252,0.20553395,0.32591762
21153,0,USKentuckyMagoffin,Kentucky,Magoffin,2021-01-05 20:46:18.714688,2020-08-14 00:00:00.000000,1.10614182,1.79453487,3.01993322,134,218,367,72,125,223,0.59254579,1.03535813,1.83536295,0.14408929,0.20047801,0.32463120
21153,0,USKentuckyMagoffin,Kentucky,Magoffin,2021-01-05 20:46:18.714688,2020-08-15 00:00:00.000000,1.08116458,1.80003583,3.02887178,131,218,368,71,125,225,0.58674757,1.02914853,1.85583898,0.13722575,0.20079771,0.32435258
21153,0,USKentuckyMagoffin,Kentucky,Magoffin,2021-01-05 20:46:18.714688,2020-08-16 00:00:00.000000,1.05290387,1.78623859,3.01264353,128,217,366,70,125,225,0.57784260,1.02915416,1.85262266,0.13397188,0.19474624,0.32463714
21153,0,USKentuckyMagoffin,Kentucky,Magoffin,2021-01-05 20:46:18.714688,2020-08-17 00:00:00.000000,1.02846360,1.78376517,2.94083421,125,216,357,68,125,222,0.56632920,1.02948545,1.82991660,0.12517798,0.18984013,0.32512325
21153,0,USKentuckyMagoffin,Kentucky,Magoffin,2021-01-05 20:46:18.714688,2020-08-18 00:00:00.000000,1.00400080,1.77546208,2.86923193,122,215,348,67,125,219,0.55415719,1.03345117,1.80115124,0.12053410,0.18857392,0.32502869
21153,0,USKentuckyMagoffin,Kentucky,Magoffin,2021-01-05 20:46:18.714688,2020-08-19 00:00:00.000000,0.98014638,1.75235474,2.80041345,119,213,340,65,124,218,0.54168336,1.02373710,1.79863629,0.12288062,0.18497270,0.32288514
21153,0,USKentuckyMagoffin,Kentucky,Magoffin,2021-01-05 20:46:18.714688,2020-08-20 00:00:00.000000,0.95711690,1.72607649,2.78039622,116,209,338,64,124,219,0.52850374,1.02557253,1.80256957,0.12692497,0.18500153,0.31032298
21153,0,USKentuckyMagoffin,Kentucky,Magoffin,2021-01-05 20:46:18.714688,2020-08-21 00:00:00.000000,0.95120464,1.72470402,2.76712529,115,209,336,62,124,221,0.51663575,1.02683238,1.82083401,0.12287154,0.18583222,0.31416929
21153,0,USKentuckyMagoffin,Kentucky,Magoffin,2021-01-05 20:46:18.714688,2020-08-22 00:00:00.000000,0.94560456,1.73145489,2.75332025,114,210,334,61,124,220,0.50425561,1.02091152,1.81058551,0.11886970,0.18377509,0.31142611
21153,0,USKentuckyMagoffin,Kentucky,Magoffin,2021-01-05 20:46:18.714688,2020-08-23 00:00:00.000000,0.94017346,1.72478373,2.73902333,114,209,333,59,124,217,0.49211527,1.02174567,1.78668567,0.12458429,0.18277710,0.30926768
21153,0,USKentuckyMagoffin,Kentucky,Magoffin,2021-01-05 20:46:18.714688,2020-08-24 00:00:00.000000,0.92516161,1.71175245,2.73015756,112,208,332,58,123,214,0.48025388,1.01747974,1.76216718,0.12710738,0.18307955,0.30734057
21153,0,USKentuckyMagoffin,Kentucky,Magoffin,2021-01-05 20:46:18.714688,2020-08-25 00:00:00.000000,0.91029265,1.68860422,2.72277657,110,205,331,56,123,211,0.46821330,1.01279896,1.73790040,0.12632078,0.18427350,0.30836544
21153,0,USKentuckyMagoffin,Kentucky,Magoffin,2021-01-05 20:46:18.714688,2020-08-26 00:00:00.000000,0.89534535,1.67296517,2.72186815,108,203,331,55,123,208,0.45726582,1.01159484,1.71396122,0.12934489,0.18486793,0.31290102
21153,0,USKentuckyMagoffin,Kentucky,Magoffin,2021-01-05 20:46:18.714688,2020-08-27 00:00:00.000000,0.88057124,1.67279388,2.73369390,107,203,332,54,122,205,0.44716451,1.00795241,1.69043817,0.13086175,0.18322325,0.31972887
21153,0,USKentuckyMagoffin,Kentucky,Magoffin,2021-01-05 20:46:18.714688,2020-08-28 00:00:00.000000,0.86615338,1.68244812,2.70154022,105,204,328,53,121,203,0.43740900,0.99944201,1.67452486,0.13130382,0.18535920,0.32236580
21153,0,USKentuckyMagoffin,Kentucky,Magoffin,2021-01-05 20:46:18.714688,2020-08-29 00:00:00.000000,0.85219109,1.66870766,2.68782538,103,202,326,52,121,204,0.42903029,0.99619629,1.68137317,0.13563034,0.18536773,0.32431390
21153,0,USKentuckyMagoffin,Kentucky,Magoffin,2021-01-05 20:46:18.714688,2020-08-30 00:00:00.000000,0.83880515,1.67727511,2.70152031,102,203,328,51,120,205,0.42471945,0.99199160,1.68851880,0.14251783,0.18801718,0.32602854
21153,0,USKentuckyMagoffin,Kentucky,Magoffin,2021-01-05 20:46:18.714688,2020-08-31 00:00:00.000000,0.82891435,1.67265254,2.70510393,100,203,328,51,119,206,0.42258491,0.98489596,1.69585693,0.14114808,0.18948751,0.32691129
21153,0,USKentuckyMagoffin,Kentucky,Magoffin,2021-01-05 20:46:18.714688,2020-09-01 00:00:00.000000,0.85551847,1.67283032,2.70841302,104,203,329,51,120,206,0.42727967,0.98700657,1.70166790,0.13967275,0.19362229,0.32726099
21153,0,USKentuckyMagoffin,Kentucky,Magoffin,2021-01-05 20:46:18.714688,2020-09-02 00:00:00.000000,0.88408319,1.67776917,2.71108936,107,204,329,53,119,207,0.43626132,0.98618870,1.70632827,0.14088404,0.19384522,0.32693043
21153,0,USKentuckyMagoffin,Kentucky,Magoffin,2021-01-05 20:46:18.714688,2020-09-03 00:00:00.000000,0.91436494,1.67137223,2.71183366,111,203,329,53,119,207,0.44114190,0.98269241,1.71010271,0.14185017,0.19529375,0.32496201
21153,0,USKentuckyMagoffin,Kentucky,Magoffin,2021-01-05 20:46:18.714688,2020-09-04 00:00:00.000000,0.94601094,1.65843994,2.71233883,115,201,329,52,118,208,0.43577697,0.97490620,1.71317993,0.14216638,0.19945279,0.31946533
21153,0,USKentuckyMagoffin,Kentucky,Magoffin,2021-01-05 20:46:18.714688,2020-09-05 00:00:00.000000,0.93519255,1.65174082,2.71265165,113,200,329,52,117,208,0.43210718,0.96864466,1.71570178,0.14150580,0.20365614,0.31050351
21153,0,USKentuckyMagoffin,Kentucky,Magoffin,2021-01-05 20:46:18.714688,2020-09-06 00:00:00.000000,0.92569645,1.64798865,2.71273106,112,200,329,52,117,208,0.42996470,0.96225067,1.71778628,0.14151355,0.20718085,0.32073182
21153,0,USKentuckyMagoffin,Kentucky,Magoffin,2021-01-05 20:46:18.714688,2020-09-07 00:00:00.000000,0.97486474,1.65203201,2.71224066,118,200,329,52,116,209,0.42881936,0.95720734,1.71955537,0.14242931,0.21308715,0.32688391
21153,0,USKentuckyMagoffin,Kentucky,Magoffin,2021-01-05 20:46:18.714688,2020-09-08 00:00:00.000000,0.96711641,1.66136404,2.71147991,117,202,329,51,116,209,0.42741208,0.95530657,1.72091434,0.14423610,0.21985180,0.32770210
21153,0,USKentuckyMagoffin,Kentucky,Magoffin,2021-01-05 20:46:18.714688,2020-09-09 00:00:00.000000,0.97024707,1.67739927,2.69668374,117,203,327,51,116,209,0.42170428,0.96192425,1.72201279,0.14641185,0.22215197,0.33467931
21153,0,USKentuckyMagoffin,Kentucky,Magoffin,2021-01-05 20:46:18.714688,2020-09-10 00:00:00.000000,0.98891363,1.69646493,2.66595243,120,206,324,50,116,209,0.41908943,0.96030669,1.72289581,0.14884628,0.22334472,0.34978145
21153,0,USKentuckyMagoffin,Kentucky,Magoffin,2021-01-05 20:46:18.714688,2020-09-11 00:00:00.000000,0.99870677,1.72138167,2.64278014,121,209,321,52,115,209,0.42950079,0.95254427,1.72357901,0.15147316,0.22491090,0.35534502
21153,0,USKentuckyMagoffin,Kentucky,Magoffin,2021-01-05 20:46:18.714688,2020-09-12 00:00:00.000000,0.98849479,1.73413781,2.66365885,120,210,323,53,117,209,0.44006852,0.96922756,1.72408661,0.15819466,0.23091211,0.36324003
21153,0,USKentuckyMagoffin,Kentucky,Magoffin,2021-01-05 20:46:18.714688,2020-09-13 00:00:00.000000,1.01739246,1.73814744,2.70972976,123,211,329,53,120,209,0.43945152,0.98694224,1.72446966,0.17378825,0.23547270,0.37403786
21153,0,USKentuckyMagoffin,Kentucky,Magoffin,2021-01-05 20:46:18.714688,2020-09-14 00:00:00.000000,1.04090989,1.77485659,2.70977147,126,215,329,55,121,209,0.45486705,1.00304028,1.72482175,0.17527587,0.24509501,0.38618656
21153,0,USKentuckyMagoffin,Kentucky,Magoffin,2021-01-05 20:46:18.714688,2020-09-15 00:00:00.000000,1.06273439,1.81666754,2.71165075,129,220,329,57,124,209,0.46989099,1.02493578,1.72503353,0.17596284,0.25158908,0.39734812
21153,0,USKentuckyMagoffin,Kentucky,Magoffin,2021-01-05 20:46:18.714688,2020-09-16 00:00:00.000000,1.07530098,1.84244549,2.73890122,130,224,333,59,126,209,0.48549243,1.04248365,1.72547040,0.17631254,0.26080917,0.40438721
21153,0,USKentuckyMagoffin,Kentucky,Magoffin,2021-01-05 20:46:18.714688,2020-09-17 00:00:00.000000,1.06212682,1.86751269,2.78733108,129,227,338,61,126,210,0.50233732,1.04396876,1.72704461,0.18398775,0.26303886,0.41527539
21153,0,USKentuckyMagoffin,Kentucky,Magoffin,2021-01-05 20:46:18.714688,2020-09-18 00:00:00.000000,1.07280084,1.90430838,2.83927676,130,231,345,63,128,210,0.52064773,1.05928337,1.73206512,0.19004009,0.26821954,0.42402054
21153,0,USKentuckyMagoffin,Kentucky,Magoffin,2021-01-05 20:46:18.714688,2020-09-19 00:00:00.000000,1.09658614,1.94837121,2.87381841,133,236,349,64,131,211,0.52895526,1.07863044,1.74304196,0.19476308,0.27930175,0.44900007
21153,0,USKentuckyMagoffin,Kentucky,Magoffin,2021-01-05 20:46:18.714688,2020-09-20 00:00:00.000000,1.12206862,1.99173732,2.94871818,136,242,358,65,133,215,0.53949766,1.09513770,1.77460760,0.20634092,0.28715579,0.45329300
21153,0,USKentuckyMagoffin,Kentucky,Magoffin,2021-01-05 20:46:18.714688,2020-09-21 00:00:00.000000,1.15084481,2.05543204,2.99251361,139,249,363,67,136,221,0.55290913,1.12026151,1.82022412,0.20657512,0.28949336,0.45408640
21153,0,USKentuckyMagoffin,Kentucky,Magoffin,2021-01-05 20:46:18.714688,2020-09-22 00:00:00.000000,1.19915705,2.11460811,3.03866398,145,257,369,69,139,227,0.56926148,1.14390925,1.87095215,0.20690082,0.29283624,0.45658826
21153,0,USKentuckyMagoffin,Kentucky,Magoffin,2021-01-05 20:46:18.714688,2020-09-23 00:00:00.000000,1.26309590,2.17017683,3.10593137,153,263,377,71,142,234,0.58793897,1.17053098,1.92510107,0.20770206,0.29801555,0.46147445
21153,0,USKentuckyMagoffin,Kentucky,Magoffin,2021-01-05 20:46:18.714688,2020-09-24 00:00:00.000000,1.33296981,2.23624236,3.20492639,162,271,389,74,146,240,0.60852593,1.20592980,1.98067686,0.20966596,0.30093163,0.47225864
21153,0,USKentuckyMagoffin,Kentucky,Magoffin,2021-01-05 20:46:18.714688,2020-09-25 00:00:00.000000,1.38423317,2.29353613,3.30530280,168,278,401,76,150,247,0.63076579,1.23438884,2.03557485,0.22086256,0.31453689,0.48310594
21153,0,USKentuckyMagoffin,Kentucky,Magoffin,2021-01-05 20:46:18.714688,2020-09-26 00:00:00.000000,1.43086700,2.38057968,3.40537599,174,289,414,79,153,253,0.65276440,1.26079207,2.08821364,0.22218381,0.32327290,0.48349404
21153,0,USKentuckyMagoffin,Kentucky,Magoffin,2021-01-05 20:46:18.714688,2020-09-27 00:00:00.000000,1.48085881,2.46885599,3.50340474,180,300,426,80,156,260,0.66387581,1.28777532,2.13806411,0.22293923,0.32654014,0.49396393
21153,0,USKentuckyMagoffin,Kentucky,Magoffin,2021-01-05 20:46:18.714688,2020-09-28 00:00:00.000000,1.53632871,2.55181665,3.59437697,186,310,437,82,163,265,0.67680155,1.34274028,2.18544981,0.22196261,0.33306105,0.49784322
21153,0,USKentuckyMagoffin,Kentucky,Magoffin,2021-01-05 20:46:18.714688,2020-09-29 00:00:00.000000,1.59522442,2.65383427,3.68689007,193,322,448,84,168,271,0.69301572,1.38719109,2.23275482,0.22750141,0.34249989,0.51937640
21153,0,USKentuckyMagoffin,Kentucky,Magoffin,2021-01-05 20:46:18.714688,2020-09-30 00:00:00.000000,1.65565451,2.78971722,3.82081753,201,339,464,86,173,277,0.71266606,1.42656187,2.28026266,0.23706957,0.34981838,0.53955102
21153,0,USKentuckyMagoffin,Kentucky,Magoffin,2021-01-05 20:46:18.714688,2020-10-01 00:00:00.000000,1.71256239,2.88653964,3.90523857,208,351,474,89,179,283,0.73602039,1.47997388,2.32848244,0.22878076,0.36599663,0.56980873
21153,0,USKentuckyMagoffin,Kentucky,Magoffin,2021-01-05 20:46:18.714688,2020-10-02 00:00:00.000000,1.77813214,2.95102778,3.99829499,216,358,486,92,185,289,0.76342132,1.52443668,2.37809958,0.22731088,0.37441059,0.58754975
21153,0,USKentuckyMagoffin,Kentucky,Magoffin,2021-01-05 20:46:18.714688,2020-10-03 00:00:00.000000,1.84445705,3.05989574,4.15436790,224,372,505,96,191,302,0.79523240,1.57125388,2.48502348,0.22989845,0.38019117,0.59577892
21153,0,USKentuckyMagoffin,Kentucky,Magoffin,2021-01-05 20:46:18.714688,2020-10-04 00:00:00.000000,1.88649746,3.16343876,4.36054538,229,384,530,101,197,317,0.83173724,1.62054435,2.61118041,0.23312026,0.38621157,0.60017081
21153,0,USKentuckyMagoffin,Kentucky,Magoffin,2021-01-05 20:46:18.714688,2020-10-05 00:00:00.000000,1.94775105,3.30196389,4.54606195,236,401,552,106,201,333,0.87304077,1.65797555,2.74294460,0.23982745,0.39081300,0.60387114
21153,0,USKentuckyMagoffin,Kentucky,Magoffin,2021-01-05 20:46:18.714688,2020-10-06 00:00:00.000000,2.00840686,3.45070768,4.62362165,244,419,562,111,208,349,0.91718481,1.71832019,2.87503530,0.26728602,0.39792970,0.60918250
21153,0,USKentuckyMagoffin,Kentucky,Magoffin,2021-01-05 20:46:18.714688,2020-10-07 00:00:00.000000,2.07478789,3.61220121,4.87075276,252,439,592,117,217,364,0.96468533,1.78926314,2.99785368,0.27802449,0.41033376,0.61975401
21153,0,USKentuckyMagoffin,Kentucky,Magoffin,2021-01-05 20:46:18.714688,2020-10-08 00:00:00.000000,2.18557687,3.81925752,5.18707246,265,464,630,123,227,375,1.01571550,1.87217307,3.09123600,0.29363100,0.41891682,0.62975870
21153,0,USKentuckyMagoffin,Kentucky,Magoffin,2021-01-05 20:46:18.714688,2020-10-09 00:00:00.000000,2.29381921,3.95674125,5.41330168,278,481,658,130,237,387,1.07037499,1.95580597,3.18737139,0.29669128,0.44443303,0.63868097
21153,0,USKentuckyMagoffin,Kentucky,Magoffin,2021-01-05 20:46:18.714688,2020-10-10 00:00:00.000000,2.39708633,4.10686704,5.64572611,291,499,686,137,248,399,1.12890473,2.04038304,3.28452283,0.29718202,0.44583388,0.64846312
21153,0,USKentuckyMagoffin,Kentucky,Magoffin,2021-01-05 20:46:18.714688,2020-10-11 00:00:00.000000,2.53024616,4.29260482,5.88263037,307,522,715,144,258,411,1.19186908,2.12541164,3.38594849,0.29778198,0.45351976,0.66116182
21153,0,USKentuckyMagoffin,Kentucky,Magoffin,2021-01-05 20:46:18.714688,2020-10-12 00:00:00.000000,2.69955067,4.52807428,6.14424513,328,550,747,153,271,424,1.26022936,2.22932839,3.49332015,0.29829877,0.45411738,0.69759934
21153,0,USKentuckyMagoffin,Kentucky,Magoffin,2021-01-05 20:46:18.714688,2020-10-13 00:00:00.000000,2.85106491,4.80721321,6.37321063,346,584,775,162,286,438,1.33609829,2.35236573,3.60200920,0.29903024,0.46555077,0.71639886
21153,0,USKentuckyMagoffin,Kentucky,Magoffin,2021-01-05 20:46:18.714688,2020-10-14 00:00:00.000000,3.03123707,5.06349424,6.58986615,368,615,801,172,303,457,1.42012006,2.49643108,3.76603917,0.29643589,0.47346640,0.72733036
21153,0,USKentuckyMagoffin,Kentucky,Magoffin,2021-01-05 20:46:18.714688,2020-10-15 00:00:00.000000,3.22146668,5.29596267,6.92033645,391,644,841,183,319,479,1.51236804,2.62843917,3.94007307,0.28038170,0.47530341,0.73859359
21153,0,USKentuckyMagoffin,Kentucky,Magoffin,2021-01-05 20:46:18.714688,2020-10-16 00:00:00.000000,3.42159088,5.57920556,7.24994069,416,678,881,195,336,498,1.60634324,2.76404505,4.10088510,0.27943140,0.47885988,0.74153219
21153,0,USKentuckyMagoffin,Kentucky,Magoffin,2021-01-05 20:46:18.714688,2020-10-17 00:00:00.000000,3.63258853,5.87200709,7.62307851,441,714,927,206,354,517,1.69756547,2.91838635,4.25171801,0.28183851,0.48245162,0.79297039
21153,0,USKentuckyMagoffin,Kentucky,Magoffin,2021-01-05 20:46:18.714688,2020-10-18 00:00:00.000000,3.93210391,6.25127747,8.19578904,478,760,996,217,378,534,1.78869659,3.11142671,4.39617858,0.28660134,0.48181452,0.84981467
21153,0,USKentuckyMagoffin,Kentucky,Magoffin,2021-01-05 20:46:18.714688,2020-10-19 00:00:00.000000,4.22428164,6.59236008,8.67547646,513,801,1055,228,402,563,1.88159411,3.30967593,4.63645013,0.29443104,0.48722651,0.85785816
21153,0,USKentuckyMagoffin,Kentucky,Magoffin,2021-01-05 20:46:18.714688,2020-10-20 00:00:00.000000,4.47915507,6.91670128,9.01879512,544,841,1096,240,419,582,1.97751858,3.45160812,4.78910064,0.30373217,0.49817040,0.85976991
21153,0,USKentuckyMagoffin,Kentucky,Magoffin,2021-01-05 20:46:18.714688,2020-10-21 00:00:00.000000,4.71402911,7.25369200,9.33355544,573,882,1135,252,436,615,2.07649255,3.58973576,5.06158137,0.30324907,0.50468374,0.85882136
21153,0,USKentuckyMagoffin,Kentucky,Magoffin,2021-01-05 20:46:18.714688,2020-10-22 00:00:00.000000,4.99948072,7.59478199,9.75142771,607,923,1185,264,457,640,2.17849047,3.76177119,5.26835944,0.30533998,0.50732867,0.85377289
21153,0,USKentuckyMagoffin,Kentucky,Magoffin,2021-01-05 20:46:18.714688,2020-10-23 00:00:00.000000,5.29379496,7.88110796,10.31744288,643,958,1254,277,478,662,2.28359287,3.93508480,5.45040771,0.33100154,0.51969333,0.84081623
21153,0,USKentuckyMagoffin,Kentucky,Magoffin,2021-01-05 20:46:18.714688,2020-10-24 00:00:00.000000,5.58955759,8.21626842,10.89222777,679,999,1324,290,502,683,2.39255271,4.13453238,5.61929201,0.33951435,0.51980487,0.81712410
21153,0,USKentuckyMagoffin,Kentucky,Magoffin,2021-01-05 20:46:18.714688,2020-10-25 00:00:00.000000,5.90496679,8.67321271,11.46359841,718,1054,1394,305,527,719,2.50823779,4.34006015,5.91446179,0.35160978,0.52294080,0.84733745
21153,0,USKentuckyMagoffin,Kentucky,Magoffin,2021-01-05 20:46:18.714688,2020-10-26 00:00:00.000000,6.22128504,9.08204114,12.11647745,756,1104,1473,320,553,773,2.63448755,4.55265356,6.36456816,0.36077324,0.52826923,0.85950174
21153,0,USKentuckyMagoffin,Kentucky,Magoffin,2021-01-05 20:46:18.714688,2020-10-27 00:00:00.000000,6.60370625,9.48799580,12.89973107,803,1153,1568,338,587,826,2.78673803,4.82881697,6.79718262,0.37522511,0.54069828,0.86272633
21153,0,USKentuckyMagoffin,Kentucky,Magoffin,2021-01-05 20:46:18.714688,2020-10-28 00:00:00.000000,7.14975170,9.96998461,13.70181486,869,1212,1666,360,623,876,2.96036524,5.12876399,7.21124180,0.40053196,0.54785952,0.88821173
21153,0,USKentuckyMagoffin,Kentucky,Magoffin,2021-01-05 20:46:18.714688,2020-10-29 00:00:00.000000,7.47300633,10.58618255,14.52030136,908,1287,1765,386,658,926,3.17410127,5.41215242,7.61768536,0.39809153,0.55156966,0.94588475
21153,0,USKentuckyMagoffin,Kentucky,Magoffin,2021-01-05 20:46:18.714688,2020-10-30 00:00:00.000000,7.78310622,11.13206040,15.34839036,946,1353,1866,413,690,977,3.39701163,5.67510424,8.03817039,0.43388623,0.55461416,0.97122338
21153,0,USKentuckyMagoffin,Kentucky,Magoffin,2021-01-05 20:46:18.714688,2020-10-31 00:00:00.000000,8.10051571,11.67482342,16.18059386,985,1419,1967,441,726,1030,3.62860721,5.97766938,8.47421342,0.42822173,0.55739996,0.97922267
21153,0,USKentuckyMagoffin,Kentucky,Magoffin,2021-01-05 20:46:18.714688,2020-11-01 00:00:00.000000,8.52464294,12.38001995,17.01739919,1036,1505,2069,470,759,1077,3.86819826,6.24706436,8.86055825,0.42057224,0.56003380,0.98149472
21153,0,USKentuckyMagoffin,Kentucky,Magoffin,2021-01-05 20:46:18.714688,2020-11-02 00:00:00.000000,8.94442407,13.09118089,17.83270631,1087,1592,2168,500,789,1107,4.11491834,6.49330508,9.10843663,0.42225576,0.56091675,0.98214050
21153,0,USKentuckyMagoffin,Kentucky,Magoffin,2021-01-05 20:46:18.714688,2020-11-03 00:00:00.000000,9.37141484,13.73579554,18.64336958,1139,1670,2267,531,830,1139,4.36714343,6.82987128,9.36684880,0.42826236,0.56932646,0.98241141
21153,0,USKentuckyMagoffin,Kentucky,Magoffin,2021-01-05 20:46:18.714688,2020-11-04 00:00:00.000000,9.80326030,14.31862878,19.44501518,1192,1741,2364,555,879,1172,4.56569388,7.22872681,9.63866964,0.43404297,0.56639675,0.98278107
21153,0,USKentuckyMagoffin,Kentucky,Magoffin,2021-01-05 20:46:18.714688,2020-11-05 00:00:00.000000,10.23900148,15.01531329,20.23616225,1245,1826,2460,576,918,1220,4.74019444,7.55111470,10.03920263,0.43112430,0.56761899,0.98376157
21153,0,USKentuckyMagoffin,Kentucky,Magoffin,2021-01-05 20:46:18.714688,2020-11-06 00:00:00.000000,10.67888317,15.70172106,21.00483749,1298,1909,2554,597,963,1289,4.91550613,7.92083808,10.60215574,0.43528533,0.57553898,0.98639548
21153,0,USKentuckyMagoffin,Kentucky,Magoffin,2021-01-05 20:46:18.714688,2020-11-07 00:00:00.000000,11.12574721,16.46872233,21.55266063,1353,2002,2621,619,1009,1357,5.09080517,8.30458907,11.16149583,0.44533024,0.60068953,0.99211015
21153,0,USKentuckyMagoffin,Kentucky,Magoffin,2021-01-05 20:46:18.714688,2020-11-08 00:00:00.000000,11.58626634,17.11261866,22.08889706,1409,2081,2686,640,1055,1423,5.26554897,8.67891887,11.70742244,0.45935355,0.61307973,1.00080612
21153,0,USKentuckyMagoffin,Kentucky,Magoffin,2021-01-05 20:46:18.714688,2020-11-09 00:00:00.000000,12.06598983,17.73529058,23.01708407,1467,2156,2799,661,1102,1484,5.43978645,9.06394467,12.20829239,0.49656268,0.63994588,1.00933046
21153,0,USKentuckyMagoffin,Kentucky,Magoffin,2021-01-05 20:46:18.714688,2020-11-10 00:00:00.000000,12.56806202,18.52994619,23.91583649,1528,2253,2908,683,1150,1528,5.61835921,9.45923337,12.57241738,0.50215321,0.64543702,1.01487888
21153,0,USKentuckyMagoffin,Kentucky,Magoffin,2021-01-05 20:46:18.714688,2020-11-11 00:00:00.000000,13.08335245,19.33651348,24.77817408,1591,2351,3013,705,1211,1591,5.80399631,9.96348943,13.08796185,0.51625853,0.66774761,1.02187092
21153,0,USKentuckyMagoffin,Kentucky,Magoffin,2021-01-05 20:46:18.714688,2020-11-12 00:00:00.000000,13.63744287,20.23960336,25.60291490,1658,2461,3113,730,1260,1666,6.00683743,10.36525023,13.70647888,0.52843499,0.69607317,1.09757736
21153,0,USKentuckyMagoffin,Kentucky,Magoffin,2021-01-05 20:46:18.714688,2020-11-13 00:00:00.000000,14.39008158,21.10988552,26.59131392,1749,2567,3233,759,1304,1723,6.24348386,10.72567151,14.17287222,0.53312899,0.71892536,1.11499076
21153,0,USKentuckyMagoffin,Kentucky,Magoffin,2021-01-05 20:46:18.714688,2020-11-14 00:00:00.000000,14.93732815,21.85657254,27.61657770,1816,2657,3358,794,1353,1778,6.53002249,11.13220747,14.62487472,0.52790725,0.74169678,1.11916565
21153,0,USKentuckyMagoffin,Kentucky,Magoffin,2021-01-05 20:46:18.714688,2020-11-15 00:00:00.000000,15.32608062,22.62181637,28.67017146,1863,2751,3486,835,1405,1831,6.87139073,11.55517326,15.05797700,0.53388831,0.75795764,1.11965214
21153,0,USKentuckyMagoffin,Kentucky,Magoffin,2021-01-05 20:46:18.714688,2020-11-16 00:00:00.000000,15.98431863,23.49956448,29.75033014,1943,2857,3617,883,1455,1880,7.26209038,11.97018106,15.46689290,0.54351709,0.77941409,1.18529176
21153,0,USKentuckyMagoffin,Kentucky,Magoffin,2021-01-05 20:46:18.714688,2020-11-17 00:00:00.000000,16.87702373,24.24888325,30.71852460,2052,2948,3735,909,1521,1959,7.47480350,12.51024928,16.11565522,0.54162967,0.80846595,1.20025745
21153,0,USKentuckyMagoffin,Kentucky,Magoffin,2021-01-05 20:46:18.714688,2020-11-18 00:00:00.000000,17.06289259,25.08700821,31.60872272,2075,3050,3843,921,1576,2046,7.57491236,12.96595012,16.82497542,0.54177079,0.83397018,1.20179733
21153,0,USKentuckyMagoffin,Kentucky,Magoffin,2021-01-05 20:46:18.714688,2020-11-19 00:00:00.000000,17.11499793,25.56937323,32.34893522,2081,3109,3933,930,1630,2129,7.64756240,13.41161027,17.51371923,0.57729985,0.85046746,1.20112361
21153,0,USKentuckyMagoffin,Kentucky,Magoffin,2021-01-05 20:46:18.714688,2020-11-20 00:00:00.000000,17.35702153,26.22176569,32.93411585,2110,3188,4005,935,1683,2208,7.69189581,13.84321086,18.15838777,0.63417808,0.86665986,1.24212471
21153,0,USKentuckyMagoffin,Kentucky,Magoffin,2021-01-05 20:46:18.714688,2020-11-21 00:00:00.000000,17.79042238,26.78462838,33.35454053,2163,3257,4056,937,1734,2279,7.70744829,14.26184195,18.74089322,0.65348684,0.86891372,1.23918202
21153,0,USKentuckyMagoffin,Kentucky,Magoffin,2021-01-05 20:46:18.714688,2020-11-22 00:00:00.000000,17.61500475,27.23771290,33.61139659,2142,3312,4087,935,1791,2342,7.69417254,14.73091207,19.26604867,0.64502297,0.87094221,1.24859150
21153,0,USKentuckyMagoffin,Kentucky,Magoffin,2021-01-05 20:46:18.714688,2020-11-23 00:00:00.000000,17.36647837,27.56753456,33.64060339,2111,3352,4091,930,1835,2414,7.65244297,15.09220244,19.85228422,0.62551834,0.86273568,1.24864906
21153,0,USKentuckyMagoffin,Kentucky,Magoffin,2021-01-05 20:46:18.714688,2020-11-24 00:00:00.000000,17.06003939,27.71363828,33.83281740,2074,3370,4114,921,1866,2479,7.58088739,15.34833883,20.38656822,0.62176313,0.89836883,1.25352499
21153,0,USKentuckyMagoffin,Kentucky,Magoffin,2021-01-05 20:46:18.714688,2020-11-25 00:00:00.000000,16.70267869,27.79876740,33.89488503,2031,3380,4121,909,1885,2532,7.48157796,15.50457234,20.82124694,0.60926085,0.90899862,1.26592265
21153,0,USKentuckyMagoffin,Kentucky,Magoffin,2021-01-05 20:46:18.714688,2020-11-26 00:00:00.000000,16.29632607,27.91687251,33.75473262,1981,3394,4104,894,1924,2563,7.35658009,15.82390121,21.07618143,0.60809969,0.90628632,1.29919725
21153,0,USKentuckyMagoffin,Kentucky,Magoffin,2021-01-05 20:46:18.714688,2020-11-27 00:00:00.000000,16.01131485,27.78370991,33.48175754,1947,3378,4071,876,1940,2572,7.20805351,15.95905858,21.15721458,0.60658793,0.89579053,1.32469746
21153,0,USKentuckyMagoffin,Kentucky,Magoffin,2021-01-05 20:46:18.714688,2020-11-28 00:00:00.000000,15.67253307,27.47718999,33.40762546,1905,3341,4062,855,1939,2571,7.03828309,15.94952188,21.14169305,0.59731036,0.88074140,1.42047769
21153,0,USKentuckyMagoffin,Kentucky,Magoffin,2021-01-05 20:46:18.714688,2020-11-29 00:00:00.000000,15.26101091,26.85826962,32.86248361,1855,3266,3996,840,1926,2564,6.91039321,15.84467296,21.08934642,0.57573691,0.86649429,1.43923322
21153,0,USKentuckyMagoffin,Kentucky,Magoffin,2021-01-05 20:46:18.714688,2020-11-30 00:00:00.000000,14.81991453,26.26532342,32.11615323,1802,3194,3905,823,1913,2546,6.77003511,15.73786436,20.93918031,0.55024947,0.86155282,1.44405102
21153,0,USKentuckyMagoffin,Kentucky,Magoffin,2021-01-05 20:46:18.714688,2020-12-01 00:00:00.000000,14.34742443,25.54357604,31.23255855,1744,3106,3798,803,1888,2519,6.60479346,15.52580978,20.71657108,0.52153118,0.85575264,1.46104170
21153,0,USKentuckyMagoffin,Kentucky,Magoffin,2021-01-05 20:46:18.714688,2020-12-02 00:00:00.000000,13.85290970,24.78204462,30.23275465,1684,3013,3676,780,1855,2490,6.41973453,15.25546969,20.48186437,0.50427218,0.85344466,1.47808779
21153,0,USKentuckyMagoffin,Kentucky,Magoffin,2021-01-05 20:46:18.714688,2020-12-03 00:00:00.000000,13.34254174,23.88902657,29.13821532,1622,2905,3543,756,1807,2488,6.21950848,14.86267457,20.46172901,0.49428820,0.84252623,1.48887752
21153,0,USKentuckyMagoffin,Kentucky,Magoffin,2021-01-05 20:46:18.714688,2020-12-04 00:00:00.000000,12.88536580,22.84385601,28.56323711,1566,2778,3473,730,1755,2427,6.00797164,14.43192074,19.96458989,0.48535594,0.85306607,1.49606734
21153,0,USKentuckyMagoffin,Kentucky,Magoffin,2021-01-05 20:46:18.714688,2020-12-05 00:00:00.000000,12.42884027,21.86672784,28.00145481,1511,2659,3405,704,1698,2346,5.79218500,13.96878742,19.29489428,0.47827145,0.83321462,1.52543046
21153,0,USKentuckyMagoffin,Kentucky,Magoffin,2021-01-05 20:46:18.714688,2020-12-06 00:00:00.000000,11.95715552,20.87297504,27.33303807,1454,2538,3323,677,1635,2308,5.56881914,13.44877147,18.98607757,0.47279422,0.80973781,1.54578303
21153,0,USKentuckyMagoffin,Kentucky,Magoffin,2021-01-05 20:46:18.714688,2020-12-07 00:00:00.000000,11.47012287,19.86331479,26.57104815,1394,2415,3231,647,1567,2262,5.32833001,12.88945557,18.60595543,0.46582773,0.80339647,1.70699681
21153,0,USKentuckyMagoffin,Kentucky,Magoffin,2021-01-05 20:46:18.714688,2020-12-08 00:00:00.000000,10.97331453,18.85219755,25.66070105,1334,2292,3120,617,1500,2208,5.07525185,12.33497452,18.15972378,0.45710323,0.81531473,1.81041541
21153,0,USKentuckyMagoffin,Kentucky,Magoffin,2021-01-05 20:46:18.714688,2020-12-09 00:00:00.000000,10.39300254,17.82936419,24.51820848,1263,2168,2981,585,1429,2147,4.81709238,11.75587306,17.65625167,0.45034290,0.81911795,1.81255404
21153,0,USKentuckyMagoffin,Kentucky,Magoffin,2021-01-05 20:46:18.714688,2020-12-10 00:00:00.000000,9.62816338,16.80373873,23.36658040,1170,2043,2841,554,1355,2080,4.55907783,11.14539665,17.10450752,0.42432648,0.80010040,1.81240784
21153,0,USKentuckyMagoffin,Kentucky,Magoffin,2021-01-05 20:46:18.714688,2020-12-11 00:00:00.000000,8.90201850,15.80977422,22.21688780,1082,1922,2701,523,1294,2004,4.30476654,10.64271727,16.48621057,0.41915995,0.81441157,1.81210749
21153,0,USKentuckyMagoffin,Kentucky,Magoffin,2021-01-05 20:46:18.714688,2020-12-12 00:00:00.000000,8.22258590,14.89086622,21.24673431,999,1810,2583,493,1236,1922,4.05650875,10.16554674,15.80774615,0.42102604,0.83112314,1.81174725
21153,0,USKentuckyMagoffin,Kentucky,Magoffin,2021-01-05 20:46:18.714688,2020-12-13 00:00:00.000000,7.63277209,13.99575307,20.34445930,928,1702,2474,464,1170,1838,3.81597201,9.62895727,15.11700529,0.42546831,0.82517638,1.81234906
21153,0,USKentuckyMagoffin,Kentucky,Magoffin,2021-01-05 20:46:18.714688,2020-12-14 00:00:00.000000,7.08782453,13.05325770,19.42264848,861,1587,2361,435,1099,1753,3.58429834,9.04224322,14.41910233,0.42753092,0.83352220,1.82038933
21153,0,USKentuckyMagoffin,Kentucky,Magoffin,2021-01-05 20:46:18.714688,2020-12-15 00:00:00.000000,6.57820664,12.19354333,18.50386738,799,1482,2250,408,1032,1668,3.35984083,8.48828907,13.71871290,0.38386693,0.83559128,1.83302820
21153,0,USKentuckyMagoffin,Kentucky,Magoffin,2021-01-05 20:46:18.714688,2020-12-16 00:00:00.000000,6.10596452,11.36848266,17.59551186,742,1382,2139,380,968,1583,3.12611988,7.96070448,13.02204408,0.37853520,0.82833926,1.79108165
21153,0,USKentuckyMagoffin,Kentucky,Magoffin,2021-01-05 20:46:18.714688,2020-12-17 00:00:00.000000,5.66696550,10.61411957,16.70050250,689,1290,2030,352,906,1500,2.89995888,7.45086802,12.33466218,0.37191493,0.81291161,1.79825268
21153,0,USKentuckyMagoffin,Kentucky,Magoffin,2021-01-05 20:46:18.714688,2020-12-18 00:00:00.000000,5.25756331,9.87313003,15.81768090,639,1200,1923,327,847,1422,2.69259980,6.96869315,11.69850989,0.36658626,0.80872021,2.02342136
21153,0,USKentuckyMagoffin,Kentucky,Magoffin,2021-01-05 20:46:18.714688,2020-12-19 00:00:00.000000,4.87507528,9.17132427,14.89920289,592,1115,1811,304,794,1349,2.50139564,6.53170951,11.09439251,0.36381410,0.78323012,2.02577807
21153,0,USKentuckyMagoffin,Kentucky,Magoffin,2021-01-05 20:46:18.714688,2020-12-20 00:00:00.000000,4.52209875,8.51221068,13.93183259,549,1035,1694,282,742,1277,2.32415153,6.10167141,10.50108911,0.35479808,0.79245671,2.02220295
21153,0,USKentuckyMagoffin,Kentucky,Magoffin,2021-01-05 20:46:18.714688,2020-12-21 00:00:00.000000,4.19822976,7.89894820,13.00530763,510,960,1581,262,691,1206,2.15889631,5.68546374,9.92169072,0.34224841,0.77420966,2.01666559
21153,0,USKentuckyMagoffin,Kentucky,Magoffin,2021-01-05 20:46:18.714688,2020-12-22 00:00:00.000000,3.89032504,7.32345831,12.12789260,473,890,1474,243,645,1134,2.00503399,5.30471624,9.32689035,0.33096604,0.77343188,2.00779721
21153,0,USKentuckyMagoffin,Kentucky,Magoffin,2021-01-05 20:46:18.714688,2020-12-23 00:00:00.000000,3.55420982,6.77520536,11.29940571,432,823,1374,226,603,1063,1.86070596,4.96489404,8.74636808,0.32475221,0.76741682,1.98140677
21153,0,USKentuckyMagoffin,Kentucky,Magoffin,2021-01-05 20:46:18.714688,2020-12-24 00:00:00.000000,3.25004949,6.26441092,10.51876094,395,761,1279,209,560,996,1.72474155,4.61185408,8.19023277,0.32117771,0.75752271,1.92062619
21153,0,USKentuckyMagoffin,Kentucky,Magoffin,2021-01-05 20:46:18.714688,2020-12-25 00:00:00.000000,2.97520037,5.83557224,9.78454725,361,709,1189,194,520,931,1.59645740,4.27997857,7.65963336,0.31696456,0.75760267,1.87403834
21153,0,USKentuckyMagoffin,Kentucky,Magoffin,2021-01-05 20:46:18.714688,2020-12-26 00:00:00.000000,2.72708047,5.43650089,9.09517745,331,661,1106,179,482,870,1.47566397,3.96881674,7.15514357,0.30916194,0.77093231,2.03222671
21153,0,USKentuckyMagoffin,Kentucky,Magoffin,2021-01-05 20:46:18.714688,2020-12-27 00:00:00.000000,2.50324246,5.06111835,8.44888288,304,615,1027,165,448,811,1.36243326,3.68591844,6.67690087,0.29656189,0.77347869,2.16996696
21153,0,USKentuckyMagoffin,Kentucky,Magoffin,2021-01-05 20:46:18.714688,2020-12-28 00:00:00.000000,2.26302284,4.68232854,7.83500934,275,569,952,152,416,756,1.25681779,3.42274250,6.22470384,0.29870324,0.77949266,2.16783378
21153,0,USKentuckyMagoffin,Kentucky,Magoffin,2021-01-05 20:46:18.714688,2020-12-29 00:00:00.000000,2.04299639,4.35197839,7.26017845,248,529,882,140,385,704,1.15619283,3.16776823,5.79655245,0.29918197,0.78216545,2.25234501
21153,0,USKentuckyMagoffin,Kentucky,Magoffin,2021-01-05 20:46:18.714688,2020-12-30 00:00:00.000000,1.84123455,4.04421780,6.72221387,223,491,817,129,355,655,1.06130656,2.92361010,5.39218785,0.28380213,0.78604206,2.27914668
21153,0,USKentuckyMagoffin,Kentucky,Magoffin,2021-01-05 20:46:18.714688,2020-12-31 00:00:00.000000,1.65724959,3.75285471,6.21913392,201,456,756,118,327,609,0.97252556,2.69587575,5.01108818,0.25808106,0.79158684,2.25953991
21153,0,USKentuckyMagoffin,Kentucky,Magoffin,2021-01-05 20:46:18.714688,2021-01-01 00:00:00.000000,1.49026701,3.46872279,5.76653458,181,421,701,108,302,566,0.88995819,2.48527513,4.65870418,0.24035553,0.79162916,2.37354445
21153,0,USKentuckyMagoffin,Kentucky,Magoffin,2021-01-05 20:46:18.714688,2021-01-02 00:00:00.000000,1.33929427,3.19573821,5.35652448,162,388,651,98,278,526,0.81355329,2.29046380,4.33262933,0.23356452,0.80193876,2.52778162
21153,0,USKentuckyMagoffin,Kentucky,Magoffin,2021-01-05 20:46:18.714688,2021-01-03 00:00:00.000000,1.20401626,2.93281176,4.97320116,146,356,604,90,256,489,0.74317635,2.11025450,4.02694130,0.23156072,0.79924909,2.66271485
21153,0,USKentuckyMagoffin,Kentucky,Magoffin,2021-01-05 20:46:18.714688,2021-01-04 00:00:00.000000,1.08324114,2.68990594,4.61524752,131,327,561,82,236,454,0.67862923,1.94358113,3.74079210,0.23101848,0.78764726,2.75668357
21153,0,USKentuckyMagoffin,Kentucky,Magoffin,2021-01-05 20:46:18.714688,2021-01-05 00:00:00.000000,0.97464183,2.46578192,4.28133410,118,299,520,75,217,422,0.61960158,1.78947366,3.47328367,0.23087569,0.78767996,2.81308665
21153,0,USKentuckyMagoffin,Kentucky,Magoffin,2021-01-05 20:46:18.714688,2021-01-06 00:00:00.000000,0.87698433,2.25922239,3.97013728,106,274,482,68,200,392,0.56568548,1.64535508,3.22349096,0.23083852,0.78800613,2.84543235
21153,0,USKentuckyMagoffin,Kentucky,Magoffin,2021-01-05 20:46:18.714688,2021-01-07 00:00:00.000000,0.78915061,2.06904443,3.68035283,95,251,447,62,183,363,0.51645043,1.50899009,2.99047984,0.23082893,0.78814595,2.86253871
21153,0,USKentuckyMagoffin,Kentucky,Magoffin,2021-01-05 20:46:18.714688,2021-01-08 00:00:00.000000,0.71013920,1.89410866,3.41070745,86,230,414,57,168,337,0.47148779,1.38335077,2.77332099,0.23082648,0.78821502,2.86947264
21153,0,USKentuckyMagoffin,Kentucky,Magoffin,2021-01-05 20:46:18.714688,2021-01-09 00:00:00.000000,0.63905483,1.73332560,3.15996768,77,210,384,52,154,312,0.42995397,1.26988087,2.57110042,0.23082587,0.78825101,2.87278762
21153,0,USKentuckyMagoffin,Kentucky,Magoffin,2021-01-05 20:46:18.714688,2021-01-10 00:00:00.000000,0.57509640,1.58565967,2.92694629,69,192,355,47,141,289,0.38711660,1.16605541,2.38292731,0.23082571,0.78827007,2.87436269
21153,0,USKentuckyMagoffin,Kentucky,Magoffin,2021-01-05 20:46:18.714688,2021-01-11 00:00:00.000000,0.51754597,1.45013141,2.71050658,62,176,329,42,131,268,0.35088884,1.08094268,2.20793982,0.23082568,0.78828019,2.87510895
21153,0,USKentuckyMagoffin,Kentucky,Magoffin,2021-01-05 20:46:18.714688,2021-01-12 00:00:00.000000,0.46575938,1.33312827,2.50956504,56,162,305,38,121,248,0.32057176,1.00192899,2.04530912,0.23082567,0.78828557,2.87546211
21153,0,USKentuckyMagoffin,Kentucky,Magoffin,2021-01-05 20:46:18.714688,2021-01-13 00:00:00.000000,0.41915807,1.22567940,2.31911519,50,149,282,35,112,230,0.29286268,0.92859782,1.89424213,0.23082567,0.78828843,2.87562919
21153,0,USKentuckyMagoffin,Kentucky,Magoffin,2021-01-05 20:46:18.714688,2021-01-14 00:00:00.000000,0.37722207,1.12669889,2.14224688,45,137,260,32,104,213,0.26753828,0.85716849,1.75398313,0.23082567,0.78828994,2.87570826
21153,0,USKentuckyMagoffin,Kentucky,Magoffin,2021-01-05 20:46:18.714688,2021-01-15 00:00:00.000000,0.33948387,1.03554860,1.97864074,41,125,240,29,96,197,0.24439447,0.79028644,1.62381461,0.23082567,0.78829074,2.87574570
21153,0,USKentuckyMagoffin,Kentucky,Magoffin,2021-01-05 20:46:18.714688,2021-01-16 00:00:00.000000,0.30552298,0.95163427,1.82733667,37,115,222,27,88,182,0.22324463,0.72779902,1.50305740,0.23082567,0.78829117,2.87576346
21153,0,USKentuckyMagoffin,Kentucky,Magoffin,2021-01-05 20:46:18.714688,2021-01-17 00:00:00.000000,0.27496115,0.87221364,1.68743879,33,106,205,24,81,169,0.20391804,0.66790547,1.39107030,0.23082567,0.78829139,2.87577191
