FIPS,HR_UID,nameid,province,region,analysisTime,dates,pointprevalence_025,pointprevalence_50,pointprevalence_975,pointinfections_025,pointinfections_50,pointinfections_975,pointinfectious_025,pointinfectious_50,pointinfectious_975,pointinfectiousprevalence_05,pointinfectiousprevalence_50,pointinfectiousprevalence_95,infectrate_025,infectrate_50,infectrate_975
41003,0,USOregonBenton,Oregon,Benton,2021-01-05 12:28:30.465953,2020-03-09 00:00:00.000000,0.00186262,0.00481798,0.01120201,1,4,10,0,1,3,0.00046171,0.00189823,0.00393037,0.39712290,0.56282856,0.73945241
41003,0,USOregonBenton,Oregon,Benton,2021-01-05 12:28:30.465953,2020-03-10 00:00:00.000000,0.00282744,0.00698982,0.01555024,2,6,14,0,1,4,0.00066214,0.00212415,0.00458125,0.39707124,0.56281874,0.73945214
41003,0,USOregonBenton,Oregon,Benton,2021-01-05 12:28:30.465953,2020-03-11 00:00:00.000000,0.00384107,0.00903599,0.01952786,3,8,18,0,2,5,0.00092863,0.00251636,0.00566295,0.39696646,0.56279329,0.73945153
41003,0,USOregonBenton,Oregon,Benton,2021-01-05 12:28:30.465953,2020-03-12 00:00:00.000000,0.00485156,0.01094688,0.02275061,4,10,21,1,2,6,0.00120621,0.00309824,0.00699254,0.39675461,0.56272576,0.73945001
41003,0,USOregonBenton,Oregon,Benton,2021-01-05 12:28:30.465953,2020-03-13 00:00:00.000000,0.00597575,0.01291329,0.02671197,5,12,24,1,3,8,0.00153464,0.00389717,0.00935325,0.39632898,0.56254362,0.73944588
41003,0,USOregonBenton,Oregon,Benton,2021-01-05 12:28:30.465953,2020-03-14 00:00:00.000000,0.00715686,0.01491825,0.03237809,6,13,30,1,4,10,0.00190572,0.00481956,0.01122887,0.39548466,0.56204790,0.73943343
41003,0,USOregonBenton,Oregon,Benton,2021-01-05 12:28:30.465953,2020-03-15 00:00:00.000000,0.00843817,0.01746527,0.03833268,7,16,35,2,5,12,0.00231606,0.00591629,0.01384260,0.39385139,0.56082782,0.73939193
41003,0,USOregonBenton,Oregon,Benton,2021-01-05 12:28:30.465953,2020-03-16 00:00:00.000000,0.01019099,0.02074703,0.04305619,9,19,40,2,6,15,0.00273477,0.00717274,0.01685385,0.39162619,0.55697917,0.73924293
41003,0,USOregonBenton,Oregon,Benton,2021-01-05 12:28:30.465953,2020-03-17 00:00:00.000000,0.01191405,0.02379096,0.04910652,11,22,45,3,8,18,0.00331286,0.00866275,0.01996401,0.38509700,0.54533894,0.73869488
41003,0,USOregonBenton,Oregon,Benton,2021-01-05 12:28:30.465953,2020-03-18 00:00:00.000000,0.01370772,0.02702857,0.05562250,12,25,51,3,9,21,0.00394543,0.00986598,0.02323219,0.37760198,0.52935503,0.72410985
41003,0,USOregonBenton,Oregon,Benton,2021-01-05 12:28:30.465953,2020-03-19 00:00:00.000000,0.01572729,0.03099748,0.06261925,14,28,58,4,10,24,0.00465478,0.01109127,0.02669934,0.37830488,0.51305102,0.72377415
41003,0,USOregonBenton,Oregon,Benton,2021-01-05 12:28:30.465953,2020-03-20 00:00:00.000000,0.01787492,0.03521505,0.07005062,16,32,65,5,12,28,0.00550991,0.01333740,0.03039355,0.34878238,0.49575205,0.69573818
41003,0,USOregonBenton,Oregon,Benton,2021-01-05 12:28:30.465953,2020-03-21 00:00:00.000000,0.02013839,0.03767736,0.07767911,18,35,72,5,13,31,0.00629348,0.01483927,0.03432199,0.27768876,0.48256516,0.65965552
41003,0,USOregonBenton,Oregon,Benton,2021-01-05 12:28:30.465953,2020-03-22 00:00:00.000000,0.02251151,0.04106812,0.08525762,20,38,79,6,15,35,0.00714831,0.01689330,0.03843888,0.25353093,0.45099424,0.64904971
41003,0,USOregonBenton,Oregon,Benton,2021-01-05 12:28:30.465953,2020-03-23 00:00:00.000000,0.02674021,0.04489390,0.09136255,24,41,85,7,17,39,0.00805304,0.01861796,0.04267004,0.25201170,0.43485947,0.64232047
41003,0,USOregonBenton,Oregon,Benton,2021-01-05 12:28:30.465953,2020-03-24 00:00:00.000000,0.02882672,0.04856887,0.09822792,26,45,91,8,19,43,0.00934078,0.02080653,0.04665572,0.24813441,0.41775688,0.59206889
41003,0,USOregonBenton,Oregon,Benton,2021-01-05 12:28:30.465953,2020-03-25 00:00:00.000000,0.03061368,0.05274118,0.10474260,28,49,97,9,21,46,0.01048911,0.02277696,0.04996347,0.24570651,0.40673959,0.57484962
41003,0,USOregonBenton,Oregon,Benton,2021-01-05 12:28:30.465953,2020-03-26 00:00:00.000000,0.03228445,0.05534988,0.11173356,30,51,103,10,22,49,0.01157754,0.02412269,0.05288833,0.24505421,0.39594253,0.55771072
41003,0,USOregonBenton,Oregon,Benton,2021-01-05 12:28:30.465953,2020-03-27 00:00:00.000000,0.03390818,0.05955618,0.11850819,31,55,110,12,24,54,0.01293244,0.02592665,0.05810956,0.22583637,0.37832664,0.52229796
41003,0,USOregonBenton,Oregon,Benton,2021-01-05 12:28:30.465953,2020-03-28 00:00:00.000000,0.03552271,0.06261814,0.12369223,33,58,115,12,25,58,0.01394309,0.02781580,0.06253146,0.21607460,0.36402083,0.50193251
41003,0,USOregonBenton,Oregon,Benton,2021-01-05 12:28:30.465953,2020-03-29 00:00:00.000000,0.03714535,0.06735235,0.12966515,34,62,120,13,28,61,0.01451896,0.03019536,0.06637298,0.21265174,0.35376409,0.49382186
41003,0,USOregonBenton,Oregon,Benton,2021-01-05 12:28:30.465953,2020-03-30 00:00:00.000000,0.03882755,0.07079969,0.13807001,36,65,128,14,30,66,0.01507553,0.03254256,0.07125445,0.17283733,0.34256217,0.48485969
41003,0,USOregonBenton,Oregon,Benton,2021-01-05 12:28:30.465953,2020-03-31 00:00:00.000000,0.04108812,0.07372299,0.14357350,38,68,133,15,31,70,0.01626348,0.03437021,0.07578853,0.16251342,0.33497896,0.48093352
41003,0,USOregonBenton,Oregon,Benton,2021-01-05 12:28:30.465953,2020-04-01 00:00:00.000000,0.04339161,0.07551337,0.14711736,40,70,136,16,33,73,0.01785899,0.03591758,0.07902766,0.16222084,0.32341641,0.47466640
41003,0,USOregonBenton,Oregon,Benton,2021-01-05 12:28:30.465953,2020-04-02 00:00:00.000000,0.04574940,0.07973080,0.15218702,42,74,141,17,35,75,0.01906581,0.03779232,0.08153248,0.16248814,0.31206071,0.43302985
41003,0,USOregonBenton,Oregon,Benton,2021-01-05 12:28:30.465953,2020-04-03 00:00:00.000000,0.04816772,0.08305327,0.15806496,44,77,147,18,36,77,0.01971480,0.03928291,0.08360719,0.16427519,0.29771878,0.43366591
41003,0,USOregonBenton,Oregon,Benton,2021-01-05 12:28:30.465953,2020-04-04 00:00:00.000000,0.04992163,0.08671846,0.16390026,46,80,152,18,37,79,0.02032768,0.04065360,0.08531690,0.17095109,0.28550122,0.43373063
41003,0,USOregonBenton,Oregon,Benton,2021-01-05 12:28:30.465953,2020-04-05 00:00:00.000000,0.05159771,0.08989426,0.16973825,48,83,157,19,39,81,0.02091858,0.04200174,0.08772271,0.17120821,0.27416404,0.43022712
41003,0,USOregonBenton,Oregon,Benton,2021-01-05 12:28:30.465953,2020-04-06 00:00:00.000000,0.05262387,0.09304020,0.17195212,48,86,160,20,40,86,0.02150001,0.04395519,0.09253655,0.16868569,0.26615355,0.43427289
41003,0,USOregonBenton,Oregon,Benton,2021-01-05 12:28:30.465953,2020-04-07 00:00:00.000000,0.05365749,0.09669156,0.17847837,49,89,166,20,42,89,0.02210500,0.04584324,0.09637783,0.15882664,0.25989082,0.43447985
41003,0,USOregonBenton,Oregon,Benton,2021-01-05 12:28:30.465953,2020-04-08 00:00:00.000000,0.05486075,0.10126587,0.18632405,51,94,173,21,44,92,0.02272947,0.04777220,0.09992262,0.15515894,0.25594764,0.43417189
41003,0,USOregonBenton,Oregon,Benton,2021-01-05 12:28:30.465953,2020-04-09 00:00:00.000000,0.05737853,0.10382582,0.19396219,53,96,180,21,46,97,0.02337031,0.04970630,0.10481496,0.15260210,0.25304690,0.43322894
41003,0,USOregonBenton,Oregon,Benton,2021-01-05 12:28:30.465953,2020-04-10 00:00:00.000000,0.05930816,0.10638071,0.20135104,55,98,187,22,49,102,0.02402487,0.05275642,0.10963854,0.15105954,0.24670063,0.43151646
41003,0,USOregonBenton,Oregon,Benton,2021-01-05 12:28:30.465953,2020-04-11 00:00:00.000000,0.05923526,0.10947579,0.20848718,55,101,194,22,51,106,0.02469025,0.05490378,0.11436478,0.14777504,0.24178153,0.42861035
41003,0,USOregonBenton,Oregon,Benton,2021-01-05 12:28:30.465953,2020-04-12 00:00:00.000000,0.05990254,0.11157770,0.21539573,55,103,200,23,51,108,0.02536244,0.05557179,0.11606360,0.14151790,0.23456710,0.42354455
41003,0,USOregonBenton,Oregon,Benton,2021-01-05 12:28:30.465953,2020-04-13 00:00:00.000000,0.06192058,0.11513734,0.21746001,57,107,202,24,53,108,0.02603534,0.05709325,0.11625102,0.13783109,0.23118047,0.41970110
41003,0,USOregonBenton,Oregon,Benton,2021-01-05 12:28:30.465953,2020-04-14 00:00:00.000000,0.06398674,0.11779102,0.21914291,59,109,203,24,54,108,0.02675503,0.05855383,0.11638443,0.13219148,0.22740789,0.41444446
41003,0,USOregonBenton,Oregon,Benton,2021-01-05 12:28:30.465953,2020-04-15 00:00:00.000000,0.06607123,0.11890781,0.22490701,61,110,209,25,55,108,0.02726694,0.06001743,0.11649630,0.12719116,0.22019246,0.41284022
41003,0,USOregonBenton,Oregon,Benton,2021-01-05 12:28:30.465953,2020-04-16 00:00:00.000000,0.06810723,0.11854957,0.23075191,63,110,214,25,56,110,0.02769202,0.06096080,0.11882400,0.12306137,0.21442515,0.41210589
41003,0,USOregonBenton,Oregon,Benton,2021-01-05 12:28:30.465953,2020-04-17 00:00:00.000000,0.07004978,0.11963405,0.23668469,65,111,220,26,57,113,0.02836675,0.06185962,0.12222129,0.11976434,0.20747873,0.41130648
41003,0,USOregonBenton,Oregon,Benton,2021-01-05 12:28:30.465953,2020-04-18 00:00:00.000000,0.07179419,0.12047227,0.24257835,66,112,225,27,57,116,0.02926217,0.06192337,0.12561880,0.11959434,0.20443210,0.38201277
41003,0,USOregonBenton,Oregon,Benton,2021-01-05 12:28:30.465953,2020-04-19 00:00:00.000000,0.07325129,0.12209431,0.24527363,68,113,228,28,58,120,0.03013896,0.06276342,0.12902696,0.12366007,0.20154563,0.35800947
41003,0,USOregonBenton,Oregon,Benton,2021-01-05 12:28:30.465953,2020-04-20 00:00:00.000000,0.07208791,0.12116352,0.24678996,67,112,229,28,58,123,0.03095866,0.06322858,0.13240932,0.11744639,0.19707197,0.34676761
41003,0,USOregonBenton,Oregon,Benton,2021-01-05 12:28:30.465953,2020-04-21 00:00:00.000000,0.07316265,0.12083058,0.24715193,68,112,229,29,58,125,0.03166908,0.06312192,0.13538192,0.11969435,0.19580982,0.33869760
41003,0,USOregonBenton,Oregon,Benton,2021-01-05 12:28:30.465953,2020-04-22 00:00:00.000000,0.07458447,0.12234128,0.24725309,69,113,230,30,58,128,0.03228616,0.06266928,0.13778501,0.11888987,0.19417842,0.32253524
41003,0,USOregonBenton,Oregon,Benton,2021-01-05 12:28:30.465953,2020-04-23 00:00:00.000000,0.07425018,0.12351650,0.24727247,69,114,230,30,57,130,0.03282600,0.06204179,0.13971216,0.11822956,0.19605875,0.31888886
41003,0,USOregonBenton,Oregon,Benton,2021-01-05 12:28:30.465953,2020-04-24 00:00:00.000000,0.07568264,0.12390172,0.24724148,70,115,230,30,57,131,0.03330127,0.06199498,0.14127883,0.11772167,0.19406525,0.31464566
41003,0,USOregonBenton,Oregon,Benton,2021-01-05 12:28:30.465953,2020-04-25 00:00:00.000000,0.07515506,0.12221978,0.24717736,69,113,230,31,57,132,0.03372142,0.06218826,0.14258049,0.11603892,0.19305033,0.30699956
41003,0,USOregonBenton,Oregon,Benton,2021-01-05 12:28:30.465953,2020-04-26 00:00:00.000000,0.07453171,0.12270854,0.24735725,69,114,230,31,57,133,0.03410746,0.06230047,0.14369243,0.11659030,0.19006514,0.30554892
41003,0,USOregonBenton,Oregon,Benton,2021-01-05 12:28:30.465953,2020-04-27 00:00:00.000000,0.07358116,0.12437223,0.25023140,68,115,232,32,58,134,0.03496150,0.06236553,0.14467200,0.11603778,0.18387763,0.30529583
41003,0,USOregonBenton,Oregon,Benton,2021-01-05 12:28:30.465953,2020-04-28 00:00:00.000000,0.07399613,0.12489745,0.25308547,68,116,235,32,58,135,0.03540666,0.06293479,0.14601084,0.11554408,0.18203642,0.30516296
41003,0,USOregonBenton,Oregon,Benton,2021-01-05 12:28:30.465953,2020-04-29 00:00:00.000000,0.07418793,0.12562122,0.25594750,69,116,238,33,58,137,0.03548978,0.06323781,0.14762828,0.11490087,0.17663354,0.30474337
41003,0,USOregonBenton,Oregon,Benton,2021-01-05 12:28:30.465953,2020-04-30 00:00:00.000000,0.07424913,0.12552122,0.25892679,69,116,240,32,59,139,0.03540494,0.06362149,0.14945189,0.11341659,0.17588026,0.29895039
41003,0,USOregonBenton,Oregon,Benton,2021-01-05 12:28:30.465953,2020-05-01 00:00:00.000000,0.07432756,0.12491596,0.26217133,69,116,243,32,59,140,0.03496407,0.06414225,0.15141155,0.11634344,0.17491868,0.29003261
41003,0,USOregonBenton,Oregon,Benton,2021-01-05 12:28:30.465953,2020-05-02 00:00:00.000000,0.07439178,0.12703548,0.26580768,69,118,247,32,60,142,0.03450100,0.06453801,0.15281182,0.11841722,0.17410756,0.29346158
41003,0,USOregonBenton,Oregon,Benton,2021-01-05 12:28:30.465953,2020-05-03 00:00:00.000000,0.07444836,0.12935159,0.26980258,69,120,251,31,60,142,0.03433358,0.06469664,0.15312874,0.11574689,0.17676806,0.29282702
41003,0,USOregonBenton,Oregon,Benton,2021-01-05 12:28:30.465953,2020-05-04 00:00:00.000000,0.07284487,0.12786202,0.27552005,67,118,256,31,61,142,0.03423242,0.06614558,0.15348355,0.11481052,0.17637878,0.29185594
41003,0,USOregonBenton,Oregon,Benton,2021-01-05 12:28:30.465953,2020-05-05 00:00:00.000000,0.07120538,0.12910559,0.27763470,66,120,258,31,61,143,0.03409265,0.06613599,0.15414872,0.11234759,0.17417758,0.28972237
41003,0,USOregonBenton,Oregon,Benton,2021-01-05 12:28:30.465953,2020-05-06 00:00:00.000000,0.07133149,0.12913247,0.27481389,66,120,255,31,61,144,0.03392212,0.06617215,0.15504989,0.11156139,0.17259421,0.28917423
41003,0,USOregonBenton,Oregon,Benton,2021-01-05 12:28:30.465953,2020-05-07 00:00:00.000000,0.07073066,0.12852553,0.27192726,65,119,253,31,61,145,0.03372748,0.06591362,0.15612775,0.11212319,0.17193723,0.28806152
41003,0,USOregonBenton,Oregon,Benton,2021-01-05 12:28:30.465953,2020-05-08 00:00:00.000000,0.06978077,0.12744245,0.26882665,64,118,250,31,61,146,0.03351356,0.06654031,0.15733484,0.11273702,0.17187485,0.28813004
41003,0,USOregonBenton,Oregon,Benton,2021-01-05 12:28:30.465953,2020-05-09 00:00:00.000000,0.06885728,0.12610627,0.26508877,64,117,246,30,62,147,0.03328356,0.06683403,0.15864066,0.10550777,0.17149563,0.28502081
41003,0,USOregonBenton,Oregon,Benton,2021-01-05 12:28:30.465953,2020-05-10 00:00:00.000000,0.06796744,0.12504346,0.26729015,63,116,248,30,63,148,0.03303918,0.06794372,0.15973336,0.10072319,0.17206324,0.28747162
41003,0,USOregonBenton,Oregon,Benton,2021-01-05 12:28:30.465953,2020-05-11 00:00:00.000000,0.06699682,0.12481343,0.27103340,62,116,252,30,64,148,0.03278098,0.06902608,0.15913691,0.09938650,0.17606567,0.28359908
41003,0,USOregonBenton,Oregon,Benton,2021-01-05 12:28:30.465953,2020-05-12 00:00:00.000000,0.06620820,0.12439756,0.26927783,61,115,250,30,64,147,0.03289331,0.06949056,0.15841078,0.09786419,0.17669512,0.27622438
41003,0,USOregonBenton,Oregon,Benton,2021-01-05 12:28:30.465953,2020-05-13 00:00:00.000000,0.06604029,0.12374748,0.26673070,61,115,248,30,64,146,0.03327730,0.06906513,0.15755679,0.09775134,0.17706911,0.27568562
41003,0,USOregonBenton,Oregon,Benton,2021-01-05 12:28:30.465953,2020-05-14 00:00:00.000000,0.06677991,0.12413281,0.26345925,62,115,245,30,64,145,0.03311286,0.06932706,0.15649000,0.09562299,0.18079362,0.27451721
41003,0,USOregonBenton,Oregon,Benton,2021-01-05 12:28:30.465953,2020-05-15 00:00:00.000000,0.06804691,0.12497894,0.25995920,63,116,241,30,64,144,0.03275499,0.06976571,0.15516611,0.09611985,0.17934338,0.27232374
41003,0,USOregonBenton,Oregon,Benton,2021-01-05 12:28:30.465953,2020-05-16 00:00:00.000000,0.06906140,0.12574919,0.25643091,64,117,238,30,64,142,0.03241340,0.06922007,0.15365218,0.10389905,0.18200312,0.26873149
41003,0,USOregonBenton,Oregon,Benton,2021-01-05 12:28:30.465953,2020-05-17 00:00:00.000000,0.06894170,0.12811548,0.25290390,64,119,235,29,63,143,0.03213863,0.06856592,0.15458248,0.10668800,0.18377494,0.26786164
41003,0,USOregonBenton,Oregon,Benton,2021-01-05 12:28:30.465953,2020-05-18 00:00:00.000000,0.07160956,0.12890203,0.24937206,66,119,232,29,64,142,0.03199066,0.06958065,0.15360667,0.10676642,0.18831083,0.28205127
41003,0,USOregonBenton,Oregon,Benton,2021-01-05 12:28:30.465953,2020-05-19 00:00:00.000000,0.07226152,0.12962681,0.24585819,67,120,228,30,64,140,0.03239916,0.06941614,0.15110413,0.10691352,0.18943293,0.30965142
41003,0,USOregonBenton,Oregon,Benton,2021-01-05 12:28:30.465953,2020-05-20 00:00:00.000000,0.07290560,0.13133566,0.24235984,67,122,225,30,64,138,0.03319886,0.06918733,0.14881759,0.10727952,0.19147977,0.33134753
41003,0,USOregonBenton,Oregon,Benton,2021-01-05 12:28:30.465953,2020-05-21 00:00:00.000000,0.07354548,0.13381165,0.24076197,68,124,224,31,64,136,0.03332035,0.06899272,0.14673926,0.10794445,0.19521967,0.34193766
41003,0,USOregonBenton,Oregon,Benton,2021-01-05 12:28:30.465953,2020-05-22 00:00:00.000000,0.07379486,0.13569075,0.24307097,68,126,226,31,63,134,0.03424278,0.06853935,0.14488638,0.10874043,0.19841903,0.34205025
41003,0,USOregonBenton,Oregon,Benton,2021-01-05 12:28:30.465953,2020-05-23 00:00:00.000000,0.07309774,0.13863973,0.24508811,68,129,228,31,63,133,0.03395880,0.06818675,0.14327033,0.10934488,0.20486651,0.34215723
41003,0,USOregonBenton,Oregon,Benton,2021-01-05 12:28:30.465953,2020-05-24 00:00:00.000000,0.07220327,0.14009811,0.24680707,67,130,229,31,63,132,0.03375755,0.06847033,0.14187324,0.10965509,0.20578935,0.34314748
41003,0,USOregonBenton,Oregon,Benton,2021-01-05 12:28:30.465953,2020-05-25 00:00:00.000000,0.07260340,0.14091623,0.25186683,67,131,234,31,64,130,0.03364470,0.06954325,0.14066023,0.10974829,0.20771391,0.34649595
41003,0,USOregonBenton,Oregon,Benton,2021-01-05 12:28:30.465953,2020-05-26 00:00:00.000000,0.07297627,0.14259706,0.25665331,67,132,238,31,65,129,0.03379953,0.06992644,0.13954898,0.10968010,0.21129669,0.34782045
41003,0,USOregonBenton,Oregon,Benton,2021-01-05 12:28:30.465953,2020-05-27 00:00:00.000000,0.07339735,0.14410208,0.25473280,68,134,237,31,65,128,0.03414323,0.07017237,0.13852224,0.10941358,0.20936831,0.34648262
41003,0,USOregonBenton,Oregon,Benton,2021-01-05 12:28:30.465953,2020-05-28 00:00:00.000000,0.07385250,0.14437221,0.25132617,68,134,233,32,65,128,0.03461554,0.07085619,0.13758217,0.11206868,0.21105049,0.34372703
41003,0,USOregonBenton,Oregon,Benton,2021-01-05 12:28:30.465953,2020-05-29 00:00:00.000000,0.07434510,0.14469935,0.24807965,69,134,230,32,66,129,0.03517355,0.07150915,0.13919532,0.11689091,0.21137210,0.34542082
41003,0,USOregonBenton,Oregon,Benton,2021-01-05 12:28:30.465953,2020-05-30 00:00:00.000000,0.07487203,0.14498839,0.24495926,69,134,227,33,67,131,0.03578933,0.07221760,0.14101718,0.11903208,0.21117069,0.35490372
41003,0,USOregonBenton,Oregon,Benton,2021-01-05 12:28:30.465953,2020-05-31 00:00:00.000000,0.07541396,0.14523171,0.24249907,70,135,225,33,67,132,0.03644840,0.07291981,0.14264593,0.12040575,0.21323438,0.35334141
41003,0,USOregonBenton,Oregon,Benton,2021-01-05 12:28:30.465953,2020-06-01 00:00:00.000000,0.07552713,0.14765523,0.24861355,70,137,231,34,68,134,0.03714733,0.07336651,0.14410437,0.12076345,0.21855416,0.35286965
41003,0,USOregonBenton,Oregon,Benton,2021-01-05 12:28:30.465953,2020-06-02 00:00:00.000000,0.07563412,0.15053189,0.25510878,70,140,237,35,68,135,0.03761825,0.07387138,0.14602444,0.12099531,0.22083172,0.35825601
41003,0,USOregonBenton,Oregon,Benton,2021-01-05 12:28:30.465953,2020-06-03 00:00:00.000000,0.07572722,0.15407646,0.26186094,70,143,243,35,69,137,0.03795084,0.07484581,0.14824255,0.12173147,0.22123967,0.36378140
41003,0,USOregonBenton,Oregon,Benton,2021-01-05 12:28:30.465953,2020-06-04 00:00:00.000000,0.07584945,0.15613633,0.26881687,70,145,250,35,70,137,0.03820034,0.07616049,0.14791763,0.12341979,0.22415026,0.37153879
41003,0,USOregonBenton,Oregon,Benton,2021-01-05 12:28:30.465953,2020-06-05 00:00:00.000000,0.07610061,0.15690963,0.27597310,70,146,256,35,72,136,0.03840360,0.07768593,0.14679002,0.12353941,0.22927666,0.38246021
41003,0,USOregonBenton,Oregon,Benton,2021-01-05 12:28:30.465953,2020-06-06 00:00:00.000000,0.07764664,0.15694964,0.28342833,72,146,263,35,73,135,0.03859186,0.07895453,0.14579228,0.12319272,0.23249492,0.38809205
41003,0,USOregonBenton,Oregon,Benton,2021-01-05 12:28:30.465953,2020-06-07 00:00:00.000000,0.08061942,0.16133372,0.29131616,75,150,271,36,75,134,0.03879937,0.08084068,0.14496502,0.12259905,0.23505973,0.39273771
41003,0,USOregonBenton,Oregon,Benton,2021-01-05 12:28:30.465953,2020-06-08 00:00:00.000000,0.08424109,0.16357303,0.30101734,78,152,280,37,75,134,0.04010207,0.08157468,0.14433150,0.12347901,0.24500536,0.40192919
41003,0,USOregonBenton,Oregon,Benton,2021-01-05 12:28:30.465953,2020-06-09 00:00:00.000000,0.08882111,0.16812303,0.31093910,82,156,289,38,76,136,0.04086723,0.08242614,0.14689500,0.12441131,0.25210496,0.40493548
41003,0,USOregonBenton,Oregon,Benton,2021-01-05 12:28:30.465953,2020-06-10 00:00:00.000000,0.09243033,0.17239788,0.31550733,86,160,293,38,78,140,0.04173549,0.08456129,0.15129363,0.12524096,0.24987930,0.40583990
41003,0,USOregonBenton,Oregon,Benton,2021-01-05 12:28:30.465953,2020-06-11 00:00:00.000000,0.09699580,0.17783319,0.31693879,90,165,294,40,80,145,0.04370082,0.08668192,0.15593181,0.12685610,0.25826769,0.40635219
41003,0,USOregonBenton,Oregon,Benton,2021-01-05 12:28:30.465953,2020-06-12 00:00:00.000000,0.10188397,0.17967965,0.31830398,94,167,296,42,82,149,0.04597054,0.08872252,0.16077567,0.13292145,0.25997815,0.43844441
41003,0,USOregonBenton,Oregon,Benton,2021-01-05 12:28:30.465953,2020-06-13 00:00:00.000000,0.10712760,0.18466610,0.31960216,99,171,297,44,84,150,0.04833146,0.09082882,0.16122195,0.13525116,0.26557226,0.47281171
41003,0,USOregonBenton,Oregon,Benton,2021-01-05 12:28:30.465953,2020-06-14 00:00:00.000000,0.11281193,0.18787129,0.32085524,104,174,298,47,87,149,0.05077430,0.09358121,0.16030351,0.14091370,0.26798281,0.48273684
41003,0,USOregonBenton,Oregon,Benton,2021-01-05 12:28:30.465953,2020-06-15 00:00:00.000000,0.11931753,0.19192122,0.32483704,111,178,302,48,90,148,0.05231595,0.09682975,0.15963186,0.14539386,0.26900982,0.48556979
41003,0,USOregonBenton,Oregon,Benton,2021-01-05 12:28:30.465953,2020-06-16 00:00:00.000000,0.12540134,0.19573625,0.32883618,116,182,305,50,92,149,0.05413574,0.09911141,0.16038800,0.14666551,0.26967738,0.48696045
41003,0,USOregonBenton,Oregon,Benton,2021-01-05 12:28:30.465953,2020-06-17 00:00:00.000000,0.12854779,0.19988913,0.33293386,119,186,309,51,95,151,0.05524098,0.10249594,0.16231896,0.15146606,0.27127997,0.48903549
41003,0,USOregonBenton,Oregon,Benton,2021-01-05 12:28:30.465953,2020-06-18 00:00:00.000000,0.13088962,0.20504926,0.33721325,121,190,313,53,98,155,0.05757913,0.10591246,0.16722312,0.15245340,0.27087791,0.49288707
41003,0,USOregonBenton,Oregon,Benton,2021-01-05 12:28:30.465953,2020-06-19 00:00:00.000000,0.13343249,0.21052286,0.34183892,124,195,318,56,101,160,0.06032745,0.10929734,0.17261776,0.14899910,0.26909667,0.49782906
41003,0,USOregonBenton,Oregon,Benton,2021-01-05 12:28:30.465953,2020-06-20 00:00:00.000000,0.13625985,0.21725639,0.34707646,126,202,322,57,103,166,0.06224295,0.11092539,0.17839500,0.15056989,0.26831890,0.49123191
41003,0,USOregonBenton,Oregon,Benton,2021-01-05 12:28:30.465953,2020-06-21 00:00:00.000000,0.13946733,0.22790465,0.35915696,129,212,334,59,105,171,0.06417695,0.11379736,0.18447565,0.15108373,0.26958491,0.47450581
41003,0,USOregonBenton,Oregon,Benton,2021-01-05 12:28:30.465953,2020-06-22 00:00:00.000000,0.14143292,0.23277949,0.37336287,131,216,347,61,108,177,0.06622091,0.11663202,0.19082921,0.15609275,0.27226573,0.45625585
41003,0,USOregonBenton,Oregon,Benton,2021-01-05 12:28:30.465953,2020-06-23 00:00:00.000000,0.14393558,0.23755128,0.38869190,133,221,361,63,111,183,0.06787758,0.11934460,0.19683921,0.15571980,0.27113475,0.44491078
41003,0,USOregonBenton,Oregon,Benton,2021-01-05 12:28:30.465953,2020-06-24 00:00:00.000000,0.14693657,0.24299849,0.40451455,136,226,376,64,113,190,0.06943918,0.12171296,0.20458772,0.15652896,0.26822740,0.44425036
41003,0,USOregonBenton,Oregon,Benton,2021-01-05 12:28:30.465953,2020-06-25 00:00:00.000000,0.15040010,0.24986827,0.42073211,139,232,391,66,115,197,0.07135565,0.12394796,0.21249424,0.15989793,0.26732115,0.44133499
41003,0,USOregonBenton,Oregon,Benton,2021-01-05 12:28:30.465953,2020-06-26 00:00:00.000000,0.15426431,0.25624919,0.43694369,143,238,406,68,119,205,0.07352734,0.12817177,0.22041687,0.15991333,0.26938414,0.44202463
41003,0,USOregonBenton,Oregon,Benton,2021-01-05 12:28:30.465953,2020-06-27 00:00:00.000000,0.15846012,0.26308244,0.45233518,147,244,420,71,121,213,0.07642335,0.13036127,0.22923668,0.15614027,0.26317634,0.43742832
41003,0,USOregonBenton,Oregon,Benton,2021-01-05 12:28:30.465953,2020-06-28 00:00:00.000000,0.16291625,0.27119921,0.46922223,151,252,436,73,123,221,0.07936293,0.13246951,0.23824887,0.16123361,0.25598058,0.41810804
41003,0,USOregonBenton,Oregon,Benton,2021-01-05 12:28:30.465953,2020-06-29 00:00:00.000000,0.16949926,0.27542184,0.48592344,157,256,452,75,126,230,0.08142475,0.13572467,0.24747974,0.16571614,0.25016261,0.41059545
41003,0,USOregonBenton,Oregon,Benton,2021-01-05 12:28:30.465953,2020-06-30 00:00:00.000000,0.17435601,0.28005942,0.50309726,162,260,468,77,129,238,0.08374769,0.13968216,0.25683029,0.16218006,0.25071412,0.40759704
41003,0,USOregonBenton,Oregon,Benton,2021-01-05 12:28:30.465953,2020-07-01 00:00:00.000000,0.17900925,0.28449651,0.52068451,166,264,484,80,133,242,0.08608209,0.14310096,0.26092550,0.15136223,0.25187069,0.40458600
41003,0,USOregonBenton,Oregon,Benton,2021-01-05 12:28:30.465953,2020-07-02 00:00:00.000000,0.18681902,0.28929344,0.53862830,173,269,501,82,135,243,0.08848896,0.14550358,0.26164426,0.15865809,0.25976940,0.39388577
41003,0,USOregonBenton,Oregon,Benton,2021-01-05 12:28:30.465953,2020-07-03 00:00:00.000000,0.19214806,0.29672953,0.54825124,178,276,510,84,138,244,0.09099218,0.14862894,0.26227257,0.15792117,0.26222357,0.39490024
41003,0,USOregonBenton,Oregon,Benton,2021-01-05 12:28:30.465953,2020-07-04 00:00:00.000000,0.19319162,0.30290803,0.54885006,179,281,510,85,141,245,0.09172344,0.15258001,0.26408284,0.15735269,0.25802287,0.39404751
41003,0,USOregonBenton,Oregon,Benton,2021-01-05 12:28:30.465953,2020-07-05 00:00:00.000000,0.19443018,0.30844479,0.54939077,180,287,511,86,144,250,0.09312831,0.15561492,0.26920702,0.15609757,0.25626777,0.39109914
41003,0,USOregonBenton,Oregon,Benton,2021-01-05 12:28:30.465953,2020-07-06 00:00:00.000000,0.19560324,0.31263662,0.54752460,182,290,509,88,147,254,0.09549665,0.15833708,0.27391803,0.15188044,0.25318823,0.39334836
41003,0,USOregonBenton,Oregon,Benton,2021-01-05 12:28:30.465953,2020-07-07 00:00:00.000000,0.19649874,0.31625596,0.55541702,182,294,516,91,149,258,0.09789445,0.16101628,0.27824990,0.14512308,0.25383833,0.38876721
41003,0,USOregonBenton,Oregon,Benton,2021-01-05 12:28:30.465953,2020-07-08 00:00:00.000000,0.19724136,0.31860303,0.56899416,183,296,529,93,151,262,0.10004803,0.16319112,0.28190042,0.14389642,0.25016700,0.39127743
41003,0,USOregonBenton,Oregon,Benton,2021-01-05 12:28:30.465953,2020-07-09 00:00:00.000000,0.19809008,0.32099754,0.58284764,184,298,542,94,153,264,0.10178291,0.16509837,0.28474918,0.14214427,0.25014592,0.39169556
41003,0,USOregonBenton,Oregon,Benton,2021-01-05 12:28:30.465953,2020-07-10 00:00:00.000000,0.19937349,0.32560274,0.59706851,185,302,555,96,154,266,0.10360136,0.16625378,0.28687138,0.14813808,0.25111110,0.39108933
41003,0,USOregonBenton,Oregon,Benton,2021-01-05 12:28:30.465953,2020-07-11 00:00:00.000000,0.20139437,0.32906651,0.59816501,187,306,556,97,157,268,0.10441173,0.16901082,0.28841120,0.14623103,0.25125087,0.39246254
41003,0,USOregonBenton,Oregon,Benton,2021-01-05 12:28:30.465953,2020-07-12 00:00:00.000000,0.20418091,0.33207053,0.59819251,189,309,556,97,161,269,0.10526468,0.17356706,0.28950558,0.14994836,0.24957215,0.39330581
41003,0,USOregonBenton,Oregon,Benton,2021-01-05 12:28:30.465953,2020-07-13 00:00:00.000000,0.20612038,0.33539794,0.59811800,191,312,556,99,163,273,0.10694507,0.17579847,0.29364265,0.15110153,0.24822948,0.39415047
41003,0,USOregonBenton,Oregon,Benton,2021-01-05 12:28:30.465953,2020-07-14 00:00:00.000000,0.20833704,0.33775992,0.59809411,193,314,556,99,163,277,0.10727280,0.17616198,0.29793767,0.15289411,0.24140213,0.39463142
41003,0,USOregonBenton,Oregon,Benton,2021-01-05 12:28:30.465953,2020-07-15 00:00:00.000000,0.21059204,0.34028809,0.59810174,195,316,556,99,164,280,0.10735420,0.17698211,0.30153912,0.14621341,0.23639904,0.38496963
41003,0,USOregonBenton,Oregon,Benton,2021-01-05 12:28:30.465953,2020-07-16 00:00:00.000000,0.21528249,0.34381640,0.59754821,200,319,556,100,167,283,0.10747601,0.17948439,0.30475419,0.14255055,0.23613533,0.37669263
41003,0,USOregonBenton,Oregon,Benton,2021-01-05 12:28:30.465953,2020-07-17 00:00:00.000000,0.21467131,0.35010731,0.59496422,199,325,553,99,170,288,0.10718798,0.18359603,0.30977103,0.13909075,0.24070382,0.37593489
41003,0,USOregonBenton,Oregon,Benton,2021-01-05 12:28:30.465953,2020-07-18 00:00:00.000000,0.21602321,0.35513340,0.59111679,201,330,550,99,173,289,0.10697448,0.18651999,0.31085274,0.13661496,0.24175508,0.36104012
41003,0,USOregonBenton,Oregon,Benton,2021-01-05 12:28:30.465953,2020-07-19 00:00:00.000000,0.21689653,0.36302948,0.58695968,201,337,546,99,174,294,0.10670247,0.18802540,0.31663720,0.13360216,0.24265234,0.34154303
41003,0,USOregonBenton,Oregon,Benton,2021-01-05 12:28:30.465953,2020-07-20 00:00:00.000000,0.22051124,0.36610593,0.58322982,205,340,542,98,174,300,0.10638518,0.18753275,0.32257910,0.13285315,0.24317572,0.34450245
41003,0,USOregonBenton,Oregon,Benton,2021-01-05 12:28:30.465953,2020-07-21 00:00:00.000000,0.22359687,0.37055634,0.58622949,208,344,545,99,175,302,0.10659678,0.18910589,0.32493737,0.13283232,0.24536181,0.34803083
41003,0,USOregonBenton,Oregon,Benton,2021-01-05 12:28:30.465953,2020-07-22 00:00:00.000000,0.22196849,0.37487515,0.58922610,206,348,548,99,177,303,0.10715611,0.19120981,0.32623943,0.13284769,0.24544308,0.35984011
41003,0,USOregonBenton,Oregon,Benton,2021-01-05 12:28:30.465953,2020-07-23 00:00:00.000000,0.21675501,0.37496848,0.57878836,201,348,538,100,179,303,0.10794562,0.19284011,0.32655109,0.13296751,0.24336148,0.36246135
41003,0,USOregonBenton,Oregon,Benton,2021-01-05 12:28:30.465953,2020-07-24 00:00:00.000000,0.21253506,0.37857716,0.56685852,197,352,527,101,181,305,0.10888612,0.19456666,0.32792472,0.13357300,0.24080145,0.35989809
41003,0,USOregonBenton,Oregon,Benton,2021-01-05 12:28:30.465953,2020-07-25 00:00:00.000000,0.21017646,0.38251152,0.55597686,195,355,517,102,182,309,0.10992049,0.19583746,0.33222930,0.13620957,0.23699559,0.37115624
41003,0,USOregonBenton,Oregon,Benton,2021-01-05 12:28:30.465953,2020-07-26 00:00:00.000000,0.20872848,0.38394001,0.56474440,194,357,525,103,182,312,0.11099962,0.19660872,0.33563105,0.13659358,0.24047948,0.38978023
41003,0,USOregonBenton,Oregon,Benton,2021-01-05 12:28:30.465953,2020-07-27 00:00:00.000000,0.21334824,0.38782654,0.57676793,198,360,536,103,183,305,0.11076807,0.19689464,0.32883439,0.13681383,0.23877216,0.40963144
41003,0,USOregonBenton,Oregon,Benton,2021-01-05 12:28:30.465953,2020-07-28 00:00:00.000000,0.21812151,0.39145614,0.58892610,202,364,548,102,183,298,0.11059549,0.19752472,0.32099092,0.13707058,0.24092190,0.41190903
41003,0,USOregonBenton,Oregon,Benton,2021-01-05 12:28:30.465953,2020-07-29 00:00:00.000000,0.22316164,0.38961170,0.58991387,207,362,548,103,184,300,0.11139264,0.19857513,0.32323105,0.13774387,0.24166403,0.41320140
41003,0,USOregonBenton,Oregon,Benton,2021-01-05 12:28:30.465953,2020-07-30 00:00:00.000000,0.22843626,0.39105978,0.58830666,212,363,547,105,186,302,0.11284921,0.20078220,0.32515466,0.13953892,0.24756295,0.41366807
41003,0,USOregonBenton,Oregon,Benton,2021-01-05 12:28:30.465953,2020-07-31 00:00:00.000000,0.23403242,0.39614143,0.58625804,217,368,545,105,188,303,0.11388347,0.20267495,0.32630335,0.14124152,0.24343442,0.41310658
41003,0,USOregonBenton,Oregon,Benton,2021-01-05 12:28:30.465953,2020-08-01 00:00:00.000000,0.23717549,0.40224701,0.58299841,220,374,542,106,188,304,0.11415179,0.20262937,0.32701200,0.13961092,0.24040325,0.41043397
41003,0,USOregonBenton,Oregon,Benton,2021-01-05 12:28:30.465953,2020-08-02 00:00:00.000000,0.24410314,0.40981592,0.58066441,227,381,540,106,189,304,0.11441935,0.20373979,0.32741199,0.13658287,0.24227721,0.40252306
41003,0,USOregonBenton,Oregon,Benton,2021-01-05 12:28:30.465953,2020-08-03 00:00:00.000000,0.24745792,0.41140070,0.59150065,230,382,550,106,191,304,0.11468681,0.20573626,0.32759416,0.13306946,0.24208797,0.39096301
41003,0,USOregonBenton,Oregon,Benton,2021-01-05 12:28:30.465953,2020-08-04 00:00:00.000000,0.25072437,0.41129489,0.60067919,233,382,558,106,193,307,0.11488851,0.20825219,0.33050042,0.13091230,0.23936656,0.37444781
41003,0,USOregonBenton,Oregon,Benton,2021-01-05 12:28:30.465953,2020-08-05 00:00:00.000000,0.25419760,0.41750970,0.60870107,236,388,566,106,196,316,0.11483389,0.21079901,0.33978583,0.13031718,0.24031450,0.36265109
41003,0,USOregonBenton,Oregon,Benton,2021-01-05 12:28:30.465953,2020-08-06 00:00:00.000000,0.25767448,0.41829598,0.62033259,239,389,577,106,197,321,0.11456393,0.21213249,0.34594664,0.13520859,0.24048216,0.35960566
41003,0,USOregonBenton,Oregon,Benton,2021-01-05 12:28:30.465953,2020-08-07 00:00:00.000000,0.26118511,0.41703106,0.64042542,243,388,595,106,198,319,0.11415598,0.21286239,0.34356323,0.14470898,0.23908022,0.36255309
41003,0,USOregonBenton,Oregon,Benton,2021-01-05 12:28:30.465953,2020-08-08 00:00:00.000000,0.26497576,0.41643501,0.66026965,246,387,614,105,200,317,0.11366015,0.21559078,0.34152860,0.14458663,0.23971024,0.36754707
41003,0,USOregonBenton,Oregon,Benton,2021-01-05 12:28:30.465953,2020-08-09 00:00:00.000000,0.26960570,0.41664670,0.67920522,250,387,632,105,201,322,0.11310847,0.21697172,0.34658435,0.14923326,0.23971839,0.37163548
41003,0,USOregonBenton,Oregon,Benton,2021-01-05 12:28:30.465953,2020-08-10 00:00:00.000000,0.27222442,0.41976977,0.69786873,253,390,649,104,202,327,0.11252149,0.21770636,0.35173892,0.15323967,0.24054606,0.37532959
41003,0,USOregonBenton,Oregon,Benton,2021-01-05 12:28:30.465953,2020-08-11 00:00:00.000000,0.26969459,0.42267453,0.70828806,250,393,659,104,203,332,0.11235509,0.21840176,0.35707067,0.15488886,0.24287785,0.37865264
41003,0,USOregonBenton,Oregon,Benton,2021-01-05 12:28:30.465953,2020-08-12 00:00:00.000000,0.26715715,0.42674294,0.70833471,248,397,659,104,202,337,0.11239167,0.21747876,0.36255483,0.15550232,0.24037806,0.36193387
41003,0,USOregonBenton,Oregon,Benton,2021-01-05 12:28:30.465953,2020-08-13 00:00:00.000000,0.26462291,0.42821700,0.70814557,246,398,658,104,204,342,0.11234348,0.21952312,0.36812137,0.15572081,0.24221906,0.36237927
41003,0,USOregonBenton,Oregon,Benton,2021-01-05 12:28:30.465953,2020-08-14 00:00:00.000000,0.26208674,0.43375844,0.70811586,243,403,658,104,205,347,0.11216309,0.22121413,0.37364212,0.15577280,0.24544341,0.37660872
41003,0,USOregonBenton,Oregon,Benton,2021-01-05 12:28:30.465953,2020-08-15 00:00:00.000000,0.25947643,0.43446499,0.70520908,241,404,656,104,208,352,0.11199343,0.22448973,0.37904253,0.15542489,0.25217794,0.39056144
41003,0,USOregonBenton,Oregon,Benton,2021-01-05 12:28:30.465953,2020-08-16 00:00:00.000000,0.25653578,0.43739966,0.70793261,238,407,658,104,210,357,0.11206206,0.22614530,0.38421750,0.15623635,0.25139689,0.42885604
41003,0,USOregonBenton,Oregon,Benton,2021-01-05 12:28:30.465953,2020-08-17 00:00:00.000000,0.25491238,0.44587654,0.71365216,237,414,664,104,213,362,0.11260317,0.22891219,0.38940706,0.15856260,0.25311912,0.46110863
41003,0,USOregonBenton,Oregon,Benton,2021-01-05 12:28:30.465953,2020-08-18 00:00:00.000000,0.26504204,0.45394959,0.71846586,246,422,668,107,216,367,0.11521984,0.23228159,0.39440319,0.15864465,0.25897216,0.47739559
41003,0,USOregonBenton,Oregon,Benton,2021-01-05 12:28:30.465953,2020-08-19 00:00:00.000000,0.27673073,0.45909294,0.72360695,257,427,673,110,220,371,0.11870518,0.23733643,0.39929841,0.16205590,0.26782833,0.47996767
41003,0,USOregonBenton,Oregon,Benton,2021-01-05 12:28:30.465953,2020-08-20 00:00:00.000000,0.28714000,0.46425099,0.72916815,267,431,678,114,225,376,0.12276993,0.24270950,0.40414408,0.16352965,0.28075734,0.47879048
41003,0,USOregonBenton,Oregon,Benton,2021-01-05 12:28:30.465953,2020-08-21 00:00:00.000000,0.28554566,0.47382624,0.73736506,265,440,686,117,231,380,0.12635069,0.24884518,0.40896543,0.17311286,0.29049306,0.48464902
41003,0,USOregonBenton,Oregon,Benton,2021-01-05 12:28:30.465953,2020-08-22 00:00:00.000000,0.28432498,0.48374603,0.74787952,264,450,695,118,238,385,0.12735641,0.25599258,0.41376749,0.17610010,0.29789249,0.50139274
41003,0,USOregonBenton,Oregon,Benton,2021-01-05 12:28:30.465953,2020-08-23 00:00:00.000000,0.28376074,0.49292875,0.75912891,264,458,706,119,243,389,0.12834752,0.26143687,0.41851778,0.17565314,0.30412910,0.51344488
41003,0,USOregonBenton,Oregon,Benton,2021-01-05 12:28:30.465953,2020-08-24 00:00:00.000000,0.28414828,0.50781965,0.77186237,264,472,718,120,251,393,0.12932109,0.26975195,0.42309384,0.18759352,0.30754194,0.53237611
41003,0,USOregonBenton,Oregon,Benton,2021-01-05 12:28:30.465953,2020-08-25 00:00:00.000000,0.28917174,0.52981541,0.78487555,269,493,730,123,258,397,0.13321072,0.27737473,0.42748867,0.19731163,0.30773203,0.51997924
41003,0,USOregonBenton,Oregon,Benton,2021-01-05 12:28:30.465953,2020-08-26 00:00:00.000000,0.29822222,0.54916250,0.79838913,277,511,742,126,265,401,0.13636052,0.28509320,0.43161046,0.19947968,0.31303790,0.49567182
41003,0,USOregonBenton,Oregon,Benton,2021-01-05 12:28:30.465953,2020-08-27 00:00:00.000000,0.30881249,0.56905920,0.81289510,287,529,756,130,271,405,0.14050380,0.29135601,0.43554493,0.19936681,0.32378729,0.48622136
41003,0,USOregonBenton,Oregon,Benton,2021-01-05 12:28:30.465953,2020-08-28 00:00:00.000000,0.32018961,0.58451108,0.82930005,297,543,771,135,276,408,0.14547446,0.29739227,0.43947008,0.19882166,0.32948403,0.48971376
41003,0,USOregonBenton,Oregon,Benton,2021-01-05 12:28:30.465953,2020-08-29 00:00:00.000000,0.33215823,0.60073525,0.84860485,309,559,789,140,282,412,0.15106418,0.30366009,0.44368240,0.19830842,0.33403024,0.49072062
41003,0,USOregonBenton,Oregon,Benton,2021-01-05 12:28:30.465953,2020-08-30 00:00:00.000000,0.34465676,0.61924567,0.87291064,320,576,812,146,290,417,0.15714107,0.31199755,0.44892559,0.19797443,0.33707910,0.49140251
41003,0,USOregonBenton,Oregon,Benton,2021-01-05 12:28:30.465953,2020-08-31 00:00:00.000000,0.36139566,0.63643642,0.90123227,336,592,838,152,300,424,0.16366751,0.32248531,0.45565585,0.19780390,0.34242316,0.49240235
41003,0,USOregonBenton,Oregon,Benton,2021-01-05 12:28:30.465953,2020-09-01 00:00:00.000000,0.37870424,0.65662145,0.92620511,352,611,861,158,309,435,0.17014108,0.33246974,0.46764079,0.19769040,0.34887750,0.49348595
41003,0,USOregonBenton,Oregon,Benton,2021-01-05 12:28:30.465953,2020-09-02 00:00:00.000000,0.39687216,0.67913183,0.95741869,369,631,890,164,321,450,0.17698095,0.34499456,0.48393707,0.19761670,0.35287068,0.53339956
41003,0,USOregonBenton,Oregon,Benton,2021-01-05 12:28:30.465953,2020-09-03 00:00:00.000000,0.41488193,0.69899386,0.99230796,386,650,923,171,327,465,0.18472323,0.35142161,0.50048606,0.19788144,0.36173963,0.58994413
41003,0,USOregonBenton,Oregon,Benton,2021-01-05 12:28:30.465953,2020-09-04 00:00:00.000000,0.42698787,0.72142537,1.02576443,397,671,954,180,335,481,0.19387826,0.36022570,0.51743341,0.19990608,0.36906453,0.63427230
41003,0,USOregonBenton,Oregon,Benton,2021-01-05 12:28:30.465953,2020-09-05 00:00:00.000000,0.44365320,0.75030695,1.05331402,412,698,980,190,344,500,0.20471666,0.37073175,0.53750058,0.19887717,0.37370291,0.65078602
41003,0,USOregonBenton,Oregon,Benton,2021-01-05 12:28:30.465953,2020-09-06 00:00:00.000000,0.46643303,0.78664145,1.09511879,434,731,1019,202,354,521,0.21725184,0.38100863,0.56079254,0.19655037,0.38650741,0.65222833
41003,0,USOregonBenton,Oregon,Benton,2021-01-05 12:28:30.465953,2020-09-07 00:00:00.000000,0.49056006,0.82173634,1.13917829,456,764,1060,212,365,546,0.22842966,0.39306729,0.58767867,0.19692203,0.38659544,0.65267784
41003,0,USOregonBenton,Oregon,Benton,2021-01-05 12:28:30.465953,2020-09-08 00:00:00.000000,0.50839885,0.85520295,1.18380091,473,795,1101,219,381,573,0.23556984,0.40978132,0.61627689,0.21706339,0.38450730,0.65231818
41003,0,USOregonBenton,Oregon,Benton,2021-01-05 12:28:30.465953,2020-09-09 00:00:00.000000,0.52577686,0.89577840,1.22629476,489,833,1141,229,397,597,0.24631408,0.42674994,0.64242289,0.25873535,0.38186572,0.65057322
41003,0,USOregonBenton,Oregon,Benton,2021-01-05 12:28:30.465953,2020-09-10 00:00:00.000000,0.54349002,0.93822765,1.27333466,505,873,1184,242,410,624,0.26085250,0.44070109,0.67145183,0.26272892,0.37601489,0.64541832
41003,0,USOregonBenton,Oregon,Benton,2021-01-05 12:28:30.465953,2020-09-11 00:00:00.000000,0.56160388,0.98364462,1.32155618,522,915,1229,254,422,649,0.27345257,0.45438303,0.69768890,0.24828331,0.37184277,0.63203191
41003,0,USOregonBenton,Oregon,Benton,2021-01-05 12:28:30.465953,2020-09-12 00:00:00.000000,0.58032622,1.02159233,1.37258080,540,950,1277,265,436,672,0.28480320,0.46874331,0.72289814,0.24776096,0.36833794,0.60355440
41003,0,USOregonBenton,Oregon,Benton,2021-01-05 12:28:30.465953,2020-09-13 00:00:00.000000,0.60760794,1.05703619,1.42174676,565,983,1322,276,454,695,0.29709226,0.48889617,0.74708210,0.22668667,0.36170124,0.56181240
41003,0,USOregonBenton,Oregon,Benton,2021-01-05 12:28:30.465953,2020-09-14 00:00:00.000000,0.64412379,1.08713326,1.47181988,599,1011,1369,288,472,716,0.30975396,0.50731394,0.77034905,0.21050014,0.35975724,0.53906389
41003,0,USOregonBenton,Oregon,Benton,2021-01-05 12:28:30.465953,2020-09-15 00:00:00.000000,0.66544207,1.12711330,1.52243297,619,1048,1416,298,489,737,0.32086239,0.52580446,0.79247562,0.20964636,0.35033898,0.52715972
41003,0,USOregonBenton,Oregon,Benton,2021-01-05 12:28:30.465953,2020-09-16 00:00:00.000000,0.68461452,1.16562891,1.57250671,637,1084,1463,308,502,757,0.33185533,0.54022678,0.81375478,0.21081335,0.34823583,0.51382837
41003,0,USOregonBenton,Oregon,Benton,2021-01-05 12:28:30.465953,2020-09-17 00:00:00.000000,0.70145249,1.20528134,1.61932573,652,1121,1506,318,518,779,0.34236817,0.55678096,0.83759831,0.20988708,0.34699978,0.50703560
41003,0,USOregonBenton,Oregon,Benton,2021-01-05 12:28:30.465953,2020-09-18 00:00:00.000000,0.71525723,1.24212000,1.65627836,665,1155,1541,329,532,802,0.35360430,0.57257343,0.86264889,0.20195429,0.33282407,0.50478289
41003,0,USOregonBenton,Oregon,Benton,2021-01-05 12:28:30.465953,2020-09-19 00:00:00.000000,0.72575256,1.26506545,1.67871448,675,1177,1562,339,550,823,0.36493942,0.59144690,0.88479436,0.19340489,0.31594024,0.48399049
41003,0,USOregonBenton,Oregon,Benton,2021-01-05 12:28:30.465953,2020-09-20 00:00:00.000000,0.73300853,1.27467078,1.69170528,682,1186,1574,346,563,840,0.37263577,0.60571914,0.90296168,0.18525586,0.29486938,0.46265483
41003,0,USOregonBenton,Oregon,Benton,2021-01-05 12:28:30.465953,2020-09-21 00:00:00.000000,0.73582910,1.28118094,1.70275109,684,1192,1584,354,571,853,0.38131915,0.61413189,0.91761288,0.18497148,0.28075136,0.42015942
41003,0,USOregonBenton,Oregon,Benton,2021-01-05 12:28:30.465953,2020-09-22 00:00:00.000000,0.73672773,1.29213909,1.72733413,685,1202,1607,363,584,863,0.39068519,0.62774137,0.92837026,0.18084370,0.27206258,0.39634718
41003,0,USOregonBenton,Oregon,Benton,2021-01-05 12:28:30.465953,2020-09-23 00:00:00.000000,0.73630351,1.30172213,1.74653408,685,1211,1625,372,596,871,0.40057910,0.64139473,0.93645930,0.18062313,0.26785920,0.38612085
41003,0,USOregonBenton,Oregon,Benton,2021-01-05 12:28:30.465953,2020-09-24 00:00:00.000000,0.73503051,1.30147098,1.76505238,683,1211,1642,370,611,881,0.39852366,0.65673727,0.94777385,0.17756627,0.25752426,0.37981494
41003,0,USOregonBenton,Oregon,Benton,2021-01-05 12:28:30.465953,2020-09-25 00:00:00.000000,0.73338850,1.28514504,1.76922582,682,1195,1646,365,623,897,0.39322844,0.66977147,0.96425960,0.17288858,0.25036925,0.37570560
41003,0,USOregonBenton,Oregon,Benton,2021-01-05 12:28:30.465953,2020-09-26 00:00:00.000000,0.73201008,1.29677385,1.76065919,681,1206,1638,358,630,905,0.38532196,0.67757011,0.97308529,0.16827435,0.24565308,0.37323869
41003,0,USOregonBenton,Oregon,Benton,2021-01-05 12:28:30.465953,2020-09-27 00:00:00.000000,0.73212250,1.30339233,1.74330868,681,1212,1622,353,629,908,0.38040240,0.67660047,0.97579106,0.17126580,0.23932296,0.36483383
41003,0,USOregonBenton,Oregon,Benton,2021-01-05 12:28:30.465953,2020-09-28 00:00:00.000000,0.73576330,1.29270694,1.72163539,684,1202,1602,357,634,906,0.38394522,0.68166034,0.97408259,0.17392063,0.23842619,0.37762038
41003,0,USOregonBenton,Oregon,Benton,2021-01-05 12:28:30.465953,2020-09-29 00:00:00.000000,0.74537483,1.28711064,1.71201709,693,1197,1593,360,638,912,0.38699735,0.68658204,0.98030607,0.17349674,0.24116238,0.37497349
41003,0,USOregonBenton,Oregon,Benton,2021-01-05 12:28:30.465953,2020-09-30 00:00:00.000000,0.75693716,1.28075927,1.69538465,704,1191,1577,362,646,917,0.38971904,0.69471203,0.98551328,0.16438062,0.24239228,0.37185781
41003,0,USOregonBenton,Oregon,Benton,2021-01-05 12:28:30.465953,2020-10-01 00:00:00.000000,0.76010596,1.27798154,1.69907128,707,1189,1581,364,648,919,0.39219434,0.69638280,0.98856260,0.15576296,0.23974643,0.36846477
41003,0,USOregonBenton,Oregon,Benton,2021-01-05 12:28:30.465953,2020-10-02 00:00:00.000000,0.75547530,1.27571334,1.69970588,702,1187,1581,367,649,913,0.39440153,0.69788462,0.98200029,0.15348508,0.23734399,0.36315901
41003,0,USOregonBenton,Oregon,Benton,2021-01-05 12:28:30.465953,2020-10-03 00:00:00.000000,0.74814949,1.27476352,1.69314981,696,1186,1575,368,656,913,0.39628855,0.70538700,0.98151157,0.14163882,0.23479235,0.35360864
41003,0,USOregonBenton,Oregon,Benton,2021-01-05 12:28:30.465953,2020-10-04 00:00:00.000000,0.73980521,1.27901421,1.72276481,688,1190,1603,370,659,915,0.39770478,0.70857078,0.98368168,0.14125690,0.23394978,0.35601013
41003,0,USOregonBenton,Oregon,Benton,2021-01-05 12:28:30.465953,2020-10-05 00:00:00.000000,0.73028545,1.27171386,1.75074275,679,1183,1629,370,661,916,0.39831771,0.71085207,0.98488417,0.14103003,0.23671825,0.35686079
41003,0,USOregonBenton,Oregon,Benton,2021-01-05 12:28:30.465953,2020-10-06 00:00:00.000000,0.72056948,1.25582814,1.74669534,670,1168,1625,365,660,914,0.39256608,0.71027705,0.98232854,0.14097632,0.23808427,0.35866944
41003,0,USOregonBenton,Oregon,Benton,2021-01-05 12:28:30.465953,2020-10-07 00:00:00.000000,0.71078639,1.24074645,1.73078801,661,1154,1610,357,655,906,0.38394205,0.70416515,0.97393944,0.14107892,0.23968681,0.36364639
41003,0,USOregonBenton,Oregon,Benton,2021-01-05 12:28:30.465953,2020-10-08 00:00:00.000000,0.70107471,1.23866374,1.71555554,652,1152,1596,348,653,903,0.37479766,0.70194724,0.97145206,0.14137581,0.24019773,0.36944535
41003,0,USOregonBenton,Oregon,Benton,2021-01-05 12:28:30.465953,2020-10-09 00:00:00.000000,0.69157914,1.24553480,1.71325243,643,1159,1594,340,651,900,0.36550875,0.69998593,0.96822897,0.14203285,0.23954892,0.36993305
41003,0,USOregonBenton,Oregon,Benton,2021-01-05 12:28:30.465953,2020-10-10 00:00:00.000000,0.68253020,1.25021893,1.71111742,635,1163,1592,334,645,900,0.35981267,0.69395320,0.96799811,0.14351164,0.23921887,0.41450391
41003,0,USOregonBenton,Oregon,Benton,2021-01-05 12:28:30.465953,2020-10-11 00:00:00.000000,0.67438291,1.23829738,1.71084047,627,1152,1591,330,638,900,0.35505894,0.68586569,0.96788103,0.14654813,0.24085846,0.42871557
41003,0,USOregonBenton,Oregon,Benton,2021-01-05 12:28:30.465953,2020-10-12 00:00:00.000000,0.66771213,1.24145280,1.72977110,621,1155,1609,326,634,910,0.35065692,0.68137559,0.97860200,0.14644341,0.24342059,0.43539523
41003,0,USOregonBenton,Oregon,Benton,2021-01-05 12:28:30.465953,2020-10-13 00:00:00.000000,0.66448022,1.25576600,1.75074300,618,1168,1629,324,634,917,0.34866404,0.68149242,0.98626482,0.14680213,0.24771022,0.43732135
41003,0,USOregonBenton,Oregon,Benton,2021-01-05 12:28:30.465953,2020-10-14 00:00:00.000000,0.66658130,1.26227143,1.77184410,620,1174,1648,324,628,917,0.34823663,0.67527371,0.98628293,0.14752896,0.25231885,0.44455180
41003,0,USOregonBenton,Oregon,Benton,2021-01-05 12:28:30.465953,2020-10-15 00:00:00.000000,0.67464105,1.26228175,1.79301353,627,1174,1668,324,623,918,0.34837770,0.66991080,0.98722146,0.14887496,0.25841675,0.45387868
41003,0,USOregonBenton,Oregon,Benton,2021-01-05 12:28:30.465953,2020-10-16 00:00:00.000000,0.68737958,1.26020550,1.81394310,639,1172,1687,324,623,928,0.34890698,0.66960680,0.99815857,0.15324743,0.26611021,0.44614889
41003,0,USOregonBenton,Oregon,Benton,2021-01-05 12:28:30.465953,2020-10-17 00:00:00.000000,0.70309939,1.27401655,1.83400008,654,1185,1706,325,627,939,0.34970886,0.67400272,1.00937531,0.15570140,0.26998243,0.45466531
41003,0,USOregonBenton,Oregon,Benton,2021-01-05 12:28:30.465953,2020-10-18 00:00:00.000000,0.72064525,1.27796349,1.85213401,670,1189,1723,331,625,950,0.35591329,0.67190012,1.02101778,0.16241973,0.27417473,0.46128299
41003,0,USOregonBenton,Oregon,Benton,2021-01-05 12:28:30.465953,2020-10-19 00:00:00.000000,0.74006949,1.28393177,1.88491590,688,1194,1753,332,621,961,0.35756398,0.66758603,1.03308529,0.17106831,0.27880221,0.46452983
41003,0,USOregonBenton,Oregon,Benton,2021-01-05 12:28:30.465953,2020-10-20 00:00:00.000000,0.74513639,1.29502996,1.91296398,693,1205,1780,331,618,972,0.35653973,0.66498155,1.04518462,0.17971248,0.28899485,0.46658135
41003,0,USOregonBenton,Oregon,Benton,2021-01-05 12:28:30.465953,2020-10-21 00:00:00.000000,0.74677793,1.30544554,1.94626659,694,1214,1811,332,625,983,0.35733472,0.67203981,1.05735816,0.18398885,0.29567147,0.46898264
41003,0,USOregonBenton,Oregon,Benton,2021-01-05 12:28:30.465953,2020-10-22 00:00:00.000000,0.74965870,1.32830909,1.98898459,697,1236,1850,334,634,995,0.35971230,0.68134543,1.06965335,0.18841731,0.30530199,0.47298099
41003,0,USOregonBenton,Oregon,Benton,2021-01-05 12:28:30.465953,2020-10-23 00:00:00.000000,0.75360770,1.34831117,2.04263877,701,1254,1900,338,638,1011,0.36341693,0.68636930,1.08735269,0.19492470,0.31540070,0.47476199
41003,0,USOregonBenton,Oregon,Benton,2021-01-05 12:28:30.465953,2020-10-24 00:00:00.000000,0.75994623,1.38051311,2.10405647,707,1284,1957,342,650,1032,0.36838711,0.69864503,1.10987386,0.20208429,0.32860327,0.47755289
41003,0,USOregonBenton,Oregon,Benton,2021-01-05 12:28:30.465953,2020-10-25 00:00:00.000000,0.77257962,1.42193280,2.15147196,718,1323,2002,348,660,1060,0.37480738,0.70962418,1.13926421,0.20966515,0.33517780,0.50025407
41003,0,USOregonBenton,Oregon,Benton,2021-01-05 12:28:30.465953,2020-10-26 00:00:00.000000,0.78183251,1.45542566,2.18287974,727,1354,2031,356,672,1086,0.38287717,0.72286719,1.16772751,0.22612488,0.34095237,0.50721953
41003,0,USOregonBenton,Oregon,Benton,2021-01-05 12:28:30.465953,2020-10-27 00:00:00.000000,0.79454969,1.49162548,2.21717526,739,1388,2063,365,685,1106,0.39260282,0.73661057,1.18953795,0.22889685,0.34730862,0.52744443
41003,0,USOregonBenton,Oregon,Benton,2021-01-05 12:28:30.465953,2020-10-28 00:00:00.000000,0.81395821,1.53623379,2.25558083,757,1429,2098,375,700,1123,0.40375725,0.75331711,1.20704118,0.23188404,0.36102623,0.54827478
41003,0,USOregonBenton,Oregon,Benton,2021-01-05 12:28:30.465953,2020-10-29 00:00:00.000000,0.84126212,1.57767891,2.29997146,782,1468,2140,387,719,1141,0.41608942,0.77294133,1.22637110,0.23387246,0.37063800,0.56189508
41003,0,USOregonBenton,Oregon,Benton,2021-01-05 12:28:30.465953,2020-10-30 00:00:00.000000,0.87436133,1.63478461,2.35230233,813,1521,2188,399,740,1175,0.42928086,0.79589963,1.26327447,0.24074915,0.38278916,0.57613713
41003,0,USOregonBenton,Oregon,Benton,2021-01-05 12:28:30.465953,2020-10-31 00:00:00.000000,0.91089712,1.68543428,2.42848113,847,1568,2259,412,765,1211,0.44317919,0.82316336,1.30228823,0.25876875,0.39020102,0.59576010
41003,0,USOregonBenton,Oregon,Benton,2021-01-05 12:28:30.465953,2020-11-01 00:00:00.000000,0.94967255,1.74329010,2.55252300,883,1622,2375,426,793,1249,0.45795531,0.85238894,1.34317502,0.25988643,0.40131849,0.61678452
41003,0,USOregonBenton,Oregon,Benton,2021-01-05 12:28:30.465953,2020-11-02 00:00:00.000000,0.98621812,1.82490219,2.68115248,917,1698,2494,436,817,1289,0.46961656,0.87847552,1.38577506,0.26136797,0.40988321,0.63103411
41003,0,USOregonBenton,Oregon,Benton,2021-01-05 12:28:30.465953,2020-11-03 00:00:00.000000,1.02437603,1.91551885,2.81167389,953,1782,2616,448,849,1330,0.48235238,0.91337676,1.43013961,0.26335331,0.42178842,0.63766103
41003,0,USOregonBenton,Oregon,Benton,2021-01-05 12:28:30.465953,2020-11-04 00:00:00.000000,1.06390161,2.00139819,2.89724244,989,1862,2695,462,877,1373,0.49724215,0.94339765,1.47619117,0.26553109,0.41718549,0.63950043
41003,0,USOregonBenton,Oregon,Benton,2021-01-05 12:28:30.465953,2020-11-05 00:00:00.000000,1.10483361,2.08153209,2.97858894,1028,1936,2771,478,907,1418,0.51391138,0.97482191,1.52389701,0.26734402,0.42700579,0.63463352
41003,0,USOregonBenton,Oregon,Benton,2021-01-05 12:28:30.465953,2020-11-06 00:00:00.000000,1.14732412,2.16620921,3.05622232,1067,2015,2843,495,941,1463,0.53233652,1.01167408,1.57323684,0.26907459,0.43186636,0.61513279
41003,0,USOregonBenton,Oregon,Benton,2021-01-05 12:28:30.465953,2020-11-07 00:00:00.000000,1.19194573,2.25777377,3.12860112,1109,2100,2911,514,977,1504,0.55309547,1.05057089,1.61725914,0.27355832,0.43063798,0.63770176
41003,0,USOregonBenton,Oregon,Benton,2021-01-05 12:28:30.465953,2020-11-08 00:00:00.000000,1.23995171,2.35761194,3.19492205,1153,2193,2972,536,1016,1552,0.57697862,1.09216774,1.66865264,0.26937143,0.42372126,0.65099085
41003,0,USOregonBenton,Oregon,Benton,2021-01-05 12:28:30.465953,2020-11-09 00:00:00.000000,1.29264252,2.46912876,3.32046323,1202,2297,3089,562,1059,1610,0.60413163,1.13867976,1.73120969,0.26930773,0.41560416,0.63597485
41003,0,USOregonBenton,Oregon,Benton,2021-01-05 12:28:30.465953,2020-11-10 00:00:00.000000,1.34796227,2.56573606,3.45991500,1254,2387,3219,589,1101,1662,0.63392372,1.18420804,1.78676065,0.26923693,0.40897456,0.64940929
41003,0,USOregonBenton,Oregon,Benton,2021-01-05 12:28:30.465953,2020-11-11 00:00:00.000000,1.40551429,2.66842152,3.59281927,1307,2483,3343,619,1143,1715,0.66606084,1.22891658,1.84361443,0.26916561,0.40274838,0.64949035
41003,0,USOregonBenton,Oregon,Benton,2021-01-05 12:28:30.465953,2020-11-12 00:00:00.000000,1.46504931,2.75542474,3.71706473,1363,2564,3458,647,1186,1769,0.69566213,1.27522975,1.90143987,0.26900674,0.40059125,0.64170312
41003,0,USOregonBenton,Oregon,Benton,2021-01-05 12:28:30.465953,2020-11-13 00:00:00.000000,1.52528519,2.84249279,3.83154051,1419,2645,3565,671,1227,1823,0.72159970,1.31937941,1.95987095,0.26831356,0.39719678,0.62378161
41003,0,USOregonBenton,Oregon,Benton,2021-01-05 12:28:30.465953,2020-11-14 00:00:00.000000,1.58109738,2.91693304,3.93742345,1471,2714,3663,695,1276,1878,0.74745428,1.37223794,2.01852265,0.26507214,0.38499085,0.60333488
41003,0,USOregonBenton,Oregon,Benton,2021-01-05 12:28:30.465953,2020-11-15 00:00:00.000000,1.63134003,3.00053213,4.04770527,1518,2792,3766,718,1321,1932,0.77255837,1.41965989,2.07701182,0.25676848,0.37619310,0.59884564
41003,0,USOregonBenton,Oregon,Benton,2021-01-05 12:28:30.465953,2020-11-16 00:00:00.000000,1.68478910,3.06639214,4.16340343,1567,2853,3874,741,1348,1986,0.79635604,1.44934724,2.13498764,0.25065625,0.37214037,0.59509654
41003,0,USOregonBenton,Oregon,Benton,2021-01-05 12:28:30.465953,2020-11-17 00:00:00.000000,1.73890673,3.13196835,4.32567526,1618,2914,4025,762,1380,2040,0.81895251,1.48310444,2.19240820,0.24908990,0.36784890,0.59117947
41003,0,USOregonBenton,Oregon,Benton,2021-01-05 12:28:30.465953,2020-11-18 00:00:00.000000,1.79414483,3.19957967,4.42228055,1669,2977,4115,782,1415,2092,0.84048697,1.52126336,2.24900939,0.24896157,0.36770063,0.57376160
41003,0,USOregonBenton,Oregon,Benton,2021-01-05 12:28:30.465953,2020-11-19 00:00:00.000000,1.85067733,3.27591958,4.51619069,1722,3048,4202,801,1458,2144,0.86121847,1.56765118,2.30462491,0.24969590,0.36613698,0.57121541
41003,0,USOregonBenton,Oregon,Benton,2021-01-05 12:28:30.465953,2020-11-20 00:00:00.000000,1.90899610,3.36217646,4.60575432,1776,3128,4285,822,1501,2195,0.88417685,1.61395545,2.35909552,0.24235928,0.36430455,0.56482318
41003,0,USOregonBenton,Oregon,Benton,2021-01-05 12:28:30.465953,2020-11-21 00:00:00.000000,1.97063398,3.47551671,4.77362607,1833,3234,4442,844,1545,2244,0.90757153,1.66095102,2.41201631,0.25708463,0.36141261,0.54103434
41003,0,USOregonBenton,Oregon,Benton,2021-01-05 12:28:30.465953,2020-11-22 00:00:00.000000,2.03868068,3.54866233,4.94945848,1897,3302,4605,866,1593,2291,0.93095634,1.71256792,2.46298070,0.24828633,0.35805990,0.54152155
41003,0,USOregonBenton,Oregon,Benton,2021-01-05 12:28:30.465953,2020-11-23 00:00:00.000000,2.11039347,3.63280070,5.13122125,1963,3380,4774,887,1640,2337,0.95429030,1.76344944,2.51207863,0.24251875,0.36139819,0.54474278
41003,0,USOregonBenton,Oregon,Benton,2021-01-05 12:28:30.465953,2020-11-24 00:00:00.000000,2.18759017,3.72369603,5.31680696,2035,3465,4947,909,1683,2389,0.97748734,1.80916045,2.56762724,0.24023899,0.36100154,0.54551727
41003,0,USOregonBenton,Oregon,Benton,2021-01-05 12:28:30.465953,2020-11-25 00:00:00.000000,2.26790230,3.83365832,5.50654093,2110,3567,5124,931,1720,2455,1.00052119,1.84867221,2.63902277,0.24203907,0.36040681,0.56890004
41003,0,USOregonBenton,Oregon,Benton,2021-01-05 12:28:30.465953,2020-11-26 00:00:00.000000,2.35004475,3.95044335,5.70090742,2186,3676,5304,952,1763,2510,1.02338281,1.89472924,2.69839758,0.24839383,0.35844854,0.58835283
41003,0,USOregonBenton,Oregon,Benton,2021-01-05 12:28:30.465953,2020-11-27 00:00:00.000000,2.43205692,4.01955536,5.81548340,2263,3740,5411,973,1808,2552,1.04609262,1.94391054,2.74333837,0.24798382,0.35756492,0.59006024
41003,0,USOregonBenton,Oregon,Benton,2021-01-05 12:28:30.465953,2020-11-28 00:00:00.000000,2.51034917,4.09596412,5.91774799,2335,3811,5506,994,1853,2586,1.06869385,1.99230999,2.77977069,0.23819263,0.35490141,0.56394439
41003,0,USOregonBenton,Oregon,Benton,2021-01-05 12:28:30.465953,2020-11-29 00:00:00.000000,2.56511895,4.16899518,6.01340675,2386,3879,5595,1015,1897,2645,1.09123752,2.03955508,2.84249837,0.22580298,0.35615128,0.55744728
41003,0,USOregonBenton,Oregon,Benton,2021-01-05 12:28:30.465953,2020-11-30 00:00:00.000000,2.60783072,4.26358079,6.05675702,2426,3967,5635,1036,1944,2705,1.11377087,2.09017270,2.90707984,0.21540171,0.35546155,0.56065097
41003,0,USOregonBenton,Oregon,Benton,2021-01-05 12:28:30.465953,2020-12-01 00:00:00.000000,2.66093674,4.35687438,6.03838661,2476,4054,5618,1057,1988,2767,1.13687071,2.13678178,2.97399101,0.21177268,0.35800353,0.56139244
41003,0,USOregonBenton,Oregon,Benton,2021-01-05 12:28:30.465953,2020-12-02 00:00:00.000000,2.72244623,4.43551472,6.01803755,2533,4127,5599,1079,2037,2831,1.16038799,2.18924869,3.04333357,0.20735123,0.35954045,0.59027900
41003,0,USOregonBenton,Oregon,Benton,2021-01-05 12:28:30.465953,2020-12-03 00:00:00.000000,2.78966267,4.47949119,6.02205114,2595,4168,5603,1101,2088,2898,1.18426894,2.24431841,3.11484514,0.20277323,0.36344252,0.60020536
41003,0,USOregonBenton,Oregon,Benton,2021-01-05 12:28:30.465953,2020-12-04 00:00:00.000000,2.86049626,4.50772098,6.21376355,2661,4194,5782,1124,2139,2966,1.20882559,2.29894475,3.18804953,0.19858940,0.35070668,0.58819448
41003,0,USOregonBenton,Oregon,Benton,2021-01-05 12:28:30.465953,2020-12-05 00:00:00.000000,2.87414224,4.53289397,6.41588586,2674,4217,5970,1149,2188,3036,1.23538054,2.35154942,3.26295372,0.19493595,0.33652911,0.56005292
41003,0,USOregonBenton,Oregon,Benton,2021-01-05 12:28:30.465953,2020-12-06 00:00:00.000000,2.87320201,4.61343729,6.43093403,2673,4292,5984,1176,2201,3107,1.26478908,2.36633734,3.33898625,0.19138358,0.33058772,0.55879802
41003,0,USOregonBenton,Oregon,Benton,2021-01-05 12:28:30.465953,2020-12-07 00:00:00.000000,2.86752364,4.67527509,6.51195313,2668,4350,6059,1206,2242,3176,1.29677982,2.40948001,3.41361922,0.18885554,0.32649262,0.55595178
41003,0,USOregonBenton,Oregon,Benton,2021-01-05 12:28:30.465953,2020-12-08 00:00:00.000000,2.85937246,4.71409280,6.64723198,2660,4386,6185,1256,2276,3242,1.35072372,2.44608733,3.48498594,0.18588647,0.32112028,0.54789845
41003,0,USOregonBenton,Oregon,Benton,2021-01-05 12:28:30.465953,2020-12-09 00:00:00.000000,2.84748124,4.75423058,6.78073626,2649,4423,6309,1297,2310,3308,1.39412301,2.48345228,3.55548754,0.18290444,0.31043862,0.52354449
41003,0,USOregonBenton,Oregon,Benton,2021-01-05 12:28:30.465953,2020-12-10 00:00:00.000000,2.83127541,4.79854583,6.91363752,2634,4465,6433,1324,2348,3390,1.42389314,2.52331743,3.64345675,0.18611899,0.30617638,0.49869710
41003,0,USOregonBenton,Oregon,Benton,2021-01-05 12:28:30.465953,2020-12-11 00:00:00.000000,2.81073311,4.85526798,7.04563124,2615,4517,6556,1341,2367,3457,1.44187804,2.54455987,3.71518864,0.16023690,0.30001767,0.49474259
41003,0,USOregonBenton,Oregon,Benton,2021-01-05 12:28:30.465953,2020-12-12 00:00:00.000000,2.78624833,4.86788092,7.17602391,2592,4529,6677,1352,2390,3501,1.45319934,2.56847286,3.76326547,0.15114683,0.29063073,0.47805702
41003,0,USOregonBenton,Oregon,Benton,2021-01-05 12:28:30.465953,2020-12-13 00:00:00.000000,2.75847293,4.87989595,7.09239714,2566,4540,6599,1348,2402,3537,1.44959514,2.58214660,3.80110221,0.14591438,0.29050537,0.43580115
41003,0,USOregonBenton,Oregon,Benton,2021-01-05 12:28:30.465953,2020-12-14 00:00:00.000000,2.72870312,4.85126098,6.96923018,2539,4514,6485,1343,2426,3543,1.44424923,2.60741941,3.80770050,0.14432718,0.27806530,0.42106435
41003,0,USOregonBenton,Oregon,Benton,2021-01-05 12:28:30.465953,2020-12-15 00:00:00.000000,2.69703412,4.81599528,6.82716151,2509,4481,6352,1335,2451,3527,1.43516179,2.63460697,3.79078484,0.14385062,0.27475637,0.41137988
41003,0,USOregonBenton,Oregon,Benton,2021-01-05 12:28:30.465953,2020-12-16 00:00:00.000000,2.66406912,4.79570899,6.67279432,2478,4462,6209,1324,2450,3513,1.42371126,2.63351560,3.77604221,0.14472254,0.26891558,0.40762117
41003,0,USOregonBenton,Oregon,Benton,2021-01-05 12:28:30.465953,2020-12-17 00:00:00.000000,2.63037945,4.78334893,6.50650750,2447,4451,6054,1312,2441,3508,1.41077051,2.62416923,3.77033148,0.14871675,0.26867589,0.40809547
41003,0,USOregonBenton,Oregon,Benton,2021-01-05 12:28:30.465953,2020-12-18 00:00:00.000000,2.59692019,4.76679056,6.32282521,2416,4435,5883,1299,2418,3501,1.39687846,2.59878206,3.76249690,0.15942029,0.26745890,0.40659809
41003,0,USOregonBenton,Oregon,Benton,2021-01-05 12:28:30.465953,2020-12-19 00:00:00.000000,2.56604774,4.74598190,6.12008802,2387,4416,5694,1286,2381,3492,1.38236512,2.55939122,3.75338960,0.17050766,0.26699807,0.41189061
41003,0,USOregonBenton,Oregon,Benton,2021-01-05 12:28:30.465953,2020-12-20 00:00:00.000000,2.54299134,4.72014156,5.90606289,2366,4392,5495,1272,2351,3483,1.36742061,2.52736505,3.74353494,0.15652948,0.25995085,0.41468914
41003,0,USOregonBenton,Oregon,Benton,2021-01-05 12:28:30.465953,2020-12-21 00:00:00.000000,2.53258994,4.68867882,5.84863981,2356,4362,5442,1258,2322,3473,1.35202953,2.49574943,3.73315415,0.15759128,0.25740934,0.42385118
41003,0,USOregonBenton,Oregon,Benton,2021-01-05 12:28:30.465953,2020-12-22 00:00:00.000000,2.53306581,4.61743110,5.82189714,2357,4296,5417,1242,2292,3463,1.33531253,2.46339298,3.72235060,0.15793613,0.25628033,0.43248867
41003,0,USOregonBenton,Oregon,Benton,2021-01-05 12:28:30.465953,2020-12-23 00:00:00.000000,2.53843645,4.53260945,5.79571487,2362,4217,5393,1225,2262,3453,1.31688608,2.43153484,3.71081980,0.15863739,0.25608108,0.43273041
41003,0,USOregonBenton,Oregon,Benton,2021-01-05 12:28:30.465953,2020-12-24 00:00:00.000000,2.54540945,4.45230757,5.78022213,2368,4143,5378,1214,2244,3440,1.30519142,2.41179659,3.69786715,0.15971302,0.26197791,0.43503775
41003,0,USOregonBenton,Oregon,Benton,2021-01-05 12:28:30.465953,2020-12-25 00:00:00.000000,2.55265534,4.38638642,5.77338840,2375,4081,5372,1215,2219,3426,1.30646479,2.38489830,3.68180985,0.15965765,0.25549585,0.43801743
41003,0,USOregonBenton,Oregon,Benton,2021-01-05 12:28:30.465953,2020-12-26 00:00:00.000000,2.55956918,4.28673213,5.77015738,2381,3988,5369,1217,2187,3408,1.30878896,2.35090305,3.66336317,0.15900178,0.26730856,0.45195728
41003,0,USOregonBenton,Oregon,Benton,2021-01-05 12:28:30.465953,2020-12-27 00:00:00.000000,2.56589188,4.18844750,5.77284617,2387,3897,5371,1220,2140,3388,1.31148981,2.30018047,3.64180311,0.16045992,0.27014727,0.45405286
41003,0,USOregonBenton,Oregon,Benton,2021-01-05 12:28:30.465953,2020-12-28 00:00:00.000000,2.49551883,4.09432645,5.78169129,2322,3809,5380,1222,2098,3365,1.31418849,2.25558475,3.61657678,0.17002878,0.27085065,0.45426532
41003,0,USOregonBenton,Oregon,Benton,2021-01-05 12:28:30.465953,2020-12-29 00:00:00.000000,2.38041456,4.02318683,5.79850695,2215,3743,5395,1224,2070,3337,1.31639510,2.22523380,3.58698519,0.17428628,0.27107502,0.46171825
41003,0,USOregonBenton,Oregon,Benton,2021-01-05 12:28:30.465953,2020-12-30 00:00:00.000000,2.30015181,3.94817077,5.82227284,2140,3673,5417,1226,2034,3306,1.31799797,2.18677254,3.55334173,0.17284129,0.27276992,0.47318582
41003,0,USOregonBenton,Oregon,Benton,2021-01-05 12:28:30.465953,2020-12-31 00:00:00.000000,2.31106786,3.90202723,5.85115365,2150,3630,5444,1222,2001,3271,1.31340821,2.15114134,3.51619335,0.16875087,0.27835993,0.47643012
41003,0,USOregonBenton,Oregon,Benton,2021-01-05 12:28:30.465953,2021-01-01 00:00:00.000000,2.32677660,3.88834686,5.88327007,2165,3618,5474,1195,1971,3268,1.28424460,2.11866528,3.51246465,0.16128579,0.28608214,0.49490187
41003,0,USOregonBenton,Oregon,Benton,2021-01-05 12:28:30.465953,2021-01-02 00:00:00.000000,2.35601394,3.88323795,5.91950959,2192,3613,5508,1146,1934,3281,1.23250414,2.07882076,3.52635364,0.15545291,0.28615741,0.50680549
41003,0,USOregonBenton,Oregon,Benton,2021-01-05 12:28:30.465953,2021-01-03 00:00:00.000000,2.41790457,3.89666447,5.95702299,2249,3625,5543,1099,1918,3296,1.18196640,2.06129876,3.54245697,0.15341944,0.28343936,0.50938377
41003,0,USOregonBenton,Oregon,Benton,2021-01-05 12:28:30.465953,2021-01-04 00:00:00.000000,2.41583647,3.88692221,6.01765872,2248,3616,5599,1055,1894,3312,1.13467854,2.03633724,3.56030440,0.15302685,0.28577982,0.51049409
41003,0,USOregonBenton,Oregon,Benton,2021-01-05 12:28:30.465953,2021-01-05 00:00:00.000000,2.34980558,3.81319938,6.11768960,2186,3548,5692,1014,1897,3331,1.08996246,2.03960771,3.57991526,0.15394779,0.28731327,0.51101033
41003,0,USOregonBenton,Oregon,Benton,2021-01-05 12:28:30.465953,2021-01-06 00:00:00.000000,2.28629657,3.72078302,6.15216623,2127,3462,5724,974,1887,3352,1.04738435,2.02868244,3.60226884,0.15784801,0.28683826,0.51124834
41003,0,USOregonBenton,Oregon,Benton,2021-01-05 12:28:30.465953,2021-01-07 00:00:00.000000,2.22422268,3.62769222,6.19825513,2069,3375,5767,953,1885,3377,1.02470216,2.02638164,3.62966907,0.15933168,0.28653137,0.51135778
41003,0,USOregonBenton,Oregon,Benton,2021-01-05 12:28:30.465953,2021-01-08 00:00:00.000000,2.16359693,3.58048665,6.30302957,2013,3331,5865,939,1866,3410,1.01007787,2.00543220,3.66508762,0.15980958,0.28645027,0.51140811
41003,0,USOregonBenton,Oregon,Benton,2021-01-05 12:28:30.465953,2021-01-09 00:00:00.000000,2.10442182,3.55848521,6.27761700,1958,3311,5841,926,1867,3437,0.99595514,2.00653791,3.69445077,0.15995485,0.28641956,0.51143130
41003,0,USOregonBenton,Oregon,Benton,2021-01-05 12:28:30.465953,2021-01-10 00:00:00.000000,2.04669165,3.54416714,6.24775795,1904,3297,5813,913,1842,3423,0.98216242,1.98017529,3.67873985,0.15999810,0.28640773,0.51144201
41003,0,USOregonBenton,Oregon,Benton,2021-01-05 12:28:30.465953,2021-01-11 00:00:00.000000,1.99039435,3.52012615,6.26610494,1852,3275,5830,901,1818,3411,0.96858943,1.95380648,3.66597712,0.16001084,0.28640309,0.51144698
41003,0,USOregonBenton,Oregon,Benton,2021-01-05 12:28:30.465953,2021-01-12 00:00:00.000000,1.93551297,3.51446862,6.28157008,1801,3270,5845,888,1792,3394,0.95529654,1.92617004,3.64770876,0.16001453,0.28640123,0.51144929
41003,0,USOregonBenton,Oregon,Benton,2021-01-05 12:28:30.465953,2021-01-13 00:00:00.000000,1.88202696,3.45654751,6.29412796,1751,3216,5856,876,1758,3377,0.94223747,1.88971766,3.62989055,0.16001557,0.28640047,0.51145038
41003,0,USOregonBenton,Oregon,Benton,2021-01-05 12:28:30.465953,2021-01-14 00:00:00.000000,1.82991315,3.39705827,6.30376308,1702,3161,5865,864,1724,3410,0.92925253,1.85364863,3.66517155,0.16001585,0.28640016,0.51145089
41003,0,USOregonBenton,Oregon,Benton,2021-01-05 12:28:30.465953,2021-01-15 00:00:00.000000,1.77914647,3.34042127,6.31046551,1655,3108,5872,852,1702,3451,0.91633160,1.82987577,3.70920396,0.16001591,0.28640002,0.51145113
41003,0,USOregonBenton,Oregon,Benton,2021-01-05 12:28:30.465953,2021-01-16 00:00:00.000000,1.72970057,3.27622452,6.31422964,1609,3048,5875,840,1668,3458,0.90347056,1.79313078,3.71697654,0.16001591,0.28639997,0.51145124
41003,0,USOregonBenton,Oregon,Benton,2021-01-05 12:28:30.465953,2021-01-17 00:00:00.000000,1.68154829,3.22059367,6.31505404,1564,2996,5876,828,1626,3464,0.89066875,1.74794398,3.72299014,0.16001591,0.28639994,0.51145130
