FIPS,HR_UID,nameid,province,region,analysisTime,dates,pointprevalence_025,pointprevalence_50,pointprevalence_975,pointinfections_025,pointinfections_50,pointinfections_975,pointinfectious_025,pointinfectious_50,pointinfectious_975,pointinfectiousprevalence_05,pointinfectiousprevalence_50,pointinfectiousprevalence_95,infectrate_025,infectrate_50,infectrate_975
1059,0,USAlabamaFranklin,Alabama,Franklin,2021-01-06 05:16:04.171863,2020-03-09 00:00:00.000000,0.00121939,0.00893504,0.02778389,0,2,8,0,1,4,0.00056331,0.00471908,0.01398490,0.46775200,0.60145698,0.79501663
1059,0,USAlabamaFranklin,Alabama,Franklin,2021-01-06 05:16:04.171863,2020-03-10 00:00:00.000000,0.00142709,0.01035979,0.03127008,0,3,9,0,1,4,0.00057083,0.00478755,0.01442820,0.46774775,0.60145673,0.79501449
1059,0,USAlabamaFranklin,Alabama,Franklin,2021-01-06 05:16:04.171863,2020-03-11 00:00:00.000000,0.00168351,0.01145774,0.03503488,0,3,10,0,1,4,0.00063173,0.00500478,0.01526189,0.46773917,0.60145496,0.79501115
1059,0,USAlabamaFranklin,Alabama,Franklin,2021-01-06 05:16:04.171863,2020-03-12 00:00:00.000000,0.00198782,0.01277650,0.03916595,0,4,12,0,1,5,0.00072687,0.00550758,0.01672124,0.46772188,0.60144296,0.79500579
1059,0,USAlabamaFranklin,Alabama,Franklin,2021-01-06 05:16:04.171863,2020-03-13 00:00:00.000000,0.00232794,0.01438530,0.04373697,0,4,13,0,1,5,0.00084793,0.00616010,0.01846080,0.46768709,0.60136248,0.79499565
1059,0,USAlabamaFranklin,Alabama,Franklin,2021-01-06 05:16:04.171863,2020-03-14 00:00:00.000000,0.00270942,0.01597953,0.04881451,0,5,15,0,2,6,0.00099223,0.00682098,0.02047006,0.46761728,0.60083669,0.79478234
1059,0,USAlabamaFranklin,Alabama,Franklin,2021-01-06 05:16:04.171863,2020-03-15 00:00:00.000000,0.00302038,0.01757614,0.05445990,0,5,17,0,2,7,0.00113852,0.00748223,0.02275412,0.46747784,0.59968955,0.79408233
1059,0,USAlabamaFranklin,Alabama,Franklin,2021-01-06 05:16:04.171863,2020-03-16 00:00:00.000000,0.00628923,0.02298835,0.06601205,1,7,20,0,2,7,0.00126261,0.00826770,0.02532766,0.44920271,0.59874106,0.79300660
1059,0,USAlabamaFranklin,Alabama,Franklin,2021-01-06 05:16:04.171863,2020-03-17 00:00:00.000000,0.00933978,0.02839549,0.07768097,2,8,24,0,3,9,0.00193442,0.00969963,0.02914298,0.44854203,0.59839373,0.78617362
1059,0,USAlabamaFranklin,Alabama,Franklin,2021-01-06 05:16:04.171863,2020-03-18 00:00:00.000000,0.01160722,0.03333130,0.08823989,3,10,27,0,3,10,0.00290214,0.01185222,0.03389665,0.44131153,0.59115323,0.78265845
1059,0,USAlabamaFranklin,Alabama,Franklin,2021-01-06 05:16:04.171863,2020-03-19 00:00:00.000000,0.01405494,0.03983556,0.10002418,4,12,31,1,4,11,0.00415919,0.01414442,0.03790278,0.42221944,0.58266028,0.77178337
1059,0,USAlabamaFranklin,Alabama,Franklin,2021-01-06 05:16:04.171863,2020-03-20 00:00:00.000000,0.01669769,0.04655237,0.11492362,5,14,36,1,5,12,0.00564742,0.01692150,0.04076687,0.41844822,0.57766607,0.75945120
1059,0,USAlabamaFranklin,Alabama,Franklin,2021-01-06 05:16:04.171863,2020-03-21 00:00:00.000000,0.01953318,0.05395410,0.12437881,6,16,39,2,6,14,0.00693682,0.02005662,0.04493734,0.40993398,0.57473970,0.73125467
1059,0,USAlabamaFranklin,Alabama,Franklin,2021-01-06 05:16:04.171863,2020-03-22 00:00:00.000000,0.02255424,0.06217374,0.13766561,7,19,43,2,7,16,0.00816007,0.02338200,0.05228008,0.39572175,0.56166008,0.71902107
1059,0,USAlabamaFranklin,Alabama,Franklin,2021-01-06 05:16:04.171863,2020-03-23 00:00:00.000000,0.02976721,0.07250216,0.15095151,9,22,47,2,8,18,0.00952736,0.02733431,0.06005636,0.39304582,0.55169351,0.70423346
1059,0,USAlabamaFranklin,Alabama,Franklin,2021-01-06 05:16:04.171863,2020-03-24 00:00:00.000000,0.03721320,0.08282801,0.16493240,11,25,51,3,9,21,0.01182548,0.03171847,0.06789577,0.39061846,0.54179936,0.69175718
1059,0,USAlabamaFranklin,Alabama,Franklin,2021-01-06 05:16:04.171863,2020-03-25 00:00:00.000000,0.04339738,0.09418751,0.17972910,13,29,56,4,11,23,0.01474662,0.03617401,0.07577748,0.38048077,0.53743776,0.69173828
1059,0,USAlabamaFranklin,Alabama,Franklin,2021-01-06 05:16:04.171863,2020-03-26 00:00:00.000000,0.04987815,0.10784447,0.19547127,15,33,61,5,13,26,0.01814210,0.04182169,0.08367189,0.37910442,0.52580444,0.69266222
1059,0,USAlabamaFranklin,Alabama,Franklin,2021-01-06 05:16:04.171863,2020-03-27 00:00:00.000000,0.06036488,0.12220186,0.21820380,18,38,68,6,15,28,0.02197251,0.04806742,0.09158688,0.38298444,0.52083657,0.69105678
1059,0,USAlabamaFranklin,Alabama,Franklin,2021-01-06 05:16:04.171863,2020-03-28 00:00:00.000000,0.07091885,0.13863758,0.24480272,22,43,76,8,17,32,0.02615913,0.05463885,0.10449996,0.37303891,0.50929028,0.68998468
1059,0,USAlabamaFranklin,Alabama,Franklin,2021-01-06 05:16:04.171863,2020-03-29 00:00:00.000000,0.07798771,0.15501552,0.27754404,24,48,87,9,19,36,0.03034960,0.06226818,0.11792003,0.36617395,0.51250103,0.70716859
1059,0,USAlabamaFranklin,Alabama,Franklin,2021-01-06 05:16:04.171863,2020-03-30 00:00:00.000000,0.09459587,0.17462784,0.29906023,29,54,93,10,21,40,0.03448997,0.06882577,0.12828675,0.36351123,0.51453769,0.71180084
1059,0,USAlabamaFranklin,Alabama,Franklin,2021-01-06 05:16:04.171863,2020-03-31 00:00:00.000000,0.10766849,0.19652497,0.32271382,33,61,101,12,24,44,0.04071328,0.07791552,0.14111890,0.36420400,0.52035946,0.71210844
1059,0,USAlabamaFranklin,Alabama,Franklin,2021-01-06 05:16:04.171863,2020-04-01 00:00:00.000000,0.12393124,0.21961829,0.35659918,38,68,111,14,27,49,0.04647477,0.08869977,0.15788404,0.37274520,0.51781527,0.71226872
1059,0,USAlabamaFranklin,Alabama,Franklin,2021-01-06 05:16:04.171863,2020-04-02 00:00:00.000000,0.14148310,0.24422076,0.39440050,44,76,123,16,31,55,0.05264002,0.09976507,0.17654663,0.36448713,0.51655414,0.71227507
1059,0,USAlabamaFranklin,Alabama,Franklin,2021-01-06 05:16:04.171863,2020-04-03 00:00:00.000000,0.16065053,0.27230978,0.43042556,50,85,134,19,35,61,0.06102780,0.11247537,0.19717024,0.35860982,0.52767561,0.71274098
1059,0,USAlabamaFranklin,Alabama,Franklin,2021-01-06 05:16:04.171863,2020-04-04 00:00:00.000000,0.17815261,0.30074480,0.46935990,55,94,147,21,39,68,0.06960200,0.12620420,0.21915781,0.35900781,0.52921130,0.72779260
1059,0,USAlabamaFranklin,Alabama,Franklin,2021-01-06 05:16:04.171863,2020-04-05 00:00:00.000000,0.19432210,0.33085888,0.51123217,60,103,160,25,44,74,0.08075610,0.14068678,0.23745997,0.37383616,0.53445271,0.73964140
1059,0,USAlabamaFranklin,Alabama,Franklin,2021-01-06 05:16:04.171863,2020-04-06 00:00:00.000000,0.21892253,0.36919788,0.55843364,68,115,175,28,48,80,0.09141311,0.15439340,0.25821423,0.37720749,0.54936207,0.74515904
1059,0,USAlabamaFranklin,Alabama,Franklin,2021-01-06 05:16:04.171863,2020-04-07 00:00:00.000000,0.25018627,0.40510409,0.63369828,78,127,198,32,53,89,0.10251964,0.16901471,0.28586274,0.36970605,0.54541151,0.74746967
1059,0,USAlabamaFranklin,Alabama,Franklin,2021-01-06 05:16:04.171863,2020-04-08 00:00:00.000000,0.27863182,0.45111531,0.69879045,87,141,219,35,57,101,0.11410622,0.18446144,0.32401355,0.39258362,0.54041058,0.74773531
1059,0,USAlabamaFranklin,Alabama,Franklin,2021-01-06 05:16:04.171863,2020-04-09 00:00:00.000000,0.30862493,0.50065058,0.78152769,96,157,245,39,63,113,0.12500202,0.20319184,0.36112550,0.39893841,0.54403127,0.74630484
1059,0,USAlabamaFranklin,Alabama,Franklin,2021-01-06 05:16:04.171863,2020-04-10 00:00:00.000000,0.34363143,0.55666811,0.87295085,107,174,273,42,70,126,0.13659399,0.22554119,0.40282081,0.39745265,0.54851153,0.74311947
1059,0,USAlabamaFranklin,Alabama,Franklin,2021-01-06 05:16:04.171863,2020-04-11 00:00:00.000000,0.38255590,0.61948207,0.97068681,119,194,304,46,78,140,0.14943145,0.25002398,0.44954622,0.39579273,0.55513764,0.73989398
1059,0,USAlabamaFranklin,Alabama,Franklin,2021-01-06 05:16:04.171863,2020-04-12 00:00:00.000000,0.42103616,0.68900061,1.06016665,132,216,332,51,87,155,0.16392273,0.27953950,0.49503687,0.38726255,0.56316185,0.76253066
1059,0,USAlabamaFranklin,Alabama,Franklin,2021-01-06 05:16:04.171863,2020-04-13 00:00:00.000000,0.46343182,0.76238275,1.15338767,145,239,361,56,96,170,0.18022672,0.30702522,0.54243437,0.39107938,0.56213363,0.81529374
1059,0,USAlabamaFranklin,Alabama,Franklin,2021-01-06 05:16:04.171863,2020-04-14 00:00:00.000000,0.50961661,0.84444198,1.25698911,159,264,394,62,107,185,0.19786873,0.34350633,0.59290207,0.40279510,0.56523442,0.81608150
1059,0,USAlabamaFranklin,Alabama,Franklin,2021-01-06 05:16:04.171863,2020-04-15 00:00:00.000000,0.56059761,0.93337707,1.38560828,175,292,434,68,117,202,0.21706651,0.37616394,0.64692477,0.41358372,0.57289739,0.82925625
1059,0,USAlabamaFranklin,Alabama,Franklin,2021-01-06 05:16:04.171863,2020-04-16 00:00:00.000000,0.62637400,1.02401678,1.49101823,196,321,467,74,130,220,0.23800637,0.41648949,0.70438779,0.40951768,0.58853425,0.84301053
1059,0,USAlabamaFranklin,Alabama,Franklin,2021-01-06 05:16:04.171863,2020-04-17 00:00:00.000000,0.68741057,1.12482056,1.60755821,215,352,504,81,145,240,0.26096220,0.46410909,0.76611437,0.41092881,0.58405816,0.83943728
1059,0,USAlabamaFranklin,Alabama,Franklin,2021-01-06 05:16:04.171863,2020-04-18 00:00:00.000000,0.75492290,1.23941359,1.74582020,236,388,547,89,162,261,0.28633036,0.51699617,0.83253653,0.42422199,0.58877538,0.82078019
1059,0,USAlabamaFranklin,Alabama,Franklin,2021-01-06 05:16:04.171863,2020-04-19 00:00:00.000000,0.82883212,1.36773752,1.93522857,259,428,606,98,178,283,0.31438874,0.56968342,0.90418954,0.43790980,0.58905632,0.78212731
1059,0,USAlabamaFranklin,Alabama,Franklin,2021-01-06 05:16:04.171863,2020-04-20 00:00:00.000000,0.91556256,1.48998119,2.18786308,287,467,686,108,197,307,0.34531532,0.62996731,0.98179570,0.44216135,0.57932291,0.75947296
1059,0,USAlabamaFranklin,Alabama,Franklin,2021-01-06 05:16:04.171863,2020-04-21 00:00:00.000000,1.00969302,1.62902420,2.43948242,316,510,765,120,218,337,0.38436068,0.69827660,1.07620956,0.42293571,0.57197554,0.77228343
1059,0,USAlabamaFranklin,Alabama,Franklin,2021-01-06 05:16:04.171863,2020-04-22 00:00:00.000000,1.11228250,1.78834743,2.72329698,348,560,854,134,240,368,0.42840108,0.76748609,1.17382144,0.39926008,0.56252697,0.78176377
1059,0,USAlabamaFranklin,Alabama,Franklin,2021-01-06 05:16:04.171863,2020-04-23 00:00:00.000000,1.22413231,1.97360809,3.01328426,383,618,945,149,264,410,0.47638309,0.84310283,1.30986291,0.39691300,0.56238572,0.77527232
1059,0,USAlabamaFranklin,Alabama,Franklin,2021-01-06 05:16:04.171863,2020-04-24 00:00:00.000000,1.34602327,2.15353923,3.30543834,422,675,1036,165,289,458,0.52882312,0.92188941,1.46128869,0.39090808,0.55325608,0.77999862
1059,0,USAlabamaFranklin,Alabama,Franklin,2021-01-06 05:16:04.171863,2020-04-25 00:00:00.000000,1.47993623,2.33158455,3.56843873,464,731,1119,183,320,507,0.58610380,1.02042937,1.61960553,0.38643698,0.54528518,0.77930332
1059,0,USAlabamaFranklin,Alabama,Franklin,2021-01-06 05:16:04.171863,2020-04-26 00:00:00.000000,1.62116199,2.54003818,3.84319557,508,796,1205,203,354,558,0.64853237,1.13156967,1.78143929,0.38263362,0.53057837,0.75783392
1059,0,USAlabamaFranklin,Alabama,Franklin,2021-01-06 05:16:04.171863,2020-04-27 00:00:00.000000,1.77012897,2.78524528,4.12801404,555,873,1294,224,385,609,0.71634083,1.23011597,1.94303442,0.38215491,0.51691196,0.74710605
1059,0,USAlabamaFranklin,Alabama,Franklin,2021-01-06 05:16:04.171863,2020-04-28 00:00:00.000000,1.92466990,3.03918876,4.49043175,603,953,1408,247,422,667,0.79057144,1.34582735,2.12959721,0.36786730,0.50280478,0.71613504
1059,0,USAlabamaFranklin,Alabama,Franklin,2021-01-06 05:16:04.171863,2020-04-29 00:00:00.000000,2.07662338,3.27281126,4.87696989,651,1026,1529,269,459,721,0.86076096,1.46359727,2.30175200,0.35909826,0.47452904,0.70479049
1059,0,USAlabamaFranklin,Alabama,Franklin,2021-01-06 05:16:04.171863,2020-04-30 00:00:00.000000,2.22814398,3.47029130,5.26602422,698,1088,1651,294,498,768,0.93816797,1.58864234,2.44958926,0.33256786,0.44639089,0.66780860
1059,0,USAlabamaFranklin,Alabama,Franklin,2021-01-06 05:16:04.171863,2020-05-01 00:00:00.000000,2.38859382,3.69177552,5.62304561,749,1157,1763,319,535,822,1.01767190,1.70838999,2.62241141,0.30809292,0.41454592,0.60729253
1059,0,USAlabamaFranklin,Alabama,Franklin,2021-01-06 05:16:04.171863,2020-05-02 00:00:00.000000,2.55824365,3.93926308,5.91539005,802,1235,1855,341,579,875,1.09036587,1.84651977,2.79023665,0.27728956,0.38552559,0.60380402
1059,0,USAlabamaFranklin,Alabama,Franklin,2021-01-06 05:16:04.171863,2020-05-03 00:00:00.000000,2.73651608,4.14230319,6.12653168,858,1299,1921,364,620,925,1.16161505,1.97771065,2.94984351,0.26605109,0.36273912,0.54712314
1059,0,USAlabamaFranklin,Alabama,Franklin,2021-01-06 05:16:04.171863,2020-05-04 00:00:00.000000,2.91192757,4.32025454,6.38584717,913,1354,2002,385,656,979,1.22979028,2.09415270,3.12441584,0.26541135,0.34593992,0.51894626
1059,0,USAlabamaFranklin,Alabama,Franklin,2021-01-06 05:16:04.171863,2020-05-05 00:00:00.000000,3.08892571,4.49320385,6.55455592,968,1409,2055,405,694,1040,1.29261011,2.21357785,3.31658807,0.26052837,0.32805083,0.50675178
1059,0,USAlabamaFranklin,Alabama,Franklin,2021-01-06 05:16:04.171863,2020-05-06 00:00:00.000000,3.24815241,4.66891196,6.66563745,1018,1464,2090,431,727,1100,1.37710544,2.32011504,3.51000835,0.23472325,0.31310670,0.44398702
1059,0,USAlabamaFranklin,Alabama,Franklin,2021-01-06 05:16:04.171863,2020-05-07 00:00:00.000000,3.31564483,4.81755901,6.74563319,1039,1510,2115,450,752,1126,1.43590023,2.39873617,3.59041119,0.21966947,0.30517386,0.41671719
1059,0,USAlabamaFranklin,Alabama,Franklin,2021-01-06 05:16:04.171863,2020-05-08 00:00:00.000000,3.35413255,4.94897791,6.90121095,1051,1552,2164,461,778,1144,1.47179085,2.48079019,3.64977675,0.18452498,0.29379248,0.39627628
1059,0,USAlabamaFranklin,Alabama,Franklin,2021-01-06 05:16:04.171863,2020-05-09 00:00:00.000000,3.37725715,5.05445970,7.13345416,1059,1585,2237,475,803,1183,1.51744999,2.56177965,3.77236243,0.18310727,0.28021027,0.36573347
1059,0,USAlabamaFranklin,Alabama,Franklin,2021-01-06 05:16:04.171863,2020-05-10 00:00:00.000000,3.39318082,5.13113032,7.31918056,1064,1609,2295,492,827,1220,1.57070641,2.63802549,3.89117268,0.18288298,0.26135941,0.34254303
1059,0,USAlabamaFranklin,Alabama,Franklin,2021-01-06 05:16:04.171863,2020-05-11 00:00:00.000000,3.40149923,5.20010464,7.47286600,1066,1630,2343,508,852,1253,1.62237834,2.71775713,3.99686639,0.18239447,0.25280877,0.33465720
1059,0,USAlabamaFranklin,Alabama,Franklin,2021-01-06 05:16:04.171863,2020-05-12 00:00:00.000000,3.40761191,5.24524461,7.59506820,1068,1645,2381,524,870,1281,1.67261886,2.77643527,4.08612215,0.17901766,0.24475090,0.33188385
1059,0,USAlabamaFranklin,Alabama,Franklin,2021-01-06 05:16:04.171863,2020-05-13 00:00:00.000000,3.41210228,5.27754478,7.69341539,1070,1655,2412,540,877,1304,1.72187929,2.79807341,4.15842509,0.17613135,0.23949805,0.32888785
1059,0,USAlabamaFranklin,Alabama,Franklin,2021-01-06 05:16:04.171863,2020-05-14 00:00:00.000000,3.41535339,5.27935617,7.74197027,1071,1655,2428,555,889,1321,1.77066137,2.83516513,4.21495968,0.17405912,0.23288701,0.32463522
1059,0,USAlabamaFranklin,Alabama,Franklin,2021-01-06 05:16:04.171863,2020-05-15 00:00:00.000000,3.41756977,5.26985034,7.72977393,1071,1652,2424,570,904,1334,1.81934407,2.88456880,4.25670677,0.16740292,0.22109750,0.31695612
1059,0,USAlabamaFranklin,Alabama,Franklin,2021-01-06 05:16:04.171863,2020-05-16 00:00:00.000000,3.41885691,5.28105763,7.69870547,1072,1656,2414,585,918,1343,1.86820110,2.92774256,4.28422487,0.16480531,0.21167138,0.31665129
1059,0,USAlabamaFranklin,Alabama,Franklin,2021-01-06 05:16:04.171863,2020-05-17 00:00:00.000000,3.41829703,5.26323928,7.65461144,1072,1650,2400,586,930,1361,1.86914176,2.96725358,4.34274055,0.16056391,0.20482298,0.31660324
1059,0,USAlabamaFranklin,Alabama,Franklin,2021-01-06 05:16:04.171863,2020-05-18 00:00:00.000000,3.41881600,5.24707541,7.60524736,1072,1645,2385,582,933,1380,1.85663581,2.97618159,4.40085260,0.15482475,0.19928293,0.31641824
1059,0,USAlabamaFranklin,Alabama,Franklin,2021-01-06 05:16:04.171863,2020-05-19 00:00:00.000000,3.41772899,5.22933310,7.54855899,1071,1640,2367,578,938,1398,1.84597234,2.99270008,4.45789297,0.15204167,0.19696664,0.31599084
1059,0,USAlabamaFranklin,Alabama,Franklin,2021-01-06 05:16:04.171863,2020-05-20 00:00:00.000000,3.41537888,5.15392816,7.48479418,1071,1616,2347,576,937,1427,1.83727466,2.98841966,4.55045621,0.14740973,0.19426005,0.31467538
1059,0,USAlabamaFranklin,Alabama,Franklin,2021-01-06 05:16:04.171863,2020-05-21 00:00:00.000000,3.43509813,5.14669743,7.44548566,1077,1614,2335,571,931,1453,1.82331761,2.97118013,4.63590861,0.14526686,0.19112290,0.30999839
1059,0,USAlabamaFranklin,Alabama,Franklin,2021-01-06 05:16:04.171863,2020-05-22 00:00:00.000000,3.45696959,5.12878644,7.43717391,1084,1608,2332,564,929,1476,1.79998226,2.96365455,4.70751729,0.14307777,0.18917518,0.29630817
1059,0,USAlabamaFranklin,Alabama,Franklin,2021-01-06 05:16:04.171863,2020-05-23 00:00:00.000000,3.44938063,5.09312152,7.38656290,1081,1597,2316,562,922,1492,1.79336723,2.94270128,4.75759647,0.14045376,0.18914002,0.28509751
1059,0,USAlabamaFranklin,Alabama,Franklin,2021-01-06 05:16:04.171863,2020-05-24 00:00:00.000000,3.43973617,5.01743777,7.31679927,1078,1573,2294,566,917,1500,1.80523808,2.92513693,4.78434178,0.13426471,0.18861533,0.28110486
1059,0,USAlabamaFranklin,Alabama,Franklin,2021-01-06 05:16:04.171863,2020-05-25 00:00:00.000000,3.36644243,4.94482629,7.23061285,1055,1550,2267,558,910,1502,1.78076512,2.90184616,4.79081222,0.13215543,0.18746234,0.26729344
1059,0,USAlabamaFranklin,Alabama,Franklin,2021-01-06 05:16:04.171863,2020-05-26 00:00:00.000000,3.31677969,4.88788530,7.14000661,1040,1532,2239,555,901,1499,1.77059571,2.87303679,4.77976012,0.13152747,0.18663403,0.25887424
1059,0,USAlabamaFranklin,Alabama,Franklin,2021-01-06 05:16:04.171863,2020-05-27 00:00:00.000000,3.30199872,4.82667978,7.04663297,1035,1513,2209,546,887,1491,1.74236920,2.82935932,4.75535611,0.12983413,0.18303763,0.25639313
1059,0,USAlabamaFranklin,Alabama,Franklin,2021-01-06 05:16:04.171863,2020-05-28 00:00:00.000000,3.26167636,4.77194514,6.95160875,1022,1496,2180,537,874,1480,1.71454560,2.78726587,4.72090212,0.12961458,0.17994146,0.25687830
1059,0,USAlabamaFranklin,Alabama,Franklin,2021-01-06 05:16:04.171863,2020-05-29 00:00:00.000000,3.22677484,4.72743334,6.85603619,1011,1482,2150,529,864,1467,1.68703356,2.75785426,4.67894709,0.12677277,0.17570734,0.25806704
1059,0,USAlabamaFranklin,Alabama,Franklin,2021-01-06 05:16:04.171863,2020-05-30 00:00:00.000000,3.18948654,4.67444534,6.76177507,1000,1465,2120,520,853,1452,1.65982038,2.71993894,4.63150338,0.12489304,0.17209348,0.25998926
1059,0,USAlabamaFranklin,Alabama,Franklin,2021-01-06 05:16:04.171863,2020-05-31 00:00:00.000000,3.13796875,4.59993244,6.67241237,984,1442,2092,512,840,1436,1.63295936,2.68109895,4.58034526,0.12380621,0.17045818,0.26779098
1059,0,USAlabamaFranklin,Alabama,Franklin,2021-01-06 05:16:04.171863,2020-06-01 00:00:00.000000,3.08895601,4.51222490,6.61442915,968,1415,2074,503,828,1419,1.60647590,2.64110197,4.52740177,0.12319998,0.17019021,0.27019850
1059,0,USAlabamaFranklin,Alabama,Franklin,2021-01-06 05:16:04.171863,2020-06-02 00:00:00.000000,3.03463870,4.43670370,6.56314324,951,1391,2058,495,819,1404,1.57937446,2.61255401,4.47894325,0.12286222,0.16920237,0.26926318
1059,0,USAlabamaFranklin,Alabama,Franklin,2021-01-06 05:16:04.171863,2020-06-03 00:00:00.000000,2.99821256,4.38223608,6.51506271,940,1374,2043,486,807,1386,1.55191144,2.57400428,4.42008201,0.12265110,0.17007870,0.26907218
1059,0,USAlabamaFranklin,Alabama,Franklin,2021-01-06 05:16:04.171863,2020-06-04 00:00:00.000000,2.95734064,4.30924864,6.46800616,927,1351,2028,478,798,1364,1.52423719,2.54644529,4.35197519,0.12242037,0.16929281,0.26882469
1059,0,USAlabamaFranklin,Alabama,Franklin,2021-01-06 05:16:04.171863,2020-06-05 00:00:00.000000,2.89855020,4.21064336,6.35705890,909,1320,1993,469,786,1344,1.49641293,2.50658496,4.28642345,0.12182457,0.16985019,0.26487865
1059,0,USAlabamaFranklin,Alabama,Franklin,2021-01-06 05:16:04.171863,2020-06-06 00:00:00.000000,2.83895330,4.13229449,6.23441515,890,1295,1955,460,773,1324,1.46841310,2.46573340,4.22437235,0.12175148,0.16741659,0.25961419
1059,0,USAlabamaFranklin,Alabama,Franklin,2021-01-06 05:16:04.171863,2020-06-07 00:00:00.000000,2.77815982,4.06864112,6.10293001,871,1276,1914,451,760,1304,1.44015115,2.42597123,4.16091782,0.12202874,0.16641833,0.25382531
1059,0,USAlabamaFranklin,Alabama,Franklin,2021-01-06 05:16:04.171863,2020-06-08 00:00:00.000000,2.71624111,3.98806229,5.96361281,851,1250,1870,445,748,1284,1.42107985,2.38738177,4.09658268,0.12205033,0.16265473,0.25342377
1059,0,USAlabamaFranklin,Alabama,Franklin,2021-01-06 05:16:04.171863,2020-06-09 00:00:00.000000,2.65329274,3.90593214,5.82389187,832,1224,1826,442,736,1264,1.41005969,2.34900737,4.03169553,0.12214941,0.16302158,0.25320458
1059,0,USAlabamaFranklin,Alabama,Franklin,2021-01-06 05:16:04.171863,2020-06-10 00:00:00.000000,2.59019036,3.82549678,5.69751443,812,1199,1786,438,725,1243,1.39820080,2.31181136,3.96654122,0.12228318,0.16266460,0.25202324
1059,0,USAlabamaFranklin,Alabama,Franklin,2021-01-06 05:16:04.171863,2020-06-11 00:00:00.000000,2.53742178,3.76015828,5.59634049,795,1179,1755,434,715,1223,1.38559912,2.28264630,3.90078413,0.12255303,0.16110275,0.24356337
1059,0,USAlabamaFranklin,Alabama,Franklin,2021-01-06 05:16:04.171863,2020-06-12 00:00:00.000000,2.51665051,3.71220978,5.51694787,789,1164,1730,430,706,1202,1.37224136,2.25156536,3.83383197,0.12254386,0.16129978,0.24447650
1059,0,USAlabamaFranklin,Alabama,Franklin,2021-01-06 05:16:04.171863,2020-06-13 00:00:00.000000,2.49696156,3.61626848,5.44786833,783,1134,1708,425,693,1180,1.35779843,2.21142964,3.76470630,0.12284420,0.16057330,0.23544285
1059,0,USAlabamaFranklin,Alabama,Franklin,2021-01-06 05:16:04.171863,2020-06-14 00:00:00.000000,2.47836105,3.51167182,5.38281803,777,1101,1688,420,677,1158,1.34169955,2.16151086,3.69344262,0.11821135,0.16160762,0.23526265
1059,0,USAlabamaFranklin,Alabama,Franklin,2021-01-06 05:16:04.171863,2020-06-15 00:00:00.000000,2.42844865,3.45559116,5.25814337,761,1083,1649,414,666,1135,1.32223678,2.12381479,3.62086157,0.11628294,0.16159652,0.23542619
1059,0,USAlabamaFranklin,Alabama,Franklin,2021-01-06 05:16:04.171863,2020-06-16 00:00:00.000000,2.38452520,3.40636713,5.13454002,747,1068,1610,405,652,1111,1.29369563,2.08187418,3.54523622,0.11627976,0.16250037,0.23886305
1059,0,USAlabamaFranklin,Alabama,Franklin,2021-01-06 05:16:04.171863,2020-06-17 00:00:00.000000,2.36790779,3.33648986,5.01342447,742,1046,1572,397,644,1087,1.26679542,2.05513946,3.46787292,0.11635141,0.16416242,0.26121905
1059,0,USAlabamaFranklin,Alabama,Franklin,2021-01-06 05:16:04.171863,2020-06-18 00:00:00.000000,2.31975292,3.25959636,4.89337109,727,1022,1534,389,635,1072,1.24108669,2.02521426,3.42118940,0.11661778,0.16670524,0.28177063
1059,0,USAlabamaFranklin,Alabama,Franklin,2021-01-06 05:16:04.171863,2020-06-19 00:00:00.000000,2.27053978,3.20893746,4.77675692,712,1006,1498,381,620,1059,1.21659912,1.97784079,3.37955203,0.11750014,0.16894570,0.29125098
1059,0,USAlabamaFranklin,Alabama,Franklin,2021-01-06 05:16:04.171863,2020-06-20 00:00:00.000000,2.22251381,3.15945765,4.66875242,697,990,1464,374,606,1047,1.19344685,1.93242366,3.33925774,0.12167738,0.17225672,0.29169517
1059,0,USAlabamaFranklin,Alabama,Franklin,2021-01-06 05:16:04.171863,2020-06-21 00:00:00.000000,2.17545430,3.09870599,4.58302146,682,971,1437,367,595,1029,1.17155630,1.90019157,3.28309617,0.12652659,0.18191534,0.29186242
1059,0,USAlabamaFranklin,Alabama,Franklin,2021-01-06 05:16:04.171863,2020-06-22 00:00:00.000000,2.12516902,3.03362263,4.54542970,666,951,1425,360,586,1006,1.15096724,1.87071914,3.21002401,0.12384457,0.18680998,0.29189028
1059,0,USAlabamaFranklin,Alabama,Franklin,2021-01-06 05:16:04.171863,2020-06-23 00:00:00.000000,2.07594314,2.98413332,4.50873955,651,935,1414,355,575,984,1.13223292,1.83356066,3.14031577,0.12345598,0.19027051,0.28931200
1059,0,USAlabamaFranklin,Alabama,Franklin,2021-01-06 05:16:04.171863,2020-06-24 00:00:00.000000,2.02773869,2.94653227,4.46909887,635,924,1401,349,564,963,1.11537758,1.79897730,3.07338046,0.12354618,0.19151682,0.27007346
1059,0,USAlabamaFranklin,Alabama,Franklin,2021-01-06 05:16:04.171863,2020-06-25 00:00:00.000000,1.98078770,2.91280528,4.37805997,621,913,1373,342,556,943,1.09162305,1.77429083,3.00874830,0.12382178,0.19236313,0.27708877
1059,0,USAlabamaFranklin,Alabama,Franklin,2021-01-06 05:16:04.171863,2020-06-26 00:00:00.000000,1.95430120,2.86734248,4.28994485,612,899,1345,334,550,923,1.06609973,1.75615239,2.94607557,0.12468120,0.19685454,0.28010946
1059,0,USAlabamaFranklin,Alabama,Franklin,2021-01-06 05:16:04.171863,2020-06-27 00:00:00.000000,1.93847171,2.84047976,4.20854243,607,890,1319,327,544,904,1.04273677,1.73495590,2.88491146,0.12780224,0.21063256,0.28843320
1059,0,USAlabamaFranklin,Alabama,Franklin,2021-01-06 05:16:04.171863,2020-06-28 00:00:00.000000,1.90965063,2.82409178,4.15292251,598,885,1302,321,537,886,1.02425887,1.71537220,2.82527994,0.14198782,0.22593668,0.29845663
1059,0,USAlabamaFranklin,Alabama,Franklin,2021-01-06 05:16:04.171863,2020-06-29 00:00:00.000000,1.88232299,2.81487280,4.14526987,590,882,1300,317,531,868,1.01134518,1.69535223,2.76849743,0.15433179,0.22811085,0.31739914
1059,0,USAlabamaFranklin,Alabama,Franklin,2021-01-06 05:16:04.171863,2020-06-30 00:00:00.000000,1.85906123,2.83510229,4.15863401,583,889,1304,314,523,857,1.00199461,1.66816557,2.73409613,0.16122545,0.22940221,0.34063482
1059,0,USAlabamaFranklin,Alabama,Franklin,2021-01-06 05:16:04.171863,2020-07-01 00:00:00.000000,1.84346764,2.83500728,4.17694067,578,889,1309,312,522,851,0.99525549,1.66540113,2.71502234,0.16233487,0.23183395,0.35090977
1059,0,USAlabamaFranklin,Alabama,Franklin,2021-01-06 05:16:04.171863,2020-07-02 00:00:00.000000,1.83547007,2.84041838,4.19814895,575,890,1316,308,519,845,0.98485747,1.65517777,2.69615312,0.16283481,0.23663016,0.35809160
1059,0,USAlabamaFranklin,Alabama,Franklin,2021-01-06 05:16:04.171863,2020-07-03 00:00:00.000000,1.81591988,2.83840469,4.22343748,569,890,1324,303,513,839,0.96884555,1.63827636,2.67758391,0.16510869,0.24599987,0.38115678
1059,0,USAlabamaFranklin,Alabama,Franklin,2021-01-06 05:16:04.171863,2020-07-04 00:00:00.000000,1.80282943,2.87303435,4.20257573,565,901,1318,299,509,834,0.95504980,1.62579064,2.65962443,0.16611855,0.25394600,0.39156123
1059,0,USAlabamaFranklin,Alabama,Franklin,2021-01-06 05:16:04.171863,2020-07-05 00:00:00.000000,1.79726020,2.90930965,4.18393716,563,912,1312,296,508,828,0.94417796,1.62196885,2.64292824,0.17057901,0.25728712,0.39426631
1059,0,USAlabamaFranklin,Alabama,Franklin,2021-01-06 05:16:04.171863,2020-07-06 00:00:00.000000,1.78898683,2.91692443,4.17050362,561,914,1307,293,509,824,0.93662022,1.62567321,2.62763788,0.17925087,0.26016925,0.39831656
1059,0,USAlabamaFranklin,Alabama,Franklin,2021-01-06 05:16:04.171863,2020-07-07 00:00:00.000000,1.78532289,2.93351270,4.23866601,559,920,1329,291,511,819,0.93054177,1.62986385,2.61411784,0.19253262,0.27012321,0.39356646
1059,0,USAlabamaFranklin,Alabama,Franklin,2021-01-06 05:16:04.171863,2020-07-08 00:00:00.000000,1.79475169,2.95492409,4.32070918,562,926,1355,290,512,816,0.92617278,1.63557947,2.60206988,0.19859691,0.27787420,0.39327880
1059,0,USAlabamaFranklin,Alabama,Franklin,2021-01-06 05:16:04.171863,2020-07-09 00:00:00.000000,1.83112103,3.00194959,4.40243774,574,941,1380,289,514,812,0.92367157,1.64210307,2.59120382,0.20482195,0.27995300,0.39670457
1059,0,USAlabamaFranklin,Alabama,Franklin,2021-01-06 05:16:04.171863,2020-07-10 00:00:00.000000,1.87389898,3.03321526,4.48328892,587,951,1406,290,518,809,0.92758517,1.65169864,2.58125711,0.20582654,0.28152144,0.40304006
1059,0,USAlabamaFranklin,Alabama,Franklin,2021-01-06 05:16:04.171863,2020-07-11 00:00:00.000000,1.92101832,3.07367954,4.55454420,602,963,1428,294,522,806,0.93951199,1.66527533,2.57199044,0.20705320,0.28432028,0.40303267
1059,0,USAlabamaFranklin,Alabama,Franklin,2021-01-06 05:16:04.171863,2020-07-12 00:00:00.000000,1.97108988,3.10056288,4.60165375,618,972,1443,298,526,803,0.95293261,1.67743898,2.56320493,0.20931933,0.28703097,0.40690036
1059,0,USAlabamaFranklin,Alabama,Franklin,2021-01-06 05:16:04.171863,2020-07-13 00:00:00.000000,2.02188167,3.13795473,4.64801118,634,984,1457,303,529,802,0.96841199,1.68718596,2.55805328,0.21274267,0.29441669,0.41077224
1059,0,USAlabamaFranklin,Alabama,Franklin,2021-01-06 05:16:04.171863,2020-07-14 00:00:00.000000,2.07444136,3.18488422,4.69409925,650,998,1472,309,539,804,0.98631870,1.71900278,2.56536049,0.20751889,0.29698154,0.41877953
1059,0,USAlabamaFranklin,Alabama,Franklin,2021-01-06 05:16:04.171863,2020-07-15 00:00:00.000000,2.12863064,3.25095552,4.73990573,667,1019,1486,316,545,808,1.00765061,1.73782295,2.57832369,0.20921810,0.29855252,0.43431467
1059,0,USAlabamaFranklin,Alabama,Franklin,2021-01-06 05:16:04.171863,2020-07-16 00:00:00.000000,2.18463311,3.28055139,4.78800523,685,1028,1501,323,546,821,1.03282657,1.74295378,2.61826061,0.21404203,0.29916585,0.43148913
1059,0,USAlabamaFranklin,Alabama,Franklin,2021-01-06 05:16:04.171863,2020-07-17 00:00:00.000000,2.24292545,3.33457804,4.86224493,703,1045,1524,332,552,834,1.06155588,1.76267766,2.66187235,0.21979193,0.30108613,0.43350104
1059,0,USAlabamaFranklin,Alabama,Franklin,2021-01-06 05:16:04.171863,2020-07-18 00:00:00.000000,2.30528373,3.41588542,4.88867943,722,1071,1533,342,563,847,1.09308023,1.79692428,2.70141889,0.22062128,0.30179491,0.43939508
1059,0,USAlabamaFranklin,Alabama,Franklin,2021-01-06 05:16:04.171863,2020-07-19 00:00:00.000000,2.34470618,3.48868305,4.89541566,735,1094,1535,348,574,860,1.11094963,1.83199822,2.74497540,0.22283372,0.30510838,0.44151970
1059,0,USAlabamaFranklin,Alabama,Franklin,2021-01-06 05:16:04.171863,2020-07-20 00:00:00.000000,2.36013460,3.53721457,4.91310341,740,1109,1540,354,585,880,1.12879744,1.86539217,2.80653047,0.22457073,0.30654867,0.44214723
1059,0,USAlabamaFranklin,Alabama,Franklin,2021-01-06 05:16:04.171863,2020-07-21 00:00:00.000000,2.37730934,3.58938435,4.93215534,745,1125,1546,360,594,890,1.14873357,1.89692958,2.84025034,0.22280899,0.30795858,0.44334002
1059,0,USAlabamaFranklin,Alabama,Franklin,2021-01-06 05:16:04.171863,2020-07-22 00:00:00.000000,2.39374327,3.64906228,4.95248148,750,1144,1553,366,604,897,1.17018391,1.92638040,2.86313751,0.22470342,0.31282509,0.44085994
1059,0,USAlabamaFranklin,Alabama,Franklin,2021-01-06 05:16:04.171863,2020-07-23 00:00:00.000000,2.43857601,3.71995283,4.97476389,764,1166,1560,374,615,904,1.19293473,1.96209248,2.88439331,0.22478320,0.30918656,0.44882029
1059,0,USAlabamaFranklin,Alabama,Franklin,2021-01-06 05:16:04.171863,2020-07-24 00:00:00.000000,2.51948830,3.79184684,5.00186543,790,1189,1568,381,628,911,1.21675515,2.00277941,2.90675870,0.22162756,0.30894686,0.45537169
1059,0,USAlabamaFranklin,Alabama,Franklin,2021-01-06 05:16:04.171863,2020-07-25 00:00:00.000000,2.53975933,3.83255333,5.03892998,796,1201,1580,389,638,923,1.24103007,2.03469428,2.94315896,0.21925956,0.31418747,0.45480012
1059,0,USAlabamaFranklin,Alabama,Franklin,2021-01-06 05:16:04.171863,2020-07-26 00:00:00.000000,2.53498335,3.89475920,5.08913972,795,1221,1596,396,647,934,1.26510250,2.06415140,2.97960309,0.21753685,0.31648086,0.44030882
1059,0,USAlabamaFranklin,Alabama,Franklin,2021-01-06 05:16:04.171863,2020-07-27 00:00:00.000000,2.53100175,3.94426692,5.14654987,793,1237,1614,404,664,945,1.28820268,2.11900890,3.01589009,0.21648813,0.31645758,0.43958313
1059,0,USAlabamaFranklin,Alabama,Franklin,2021-01-06 05:16:04.171863,2020-07-28 00:00:00.000000,2.57658060,3.99192942,5.20852718,808,1251,1633,411,681,957,1.31071116,2.17441917,3.05172352,0.21601223,0.31415467,0.43800235
1059,0,USAlabamaFranklin,Alabama,Franklin,2021-01-06 05:16:04.171863,2020-07-29 00:00:00.000000,2.62348255,4.01959913,5.27138661,822,1260,1653,418,693,968,1.33304101,2.21062398,3.08705493,0.21589574,0.30948857,0.43514635
1059,0,USAlabamaFranklin,Alabama,Franklin,2021-01-06 05:16:04.171863,2020-07-30 00:00:00.000000,2.63079179,4.03226983,5.35097697,825,1264,1678,425,699,979,1.35589763,2.23020918,3.12178246,0.21609831,0.31004803,0.43027878
1059,0,USAlabamaFranklin,Alabama,Franklin,2021-01-06 05:16:04.171863,2020-07-31 00:00:00.000000,2.63949636,4.04791298,5.41330361,827,1269,1697,427,706,989,1.36314589,2.25378595,3.15516990,0.21678821,0.29951731,0.42490324
1059,0,USAlabamaFranklin,Alabama,Franklin,2021-01-06 05:16:04.171863,2020-08-01 00:00:00.000000,2.65048402,4.07045093,5.44290167,831,1276,1707,432,716,999,1.37751383,2.28591982,3.18719407,0.22023826,0.29870793,0.41975099
1059,0,USAlabamaFranklin,Alabama,Franklin,2021-01-06 05:16:04.171863,2020-08-02 00:00:00.000000,2.66320012,4.13866979,5.48474293,835,1297,1720,441,727,1016,1.40934676,2.31986440,3.24214635,0.22270450,0.29763841,0.41572792
1059,0,USAlabamaFranklin,Alabama,Franklin,2021-01-06 05:16:04.171863,2020-08-03 00:00:00.000000,2.66995637,4.19180294,5.51069928,837,1314,1728,451,735,1035,1.44010145,2.34656781,3.30324517,0.22344377,0.29972831,0.40503292
1059,0,USAlabamaFranklin,Alabama,Franklin,2021-01-06 05:16:04.171863,2020-08-04 00:00:00.000000,2.67784165,4.20958615,5.52379728,839,1320,1732,461,742,1055,1.47094280,2.36859021,3.36504173,0.22337956,0.28946985,0.39020533
1059,0,USAlabamaFranklin,Alabama,Franklin,2021-01-06 05:16:04.171863,2020-08-05 00:00:00.000000,2.68635590,4.23150629,5.52688608,842,1327,1733,468,741,1066,1.49531285,2.36384855,3.40131124,0.22661959,0.28493875,0.39039674
1059,0,USAlabamaFranklin,Alabama,Franklin,2021-01-06 05:16:04.171863,2020-08-06 00:00:00.000000,2.72304177,4.26710749,5.55295113,854,1338,1741,472,748,1070,1.50774948,2.38514921,3.41220811,0.21377953,0.28630889,0.38795024
1059,0,USAlabamaFranklin,Alabama,Franklin,2021-01-06 05:16:04.171863,2020-08-07 00:00:00.000000,2.77573494,4.29973408,5.58235592,870,1348,1750,470,757,1073,1.50179802,2.41566303,3.42304644,0.20713617,0.28571520,0.38076948
1059,0,USAlabamaFranklin,Alabama,Franklin,2021-01-06 05:16:04.171863,2020-08-08 00:00:00.000000,2.83183999,4.30767659,5.61887882,888,1350,1762,468,761,1076,1.49245478,2.42952312,3.43202415,0.20485115,0.28347087,0.37925348
1059,0,USAlabamaFranklin,Alabama,Franklin,2021-01-06 05:16:04.171863,2020-08-09 00:00:00.000000,2.89102127,4.31580371,5.65002444,906,1353,1771,464,764,1077,1.47999355,2.43613936,3.43693469,0.19989436,0.28242564,0.38016859
1059,0,USAlabamaFranklin,Alabama,Franklin,2021-01-06 05:16:04.171863,2020-08-10 00:00:00.000000,2.91949855,4.34542207,5.69219445,915,1362,1785,461,765,1078,1.47154242,2.43958710,3.43989061,0.19859025,0.28441381,0.39133460
1059,0,USAlabamaFranklin,Alabama,Franklin,2021-01-06 05:16:04.171863,2020-08-11 00:00:00.000000,2.92714198,4.35231078,5.73175037,918,1364,1797,465,760,1089,1.48329436,2.42638088,3.47392875,0.18692895,0.28329131,0.39048148
1059,0,USAlabamaFranklin,Alabama,Franklin,2021-01-06 05:16:04.171863,2020-08-12 00:00:00.000000,2.95061738,4.31735598,5.75856333,925,1354,1806,468,762,1099,1.49535040,2.42985830,3.50616382,0.18736844,0.28086432,0.38780593
1059,0,USAlabamaFranklin,Alabama,Franklin,2021-01-06 05:16:04.171863,2020-08-13 00:00:00.000000,2.96251323,4.30372920,5.76559003,929,1349,1808,468,759,1107,1.49495767,2.42195083,3.53059140,0.18840749,0.28094570,0.38384610
1059,0,USAlabamaFranklin,Alabama,Franklin,2021-01-06 05:16:04.171863,2020-08-14 00:00:00.000000,2.97216524,4.26816071,5.74650822,932,1338,1802,463,762,1112,1.47860593,2.43209420,3.54596705,0.18840261,0.27894870,0.37852601
1059,0,USAlabamaFranklin,Alabama,Franklin,2021-01-06 05:16:04.171863,2020-08-15 00:00:00.000000,2.97753973,4.25214619,5.74913678,933,1333,1803,459,768,1114,1.46625099,2.44968099,3.55356549,0.18477592,0.27613577,0.37188602
1059,0,USAlabamaFranklin,Alabama,Franklin,2021-01-06 05:16:04.171863,2020-08-16 00:00:00.000000,2.97788922,4.22718584,5.76190158,933,1325,1807,457,770,1115,1.45815689,2.45714676,3.55675466,0.18036254,0.27645602,0.36426982
1059,0,USAlabamaFranklin,Alabama,Franklin,2021-01-06 05:16:04.171863,2020-08-17 00:00:00.000000,2.97116939,4.20998301,5.77597947,931,1320,1811,455,768,1116,1.45328858,2.44966554,3.55931784,0.17958426,0.26907776,0.35818970
1059,0,USAlabamaFranklin,Alabama,Franklin,2021-01-06 05:16:04.171863,2020-08-18 00:00:00.000000,2.95956111,4.14764600,5.80117685,928,1300,1819,454,759,1120,1.45058331,2.42263748,3.57377298,0.17786067,0.26006044,0.35294371
1059,0,USAlabamaFranklin,Alabama,Franklin,2021-01-06 05:16:04.171863,2020-08-19 00:00:00.000000,2.92895386,4.11429793,5.80952860,918,1290,1821,454,754,1135,1.44911210,2.40418605,3.62196739,0.17347042,0.25190429,0.34339878
1059,0,USAlabamaFranklin,Alabama,Franklin,2021-01-06 05:16:04.171863,2020-08-20 00:00:00.000000,2.89473197,4.05995143,5.90717732,907,1273,1852,454,747,1143,1.44814298,2.38444395,3.64671684,0.16983221,0.24694457,0.34618661
1059,0,USAlabamaFranklin,Alabama,Franklin,2021-01-06 05:16:04.171863,2020-08-21 00:00:00.000000,2.88776639,4.03649277,5.90435258,905,1265,1851,453,741,1144,1.44710214,2.36359398,3.64958538,0.17038494,0.24301440,0.34629286
1059,0,USAlabamaFranklin,Alabama,Franklin,2021-01-06 05:16:04.171863,2020-08-22 00:00:00.000000,2.87833311,4.02693920,5.88596140,902,1262,1845,453,739,1140,1.44529292,2.35859663,3.63541757,0.16635114,0.24077047,0.34621070
1059,0,USAlabamaFranklin,Alabama,Franklin,2021-01-06 05:16:04.171863,2020-08-23 00:00:00.000000,2.85836513,3.97436070,5.86493093,896,1246,1839,452,729,1142,1.44201777,2.32568754,3.64274280,0.16196824,0.23793421,0.34455996
1059,0,USAlabamaFranklin,Alabama,Franklin,2021-01-06 05:16:04.171863,2020-08-24 00:00:00.000000,2.86283348,3.90369082,5.83884979,897,1224,1831,450,720,1159,1.43667286,2.29858422,3.69836971,0.16188325,0.23474936,0.37095343
1059,0,USAlabamaFranklin,Alabama,Franklin,2021-01-06 05:16:04.171863,2020-08-25 00:00:00.000000,2.86028826,3.86154910,5.80440112,897,1211,1820,448,708,1176,1.43019785,2.25974097,3.74994816,0.15851019,0.23305809,0.37219074
1059,0,USAlabamaFranklin,Alabama,Franklin,2021-01-06 05:16:04.171863,2020-08-26 00:00:00.000000,2.84509378,3.81481473,5.75260858,892,1196,1804,446,695,1189,1.42214077,2.21898926,3.79391920,0.15591243,0.23436929,0.37178939
1059,0,USAlabamaFranklin,Alabama,Franklin,2021-01-06 05:16:04.171863,2020-08-27 00:00:00.000000,2.79454900,3.78543898,5.67291895,876,1187,1779,438,690,1201,1.39896035,2.20234789,3.82957465,0.15559395,0.23279481,0.36954377
1059,0,USAlabamaFranklin,Alabama,Franklin,2021-01-06 05:16:04.171863,2020-08-28 00:00:00.000000,2.72536196,3.77288420,5.56770615,854,1183,1746,428,685,1209,1.36719929,2.18613999,3.85783375,0.15577626,0.23195384,0.35912411
1059,0,USAlabamaFranklin,Alabama,Franklin,2021-01-06 05:16:04.171863,2020-08-29 00:00:00.000000,2.66013517,3.70901818,5.45080206,834,1163,1709,420,678,1204,1.34177161,2.16328020,3.84017407,0.15617435,0.23151585,0.33640297
1059,0,USAlabamaFranklin,Alabama,Franklin,2021-01-06 05:16:04.171863,2020-08-30 00:00:00.000000,2.59819674,3.62208467,5.32955328,814,1135,1671,421,667,1188,1.34531432,2.12934989,3.78812492,0.15449126,0.23164502,0.33658594
1059,0,USAlabamaFranklin,Alabama,Franklin,2021-01-06 05:16:04.171863,2020-08-31 00:00:00.000000,2.54352239,3.57196209,5.20622960,797,1120,1632,419,660,1169,1.33872124,2.10574984,3.72773076,0.15325182,0.23163044,0.33659185
1059,0,USAlabamaFranklin,Alabama,Franklin,2021-01-06 05:16:04.171863,2020-09-01 00:00:00.000000,2.49055359,3.50474030,5.08188807,781,1099,1593,411,650,1147,1.31053326,2.07390623,3.65992148,0.15347583,0.23256290,0.33658061
1059,0,USAlabamaFranklin,Alabama,Franklin,2021-01-06 05:16:04.171863,2020-09-02 00:00:00.000000,2.44000101,3.43800394,4.95681777,765,1078,1554,402,638,1124,1.28441513,2.03650093,3.58688916,0.15464704,0.23139017,0.33655756
1059,0,USAlabamaFranklin,Alabama,Franklin,2021-01-06 05:16:04.171863,2020-09-03 00:00:00.000000,2.39145723,3.35765034,4.83113142,750,1053,1515,395,629,1100,1.25999946,2.00682452,3.51060335,0.15456160,0.23066353,0.33649600
1059,0,USAlabamaFranklin,Alabama,Franklin,2021-01-06 05:16:04.171863,2020-09-04 00:00:00.000000,2.34533989,3.27991338,4.76498637,735,1028,1494,387,620,1076,1.23697895,1.97729014,3.43192848,0.15400545,0.22985204,0.33617176
1059,0,USAlabamaFranklin,Alabama,Franklin,2021-01-06 05:16:04.171863,2020-09-05 00:00:00.000000,2.30260536,3.21193056,4.75606596,722,1007,1491,381,609,1051,1.21514166,1.94378754,3.35147468,0.15226900,0.22949576,0.33870648
1059,0,USAlabamaFranklin,Alabama,Franklin,2021-01-06 05:16:04.171863,2020-09-06 00:00:00.000000,2.26431531,3.16089458,4.74340765,710,991,1487,374,599,1025,1.19436915,1.91165394,3.26968217,0.14996586,0.22863960,0.34043881
1059,0,USAlabamaFranklin,Alabama,Franklin,2021-01-06 05:16:04.171863,2020-09-07 00:00:00.000000,2.24778548,3.11977358,4.69612665,704,978,1472,368,592,1003,1.17439259,1.89021741,3.19887254,0.14073849,0.23011024,0.34394285
1059,0,USAlabamaFranklin,Alabama,Franklin,2021-01-06 05:16:04.171863,2020-09-08 00:00:00.000000,2.23486738,3.07946469,4.58255714,700,965,1437,362,584,989,1.15473997,1.86273215,3.15468161,0.13880612,0.23491639,0.34867023
1059,0,USAlabamaFranklin,Alabama,Franklin,2021-01-06 05:16:04.171863,2020-09-09 00:00:00.000000,2.19180239,3.04981948,4.47616112,687,956,1403,354,574,974,1.13028665,1.83039720,3.10783377,0.13879655,0.23351327,0.35122431
1059,0,USAlabamaFranklin,Alabama,Franklin,2021-01-06 05:16:04.171863,2020-09-10 00:00:00.000000,2.14441581,3.03055730,4.38080663,672,950,1373,346,565,959,1.10489114,1.80410716,3.05847070,0.13914273,0.23663310,0.35368580
1059,0,USAlabamaFranklin,Alabama,Franklin,2021-01-06 05:16:04.171863,2020-09-11 00:00:00.000000,2.10154470,3.00349056,4.29759775,659,941,1347,339,558,942,1.08395977,1.78177615,3.00669110,0.14685053,0.24006005,0.35538905
1059,0,USAlabamaFranklin,Alabama,Franklin,2021-01-06 05:16:04.171863,2020-09-12 00:00:00.000000,2.06450115,2.96267804,4.26496220,647,929,1337,336,549,925,1.07145848,1.75092887,2.95259952,0.15783303,0.24330299,0.35647711
1059,0,USAlabamaFranklin,Alabama,Franklin,2021-01-06 05:16:04.171863,2020-09-13 00:00:00.000000,2.03351495,2.95024721,4.28979490,637,925,1345,331,539,908,1.05846069,1.72148804,2.89634435,0.16279925,0.24257724,0.35712389
1059,0,USAlabamaFranklin,Alabama,Franklin,2021-01-06 05:16:04.171863,2020-09-14 00:00:00.000000,2.00441038,2.91399983,4.30789991,628,913,1351,327,530,890,1.04319588,1.69267434,2.83814961,0.15981573,0.24821301,0.35740176
1059,0,USAlabamaFranklin,Alabama,Franklin,2021-01-06 05:16:04.171863,2020-09-15 00:00:00.000000,1.97864440,2.86897356,4.30162823,620,899,1349,321,521,885,1.02598193,1.66252435,2.82252246,0.15743480,0.25409761,0.35598020
1059,0,USAlabamaFranklin,Alabama,Franklin,2021-01-06 05:16:04.171863,2020-09-16 00:00:00.000000,1.93812313,2.84476338,4.21952944,607,892,1323,315,512,874,1.00743862,1.63416010,2.78850060,0.16517927,0.25875387,0.35207743
1059,0,USAlabamaFranklin,Alabama,Franklin,2021-01-06 05:16:04.171863,2020-09-17 00:00:00.000000,1.89148645,2.81613882,4.13966200,593,883,1298,308,506,860,0.98345664,1.61531590,2.74333077,0.16671226,0.26196123,0.35324762
1059,0,USAlabamaFranklin,Alabama,Franklin,2021-01-06 05:16:04.171863,2020-09-18 00:00:00.000000,1.85369168,2.78754064,4.06271941,581,874,1274,300,501,846,0.95907507,1.59757551,2.70059085,0.18182894,0.26668439,0.36060060
1059,0,USAlabamaFranklin,Alabama,Franklin,2021-01-06 05:16:04.171863,2020-09-19 00:00:00.000000,1.83270523,2.76083894,3.98935356,574,865,1251,296,495,834,0.94446378,1.57996675,2.66015942,0.18598464,0.27643989,0.37496131
1059,0,USAlabamaFranklin,Alabama,Franklin,2021-01-06 05:16:04.171863,2020-09-20 00:00:00.000000,1.81945487,2.73556345,3.92176588,570,857,1229,292,490,822,0.93265928,1.56513873,2.62283212,0.18713939,0.28385180,0.40257475
1059,0,USAlabamaFranklin,Alabama,Franklin,2021-01-06 05:16:04.171863,2020-09-21 00:00:00.000000,1.80423936,2.72212777,3.86819436,565,853,1213,288,490,812,0.92129701,1.56449243,2.59056075,0.18748680,0.28847883,0.44380797
1059,0,USAlabamaFranklin,Alabama,Franklin,2021-01-06 05:16:04.171863,2020-09-22 00:00:00.000000,1.77068380,2.72701565,3.82911566,555,855,1200,285,491,803,0.91191664,1.56859816,2.56340528,0.18790143,0.30377479,0.45353923
1059,0,USAlabamaFranklin,Alabama,Franklin,2021-01-06 05:16:04.171863,2020-09-23 00:00:00.000000,1.74271949,2.74990224,3.80818690,546,862,1194,283,494,796,0.90399939,1.57746980,2.54126819,0.18959926,0.30945457,0.45864199
1059,0,USAlabamaFranklin,Alabama,Franklin,2021-01-06 05:16:04.171863,2020-09-24 00:00:00.000000,1.75580020,2.76633850,3.84906532,550,867,1207,281,495,791,0.89744106,1.58071597,2.52356465,0.19701797,0.31036950,0.46325844
1059,0,USAlabamaFranklin,Alabama,Franklin,2021-01-06 05:16:04.171863,2020-09-25 00:00:00.000000,1.76363434,2.77089331,3.89216355,553,869,1220,280,493,787,0.89316560,1.57310035,2.51007673,0.20580146,0.31619619,0.46866202
1059,0,USAlabamaFranklin,Alabama,Franklin,2021-01-06 05:16:04.171863,2020-09-26 00:00:00.000000,1.75676119,2.80626740,3.93645620,550,880,1234,279,492,784,0.89240115,1.57017167,2.50127947,0.21396315,0.33184196,0.47529099
1059,0,USAlabamaFranklin,Alabama,Franklin,2021-01-06 05:16:04.171863,2020-09-27 00:00:00.000000,1.75123363,2.79678432,3.98100611,549,877,1248,280,494,783,0.89552233,1.57618187,2.49691109,0.22033351,0.34040552,0.50464909
1059,0,USAlabamaFranklin,Alabama,Franklin,2021-01-06 05:16:04.171863,2020-09-28 00:00:00.000000,1.74686255,2.85587716,4.03247421,547,895,1264,282,494,782,0.90226103,1.57522323,2.49647472,0.22467326,0.35206295,0.54125052
1059,0,USAlabamaFranklin,Alabama,Franklin,2021-01-06 05:16:04.171863,2020-09-29 00:00:00.000000,1.74302510,2.90546070,4.08337367,546,911,1280,285,496,784,0.91110656,1.58459494,2.50065831,0.23012209,0.35692787,0.55167558
1059,0,USAlabamaFranklin,Alabama,Franklin,2021-01-06 05:16:04.171863,2020-09-30 00:00:00.000000,1.73984115,2.94131847,4.13386534,545,922,1296,289,497,786,0.92152036,1.58612641,2.50854492,0.23875872,0.36929893,0.55402872
1059,0,USAlabamaFranklin,Alabama,Franklin,2021-01-06 05:16:04.171863,2020-10-01 00:00:00.000000,1.73795330,2.96100875,4.20529731,545,928,1318,292,502,790,0.93303484,1.60150060,2.51944849,0.24638543,0.37957000,0.55461337
1059,0,USAlabamaFranklin,Alabama,Franklin,2021-01-06 05:16:04.171863,2020-10-02 00:00:00.000000,1.74070062,3.00102371,4.28625430,545,941,1344,296,506,794,0.94534098,1.61365336,2.53306795,0.25394156,0.38505463,0.57028293
1059,0,USAlabamaFranklin,Alabama,Franklin,2021-01-06 05:16:04.171863,2020-10-03 00:00:00.000000,1.76443392,3.03437208,4.35593072,553,951,1366,301,513,805,0.96216163,1.63886039,2.56884957,0.27526006,0.38735401,0.60311326
1059,0,USAlabamaFranklin,Alabama,Franklin,2021-01-06 05:16:04.171863,2020-10-04 00:00:00.000000,1.77975393,3.07579611,4.41680926,558,964,1385,310,520,818,0.98891349,1.66070478,2.61045635,0.28850745,0.40581654,0.60487987
1059,0,USAlabamaFranklin,Alabama,Franklin,2021-01-06 05:16:04.171863,2020-10-05 00:00:00.000000,1.83180795,3.15120881,4.47087294,574,988,1402,320,525,831,1.02257888,1.67682969,2.65251164,0.30846498,0.41814200,0.60827797
1059,0,USAlabamaFranklin,Alabama,Franklin,2021-01-06 05:16:04.171863,2020-10-06 00:00:00.000000,1.89327242,3.22292218,4.52218024,593,1010,1418,332,531,844,1.06138118,1.69566578,2.69403232,0.31873721,0.42070930,0.60435688
1059,0,USAlabamaFranklin,Alabama,Franklin,2021-01-06 05:16:04.171863,2020-10-07 00:00:00.000000,1.96022559,3.27788222,4.57176928,614,1028,1433,346,543,857,1.10395287,1.73266625,2.73398688,0.31657783,0.42361355,0.60333071
1059,0,USAlabamaFranklin,Alabama,Franklin,2021-01-06 05:16:04.171863,2020-10-08 00:00:00.000000,2.03030133,3.34987906,4.63243124,636,1050,1452,356,552,868,1.13805539,1.76045828,2.76979533,0.32471045,0.43137485,0.60152387
1059,0,USAlabamaFranklin,Alabama,Franklin,2021-01-06 05:16:04.171863,2020-10-09 00:00:00.000000,2.10247220,3.41948347,4.75531536,659,1072,1491,365,563,879,1.16494994,1.79564022,2.80318016,0.32830909,0.43811987,0.59848631
1059,0,USAlabamaFranklin,Alabama,Franklin,2021-01-06 05:16:04.171863,2020-10-10 00:00:00.000000,2.17637611,3.48313863,4.80772796,682,1092,1507,372,577,900,1.18800922,1.84196270,2.87096800,0.34045683,0.44463021,0.59912491
1059,0,USAlabamaFranklin,Alabama,Franklin,2021-01-06 05:16:04.171863,2020-10-11 00:00:00.000000,2.25233621,3.54350651,4.94938764,706,1111,1552,380,592,922,1.21418740,1.89049646,2.94271713,0.34813635,0.45612785,0.60519801
1059,0,USAlabamaFranklin,Alabama,Franklin,2021-01-06 05:16:04.171863,2020-10-12 00:00:00.000000,2.30314211,3.60328985,5.08702737,722,1130,1595,390,608,946,1.24396894,1.94065602,3.01744649,0.34350894,0.46449987,0.61845093
1059,0,USAlabamaFranklin,Alabama,Franklin,2021-01-06 05:16:04.171863,2020-10-13 00:00:00.000000,2.36093609,3.66737296,5.21473355,740,1150,1635,398,627,970,1.27172739,1.99999820,3.09310824,0.34278758,0.46211623,0.61779578
1059,0,USAlabamaFranklin,Alabama,Franklin,2021-01-06 05:16:04.171863,2020-10-14 00:00:00.000000,2.42267138,3.74696444,5.32390254,759,1175,1669,403,642,993,1.28705175,2.04773870,3.16936738,0.34164639,0.46512355,0.61964201
1059,0,USAlabamaFranklin,Alabama,Franklin,2021-01-06 05:16:04.171863,2020-10-15 00:00:00.000000,2.48636859,3.83374005,5.42986196,779,1202,1702,408,653,1016,1.30182784,2.08257030,3.24126643,0.34221412,0.46959795,0.61723021
1059,0,USAlabamaFranklin,Alabama,Franklin,2021-01-06 05:16:04.171863,2020-10-16 00:00:00.000000,2.55374975,3.93779916,5.53340263,800,1234,1735,415,664,1027,1.32436371,2.11939431,3.27484479,0.34084959,0.46553142,0.62106376
1059,0,USAlabamaFranklin,Alabama,Franklin,2021-01-06 05:16:04.171863,2020-10-17 00:00:00.000000,2.63732475,4.03690010,5.63429532,827,1266,1767,424,677,1045,1.35430779,2.15929916,3.33373667,0.33419222,0.46997657,0.62717472
1059,0,USAlabamaFranklin,Alabama,Franklin,2021-01-06 05:16:04.171863,2020-10-18 00:00:00.000000,2.74398984,4.11961302,5.73382972,860,1291,1798,435,690,1065,1.38983875,2.20100514,3.39746292,0.32198116,0.47541211,0.63900782
1059,0,USAlabamaFranklin,Alabama,Franklin,2021-01-06 05:16:04.171863,2020-10-19 00:00:00.000000,2.85951822,4.21276731,5.87266926,896,1321,1841,448,703,1084,1.42949265,2.24315146,3.45668623,0.31175454,0.47652531,0.64146175
1059,0,USAlabamaFranklin,Alabama,Franklin,2021-01-06 05:16:04.171863,2020-10-20 00:00:00.000000,2.96244027,4.31985307,5.99211142,929,1354,1879,461,717,1100,1.47293015,2.28858926,3.51047504,0.30790687,0.47734388,0.64821230
1059,0,USAlabamaFranklin,Alabama,Franklin,2021-01-06 05:16:04.171863,2020-10-21 00:00:00.000000,3.04631929,4.39675174,6.11696957,955,1378,1918,476,732,1116,1.51951373,2.33519287,3.55858771,0.30760935,0.47345944,0.65313760
1059,0,USAlabamaFranklin,Alabama,Franklin,2021-01-06 05:16:04.171863,2020-10-22 00:00:00.000000,3.09822864,4.47264932,6.21232520,971,1402,1948,489,751,1129,1.56229411,2.39576761,3.60096271,0.30799418,0.46696042,0.65968682
1059,0,USAlabamaFranklin,Alabama,Franklin,2021-01-06 05:16:04.171863,2020-10-23 00:00:00.000000,3.13278486,4.54592945,6.29190816,982,1425,1973,500,773,1145,1.59697311,2.46663230,3.65385645,0.30878679,0.46231097,0.64882062
1059,0,USAlabamaFranklin,Alabama,Franklin,2021-01-06 05:16:04.171863,2020-10-24 00:00:00.000000,3.18519620,4.63670160,6.35877625,998,1454,1994,512,784,1159,1.63340567,2.50198865,3.69720166,0.31996770,0.45355230,0.65572926
1059,0,USAlabamaFranklin,Alabama,Franklin,2021-01-06 05:16:04.171863,2020-10-25 00:00:00.000000,3.22126829,4.69717617,6.41170666,1010,1473,2010,523,798,1172,1.66972451,2.54703311,3.74014870,0.32050061,0.44257758,0.66446372
1059,0,USAlabamaFranklin,Alabama,Franklin,2021-01-06 05:16:04.171863,2020-10-26 00:00:00.000000,3.26400231,4.72658406,6.52419549,1023,1482,2046,534,814,1187,1.70375042,2.59590342,3.78595252,0.31069228,0.43563543,0.64656273
1059,0,USAlabamaFranklin,Alabama,Franklin,2021-01-06 05:16:04.171863,2020-10-27 00:00:00.000000,3.32162738,4.74738565,6.62664901,1041,1488,2078,543,829,1202,1.73253496,2.64632182,3.83472696,0.31098749,0.42906721,0.62479217
1059,0,USAlabamaFranklin,Alabama,Franklin,2021-01-06 05:16:04.171863,2020-10-28 00:00:00.000000,3.38868949,4.81883375,6.70935797,1062,1511,2104,550,836,1226,1.75514160,2.66854007,3.91099248,0.31132931,0.41532502,0.60983163
1059,0,USAlabamaFranklin,Alabama,Franklin,2021-01-06 05:16:04.171863,2020-10-29 00:00:00.000000,3.45861681,4.86747662,6.77046774,1084,1526,2123,555,844,1248,1.77125538,2.69421343,3.98172015,0.30869681,0.40892047,0.58824105
1059,0,USAlabamaFranklin,Alabama,Franklin,2021-01-06 05:16:04.171863,2020-10-30 00:00:00.000000,3.52673799,4.92096972,6.81222300,1106,1543,2136,558,854,1269,1.78066360,2.72448795,4.04727975,0.30328166,0.39731318,0.57214404
1059,0,USAlabamaFranklin,Alabama,Franklin,2021-01-06 05:16:04.171863,2020-10-31 00:00:00.000000,3.60359926,4.93556880,6.83924814,1130,1547,2144,559,861,1288,1.78331249,2.74765343,4.10802877,0.30320342,0.39324275,0.54570399
1059,0,USAlabamaFranklin,Alabama,Franklin,2021-01-06 05:16:04.171863,2020-11-01 00:00:00.000000,3.62617223,4.96065321,6.85585752,1137,1555,2150,558,867,1306,1.78138994,2.76658883,4.16430325,0.29269296,0.39048131,0.53559381
1059,0,USAlabamaFranklin,Alabama,Franklin,2021-01-06 05:16:04.171863,2020-11-02 00:00:00.000000,3.60834188,4.95985304,6.86267059,1131,1555,2152,560,876,1322,1.78858017,2.79484881,4.21640960,0.28972565,0.38140638,0.52764495
1059,0,USAlabamaFranklin,Alabama,Franklin,2021-01-06 05:16:04.171863,2020-11-03 00:00:00.000000,3.58753629,4.89781706,6.89967533,1125,1536,2163,557,879,1338,1.77633433,2.80396086,4.26673966,0.28009898,0.37766374,0.51583727
1059,0,USAlabamaFranklin,Alabama,Franklin,2021-01-06 05:16:04.171863,2020-11-04 00:00:00.000000,3.56523623,4.90404105,6.96313882,1118,1538,2183,553,877,1353,1.76350815,2.79685790,4.31490494,0.27511647,0.37970910,0.51408407
1059,0,USAlabamaFranklin,Alabama,Franklin,2021-01-06 05:16:04.171863,2020-11-05 00:00:00.000000,3.54219293,4.92057678,7.02489974,1110,1543,2203,549,881,1367,1.75105788,2.81046446,4.36083609,0.27422314,0.38605579,0.51101013
1059,0,USAlabamaFranklin,Alabama,Franklin,2021-01-06 05:16:04.171863,2020-11-06 00:00:00.000000,3.51991694,4.91725423,7.08851103,1103,1542,2223,545,882,1381,1.74056808,2.81300290,4.40490646,0.27484969,0.39260654,0.51489516
1059,0,USAlabamaFranklin,Alabama,Franklin,2021-01-06 05:16:04.171863,2020-11-07 00:00:00.000000,3.50542624,4.90038856,7.03917970,1099,1536,2207,543,881,1395,1.73188791,2.81156567,4.44813461,0.27729829,0.39599045,0.54187760
1059,0,USAlabamaFranklin,Alabama,Franklin,2021-01-06 05:16:04.171863,2020-11-08 00:00:00.000000,3.51883714,4.87434808,6.99115845,1103,1528,2192,540,878,1398,1.72442653,2.80020977,4.45847205,0.27811266,0.40362754,0.54823836
1059,0,USAlabamaFranklin,Alabama,Franklin,2021-01-06 05:16:04.171863,2020-11-09 00:00:00.000000,3.51766211,4.85478011,6.97051242,1103,1522,2186,535,877,1399,1.70820762,2.79929025,4.46387311,0.27635911,0.40920686,0.55631925
1059,0,USAlabamaFranklin,Alabama,Franklin,2021-01-06 05:16:04.171863,2020-11-10 00:00:00.000000,3.50096853,4.88281491,6.96491030,1097,1531,2184,528,877,1403,1.68569885,2.79682205,4.47625431,0.27314162,0.42000515,0.58510768
1059,0,USAlabamaFranklin,Alabama,Franklin,2021-01-06 05:16:04.171863,2020-11-11 00:00:00.000000,3.47222577,4.92356610,6.99148111,1088,1544,2192,523,874,1409,1.66771686,2.78698700,4.49479060,0.27340042,0.42555331,0.59493058
1059,0,USAlabamaFranklin,Alabama,Franklin,2021-01-06 05:16:04.171863,2020-11-12 00:00:00.000000,3.42128541,4.98418967,7.03395129,1072,1563,2205,519,876,1416,1.65560617,2.79607848,4.51709656,0.29922553,0.43477451,0.59323492
1059,0,USAlabamaFranklin,Alabama,Franklin,2021-01-06 05:16:04.171863,2020-11-13 00:00:00.000000,3.37284523,5.05303169,7.07281568,1057,1584,2218,517,879,1424,1.64906460,2.80290237,4.54117533,0.30934984,0.45609613,0.61402069
1059,0,USAlabamaFranklin,Alabama,Franklin,2021-01-06 05:16:04.171863,2020-11-14 00:00:00.000000,3.37403092,5.10366861,7.10948728,1058,1600,2229,516,886,1431,1.64807013,2.82779883,4.56569429,0.31325171,0.46867138,0.65144592
1059,0,USAlabamaFranklin,Alabama,Franklin,2021-01-06 05:16:04.171863,2020-11-15 00:00:00.000000,3.33862901,5.12884268,7.15378351,1047,1608,2243,518,896,1439,1.65306150,2.85797424,4.59004289,0.31598711,0.48145198,0.66095814
1059,0,USAlabamaFranklin,Alabama,Franklin,2021-01-06 05:16:04.171863,2020-11-16 00:00:00.000000,3.32210563,5.15001536,7.24453235,1041,1615,2272,521,903,1446,1.66440330,2.88088358,4.61368476,0.31689280,0.49491515,0.67122808
1059,0,USAlabamaFranklin,Alabama,Franklin,2021-01-06 05:16:04.171863,2020-11-17 00:00:00.000000,3.32105498,5.22253676,7.37570034,1041,1637,2313,527,905,1454,1.68141000,2.88831870,4.63645243,0.31773321,0.50118070,0.69268819
1059,0,USAlabamaFranklin,Alabama,Franklin,2021-01-06 05:16:04.171863,2020-11-18 00:00:00.000000,3.33314436,5.30930473,7.53003848,1045,1665,2361,534,909,1460,1.70555700,2.90061986,4.65761645,0.32821993,0.50588635,0.71522859
1059,0,USAlabamaFranklin,Alabama,Franklin,2021-01-06 05:16:04.171863,2020-11-19 00:00:00.000000,3.36745663,5.36167491,7.63092866,1056,1681,2393,545,913,1466,1.73914984,2.91168976,4.67666040,0.34273869,0.52204652,0.72400824
1059,0,USAlabamaFranklin,Alabama,Franklin,2021-01-06 05:16:04.171863,2020-11-20 00:00:00.000000,3.42626580,5.36451088,7.62486414,1074,1682,2391,557,924,1471,1.77665198,2.94741629,4.69326014,0.36167698,0.53069675,0.76395625
1059,0,USAlabamaFranklin,Alabama,Franklin,2021-01-06 05:16:04.171863,2020-11-21 00:00:00.000000,3.46302296,5.41873023,7.75888362,1086,1699,2433,570,938,1476,1.81853748,2.99290680,4.70733465,0.36821225,0.54634402,0.79802299
1059,0,USAlabamaFranklin,Alabama,Franklin,2021-01-06 05:16:04.171863,2020-11-22 00:00:00.000000,3.53849451,5.48816310,7.90227197,1109,1721,2478,582,948,1491,1.85845262,3.02323052,4.75578822,0.37196274,0.56427591,0.85745862
1059,0,USAlabamaFranklin,Alabama,Franklin,2021-01-06 05:16:04.171863,2020-11-23 00:00:00.000000,3.63527505,5.58352829,7.90853296,1140,1751,2480,587,957,1521,1.87177188,3.05203973,4.85036738,0.39615575,0.57903330,0.86656007
1059,0,USAlabamaFranklin,Alabama,Franklin,2021-01-06 05:16:04.171863,2020-11-24 00:00:00.000000,3.74827605,5.66490028,8.01037214,1175,1776,2512,596,978,1553,1.90172712,3.12042467,4.95494703,0.40053672,0.59574426,0.89405016
1059,0,USAlabamaFranklin,Alabama,Franklin,2021-01-06 05:16:04.171863,2020-11-25 00:00:00.000000,3.87265077,5.78401758,8.14952231,1214,1813,2555,608,1001,1583,1.94050302,3.19417830,5.04787356,0.41011685,0.61938523,0.90207032
1059,0,USAlabamaFranklin,Alabama,Franklin,2021-01-06 05:16:04.171863,2020-11-26 00:00:00.000000,3.95710893,5.97009751,8.38690580,1241,1872,2630,621,1024,1584,1.98149158,3.26546771,5.05340860,0.41123888,0.63438846,0.91349408
1059,0,USAlabamaFranklin,Alabama,Franklin,2021-01-06 05:16:04.171863,2020-11-27 00:00:00.000000,4.03351480,6.16239723,8.67324291,1264,1932,2720,632,1037,1586,2.01564726,3.30888818,5.05837903,0.42653606,0.63449031,0.91951878
1059,0,USAlabamaFranklin,Alabama,Franklin,2021-01-06 05:16:04.171863,2020-11-28 00:00:00.000000,4.17623849,6.35610498,8.93528188,1309,1993,2802,649,1049,1608,2.07155233,3.34736425,5.12970727,0.44491215,0.64578346,0.92576760
1059,0,USAlabamaFranklin,Alabama,Franklin,2021-01-06 05:16:04.171863,2020-11-29 00:00:00.000000,4.32856877,6.45745171,9.17842315,1357,2025,2878,665,1068,1649,2.12300120,3.40590300,5.25870370,0.44354030,0.64819957,0.93784688
1059,0,USAlabamaFranklin,Alabama,Franklin,2021-01-06 05:16:04.171863,2020-11-30 00:00:00.000000,4.47810349,6.54962760,9.40962149,1404,2054,2951,682,1097,1690,2.17685660,3.49801977,5.38968110,0.44159895,0.65729359,0.95658264
1059,0,USAlabamaFranklin,Alabama,Franklin,2021-01-06 05:16:04.171863,2020-12-01 00:00:00.000000,4.61112409,6.70801819,9.63030880,1446,2103,3020,700,1126,1731,2.23396478,3.59306042,5.51948371,0.43949323,0.67104553,0.97539295
1059,0,USAlabamaFranklin,Alabama,Franklin,2021-01-06 05:16:04.171863,2020-12-02 00:00:00.000000,4.72836894,6.83689228,9.84187763,1482,2144,3086,718,1158,1770,2.29224866,3.69261805,5.64646462,0.43874345,0.66845611,0.98115844
1059,0,USAlabamaFranklin,Alabama,Franklin,2021-01-06 05:16:04.171863,2020-12-03 00:00:00.000000,4.78357012,6.94193268,10.04377245,1500,2177,3149,736,1177,1809,2.34943940,3.75391740,5.76832511,0.42435851,0.64854032,1.02155053
1059,0,USAlabamaFranklin,Alabama,Franklin,2021-01-06 05:16:04.171863,2020-12-04 00:00:00.000000,4.85746835,7.04234955,10.23470006,1523,2208,3209,753,1201,1844,2.40330964,3.82998186,5.88186121,0.41919312,0.64359249,1.06205492
1059,0,USAlabamaFranklin,Alabama,Franklin,2021-01-06 05:16:04.171863,2020-12-05 00:00:00.000000,4.92836429,7.16883583,10.41174302,1545,2248,3265,769,1234,1876,2.45235351,3.93500791,5.98442327,0.41372009,0.63468199,1.07021763
1059,0,USAlabamaFranklin,Alabama,Franklin,2021-01-06 05:16:04.171863,2020-12-06 00:00:00.000000,4.99731911,7.28360699,10.59596677,1567,2284,3323,782,1266,1905,2.49614726,4.03674624,6.07538097,0.41472036,0.63538730,1.09006566
1059,0,USAlabamaFranklin,Alabama,Franklin,2021-01-06 05:16:04.171863,2020-12-07 00:00:00.000000,5.05603797,7.34599986,10.76751461,1585,2303,3376,794,1283,1929,2.53322066,4.09389235,6.15372588,0.41788952,0.62311661,1.14341678
1059,0,USAlabamaFranklin,Alabama,Franklin,2021-01-06 05:16:04.171863,2020-12-08 00:00:00.000000,5.09886123,7.41550642,10.90351683,1599,2325,3419,790,1292,1951,2.51972874,4.11965050,6.22160304,0.41630678,0.62419923,1.16001319
1059,0,USAlabamaFranklin,Alabama,Franklin,2021-01-06 05:16:04.171863,2020-12-09 00:00:00.000000,5.12199619,7.50968491,11.02378224,1606,2355,3457,786,1296,1969,2.50832786,4.13376934,6.27937482,0.41295872,0.62331212,1.15478123
1059,0,USAlabamaFranklin,Alabama,Franklin,2021-01-06 05:16:04.171863,2020-12-10 00:00:00.000000,5.13064828,7.60760817,11.12777328,1609,2385,3489,793,1298,1987,2.52907844,4.14193131,6.33618065,0.40247027,0.62309773,1.14202266
1059,0,USAlabamaFranklin,Alabama,Franklin,2021-01-06 05:16:04.171863,2020-12-11 00:00:00.000000,5.14597682,7.66614394,11.21503398,1613,2404,3517,805,1311,2005,2.56866557,4.18052231,6.39311765,0.40002924,0.62651186,1.19829241
1059,0,USAlabamaFranklin,Alabama,Franklin,2021-01-06 05:16:04.171863,2020-12-12 00:00:00.000000,5.11328383,7.69946064,11.28519557,1603,2414,3539,809,1319,2017,2.58086434,4.20837985,6.43450791,0.39844172,0.62590431,1.16752126
1059,0,USAlabamaFranklin,Alabama,Franklin,2021-01-06 05:16:04.171863,2020-12-13 00:00:00.000000,5.09056277,7.73278375,11.33798554,1596,2425,3555,828,1328,2027,2.64127426,4.23705007,6.46400834,0.39155005,0.62789552,1.13804966
1059,0,USAlabamaFranklin,Alabama,Franklin,2021-01-06 05:16:04.171863,2020-12-14 00:00:00.000000,5.14199712,7.70170053,11.37669338,1612,2415,3567,843,1330,2033,2.69099939,4.24091950,6.48403774,0.38529880,0.63464972,1.12350590
1059,0,USAlabamaFranklin,Alabama,Franklin,2021-01-06 05:16:04.171863,2020-12-15 00:00:00.000000,5.23436061,7.66235882,11.39788801,1641,2403,3574,849,1330,2052,2.70774207,4.24284027,6.54558199,0.38881668,0.63636648,1.12740913
1059,0,USAlabamaFranklin,Alabama,Franklin,2021-01-06 05:16:04.171863,2020-12-16 00:00:00.000000,5.32407896,7.67473348,11.40189798,1669,2406,3575,854,1336,2070,2.72385021,4.26272119,6.60284028,0.39758666,0.63166578,1.13419468
1059,0,USAlabamaFranklin,Alabama,Franklin,2021-01-06 05:16:04.171863,2020-12-17 00:00:00.000000,5.34780170,7.68707193,11.38855916,1677,2410,3571,859,1354,2091,2.73986337,4.31913556,6.66886607,0.40368221,0.63854068,1.14920002
1059,0,USAlabamaFranklin,Alabama,Franklin,2021-01-06 05:16:04.171863,2020-12-18 00:00:00.000000,5.31577324,7.77802148,11.35789230,1667,2439,3562,864,1366,2110,2.75648978,4.35843495,6.72964386,0.40044031,0.64120072,1.16263726
1059,0,USAlabamaFranklin,Alabama,Franklin,2021-01-06 05:16:04.171863,2020-12-19 00:00:00.000000,5.28177181,7.84224730,11.31020676,1656,2459,3547,869,1368,2126,2.77353465,4.36484167,6.78075073,0.37894977,0.65441325,1.18363044
1059,0,USAlabamaFranklin,Alabama,Franklin,2021-01-06 05:16:04.171863,2020-12-20 00:00:00.000000,5.25344408,7.85175853,11.24590668,1647,2462,3526,875,1367,2139,2.79049847,4.36154319,6.82109189,0.37599994,0.65835206,1.21612334
1059,0,USAlabamaFranklin,Alabama,Franklin,2021-01-06 05:16:04.171863,2020-12-21 00:00:00.000000,5.25657568,7.80178811,11.17718244,1648,2446,3505,880,1372,2148,2.80681989,4.37632189,6.84998576,0.37759711,0.65399268,1.26324217
1059,0,USAlabamaFranklin,Alabama,Franklin,2021-01-06 05:16:04.171863,2020-12-22 00:00:00.000000,5.30634279,7.66357959,11.09292331,1664,2403,3478,883,1378,2153,2.81730688,4.39552600,6.86674300,0.37758021,0.65079647,1.27422715
1059,0,USAlabamaFranklin,Alabama,Franklin,2021-01-06 05:16:04.171863,2020-12-23 00:00:00.000000,5.36955183,7.61843962,10.96661306,1683,2389,3439,879,1377,2154,2.80411742,4.39197680,6.87092797,0.37668753,0.65438211,1.33492477
1059,0,USAlabamaFranklin,Alabama,Franklin,2021-01-06 05:16:04.171863,2020-12-24 00:00:00.000000,5.34937745,7.60418628,10.88256784,1677,2384,3412,874,1366,2152,2.78804906,4.35663631,6.86234064,0.37497661,0.65316265,1.36298910
1059,0,USAlabamaFranklin,Alabama,Franklin,2021-01-06 05:16:04.171863,2020-12-25 00:00:00.000000,5.32031738,7.57695697,10.76022947,1668,2376,3374,868,1361,2145,2.76919749,4.34098599,6.84097370,0.37207795,0.65726416,1.39411817
1059,0,USAlabamaFranklin,Alabama,Franklin,2021-01-06 05:16:04.171863,2020-12-26 00:00:00.000000,5.28447864,7.55006013,10.62522449,1657,2367,3332,861,1357,2134,2.74749790,4.32969218,6.80698071,0.37240932,0.66206494,1.42031335
1059,0,USAlabamaFranklin,Alabama,Franklin,2021-01-06 05:16:04.171863,2020-12-27 00:00:00.000000,5.23868278,7.49085005,10.47827889,1642,2349,3286,853,1352,2120,2.72267627,4.31214170,6.76065128,0.38165315,0.68042142,1.43332276
1059,0,USAlabamaFranklin,Alabama,Franklin,2021-01-06 05:16:04.171863,2020-12-28 00:00:00.000000,5.17314491,7.38292518,10.30189643,1622,2315,3230,844,1349,2104,2.69420672,4.30317653,6.71100843,0.38192366,0.68452994,1.45658722
1059,0,USAlabamaFranklin,Alabama,Franklin,2021-01-06 05:16:04.171863,2020-12-29 00:00:00.000000,5.09494951,7.30722984,10.11527533,1597,2291,3172,834,1347,2099,2.66022060,4.29515010,6.69533742,0.37889548,0.68729912,1.45410804
1059,0,USAlabamaFranklin,Alabama,Franklin,2021-01-06 05:16:04.171863,2020-12-30 00:00:00.000000,5.00418654,7.24825630,10.12048236,1569,2273,3173,821,1344,2091,2.62048750,4.28759798,6.66901019,0.37727630,0.68882039,1.44495119
1059,0,USAlabamaFranklin,Alabama,Franklin,2021-01-06 05:16:04.171863,2020-12-31 00:00:00.000000,4.90305425,7.19206594,10.18812682,1537,2255,3195,807,1341,2079,2.57511034,4.27848702,6.63188194,0.37567794,0.69719601,1.45099449
1059,0,USAlabamaFranklin,Alabama,Franklin,2021-01-06 05:16:04.171863,2021-01-01 00:00:00.000000,4.79463052,7.06937745,10.24409925,1503,2217,3212,791,1333,2050,2.52475423,4.25055560,6.53853426,0.37240128,0.69598306,1.48530210
1059,0,USAlabamaFranklin,Alabama,Franklin,2021-01-06 05:16:04.171863,2021-01-02 00:00:00.000000,4.68273281,6.98981671,10.21896178,1468,2192,3204,775,1330,2006,2.47134909,4.24168837,6.39700012,0.36467704,0.70089250,1.48440364
1059,0,USAlabamaFranklin,Alabama,Franklin,2021-01-06 05:16:04.171863,2021-01-03 00:00:00.000000,4.57044191,6.93836495,10.33618590,1433,2176,3241,758,1311,1959,2.41773525,4.18103175,6.24949586,0.35098530,0.71285140,1.47981637
1059,0,USAlabamaFranklin,Alabama,Franklin,2021-01-06 05:16:04.171863,2021-01-04 00:00:00.000000,4.45731168,6.85259121,10.13594063,1397,2149,3178,741,1286,1943,2.36408609,4.10191983,6.19802613,0.33678981,0.71746168,1.52034930
1059,0,USAlabamaFranklin,Alabama,Franklin,2021-01-06 05:16:04.171863,2021-01-05 00:00:00.000000,4.34117913,6.79893531,9.88796212,1361,2132,3101,724,1275,1938,2.31027784,4.06605746,6.17998188,0.32838514,0.72084820,1.61319921
1059,0,USAlabamaFranklin,Alabama,Franklin,2021-01-06 05:16:04.171863,2021-01-06 00:00:00.000000,4.18920422,6.72063778,9.63468479,1313,2107,3021,706,1249,1929,2.25258004,3.98394295,6.15388768,0.32494267,0.72282953,1.61805509
1059,0,USAlabamaFranklin,Alabama,Franklin,2021-01-06 05:16:04.171863,2021-01-07 00:00:00.000000,4.11627548,6.62807290,9.46131868,1290,2078,2967,685,1227,1913,2.18609805,3.91540334,6.10227994,0.32374940,0.72383508,1.61791591
1059,0,USAlabamaFranklin,Alabama,Franklin,2021-01-06 05:16:04.171863,2021-01-08 00:00:00.000000,4.00281363,6.49997612,9.42047480,1255,2038,2954,670,1212,1896,2.13780283,3.86462255,6.04661522,0.32335979,0.72430841,1.61782274
1059,0,USAlabamaFranklin,Alabama,Franklin,2021-01-06 05:16:04.171863,2021-01-09 00:00:00.000000,3.89123425,6.38401084,9.36554743,1220,2002,2937,655,1195,1892,2.08880264,3.81123636,6.03592698,0.32323482,0.72452329,1.61629735
1059,0,USAlabamaFranklin,Alabama,Franklin,2021-01-06 05:16:04.171863,2021-01-10 00:00:00.000000,3.65904343,6.18467023,9.29642622,1147,1939,2915,622,1177,1875,1.98647893,3.75535640,5.98060288,0.32319482,0.72461923,1.61489383
1059,0,USAlabamaFranklin,Alabama,Franklin,2021-01-06 05:16:04.171863,2021-01-11 00:00:00.000000,3.43598963,6.01063419,9.21319889,1077,1885,2889,588,1162,1842,1.87748569,3.70707369,5.87446785,0.32318193,0.72466174,1.61408485
1059,0,USAlabamaFranklin,Alabama,Franklin,2021-01-06 05:16:04.171863,2021-01-12 00:00:00.000000,3.22366723,5.90809043,9.11614047,1011,1852,2859,555,1140,1820,1.77088589,3.63671180,5.80530816,0.32317772,0.72468052,1.61362236
1059,0,USAlabamaFranklin,Alabama,Franklin,2021-01-06 05:16:04.171863,2021-01-13 00:00:00.000000,3.04538184,5.80599013,9.00569146,955,1820,2824,524,1121,1797,1.67275660,3.57555134,5.73036023,0.32317631,0.72468881,1.61335923
1059,0,USAlabamaFranklin,Alabama,Franklin,2021-01-06 05:16:04.171863,2021-01-14 00:00:00.000000,2.94660785,5.64896369,8.88243213,924,1771,2785,501,1107,1771,1.59858602,3.53126963,5.64989461,0.32317582,0.72469246,1.61320996
1059,0,USAlabamaFranklin,Alabama,Franklin,2021-01-06 05:16:04.171863,2021-01-15 00:00:00.000000,2.85417533,5.49256103,8.74705693,895,1722,2743,479,1087,1745,1.52780400,3.46622118,5.56423393,0.32317563,0.72469407,1.61312544
1059,0,USAlabamaFranklin,Alabama,Franklin,2021-01-06 05:16:04.171863,2021-01-16 00:00:00.000000,2.76370637,5.36188600,8.60035104,866,1681,2697,457,1062,1716,1.46011597,3.38808162,5.47373843,0.32317556,0.72469477,1.61307764
1059,0,USAlabamaFranklin,Alabama,Franklin,2021-01-06 05:16:04.171863,2021-01-17 00:00:00.000000,2.67522669,5.18285993,8.44316925,839,1625,2647,442,1035,1686,1.40950238,3.30076129,5.37879447,0.32317553,0.72469509,1.61305064
