FIPS,HR_UID,nameid,province,region,analysisTime,dates,pointprevalence_025,pointprevalence_50,pointprevalence_975,pointinfections_025,pointinfections_50,pointinfections_975,pointinfectious_025,pointinfectious_50,pointinfectious_975,pointinfectiousprevalence_05,pointinfectiousprevalence_50,pointinfectiousprevalence_95,infectrate_025,infectrate_50,infectrate_975
26025,0,USMichiganCalhoun,Michigan,Calhoun,2021-01-05 19:45:53.078179,2020-03-09 00:00:00.000000,0.00322725,0.00766373,0.02121950,4,10,28,1,4,13,0.00096445,0.00298783,0.00974093,0.48933273,0.66678536,0.91430181
26025,0,USMichiganCalhoun,Michigan,Calhoun,2021-01-05 19:45:53.078179,2020-03-10 00:00:00.000000,0.00475724,0.01063841,0.02488789,6,14,33,1,4,13,0.00122173,0.00333004,0.01035030,0.48933296,0.66678541,0.91424187
26025,0,USMichiganCalhoun,Michigan,Calhoun,2021-01-05 19:45:53.078179,2020-03-11 00:00:00.000000,0.00624274,0.01381169,0.02873956,8,18,38,2,5,15,0.00164251,0.00415197,0.01145205,0.48933376,0.66436597,0.91410703
26025,0,USMichiganCalhoun,Michigan,Calhoun,2021-01-05 19:45:53.078179,2020-03-12 00:00:00.000000,0.00750602,0.01637651,0.03286883,10,21,44,2,7,17,0.00207302,0.00545094,0.01290717,0.48933652,0.66433921,0.91378962
26025,0,USMichiganCalhoun,Michigan,Calhoun,2021-01-05 19:45:53.078179,2020-03-13 00:00:00.000000,0.00857929,0.01909182,0.03735840,11,25,50,3,9,19,0.00264141,0.00673298,0.01463865,0.48934602,0.66428701,0.91301653
26025,0,USMichiganCalhoun,Michigan,Calhoun,2021-01-05 19:45:53.078179,2020-03-14 00:00:00.000000,0.00973845,0.02270437,0.04436517,13,30,59,4,11,22,0.00324674,0.00829471,0.01681962,0.48937870,0.66418612,0.91109378
26025,0,USMichiganCalhoun,Michigan,Calhoun,2021-01-05 19:45:53.078179,2020-03-15 00:00:00.000000,0.01127967,0.02643541,0.05304358,15,35,71,5,13,26,0.00386192,0.01002690,0.02003631,0.48949094,0.66296428,0.90629335
26025,0,USMichiganCalhoun,Michigan,Calhoun,2021-01-05 19:45:53.078179,2020-03-16 00:00:00.000000,0.01462559,0.03084214,0.05808710,19,41,77,6,15,30,0.00461905,0.01190290,0.02266368,0.48987472,0.66193446,0.89860415
26025,0,USMichiganCalhoun,Michigan,Calhoun,2021-01-05 19:45:53.078179,2020-03-17 00:00:00.000000,0.01796678,0.03641718,0.06979805,24,48,93,7,18,34,0.00589184,0.01372286,0.02562317,0.49117138,0.66107062,0.89399429
26025,0,USMichiganCalhoun,Michigan,Calhoun,2021-01-05 19:45:53.078179,2020-03-18 00:00:00.000000,0.02160949,0.04150456,0.07714110,28,55,103,9,21,39,0.00725695,0.01624287,0.02915604,0.49556349,0.65826651,0.89246555
26025,0,USMichiganCalhoun,Michigan,Calhoun,2021-01-05 19:45:53.078179,2020-03-19 00:00:00.000000,0.02483703,0.04815691,0.08609813,33,64,115,11,25,43,0.00864403,0.01902387,0.03261996,0.49961064,0.65465343,0.89013535
26025,0,USMichiganCalhoun,Michigan,Calhoun,2021-01-05 19:45:53.078179,2020-03-20 00:00:00.000000,0.02918913,0.05638160,0.09991201,39,75,134,13,29,49,0.01035088,0.02182223,0.03692215,0.48215565,0.64162957,0.87186855
26025,0,USMichiganCalhoun,Michigan,Calhoun,2021-01-05 19:45:53.078179,2020-03-21 00:00:00.000000,0.03307977,0.06315852,0.11555267,44,84,155,16,33,60,0.01203398,0.02493931,0.04475553,0.45666706,0.62069217,0.86903100
26025,0,USMichiganCalhoun,Michigan,Calhoun,2021-01-05 19:45:53.078179,2020-03-22 00:00:00.000000,0.03684265,0.06936579,0.13225648,49,93,177,18,38,67,0.01366531,0.02838965,0.05040861,0.44335746,0.60548185,0.82085191
26025,0,USMichiganCalhoun,Michigan,Calhoun,2021-01-05 19:45:53.078179,2020-03-23 00:00:00.000000,0.04109193,0.07956036,0.14818151,55,106,198,20,43,79,0.01541982,0.03239834,0.05889235,0.44093812,0.59612526,0.79602886
26025,0,USMichiganCalhoun,Michigan,Calhoun,2021-01-05 19:45:53.078179,2020-03-24 00:00:00.000000,0.04537312,0.08934441,0.16377132,60,119,219,23,49,91,0.01743181,0.03666321,0.06833783,0.43767940,0.59460820,0.80677430
26025,0,USMichiganCalhoun,Michigan,Calhoun,2021-01-05 19:45:53.078179,2020-03-25 00:00:00.000000,0.05152527,0.09964776,0.18078710,69,133,242,26,55,104,0.01995590,0.04150825,0.07815057,0.44039099,0.57801466,0.81503630
26025,0,USMichiganCalhoun,Michigan,Calhoun,2021-01-05 19:45:53.078179,2020-03-26 00:00:00.000000,0.05864984,0.11040610,0.19933002,78,148,267,30,62,116,0.02267926,0.04650922,0.08651661,0.43444598,0.55881286,0.81899044
26025,0,USMichiganCalhoun,Michigan,Calhoun,2021-01-05 19:45:53.078179,2020-03-27 00:00:00.000000,0.06644342,0.12240932,0.21755123,89,164,291,34,68,130,0.02576250,0.05111779,0.09694443,0.42176455,0.54860595,0.82558316
26025,0,USMichiganCalhoun,Michigan,Calhoun,2021-01-05 19:45:53.078179,2020-03-28 00:00:00.000000,0.07471020,0.13439588,0.23594108,100,180,316,39,76,145,0.02920756,0.05694224,0.10874218,0.40948226,0.53742888,0.82834244
26025,0,USMichiganCalhoun,Michigan,Calhoun,2021-01-05 19:45:53.078179,2020-03-29 00:00:00.000000,0.08333736,0.14838532,0.26615599,111,199,357,44,85,162,0.03304269,0.06368433,0.12117653,0.39756817,0.52843247,0.82937371
26025,0,USMichiganCalhoun,Michigan,Calhoun,2021-01-05 19:45:53.078179,2020-03-30 00:00:00.000000,0.08846813,0.16103456,0.29375371,118,216,394,50,93,179,0.03727296,0.06993291,0.13401524,0.38890899,0.51503212,0.82968167
26025,0,USMichiganCalhoun,Michigan,Calhoun,2021-01-05 19:45:53.078179,2020-03-31 00:00:00.000000,0.09469850,0.17455483,0.32171452,127,234,431,55,102,197,0.04135362,0.07644447,0.14709949,0.37289642,0.50259371,0.82363780
26025,0,USMichiganCalhoun,Michigan,Calhoun,2021-01-05 19:45:53.078179,2020-04-01 00:00:00.000000,0.10435360,0.19018143,0.34708329,139,255,465,60,112,213,0.04517837,0.08349233,0.15903868,0.36864803,0.48531028,0.79452136
26025,0,USMichiganCalhoun,Michigan,Calhoun,2021-01-05 19:45:53.078179,2020-04-02 00:00:00.000000,0.11472235,0.20445271,0.36886719,153,274,494,64,122,229,0.04796836,0.09098166,0.17098392,0.36536877,0.47170435,0.79223596
26025,0,USMichiganCalhoun,Michigan,Calhoun,2021-01-05 19:45:53.078179,2020-04-03 00:00:00.000000,0.12533332,0.22039227,0.38783096,168,295,520,69,131,247,0.05213501,0.09790739,0.18420695,0.33662500,0.45742523,0.78791997
26025,0,USMichiganCalhoun,Michigan,Calhoun,2021-01-05 19:45:53.078179,2020-04-04 00:00:00.000000,0.13609534,0.23917826,0.40908753,182,320,548,76,140,263,0.05730258,0.10469691,0.19617017,0.30968311,0.44171347,0.78445319
26025,0,USMichiganCalhoun,Michigan,Calhoun,2021-01-05 19:45:53.078179,2020-04-05 00:00:00.000000,0.14733338,0.25822334,0.42739746,197,346,573,83,150,280,0.06239287,0.11249534,0.20923273,0.29427584,0.41824801,0.78252703
26025,0,USMichiganCalhoun,Michigan,Calhoun,2021-01-05 19:45:53.078179,2020-04-06 00:00:00.000000,0.16192781,0.27625938,0.44533433,217,370,597,89,162,298,0.06642982,0.12079975,0.22239926,0.28585964,0.40423648,0.77763526
26025,0,USMichiganCalhoun,Michigan,Calhoun,2021-01-05 19:45:53.078179,2020-04-07 00:00:00.000000,0.17731490,0.29179439,0.46307192,237,391,621,96,174,316,0.07216325,0.12987262,0.23565561,0.28394099,0.38462250,0.73443458
26025,0,USMichiganCalhoun,Michigan,Calhoun,2021-01-05 19:45:53.078179,2020-04-08 00:00:00.000000,0.18662648,0.31218464,0.48025602,250,418,644,104,188,334,0.07826506,0.14017279,0.24910805,0.27891486,0.37012188,0.70469236
26025,0,USMichiganCalhoun,Michigan,Calhoun,2021-01-05 19:45:53.078179,2020-04-09 00:00:00.000000,0.19136829,0.33208942,0.49642049,256,445,665,113,199,352,0.08444087,0.14857112,0.26285126,0.27289159,0.35544112,0.64763023
26025,0,USMichiganCalhoun,Michigan,Calhoun,2021-01-05 19:45:53.078179,2020-04-10 00:00:00.000000,0.19866429,0.34868442,0.51098880,266,467,685,121,214,371,0.09055946,0.15968206,0.27690496,0.26174971,0.34430118,0.61273272
26025,0,USMichiganCalhoun,Michigan,Calhoun,2021-01-05 19:45:53.078179,2020-04-11 00:00:00.000000,0.20483932,0.36390224,0.52360100,274,488,702,128,228,390,0.09605579,0.17025496,0.29114363,0.24294323,0.33826000,0.54156702
26025,0,USMichiganCalhoun,Michigan,Calhoun,2021-01-05 19:45:53.078179,2020-04-12 00:00:00.000000,0.21066951,0.37922604,0.53705844,282,508,720,135,241,406,0.10084635,0.17989567,0.30291044,0.23120523,0.33107412,0.48156920
26025,0,USMichiganCalhoun,Michigan,Calhoun,2021-01-05 19:45:53.078179,2020-04-13 00:00:00.000000,0.21489947,0.39553401,0.56152852,288,530,753,141,255,417,0.10510771,0.19044634,0.31144391,0.21776022,0.32310859,0.42145055
26025,0,USMichiganCalhoun,Michigan,Calhoun,2021-01-05 19:45:53.078179,2020-04-14 00:00:00.000000,0.21896366,0.41000882,0.57544686,293,550,772,145,267,427,0.10870792,0.19907352,0.31866182,0.20267029,0.29901506,0.41243286
26025,0,USMichiganCalhoun,Michigan,Calhoun,2021-01-05 19:45:53.078179,2020-04-15 00:00:00.000000,0.22391063,0.41936956,0.59288376,300,562,795,150,279,435,0.11244807,0.20819723,0.32482567,0.19274997,0.28406182,0.40257077
26025,0,USMichiganCalhoun,Michigan,Calhoun,2021-01-05 19:45:53.078179,2020-04-16 00:00:00.000000,0.23017098,0.42883576,0.60054431,308,575,805,157,290,451,0.11737686,0.21640403,0.33672874,0.19053669,0.27038537,0.40126798
26025,0,USMichiganCalhoun,Michigan,Calhoun,2021-01-05 19:45:53.078179,2020-04-17 00:00:00.000000,0.23604288,0.43889061,0.60091957,316,588,806,163,300,467,0.12213446,0.22421006,0.34860904,0.18137528,0.25993293,0.40039853
26025,0,USMichiganCalhoun,Michigan,Calhoun,2021-01-05 19:45:53.078179,2020-04-18 00:00:00.000000,0.23806338,0.44855066,0.61353357,319,601,823,166,308,481,0.12384274,0.22994421,0.35925731,0.16887463,0.25138838,0.39126552
26025,0,USMichiganCalhoun,Michigan,Calhoun,2021-01-05 19:45:53.078179,2020-04-19 00:00:00.000000,0.23814992,0.45830145,0.62582406,319,614,839,166,316,495,0.12376221,0.23558099,0.36902219,0.16331907,0.23581785,0.38138344
26025,0,USMichiganCalhoun,Michigan,Calhoun,2021-01-05 19:45:53.078179,2020-04-20 00:00:00.000000,0.23797521,0.46434137,0.63914703,319,622,857,166,325,507,0.12380629,0.24249505,0.37818761,0.16184626,0.22889273,0.37380113
26025,0,USMichiganCalhoun,Michigan,Calhoun,2021-01-05 19:45:53.078179,2020-04-21 00:00:00.000000,0.23776770,0.47067453,0.63924465,318,631,857,167,332,512,0.12521767,0.24782641,0.38209877,0.15682815,0.22624236,0.38240488
26025,0,USMichiganCalhoun,Michigan,Calhoun,2021-01-05 19:45:53.078179,2020-04-22 00:00:00.000000,0.24332513,0.47156236,0.65947203,326,632,884,169,339,509,0.12613127,0.25321739,0.38001783,0.15015126,0.22372576,0.38140668
26025,0,USMichiganCalhoun,Michigan,Calhoun,2021-01-05 19:45:53.078179,2020-04-23 00:00:00.000000,0.25216831,0.47153120,0.65919666,338,632,884,169,344,519,0.12669997,0.25713234,0.38694893,0.14674069,0.21948187,0.37545038
26025,0,USMichiganCalhoun,Michigan,Calhoun,2021-01-05 19:45:53.078179,2020-04-24 00:00:00.000000,0.25384550,0.46965435,0.66845752,340,630,896,170,349,521,0.12703358,0.26085109,0.38898169,0.14084728,0.21272939,0.34651916
26025,0,USMichiganCalhoun,Michigan,Calhoun,2021-01-05 19:45:53.078179,2020-04-25 00:00:00.000000,0.25550780,0.46830981,0.67430715,342,628,904,173,355,524,0.12905502,0.26468470,0.39074868,0.13680333,0.20134452,0.30652200
26025,0,USMichiganCalhoun,Michigan,Calhoun,2021-01-05 19:45:53.078179,2020-04-26 00:00:00.000000,0.25716104,0.46858107,0.70129558,345,628,940,174,358,526,0.12982647,0.26750787,0.39225995,0.13335418,0.19521969,0.27634993
26025,0,USMichiganCalhoun,Michigan,Calhoun,2021-01-05 19:45:53.078179,2020-04-27 00:00:00.000000,0.25805504,0.46566598,0.70259507,346,624,942,176,360,527,0.13177709,0.26873765,0.39343291,0.13230304,0.18865117,0.26198948
26025,0,USMichiganCalhoun,Michigan,Calhoun,2021-01-05 19:45:53.078179,2020-04-28 00:00:00.000000,0.25153614,0.45608867,0.70319896,337,611,943,178,360,539,0.13268430,0.26901635,0.40209015,0.13103464,0.18352011,0.26021501
26025,0,USMichiganCalhoun,Michigan,Calhoun,2021-01-05 19:45:53.078179,2020-04-29 00:00:00.000000,0.24481655,0.45240057,0.70318927,328,606,943,178,360,558,0.13287438,0.26858005,0.41659352,0.12795019,0.18204283,0.25675808
26025,0,USMichiganCalhoun,Michigan,Calhoun,2021-01-05 19:45:53.078179,2020-04-30 00:00:00.000000,0.23822509,0.45006428,0.70283667,319,603,942,177,357,574,0.13257580,0.26671256,0.42844572,0.12347985,0.18121494,0.25350158
26025,0,USMichiganCalhoun,Michigan,Calhoun,2021-01-05 19:45:53.078179,2020-05-01 00:00:00.000000,0.23283822,0.44840085,0.70205990,312,601,941,177,353,586,0.13194672,0.26327766,0.43695653,0.12110944,0.17974171,0.25113855
26025,0,USMichiganCalhoun,Michigan,Calhoun,2021-01-05 19:45:53.078179,2020-05-02 00:00:00.000000,0.23230750,0.44577042,0.70061222,311,598,939,175,348,593,0.13109176,0.26006344,0.44220573,0.11963841,0.17714706,0.24774485
26025,0,USMichiganCalhoun,Michigan,Calhoun,2021-01-05 19:45:53.078179,2020-05-03 00:00:00.000000,0.23190563,0.44205182,0.69847940,311,593,937,174,345,596,0.13007103,0.25733272,0.44452623,0.12036975,0.17054810,0.24059983
26025,0,USMichiganCalhoun,Michigan,Calhoun,2021-01-05 19:45:53.078179,2020-05-04 00:00:00.000000,0.22745889,0.43695271,0.69543291,305,586,932,172,342,596,0.12889671,0.25502402,0.44436147,0.12069443,0.16696085,0.23696619
26025,0,USMichiganCalhoun,Michigan,Calhoun,2021-01-05 19:45:53.078179,2020-05-05 00:00:00.000000,0.22457170,0.43067126,0.69204521,301,577,928,169,339,593,0.12657179,0.25270113,0.44212151,0.11971426,0.16581383,0.23685418
26025,0,USMichiganCalhoun,Michigan,Calhoun,2021-01-05 19:45:53.078179,2020-05-06 00:00:00.000000,0.22612925,0.42394902,0.68846116,303,568,923,167,335,588,0.12510119,0.25002830,0.43829056,0.11917244,0.16551277,0.23698035
26025,0,USMichiganCalhoun,Michigan,Calhoun,2021-01-05 19:45:53.078179,2020-05-07 00:00:00.000000,0.22247131,0.42003804,0.68473073,298,563,918,167,331,581,0.12504869,0.24731306,0.43328821,0.12114209,0.16651635,0.23714465
26025,0,USMichiganCalhoun,Michigan,Calhoun,2021-01-05 19:45:53.078179,2020-05-08 00:00:00.000000,0.21768416,0.41555731,0.68075093,292,557,913,165,328,573,0.12353614,0.24449323,0.42746292,0.12223433,0.16321289,0.24165752
26025,0,USMichiganCalhoun,Michigan,Calhoun,2021-01-05 19:45:53.078179,2020-05-09 00:00:00.000000,0.21294369,0.41246601,0.67585768,285,553,906,163,324,564,0.12195161,0.24160813,0.42108534,0.11931303,0.16483184,0.25000131
26025,0,USMichiganCalhoun,Michigan,Calhoun,2021-01-05 19:45:53.078179,2020-05-10 00:00:00.000000,0.20827068,0.40718845,0.66339374,279,546,890,161,320,555,0.12033513,0.23904047,0.41434563,0.11443507,0.16239846,0.25070979
26025,0,USMichiganCalhoun,Michigan,Calhoun,2021-01-05 19:45:53.078179,2020-05-11 00:00:00.000000,0.20363830,0.40476582,0.65290605,273,543,875,159,317,553,0.11870095,0.23635319,0.41221645,0.11185983,0.16230206,0.25215696
26025,0,USMichiganCalhoun,Michigan,Calhoun,2021-01-05 19:45:53.078179,2020-05-12 00:00:00.000000,0.20088951,0.40157613,0.66020374,269,538,885,157,315,563,0.11766805,0.23505775,0.42012063,0.11069002,0.16256750,0.25264919
26025,0,USMichiganCalhoun,Michigan,Calhoun,2021-01-05 19:45:53.078179,2020-05-13 00:00:00.000000,0.20391599,0.39464888,0.65453815,273,529,878,156,313,568,0.11688777,0.23357406,0.42338156,0.11055476,0.16211709,0.25263150
26025,0,USMichiganCalhoun,Michigan,Calhoun,2021-01-05 19:45:53.078179,2020-05-14 00:00:00.000000,0.20719187,0.38885585,0.64716283,277,521,868,155,308,561,0.11603464,0.23006270,0.41819164,0.11212358,0.16061601,0.25243097
26025,0,USMichiganCalhoun,Michigan,Calhoun,2021-01-05 19:45:53.078179,2020-05-15 00:00:00.000000,0.21064022,0.38460607,0.63730269,282,515,854,154,305,554,0.11497743,0.22747378,0.41302100,0.11485169,0.15877920,0.25192028
26025,0,USMichiganCalhoun,Michigan,Calhoun,2021-01-05 19:45:53.078179,2020-05-16 00:00:00.000000,0.21251108,0.37873178,0.62770943,285,508,842,152,300,547,0.11375829,0.22419945,0.40788775,0.11028617,0.15691459,0.25075295
26025,0,USMichiganCalhoun,Michigan,Calhoun,2021-01-05 19:45:53.078179,2020-05-17 00:00:00.000000,0.20659382,0.37167685,0.61882000,277,498,830,150,294,540,0.11242873,0.21976549,0.40277230,0.10873238,0.15694626,0.24811800
26025,0,USMichiganCalhoun,Michigan,Calhoun,2021-01-05 19:45:53.078179,2020-05-18 00:00:00.000000,0.20140044,0.36720256,0.61158492,270,492,820,148,288,533,0.11091817,0.21500542,0.39756943,0.10802717,0.15417031,0.24243662
26025,0,USMichiganCalhoun,Michigan,Calhoun,2021-01-05 19:45:53.078179,2020-05-19 00:00:00.000000,0.19624041,0.36165744,0.60833741,263,485,816,147,283,525,0.10957569,0.21108365,0.39189371,0.10682404,0.15339019,0.23810401
26025,0,USMichiganCalhoun,Michigan,Calhoun,2021-01-05 19:45:53.078179,2020-05-20 00:00:00.000000,0.19352687,0.35302423,0.60762862,259,473,815,146,278,518,0.10952026,0.20757605,0.38623896,0.10649484,0.15300886,0.23970732
26025,0,USMichiganCalhoun,Michigan,Calhoun,2021-01-05 19:45:53.078179,2020-05-21 00:00:00.000000,0.19296878,0.34496165,0.60719176,258,462,814,146,273,520,0.10936876,0.20372064,0.38804915,0.10369643,0.15230075,0.25019239
26025,0,USMichiganCalhoun,Michigan,Calhoun,2021-01-05 19:45:53.078179,2020-05-22 00:00:00.000000,0.18928543,0.33751625,0.60587734,253,452,812,146,267,521,0.10915467,0.19945169,0.38863610,0.10245858,0.15085108,0.26337420
26025,0,USMichiganCalhoun,Michigan,Calhoun,2021-01-05 19:45:53.078179,2020-05-23 00:00:00.000000,0.18369641,0.33169415,0.60296895,246,444,808,146,262,520,0.10890256,0.19550788,0.38786460,0.10475109,0.15143890,0.26205401
26025,0,USMichiganCalhoun,Michigan,Calhoun,2021-01-05 19:45:53.078179,2020-05-24 00:00:00.000000,0.17830975,0.32512976,0.59797421,239,436,802,145,258,517,0.10863159,0.19249658,0.38584137,0.10410540,0.15016559,0.24710127
26025,0,USMichiganCalhoun,Michigan,Calhoun,2021-01-05 19:45:53.078179,2020-05-25 00:00:00.000000,0.17484341,0.31724640,0.59003912,234,425,791,143,251,513,0.10701345,0.18766331,0.38280633,0.10317491,0.15140109,0.22784571
26025,0,USMichiganCalhoun,Michigan,Calhoun,2021-01-05 19:45:53.078179,2020-05-26 00:00:00.000000,0.17572418,0.31333067,0.58015690,235,420,778,140,245,508,0.10458951,0.18291968,0.37903135,0.10254467,0.15441303,0.22731714
26025,0,USMichiganCalhoun,Michigan,Calhoun,2021-01-05 19:45:53.078179,2020-05-27 00:00:00.000000,0.17693097,0.30953257,0.56884616,237,415,763,137,242,502,0.10223633,0.18087059,0.37469459,0.10178385,0.15633987,0.22616020
26025,0,USMichiganCalhoun,Michigan,Calhoun,2021-01-05 19:45:53.078179,2020-05-28 00:00:00.000000,0.17440635,0.30636968,0.55604965,233,411,745,134,240,496,0.09995391,0.17907076,0.36993054,0.09894113,0.15742792,0.22521426
26025,0,USMichiganCalhoun,Michigan,Calhoun,2021-01-05 19:45:53.078179,2020-05-29 00:00:00.000000,0.16977283,0.30539857,0.54211410,227,409,727,131,238,489,0.09775660,0.17761830,0.36483544,0.09763214,0.15530606,0.22487483
26025,0,USMichiganCalhoun,Michigan,Calhoun,2021-01-05 19:45:53.078179,2020-05-30 00:00:00.000000,0.16477651,0.30078494,0.52867443,221,403,709,128,234,482,0.09566995,0.17492488,0.35947524,0.10133140,0.15201428,0.22752645
26025,0,USMichiganCalhoun,Michigan,Calhoun,2021-01-05 19:45:53.078179,2020-05-31 00:00:00.000000,0.16034919,0.29717668,0.51856295,215,398,695,125,231,474,0.09366024,0.17240963,0.35389471,0.10198277,0.15370814,0.22678193
26025,0,USMichiganCalhoun,Michigan,Calhoun,2021-01-05 19:45:53.078179,2020-06-01 00:00:00.000000,0.15602366,0.29275380,0.50712741,209,392,680,123,228,464,0.09173591,0.17043688,0.34603908,0.10229434,0.15515020,0.22217312
26025,0,USMichiganCalhoun,Michigan,Calhoun,2021-01-05 19:45:53.078179,2020-06-02 00:00:00.000000,0.15212991,0.28802959,0.49537585,204,386,664,119,225,453,0.08931026,0.16838298,0.33836512,0.10274881,0.15813396,0.22266150
26025,0,USMichiganCalhoun,Michigan,Calhoun,2021-01-05 19:45:53.078179,2020-06-03 00:00:00.000000,0.14856182,0.28288734,0.48404090,199,379,649,116,223,451,0.08682565,0.16636313,0.33648410,0.10336314,0.15972525,0.22332098
26025,0,USMichiganCalhoun,Michigan,Calhoun,2021-01-05 19:45:53.078179,2020-06-04 00:00:00.000000,0.14524328,0.27865309,0.48081874,194,373,645,113,222,443,0.08453483,0.16581104,0.33062546,0.10418859,0.16101312,0.22390710
26025,0,USMichiganCalhoun,Michigan,Calhoun,2021-01-05 19:45:53.078179,2020-06-05 00:00:00.000000,0.14212414,0.27532740,0.47223491,190,369,633,110,219,435,0.08241745,0.16331859,0.32472113,0.10543334,0.16192518,0.22556665
26025,0,USMichiganCalhoun,Michigan,Calhoun,2021-01-05 19:45:53.078179,2020-06-06 00:00:00.000000,0.13918596,0.27296919,0.46916335,186,366,629,107,216,427,0.08045062,0.16133245,0.31881963,0.10721288,0.16317887,0.23457565
26025,0,USMichiganCalhoun,Michigan,Calhoun,2021-01-05 19:45:53.078179,2020-06-07 00:00:00.000000,0.13644668,0.26919041,0.46588078,183,361,625,105,213,419,0.07861576,0.15877458,0.31298035,0.10943148,0.16326879,0.23475812
26025,0,USMichiganCalhoun,Michigan,Calhoun,2021-01-05 19:45:53.078179,2020-06-08 00:00:00.000000,0.13516983,0.26607788,0.46303975,181,356,621,103,209,412,0.07690399,0.15617223,0.30727250,0.10927420,0.16246874,0.23456577
26025,0,USMichiganCalhoun,Michigan,Calhoun,2021-01-05 19:45:53.078179,2020-06-09 00:00:00.000000,0.13405109,0.26369293,0.46007894,179,353,617,101,207,405,0.07554044,0.15436119,0.30212572,0.11063311,0.16418520,0.23620609
26025,0,USMichiganCalhoun,Michigan,Calhoun,2021-01-05 19:45:53.078179,2020-06-10 00:00:00.000000,0.13306107,0.26043785,0.45691604,178,349,612,99,204,403,0.07444147,0.15230392,0.30055312,0.11330762,0.16759666,0.23880275
26025,0,USMichiganCalhoun,Michigan,Calhoun,2021-01-05 19:45:53.078179,2020-06-11 00:00:00.000000,0.13216011,0.25726341,0.45226314,177,345,606,98,201,399,0.07353902,0.15013116,0.29814506,0.11438893,0.17043612,0.25219800
26025,0,USMichiganCalhoun,Michigan,Calhoun,2021-01-05 19:45:53.078179,2020-06-12 00:00:00.000000,0.13132699,0.25491120,0.44459994,176,341,596,97,197,395,0.07278126,0.14685444,0.29497367,0.11802590,0.17044326,0.25246928
26025,0,USMichiganCalhoun,Michigan,Calhoun,2021-01-05 19:45:53.078179,2020-06-13 00:00:00.000000,0.13055275,0.25306767,0.43631095,175,339,585,96,192,390,0.07213042,0.14375455,0.29121564,0.11342013,0.17159069,0.24508561
26025,0,USMichiganCalhoun,Michigan,Calhoun,2021-01-05 19:45:53.078179,2020-06-14 00:00:00.000000,0.12984889,0.25146900,0.42794340,174,337,574,96,188,385,0.07156024,0.14080658,0.28705518,0.11284116,0.17305857,0.25048572
26025,0,USMichiganCalhoun,Michigan,Calhoun,2021-01-05 19:45:53.078179,2020-06-15 00:00:00.000000,0.13201295,0.25178057,0.42000793,177,337,563,95,185,379,0.07105571,0.13802649,0.28263478,0.11131423,0.17710952,0.25419525
26025,0,USMichiganCalhoun,Michigan,Calhoun,2021-01-05 19:45:53.078179,2020-06-16 00:00:00.000000,0.13468167,0.24801444,0.41223540,180,332,553,95,182,373,0.07111759,0.13605125,0.27804239,0.11072538,0.17955971,0.25654817
26025,0,USMichiganCalhoun,Michigan,Calhoun,2021-01-05 19:45:53.078179,2020-06-17 00:00:00.000000,0.13738788,0.24901152,0.40476761,184,334,543,96,181,366,0.07165839,0.13556410,0.27335478,0.11020934,0.18720752,0.26258409
26025,0,USMichiganCalhoun,Michigan,Calhoun,2021-01-05 19:45:53.078179,2020-06-18 00:00:00.000000,0.13965934,0.24890499,0.39779754,187,333,533,97,183,360,0.07278348,0.13684882,0.26862716,0.10922953,0.18866063,0.27028129
26025,0,USMichiganCalhoun,Michigan,Calhoun,2021-01-05 19:45:53.078179,2020-06-19 00:00:00.000000,0.14247791,0.24861325,0.39156518,191,333,525,100,186,354,0.07459547,0.13884257,0.26389970,0.11067868,0.19421149,0.28015807
26025,0,USMichiganCalhoun,Michigan,Calhoun,2021-01-05 19:45:53.078179,2020-06-20 00:00:00.000000,0.14578215,0.24910549,0.38667880,195,334,518,103,188,347,0.07698689,0.14077719,0.25920057,0.11094802,0.19508209,0.28557676
26025,0,USMichiganCalhoun,Michigan,Calhoun,2021-01-05 19:45:53.078179,2020-06-21 00:00:00.000000,0.14945978,0.24935991,0.38280871,200,334,513,104,190,341,0.07812022,0.14166325,0.25453948,0.11267808,0.19682400,0.28888673
26025,0,USMichiganCalhoun,Michigan,Calhoun,2021-01-05 19:45:53.078179,2020-06-22 00:00:00.000000,0.15094852,0.24803060,0.38182411,202,332,512,105,189,340,0.07868231,0.14145682,0.25363370,0.11483492,0.19983979,0.29424237
26025,0,USMichiganCalhoun,Michigan,Calhoun,2021-01-05 19:45:53.078179,2020-06-23 00:00:00.000000,0.15258618,0.24883333,0.38087109,204,333,510,106,189,337,0.07909004,0.14143053,0.25168841,0.11666513,0.20375652,0.29691427
26025,0,USMichiganCalhoun,Michigan,Calhoun,2021-01-05 19:45:53.078179,2020-06-24 00:00:00.000000,0.15424760,0.25168033,0.38820504,206,337,520,106,189,333,0.07938623,0.14114815,0.24891919,0.11847350,0.20504599,0.31555943
26025,0,USMichiganCalhoun,Michigan,Calhoun,2021-01-05 19:45:53.078179,2020-06-25 00:00:00.000000,0.15592127,0.25231747,0.39841812,209,338,534,106,189,330,0.07960523,0.14131369,0.24633018,0.11989782,0.20638437,0.32564271
26025,0,USMichiganCalhoun,Michigan,Calhoun,2021-01-05 19:45:53.078179,2020-06-26 00:00:00.000000,0.15554569,0.25555309,0.40728075,208,342,546,107,192,328,0.07978488,0.14332314,0.24503132,0.12100561,0.20650083,0.33673636
26025,0,USMichiganCalhoun,Michigan,Calhoun,2021-01-05 19:45:53.078179,2020-06-27 00:00:00.000000,0.15328650,0.26025362,0.41181581,205,349,552,107,192,327,0.07998254,0.14314764,0.24403641,0.12198821,0.20638285,0.35504571
26025,0,USMichiganCalhoun,Michigan,Calhoun,2021-01-05 19:45:53.078179,2020-06-28 00:00:00.000000,0.15128975,0.26459755,0.41552375,202,354,557,107,192,326,0.08025078,0.14376163,0.24354474,0.12242247,0.20707054,0.36369308
26025,0,USMichiganCalhoun,Michigan,Calhoun,2021-01-05 19:45:53.078179,2020-06-29 00:00:00.000000,0.14989290,0.26760046,0.41563398,201,359,557,108,195,330,0.08059773,0.14555289,0.24624258,0.12261953,0.20881360,0.36711116
26025,0,USMichiganCalhoun,Michigan,Calhoun,2021-01-05 19:45:53.078179,2020-06-30 00:00:00.000000,0.14887406,0.26987957,0.41507600,199,362,556,108,197,340,0.08090961,0.14757890,0.25357351,0.12312710,0.21589541,0.36832918
26025,0,USMichiganCalhoun,Michigan,Calhoun,2021-01-05 19:45:53.078179,2020-07-01 00:00:00.000000,0.14818394,0.27279425,0.42445817,198,365,569,108,198,341,0.08119119,0.14765068,0.25483342,0.12509749,0.21875393,0.36865169
26025,0,USMichiganCalhoun,Michigan,Calhoun,2021-01-05 19:45:53.078179,2020-07-02 00:00:00.000000,0.14763538,0.27674198,0.43804925,198,371,587,109,197,344,0.08143366,0.14755806,0.25671323,0.13118822,0.22196671,0.36021353
26025,0,USMichiganCalhoun,Michigan,Calhoun,2021-01-05 19:45:53.078179,2020-07-03 00:00:00.000000,0.14696313,0.27742455,0.45204897,197,372,606,109,197,348,0.08161178,0.14750361,0.25976137,0.13491506,0.22371324,0.33868065
26025,0,USMichiganCalhoun,Michigan,Calhoun,2021-01-05 19:45:53.078179,2020-07-04 00:00:00.000000,0.14615289,0.27543435,0.46130806,196,369,618,109,197,353,0.08169489,0.14753309,0.26369624,0.13852412,0.22386718,0.33333496
26025,0,USMichiganCalhoun,Michigan,Calhoun,2021-01-05 19:45:53.078179,2020-07-05 00:00:00.000000,0.14534673,0.27643831,0.46884958,194,370,629,109,197,359,0.08167249,0.14736564,0.26818997,0.14408016,0.22761896,0.33962994
26025,0,USMichiganCalhoun,Michigan,Calhoun,2021-01-05 19:45:53.078179,2020-07-06 00:00:00.000000,0.14551901,0.27655756,0.47629297,195,371,638,109,199,366,0.08155880,0.14870865,0.27301964,0.14603959,0.22909929,0.33721365
26025,0,USMichiganCalhoun,Michigan,Calhoun,2021-01-05 19:45:53.078179,2020-07-07 00:00:00.000000,0.14494016,0.27569693,0.48380203,194,369,649,109,200,372,0.08140861,0.14967388,0.27783159,0.14635789,0.23401717,0.32583110
26025,0,USMichiganCalhoun,Michigan,Calhoun,2021-01-05 19:45:53.078179,2020-07-08 00:00:00.000000,0.14388932,0.27552505,0.49388981,193,369,662,109,203,379,0.08124721,0.15188744,0.28272342,0.14637097,0.23704330,0.33783762
26025,0,USMichiganCalhoun,Michigan,Calhoun,2021-01-05 19:45:53.078179,2020-07-09 00:00:00.000000,0.14287436,0.27756994,0.51668927,191,372,693,108,205,386,0.08110945,0.15329968,0.28772026,0.14647478,0.23343120,0.34327035
26025,0,USMichiganCalhoun,Michigan,Calhoun,2021-01-05 19:45:53.078179,2020-07-10 00:00:00.000000,0.14190154,0.28045859,0.54051421,190,376,725,108,207,392,0.08104309,0.15484018,0.29287597,0.14677575,0.23438465,0.33773542
26025,0,USMichiganCalhoun,Michigan,Calhoun,2021-01-05 19:45:53.078179,2020-07-11 00:00:00.000000,0.14099556,0.28543470,0.54267022,189,382,728,108,210,400,0.08110732,0.15698392,0.29822693,0.14817331,0.23517793,0.34536685
26025,0,USMichiganCalhoun,Michigan,Calhoun,2021-01-05 19:45:53.078179,2020-07-12 00:00:00.000000,0.14020653,0.29069590,0.54328200,188,389,728,109,213,407,0.08135802,0.15921709,0.30375684,0.14976945,0.24090309,0.35249712
26025,0,USMichiganCalhoun,Michigan,Calhoun,2021-01-05 19:45:53.078179,2020-07-13 00:00:00.000000,0.13907212,0.29664797,0.54202267,186,397,727,109,216,415,0.08182450,0.16159104,0.30941991,0.15156556,0.24357326,0.35757605
26025,0,USMichiganCalhoun,Michigan,Calhoun,2021-01-05 19:45:53.078179,2020-07-14 00:00:00.000000,0.14158154,0.30362253,0.54125728,189,407,726,110,217,428,0.08243960,0.16212260,0.31965484,0.15338714,0.24384496,0.36062399
26025,0,USMichiganCalhoun,Michigan,Calhoun,2021-01-05 19:45:53.078179,2020-07-15 00:00:00.000000,0.14531885,0.30873816,0.54103203,194,414,725,111,220,433,0.08317900,0.16404640,0.32324248,0.15997464,0.24149237,0.36345380
26025,0,USMichiganCalhoun,Michigan,Calhoun,2021-01-05 19:45:53.078179,2020-07-16 00:00:00.000000,0.14911383,0.31404394,0.54227003,200,421,727,112,223,443,0.08399915,0.16669266,0.33068029,0.16016721,0.24566974,0.36368438
26025,0,USMichiganCalhoun,Michigan,Calhoun,2021-01-05 19:45:53.078179,2020-07-17 00:00:00.000000,0.15292162,0.31910809,0.54992910,205,428,737,113,226,453,0.08485363,0.16886124,0.33767768,0.16055691,0.24304418,0.35249518
26025,0,USMichiganCalhoun,Michigan,Calhoun,2021-01-05 19:45:53.078179,2020-07-18 00:00:00.000000,0.15541320,0.32378941,0.55995260,208,434,751,114,234,462,0.08570349,0.17466224,0.34438395,0.16281709,0.24375090,0.36232193
26025,0,USMichiganCalhoun,Michigan,Calhoun,2021-01-05 19:45:53.078179,2020-07-19 00:00:00.000000,0.15589055,0.32871480,0.57241818,209,441,767,116,237,470,0.08652166,0.17715368,0.35078771,0.16409756,0.24428729,0.36478290
26025,0,USMichiganCalhoun,Michigan,Calhoun,2021-01-05 19:45:53.078179,2020-07-20 00:00:00.000000,0.16162954,0.33362816,0.58655802,216,447,786,117,242,478,0.08729363,0.18111488,0.35695106,0.16752009,0.24582458,0.36578782
26025,0,USMichiganCalhoun,Michigan,Calhoun,2021-01-05 19:45:53.078179,2020-07-21 00:00:00.000000,0.16751411,0.34056498,0.60139291,224,456,806,118,245,486,0.08811695,0.18263309,0.36270917,0.17028051,0.24583647,0.38091633
26025,0,USMichiganCalhoun,Michigan,Calhoun,2021-01-05 19:45:53.078179,2020-07-22 00:00:00.000000,0.17360232,0.34849141,0.61668759,232,467,827,119,246,494,0.08885833,0.18392692,0.36824807,0.17107377,0.24852827,0.37856089
26025,0,USMichiganCalhoun,Michigan,Calhoun,2021-01-05 19:45:53.078179,2020-07-23 00:00:00.000000,0.17988016,0.35518863,0.63234179,241,476,848,120,254,501,0.08982814,0.18941026,0.37371050,0.17142791,0.24777775,0.37025695
26025,0,USMichiganCalhoun,Michigan,Calhoun,2021-01-05 19:45:53.078179,2020-07-24 00:00:00.000000,0.18679146,0.36564239,0.64831924,250,490,869,121,259,508,0.09070689,0.19369330,0.37936883,0.17509315,0.25511507,0.36715853
26025,0,USMichiganCalhoun,Michigan,Calhoun,2021-01-05 19:45:53.078179,2020-07-25 00:00:00.000000,0.19312010,0.37639760,0.67688420,259,504,908,122,263,518,0.09163616,0.19650967,0.38623865,0.18066942,0.26250863,0.36611393
26025,0,USMichiganCalhoun,Michigan,Calhoun,2021-01-05 19:45:53.078179,2020-07-26 00:00:00.000000,0.19963378,0.38453078,0.70917358,267,515,951,126,269,531,0.09412726,0.20057155,0.39587138,0.18761165,0.26628278,0.36809234
26025,0,USMichiganCalhoun,Michigan,Calhoun,2021-01-05 19:45:53.078179,2020-07-27 00:00:00.000000,0.20505834,0.39210899,0.74511184,275,526,999,130,276,550,0.09720961,0.20583723,0.41012033,0.18948952,0.27001572,0.40131938
26025,0,USMichiganCalhoun,Michigan,Calhoun,2021-01-05 19:45:53.078179,2020-07-28 00:00:00.000000,0.21063691,0.40379746,0.76272128,282,541,1023,137,283,577,0.10255688,0.21128221,0.43033775,0.19267759,0.27315537,0.42327697
26025,0,USMichiganCalhoun,Michigan,Calhoun,2021-01-05 19:45:53.078179,2020-07-29 00:00:00.000000,0.21299689,0.41378348,0.77777195,285,555,1043,141,290,602,0.10518275,0.21685680,0.44912990,0.19128340,0.27660178,0.41363542
26025,0,USMichiganCalhoun,Michigan,Calhoun,2021-01-05 19:45:53.078179,2020-07-30 00:00:00.000000,0.21389492,0.42200481,0.79252305,286,566,1063,145,298,610,0.10850416,0.22252545,0.45492917,0.19179925,0.27738183,0.37810866
26025,0,USMichiganCalhoun,Michigan,Calhoun,2021-01-05 19:45:53.078179,2020-07-31 00:00:00.000000,0.21356539,0.42827468,0.80706597,286,574,1082,150,307,627,0.11242762,0.22910494,0.46789596,0.19371089,0.27287171,0.36867501
26025,0,USMichiganCalhoun,Michigan,Calhoun,2021-01-05 19:45:53.078179,2020-08-01 00:00:00.000000,0.21440252,0.43436641,0.82138226,287,582,1101,156,314,648,0.11681492,0.23436644,0.48349090,0.19718765,0.27295810,0.37594472
26025,0,USMichiganCalhoun,Michigan,Calhoun,2021-01-05 19:45:53.078179,2020-08-02 00:00:00.000000,0.21547164,0.44343033,0.83559673,289,594,1121,160,321,661,0.11994982,0.23964289,0.49318719,0.19747690,0.27339016,0.37617508
26025,0,USMichiganCalhoun,Michigan,Calhoun,2021-01-05 19:45:53.078179,2020-08-03 00:00:00.000000,0.22271400,0.44961917,0.84844203,298,603,1138,160,326,674,0.11981126,0.24328056,0.50292704,0.19638880,0.28176751,0.37972092
26025,0,USMichiganCalhoun,Michigan,Calhoun,2021-01-05 19:45:53.078179,2020-08-04 00:00:00.000000,0.23044550,0.45804549,0.86139855,309,614,1155,164,330,687,0.12247660,0.24648340,0.51272678,0.20212462,0.28344691,0.38589079
26025,0,USMichiganCalhoun,Michigan,Calhoun,2021-01-05 19:45:53.078179,2020-08-05 00:00:00.000000,0.23589095,0.47219017,0.87425860,316,633,1172,168,334,701,0.12595986,0.24950743,0.52252231,0.20963609,0.28359311,0.38885214
26025,0,USMichiganCalhoun,Michigan,Calhoun,2021-01-05 19:45:53.078179,2020-08-06 00:00:00.000000,0.24005852,0.48028436,0.89078922,322,644,1195,172,338,713,0.12830783,0.25241321,0.53216086,0.21341099,0.28300246,0.40070708
26025,0,USMichiganCalhoun,Michigan,Calhoun,2021-01-05 19:45:53.078179,2020-08-07 00:00:00.000000,0.24816998,0.48800210,0.91721279,332,654,1230,173,344,726,0.12903066,0.25700980,0.54185823,0.21452619,0.28897289,0.41861494
26025,0,USMichiganCalhoun,Michigan,Calhoun,2021-01-05 19:45:53.078179,2020-08-08 00:00:00.000000,0.25659037,0.49997704,0.92240318,344,670,1237,176,351,740,0.13156430,0.26189678,0.55163358,0.21886918,0.29724581,0.42545343
26025,0,USMichiganCalhoun,Michigan,Calhoun,2021-01-05 19:45:53.078179,2020-08-09 00:00:00.000000,0.26554335,0.51824246,0.92744899,356,695,1244,181,357,753,0.13556262,0.26650765,0.56150306,0.21999587,0.29660904,0.42704378
26025,0,USMichiganCalhoun,Michigan,Calhoun,2021-01-05 19:45:53.078179,2020-08-10 00:00:00.000000,0.27299488,0.54177082,0.94481710,366,726,1267,185,366,766,0.13828154,0.27316670,0.57148169,0.22004992,0.29974858,0.42624562
26025,0,USMichiganCalhoun,Michigan,Calhoun,2021-01-05 19:45:53.078179,2020-08-11 00:00:00.000000,0.27928347,0.55387239,0.96063871,374,743,1288,192,377,775,0.14319376,0.28114483,0.57816985,0.21881840,0.30450523,0.42637828
26025,0,USMichiganCalhoun,Michigan,Calhoun,2021-01-05 19:45:53.078179,2020-08-12 00:00:00.000000,0.28659724,0.57233653,0.98673955,384,767,1323,196,389,791,0.14624409,0.29000216,0.58966873,0.22024238,0.30619387,0.42911737
26025,0,USMichiganCalhoun,Michigan,Calhoun,2021-01-05 19:45:53.078179,2020-08-13 00:00:00.000000,0.29507620,0.58876370,0.99868741,395,789,1339,199,406,808,0.14902864,0.30275961,0.60256474,0.22060893,0.30591377,0.42929331
26025,0,USMichiganCalhoun,Michigan,Calhoun,2021-01-05 19:45:53.078179,2020-08-14 00:00:00.000000,0.30474456,0.60518537,1.03447285,408,811,1387,205,424,822,0.15292467,0.31661316,0.61284962,0.22164702,0.30966240,0.42921534
26025,0,USMichiganCalhoun,Michigan,Calhoun,2021-01-05 19:45:53.078179,2020-08-15 00:00:00.000000,0.31554472,0.62894751,1.08353818,423,843,1453,210,443,830,0.15707102,0.33023387,0.61934518,0.22430179,0.31740792,0.43002789
26025,0,USMichiganCalhoun,Michigan,Calhoun,2021-01-05 19:45:53.078179,2020-08-16 00:00:00.000000,0.32739259,0.64860805,1.13095514,439,870,1517,217,456,840,0.16180228,0.34024486,0.62626528,0.22513748,0.32271800,0.45247039
26025,0,USMichiganCalhoun,Michigan,Calhoun,2021-01-05 19:45:53.078179,2020-08-17 00:00:00.000000,0.33886900,0.66733538,1.17685127,454,895,1578,224,468,850,0.16711253,0.34920695,0.63404635,0.22502584,0.32343653,0.45238428
26025,0,USMichiganCalhoun,Michigan,Calhoun,2021-01-05 19:45:53.078179,2020-08-18 00:00:00.000000,0.35128395,0.68715235,1.22116087,471,921,1638,231,482,864,0.17273844,0.35980247,0.64425094,0.22551508,0.32420689,0.46417318
26025,0,USMichiganCalhoun,Michigan,Calhoun,2021-01-05 19:45:53.078179,2020-08-19 00:00:00.000000,0.36455118,0.70764382,1.26526117,489,949,1697,239,500,880,0.17873851,0.37307457,0.65622472,0.22662259,0.32502706,0.46839114
26025,0,USMichiganCalhoun,Michigan,Calhoun,2021-01-05 19:45:53.078179,2020-08-20 00:00:00.000000,0.37865019,0.73196912,1.31004717,507,982,1757,248,517,896,0.18514347,0.38580362,0.66821476,0.22910373,0.32646464,0.46825342
26025,0,USMichiganCalhoun,Michigan,Calhoun,2021-01-05 19:45:53.078179,2020-08-21 00:00:00.000000,0.39361668,0.75919289,1.35522350,528,1018,1818,257,538,915,0.19196447,0.40122916,0.68213870,0.22724653,0.32766894,0.46336314
26025,0,USMichiganCalhoun,Michigan,Calhoun,2021-01-05 19:45:53.078179,2020-08-22 00:00:00.000000,0.40929955,0.79095678,1.39006422,549,1061,1864,267,562,942,0.19919932,0.41945744,0.70223658,0.22490091,0.32573237,0.47437756
26025,0,USMichiganCalhoun,Michigan,Calhoun,2021-01-05 19:45:53.078179,2020-08-23 00:00:00.000000,0.42566553,0.82473118,1.41041410,571,1106,1892,277,585,973,0.20687287,0.43658665,0.72544116,0.22458625,0.32387804,0.50980092
26025,0,USMichiganCalhoun,Michigan,Calhoun,2021-01-05 19:45:53.078179,2020-08-24 00:00:00.000000,0.44523504,0.86051267,1.43059784,597,1154,1919,288,607,1007,0.21498351,0.45287119,0.75077877,0.22372321,0.31956127,0.49760146
26025,0,USMichiganCalhoun,Michigan,Calhoun,2021-01-05 19:45:53.078179,2020-08-25 00:00:00.000000,0.46544603,0.89331251,1.45055227,624,1198,1946,300,629,1022,0.22394088,0.46904738,0.76185001,0.21430147,0.31899567,0.49754677
26025,0,USMichiganCalhoun,Michigan,Calhoun,2021-01-05 19:45:53.078179,2020-08-26 00:00:00.000000,0.48317366,0.92484900,1.46969814,648,1240,1971,312,649,1037,0.23320257,0.48398188,0.77322703,0.21130893,0.31807231,0.47126722
26025,0,USMichiganCalhoun,Michigan,Calhoun,2021-01-05 19:45:53.078179,2020-08-27 00:00:00.000000,0.48706149,0.96656527,1.48671213,653,1296,1994,315,665,1067,0.23524405,0.49614755,0.79559421,0.21149976,0.31885280,0.46614040
26025,0,USMichiganCalhoun,Michigan,Calhoun,2021-01-05 19:45:53.078179,2020-08-28 00:00:00.000000,0.49112554,1.00864654,1.52776852,658,1353,2049,319,688,1117,0.23835879,0.51285171,0.83264995,0.21548077,0.31529678,0.46548845
26025,0,USMichiganCalhoun,Michigan,Calhoun,2021-01-05 19:45:53.078179,2020-08-29 00:00:00.000000,0.49568713,1.04616741,1.59150023,665,1403,2135,333,711,1159,0.24876585,0.53038447,0.86460689,0.22402030,0.30841575,0.46434537
26025,0,USMichiganCalhoun,Michigan,Calhoun,2021-01-05 19:45:53.078179,2020-08-30 00:00:00.000000,0.50132553,1.09102586,1.63118338,672,1463,2188,348,732,1174,0.25939397,0.54565501,0.87577378,0.22554893,0.30508148,0.46182081
26025,0,USMichiganCalhoun,Michigan,Calhoun,2021-01-05 19:45:53.078179,2020-08-31 00:00:00.000000,0.50882295,1.13197376,1.65302960,682,1518,2217,362,755,1189,0.27047708,0.56321743,0.88669377,0.22479092,0.30213433,0.45279905
26025,0,USMichiganCalhoun,Michigan,Calhoun,2021-01-05 19:45:53.078179,2020-09-01 00:00:00.000000,0.52637499,1.17810282,1.66237697,706,1580,2230,377,784,1204,0.28134565,0.58503123,0.89785219,0.22403852,0.30217667,0.44831413
26025,0,USMichiganCalhoun,Michigan,Calhoun,2021-01-05 19:45:53.078179,2020-09-02 00:00:00.000000,0.54458327,1.22587478,1.69201621,730,1644,2269,391,810,1219,0.29217783,0.60446864,0.90914291,0.22557149,0.30456598,0.45232954
26025,0,USMichiganCalhoun,Michigan,Calhoun,2021-01-05 19:45:53.078179,2020-09-03 00:00:00.000000,0.56199671,1.25852371,1.73144515,753,1688,2322,406,835,1242,0.30307122,0.62260942,0.92630686,0.22395539,0.31076581,0.45435321
26025,0,USMichiganCalhoun,Michigan,Calhoun,2021-01-05 19:45:53.078179,2020-09-04 00:00:00.000000,0.57767465,1.28517217,1.80547543,775,1724,2422,421,860,1289,0.31383652,0.64148924,0.96093400,0.22332995,0.31846490,0.45386589
26025,0,USMichiganCalhoun,Michigan,Calhoun,2021-01-05 19:45:53.078179,2020-09-05 00:00:00.000000,0.59135410,1.31250955,1.89260931,793,1760,2539,432,892,1337,0.32217999,0.66517801,0.99662087,0.22490359,0.32226781,0.44801475
26025,0,USMichiganCalhoun,Michigan,Calhoun,2021-01-05 19:45:53.078179,2020-09-06 00:00:00.000000,0.60830318,1.33538351,1.98233169,816,1791,2659,435,921,1385,0.32473698,0.68715524,1.03265730,0.22188991,0.32358026,0.43027072
26025,0,USMichiganCalhoun,Michigan,Calhoun,2021-01-05 19:45:53.078179,2020-09-07 00:00:00.000000,0.62441883,1.35928596,2.05370105,837,1823,2755,454,946,1434,0.33861047,0.70546928,1.06898578,0.22021925,0.32308538,0.41930820
26025,0,USMichiganCalhoun,Michigan,Calhoun,2021-01-05 19:45:53.078179,2020-09-08 00:00:00.000000,0.64100062,1.38614839,2.10456697,859,1859,2823,473,973,1483,0.35290520,0.72535039,1.10573801,0.21986488,0.32488883,0.42379604
26025,0,USMichiganCalhoun,Michigan,Calhoun,2021-01-05 19:45:53.078179,2020-09-09 00:00:00.000000,0.65807520,1.41655506,2.15198492,882,1900,2887,486,1004,1533,0.36250581,0.74899664,1.14315758,0.22019984,0.32350429,0.43525650
26025,0,USMichiganCalhoun,Michigan,Calhoun,2021-01-05 19:45:53.078179,2020-09-10 00:00:00.000000,0.67578979,1.46566656,2.20220058,906,1966,2954,499,1042,1584,0.37229525,0.77679705,1.18142025,0.22386778,0.33174386,0.42670891
26025,0,USMichiganCalhoun,Michigan,Calhoun,2021-01-05 19:45:53.078179,2020-09-11 00:00:00.000000,0.69519287,1.54012455,2.27748789,932,2066,3055,509,1078,1637,0.37995537,0.80368674,1.22064822,0.23289761,0.33404964,0.43168882
26025,0,USMichiganCalhoun,Michigan,Calhoun,2021-01-05 19:45:53.078179,2020-09-12 00:00:00.000000,0.72072133,1.57913135,2.35711941,966,2118,3162,520,1113,1691,0.38793705,0.82964339,1.26093817,0.23818800,0.34084341,0.43191670
26025,0,USMichiganCalhoun,Michigan,Calhoun,2021-01-05 19:45:53.078179,2020-09-13 00:00:00.000000,0.75873945,1.63603154,2.43984186,1017,2194,3273,534,1139,1747,0.39853468,0.84909733,1.30221945,0.24099210,0.35037229,0.45908169
26025,0,USMichiganCalhoun,Michigan,Calhoun,2021-01-05 19:45:53.078179,2020-09-14 00:00:00.000000,0.79924899,1.69444211,2.52516588,1072,2273,3387,551,1164,1771,0.41125874,0.86809279,1.32068591,0.24585741,0.35760932,0.47365843
26025,0,USMichiganCalhoun,Michigan,Calhoun,2021-01-05 19:45:53.078179,2020-09-15 00:00:00.000000,0.83359008,1.73559491,2.61479961,1118,2328,3507,571,1196,1798,0.42595796,0.89150562,1.34080211,0.25399485,0.36554546,0.47407599
26025,0,USMichiganCalhoun,Michigan,Calhoun,2021-01-05 19:45:53.078179,2020-09-16 00:00:00.000000,0.87283248,1.78544586,2.71009781,1170,2395,3635,593,1238,1828,0.44238342,0.92349505,1.36280712,0.25494365,0.36814756,0.50361670
26025,0,USMichiganCalhoun,Michigan,Calhoun,2021-01-05 19:45:53.078179,2020-09-17 00:00:00.000000,0.92096774,1.83948607,2.81523490,1235,2467,3776,618,1286,1862,0.46090713,0.95873984,1.38811428,0.27300008,0.37015660,0.50557281
26025,0,USMichiganCalhoun,Michigan,Calhoun,2021-01-05 19:45:53.078179,2020-09-18 00:00:00.000000,0.97761427,1.93325074,2.94218134,1311,2593,3947,647,1331,1903,0.48259957,0.99271727,1.41904473,0.28069871,0.37929207,0.50213828
26025,0,USMichiganCalhoun,Michigan,Calhoun,2021-01-05 19:45:53.078179,2020-09-19 00:00:00.000000,1.03972276,2.03407297,3.11110839,1394,2728,4173,681,1376,1954,0.50808861,1.02629187,1.45687289,0.27975380,0.39100776,0.50422139
26025,0,USMichiganCalhoun,Michigan,Calhoun,2021-01-05 19:45:53.078179,2020-09-20 00:00:00.000000,1.10605085,2.14149044,3.32052588,1483,2873,4454,720,1425,2014,0.53714093,1.06281583,1.50141696,0.27882981,0.40140785,0.53692340
26025,0,USMichiganCalhoun,Michigan,Calhoun,2021-01-05 19:45:53.078179,2020-09-21 00:00:00.000000,1.17527375,2.22642778,3.55389453,1576,2986,4767,763,1485,2092,0.56932124,1.10744481,1.55964073,0.29264841,0.41048010,0.55069377
26025,0,USMichiganCalhoun,Michigan,Calhoun,2021-01-05 19:45:53.078179,2020-09-22 00:00:00.000000,1.24872284,2.30905373,3.80189218,1675,3097,5100,810,1537,2206,0.60406274,1.14589209,1.64499790,0.30042715,0.41326754,0.54860029
26025,0,USMichiganCalhoun,Michigan,Calhoun,2021-01-05 19:45:53.078179,2020-09-23 00:00:00.000000,1.32647485,2.43201719,4.06201339,1779,3262,5449,860,1603,2329,0.64126841,1.19518241,1.73634661,0.31157770,0.41663274,0.54622132
26025,0,USMichiganCalhoun,Michigan,Calhoun,2021-01-05 19:45:53.078179,2020-09-24 00:00:00.000000,1.40860058,2.53685192,4.33257978,1889,3403,5812,913,1666,2460,0.68091405,1.24216010,1.83387149,0.31418134,0.42276069,0.56289192
26025,0,USMichiganCalhoun,Michigan,Calhoun,2021-01-05 19:45:53.078179,2020-09-25 00:00:00.000000,1.49502556,2.64243922,4.56834250,2005,3545,6128,969,1747,2601,0.72301712,1.30222177,1.93897978,0.32168215,0.43459006,0.55703745
26025,0,USMichiganCalhoun,Michigan,Calhoun,2021-01-05 19:45:53.078179,2020-09-26 00:00:00.000000,1.58537648,2.74089820,4.81251416,2126,3677,6456,1027,1829,2798,0.76566834,1.36330962,2.08599155,0.32381646,0.43617027,0.54869916
26025,0,USMichiganCalhoun,Michigan,Calhoun,2021-01-05 19:45:53.078179,2020-09-27 00:00:00.000000,1.66647254,2.87392381,5.06705529,2235,3855,6797,1071,1924,2934,0.79842209,1.43450346,2.18710776,0.32541848,0.43305588,0.54091119
26025,0,USMichiganCalhoun,Michigan,Calhoun,2021-01-05 19:45:53.078179,2020-09-28 00:00:00.000000,1.72981770,3.01464697,5.33543705,2320,4044,7157,1114,2023,3080,0.83058285,1.50863359,2.29639937,0.32474019,0.43583193,0.53893694
26025,0,USMichiganCalhoun,Michigan,Calhoun,2021-01-05 19:45:53.078179,2020-09-29 00:00:00.000000,1.79557764,3.15791350,5.61491700,2408,4236,7532,1157,2117,3237,0.86277895,1.57824856,2.41285147,0.32449885,0.42879442,0.54325215
26025,0,USMichiganCalhoun,Michigan,Calhoun,2021-01-05 19:45:53.078179,2020-09-30 00:00:00.000000,1.86427095,3.32412990,5.90613273,2501,4459,7923,1201,2203,3402,0.89531859,1.64218664,2.53611113,0.32534868,0.43391923,0.55050287
26025,0,USMichiganCalhoun,Michigan,Calhoun,2021-01-05 19:45:53.078179,2020-10-01 00:00:00.000000,1.93746290,3.50010888,6.21026321,2599,4695,8331,1245,2293,3590,0.92848536,1.70936043,2.67630312,0.32928013,0.43158102,0.56352032
26025,0,USMichiganCalhoun,Michigan,Calhoun,2021-01-05 19:45:53.078179,2020-10-02 00:00:00.000000,2.06666338,3.67144101,6.47748945,2772,4925,8690,1291,2413,3787,0.96263065,1.79894425,2.82318120,0.33833409,0.43509036,0.56377627
26025,0,USMichiganCalhoun,Michigan,Calhoun,2021-01-05 19:45:53.078179,2020-10-03 00:00:00.000000,2.14835791,3.88729536,6.74390559,2882,5215,9047,1339,2522,3992,0.99835013,1.88007654,2.97624670,0.33652412,0.44155661,0.57819349
26025,0,USMichiganCalhoun,Michigan,Calhoun,2021-01-05 19:45:53.078179,2020-10-04 00:00:00.000000,2.23932567,4.08810072,7.01061355,3004,5484,9405,1433,2628,4228,1.06887002,1.95955691,3.15219303,0.33239002,0.44388833,0.58613860
26025,0,USMichiganCalhoun,Michigan,Calhoun,2021-01-05 19:45:53.078179,2020-10-05 00:00:00.000000,2.33387395,4.30197285,7.27269901,3131,5771,9756,1550,2756,4477,1.15551531,2.05429215,3.33724656,0.33461065,0.44066051,0.59469991
26025,0,USMichiganCalhoun,Michigan,Calhoun,2021-01-05 19:45:53.078179,2020-10-06 00:00:00.000000,2.43361639,4.46657420,7.53776012,3264,5992,10112,1664,2894,4733,1.24059108,2.15748509,3.52804713,0.33433219,0.43876990,0.60350457
26025,0,USMichiganCalhoun,Michigan,Calhoun,2021-01-05 19:45:53.078179,2020-10-07 00:00:00.000000,2.53766402,4.66895001,7.80785545,3404,6263,10474,1734,3052,4998,1.29287544,2.27539072,3.72552464,0.33560849,0.44586352,0.60997354
26025,0,USMichiganCalhoun,Michigan,Calhoun,2021-01-05 19:45:53.078179,2020-10-08 00:00:00.000000,2.67368753,4.94603496,8.19487821,3586,6635,10994,1807,3250,5273,1.34731778,2.42257634,3.93098534,0.34027212,0.44866574,0.61997269
26025,0,USMichiganCalhoun,Michigan,Calhoun,2021-01-05 19:45:53.078179,2020-10-09 00:00:00.000000,2.90677379,5.17989597,8.63784359,3899,6949,11588,1883,3458,5562,1.40372494,2.57795640,4.14601309,0.34886331,0.45168691,0.62748698
26025,0,USMichiganCalhoun,Michigan,Calhoun,2021-01-05 19:45:53.078179,2020-10-10 00:00:00.000000,3.03400658,5.43376184,8.94507694,4070,7289,12000,1961,3654,5865,1.46197750,2.72416376,4.37233117,0.33934045,0.45529617,0.62767861
26025,0,USMichiganCalhoun,Michigan,Calhoun,2021-01-05 19:45:53.078179,2020-10-11 00:00:00.000000,3.15747768,5.65900377,9.34364855,4236,7592,12535,2042,3845,6144,1.52208123,2.86650133,4.57969610,0.35263303,0.45680597,0.62882509
26025,0,USMichiganCalhoun,Michigan,Calhoun,2021-01-05 19:45:53.078179,2020-10-12 00:00:00.000000,3.29037015,5.96819000,9.77573340,4414,8006,13115,2127,4042,6417,1.58552975,3.01347989,4.78380114,0.34123507,0.45996657,0.62885022
26025,0,USMichiganCalhoun,Michigan,Calhoun,2021-01-05 19:45:53.078179,2020-10-13 00:00:00.000000,3.44433595,6.25347501,10.21709811,4620,8389,13707,2216,4234,6702,1.65224160,3.15648938,4.99626746,0.33259178,0.46235381,0.62742374
26025,0,USMichiganCalhoun,Michigan,Calhoun,2021-01-05 19:45:53.078179,2020-10-14 00:00:00.000000,3.62960904,6.65969498,10.66663217,4869,8934,14310,2314,4411,6996,1.72488649,3.28789068,5.21541776,0.33211149,0.46415448,0.62236354
26025,0,USMichiganCalhoun,Michigan,Calhoun,2021-01-05 19:45:53.078179,2020-10-15 00:00:00.000000,3.84142764,7.07315880,11.11942129,5153,9489,14917,2444,4606,7333,1.82176712,3.43333835,5.46610336,0.33291824,0.46230016,0.60799154
26025,0,USMichiganCalhoun,Michigan,Calhoun,2021-01-05 19:45:53.078179,2020-10-16 00:00:00.000000,4.07041391,7.48992861,11.55894655,5460,10048,15507,2603,4822,7747,1.94062533,3.59475892,5.77481032,0.33476557,0.45928464,0.61171077
26025,0,USMichiganCalhoun,Michigan,Calhoun,2021-01-05 19:45:53.078179,2020-10-17 00:00:00.000000,4.31223467,7.87078608,11.98939477,5785,10559,16084,2766,5074,8172,2.06233883,3.78214603,6.09149393,0.33867001,0.45672790,0.60606902
26025,0,USMichiganCalhoun,Michigan,Calhoun,2021-01-05 19:45:53.078179,2020-10-18 00:00:00.000000,4.56551352,8.22628501,12.42172885,6125,11036,16664,2932,5344,8602,2.18576653,3.98357197,6.41180974,0.34493647,0.46010494,0.60438632
26025,0,USMichiganCalhoun,Michigan,Calhoun,2021-01-05 19:45:53.078179,2020-10-19 00:00:00.000000,4.82968174,8.65565354,12.85744363,6479,11612,17249,3090,5591,9029,2.30356202,4.16774471,6.73059963,0.35151257,0.46382542,0.60450878
26025,0,USMichiganCalhoun,Michigan,Calhoun,2021-01-05 19:45:53.078179,2020-10-20 00:00:00.000000,5.09882927,9.11621237,13.28939915,6840,12230,17828,3235,5912,9447,2.41184477,4.40706863,7.04234712,0.35125178,0.45622259,0.60378282
26025,0,USMichiganCalhoun,Michigan,Calhoun,2021-01-05 19:45:53.078179,2020-10-21 00:00:00.000000,5.28970450,9.44897234,13.69017326,7096,12676,18366,3387,6265,9850,2.52472798,4.67040032,7.34251783,0.34992131,0.44889973,0.60017949
26025,0,USMichiganCalhoun,Michigan,Calhoun,2021-01-05 19:45:53.078179,2020-10-22 00:00:00.000000,5.48442584,9.76314826,13.99120105,7357,13098,18770,3547,6562,10232,2.64457359,4.89159811,7.62737222,0.34237980,0.44496780,0.59821271
26025,0,USMichiganCalhoun,Michigan,Calhoun,2021-01-05 19:45:53.078179,2020-10-23 00:00:00.000000,5.68456327,10.08206301,14.27750432,7626,13525,19154,3738,6820,10598,2.78630042,5.08426155,7.90001217,0.32386110,0.43606214,0.59108133
26025,0,USMichiganCalhoun,Michigan,Calhoun,2021-01-05 19:45:53.078179,2020-10-24 00:00:00.000000,5.91483495,10.38900278,14.77315366,7935,13937,19819,3909,7110,10959,2.91393203,5.30004538,8.16934374,0.33012159,0.42381533,0.56210796
26025,0,USMichiganCalhoun,Michigan,Calhoun,2021-01-05 19:45:53.078179,2020-10-25 00:00:00.000000,6.20130532,10.70559234,15.28235847,8319,14362,20502,4055,7396,11326,3.02301815,5.51357078,8.44291721,0.33378620,0.41202610,0.53674878
26025,0,USMichiganCalhoun,Michigan,Calhoun,2021-01-05 19:45:53.078179,2020-10-26 00:00:00.000000,6.43762852,11.03806745,15.78601166,8636,14808,21178,4207,7677,11698,3.13654980,5.72277303,8.71998679,0.32313261,0.40467261,0.54400287
26025,0,USMichiganCalhoun,Michigan,Calhoun,2021-01-05 19:45:53.078179,2020-10-27 00:00:00.000000,6.59360279,11.37477425,16.26673886,8845,15260,21823,4365,7845,12008,3.25432717,5.84773677,8.95095008,0.31682163,0.39668175,0.54687691
26025,0,USMichiganCalhoun,Michigan,Calhoun,2021-01-05 19:45:53.078179,2020-10-28 00:00:00.000000,6.78369089,11.68256651,16.76069963,9100,15673,22485,4526,8026,12384,3.37430050,5.98304988,9.23098077,0.30529579,0.39419669,0.54767988
26025,0,USMichiganCalhoun,Michigan,Calhoun,2021-01-05 19:45:53.078179,2020-10-29 00:00:00.000000,6.94893353,11.92907287,17.27704404,9322,16003,23178,4647,8282,12766,3.46443310,6.17341488,9.51597811,0.29103644,0.38369490,0.54764686
26025,0,USMichiganCalhoun,Michigan,Calhoun,2021-01-05 19:45:53.078179,2020-10-30 00:00:00.000000,7.07564866,12.16452770,17.78639276,9492,16319,23862,4748,8576,13112,3.53972801,6.39257000,9.77356243,0.27966169,0.37762758,0.54718805
26025,0,USMichiganCalhoun,Michigan,Calhoun,2021-01-05 19:45:53.078179,2020-10-31 00:00:00.000000,7.19190923,12.38184902,18.27777370,9648,16611,24521,4839,8878,13412,3.60739228,6.61782449,9.99726371,0.27778267,0.37544152,0.52310063
26025,0,USMichiganCalhoun,Michigan,Calhoun,2021-01-05 19:45:53.078179,2020-11-01 00:00:00.000000,7.30260191,12.60141841,18.73505187,9797,16905,25134,4920,9081,13680,3.66768120,6.76910918,10.19748911,0.27767254,0.36958881,0.51257298
26025,0,USMichiganCalhoun,Michigan,Calhoun,2021-01-05 19:45:53.078179,2020-11-02 00:00:00.000000,7.40917234,12.77844652,19.13318771,9940,17143,25668,4990,9241,13943,3.71950169,6.88865533,10.39295227,0.26413043,0.36669627,0.51636998
26025,0,USMichiganCalhoun,Michigan,Calhoun,2021-01-05 19:45:53.078179,2020-11-03 00:00:00.000000,7.51259508,12.95552824,19.10286993,10078,17381,25628,5050,9444,14216,3.76475419,7.04004551,10.59666642,0.25996676,0.37129921,0.52054768
26025,0,USMichiganCalhoun,Michigan,Calhoun,2021-01-05 19:45:53.078179,2020-11-04 00:00:00.000000,7.61282717,13.06564187,18.99420231,10213,17528,25482,5104,9624,14443,3.80463466,7.17365289,10.76561999,0.25755677,0.37081145,0.52750621
26025,0,USMichiganCalhoun,Michigan,Calhoun,2021-01-05 19:45:53.078179,2020-11-05 00:00:00.000000,7.68703728,13.18011567,18.87657603,10312,17682,25324,5151,9761,14605,3.84016988,7.27583842,10.88663049,0.25651343,0.36517337,0.52549665
26025,0,USMichiganCalhoun,Michigan,Calhoun,2021-01-05 19:45:53.078179,2020-11-06 00:00:00.000000,7.76108972,13.33608844,18.79632927,10412,17891,25216,5223,9879,14580,3.89347341,7.36368437,10.86778967,0.25382968,0.36265242,0.51749281
26025,0,USMichiganCalhoun,Michigan,Calhoun,2021-01-05 19:45:53.078179,2020-11-07 00:00:00.000000,7.83606324,13.41619846,18.83716741,10512,17999,25271,5298,9956,14648,3.94905712,7.42112646,10.91861744,0.24594770,0.36549524,0.51891211
26025,0,USMichiganCalhoun,Michigan,Calhoun,2021-01-05 19:45:53.078179,2020-11-08 00:00:00.000000,7.91064652,13.47302806,18.84397195,10612,18075,25280,5361,10016,14735,3.99638049,7.46584995,10.98368246,0.22974891,0.36417924,0.52624690
26025,0,USMichiganCalhoun,Michigan,Calhoun,2021-01-05 19:45:53.078179,2020-11-09 00:00:00.000000,7.89136940,13.50680969,18.81485757,10586,18120,25241,5332,10067,14796,3.97442848,7.50393573,11.02931311,0.22889181,0.36115046,0.52618839
26025,0,USMichiganCalhoun,Michigan,Calhoun,2021-01-05 19:45:53.078179,2020-11-10 00:00:00.000000,7.80316156,13.44249907,18.73847609,10468,18034,25139,5293,10080,14871,3.94539096,7.51376155,11.08495327,0.22890114,0.35832438,0.52983847
26025,0,USMichiganCalhoun,Michigan,Calhoun,2021-01-05 19:45:53.078179,2020-11-11 00:00:00.000000,7.71087615,13.29195345,18.81406972,10344,17832,25240,5246,10059,14973,3.91093813,7.49849359,11.16092353,0.22914536,0.35753223,0.53125808
26025,0,USMichiganCalhoun,Michigan,Calhoun,2021-01-05 19:45:53.078179,2020-11-12 00:00:00.000000,7.61517634,13.15919022,18.94333741,10216,17654,25414,5195,10023,15055,3.87232991,7.47104882,11.22197866,0.23049318,0.35971816,0.54812501
26025,0,USMichiganCalhoun,Michigan,Calhoun,2021-01-05 19:45:53.078179,2020-11-13 00:00:00.000000,7.51663471,13.08698328,19.09261126,10084,17557,25614,5156,9971,15145,3.84351221,7.43296344,11.28948499,0.23824522,0.36052778,0.55022240
26025,0,USMichiganCalhoun,Michigan,Calhoun,2021-01-05 19:45:53.078179,2020-11-14 00:00:00.000000,7.41613120,13.00157801,19.22985810,9949,17442,25798,5129,9970,15243,3.82366863,7.43198563,11.36190480,0.25722782,0.36459025,0.55663049
26025,0,USMichiganCalhoun,Michigan,Calhoun,2021-01-05 19:45:53.078179,2020-11-15 00:00:00.000000,7.31639474,12.88280901,19.33913488,9815,17283,25945,5091,9987,15335,3.79506092,7.44425893,11.43086058,0.25937030,0.36855043,0.57551073
26025,0,USMichiganCalhoun,Michigan,Calhoun,2021-01-05 19:45:53.078179,2020-11-16 00:00:00.000000,7.22762926,12.83517798,19.41559742,9696,17219,26047,5068,9996,15411,3.77817033,7.45118800,11.48764688,0.26174597,0.37562720,0.58674610
26025,0,USMichiganCalhoun,Michigan,Calhoun,2021-01-05 19:45:53.078179,2020-11-17 00:00:00.000000,7.16805197,12.81928704,19.45614903,9616,17198,26102,5054,9948,15461,3.76763260,7.41544401,11.52477299,0.26327037,0.37627885,0.59150490
26025,0,USMichiganCalhoun,Michigan,Calhoun,2021-01-05 19:45:53.078179,2020-11-18 00:00:00.000000,7.13364603,12.71639051,19.42303166,9570,17060,26057,5041,9889,15479,3.75752617,7.37112654,11.53823110,0.26364322,0.38004905,0.59354360
26025,0,USMichiganCalhoun,Michigan,Calhoun,2021-01-05 19:45:53.078179,2020-11-19 00:00:00.000000,7.10718793,12.61883659,19.17079212,9534,16929,25719,5027,9822,15460,3.74777866,7.32190659,11.52409894,0.26335726,0.39473997,0.59485803
26025,0,USMichiganCalhoun,Michigan,Calhoun,2021-01-05 19:45:53.078179,2020-11-20 00:00:00.000000,7.08299018,12.58178499,18.88600838,9502,16879,25337,5014,9722,15402,3.73794428,7.24677426,11.48108469,0.25708531,0.39390284,0.59830340
26025,0,USMichiganCalhoun,Michigan,Calhoun,2021-01-05 19:45:53.078179,2020-11-21 00:00:00.000000,7.06078335,12.52657490,18.57324856,9472,16805,24917,5001,9670,15306,3.72773193,7.20860826,11.40900121,0.25027948,0.38855432,0.61570106
26025,0,USMichiganCalhoun,Michigan,Calhoun,2021-01-05 19:45:53.078179,2020-11-22 00:00:00.000000,7.00431606,12.46486804,18.24058745,9396,16722,24471,4986,9611,15171,3.71661125,7.16411713,11.30870724,0.22551347,0.38867839,0.67213033
26025,0,USMichiganCalhoun,Michigan,Calhoun,2021-01-05 19:45:53.078179,2020-11-23 00:00:00.000000,6.91277214,12.39705854,17.90216229,9274,16631,24017,4968,9607,15001,3.70376586,7.16101839,11.18175027,0.21357355,0.39493197,0.68663471
26025,0,USMichiganCalhoun,Michigan,Calhoun,2021-01-05 19:45:53.078179,2020-11-24 00:00:00.000000,6.82053264,12.26015776,17.57044629,9150,16448,23572,4948,9604,14799,3.68862515,7.15896229,11.03160894,0.20683619,0.40010548,0.69863287
26025,0,USMichiganCalhoun,Michigan,Calhoun,2021-01-05 19:45:53.078179,2020-11-25 00:00:00.000000,6.72750133,12.08294395,17.41023485,9025,16210,23357,4925,9610,14705,3.67112318,7.16362215,10.96113956,0.21276407,0.39681308,0.71467890
26025,0,USMichiganCalhoun,Michigan,Calhoun,2021-01-05 19:45:53.078179,2020-11-26 00:00:00.000000,6.64867925,11.92170099,17.18493227,8919,15994,23055,4898,9593,14576,3.65127086,7.15105782,10.86524396,0.21355019,0.39526608,0.71951808
26025,0,USMichiganCalhoun,Michigan,Calhoun,2021-01-05 19:45:53.078179,2020-11-27 00:00:00.000000,6.59284606,11.78269101,16.91742849,8844,15807,22696,4868,9528,14409,3.62907751,7.10211098,10.74063208,0.20904252,0.37709644,0.72229191
26025,0,USMichiganCalhoun,Michigan,Calhoun,2021-01-05 19:45:53.078179,2020-11-28 00:00:00.000000,6.53165125,11.61930623,16.61645698,8762,15588,22292,4835,9400,14228,3.60448113,7.00677425,10.60563030,0.20373886,0.37187617,0.71658152
26025,0,USMichiganCalhoun,Michigan,Calhoun,2021-01-05 19:45:53.078179,2020-11-29 00:00:00.000000,6.46432373,11.36038107,16.28340666,8672,15240,21845,4799,9298,14062,3.57729191,6.93084396,10.48161387,0.21460918,0.36422296,0.72375541
26025,0,USMichiganCalhoun,Michigan,Calhoun,2021-01-05 19:45:53.078179,2020-11-30 00:00:00.000000,6.39093153,11.22518273,15.91133840,8574,15059,21346,4758,9094,13891,3.54717825,6.77856166,10.35463567,0.22106161,0.35509808,0.72794047
26025,0,USMichiganCalhoun,Michigan,Calhoun,2021-01-05 19:45:53.078179,2020-12-01 00:00:00.000000,6.30704170,10.98095973,15.55557152,8461,14731,20869,4714,8916,13706,3.51387001,6.64639500,10.21685806,0.22064053,0.35190604,0.72957402
26025,0,USMichiganCalhoun,Michigan,Calhoun,2021-01-05 19:45:53.078179,2020-12-02 00:00:00.000000,6.20690498,10.78265915,15.20855573,8327,14465,20403,4663,8713,13509,3.47643295,6.49458944,10.06954391,0.22040822,0.34389007,0.72907689
26025,0,USMichiganCalhoun,Michigan,Calhoun,2021-01-05 19:45:53.078179,2020-12-03 00:00:00.000000,6.04244386,10.63916618,14.83701242,8106,14273,19905,4605,8556,13300,3.43323854,6.37796523,9.91384706,0.22034873,0.34148271,0.72676501
26025,0,USMichiganCalhoun,Michigan,Calhoun,2021-01-05 19:45:53.078179,2020-12-04 00:00:00.000000,5.83949797,10.42713581,14.43703248,7834,13988,19368,4537,8390,13034,3.38252017,6.25414042,9.71578706,0.22026499,0.34341725,0.72304459
26025,0,USMichiganCalhoun,Michigan,Calhoun,2021-01-05 19:45:53.078179,2020-12-05 00:00:00.000000,5.63901303,10.19530333,14.13649809,7565,13677,18965,4407,8218,12684,3.28564595,6.12584902,9.45445756,0.20737522,0.34715458,0.71868569
26025,0,USMichiganCalhoun,Michigan,Calhoun,2021-01-05 19:45:53.078179,2020-12-06 00:00:00.000000,5.45339664,9.94444167,13.92465346,7316,13341,18681,4269,8057,12424,3.18240179,6.00609750,9.26067882,0.19760354,0.35189507,0.71467694
26025,0,USMichiganCalhoun,Michigan,Calhoun,2021-01-05 19:45:53.078179,2020-12-07 00:00:00.000000,5.30973767,9.71547968,13.69913636,7123,13034,18378,4130,7867,12160,3.07899264,5.86453695,9.06457312,0.19411769,0.35314105,0.71338123
26025,0,USMichiganCalhoun,Michigan,Calhoun,2021-01-05 19:45:53.078179,2020-12-08 00:00:00.000000,5.18722227,9.49101606,13.45759015,6959,12733,18054,3993,7683,11890,2.97643305,5.72713801,8.86308463,0.17426273,0.35235255,0.71439879
26025,0,USMichiganCalhoun,Michigan,Calhoun,2021-01-05 19:45:53.078179,2020-12-09 00:00:00.000000,5.01211285,9.26598026,13.19153487,6724,12431,17697,3857,7494,11720,2.87542738,5.58661648,8.73621922,0.17722170,0.34387186,0.71490311
26025,0,USMichiganCalhoun,Michigan,Calhoun,2021-01-05 19:45:53.078179,2020-12-10 00:00:00.000000,4.85891180,9.03413880,12.88502546,6518,12120,17286,3725,7303,11531,2.77688830,5.44401476,8.59575063,0.17358352,0.34016303,0.74469786
26025,0,USMichiganCalhoun,Michigan,Calhoun,2021-01-05 19:45:53.078179,2020-12-11 00:00:00.000000,4.71377388,8.79679750,12.53772298,6323,11801,16820,3598,7111,11328,2.68217681,5.30059585,8.44380064,0.16725373,0.33908676,0.77997710
26025,0,USMichiganCalhoun,Michigan,Calhoun,2021-01-05 19:45:53.078179,2020-12-12 00:00:00.000000,4.57468329,8.55475993,12.16553571,6137,11476,16321,3478,6920,11111,2.59303093,5.15809363,8.28216464,0.15428746,0.33771146,0.82851891
26025,0,USMichiganCalhoun,Michigan,Calhoun,2021-01-05 19:45:53.078179,2020-12-13 00:00:00.000000,4.43838219,8.28741224,11.78584110,5954,11118,15811,3368,6704,10883,2.51083284,4.99778256,8.11221890,0.14936558,0.33717970,0.87313055
26025,0,USMichiganCalhoun,Michigan,Calhoun,2021-01-05 19:45:53.078179,2020-12-14 00:00:00.000000,4.30508152,8.02399916,11.49396698,5775,10764,15420,3268,6467,10645,2.43593181,4.82043880,7.93487488,0.14852738,0.33666776,0.89375915
26025,0,USMichiganCalhoun,Michigan,Calhoun,2021-01-05 19:45:53.078179,2020-12-15 00:00:00.000000,4.17496987,7.75366082,11.17403970,5601,10402,14990,3174,6274,10398,2.36641975,4.67700889,7.75078486,0.14940769,0.33940688,0.89967103
26025,0,USMichiganCalhoun,Michigan,Calhoun,2021-01-05 19:45:53.078179,2020-12-16 00:00:00.000000,4.04861409,7.46591232,10.81845095,5431,10016,14513,3087,6108,10142,2.30134251,4.55353910,7.56001294,0.15178661,0.34200974,0.89995751
26025,0,USMichiganCalhoun,Michigan,Calhoun,2021-01-05 19:45:53.078179,2020-12-17 00:00:00.000000,3.92683579,7.19064974,10.47218618,5268,9646,14049,3004,5974,9877,2.23984989,4.45309696,7.36276603,0.15614373,0.34169315,0.89538764
26025,0,USMichiganCalhoun,Michigan,Calhoun,2021-01-05 19:45:53.078179,2020-12-18 00:00:00.000000,3.82624752,6.95314055,10.14418816,5133,9328,13609,2926,5817,9605,2.18124852,4.33610617,7.15994209,0.16247613,0.34000208,0.88513722
26025,0,USMichiganCalhoun,Michigan,Calhoun,2021-01-05 19:45:53.078179,2020-12-19 00:00:00.000000,3.72979155,6.74527071,9.81074726,5003,9049,13162,2850,5664,9328,2.12496772,4.22252972,6.95327585,0.16938910,0.33820260,0.89447405
26025,0,USMichiganCalhoun,Michigan,Calhoun,2021-01-05 19:45:53.078179,2020-12-20 00:00:00.000000,3.63375762,6.54359399,9.53171389,4875,8778,12787,2777,5475,9049,2.07049646,4.08149103,6.74519858,0.17313990,0.33853361,0.90647301
26025,0,USMichiganCalhoun,Michigan,Calhoun,2021-01-05 19:45:53.078179,2020-12-21 00:00:00.000000,3.53609107,6.35699463,9.27363046,4743,8528,12441,2706,5289,8771,2.01734965,3.94287603,6.53791788,0.17555941,0.33601970,0.91260471
26025,0,USMichiganCalhoun,Michigan,Calhoun,2021-01-05 19:45:53.078179,2020-12-22 00:00:00.000000,3.40905391,6.11313627,9.02061441,4573,8201,12101,2636,5132,8495,1.96508322,3.82557178,6.33266674,0.17287968,0.33601015,0.91599535
26025,0,USMichiganCalhoun,Michigan,Calhoun,2021-01-05 19:45:53.078179,2020-12-23 00:00:00.000000,3.31893439,5.89783173,8.77322715,4452,7912,11770,2567,4980,8223,1.91349254,3.71214374,6.12954319,0.17123490,0.33945815,0.92108740
26025,0,USMichiganCalhoun,Michigan,Calhoun,2021-01-05 19:45:53.078179,2020-12-24 00:00:00.000000,3.23308129,5.66601033,8.53289008,4337,7601,11447,2498,4838,7951,1.86250530,3.60653683,5.92701726,0.17080572,0.34030386,0.94100843
26025,0,USMichiganCalhoun,Michigan,Calhoun,2021-01-05 19:45:53.078179,2020-12-25 00:00:00.000000,3.09972716,5.42867364,8.30160490,4158,7283,11137,2394,4712,7676,1.78463891,3.51266632,5.72229833,0.16844948,0.33375567,0.94226227
26025,0,USMichiganCalhoun,Michigan,Calhoun,2021-01-05 19:45:53.078179,2020-12-26 00:00:00.000000,2.94814478,5.19405083,8.07562043,3955,6968,10834,2256,4547,7396,1.68181745,3.38956552,5.51319233,0.16513601,0.33812382,0.93472915
26025,0,USMichiganCalhoun,Michigan,Calhoun,2021-01-05 19:45:53.078179,2020-12-27 00:00:00.000000,2.80384485,4.96501557,7.82472525,3761,6661,10497,2124,4323,7112,1.58363911,3.22235654,5.30160518,0.15707119,0.35017850,0.92624035
26025,0,USMichiganCalhoun,Michigan,Calhoun,2021-01-05 19:45:53.078179,2020-12-28 00:00:00.000000,2.66165327,4.75597127,7.57500213,3570,6380,10162,2031,4154,6828,1.51431299,3.09650762,5.08950942,0.13926037,0.35321441,0.91404821
26025,0,USMichiganCalhoun,Michigan,Calhoun,2021-01-05 19:45:53.078179,2020-12-29 00:00:00.000000,2.52543337,4.55473975,7.29818341,3388,6110,9791,1978,3988,6545,1.47490121,2.97312773,4.87857806,0.13733352,0.35167963,0.90922923
26025,0,USMichiganCalhoun,Michigan,Calhoun,2021-01-05 19:45:53.078179,2020-12-30 00:00:00.000000,2.39497235,4.39018429,6.97416943,3213,5889,9356,1927,3820,6272,1.43649042,2.84783400,4.67538431,0.13516724,0.34603269,0.90379952
26025,0,USMichiganCalhoun,Michigan,Calhoun,2021-01-05 19:45:53.078179,2020-12-31 00:00:00.000000,2.27013483,4.23083152,6.65809131,3045,5676,8932,1876,3631,6015,1.39901977,2.70674969,4.48388220,0.13298237,0.35126993,0.90008341
26025,0,USMichiganCalhoun,Michigan,Calhoun,2021-01-05 19:45:53.078179,2021-01-01 00:00:00.000000,2.15034097,4.04212027,6.35020939,2884,5422,8519,1813,3483,5762,1.35182449,2.59648083,4.29508299,0.13038765,0.35396723,0.89765467
26025,0,USMichiganCalhoun,Michigan,Calhoun,2021-01-05 19:45:53.078179,2021-01-02 00:00:00.000000,2.03515179,3.86039741,6.05627877,2730,5179,8125,1720,3338,5513,1.28212460,2.48826603,4.10956091,0.12208258,0.35557744,0.89600707
26025,0,USMichiganCalhoun,Michigan,Calhoun,2021-01-05 19:45:53.078179,2021-01-03 00:00:00.000000,1.92504907,3.68575033,5.88131080,2582,4944,7890,1630,3198,5269,1.21530807,2.38431411,3.92771915,0.11827288,0.35310885,0.89374147
26025,0,USMichiganCalhoun,Michigan,Calhoun,2021-01-05 19:45:53.078179,2021-01-04 00:00:00.000000,1.82032127,3.49676782,5.70703337,2442,4691,7656,1544,3068,5030,1.15130711,2.28749085,3.74986594,0.11645534,0.34501882,0.92857378
26025,0,USMichiganCalhoun,Michigan,Calhoun,2021-01-05 19:45:53.078179,2021-01-05 00:00:00.000000,1.72090475,3.34226557,5.53411411,2308,4483,7424,1462,2922,4797,1.09012311,2.17837595,3.57632584,0.11550404,0.33605766,0.93203391
26025,0,USMichiganCalhoun,Michigan,Calhoun,2021-01-05 19:45:53.078179,2021-01-06 00:00:00.000000,1.62662558,3.20155258,5.36307163,2182,4295,7195,1384,2787,4627,1.03174789,2.07777717,3.44891547,0.11453594,0.33613701,0.93087099
26025,0,USMichiganCalhoun,Michigan,Calhoun,2021-01-05 19:45:53.078179,2021-01-07 00:00:00.000000,1.53728019,3.07726995,5.19431617,2062,4128,6968,1309,2669,4474,0.97614753,1.98964492,3.33533651,0.11392901,0.34719694,0.92995060
26025,0,USMichiganCalhoun,Michigan,Calhoun,2021-01-05 19:45:53.078179,2021-01-08 00:00:00.000000,1.45286388,2.95361217,5.01351137,1949,3962,6726,1238,2566,4326,0.92326516,1.91339891,3.22475928,0.11365238,0.34806437,0.92938437
26025,0,USMichiganCalhoun,Michigan,Calhoun,2021-01-05 19:45:53.078179,2021-01-09 00:00:00.000000,1.37305140,2.80183468,4.81504585,1842,3758,6459,1171,2476,4181,0.87302668,1.84575336,3.11705464,0.11352694,0.34782864,0.92904427
26025,0,USMichiganCalhoun,Michigan,Calhoun,2021-01-05 19:45:53.078179,2021-01-10 00:00:00.000000,1.29749643,2.66615074,4.62299623,1740,3576,6202,1107,2387,4041,0.82534583,1.77982150,3.01211727,0.11347011,0.34770670,0.92884050
26025,0,USMichiganCalhoun,Michigan,Calhoun,2021-01-05 19:45:53.078179,2021-01-11 00:00:00.000000,1.22599376,2.56978132,4.43729887,1644,3447,5953,1046,2287,3850,0.78012840,1.70495568,2.87016887,0.11344433,0.34764391,0.92871839
26025,0,USMichiganCalhoun,Michigan,Calhoun,2021-01-05 19:45:53.078179,2021-01-12 00:00:00.000000,1.14144433,2.47172014,4.25787098,1531,3316,5712,989,2216,3666,0.73727534,1.65246486,2.73289687,0.11343259,0.34761166,0.92864519
26025,0,USMichiganCalhoun,Michigan,Calhoun,2021-01-05 19:45:53.078179,2021-01-13 00:00:00.000000,1.05802850,2.37313930,4.08461462,1419,3183,5479,934,2123,3522,0.69668526,1.58269967,2.62568275,0.11342723,0.34759512,0.92860128
26025,0,USMichiganCalhoun,Michigan,Calhoun,2021-01-05 19:45:53.078179,2021-01-14 00:00:00.000000,0.98051147,2.26659073,3.91741971,1315,3040,5255,883,2033,3406,0.65825619,1.51544748,2.53926816,0.11342477,0.34758664,0.92857492
26025,0,USMichiganCalhoun,Michigan,Calhoun,2021-01-05 19:45:53.078179,2021-01-15 00:00:00.000000,0.90852000,2.15987913,3.76608376,1218,2897,5052,834,1946,3293,0.62183172,1.45069501,2.45456322,0.11342363,0.34758230,0.92855909
26025,0,USMichiganCalhoun,Michigan,Calhoun,2021-01-05 19:45:53.078179,2021-01-16 00:00:00.000000,0.84169409,2.04843981,3.66941230,1129,2748,4922,773,1876,3192,0.57651086,1.39861794,2.37984686,0.11342310,0.34758007,0.92854959
26025,0,USMichiganCalhoun,Michigan,Calhoun,2021-01-05 19:45:53.078179,2021-01-17 00:00:00.000000,0.77968936,1.94725336,3.57309357,1046,2612,4793,716,1790,3147,0.53434572,1.33490791,2.34590956,0.11342284,0.34757893,0.92854387
