FIPS,HR_UID,nameid,province,region,analysisTime,dates,pointprevalence_025,pointprevalence_50,pointprevalence_975,pointinfections_025,pointinfections_50,pointinfections_975,pointinfectious_025,pointinfectious_50,pointinfectious_975,pointinfectiousprevalence_05,pointinfectiousprevalence_50,pointinfectiousprevalence_95,infectrate_025,infectrate_50,infectrate_975
37005,0,USNorthCarolinaAlleghany,North Carolina,Alleghany,2021-01-05 14:21:31.725488,2020-03-09 00:00:00.000000,0.00695377,0.02911948,0.08208200,0,3,9,0,1,5,0.00376261,0.01569230,0.04909688,0.37110883,0.51976011,0.70199895
37005,0,USNorthCarolinaAlleghany,North Carolina,Alleghany,2021-01-05 14:21:31.725488,2020-03-10 00:00:00.000000,0.00722120,0.03101678,0.08620675,0,3,9,0,1,5,0.00380398,0.01566716,0.05053725,0.36879048,0.51974336,0.70182429
37005,0,USNorthCarolinaAlleghany,North Carolina,Alleghany,2021-01-05 14:21:31.725488,2020-03-11 00:00:00.000000,0.00759808,0.03297762,0.09110918,0,3,10,0,1,5,0.00400621,0.01643450,0.05342451,0.36577598,0.51971611,0.70146991
37005,0,USNorthCarolinaAlleghany,North Carolina,Alleghany,2021-01-05 14:21:31.725488,2020-03-12 00:00:00.000000,0.00803750,0.03491117,0.09196679,0,3,10,0,1,6,0.00420830,0.01766851,0.05393106,0.36191676,0.51967190,0.70075027
37005,0,USNorthCarolinaAlleghany,North Carolina,Alleghany,2021-01-05 14:21:31.725488,2020-03-13 00:00:00.000000,0.00851143,0.03719093,0.09765644,0,4,10,0,2,6,0.00444611,0.01900886,0.05444718,0.35707340,0.51920234,0.69929011
37005,0,USNorthCarolinaAlleghany,North Carolina,Alleghany,2021-01-05 14:21:31.725488,2020-03-14 00:00:00.000000,0.00901551,0.03914011,0.10395151,1,4,11,0,2,6,0.00470925,0.02024568,0.05517979,0.35114463,0.51518032,0.69633981
37005,0,USNorthCarolinaAlleghany,North Carolina,Alleghany,2021-01-05 14:21:31.725488,2020-03-15 00:00:00.000000,0.00959213,0.04251341,0.11054453,1,4,12,0,2,6,0.00503401,0.02176401,0.05889869,0.35063321,0.51198079,0.69177508
37005,0,USNorthCarolinaAlleghany,North Carolina,Alleghany,2021-01-05 14:21:31.725488,2020-03-16 00:00:00.000000,0.01792969,0.05669589,0.13600550,1,6,15,0,2,6,0.00552166,0.02335100,0.06278436,0.35080217,0.50401215,0.68983705
37005,0,USNorthCarolinaAlleghany,North Carolina,Alleghany,2021-01-05 14:21:31.725488,2020-03-17 00:00:00.000000,0.02640925,0.06863376,0.16183061,2,7,18,0,3,8,0.00856717,0.02882665,0.07360627,0.35004471,0.49717148,0.66375763
37005,0,USNorthCarolinaAlleghany,North Carolina,Alleghany,2021-01-05 14:21:31.725488,2020-03-18 00:00:00.000000,0.03586113,0.08230883,0.18757995,3,9,20,1,3,9,0.01311702,0.03577677,0.08752533,0.34980765,0.48845384,0.66092777
37005,0,USNorthCarolinaAlleghany,North Carolina,Alleghany,2021-01-05 14:21:31.725488,2020-03-19 00:00:00.000000,0.04598527,0.09551362,0.20920750,5,10,23,2,4,11,0.01829731,0.04412414,0.10324450,0.30733430,0.46992370,0.65242729
37005,0,USNorthCarolinaAlleghany,North Carolina,Alleghany,2021-01-05 14:21:31.725488,2020-03-20 00:00:00.000000,0.05289878,0.10932486,0.22937687,5,12,25,2,5,13,0.02313732,0.05205016,0.11908966,0.28662204,0.44718987,0.61909996
37005,0,USNorthCarolinaAlleghany,North Carolina,Alleghany,2021-01-05 14:21:31.725488,2020-03-21 00:00:00.000000,0.05866043,0.12243506,0.24204940,6,13,26,3,6,14,0.02807626,0.06053918,0.12910190,0.27068565,0.43568715,0.58537830
37005,0,USNorthCarolinaAlleghany,North Carolina,Alleghany,2021-01-05 14:21:31.725488,2020-03-22 00:00:00.000000,0.06423803,0.13272107,0.27121232,7,14,30,3,7,16,0.03338734,0.06665046,0.14555757,0.26051985,0.42221082,0.58633592
37005,0,USNorthCarolinaAlleghany,North Carolina,Alleghany,2021-01-05 14:21:31.725488,2020-03-23 00:00:00.000000,0.07545737,0.14920406,0.28297492,8,16,31,4,8,18,0.03792023,0.07403522,0.16708548,0.24614465,0.39923507,0.55674773
37005,0,USNorthCarolinaAlleghany,North Carolina,Alleghany,2021-01-05 14:21:31.725488,2020-03-24 00:00:00.000000,0.08530455,0.16381024,0.29320313,9,18,32,4,8,19,0.04264429,0.08020324,0.17937457,0.24445637,0.38869626,0.53295857
37005,0,USNorthCarolinaAlleghany,North Carolina,Alleghany,2021-01-05 14:21:31.725488,2020-03-25 00:00:00.000000,0.09742529,0.17510529,0.30174122,10,19,33,5,10,20,0.04785608,0.09014833,0.18755793,0.24453798,0.37467038,0.51469153
37005,0,USNorthCarolinaAlleghany,North Carolina,Alleghany,2021-01-05 14:21:31.725488,2020-03-26 00:00:00.000000,0.11256609,0.19047366,0.31452043,12,21,35,5,11,21,0.05369608,0.09911667,0.19387014,0.24401017,0.35398482,0.49169351
37005,0,USNorthCarolinaAlleghany,North Carolina,Alleghany,2021-01-05 14:21:31.725488,2020-03-27 00:00:00.000000,0.12072990,0.20344313,0.32658467,13,22,36,6,11,22,0.06158222,0.10723397,0.20369775,0.23471929,0.33795017,0.44965492
37005,0,USNorthCarolinaAlleghany,North Carolina,Alleghany,2021-01-05 14:21:31.725488,2020-03-28 00:00:00.000000,0.12691285,0.21914042,0.33620445,14,24,37,7,12,23,0.06679472,0.11539623,0.21258409,0.21209074,0.32347842,0.44369525
37005,0,USNorthCarolinaAlleghany,North Carolina,Alleghany,2021-01-05 14:21:31.725488,2020-03-29 00:00:00.000000,0.13554284,0.22909316,0.34766884,15,25,38,8,13,24,0.07192282,0.12300007,0.21955365,0.20602215,0.31621233,0.42709477
37005,0,USNorthCarolinaAlleghany,North Carolina,Alleghany,2021-01-05 14:21:31.725488,2020-03-30 00:00:00.000000,0.13683245,0.22996979,0.35022315,15,25,39,8,14,25,0.07726605,0.13097837,0.22455187,0.20237580,0.31057275,0.41878471
37005,0,USNorthCarolinaAlleghany,North Carolina,Alleghany,2021-01-05 14:21:31.725488,2020-03-31 00:00:00.000000,0.13653688,0.23280662,0.34887049,15,25,38,8,14,25,0.07976230,0.13299810,0.22574492,0.20016601,0.29387186,0.40836793
37005,0,USNorthCarolinaAlleghany,North Carolina,Alleghany,2021-01-05 14:21:31.725488,2020-04-01 00:00:00.000000,0.13594677,0.22081837,0.34384329,15,24,38,9,14,24,0.08120163,0.13369598,0.22410404,0.19883568,0.28413399,0.39959254
37005,0,USNorthCarolinaAlleghany,North Carolina,Alleghany,2021-01-05 14:21:31.725488,2020-04-02 00:00:00.000000,0.13525146,0.21991450,0.33628707,15,24,37,8,14,24,0.07928765,0.12887340,0.22137478,0.19394973,0.27119773,0.38456487
37005,0,USNorthCarolinaAlleghany,North Carolina,Alleghany,2021-01-05 14:21:31.725488,2020-04-03 00:00:00.000000,0.13062549,0.21482910,0.32812212,14,23,36,8,14,24,0.07789262,0.12622900,0.21774763,0.18725267,0.25880332,0.36586024
37005,0,USNorthCarolinaAlleghany,North Carolina,Alleghany,2021-01-05 14:21:31.725488,2020-04-04 00:00:00.000000,0.12430037,0.20602679,0.32458339,13,22,36,8,13,23,0.07641912,0.12440948,0.21320025,0.17885720,0.24980769,0.35943443
37005,0,USNorthCarolinaAlleghany,North Carolina,Alleghany,2021-01-05 14:21:31.725488,2020-04-05 00:00:00.000000,0.11817080,0.19981597,0.32005092,13,22,35,8,13,23,0.07463295,0.12502976,0.20943198,0.17248697,0.25011999,0.35939674
37005,0,USNorthCarolinaAlleghany,North Carolina,Alleghany,2021-01-05 14:21:31.725488,2020-04-06 00:00:00.000000,0.11100492,0.19645210,0.31838110,12,21,35,8,13,23,0.07259140,0.12094048,0.20677058,0.17165781,0.24324278,0.35974576
37005,0,USNorthCarolinaAlleghany,North Carolina,Alleghany,2021-01-05 14:21:31.725488,2020-04-07 00:00:00.000000,0.10376979,0.19089349,0.32158030,11,21,35,7,12,22,0.06945261,0.11447278,0.20328400,0.17144540,0.23941392,0.36014437
37005,0,USNorthCarolinaAlleghany,North Carolina,Alleghany,2021-01-05 14:21:31.725488,2020-04-08 00:00:00.000000,0.09769953,0.18647978,0.32507201,10,20,36,7,12,22,0.06610032,0.10972272,0.19891635,0.16973313,0.23747145,0.35998945
37005,0,USNorthCarolinaAlleghany,North Carolina,Alleghany,2021-01-05 14:21:31.725488,2020-04-09 00:00:00.000000,0.09270255,0.17785023,0.32857498,10,19,36,6,11,21,0.06098724,0.10721901,0.19735871,0.16951934,0.23054402,0.37310017
37005,0,USNorthCarolinaAlleghany,North Carolina,Alleghany,2021-01-05 14:21:31.725488,2020-04-10 00:00:00.000000,0.08764394,0.17380048,0.32781402,9,19,36,6,11,22,0.05610454,0.10634525,0.19759013,0.15952653,0.22619124,0.35990213
37005,0,USNorthCarolinaAlleghany,North Carolina,Alleghany,2021-01-05 14:21:31.725488,2020-04-11 00:00:00.000000,0.08208026,0.16785629,0.31738601,9,18,35,5,11,21,0.05141099,0.10550799,0.19573706,0.14293954,0.22429022,0.36001876
37005,0,USNorthCarolinaAlleghany,North Carolina,Alleghany,2021-01-05 14:21:31.725488,2020-04-12 00:00:00.000000,0.07752249,0.16329143,0.31530774,8,18,35,5,11,21,0.04706940,0.10102291,0.19647360,0.14230135,0.22323201,0.36036866
37005,0,USNorthCarolinaAlleghany,North Carolina,Alleghany,2021-01-05 14:21:31.725488,2020-04-13 00:00:00.000000,0.08021234,0.17111305,0.32439463,8,19,36,4,10,21,0.04377237,0.09766501,0.19571003,0.13600819,0.21862568,0.36158407
37005,0,USNorthCarolinaAlleghany,North Carolina,Alleghany,2021-01-05 14:21:31.725488,2020-04-14 00:00:00.000000,0.08276200,0.18777598,0.33322633,9,20,37,5,11,22,0.04750983,0.09895050,0.19841425,0.13580415,0.21346732,0.36513000
37005,0,USNorthCarolinaAlleghany,North Carolina,Alleghany,2021-01-05 14:21:31.725488,2020-04-15 00:00:00.000000,0.08585666,0.19250447,0.34251539,9,21,38,5,11,22,0.04770719,0.10493069,0.20285743,0.13570702,0.21079157,0.37170915
37005,0,USNorthCarolinaAlleghany,North Carolina,Alleghany,2021-01-05 14:21:31.725488,2020-04-16 00:00:00.000000,0.08695354,0.19130189,0.37222079,9,21,41,5,11,23,0.04670712,0.10719982,0.20827771,0.13372647,0.20836429,0.37705598
37005,0,USNorthCarolinaAlleghany,North Carolina,Alleghany,2021-01-05 14:21:31.725488,2020-04-17 00:00:00.000000,0.08555175,0.18914888,0.40785923,9,21,45,5,12,25,0.04777868,0.11218362,0.23153303,0.12824234,0.20369246,0.37197762
37005,0,USNorthCarolinaAlleghany,North Carolina,Alleghany,2021-01-05 14:21:31.725488,2020-04-18 00:00:00.000000,0.08673581,0.18451952,0.44269492,9,20,49,5,12,28,0.04771596,0.11385122,0.25229856,0.12720289,0.19778783,0.36140624
37005,0,USNorthCarolinaAlleghany,North Carolina,Alleghany,2021-01-05 14:21:31.725488,2020-04-19 00:00:00.000000,0.08827605,0.19048892,0.47452302,9,21,52,5,12,29,0.04779868,0.11293135,0.26583407,0.12846460,0.19294412,0.35069465
37005,0,USNorthCarolinaAlleghany,North Carolina,Alleghany,2021-01-05 14:21:31.725488,2020-04-20 00:00:00.000000,0.09303775,0.21006053,0.49169500,10,23,54,5,12,31,0.04800373,0.11417845,0.27919851,0.12706718,0.19033268,0.34056627
37005,0,USNorthCarolinaAlleghany,North Carolina,Alleghany,2021-01-05 14:21:31.725488,2020-04-21 00:00:00.000000,0.09776114,0.22001978,0.50834501,10,24,56,5,13,32,0.04922211,0.12109511,0.29159760,0.12477707,0.18893736,0.33215601
37005,0,USNorthCarolinaAlleghany,North Carolina,Alleghany,2021-01-05 14:21:31.725488,2020-04-22 00:00:00.000000,0.10250835,0.22717599,0.52473853,11,25,58,5,14,33,0.04906982,0.13466229,0.30320433,0.12303107,0.18797698,0.32718632
37005,0,USNorthCarolinaAlleghany,North Carolina,Alleghany,2021-01-05 14:21:31.725488,2020-04-23 00:00:00.000000,0.10264925,0.23636262,0.54030226,11,26,60,5,15,34,0.05147959,0.13614469,0.31102109,0.12240745,0.18449441,0.32000848
37005,0,USNorthCarolinaAlleghany,North Carolina,Alleghany,2021-01-05 14:21:31.725488,2020-04-24 00:00:00.000000,0.09964917,0.23960863,0.54760608,11,26,60,5,15,35,0.05380893,0.13966852,0.31708814,0.12192486,0.18001191,0.30312117
37005,0,USNorthCarolinaAlleghany,North Carolina,Alleghany,2021-01-05 14:21:31.725488,2020-04-25 00:00:00.000000,0.09660928,0.23882455,0.55000105,10,26,61,6,16,35,0.05595104,0.14513554,0.32080053,0.12105074,0.17804105,0.29733302
37005,0,USNorthCarolinaAlleghany,North Carolina,Alleghany,2021-01-05 14:21:31.725488,2020-04-26 00:00:00.000000,0.09347410,0.23608086,0.55140046,10,26,61,6,16,35,0.05779652,0.14716178,0.32292472,0.12004749,0.17570010,0.29948533
37005,0,USNorthCarolinaAlleghany,North Carolina,Alleghany,2021-01-05 14:21:31.725488,2020-04-27 00:00:00.000000,0.09765287,0.23520383,0.54619003,10,26,60,6,16,36,0.05807383,0.14501165,0.32410324,0.11905646,0.17217069,0.30054930
37005,0,USNorthCarolinaAlleghany,North Carolina,Alleghany,2021-01-05 14:21:31.725488,2020-04-28 00:00:00.000000,0.10332637,0.23967911,0.54069142,11,26,60,6,15,37,0.05943961,0.14353036,0.33688963,0.11826090,0.17139912,0.30477120
37005,0,USNorthCarolinaAlleghany,North Carolina,Alleghany,2021-01-05 14:21:31.725488,2020-04-29 00:00:00.000000,0.11445071,0.24647446,0.54591401,12,27,60,6,16,37,0.06071098,0.14397699,0.33954611,0.11444867,0.17046206,0.30612761
37005,0,USNorthCarolinaAlleghany,North Carolina,Alleghany,2021-01-05 14:21:31.725488,2020-04-30 00:00:00.000000,0.11970779,0.25060886,0.53831140,13,27,59,7,16,37,0.06399463,0.14569198,0.33365505,0.10797672,0.16924883,0.30670816
37005,0,USNorthCarolinaAlleghany,North Carolina,Alleghany,2021-01-05 14:21:31.725488,2020-05-01 00:00:00.000000,0.11960794,0.25055240,0.52696746,13,27,58,7,16,36,0.06472798,0.14743777,0.32731646,0.10787007,0.17042837,0.30718503
37005,0,USNorthCarolinaAlleghany,North Carolina,Alleghany,2021-01-05 14:21:31.725488,2020-05-02 00:00:00.000000,0.12077357,0.25195023,0.51826067,13,28,57,7,16,35,0.06692321,0.14810065,0.32074213,0.10850001,0.16821038,0.30769712
37005,0,USNorthCarolinaAlleghany,North Carolina,Alleghany,2021-01-05 14:21:31.725488,2020-05-03 00:00:00.000000,0.11941836,0.25016064,0.51133583,13,27,56,7,16,34,0.06493447,0.14700185,0.31382828,0.11088817,0.16307189,0.30814176
37005,0,USNorthCarolinaAlleghany,North Carolina,Alleghany,2021-01-05 14:21:31.725488,2020-05-04 00:00:00.000000,0.12108166,0.25842028,0.52460918,13,28,58,7,16,35,0.06308365,0.14589514,0.32227049,0.11243268,0.16110079,0.30819878
37005,0,USNorthCarolinaAlleghany,North Carolina,Alleghany,2021-01-05 14:21:31.725488,2020-05-05 00:00:00.000000,0.12432009,0.26238438,0.54414313,13,29,60,7,16,36,0.06367255,0.14690030,0.33181977,0.11605869,0.16177787,0.30902826
37005,0,USNorthCarolinaAlleghany,North Carolina,Alleghany,2021-01-05 14:21:31.725488,2020-05-06 00:00:00.000000,0.12778798,0.26443773,0.55869867,14,29,62,7,16,36,0.06839158,0.14756980,0.32516881,0.11772187,0.16324685,0.30932182
37005,0,USNorthCarolinaAlleghany,North Carolina,Alleghany,2021-01-05 14:21:31.725488,2020-05-07 00:00:00.000000,0.13131971,0.25948924,0.56020064,14,28,62,8,16,36,0.07325387,0.15176717,0.33116208,0.11852683,0.16243653,0.30637670
37005,0,USNorthCarolinaAlleghany,North Carolina,Alleghany,2021-01-05 14:21:31.725488,2020-05-08 00:00:00.000000,0.12912170,0.25272508,0.55841317,14,28,62,7,16,37,0.07079673,0.15170639,0.33244203,0.11468708,0.16175136,0.30074654
37005,0,USNorthCarolinaAlleghany,North Carolina,Alleghany,2021-01-05 14:21:31.725488,2020-05-09 00:00:00.000000,0.12473176,0.25729741,0.55536735,13,28,61,7,16,37,0.06945763,0.14956238,0.34008104,0.11107226,0.16158926,0.29270546
37005,0,USNorthCarolinaAlleghany,North Carolina,Alleghany,2021-01-05 14:21:31.725488,2020-05-10 00:00:00.000000,0.12084804,0.25698634,0.55041951,13,28,61,7,16,38,0.07089500,0.15023549,0.34628278,0.10585126,0.16208660,0.28289063
37005,0,USNorthCarolinaAlleghany,North Carolina,Alleghany,2021-01-05 14:21:31.725488,2020-05-11 00:00:00.000000,0.12062515,0.25792836,0.54939546,13,28,61,7,16,39,0.06976246,0.14986739,0.35067711,0.10477091,0.16299039,0.27243678
37005,0,USNorthCarolinaAlleghany,North Carolina,Alleghany,2021-01-05 14:21:31.725488,2020-05-12 00:00:00.000000,0.12213747,0.25673320,0.54783099,13,28,61,7,16,38,0.07147825,0.15000810,0.34871303,0.10335457,0.16294541,0.26233767
37005,0,USNorthCarolinaAlleghany,North Carolina,Alleghany,2021-01-05 14:21:31.725488,2020-05-13 00:00:00.000000,0.12727484,0.25826192,0.54625335,14,28,60,8,16,38,0.07428531,0.14902952,0.34323731,0.10062842,0.16457355,0.25930324
37005,0,USNorthCarolinaAlleghany,North Carolina,Alleghany,2021-01-05 14:21:31.725488,2020-05-14 00:00:00.000000,0.13090768,0.25620152,0.54321216,14,28,60,8,16,37,0.07744195,0.14879303,0.33555991,0.09949288,0.16564339,0.25991509
37005,0,USNorthCarolinaAlleghany,North Carolina,Alleghany,2021-01-05 14:21:31.725488,2020-05-15 00:00:00.000000,0.13150977,0.25650309,0.52465457,14,28,58,8,16,36,0.08062121,0.15004490,0.32623867,0.10026027,0.16677363,0.26214028
37005,0,USNorthCarolinaAlleghany,North Carolina,Alleghany,2021-01-05 14:21:31.725488,2020-05-16 00:00:00.000000,0.13232798,0.25914808,0.50780351,14,28,56,9,17,35,0.08365459,0.15325077,0.31762286,0.10026210,0.16781364,0.26609449
37005,0,USNorthCarolinaAlleghany,North Carolina,Alleghany,2021-01-05 14:21:31.725488,2020-05-17 00:00:00.000000,0.13338780,0.25620170,0.50366724,14,28,56,9,17,35,0.08470700,0.15673709,0.31497134,0.09939059,0.16569861,0.27970683
37005,0,USNorthCarolinaAlleghany,North Carolina,Alleghany,2021-01-05 14:21:31.725488,2020-05-18 00:00:00.000000,0.14264854,0.26355746,0.49960057,15,29,55,9,17,35,0.08532266,0.15461516,0.31548275,0.09858242,0.16472731,0.28827103
37005,0,USNorthCarolinaAlleghany,North Carolina,Alleghany,2021-01-05 14:21:31.725488,2020-05-19 00:00:00.000000,0.15233483,0.26964594,0.49384004,16,30,54,9,17,34,0.08772314,0.15549347,0.31225217,0.09770101,0.16599733,0.27309831
37005,0,USNorthCarolinaAlleghany,North Carolina,Alleghany,2021-01-05 14:21:31.725488,2020-05-20 00:00:00.000000,0.15286838,0.28382514,0.48646544,17,31,54,9,17,34,0.08698395,0.15970183,0.30906475,0.09649065,0.16533975,0.27330783
37005,0,USNorthCarolinaAlleghany,North Carolina,Alleghany,2021-01-05 14:21:31.725488,2020-05-21 00:00:00.000000,0.15411294,0.28533124,0.47836131,17,31,53,9,18,33,0.08613409,0.16573848,0.30463844,0.09456116,0.16567609,0.27378502
37005,0,USNorthCarolinaAlleghany,North Carolina,Alleghany,2021-01-05 14:21:31.725488,2020-05-22 00:00:00.000000,0.14852139,0.29213041,0.48672796,16,32,54,9,19,33,0.08509691,0.17081248,0.29970251,0.09155857,0.16237652,0.27565003
37005,0,USNorthCarolinaAlleghany,North Carolina,Alleghany,2021-01-05 14:21:31.725488,2020-05-23 00:00:00.000000,0.14481939,0.29034312,0.50041925,16,32,55,9,20,32,0.08373935,0.18161331,0.29620675,0.08820186,0.16252102,0.27679921
37005,0,USNorthCarolinaAlleghany,North Carolina,Alleghany,2021-01-05 14:21:31.725488,2020-05-24 00:00:00.000000,0.13863421,0.29387996,0.53002208,15,32,59,8,20,35,0.08079439,0.18443134,0.31627058,0.08625850,0.16487198,0.27327079
37005,0,USNorthCarolinaAlleghany,North Carolina,Alleghany,2021-01-05 14:21:31.725488,2020-05-25 00:00:00.000000,0.14433001,0.29145142,0.52901048,16,32,58,8,20,37,0.07745654,0.18162927,0.33687425,0.08584150,0.17004826,0.26950114
37005,0,USNorthCarolinaAlleghany,North Carolina,Alleghany,2021-01-05 14:21:31.725488,2020-05-26 00:00:00.000000,0.15039763,0.29461432,0.53622490,16,32,59,8,20,38,0.08048293,0.18146416,0.34357143,0.08558415,0.16469609,0.26652467
37005,0,USNorthCarolinaAlleghany,North Carolina,Alleghany,2021-01-05 14:21:31.725488,2020-05-27 00:00:00.000000,0.15726762,0.29426405,0.54087406,17,32,60,9,19,38,0.08119292,0.17322197,0.34356130,0.08545749,0.16201737,0.26434792
37005,0,USNorthCarolinaAlleghany,North Carolina,Alleghany,2021-01-05 14:21:31.725488,2020-05-28 00:00:00.000000,0.16432907,0.29940565,0.55743345,18,33,62,9,19,39,0.08468036,0.17379481,0.35342745,0.08547536,0.16382225,0.26292038
37005,0,USNorthCarolinaAlleghany,North Carolina,Alleghany,2021-01-05 14:21:31.725488,2020-05-29 00:00:00.000000,0.16070573,0.30115876,0.62584784,17,33,69,9,19,40,0.08419379,0.17559233,0.35938133,0.08573883,0.16599229,0.26905030
37005,0,USNorthCarolinaAlleghany,North Carolina,Alleghany,2021-01-05 14:21:31.725488,2020-05-30 00:00:00.000000,0.15726031,0.29908245,0.65513805,17,33,72,9,19,41,0.08263229,0.17630602,0.37396248,0.08741779,0.16789810,0.26322755
37005,0,USNorthCarolinaAlleghany,North Carolina,Alleghany,2021-01-05 14:21:31.725488,2020-05-31 00:00:00.000000,0.15485040,0.29806684,0.66889577,17,33,74,9,19,45,0.08325672,0.17541050,0.41180477,0.09350482,0.17211048,0.26682668
37005,0,USNorthCarolinaAlleghany,North Carolina,Alleghany,2021-01-05 14:21:31.725488,2020-06-01 00:00:00.000000,0.16780667,0.29374209,0.66141828,18,32,73,9,20,47,0.08387346,0.17985185,0.42909064,0.09440530,0.17221734,0.27415422
37005,0,USNorthCarolinaAlleghany,North Carolina,Alleghany,2021-01-05 14:21:31.725488,2020-06-02 00:00:00.000000,0.17004940,0.29832469,0.65215692,18,33,72,10,20,47,0.08995354,0.18117360,0.42804350,0.09620787,0.17266650,0.28349346
37005,0,USNorthCarolinaAlleghany,North Carolina,Alleghany,2021-01-05 14:21:31.725488,2020-06-03 00:00:00.000000,0.16676900,0.29624603,0.63520459,18,32,70,9,19,46,0.08884837,0.17566395,0.41639165,0.09925262,0.17312715,0.29100893
37005,0,USNorthCarolinaAlleghany,North Carolina,Alleghany,2021-01-05 14:21:31.725488,2020-06-04 00:00:00.000000,0.16705768,0.29416964,0.60723383,18,32,67,10,19,44,0.09582284,0.17648232,0.40245693,0.10347665,0.17645875,0.29529998
37005,0,USNorthCarolinaAlleghany,North Carolina,Alleghany,2021-01-05 14:21:31.725488,2020-06-05 00:00:00.000000,0.16166867,0.29486648,0.58963444,18,32,65,11,19,43,0.09924997,0.17774823,0.38785257,0.10361063,0.17768217,0.29757016
37005,0,USNorthCarolinaAlleghany,North Carolina,Alleghany,2021-01-05 14:21:31.725488,2020-06-06 00:00:00.000000,0.15620570,0.29505870,0.58956982,17,32,65,11,19,41,0.09910333,0.17948138,0.37373886,0.10417737,0.18329820,0.29918195
37005,0,USNorthCarolinaAlleghany,North Carolina,Alleghany,2021-01-05 14:21:31.725488,2020-06-07 00:00:00.000000,0.15446378,0.29570766,0.58674154,17,32,65,10,19,40,0.09679912,0.17604447,0.35996082,0.10545455,0.18602697,0.30221441
37005,0,USNorthCarolinaAlleghany,North Carolina,Alleghany,2021-01-05 14:21:31.725488,2020-06-08 00:00:00.000000,0.15449422,0.29697429,0.56425064,17,33,62,10,19,38,0.09237593,0.17800393,0.34646017,0.10782267,0.18971322,0.30638691
37005,0,USNorthCarolinaAlleghany,North Carolina,Alleghany,2021-01-05 14:21:31.725488,2020-06-09 00:00:00.000000,0.15538970,0.29928044,0.55160217,17,33,61,10,19,37,0.09237223,0.17499511,0.33945503,0.11149804,0.19203579,0.30888787
37005,0,USNorthCarolinaAlleghany,North Carolina,Alleghany,2021-01-05 14:21:31.725488,2020-06-10 00:00:00.000000,0.16137233,0.29530044,0.54425195,17,32,60,10,19,37,0.09521286,0.17473889,0.33555004,0.11730700,0.19513856,0.30972453
37005,0,USNorthCarolinaAlleghany,North Carolina,Alleghany,2021-01-05 14:21:31.725488,2020-06-11 00:00:00.000000,0.16097611,0.29014598,0.53589500,17,32,59,10,19,37,0.09575221,0.17340954,0.33312589,0.11804095,0.19944222,0.31009656
37005,0,USNorthCarolinaAlleghany,North Carolina,Alleghany,2021-01-05 14:21:31.725488,2020-06-12 00:00:00.000000,0.16073487,0.28976065,0.52711641,17,32,58,10,19,36,0.09523703,0.17206792,0.33179901,0.11896191,0.20280835,0.31044698
37005,0,USNorthCarolinaAlleghany,North Carolina,Alleghany,2021-01-05 14:21:31.725488,2020-06-13 00:00:00.000000,0.16242585,0.28874510,0.51815607,18,32,57,10,19,36,0.09505460,0.17309124,0.33131413,0.13553566,0.20158519,0.31094941
37005,0,USNorthCarolinaAlleghany,North Carolina,Alleghany,2021-01-05 14:21:31.725488,2020-06-14 00:00:00.000000,0.16739970,0.29176582,0.50917079,18,32,56,10,19,36,0.09504209,0.17741711,0.33157622,0.14971391,0.20319639,0.31725281
37005,0,USNorthCarolinaAlleghany,North Carolina,Alleghany,2021-01-05 14:21:31.725488,2020-06-15 00:00:00.000000,0.17162590,0.29910077,0.50347012,19,33,56,10,19,37,0.09655967,0.17817830,0.33251843,0.15037235,0.20852916,0.32561474
37005,0,USNorthCarolinaAlleghany,North Carolina,Alleghany,2021-01-05 14:21:31.725488,2020-06-16 00:00:00.000000,0.16639788,0.30959198,0.50684346,18,34,56,10,20,37,0.09857099,0.17961282,0.33399798,0.14905640,0.21024802,0.32944382
37005,0,USNorthCarolinaAlleghany,North Carolina,Alleghany,2021-01-05 14:21:31.725488,2020-06-17 00:00:00.000000,0.16916380,0.31735727,0.51753895,18,35,57,10,20,37,0.09703344,0.18172154,0.33588379,0.14828955,0.21805517,0.33036354
37005,0,USNorthCarolinaAlleghany,North Carolina,Alleghany,2021-01-05 14:21:31.725488,2020-06-18 00:00:00.000000,0.17206692,0.31716947,0.55166154,19,35,61,10,20,37,0.09611457,0.18612632,0.33803974,0.14787183,0.22222527,0.34362909
37005,0,USNorthCarolinaAlleghany,North Carolina,Alleghany,2021-01-05 14:21:31.725488,2020-06-19 00:00:00.000000,0.17150704,0.31923906,0.57828080,19,35,64,10,20,37,0.09581091,0.18577472,0.34036570,0.15176787,0.22714208,0.35614652
37005,0,USNorthCarolinaAlleghany,North Carolina,Alleghany,2021-01-05 14:21:31.725488,2020-06-20 00:00:00.000000,0.16985316,0.32196139,0.58554756,18,35,65,10,20,39,0.09746605,0.18450537,0.35076732,0.15474933,0.23473392,0.37496731
37005,0,USNorthCarolinaAlleghany,North Carolina,Alleghany,2021-01-05 14:21:31.725488,2020-06-21 00:00:00.000000,0.17603307,0.32377710,0.59263543,19,36,66,11,20,41,0.10180500,0.18813951,0.37361706,0.17354005,0.24298251,0.38043559
37005,0,USNorthCarolinaAlleghany,North Carolina,Alleghany,2021-01-05 14:21:31.725488,2020-06-22 00:00:00.000000,0.18328145,0.32344572,0.60138224,20,36,66,11,21,43,0.10473768,0.19139934,0.38793085,0.17562248,0.26063054,0.38366507
37005,0,USNorthCarolinaAlleghany,North Carolina,Alleghany,2021-01-05 14:21:31.725488,2020-06-23 00:00:00.000000,0.18403783,0.33255177,0.60885340,20,37,67,11,21,43,0.10626100,0.19505975,0.39301757,0.17789497,0.26984571,0.38481893
37005,0,USNorthCarolinaAlleghany,North Carolina,Alleghany,2021-01-05 14:21:31.725488,2020-06-24 00:00:00.000000,0.18467396,0.34109999,0.60351806,20,37,67,12,22,42,0.10876198,0.19999045,0.37761401,0.18434541,0.27882711,0.39050591
37005,0,USNorthCarolinaAlleghany,North Carolina,Alleghany,2021-01-05 14:21:31.725488,2020-06-25 00:00:00.000000,0.18838438,0.35334838,0.61782674,20,39,68,12,22,40,0.10910492,0.20239797,0.36128420,0.18819139,0.28806844,0.40166805
37005,0,USNorthCarolinaAlleghany,North Carolina,Alleghany,2021-01-05 14:21:31.725488,2020-06-26 00:00:00.000000,0.19446130,0.36675938,0.63397603,21,40,70,12,22,41,0.10965694,0.20578175,0.37644614,0.19512212,0.29694033,0.43695548
37005,0,USNorthCarolinaAlleghany,North Carolina,Alleghany,2021-01-05 14:21:31.725488,2020-06-27 00:00:00.000000,0.20428274,0.38150681,0.64268346,22,42,71,12,23,43,0.11084278,0.21353615,0.39212478,0.19969300,0.30492526,0.45778348
37005,0,USNorthCarolinaAlleghany,North Carolina,Alleghany,2021-01-05 14:21:31.725488,2020-06-28 00:00:00.000000,0.21721224,0.39744124,0.67643119,24,44,75,12,24,45,0.11457676,0.21918871,0.40811725,0.20008189,0.31637020,0.47295965
37005,0,USNorthCarolinaAlleghany,North Carolina,Alleghany,2021-01-05 14:21:31.725488,2020-06-29 00:00:00.000000,0.24403736,0.41493438,0.72090344,27,46,80,13,25,47,0.12005100,0.22568594,0.42431002,0.20138337,0.32575538,0.50233732
37005,0,USNorthCarolinaAlleghany,North Carolina,Alleghany,2021-01-05 14:21:31.725488,2020-06-30 00:00:00.000000,0.25491657,0.43717085,0.78746762,28,48,87,14,25,48,0.13022931,0.23103428,0.43518298,0.20654241,0.32996746,0.52151682
37005,0,USNorthCarolinaAlleghany,North Carolina,Alleghany,2021-01-05 14:21:31.725488,2020-07-01 00:00:00.000000,0.26615794,0.46451288,0.85750967,29,51,95,15,27,49,0.13754265,0.24405179,0.44840613,0.22498308,0.34239663,0.53561755
37005,0,USNorthCarolinaAlleghany,North Carolina,Alleghany,2021-01-05 14:21:31.725488,2020-07-02 00:00:00.000000,0.27784333,0.49490322,0.93384084,30,55,104,16,29,52,0.14424090,0.26287330,0.47427011,0.24065065,0.35595102,0.54503775
37005,0,USNorthCarolinaAlleghany,North Carolina,Alleghany,2021-01-05 14:21:31.725488,2020-07-03 00:00:00.000000,0.29030431,0.53506938,1.02688499,32,59,114,17,31,57,0.15493162,0.27835338,0.51545639,0.25441919,0.38232330,0.55266814
37005,0,USNorthCarolinaAlleghany,North Carolina,Alleghany,2021-01-05 14:21:31.725488,2020-07-04 00:00:00.000000,0.30658755,0.57358747,1.13386641,34,63,126,18,32,62,0.16628120,0.29620806,0.56344569,0.27418732,0.41845401,0.56901867
37005,0,USNorthCarolinaAlleghany,North Carolina,Alleghany,2021-01-05 14:21:31.725488,2020-07-05 00:00:00.000000,0.32987745,0.61015486,1.24871451,36,67,139,19,35,68,0.17851552,0.31954008,0.61905483,0.28328097,0.44195728,0.59216425
37005,0,USNorthCarolinaAlleghany,North Carolina,Alleghany,2021-01-05 14:21:31.725488,2020-07-06 00:00:00.000000,0.38631835,0.64283701,1.33631500,43,71,148,21,38,75,0.19202133,0.34233835,0.68100701,0.30024147,0.45732237,0.60803996
37005,0,USNorthCarolinaAlleghany,North Carolina,Alleghany,2021-01-05 14:21:31.725488,2020-07-07 00:00:00.000000,0.41216963,0.69111031,1.42482249,45,76,158,22,40,81,0.20399991,0.36371506,0.73087484,0.32444050,0.47586416,0.61801681
37005,0,USNorthCarolinaAlleghany,North Carolina,Alleghany,2021-01-05 14:21:31.725488,2020-07-08 00:00:00.000000,0.44738878,0.75158286,1.49649362,49,83,166,24,43,85,0.22146723,0.38926255,0.77219349,0.34412903,0.49598072,0.64804662
37005,0,USNorthCarolinaAlleghany,North Carolina,Alleghany,2021-01-05 14:21:31.725488,2020-07-09 00:00:00.000000,0.49295865,0.81774360,1.57146277,54,91,175,28,47,90,0.25934037,0.42560915,0.81307610,0.34971967,0.51341454,0.69944269
37005,0,USNorthCarolinaAlleghany,North Carolina,Alleghany,2021-01-05 14:21:31.725488,2020-07-10 00:00:00.000000,0.54054657,0.89171618,1.65112766,60,99,183,30,51,95,0.27491584,0.46178964,0.85480244,0.35516152,0.54408195,0.73821985
37005,0,USNorthCarolinaAlleghany,North Carolina,Alleghany,2021-01-05 14:21:31.725488,2020-07-11 00:00:00.000000,0.58271254,0.98025876,1.73796896,64,109,193,35,57,100,0.31442562,0.51270186,0.89879398,0.35589008,0.56390059,0.75721025
37005,0,USNorthCarolinaAlleghany,North Carolina,Alleghany,2021-01-05 14:21:31.725488,2020-07-12 00:00:00.000000,0.61033333,1.07021491,1.88433262,67,119,209,35,61,109,0.31897187,0.55299490,0.98367171,0.35998389,0.59357871,0.79247068
37005,0,USNorthCarolinaAlleghany,North Carolina,Alleghany,2021-01-05 14:21:31.725488,2020-07-13 00:00:00.000000,0.71935416,1.20595381,2.06032309,80,134,229,37,67,119,0.33966913,0.60852506,1.07677274,0.37759761,0.62116668,0.86069371
37005,0,USNorthCarolinaAlleghany,North Carolina,Alleghany,2021-01-05 14:21:31.725488,2020-07-14 00:00:00.000000,0.78785862,1.37465075,2.28225100,87,153,254,44,75,131,0.39913656,0.67444482,1.17784254,0.40406173,0.64306011,0.87169959
37005,0,USNorthCarolinaAlleghany,North Carolina,Alleghany,2021-01-05 14:21:31.725488,2020-07-15 00:00:00.000000,0.86810272,1.53586155,2.53446837,96,171,282,47,84,144,0.43040518,0.76295080,1.30163442,0.44127450,0.67424315,0.87675256
37005,0,USNorthCarolinaAlleghany,North Carolina,Alleghany,2021-01-05 14:21:31.725488,2020-07-16 00:00:00.000000,0.95982016,1.72334324,2.85670662,106,191,318,53,95,156,0.47605180,0.86097157,1.40944969,0.45459985,0.70722376,0.89771203
37005,0,USNorthCarolinaAlleghany,North Carolina,Alleghany,2021-01-05 14:21:31.725488,2020-07-17 00:00:00.000000,1.06413216,1.93461848,3.20884937,118,215,357,59,105,171,0.53756656,0.94814508,1.54226511,0.47772005,0.73604626,0.91359185
37005,0,USNorthCarolinaAlleghany,North Carolina,Alleghany,2021-01-05 14:21:31.725488,2020-07-18 00:00:00.000000,1.18747876,2.17687774,3.59844870,132,242,400,66,116,190,0.59499474,1.04587823,1.70707357,0.51231037,0.75847611,0.92251279
37005,0,USNorthCarolinaAlleghany,North Carolina,Alleghany,2021-01-05 14:21:31.725488,2020-07-19 00:00:00.000000,1.33761466,2.44698172,4.03579052,148,272,449,73,130,213,0.66219966,1.16950816,1.91406951,0.54946561,0.78909149,0.92345013
37005,0,USNorthCarolinaAlleghany,North Carolina,Alleghany,2021-01-05 14:21:31.725488,2020-07-20 00:00:00.000000,1.49642439,2.77199920,4.53253480,166,308,504,82,149,239,0.74303900,1.33788711,2.14653928,0.57232830,0.80328372,0.94616116
37005,0,USNorthCarolinaAlleghany,North Carolina,Alleghany,2021-01-05 14:21:31.725488,2020-07-21 00:00:00.000000,1.69185407,3.18643572,5.08168038,188,354,565,92,170,268,0.83251555,1.53270772,2.40809473,0.59349102,0.80829022,0.95653540
37005,0,USNorthCarolinaAlleghany,North Carolina,Alleghany,2021-01-05 14:21:31.725488,2020-07-22 00:00:00.000000,1.92881935,3.59930062,5.61622245,214,400,625,104,193,303,0.94000886,1.73305328,2.72679721,0.63426062,0.83275574,0.96391305
37005,0,USNorthCarolinaAlleghany,North Carolina,Alleghany,2021-01-05 14:21:31.725488,2020-07-23 00:00:00.000000,2.21164768,4.04364702,6.35098146,246,450,707,122,218,345,1.10434069,1.96636764,3.10576329,0.64206694,0.83876417,0.93962310
37005,0,USNorthCarolinaAlleghany,North Carolina,Alleghany,2021-01-05 14:21:31.725488,2020-07-24 00:00:00.000000,2.59312908,4.53955625,7.10442376,288,505,791,144,249,393,1.30181583,2.24276909,3.52971226,0.58606020,0.83174753,0.95545408
37005,0,USNorthCarolinaAlleghany,North Carolina,Alleghany,2021-01-05 14:21:31.725488,2020-07-25 00:00:00.000000,3.03752404,5.13092686,7.91088387,338,571,881,165,284,440,1.48850449,2.55027114,3.95710626,0.61386168,0.82531044,0.96122166
37005,0,USNorthCarolinaAlleghany,North Carolina,Alleghany,2021-01-05 14:21:31.725488,2020-07-26 00:00:00.000000,3.52484642,5.84536415,8.76822845,392,650,976,185,321,490,1.66794200,2.88528700,4.40837727,0.61389215,0.80902258,0.95291407
37005,0,USNorthCarolinaAlleghany,North Carolina,Alleghany,2021-01-05 14:21:31.725488,2020-07-27 00:00:00.000000,4.00216943,6.51331570,9.58281378,445,725,1067,208,359,556,1.87198413,3.23155169,4.99743760,0.59319969,0.78822345,0.93141397
37005,0,USNorthCarolinaAlleghany,North Carolina,Alleghany,2021-01-05 14:21:31.725488,2020-07-28 00:00:00.000000,4.49400881,7.11950639,10.25408745,500,792,1141,238,402,626,2.13940314,3.61496529,5.62391060,0.50987806,0.74666850,0.90984397
37005,0,USNorthCarolinaAlleghany,North Carolina,Alleghany,2021-01-05 14:21:31.725488,2020-07-29 00:00:00.000000,5.12274490,7.82693884,11.05657565,570,871,1231,272,447,677,2.44387316,4.02173685,6.08440512,0.40775471,0.70255756,0.90086688
37005,0,USNorthCarolinaAlleghany,North Carolina,Alleghany,2021-01-05 14:21:31.725488,2020-07-30 00:00:00.000000,5.73881589,8.45781339,11.50791578,639,941,1281,312,498,715,2.80959231,4.47542184,6.42329490,0.29972870,0.61046303,0.89910791
37005,0,USNorthCarolinaAlleghany,North Carolina,Alleghany,2021-01-05 14:21:31.725488,2020-07-31 00:00:00.000000,6.31689257,8.79262038,11.63350212,703,979,1295,347,533,775,3.12311100,4.79097786,6.96364465,0.23321577,0.49955071,0.88483937
37005,0,USNorthCarolinaAlleghany,North Carolina,Alleghany,2021-01-05 14:21:31.725488,2020-08-01 00:00:00.000000,6.46136281,8.79974308,11.59438410,719,980,1291,383,553,798,3.44379406,4.96851281,7.17031068,0.19631476,0.37278269,0.75260196
37005,0,USNorthCarolinaAlleghany,North Carolina,Alleghany,2021-01-05 14:21:31.725488,2020-08-02 00:00:00.000000,6.22767954,8.64471941,12.22331569,693,962,1361,392,565,832,3.52104125,5.07353497,7.47799024,0.16038368,0.28305423,0.59792607
37005,0,USNorthCarolinaAlleghany,North Carolina,Alleghany,2021-01-05 14:21:31.725488,2020-08-03 00:00:00.000000,5.81169372,8.29302317,12.12625062,647,923,1350,374,570,892,3.35867747,5.12624725,8.01097936,0.14815536,0.23027797,0.46536677
37005,0,USNorthCarolinaAlleghany,North Carolina,Alleghany,2021-01-05 14:21:31.725488,2020-08-04 00:00:00.000000,5.38397449,7.86507608,11.58596757,599,875,1290,351,549,905,3.15407827,4.93645555,8.12684325,0.13641208,0.20496718,0.35576394
37005,0,USNorthCarolinaAlleghany,North Carolina,Alleghany,2021-01-05 14:21:31.725488,2020-08-05 00:00:00.000000,4.97183653,7.31589945,10.96179021,553,814,1220,326,520,876,2.93474770,4.67255321,7.86900095,0.12923238,0.19118264,0.30296783
37005,0,USNorthCarolinaAlleghany,North Carolina,Alleghany,2021-01-05 14:21:31.725488,2020-08-06 00:00:00.000000,4.59161591,6.77660879,10.30654799,511,754,1147,302,495,837,2.71732517,4.44707879,7.51692119,0.11773341,0.17931610,0.28197140
37005,0,USNorthCarolinaAlleghany,North Carolina,Alleghany,2021-01-05 14:21:31.725488,2020-08-07 00:00:00.000000,4.24268880,6.29147723,9.67967530,472,700,1078,279,461,792,2.51173621,4.14416208,7.11582157,0.11670333,0.17240600,0.26065396
37005,0,USNorthCarolinaAlleghany,North Carolina,Alleghany,2021-01-05 14:21:31.725488,2020-08-08 00:00:00.000000,3.84948657,5.80481554,9.12746016,428,646,1016,258,427,745,2.32363673,3.83804792,6.69632159,0.11498175,0.16536230,0.25008485
37005,0,USNorthCarolinaAlleghany,North Carolina,Alleghany,2021-01-05 14:21:31.725488,2020-08-09 00:00:00.000000,3.48790476,5.30468649,8.58903605,388,590,956,239,396,699,2.15352138,3.55605331,6.27756529,0.11170524,0.16102771,0.23974407
37005,0,USNorthCarolinaAlleghany,North Carolina,Alleghany,2021-01-05 14:21:31.725488,2020-08-10 00:00:00.000000,3.16870181,4.84326582,8.07542412,352,539,899,222,365,653,1.99912055,3.28388993,5.87059878,0.11071145,0.15834654,0.23361127
37005,0,USNorthCarolinaAlleghany,North Carolina,Alleghany,2021-01-05 14:21:31.725488,2020-08-11 00:00:00.000000,2.87935345,4.46297060,7.58287537,320,497,844,206,336,611,1.85089733,3.02591392,5.48761802,0.10967170,0.15828760,0.22654640
37005,0,USNorthCarolinaAlleghany,North Carolina,Alleghany,2021-01-05 14:21:31.725488,2020-08-12 00:00:00.000000,2.61882683,4.15017153,7.10807111,291,462,791,190,310,571,1.71094205,2.79217849,5.12787734,0.10834776,0.15889394,0.21406364
37005,0,USNorthCarolinaAlleghany,North Carolina,Alleghany,2021-01-05 14:21:31.725488,2020-08-13 00:00:00.000000,2.38591951,3.80564576,6.64429541,265,423,739,175,285,533,1.57969303,2.55910577,4.79018120,0.10657381,0.15819873,0.20809043
37005,0,USNorthCarolinaAlleghany,North Carolina,Alleghany,2021-01-05 14:21:31.725488,2020-08-14 00:00:00.000000,2.17899390,3.49282989,6.18768877,242,388,689,158,262,498,1.41965960,2.36083968,4.47288688,0.10367746,0.15823286,0.20906233
37005,0,USNorthCarolinaAlleghany,North Carolina,Alleghany,2021-01-05 14:21:31.725488,2020-08-15 00:00:00.000000,1.95008197,3.22380977,5.74273061,217,359,639,142,242,464,1.28077875,2.18060891,4.17412346,0.10297881,0.15441452,0.21091286
37005,0,USNorthCarolinaAlleghany,North Carolina,Alleghany,2021-01-05 14:21:31.725488,2020-08-16 00:00:00.000000,1.74138107,2.97524636,5.31736194,193,331,592,127,224,433,1.14675440,2.01631705,3.89118585,0.10282181,0.15154032,0.20323015
37005,0,USNorthCarolinaAlleghany,North Carolina,Alleghany,2021-01-05 14:21:31.725488,2020-08-17 00:00:00.000000,1.56564121,2.72337556,4.98455629,174,303,555,114,206,403,1.02501305,1.85730756,3.62289881,0.10278152,0.15091974,0.20316816
37005,0,USNorthCarolinaAlleghany,North Carolina,Alleghany,2021-01-05 14:21:31.725488,2020-08-18 00:00:00.000000,1.41367749,2.50376977,4.67886413,157,278,521,102,190,377,0.92048601,1.70745074,3.39265384,0.10206089,0.15112424,0.21224219
37005,0,USNorthCarolinaAlleghany,North Carolina,Alleghany,2021-01-05 14:21:31.725488,2020-08-19 00:00:00.000000,1.28109010,2.29994104,4.40155691,142,256,490,92,174,355,0.82949023,1.56627455,3.18809549,0.10102734,0.15134277,0.21774344
37005,0,USNorthCarolinaAlleghany,North Carolina,Alleghany,2021-01-05 14:21:31.725488,2020-08-20 00:00:00.000000,1.16469285,2.11657050,4.14904230,129,235,462,83,159,334,0.74970444,1.43271750,3.00289039,0.10108105,0.15109816,0.22056940
37005,0,USNorthCarolinaAlleghany,North Carolina,Alleghany,2021-01-05 14:21:31.725488,2020-08-21 00:00:00.000000,1.06267917,1.94133266,3.91847574,118,216,436,75,147,315,0.67966341,1.32734403,2.83364293,0.10073081,0.15086025,0.22803579
37005,0,USNorthCarolinaAlleghany,North Carolina,Alleghany,2021-01-05 14:21:31.725488,2020-08-22 00:00:00.000000,0.97439829,1.78798763,3.70739784,108,199,412,68,135,298,0.61830637,1.22000167,2.67830578,0.09933313,0.15218282,0.23302521
37005,0,USNorthCarolinaAlleghany,North Carolina,Alleghany,2021-01-05 14:21:31.725488,2020-08-23 00:00:00.000000,0.89870845,1.66223374,3.51334582,100,185,391,62,126,282,0.56452317,1.13380032,2.53542473,0.09438293,0.15339990,0.23429937
37005,0,USNorthCarolinaAlleghany,North Carolina,Alleghany,2021-01-05 14:21:31.725488,2020-08-24 00:00:00.000000,0.79869550,1.51410219,3.24994711,88,168,361,57,115,267,0.51722846,1.03889053,2.40382207,0.09240590,0.15439282,0.23449246
37005,0,USNorthCarolinaAlleghany,North Carolina,Alleghany,2021-01-05 14:21:31.725488,2020-08-25 00:00:00.000000,0.71042079,1.39500140,2.99897752,79,155,333,52,105,250,0.47425730,0.94468313,2.25130987,0.09441183,0.15520449,0.23444307
37005,0,USNorthCarolinaAlleghany,North Carolina,Alleghany,2021-01-05 14:21:31.725488,2020-08-26 00:00:00.000000,0.66294389,1.29765040,2.75914513,73,144,307,47,96,233,0.42496941,0.86912976,2.09345525,0.09207691,0.15683632,0.23983323
37005,0,USNorthCarolinaAlleghany,North Carolina,Alleghany,2021-01-05 14:21:31.725488,2020-08-27 00:00:00.000000,0.62250547,1.21701491,2.53509170,69,135,282,43,89,215,0.39179545,0.80287493,1.93854336,0.09360842,0.15868588,0.24524706
37005,0,USNorthCarolinaAlleghany,North Carolina,Alleghany,2021-01-05 14:21:31.725488,2020-08-28 00:00:00.000000,0.58928201,1.14436369,2.33630312,65,127,260,40,81,199,0.36198683,0.72841633,1.79079768,0.09550318,0.16213806,0.24845527
37005,0,USNorthCarolinaAlleghany,North Carolina,Alleghany,2021-01-05 14:21:31.725488,2020-08-29 00:00:00.000000,0.56178335,1.06829683,2.15326848,62,118,239,36,75,184,0.33113785,0.67521676,1.65221485,0.09979654,0.16553926,0.25739610
37005,0,USNorthCarolinaAlleghany,North Carolina,Alleghany,2021-01-05 14:21:31.725488,2020-08-30 00:00:00.000000,0.52277473,1.01310749,1.98583292,58,112,221,33,71,169,0.29883330,0.63914983,1.52361804,0.10372440,0.16781193,0.25982459
37005,0,USNorthCarolinaAlleghany,North Carolina,Alleghany,2021-01-05 14:21:31.725488,2020-08-31 00:00:00.000000,0.48553749,0.96080062,1.83971118,54,107,204,30,66,156,0.27125572,0.59987618,1.40523940,0.10444655,0.16922085,0.26369170
37005,0,USNorthCarolinaAlleghany,North Carolina,Alleghany,2021-01-05 14:21:31.725488,2020-09-01 00:00:00.000000,0.45596766,0.91268947,1.70803050,50,101,190,28,62,144,0.25898249,0.55739983,1.29931218,0.10466852,0.17169890,0.26915284
37005,0,USNorthCarolinaAlleghany,North Carolina,Alleghany,2021-01-05 14:21:31.725488,2020-09-02 00:00:00.000000,0.43615248,0.86384587,1.63329075,48,96,181,27,58,134,0.24839427,0.52509448,1.20429617,0.10480409,0.17347699,0.27022311
37005,0,USNorthCarolinaAlleghany,North Carolina,Alleghany,2021-01-05 14:21:31.725488,2020-09-03 00:00:00.000000,0.42227796,0.81270967,1.57380739,47,90,175,25,55,124,0.22823435,0.50163518,1.11912565,0.10695192,0.17438739,0.27065774
37005,0,USNorthCarolinaAlleghany,North Carolina,Alleghany,2021-01-05 14:21:31.725488,2020-09-04 00:00:00.000000,0.41419031,0.77191214,1.51877498,46,85,169,24,53,116,0.21645429,0.48194041,1.04302668,0.11298292,0.17962139,0.27122323
37005,0,USNorthCarolinaAlleghany,North Carolina,Alleghany,2021-01-05 14:21:31.725488,2020-09-05 00:00:00.000000,0.40005665,0.73399381,1.46811792,44,81,163,23,50,110,0.21078515,0.45532189,0.98874505,0.11804318,0.18817846,0.28315200
37005,0,USNorthCarolinaAlleghany,North Carolina,Alleghany,2021-01-05 14:21:31.725488,2020-09-06 00:00:00.000000,0.37875238,0.70627205,1.42139605,42,78,158,23,48,104,0.20728130,0.43586944,0.94059587,0.12209801,0.19029714,0.28060837
37005,0,USNorthCarolinaAlleghany,North Carolina,Alleghany,2021-01-05 14:21:31.725488,2020-09-07 00:00:00.000000,0.35857256,0.67205252,1.38397500,39,74,154,22,46,100,0.19966025,0.41826359,0.89871446,0.12531473,0.19859516,0.28683104
37005,0,USNorthCarolinaAlleghany,North Carolina,Alleghany,2021-01-05 14:21:31.725488,2020-09-08 00:00:00.000000,0.34146915,0.64633473,1.34947114,38,71,150,21,44,95,0.19145883,0.40237377,0.86178285,0.12580090,0.20351043,0.29570922
37005,0,USNorthCarolinaAlleghany,North Carolina,Alleghany,2021-01-05 14:21:31.725488,2020-09-09 00:00:00.000000,0.32642050,0.62412558,1.31772609,36,69,146,20,43,92,0.18389771,0.38751086,0.82981103,0.12694925,0.20721571,0.30819175
37005,0,USNorthCarolinaAlleghany,North Carolina,Alleghany,2021-01-05 14:21:31.725488,2020-09-10 00:00:00.000000,0.30264567,0.61262676,1.28893511,33,68,143,19,41,89,0.17706904,0.37448374,0.80151614,0.12875639,0.20999094,0.31826009
37005,0,USNorthCarolinaAlleghany,North Carolina,Alleghany,2021-01-05 14:21:31.725488,2020-09-11 00:00:00.000000,0.28155522,0.59580715,1.26207506,31,66,140,19,39,86,0.17102032,0.35719443,0.77589754,0.13124624,0.21651324,0.32439986
37005,0,USNorthCarolinaAlleghany,North Carolina,Alleghany,2021-01-05 14:21:31.725488,2020-09-12 00:00:00.000000,0.26324213,0.58106181,1.23915577,29,64,138,17,37,83,0.16038256,0.33972440,0.75237312,0.13195082,0.22597129,0.33728350
37005,0,USNorthCarolinaAlleghany,North Carolina,Alleghany,2021-01-05 14:21:31.725488,2020-09-13 00:00:00.000000,0.26253375,0.56238257,1.22087585,29,62,135,16,36,81,0.15046894,0.33172684,0.73081903,0.14233749,0.23483167,0.34974885
37005,0,USNorthCarolinaAlleghany,North Carolina,Alleghany,2021-01-05 14:21:31.725488,2020-09-14 00:00:00.000000,0.26781991,0.58276498,1.23044622,29,64,137,16,37,79,0.15248377,0.33234665,0.71153377,0.14965909,0.24113022,0.36824039
37005,0,USNorthCarolinaAlleghany,North Carolina,Alleghany,2021-01-05 14:21:31.725488,2020-09-15 00:00:00.000000,0.25245761,0.56729563,1.22419305,28,63,136,17,38,78,0.15505378,0.34586325,0.70252309,0.15398001,0.24666547,0.38011035
37005,0,USNorthCarolinaAlleghany,North Carolina,Alleghany,2021-01-05 14:21:31.725488,2020-09-16 00:00:00.000000,0.24381433,0.56293596,1.22317516,27,62,136,17,38,77,0.15438567,0.34609845,0.69582640,0.15650445,0.25181939,0.38108662
37005,0,USNorthCarolinaAlleghany,North Carolina,Alleghany,2021-01-05 14:21:31.725488,2020-09-17 00:00:00.000000,0.24551510,0.57235157,1.23100040,27,63,137,16,38,77,0.14517898,0.34365043,0.69868519,0.15859004,0.25651370,0.37496154
37005,0,USNorthCarolinaAlleghany,North Carolina,Alleghany,2021-01-05 14:21:31.725488,2020-09-18 00:00:00.000000,0.24795263,0.57562110,1.25095531,27,64,139,15,38,77,0.13659769,0.34182761,0.69185882,0.16908345,0.26470719,0.37676278
37005,0,USNorthCarolinaAlleghany,North Carolina,Alleghany,2021-01-05 14:21:31.725488,2020-09-19 00:00:00.000000,0.25094722,0.58671015,1.30181166,27,65,144,15,37,77,0.13527016,0.34093407,0.69736792,0.16958164,0.27636007,0.38553628
37005,0,USNorthCarolinaAlleghany,North Carolina,Alleghany,2021-01-05 14:21:31.725488,2020-09-20 00:00:00.000000,0.24600365,0.60334737,1.35554540,27,67,150,15,38,78,0.13668669,0.34779406,0.70873226,0.17358924,0.28351897,0.40179128
37005,0,USNorthCarolinaAlleghany,North Carolina,Alleghany,2021-01-05 14:21:31.725488,2020-09-21 00:00:00.000000,0.31000078,0.61366393,1.35196339,34,68,150,15,39,80,0.13842552,0.35909895,0.72564425,0.18993659,0.29429619,0.42138938
37005,0,USNorthCarolinaAlleghany,North Carolina,Alleghany,2021-01-05 14:21:31.725488,2020-09-22 00:00:00.000000,0.32144136,0.63180950,1.35071044,35,70,150,17,40,82,0.15801266,0.36687105,0.74445317,0.19414651,0.29744376,0.44562528
37005,0,USNorthCarolinaAlleghany,North Carolina,Alleghany,2021-01-05 14:21:31.725488,2020-09-23 00:00:00.000000,0.32291094,0.64997838,1.34908815,35,72,150,20,41,85,0.18195295,0.37696819,0.76511535,0.19797707,0.30360295,0.45317821
37005,0,USNorthCarolinaAlleghany,North Carolina,Alleghany,2021-01-05 14:21:31.725488,2020-09-24 00:00:00.000000,0.35376882,0.66625946,1.35073579,39,74,150,21,43,88,0.19455198,0.38736469,0.79518259,0.20014972,0.31550394,0.46541374
37005,0,USNorthCarolinaAlleghany,North Carolina,Alleghany,2021-01-05 14:21:31.725488,2020-09-25 00:00:00.000000,0.36168502,0.68701575,1.36758608,40,76,152,22,44,92,0.20251498,0.39569909,0.82961400,0.20818206,0.32717600,0.47360306
37005,0,USNorthCarolinaAlleghany,North Carolina,Alleghany,2021-01-05 14:21:31.725488,2020-09-26 00:00:00.000000,0.35911685,0.72962024,1.39432941,39,81,155,23,45,94,0.20810345,0.41148995,0.85111463,0.21195622,0.34281084,0.50257905
37005,0,USNorthCarolinaAlleghany,North Carolina,Alleghany,2021-01-05 14:21:31.725488,2020-09-27 00:00:00.000000,0.35823026,0.75487170,1.40397644,39,84,156,23,46,95,0.21144844,0.42047270,0.86041003,0.22729148,0.35699034,0.51584554
37005,0,USNorthCarolinaAlleghany,North Carolina,Alleghany,2021-01-05 14:21:31.725488,2020-09-28 00:00:00.000000,0.42761532,0.77547533,1.38336336,47,86,154,23,48,98,0.21468739,0.43605045,0.88526150,0.23580156,0.36842543,0.53364541
37005,0,USNorthCarolinaAlleghany,North Carolina,Alleghany,2021-01-05 14:21:31.725488,2020-09-29 00:00:00.000000,0.44137193,0.79995927,1.37053151,49,89,152,25,49,101,0.23100121,0.44641762,0.91089270,0.25835861,0.37660322,0.54276647
37005,0,USNorthCarolinaAlleghany,North Carolina,Alleghany,2021-01-05 14:21:31.725488,2020-09-30 00:00:00.000000,0.49070294,0.83370914,1.36798458,54,92,152,28,51,102,0.25368082,0.46404339,0.91687099,0.26683997,0.38272301,0.54531700
37005,0,USNorthCarolinaAlleghany,North Carolina,Alleghany,2021-01-05 14:21:31.725488,2020-10-01 00:00:00.000000,0.50530444,0.87658258,1.37193414,56,97,152,30,54,101,0.27226221,0.48554513,0.91284321,0.27645290,0.39200386,0.54554486
37005,0,USNorthCarolinaAlleghany,North Carolina,Alleghany,2021-01-05 14:21:31.725488,2020-10-02 00:00:00.000000,0.49552806,0.91381793,1.37828470,55,101,153,31,55,101,0.28568219,0.49627031,0.91180352,0.28716142,0.40737071,0.57042534
37005,0,USNorthCarolinaAlleghany,North Carolina,Alleghany,2021-01-05 14:21:31.725488,2020-10-03 00:00:00.000000,0.48789538,0.94603829,1.38571707,54,105,154,33,57,101,0.29719084,0.51977445,0.91332743,0.29570093,0.42575503,0.61339540
37005,0,USNorthCarolinaAlleghany,North Carolina,Alleghany,2021-01-05 14:21:31.725488,2020-10-04 00:00:00.000000,0.48284116,0.96781330,1.39424453,53,107,155,34,59,102,0.30618215,0.53692171,0.91649991,0.30560723,0.44193076,0.62968392
37005,0,USNorthCarolinaAlleghany,North Carolina,Alleghany,2021-01-05 14:21:31.725488,2020-10-05 00:00:00.000000,0.51213060,0.99152995,1.47124155,57,110,163,33,61,102,0.30260082,0.55390398,0.92086916,0.31834527,0.45581752,0.65319205
37005,0,USNorthCarolinaAlleghany,North Carolina,Alleghany,2021-01-05 14:21:31.725488,2020-10-06 00:00:00.000000,0.54432584,1.02534095,1.54822792,60,114,172,34,64,105,0.31409333,0.57907017,0.94728014,0.32573693,0.46157691,0.67404573
37005,0,USNorthCarolinaAlleghany,North Carolina,Alleghany,2021-01-05 14:21:31.725488,2020-10-07 00:00:00.000000,0.59313009,1.06220246,1.62769270,66,118,181,37,66,109,0.33235556,0.60010194,0.98592565,0.32734780,0.46791933,0.68013009
37005,0,USNorthCarolinaAlleghany,North Carolina,Alleghany,2021-01-05 14:21:31.725488,2020-10-08 00:00:00.000000,0.66740337,1.08324555,1.70444864,74,120,189,39,68,114,0.35428808,0.61758966,1.03132123,0.32956833,0.47839555,0.68310763
37005,0,USNorthCarolinaAlleghany,North Carolina,Alleghany,2021-01-05 14:21:31.725488,2020-10-09 00:00:00.000000,0.74884118,1.14140378,1.74856799,83,127,194,42,70,120,0.37938215,0.62972431,1.08035235,0.33857314,0.48188677,0.68425750
37005,0,USNorthCarolinaAlleghany,North Carolina,Alleghany,2021-01-05 14:21:31.725488,2020-10-10 00:00:00.000000,0.83368607,1.19578179,1.78943385,92,133,199,45,71,124,0.40833329,0.64484244,1.11737439,0.34746254,0.48427076,0.68466751
37005,0,USNorthCarolinaAlleghany,North Carolina,Alleghany,2021-01-05 14:21:31.725488,2020-10-11 00:00:00.000000,0.87098737,1.25496305,1.82915438,97,139,203,49,75,127,0.44169384,0.67537781,1.14579752,0.35433803,0.49106326,0.68480017
37005,0,USNorthCarolinaAlleghany,North Carolina,Alleghany,2021-01-05 14:21:31.725488,2020-10-12 00:00:00.000000,0.94463048,1.32078012,1.90180194,105,147,211,51,80,130,0.46117022,0.72146005,1.17199997,0.35994423,0.49644667,0.68481147
37005,0,USNorthCarolinaAlleghany,North Carolina,Alleghany,2021-01-05 14:21:31.725488,2020-10-13 00:00:00.000000,1.00264483,1.38279129,1.97415258,111,154,219,54,83,131,0.48585948,0.75228381,1.18183681,0.36685063,0.50912177,0.68475625
37005,0,USNorthCarolinaAlleghany,North Carolina,Alleghany,2021-01-05 14:21:31.725488,2020-10-14 00:00:00.000000,1.06376342,1.42372352,2.00709871,118,158,223,61,88,132,0.55162634,0.79467538,1.19107174,0.37477928,0.51357450,0.68874603
37005,0,USNorthCarolinaAlleghany,North Carolina,Alleghany,2021-01-05 14:21:31.725488,2020-10-15 00:00:00.000000,1.12472646,1.48545152,2.12516819,125,165,236,65,93,140,0.58534081,0.83803641,1.26378572,0.37971207,0.52321122,0.69603257
37005,0,USNorthCarolinaAlleghany,North Carolina,Alleghany,2021-01-05 14:21:31.725488,2020-10-16 00:00:00.000000,1.18640868,1.53799219,2.18626817,132,171,243,67,96,147,0.60579410,0.86960209,1.32742714,0.38114257,0.52182664,0.69410664
37005,0,USNorthCarolinaAlleghany,North Carolina,Alleghany,2021-01-05 14:21:31.725488,2020-10-17 00:00:00.000000,1.24108298,1.59703687,2.28234731,138,177,254,68,100,150,0.61262776,0.89799197,1.34698062,0.38589378,0.52862484,0.69066576
37005,0,USNorthCarolinaAlleghany,North Carolina,Alleghany,2021-01-05 14:21:31.725488,2020-10-18 00:00:00.000000,1.28160647,1.65822547,2.42091495,142,184,269,71,103,158,0.63848425,0.93116694,1.42260140,0.39584462,0.53018172,0.68782328
37005,0,USNorthCarolinaAlleghany,North Carolina,Alleghany,2021-01-05 14:21:31.725488,2020-10-19 00:00:00.000000,1.32699526,1.70250657,2.49644978,147,189,278,75,106,167,0.67358268,0.95728983,1.50064733,0.38542381,0.52836089,0.68743167
37005,0,USNorthCarolinaAlleghany,North Carolina,Alleghany,2021-01-05 14:21:31.725488,2020-10-20 00:00:00.000000,1.35058691,1.80414973,2.56784564,150,200,285,78,110,172,0.70720318,0.99136181,1.54894867,0.39022503,0.52574628,0.68574402
37005,0,USNorthCarolinaAlleghany,North Carolina,Alleghany,2021-01-05 14:21:31.725488,2020-10-21 00:00:00.000000,1.37351404,1.88692642,2.63629068,152,210,293,82,115,180,0.74269736,1.03553646,1.61836066,0.39572954,0.52811701,0.68612084
37005,0,USNorthCarolinaAlleghany,North Carolina,Alleghany,2021-01-05 14:21:31.725488,2020-10-22 00:00:00.000000,1.39610293,1.95841453,2.69957907,155,218,300,84,120,186,0.75524227,1.07922436,1.67042908,0.39644645,0.52130033,0.68601929
37005,0,USNorthCarolinaAlleghany,North Carolina,Alleghany,2021-01-05 14:21:31.725488,2020-10-23 00:00:00.000000,1.41856403,2.00673708,2.75118082,157,223,306,85,124,191,0.76683417,1.11648275,1.71675177,0.40076481,0.51797430,0.68444576
37005,0,USNorthCarolinaAlleghany,North Carolina,Alleghany,2021-01-05 14:21:31.725488,2020-10-24 00:00:00.000000,1.44113677,2.05570269,2.78349741,160,228,309,86,130,195,0.77943607,1.16732500,1.75497284,0.40162434,0.50832040,0.64786641
37005,0,USNorthCarolinaAlleghany,North Carolina,Alleghany,2021-01-05 14:21:31.725488,2020-10-25 00:00:00.000000,1.46428219,2.09523645,2.87772487,163,233,320,88,133,198,0.79258144,1.19748718,1.78205348,0.38385972,0.50277116,0.63258427
37005,0,USNorthCarolinaAlleghany,North Carolina,Alleghany,2021-01-05 14:21:31.725488,2020-10-26 00:00:00.000000,1.54553492,2.11263842,2.93823412,172,235,327,89,137,203,0.80587298,1.23796005,1.82546316,0.35795498,0.49222351,0.64310403
37005,0,USNorthCarolinaAlleghany,North Carolina,Alleghany,2021-01-05 14:21:31.725488,2020-10-27 00:00:00.000000,1.52999803,2.15387502,2.99552364,170,239,333,90,141,206,0.81660156,1.26856879,1.85027209,0.35444675,0.48281270,0.64789653
37005,0,USNorthCarolinaAlleghany,North Carolina,Alleghany,2021-01-05 14:21:31.725488,2020-10-28 00:00:00.000000,1.51024825,2.22186573,3.04470929,168,247,339,92,143,211,0.82813158,1.29179005,1.89933851,0.35882488,0.47114339,0.64655495
37005,0,USNorthCarolinaAlleghany,North Carolina,Alleghany,2021-01-05 14:21:31.725488,2020-10-29 00:00:00.000000,1.48845427,2.23116303,3.08362009,165,248,343,93,145,216,0.83646557,1.30692188,1.94703901,0.35887875,0.46679125,0.64246082
37005,0,USNorthCarolinaAlleghany,North Carolina,Alleghany,2021-01-05 14:21:31.725488,2020-10-30 00:00:00.000000,1.46564339,2.24613445,3.12921058,163,250,348,93,146,219,0.84373084,1.31692500,1.97469902,0.34562184,0.45263819,0.63150551
37005,0,USNorthCarolinaAlleghany,North Carolina,Alleghany,2021-01-05 14:21:31.725488,2020-10-31 00:00:00.000000,1.48016816,2.29623439,3.25811680,164,255,362,95,148,222,0.85544855,1.32944787,1.99812241,0.33166067,0.44475743,0.60577228
37005,0,USNorthCarolinaAlleghany,North Carolina,Alleghany,2021-01-05 14:21:31.725488,2020-11-01 00:00:00.000000,1.51052599,2.30031360,3.36604597,168,256,374,96,148,226,0.87066379,1.33289413,2.03357444,0.30199393,0.43002295,0.58769367
37005,0,USNorthCarolinaAlleghany,North Carolina,Alleghany,2021-01-05 14:21:31.725488,2020-11-02 00:00:00.000000,1.54165929,2.28596405,3.44837144,171,254,384,98,148,230,0.88801464,1.32916053,2.06554393,0.29193699,0.42375809,0.55318546
37005,0,USNorthCarolinaAlleghany,North Carolina,Alleghany,2021-01-05 14:21:31.725488,2020-11-03 00:00:00.000000,1.57290245,2.27621416,3.50153305,175,253,389,100,150,232,0.90097715,1.35064787,2.09047124,0.28954323,0.41782612,0.53467443
37005,0,USNorthCarolinaAlleghany,North Carolina,Alleghany,2021-01-05 14:21:31.725488,2020-11-04 00:00:00.000000,1.56545503,2.27866365,3.41717352,174,253,380,100,149,234,0.89940234,1.34504271,2.10968313,0.28898623,0.41373493,0.53215336
37005,0,USNorthCarolinaAlleghany,North Carolina,Alleghany,2021-01-05 14:21:31.725488,2020-11-05 00:00:00.000000,1.56452806,2.24637120,3.32930930,174,250,370,99,149,236,0.89323016,1.34264301,2.12506365,0.28884355,0.40962895,0.53226778
37005,0,USNorthCarolinaAlleghany,North Carolina,Alleghany,2021-01-05 14:21:31.725488,2020-11-06 00:00:00.000000,1.57823060,2.22066492,3.31407014,175,247,369,98,147,235,0.88524511,1.32809682,2.11792356,0.28881441,0.41215860,0.52437420
37005,0,USNorthCarolinaAlleghany,North Carolina,Alleghany,2021-01-05 14:21:31.725488,2020-11-07 00:00:00.000000,1.60526849,2.18684972,3.32987647,178,243,370,97,146,235,0.87637547,1.31681436,2.11692254,0.28893924,0.40792591,0.49961998
37005,0,USNorthCarolinaAlleghany,North Carolina,Alleghany,2021-01-05 14:21:31.725488,2020-11-08 00:00:00.000000,1.60560518,2.13811695,3.34441059,178,238,372,97,144,235,0.87291549,1.29840234,2.11181290,0.28706281,0.40859696,0.50241120
37005,0,USNorthCarolinaAlleghany,North Carolina,Alleghany,2021-01-05 14:21:31.725488,2020-11-09 00:00:00.000000,1.56841846,2.12313471,3.35486009,174,236,373,98,143,236,0.88647184,1.28844447,2.11966195,0.28584668,0.40311304,0.51259815
37005,0,USNorthCarolinaAlleghany,North Carolina,Alleghany,2021-01-05 14:21:31.725488,2020-11-10 00:00:00.000000,1.53160569,2.11160978,3.32391635,170,235,370,96,143,239,0.86361799,1.28518953,2.15403637,0.29125623,0.40429334,0.51460479
37005,0,USNorthCarolinaAlleghany,North Carolina,Alleghany,2021-01-05 14:21:31.725488,2020-11-11 00:00:00.000000,1.49594447,2.08332292,3.26122215,166,232,363,93,142,239,0.83685765,1.27747913,2.14782815,0.29281176,0.39942943,0.52941739
37005,0,USNorthCarolinaAlleghany,North Carolina,Alleghany,2021-01-05 14:21:31.725488,2020-11-12 00:00:00.000000,1.46151337,2.05571974,3.21990186,162,228,358,90,140,235,0.81708036,1.25736998,2.11017239,0.29935742,0.40595004,0.55299002
37005,0,USNorthCarolinaAlleghany,North Carolina,Alleghany,2021-01-05 14:21:31.725488,2020-11-13 00:00:00.000000,1.42881297,2.06279497,3.22874097,159,229,359,89,138,230,0.80347699,1.24477188,2.07086349,0.30775776,0.41433679,0.55640344
37005,0,USNorthCarolinaAlleghany,North Carolina,Alleghany,2021-01-05 14:21:31.725488,2020-11-14 00:00:00.000000,1.39939674,2.08179280,3.24282060,155,231,361,88,136,226,0.79077494,1.22921556,2.03710100,0.32582901,0.41903824,0.57393567
37005,0,USNorthCarolinaAlleghany,North Carolina,Alleghany,2021-01-05 14:21:31.725488,2020-11-15 00:00:00.000000,1.37680142,2.09878672,3.27304073,153,233,364,86,136,226,0.78004804,1.22142954,2.03223806,0.33017837,0.42873938,0.60669468
37005,0,USNorthCarolinaAlleghany,North Carolina,Alleghany,2021-01-05 14:21:31.725488,2020-11-16 00:00:00.000000,1.33713207,2.11344037,3.31304461,148,235,368,86,134,226,0.77373294,1.20951281,2.03550339,0.33506026,0.44575649,0.63008893
37005,0,USNorthCarolinaAlleghany,North Carolina,Alleghany,2021-01-05 14:21:31.725488,2020-11-17 00:00:00.000000,1.29884865,2.10806345,3.35421221,144,234,373,86,134,227,0.77957566,1.20717795,2.04657335,0.33843163,0.46777473,0.64927085
37005,0,USNorthCarolinaAlleghany,North Carolina,Alleghany,2021-01-05 14:21:31.725488,2020-11-18 00:00:00.000000,1.28226471,2.10512595,3.40104583,142,234,378,85,135,229,0.76624676,1.21608562,2.06161235,0.33679905,0.48470340,0.66422375
37005,0,USNorthCarolinaAlleghany,North Carolina,Alleghany,2021-01-05 14:21:31.725488,2020-11-19 00:00:00.000000,1.30404643,2.13069903,3.45826762,145,237,385,83,137,231,0.74823337,1.23338652,2.07931162,0.33854909,0.49170953,0.69201536
37005,0,USNorthCarolinaAlleghany,North Carolina,Alleghany,2021-01-05 14:21:31.725488,2020-11-20 00:00:00.000000,1.36264488,2.16924595,3.52994438,151,241,393,84,136,233,0.75664346,1.22637040,2.09995011,0.34115256,0.51074859,0.79297067
37005,0,USNorthCarolinaAlleghany,North Carolina,Alleghany,2021-01-05 14:21:31.725488,2020-11-21 00:00:00.000000,1.44167598,2.18624646,3.61667087,160,243,402,86,139,236,0.77785261,1.24912828,2.12502767,0.36491462,0.53769660,0.85055038
37005,0,USNorthCarolinaAlleghany,North Carolina,Alleghany,2021-01-05 14:21:31.725488,2020-11-22 00:00:00.000000,1.46832911,2.23181366,3.71530573,163,248,413,88,142,241,0.79777225,1.27711420,2.16433315,0.38103774,0.55837087,0.86425770
37005,0,USNorthCarolinaAlleghany,North Carolina,Alleghany,2021-01-05 14:21:31.725488,2020-11-23 00:00:00.000000,1.51518492,2.31765160,3.81125121,168,258,424,90,144,246,0.81538360,1.30008053,2.21716039,0.41398686,0.57456000,0.86405434
37005,0,USNorthCarolinaAlleghany,North Carolina,Alleghany,2021-01-05 14:21:31.725488,2020-11-24 00:00:00.000000,1.55063545,2.40429332,3.91245164,172,267,435,93,145,253,0.84326563,1.30668023,2.27303870,0.41586962,0.60215013,0.86266388
37005,0,USNorthCarolinaAlleghany,North Carolina,Alleghany,2021-01-05 14:21:31.725488,2020-11-25 00:00:00.000000,1.59272216,2.50395292,4.02017880,177,278,447,97,149,259,0.87923754,1.34010917,2.33183687,0.41964964,0.62135731,0.86226176
37005,0,USNorthCarolinaAlleghany,North Carolina,Alleghany,2021-01-05 14:21:31.725488,2020-11-26 00:00:00.000000,1.64536785,2.60514442,4.14688611,183,290,461,102,156,266,0.92107663,1.40140858,2.39407530,0.44650929,0.64570327,0.87043037
37005,0,USNorthCarolinaAlleghany,North Carolina,Alleghany,2021-01-05 14:21:31.725488,2020-11-27 00:00:00.000000,1.72488052,2.72223935,4.30104550,192,303,479,107,163,276,0.96664787,1.46685748,2.48409676,0.47423956,0.67116468,0.91790201
37005,0,USNorthCarolinaAlleghany,North Carolina,Alleghany,2021-01-05 14:21:31.725488,2020-11-28 00:00:00.000000,1.85049818,2.86817844,4.46902572,206,319,497,113,170,287,1.01511071,1.53241427,2.58537851,0.51733076,0.71182417,0.94696664
37005,0,USNorthCarolinaAlleghany,North Carolina,Alleghany,2021-01-05 14:21:31.725488,2020-11-29 00:00:00.000000,2.02003486,3.02102205,4.64261110,224,336,517,118,179,299,1.06710523,1.61551159,2.69155075,0.54631107,0.74865941,0.96996207
37005,0,USNorthCarolinaAlleghany,North Carolina,Alleghany,2021-01-05 14:21:31.725488,2020-11-30 00:00:00.000000,2.17615687,3.19453524,4.84561261,242,355,539,125,189,312,1.12419152,1.70523991,2.80785541,0.57236558,0.77554920,1.06072714
37005,0,USNorthCarolinaAlleghany,North Carolina,Alleghany,2021-01-05 14:21:31.725488,2020-12-01 00:00:00.000000,2.34169211,3.41842686,5.05180614,260,380,562,132,199,327,1.18718357,1.79558631,2.93950041,0.58371799,0.79624241,1.11172606
37005,0,USNorthCarolinaAlleghany,North Carolina,Alleghany,2021-01-05 14:21:31.725488,2020-12-02 00:00:00.000000,2.48334423,3.65335673,5.26628615,276,406,586,142,210,344,1.27773384,1.89419236,3.09042826,0.58930632,0.80804771,1.11303034
37005,0,USNorthCarolinaAlleghany,North Carolina,Alleghany,2021-01-05 14:21:31.725488,2020-12-03 00:00:00.000000,2.66340651,3.85967289,5.50312915,296,429,612,153,223,362,1.38151866,2.00983390,3.25796427,0.59479116,0.83176040,1.11041531
37005,0,USNorthCarolinaAlleghany,North Carolina,Alleghany,2021-01-05 14:21:31.725488,2020-12-04 00:00:00.000000,2.93904747,4.10164294,5.79775373,327,456,645,161,239,382,1.44745353,2.14993456,3.43711123,0.60096527,0.85680857,1.24827346
37005,0,USNorthCarolinaAlleghany,North Carolina,Alleghany,2021-01-05 14:21:31.725488,2020-12-05 00:00:00.000000,3.08781161,4.37141937,6.16675755,343,486,686,169,256,404,1.52335783,2.30633065,3.62860350,0.64304460,0.85383932,1.30493000
37005,0,USNorthCarolinaAlleghany,North Carolina,Alleghany,2021-01-05 14:21:31.725488,2020-12-06 00:00:00.000000,3.23475808,4.63363547,6.57998660,360,516,732,179,275,418,1.60894404,2.47524088,3.75715816,0.63182625,0.87483858,1.33605857
37005,0,USNorthCarolinaAlleghany,North Carolina,Alleghany,2021-01-05 14:21:31.725488,2020-12-07 00:00:00.000000,3.45214212,4.91547354,7.05626593,384,547,785,191,292,434,1.71707484,2.62543642,3.90080126,0.68009539,0.88823461,1.35029465
37005,0,USNorthCarolinaAlleghany,North Carolina,Alleghany,2021-01-05 14:21:31.725488,2020-12-08 00:00:00.000000,3.68776098,5.25971665,7.54882588,410,585,840,204,313,467,1.83670186,2.81772817,4.19614883,0.68367321,0.88235845,1.36344518
37005,0,USNorthCarolinaAlleghany,North Carolina,Alleghany,2021-01-05 14:21:31.725488,2020-12-09 00:00:00.000000,3.89987617,5.57517643,8.05613859,434,620,897,218,332,501,1.96386711,2.98932782,4.50294343,0.68211487,0.88646667,1.37153388
37005,0,USNorthCarolinaAlleghany,North Carolina,Alleghany,2021-01-05 14:21:31.725488,2020-12-10 00:00:00.000000,4.07457941,5.93044729,8.57524671,453,660,955,233,352,536,2.09696434,3.16364473,4.81863426,0.67772853,0.90797397,1.37764425
37005,0,USNorthCarolinaAlleghany,North Carolina,Alleghany,2021-01-05 14:21:31.725488,2020-12-11 00:00:00.000000,4.25071150,6.27804592,9.10276686,473,699,1013,248,372,571,2.23530106,3.34644471,5.12868257,0.67407926,0.92336946,1.38325525
37005,0,USNorthCarolinaAlleghany,North Carolina,Alleghany,2021-01-05 14:21:31.725488,2020-12-12 00:00:00.000000,4.42857831,6.65229095,9.63485142,493,740,1073,264,394,593,2.37821213,3.54604653,5.32705529,0.67632048,0.93126039,1.39325137
37005,0,USNorthCarolinaAlleghany,North Carolina,Alleghany,2021-01-05 14:21:31.725488,2020-12-13 00:00:00.000000,4.60814312,6.97938762,10.16088107,513,777,1131,281,416,616,2.52514106,3.73549573,5.53540883,0.67329043,0.94963561,1.40731650
37005,0,USNorthCarolinaAlleghany,North Carolina,Alleghany,2021-01-05 14:21:31.725488,2020-12-14 00:00:00.000000,4.80064188,7.24846728,10.58436891,534,807,1178,296,440,656,2.66000934,3.95602183,5.89167375,0.67178893,0.97815411,1.42086072
37005,0,USNorthCarolinaAlleghany,North Carolina,Alleghany,2021-01-05 14:21:31.725488,2020-12-15 00:00:00.000000,4.97308530,7.55539244,10.85080715,553,841,1208,310,464,693,2.78991671,4.17247794,6.22766184,0.67162658,0.99416739,1.43013896
37005,0,USNorthCarolinaAlleghany,North Carolina,Alleghany,2021-01-05 14:21:31.725488,2020-12-16 00:00:00.000000,5.13474498,7.83867994,11.09100631,571,872,1235,325,488,730,2.92408097,4.38808611,6.56179518,0.67040252,1.00207695,1.47398896
37005,0,USNorthCarolinaAlleghany,North Carolina,Alleghany,2021-01-05 14:21:31.725488,2020-12-17 00:00:00.000000,5.26051988,8.12422467,11.38977932,585,904,1268,334,509,771,3.00750732,4.57154583,6.92508082,0.67031688,1.02019660,1.50170152
37005,0,USNorthCarolinaAlleghany,North Carolina,Alleghany,2021-01-05 14:21:31.725488,2020-12-18 00:00:00.000000,5.37302647,8.45088978,11.97249148,598,941,1333,348,534,814,3.13166126,4.79892698,7.30988772,0.67420321,1.02980680,1.49796196
37005,0,USNorthCarolinaAlleghany,North Carolina,Alleghany,2021-01-05 14:21:31.725488,2020-12-19 00:00:00.000000,5.63900294,8.77316631,12.53323525,628,977,1395,364,558,857,3.27314531,5.01618170,7.69723574,0.70137635,1.05115990,1.56380726
37005,0,USNorthCarolinaAlleghany,North Carolina,Alleghany,2021-01-05 14:21:31.725488,2020-12-20 00:00:00.000000,5.92745926,9.07708466,13.06283625,660,1010,1454,381,579,890,3.42896869,5.20149467,7.99941799,0.75077504,1.05525527,1.59894751
37005,0,USNorthCarolinaAlleghany,North Carolina,Alleghany,2021-01-05 14:21:31.725488,2020-12-21 00:00:00.000000,6.20369561,9.29248789,13.53284356,690,1034,1507,394,597,918,3.54644714,5.36914338,8.24823590,0.76160905,1.06758131,1.61198386
37005,0,USNorthCarolinaAlleghany,North Carolina,Alleghany,2021-01-05 14:21:31.725488,2020-12-22 00:00:00.000000,6.48389921,9.59647606,13.95508534,722,1068,1554,407,613,944,3.65485040,5.50552408,8.47708655,0.74267815,1.03547201,1.62871831
37005,0,USNorthCarolinaAlleghany,North Carolina,Alleghany,2021-01-05 14:21:31.725488,2020-12-23 00:00:00.000000,6.76102665,9.89877839,14.22314958,752,1102,1584,418,627,966,3.75539137,5.63618603,8.67783270,0.76248410,1.04520692,1.66091526
37005,0,USNorthCarolinaAlleghany,North Carolina,Alleghany,2021-01-05 14:21:31.725488,2020-12-24 00:00:00.000000,7.03682120,10.12324141,14.41508151,783,1127,1605,428,643,985,3.84802634,5.77936269,8.84720143,0.79632535,1.04268227,1.70051868
37005,0,USNorthCarolinaAlleghany,North Carolina,Alleghany,2021-01-05 14:21:31.725488,2020-12-25 00:00:00.000000,7.17569401,10.22347501,14.55135540,799,1138,1620,437,655,1000,3.93223281,5.88782023,8.98230143,0.74303018,1.05517173,1.72527383
37005,0,USNorthCarolinaAlleghany,North Carolina,Alleghany,2021-01-05 14:21:31.725488,2020-12-26 00:00:00.000000,7.13158430,10.40362140,14.62894066,794,1158,1629,446,661,1011,4.00763130,5.93970516,9.08077577,0.71135301,1.06363117,1.67956640
37005,0,USNorthCarolinaAlleghany,North Carolina,Alleghany,2021-01-05 14:21:31.725488,2020-12-27 00:00:00.000000,7.21688712,10.57778427,14.64756195,803,1178,1631,451,668,1019,4.05521837,5.99835320,9.15805305,0.70172647,1.07133509,1.74267117
37005,0,USNorthCarolinaAlleghany,North Carolina,Alleghany,2021-01-05 14:21:31.725488,2020-12-28 00:00:00.000000,7.33204165,10.58896041,14.60029359,816,1179,1626,453,673,1035,4.07386842,6.04836793,9.29475480,0.66770496,1.06006956,1.80073259
37005,0,USNorthCarolinaAlleghany,North Carolina,Alleghany,2021-01-05 14:21:31.725488,2020-12-29 00:00:00.000000,7.28615177,10.56019243,14.64875834,811,1176,1631,451,677,1044,4.05698654,6.08350482,9.37840161,0.66070579,1.05609746,1.82019117
37005,0,USNorthCarolinaAlleghany,North Carolina,Alleghany,2021-01-05 14:21:31.725488,2020-12-30 00:00:00.000000,7.22008296,10.37880540,14.61009955,804,1155,1627,444,680,1048,3.99057458,6.11323198,9.41134579,0.65674771,1.06538488,1.82067013
37005,0,USNorthCarolinaAlleghany,North Carolina,Alleghany,2021-01-05 14:21:31.725488,2020-12-31 00:00:00.000000,7.13555278,10.28696107,14.61350875,794,1145,1627,435,677,1056,3.91302518,6.08221747,9.48944815,0.65297560,1.08122171,1.91651694
37005,0,USNorthCarolinaAlleghany,North Carolina,Alleghany,2021-01-05 14:21:31.725488,2021-01-01 00:00:00.000000,7.03389224,10.16650291,14.30724521,783,1132,1593,438,673,1054,3.93930289,6.04728990,9.46757909,0.65112495,1.07974629,2.00075935
37005,0,USNorthCarolinaAlleghany,North Carolina,Alleghany,2021-01-05 14:21:31.725488,2021-01-02 00:00:00.000000,6.91633263,9.98704397,13.94742390,770,1112,1553,438,666,1039,3.93867755,5.98657173,9.33307891,0.63799463,1.07521199,2.01750684
37005,0,USNorthCarolinaAlleghany,North Carolina,Alleghany,2021-01-05 14:21:31.725488,2021-01-03 00:00:00.000000,6.78411870,9.67822466,13.54702039,755,1077,1508,431,655,1020,3.87793104,5.88154997,9.16620419,0.62474550,1.07830380,1.92666275
37005,0,USNorthCarolinaAlleghany,North Carolina,Alleghany,2021-01-05 14:21:31.725488,2021-01-04 00:00:00.000000,6.63854550,9.43257286,13.16801149,739,1050,1466,424,639,999,3.80868848,5.73921179,8.97146276,0.60932042,1.09467747,1.92887484
37005,0,USNorthCarolinaAlleghany,North Carolina,Alleghany,2021-01-05 14:21:31.725488,2021-01-05 00:00:00.000000,6.48096161,9.16443512,12.74384305,721,1020,1419,409,628,974,3.67601342,5.64004144,8.75197454,0.59501044,1.10665587,1.92924645
37005,0,USNorthCarolinaAlleghany,North Carolina,Alleghany,2021-01-05 14:21:31.725488,2021-01-06 00:00:00.000000,6.26665620,9.02569689,12.35651077,697,1005,1376,390,618,957,3.50660912,5.54954434,8.59711140,0.58451368,1.10305964,1.92932640
37005,0,USNorthCarolinaAlleghany,North Carolina,Alleghany,2021-01-05 14:21:31.725488,2021-01-07 00:00:00.000000,5.94219411,8.89616427,12.06363818,661,990,1343,371,598,923,3.33610250,5.37413976,8.29428517,0.57799142,1.10264645,1.92935317
37005,0,USNorthCarolinaAlleghany,North Carolina,Alleghany,2021-01-05 14:21:31.725488,2021-01-08 00:00:00.000000,5.62355411,8.50917930,11.81022586,626,947,1315,352,574,888,3.16663107,5.15626673,7.97950900,0.57430522,1.10240744,1.92936594
37005,0,USNorthCarolinaAlleghany,North Carolina,Alleghany,2021-01-05 14:21:31.725488,2021-01-09 00:00:00.000000,5.31242527,8.16839060,11.52239245,591,909,1283,334,554,855,2.99962963,4.97898189,7.68471017,0.57232917,1.10227112,1.92937299
37005,0,USNorthCarolinaAlleghany,North Carolina,Alleghany,2021-01-05 14:21:31.725488,2021-01-10 00:00:00.000000,5.01009442,7.77674008,11.20420481,557,866,1247,315,530,829,2.83612315,4.76212348,7.44994178,0.57130000,1.10219397,1.92937705
37005,0,USNorthCarolinaAlleghany,North Carolina,Alleghany,2021-01-05 14:21:31.725488,2021-01-11 00:00:00.000000,4.71755145,7.44616527,10.85991763,525,829,1209,298,510,810,2.67687805,4.57963995,7.27867660,0.57077204,1.10215052,1.92937943
37005,0,USNorthCarolinaAlleghany,North Carolina,Alleghany,2021-01-05 14:21:31.725488,2021-01-12 00:00:00.000000,4.43554933,7.10114518,10.53149383,493,790,1172,280,492,789,2.52248064,4.42594347,7.08454811,0.57050326,1.10212610,1.92938082
37005,0,USNorthCarolinaAlleghany,North Carolina,Alleghany,2021-01-05 14:21:31.725488,2021-01-13 00:00:00.000000,4.16464217,6.78609895,10.19013810,463,755,1134,264,475,765,2.37337949,4.26623229,6.87052918,0.57036694,1.10211240,1.92938164
37005,0,USNorthCarolinaAlleghany,North Carolina,Alleghany,2021-01-05 14:21:31.725488,2021-01-14 00:00:00.000000,3.90521261,6.49678519,9.83438434,434,723,1095,248,456,739,2.23221746,4.10150047,6.63969627,0.57029791,1.10210472,1.92938211
37005,0,USNorthCarolinaAlleghany,North Carolina,Alleghany,2021-01-05 14:21:31.725488,2021-01-15 00:00:00.000000,3.65749413,6.23262881,9.46751158,407,694,1054,235,436,712,2.11068118,3.91541411,6.39514831,0.57026297,1.10210042,1.92938239
37005,0,USNorthCarolinaAlleghany,North Carolina,Alleghany,2021-01-05 14:21:31.725488,2021-01-16 00:00:00.000000,3.42159039,5.92942255,9.09266616,381,660,1012,221,416,683,1.99263967,3.73699098,6.13993385,0.57024529,1.10209801,1.92938256
37005,0,USNorthCarolinaAlleghany,North Carolina,Alleghany,2021-01-05 14:21:31.725488,2021-01-17 00:00:00.000000,3.19749289,5.59002058,8.71282185,356,622,970,209,395,654,1.87842333,3.55306107,5.87698831,0.57023634,1.10209666,1.92938265
