FIPS,HR_UID,nameid,province,region,analysisTime,dates,pointprevalence_025,pointprevalence_50,pointprevalence_975,pointinfections_025,pointinfections_50,pointinfections_975,pointinfectious_025,pointinfectious_50,pointinfectious_975,pointinfectiousprevalence_05,pointinfectiousprevalence_50,pointinfectiousprevalence_95,infectrate_025,infectrate_50,infectrate_975
39163,0,USOhioVinton,Ohio,Vinton,2021-01-05 12:56:10.883925,2020-03-09 00:00:00.000000,0.00401050,0.02210067,0.10872533,0,2,14,0,1,7,0.00210734,0.01131154,0.05778851,0.41619518,0.54683316,0.77605156
39163,0,USOhioVinton,Ohio,Vinton,2021-01-05 12:56:10.883925,2020-03-10 00:00:00.000000,0.00441673,0.02534856,0.11969727,0,3,15,0,1,7,0.00206501,0.01149358,0.05756545,0.41619158,0.54682972,0.77602921
39163,0,USOhioVinton,Ohio,Vinton,2021-01-05 12:56:10.883925,2020-03-11 00:00:00.000000,0.00480815,0.02788109,0.13073789,0,3,17,0,1,7,0.00213661,0.01213203,0.05883655,0.41618603,0.54682071,0.77598346
39163,0,USOhioVinton,Ohio,Vinton,2021-01-05 12:56:10.883925,2020-03-12 00:00:00.000000,0.00518671,0.03109744,0.14009573,0,4,18,0,1,7,0.00227178,0.01328156,0.06111217,0.41617785,0.54679699,0.77588987
39163,0,USOhioVinton,Ohio,Vinton,2021-01-05 12:56:10.883925,2020-03-13 00:00:00.000000,0.00555529,0.03419918,0.14904930,0,4,19,0,1,8,0.00253110,0.01452564,0.06409557,0.41616690,0.54673460,0.77569865
39163,0,USOhioVinton,Ohio,Vinton,2021-01-05 12:56:10.883925,2020-03-14 00:00:00.000000,0.00591121,0.03764845,0.15849254,0,4,20,0,2,8,0.00260554,0.01586730,0.06760960,0.41615591,0.54657064,0.77530884
39163,0,USOhioVinton,Ohio,Vinton,2021-01-05 12:56:10.883925,2020-03-15 00:00:00.000000,0.00625438,0.04137527,0.16848023,0,5,22,0,2,9,0.00278054,0.01730999,0.07155138,0.41615795,0.54614274,0.77451840
39163,0,USOhioVinton,Ohio,Vinton,2021-01-05 12:56:10.883925,2020-03-16 00:00:00.000000,0.00659375,0.04529210,0.17906056,0,5,23,0,2,9,0.00296013,0.01885633,0.07586424,0.41517677,0.54504688,0.77293285
39163,0,USOhioVinton,Ohio,Vinton,2021-01-05 12:56:10.883925,2020-03-17 00:00:00.000000,0.00693051,0.04912989,0.19027471,0,6,24,0,2,10,0.00314008,0.02081250,0.08052023,0.40304280,0.53946356,0.76982121
39163,0,USOhioVinton,Ohio,Vinton,2021-01-05 12:56:10.883925,2020-03-18 00:00:00.000000,0.00726451,0.05456718,0.20214146,0,7,26,0,2,11,0.00331899,0.02281762,0.08550017,0.37097265,0.53277595,0.76396804
39163,0,USOhioVinton,Ohio,Vinton,2021-01-05 12:56:10.883925,2020-03-19 00:00:00.000000,0.00759438,0.05868003,0.21431207,0,7,28,0,3,11,0.00349642,0.02443867,0.09068472,0.34444040,0.51969526,0.75377366
39163,0,USOhioVinton,Ohio,Vinton,2021-01-05 12:56:10.883925,2020-03-20 00:00:00.000000,0.00791786,0.06350830,0.22652760,1,8,29,0,3,12,0.00367168,0.02614665,0.09615365,0.33935522,0.49531676,0.73884509
39163,0,USOhioVinton,Ohio,Vinton,2021-01-05 12:56:10.883925,2020-03-21 00:00:00.000000,0.00822483,0.06811131,0.23848522,1,8,31,0,3,13,0.00384354,0.02818212,0.10183957,0.31063842,0.46924643,0.72878463
39163,0,USOhioVinton,Ohio,Vinton,2021-01-05 12:56:10.883925,2020-03-22 00:00:00.000000,0.00850594,0.07109367,0.24180332,1,9,31,0,4,14,0.00400979,0.03092513,0.10762635,0.29163450,0.45958677,0.72663180
39163,0,USOhioVinton,Ohio,Vinton,2021-01-05 12:56:10.883925,2020-03-23 00:00:00.000000,0.00875246,0.07505171,0.24325797,1,9,31,0,4,14,0.00416710,0.03304418,0.10915942,0.28540504,0.44908992,0.69454379
39163,0,USOhioVinton,Ohio,Vinton,2021-01-05 12:56:10.883925,2020-03-24 00:00:00.000000,0.00896082,0.07848139,0.24464810,1,10,32,0,4,14,0.00431167,0.03519887,0.11049366,0.27282211,0.42988105,0.67348239
39163,0,USOhioVinton,Ohio,Vinton,2021-01-05 12:56:10.883925,2020-03-25 00:00:00.000000,0.00913473,0.08204197,0.24599704,1,10,32,0,4,15,0.00444046,0.03738550,0.11576535,0.25471205,0.42571661,0.65499923
39163,0,USOhioVinton,Ohio,Vinton,2021-01-05 12:56:10.883925,2020-03-26 00:00:00.000000,0.00928225,0.08717797,0.24731986,1,11,32,0,5,15,0.00455255,0.04011218,0.12038983,0.24678012,0.41634577,0.60303846
39163,0,USOhioVinton,Ohio,Vinton,2021-01-05 12:56:10.883925,2020-03-27 00:00:00.000000,0.00941133,0.08998522,0.25219829,1,11,33,0,5,16,0.00464918,0.04266959,0.12450103,0.24146603,0.40470943,0.56953674
39163,0,USOhioVinton,Ohio,Vinton,2021-01-05 12:56:10.883925,2020-03-28 00:00:00.000000,0.00952680,0.09353720,0.26683594,1,12,34,0,5,16,0.00473283,0.04571559,0.12821561,0.23961639,0.39428805,0.56655654
39163,0,USOhioVinton,Ohio,Vinton,2021-01-05 12:56:10.883925,2020-03-29 00:00:00.000000,0.00963210,0.09698891,0.28069698,1,12,36,0,6,17,0.00480597,0.04734289,0.13162304,0.23929182,0.37371166,0.54672681
39163,0,USOhioVinton,Ohio,Vinton,2021-01-05 12:56:10.883925,2020-03-30 00:00:00.000000,0.00973143,0.09931892,0.29423458,1,12,38,0,6,18,0.00487076,0.04967296,0.13967094,0.23291118,0.36303583,0.51022068
39163,0,USOhioVinton,Ohio,Vinton,2021-01-05 12:56:10.883925,2020-03-31 00:00:00.000000,0.00982727,0.10120888,0.30786851,1,13,40,0,6,19,0.00492945,0.05178987,0.14814013,0.23045371,0.35490999,0.51209542
39163,0,USOhioVinton,Ohio,Vinton,2021-01-05 12:56:10.883925,2020-04-01 00:00:00.000000,0.00992146,0.10401124,0.32154289,1,13,42,0,7,20,0.00498389,0.05391099,0.15651300,0.22694884,0.34320832,0.50521850
39163,0,USOhioVinton,Ohio,Vinton,2021-01-05 12:56:10.883925,2020-04-02 00:00:00.000000,0.01001555,0.10670583,0.33466474,1,13,43,0,7,21,0.00503557,0.05607969,0.16474296,0.20251651,0.33481459,0.49413133
39163,0,USOhioVinton,Ohio,Vinton,2021-01-05 12:56:10.883925,2020-04-03 00:00:00.000000,0.01011158,0.11026258,0.34624092,1,14,45,0,7,22,0.00508569,0.05833590,0.17282729,0.19162944,0.32528950,0.49378807
39163,0,USOhioVinton,Ohio,Vinton,2021-01-05 12:56:10.883925,2020-04-04 00:00:00.000000,0.01021337,0.11226113,0.35098147,1,14,45,0,7,23,0.00513537,0.06025880,0.18058239,0.18142572,0.31021573,0.49398868
39163,0,USOhioVinton,Ohio,Vinton,2021-01-05 12:56:10.883925,2020-04-05 00:00:00.000000,0.01032425,0.11616010,0.35005690,1,15,45,0,8,24,0.00518606,0.06158164,0.18717036,0.17753357,0.29735959,0.49781913
39163,0,USOhioVinton,Ohio,Vinton,2021-01-05 12:56:10.883925,2020-04-06 00:00:00.000000,0.01044282,0.12038348,0.34847316,1,15,45,0,8,24,0.00523935,0.06253647,0.18836430,0.17264009,0.29273769,0.49677621
39163,0,USOhioVinton,Ohio,Vinton,2021-01-05 12:56:10.883925,2020-04-07 00:00:00.000000,0.01056813,0.12137419,0.34656904,1,15,45,0,8,24,0.00529585,0.06298848,0.18887540,0.16781139,0.29149062,0.50008853
39163,0,USOhioVinton,Ohio,Vinton,2021-01-05 12:56:10.883925,2020-04-08 00:00:00.000000,0.01070369,0.12458904,0.35248922,1,16,46,0,8,24,0.00535571,0.06410525,0.18887331,0.16385057,0.28199069,0.49858812
39163,0,USOhioVinton,Ohio,Vinton,2021-01-05 12:56:10.883925,2020-04-09 00:00:00.000000,0.01085773,0.12636631,0.36255576,1,16,47,0,8,24,0.00541971,0.06571552,0.18847908,0.16253526,0.27554658,0.49654092
39163,0,USOhioVinton,Ohio,Vinton,2021-01-05 12:56:10.883925,2020-04-10 00:00:00.000000,0.01103815,0.13057497,0.37222041,1,17,48,0,8,24,0.00549011,0.06647356,0.19091364,0.16302259,0.26934548,0.48710540
39163,0,USOhioVinton,Ohio,Vinton,2021-01-05 12:56:10.883925,2020-04-11 00:00:00.000000,0.01124356,0.13291800,0.38095623,1,17,49,0,8,25,0.00556996,0.06723492,0.19754702,0.15108535,0.26594555,0.46416744
39163,0,USOhioVinton,Ohio,Vinton,2021-01-05 12:56:10.883925,2020-04-12 00:00:00.000000,0.01146718,0.13377839,0.39160762,1,17,51,0,8,26,0.00566076,0.06733510,0.20353938,0.14178087,0.25936581,0.45434137
39163,0,USOhioVinton,Ohio,Vinton,2021-01-05 12:56:10.883925,2020-04-13 00:00:00.000000,0.03200870,0.14494648,0.42415714,4,18,55,0,8,27,0.00576172,0.06747686,0.20913660,0.13709698,0.24944344,0.43121293
39163,0,USOhioVinton,Ohio,Vinton,2021-01-05 12:56:10.883925,2020-04-14 00:00:00.000000,0.03574164,0.15583595,0.46118071,4,20,60,1,9,28,0.01150739,0.07172512,0.22148816,0.13339456,0.24521413,0.42870695
39163,0,USOhioVinton,Ohio,Vinton,2021-01-05 12:56:10.883925,2020-04-15 00:00:00.000000,0.04219679,0.18388045,0.48699597,5,24,63,2,10,29,0.01708850,0.07692433,0.22730734,0.13079772,0.24023022,0.42780322
39163,0,USOhioVinton,Ohio,Vinton,2021-01-05 12:56:10.883925,2020-04-16 00:00:00.000000,0.04726138,0.21218037,0.51251848,6,27,67,2,11,30,0.01901231,0.08442717,0.23199923,0.12913246,0.23016458,0.42751174
39163,0,USOhioVinton,Ohio,Vinton,2021-01-05 12:56:10.883925,2020-04-17 00:00:00.000000,0.05248918,0.22756514,0.53714562,6,29,70,2,12,33,0.02094989,0.09437138,0.25412681,0.12811483,0.22123659,0.42745032
39163,0,USOhioVinton,Ohio,Vinton,2021-01-05 12:56:10.883925,2020-04-18 00:00:00.000000,0.06127949,0.24371617,0.56043653,8,31,73,3,13,36,0.02313613,0.10621939,0.27984401,0.12749058,0.21421718,0.42743905
39163,0,USOhioVinton,Ohio,Vinton,2021-01-05 12:56:10.883925,2020-04-19 00:00:00.000000,0.06930178,0.26149125,0.59664477,9,34,78,3,15,40,0.02603328,0.11552490,0.30781251,0.12708129,0.20635235,0.42433224
39163,0,USOhioVinton,Ohio,Vinton,2021-01-05 12:56:10.883925,2020-04-20 00:00:00.000000,0.10275586,0.28668400,0.62371817,13,37,81,3,16,44,0.02964695,0.12728821,0.34154699,0.12679085,0.20247988,0.42413970
39163,0,USOhioVinton,Ohio,Vinton,2021-01-05 12:56:10.883925,2020-04-21 00:00:00.000000,0.13197280,0.30610370,0.65071296,17,40,85,5,18,48,0.03925671,0.14004721,0.36807472,0.12661789,0.19854794,0.43645785
39163,0,USOhioVinton,Ohio,Vinton,2021-01-05 12:56:10.883925,2020-04-22 00:00:00.000000,0.13537506,0.32347085,0.67761491,17,42,88,6,19,51,0.05261684,0.14747061,0.38984822,0.12651514,0.19523915,0.43605590
39163,0,USOhioVinton,Ohio,Vinton,2021-01-05 12:56:10.883925,2020-04-23 00:00:00.000000,0.13828177,0.35205742,0.70812325,18,46,92,8,20,53,0.06429879,0.15984139,0.40834378,0.12514515,0.19373568,0.38528434
39163,0,USOhioVinton,Ohio,Vinton,2021-01-05 12:56:10.883925,2020-04-24 00:00:00.000000,0.14223843,0.38447454,0.73791137,18,50,96,8,22,55,0.06859304,0.17427509,0.42443912,0.12564269,0.18980445,0.33217061
39163,0,USOhioVinton,Ohio,Vinton,2021-01-05 12:56:10.883925,2020-04-25 00:00:00.000000,0.14876933,0.40864356,0.76720762,19,53,100,9,24,57,0.07059054,0.18533618,0.43870908,0.11757021,0.18147607,0.30460088
39163,0,USOhioVinton,Ohio,Vinton,2021-01-05 12:56:10.883925,2020-04-26 00:00:00.000000,0.15518061,0.41828892,0.82244717,20,54,107,9,26,59,0.07225996,0.19912015,0.45127199,0.10821727,0.17316424,0.29409380
39163,0,USOhioVinton,Ohio,Vinton,2021-01-05 12:56:10.883925,2020-04-27 00:00:00.000000,0.16330112,0.43972973,0.85716383,21,57,112,9,27,60,0.07368961,0.21060601,0.46179410,0.10776093,0.17313425,0.29078083
39163,0,USOhioVinton,Ohio,Vinton,2021-01-05 12:56:10.883925,2020-04-28 00:00:00.000000,0.17127739,0.44932707,0.87801471,22,58,114,9,28,61,0.07589072,0.21951193,0.47247314,0.10735547,0.16615256,0.28914637
39163,0,USOhioVinton,Ohio,Vinton,2021-01-05 12:56:10.883925,2020-04-29 00:00:00.000000,0.17904838,0.46849467,0.89342068,23,61,116,10,29,63,0.07860831,0.22489178,0.48214283,0.10657783,0.16199356,0.28707787
39163,0,USOhioVinton,Ohio,Vinton,2021-01-05 12:56:10.883925,2020-04-30 00:00:00.000000,0.18662647,0.47884347,0.92744558,24,62,121,10,31,64,0.08239034,0.23836040,0.49059791,0.10498591,0.16098667,0.28616289
39163,0,USOhioVinton,Ohio,Vinton,2021-01-05 12:56:10.883925,2020-05-01 00:00:00.000000,0.20623704,0.48123820,0.96071902,26,62,125,11,31,65,0.08610139,0.24305049,0.50230532,0.10180854,0.15932374,0.28933566
39163,0,USOhioVinton,Ohio,Vinton,2021-01-05 12:56:10.883925,2020-05-02 00:00:00.000000,0.22125697,0.48776713,0.99236895,28,63,129,12,32,66,0.09183423,0.25160853,0.50486130,0.09079522,0.16031648,0.28502404
39163,0,USOhioVinton,Ohio,Vinton,2021-01-05 12:56:10.883925,2020-05-03 00:00:00.000000,0.22607815,0.48748936,1.02100997,29,63,133,13,34,66,0.10268541,0.26042064,0.51112484,0.08066708,0.16110359,0.28390512
39163,0,USOhioVinton,Ohio,Vinton,2021-01-05 12:56:10.883925,2020-05-04 00:00:00.000000,0.22683681,0.48700633,1.02499119,29,63,134,14,34,68,0.10888148,0.26395897,0.52266794,0.07538487,0.16038323,0.27932955
39163,0,USOhioVinton,Ohio,Vinton,2021-01-05 12:56:10.883925,2020-05-05 00:00:00.000000,0.22764291,0.49979137,1.02262197,29,65,133,14,35,70,0.11079127,0.26912233,0.53521184,0.07514332,0.15546443,0.27360386
39163,0,USOhioVinton,Ohio,Vinton,2021-01-05 12:56:10.883925,2020-05-06 00:00:00.000000,0.23363374,0.50648320,1.02000055,30,66,133,14,35,71,0.11213836,0.27279203,0.54480408,0.07152165,0.15388154,0.27205746
39163,0,USOhioVinton,Ohio,Vinton,2021-01-05 12:56:10.883925,2020-05-07 00:00:00.000000,0.24770357,0.50949511,1.01780153,32,66,133,14,36,72,0.11307498,0.27518599,0.55229949,0.06761976,0.14586661,0.27736958
39163,0,USOhioVinton,Ohio,Vinton,2021-01-05 12:56:10.883925,2020-05-08 00:00:00.000000,0.26153718,0.51110909,1.01606682,34,66,132,15,36,72,0.11921320,0.27988274,0.55458928,0.06731944,0.14336453,0.28101943
39163,0,USOhioVinton,Ohio,Vinton,2021-01-05 12:56:10.883925,2020-05-09 00:00:00.000000,0.26567397,0.51606187,1.01424072,34,67,132,16,36,72,0.12623083,0.27880996,0.55322028,0.06584255,0.13818090,0.28339880
39163,0,USOhioVinton,Ohio,Vinton,2021-01-05 12:56:10.883925,2020-05-10 00:00:00.000000,0.26312341,0.51655578,1.01224918,34,67,132,16,36,74,0.12522489,0.27952403,0.56665311,0.06049608,0.13316826,0.28468799
39163,0,USOhioVinton,Ohio,Vinton,2021-01-05 12:56:10.883925,2020-05-11 00:00:00.000000,0.26473500,0.51735267,1.00115874,34,67,131,16,36,74,0.12381890,0.27728215,0.56866724,0.06004190,0.12961114,0.27610920
39163,0,USOhioVinton,Ohio,Vinton,2021-01-05 12:56:10.883925,2020-05-12 00:00:00.000000,0.26684081,0.51142914,0.98996715,34,66,129,16,36,75,0.12308102,0.27743743,0.57318758,0.06003239,0.12824950,0.27354031
39163,0,USOhioVinton,Ohio,Vinton,2021-01-05 12:56:10.883925,2020-05-13 00:00:00.000000,0.26700738,0.50327318,0.97852998,34,65,128,16,36,75,0.12402162,0.27948928,0.57836336,0.06011213,0.12749549,0.25866017
39163,0,USOhioVinton,Ohio,Vinton,2021-01-05 12:56:10.883925,2020-05-14 00:00:00.000000,0.26786763,0.50090706,0.96681250,35,65,126,17,36,75,0.13144585,0.28128774,0.57570637,0.06033432,0.12586299,0.22049950
39163,0,USOhioVinton,Ohio,Vinton,2021-01-05 12:56:10.883925,2020-05-15 00:00:00.000000,0.26830204,0.50227375,0.95455628,35,65,124,16,36,74,0.12929751,0.27853866,0.56795454,0.06087763,0.12438313,0.21275117
39163,0,USOhioVinton,Ohio,Vinton,2021-01-05 12:56:10.883925,2020-05-16 00:00:00.000000,0.26870814,0.50149821,0.94114966,35,65,123,17,35,73,0.13354371,0.27212770,0.55878568,0.06133327,0.12339989,0.21216621
39163,0,USOhioVinton,Ohio,Vinton,2021-01-05 12:56:10.883925,2020-05-17 00:00:00.000000,0.26909737,0.50400605,0.91413792,35,65,119,17,35,71,0.13066564,0.26851934,0.54689766,0.06099139,0.11906510,0.21170725
39163,0,USOhioVinton,Ohio,Vinton,2021-01-05 12:56:10.883925,2020-05-18 00:00:00.000000,0.27116433,0.49568268,0.87969436,35,64,115,16,34,69,0.12784500,0.26560209,0.53168437,0.05998414,0.11616242,0.21089421
39163,0,USOhioVinton,Ohio,Vinton,2021-01-05 12:56:10.883925,2020-05-19 00:00:00.000000,0.27271913,0.48573212,0.86767510,35,63,113,16,34,67,0.12633265,0.26533409,0.51337023,0.05700945,0.11469592,0.20994285
39163,0,USOhioVinton,Ohio,Vinton,2021-01-05 12:56:10.883925,2020-05-20 00:00:00.000000,0.26652297,0.47494384,0.85522042,34,62,111,16,34,66,0.12568085,0.26411570,0.50719966,0.05263769,0.11432047,0.20777804
39163,0,USOhioVinton,Ohio,Vinton,2021-01-05 12:56:10.883925,2020-05-21 00:00:00.000000,0.25708247,0.46809897,0.84176587,33,61,110,16,34,67,0.12558359,0.26088301,0.51294650,0.04726824,0.11295149,0.20670964
39163,0,USOhioVinton,Ohio,Vinton,2021-01-05 12:56:10.883925,2020-05-22 00:00:00.000000,0.24808677,0.45907842,0.82734498,32,60,108,16,33,66,0.12583583,0.25778294,0.50883068,0.04208773,0.11105920,0.18858756
39163,0,USOhioVinton,Ohio,Vinton,2021-01-05 12:56:10.883925,2020-05-23 00:00:00.000000,0.24432704,0.45063428,0.80346564,31,58,105,16,32,64,0.12630362,0.25103365,0.49235566,0.04064987,0.10963012,0.17774662
39163,0,USOhioVinton,Ohio,Vinton,2021-01-05 12:56:10.883925,2020-05-24 00:00:00.000000,0.24678740,0.43932122,0.79764355,32,57,104,16,32,63,0.12656513,0.24828400,0.48754874,0.03906780,0.10956452,0.17632551
39163,0,USOhioVinton,Ohio,Vinton,2021-01-05 12:56:10.883925,2020-05-25 00:00:00.000000,0.24400781,0.43504085,0.78391985,31,56,102,15,32,63,0.12210117,0.24752101,0.48205274,0.03792357,0.10832629,0.17109257
39163,0,USOhioVinton,Ohio,Vinton,2021-01-05 12:56:10.883925,2020-05-26 00:00:00.000000,0.23811947,0.42732415,0.77489396,31,55,101,15,31,62,0.12054868,0.24366621,0.47533801,0.03738321,0.10603722,0.16605711
39163,0,USOhioVinton,Ohio,Vinton,2021-01-05 12:56:10.883925,2020-05-27 00:00:00.000000,0.23800604,0.41531263,0.76532271,31,54,100,15,31,61,0.11972020,0.24119980,0.46747764,0.03742644,0.10468879,0.16918974
39163,0,USOhioVinton,Ohio,Vinton,2021-01-05 12:56:10.883925,2020-05-28 00:00:00.000000,0.23184086,0.40854381,0.75562689,30,53,98,15,31,60,0.12027458,0.24064644,0.45888914,0.03822412,0.10461546,0.17377716
39163,0,USOhioVinton,Ohio,Vinton,2021-01-05 12:56:10.883925,2020-05-29 00:00:00.000000,0.22132058,0.40398120,0.77102582,28,52,100,15,31,58,0.12140860,0.23699919,0.45049232,0.03934215,0.10292693,0.16150223
39163,0,USOhioVinton,Ohio,Vinton,2021-01-05 12:56:10.883925,2020-05-30 00:00:00.000000,0.21117307,0.40128319,0.80493599,27,52,105,15,30,58,0.12023130,0.23189487,0.44347161,0.03969206,0.10157716,0.15681615
39163,0,USOhioVinton,Ohio,Vinton,2021-01-05 12:56:10.883925,2020-05-31 00:00:00.000000,0.20271901,0.39898653,0.80635939,26,52,105,15,29,57,0.11809827,0.22571698,0.43923836,0.03980467,0.09991386,0.16010075
39163,0,USOhioVinton,Ohio,Vinton,2021-01-05 12:56:10.883925,2020-06-01 00:00:00.000000,0.20450861,0.39023339,0.79565659,26,51,104,15,28,59,0.11599041,0.22146511,0.45224522,0.04044070,0.09729665,0.16957374
39163,0,USOhioVinton,Ohio,Vinton,2021-01-05 12:56:10.883925,2020-06-02 00:00:00.000000,0.20662392,0.39431508,0.78469943,27,51,102,14,28,60,0.11376611,0.21635310,0.46504782,0.04146888,0.09765263,0.17330240
39163,0,USOhioVinton,Ohio,Vinton,2021-01-05 12:56:10.883925,2020-06-03 00:00:00.000000,0.20914987,0.39451731,0.77322595,27,51,101,14,27,61,0.11414817,0.20955390,0.47357148,0.04169530,0.09745600,0.17498881
39163,0,USOhioVinton,Ohio,Vinton,2021-01-05 12:56:10.883925,2020-06-04 00:00:00.000000,0.20203014,0.38901397,0.76051525,26,50,99,14,27,61,0.11459204,0.20897826,0.46747910,0.04140407,0.09686370,0.17548620
39163,0,USOhioVinton,Ohio,Vinton,2021-01-05 12:56:10.883925,2020-06-05 00:00:00.000000,0.19458344,0.37901750,0.74537522,25,49,97,15,27,60,0.11539901,0.20637749,0.46212751,0.04027797,0.09695236,0.17448167
39163,0,USOhioVinton,Ohio,Vinton,2021-01-05 12:56:10.883925,2020-06-06 00:00:00.000000,0.19163895,0.36770900,0.72977682,25,48,95,14,26,59,0.11291321,0.20283935,0.45752773,0.03866359,0.09658674,0.17352183
39163,0,USOhioVinton,Ohio,Vinton,2021-01-05 12:56:10.883925,2020-06-07 00:00:00.000000,0.18957314,0.36324236,0.71008813,24,47,92,14,25,59,0.10849812,0.19822562,0.45362331,0.03826758,0.09619985,0.17303249
39163,0,USOhioVinton,Ohio,Vinton,2021-01-05 12:56:10.883925,2020-06-08 00:00:00.000000,0.17966721,0.34910226,0.68285544,23,45,89,13,24,58,0.10443733,0.19033830,0.45037747,0.03833397,0.09489030,0.17288851
39163,0,USOhioVinton,Ohio,Vinton,2021-01-05 12:56:10.883925,2020-06-09 00:00:00.000000,0.16981765,0.33410360,0.65680503,22,43,85,13,23,58,0.10014851,0.18312666,0.44396041,0.03870908,0.09320325,0.17285696
39163,0,USOhioVinton,Ohio,Vinton,2021-01-05 12:56:10.883925,2020-06-10 00:00:00.000000,0.16000987,0.32048350,0.63111850,20,41,82,12,23,56,0.09577024,0.17789703,0.43545945,0.03895710,0.09366024,0.17281157
39163,0,USOhioVinton,Ohio,Vinton,2021-01-05 12:56:10.883925,2020-06-11 00:00:00.000000,0.15046049,0.30833114,0.60595098,19,40,79,11,22,55,0.09064767,0.17120972,0.42562331,0.03902285,0.09383419,0.17196102
39163,0,USOhioVinton,Ohio,Vinton,2021-01-05 12:56:10.883925,2020-06-12 00:00:00.000000,0.14058580,0.29481220,0.58136941,18,38,76,11,21,54,0.08637652,0.16267673,0.41497824,0.03901837,0.09284650,0.16885639
39163,0,USOhioVinton,Ohio,Vinton,2021-01-05 12:56:10.883925,2020-06-13 00:00:00.000000,0.13256069,0.27574449,0.55701181,17,36,72,10,20,52,0.08243924,0.15534982,0.40392563,0.03900093,0.09447877,0.16294091
39163,0,USOhioVinton,Ohio,Vinton,2021-01-05 12:56:10.883925,2020-06-14 00:00:00.000000,0.12430252,0.25485698,0.53412525,16,33,69,10,19,51,0.07844448,0.14965505,0.39281050,0.03898510,0.09598591,0.16439159
39163,0,USOhioVinton,Ohio,Vinton,2021-01-05 12:56:10.883925,2020-06-15 00:00:00.000000,0.11295213,0.23817386,0.51143810,14,31,66,9,18,49,0.07191838,0.14177236,0.38186301,0.03896936,0.09767073,0.16825930
39163,0,USOhioVinton,Ohio,Vinton,2021-01-05 12:56:10.883925,2020-06-16 00:00:00.000000,0.10238731,0.22960089,0.49541855,13,30,64,8,17,48,0.06594167,0.13541684,0.37106748,0.03894728,0.10059700,0.16914295
39163,0,USOhioVinton,Ohio,Vinton,2021-01-05 12:56:10.883925,2020-06-17 00:00:00.000000,0.09284222,0.21619603,0.47825006,12,28,62,7,16,46,0.06048707,0.12931959,0.35617839,0.03890849,0.09953469,0.16910829
39163,0,USOhioVinton,Ohio,Vinton,2021-01-05 12:56:10.883925,2020-06-18 00:00:00.000000,0.08423540,0.20201889,0.45930914,11,26,60,7,16,44,0.05547042,0.12349696,0.33897262,0.03715000,0.09745811,0.16553370
39163,0,USOhioVinton,Ohio,Vinton,2021-01-05 12:56:10.883925,2020-06-19 00:00:00.000000,0.07650040,0.18868680,0.44052705,10,24,57,6,15,42,0.05083226,0.11622481,0.32213547,0.03655398,0.09476132,0.16823944
39163,0,USOhioVinton,Ohio,Vinton,2021-01-05 12:56:10.883925,2020-06-20 00:00:00.000000,0.06956311,0.17620165,0.42541390,9,23,55,6,14,40,0.04655330,0.11105594,0.30586754,0.03702654,0.09554630,0.16558685
39163,0,USOhioVinton,Ohio,Vinton,2021-01-05 12:56:10.883925,2020-06-21 00:00:00.000000,0.06333110,0.16576309,0.40866983,8,21,53,5,13,37,0.04235255,0.10604223,0.29033673,0.03727760,0.09668746,0.16241836
39163,0,USOhioVinton,Ohio,Vinton,2021-01-05 12:56:10.883925,2020-06-22 00:00:00.000000,0.06802939,0.17305382,0.40824003,8,22,53,5,13,36,0.03850758,0.10071793,0.27554306,0.03739254,0.09909291,0.16229019
39163,0,USOhioVinton,Ohio,Vinton,2021-01-05 12:56:10.883925,2020-06-23 00:00:00.000000,0.06685816,0.18597774,0.40834606,8,24,53,4,12,34,0.03669327,0.09715513,0.26277655,0.03753255,0.09996586,0.16222592
39163,0,USOhioVinton,Ohio,Vinton,2021-01-05 12:56:10.883925,2020-06-24 00:00:00.000000,0.06700153,0.19203986,0.41187221,8,25,53,5,12,32,0.03843006,0.09476782,0.25166584,0.03774611,0.10060175,0.16235160
39163,0,USOhioVinton,Ohio,Vinton,2021-01-05 12:56:10.883925,2020-06-25 00:00:00.000000,0.06689283,0.19941080,0.42308401,8,26,55,4,12,31,0.03671530,0.09529430,0.24186771,0.03805112,0.10119755,0.16455027
39163,0,USOhioVinton,Ohio,Vinton,2021-01-05 12:56:10.883925,2020-06-26 00:00:00.000000,0.06706676,0.20968267,0.43473189,8,27,56,4,12,30,0.03540625,0.09737151,0.23412132,0.03847491,0.10083287,0.16699403
39163,0,USOhioVinton,Ohio,Vinton,2021-01-05 12:56:10.883925,2020-06-27 00:00:00.000000,0.06744213,0.20845981,0.44659104,8,27,58,4,13,30,0.03581470,0.10136952,0.23393888,0.03903567,0.10155255,0.17353298
39163,0,USOhioVinton,Ohio,Vinton,2021-01-05 12:56:10.883925,2020-06-28 00:00:00.000000,0.06796052,0.21037073,0.45846312,8,27,59,4,13,30,0.03714921,0.10444464,0.23483654,0.03971149,0.10140057,0.18572972
39163,0,USOhioVinton,Ohio,Vinton,2021-01-05 12:56:10.883925,2020-06-29 00:00:00.000000,0.08662186,0.21582246,0.45153148,11,28,59,4,14,30,0.03721748,0.10969876,0.23655100,0.04045846,0.10165783,0.18377746
39163,0,USOhioVinton,Ohio,Vinton,2021-01-05 12:56:10.883925,2020-06-30 00:00:00.000000,0.10032680,0.22364901,0.44434247,13,29,58,5,14,31,0.03925451,0.11282895,0.23756302,0.04123553,0.10200451,0.17998054
39163,0,USOhioVinton,Ohio,Vinton,2021-01-05 12:56:10.883925,2020-07-01 00:00:00.000000,0.10306734,0.22779208,0.43673290,13,29,57,5,15,31,0.04514183,0.11757875,0.23804294,0.04198713,0.10234557,0.18027251
39163,0,USOhioVinton,Ohio,Vinton,2021-01-05 12:56:10.883925,2020-07-02 00:00:00.000000,0.10563026,0.24184858,0.42469047,13,31,55,7,15,31,0.05397911,0.11676315,0.23940369,0.04195806,0.09988813,0.17759829
39163,0,USOhioVinton,Ohio,Vinton,2021-01-05 12:56:10.883925,2020-07-03 00:00:00.000000,0.10939866,0.24295585,0.42128433,14,31,55,8,15,33,0.06351551,0.11877653,0.25520153,0.04177753,0.09960808,0.17698564
39163,0,USOhioVinton,Ohio,Vinton,2021-01-05 12:56:10.883925,2020-07-04 00:00:00.000000,0.11704524,0.25110451,0.41351595,15,32,54,9,16,35,0.06879225,0.12548533,0.27144837,0.04146199,0.10134159,0.17695058
39163,0,USOhioVinton,Ohio,Vinton,2021-01-05 12:56:10.883925,2020-07-05 00:00:00.000000,0.12433158,0.25079417,0.40607300,16,32,53,9,17,35,0.07039501,0.13174784,0.27080404,0.04169278,0.10286652,0.17984372
39163,0,USOhioVinton,Ohio,Vinton,2021-01-05 12:56:10.883925,2020-07-06 00:00:00.000000,0.13019813,0.25616244,0.41322513,17,33,54,9,17,35,0.07194063,0.13579874,0.26824277,0.04173929,0.10245469,0.18116514
39163,0,USOhioVinton,Ohio,Vinton,2021-01-05 12:56:10.883925,2020-07-07 00:00:00.000000,0.14179782,0.26559168,0.42012091,18,34,54,9,18,34,0.07501983,0.13812003,0.26586371,0.04173807,0.10191744,0.18570165
39163,0,USOhioVinton,Ohio,Vinton,2021-01-05 12:56:10.883925,2020-07-08 00:00:00.000000,0.14309150,0.27216791,0.42550201,18,35,55,9,18,34,0.07611232,0.14043062,0.26379830,0.04169125,0.10360796,0.18597077
39163,0,USOhioVinton,Ohio,Vinton,2021-01-05 12:56:10.883925,2020-07-09 00:00:00.000000,0.14649671,0.27094995,0.43431046,19,35,56,10,18,34,0.07907150,0.14500480,0.26198811,0.04147643,0.10630066,0.18871854
39163,0,USOhioVinton,Ohio,Vinton,2021-01-05 12:56:10.883925,2020-07-10 00:00:00.000000,0.15605781,0.27671151,0.44179363,20,36,57,10,19,34,0.08273303,0.14608317,0.26040037,0.04150864,0.10819280,0.19177929
39163,0,USOhioVinton,Ohio,Vinton,2021-01-05 12:56:10.883925,2020-07-11 00:00:00.000000,0.15699594,0.27239386,0.44831344,20,35,58,11,18,33,0.08489093,0.14513977,0.25902306,0.04244963,0.10491820,0.19636322
39163,0,USOhioVinton,Ohio,Vinton,2021-01-05 12:56:10.883925,2020-07-12 00:00:00.000000,0.15555141,0.27396127,0.45463153,20,35,59,11,19,33,0.08672197,0.14638310,0.25785958,0.04423428,0.10357932,0.19822260
39163,0,USOhioVinton,Ohio,Vinton,2021-01-05 12:56:10.883925,2020-07-13 00:00:00.000000,0.16745885,0.28197185,0.45083332,21,36,58,11,19,34,0.08435937,0.14755973,0.26166958,0.04614890,0.10435608,0.20962835
39163,0,USOhioVinton,Ohio,Vinton,2021-01-05 12:56:10.883925,2020-07-14 00:00:00.000000,0.17711057,0.28925033,0.46419465,23,37,60,11,19,35,0.08678115,0.14780646,0.27299944,0.04634900,0.10591983,0.21417836
39163,0,USOhioVinton,Ohio,Vinton,2021-01-05 12:56:10.883925,2020-07-15 00:00:00.000000,0.17642722,0.28986423,0.47508223,23,37,62,11,19,36,0.09146968,0.15023259,0.27862977,0.04704782,0.10433549,0.21656915
39163,0,USOhioVinton,Ohio,Vinton,2021-01-05 12:56:10.883925,2020-07-16 00:00:00.000000,0.17418230,0.29179160,0.47895950,22,38,62,12,19,36,0.09226565,0.15275618,0.28012535,0.04848973,0.10240344,0.21178736
39163,0,USOhioVinton,Ohio,Vinton,2021-01-05 12:56:10.883925,2020-07-17 00:00:00.000000,0.17200813,0.28758501,0.50298294,22,37,65,12,20,36,0.09220051,0.15445622,0.27866669,0.05072086,0.10132505,0.21982988
39163,0,USOhioVinton,Ohio,Vinton,2021-01-05 12:56:10.883925,2020-07-18 00:00:00.000000,0.16950606,0.29331091,0.51100048,22,38,66,12,20,36,0.09382585,0.15774905,0.27791425,0.04904309,0.10141076,0.22302132
39163,0,USOhioVinton,Ohio,Vinton,2021-01-05 12:56:10.883925,2020-07-19 00:00:00.000000,0.16694641,0.29406509,0.52955425,21,38,69,12,20,37,0.09460224,0.15946403,0.28660851,0.04656875,0.10312611,0.22666795
39163,0,USOhioVinton,Ohio,Vinton,2021-01-05 12:56:10.883925,2020-07-20 00:00:00.000000,0.17802584,0.30206626,0.54212564,23,39,70,12,20,38,0.09467239,0.15894586,0.29533894,0.04608676,0.10457188,0.23280323
39163,0,USOhioVinton,Ohio,Vinton,2021-01-05 12:56:10.883925,2020-07-21 00:00:00.000000,0.18857647,0.31325186,0.55695710,24,40,72,12,20,39,0.09701813,0.15961209,0.30098707,0.04655776,0.10620997,0.23215456
39163,0,USOhioVinton,Ohio,Vinton,2021-01-05 12:56:10.883925,2020-07-22 00:00:00.000000,0.19033217,0.31463748,0.56302712,24,41,73,12,21,39,0.09916319,0.16242488,0.30426999,0.04666404,0.10912166,0.23337022
39163,0,USOhioVinton,Ohio,Vinton,2021-01-05 12:56:10.883925,2020-07-23 00:00:00.000000,0.18719323,0.31366530,0.56268790,24,41,73,13,21,39,0.10410190,0.16316110,0.30533331,0.04782821,0.11156766,0.22961160
39163,0,USOhioVinton,Ohio,Vinton,2021-01-05 12:56:10.883925,2020-07-24 00:00:00.000000,0.18678461,0.31665022,0.59119605,24,41,77,13,21,39,0.10595955,0.16399523,0.30464530,0.04995022,0.11287470,0.22586520
39163,0,USOhioVinton,Ohio,Vinton,2021-01-05 12:56:10.883925,2020-07-25 00:00:00.000000,0.18664963,0.31847727,0.58479379,24,41,76,13,21,39,0.10561383,0.16775724,0.30281972,0.05184229,0.11455484,0.21910723
39163,0,USOhioVinton,Ohio,Vinton,2021-01-05 12:56:10.883925,2020-07-26 00:00:00.000000,0.18629982,0.32133606,0.57748617,24,42,75,13,22,39,0.10435475,0.16905323,0.30051947,0.05277451,0.11851596,0.21893483
39163,0,USOhioVinton,Ohio,Vinton,2021-01-05 12:56:10.883925,2020-07-27 00:00:00.000000,0.18710973,0.32411060,0.56682628,24,42,74,13,22,38,0.10335314,0.17334972,0.29769378,0.05309144,0.11961435,0.22059630
39163,0,USOhioVinton,Ohio,Vinton,2021-01-05 12:56:10.883925,2020-07-28 00:00:00.000000,0.18808956,0.32897737,0.56999598,24,43,74,13,22,38,0.10416996,0.17545102,0.29608651,0.05317613,0.12042586,0.22169009
39163,0,USOhioVinton,Ohio,Vinton,2021-01-05 12:56:10.883925,2020-07-29 00:00:00.000000,0.18603605,0.32763873,0.57244577,24,42,74,13,23,38,0.10289534,0.17813752,0.29539406,0.05319181,0.12193755,0.22241093
39163,0,USOhioVinton,Ohio,Vinton,2021-01-05 12:56:10.883925,2020-07-30 00:00:00.000000,0.18403867,0.32751943,0.57446644,24,42,75,13,23,39,0.10116388,0.17838628,0.29807444,0.05319156,0.12461549,0.22299931
39163,0,USOhioVinton,Ohio,Vinton,2021-01-05 12:56:10.883925,2020-07-31 00:00:00.000000,0.18209423,0.33225333,0.57612272,23,43,75,13,23,39,0.10014300,0.17836682,0.30073486,0.05319061,0.12740577,0.22383807
39163,0,USOhioVinton,Ohio,Vinton,2021-01-05 12:56:10.883925,2020-08-01 00:00:00.000000,0.18015271,0.34396398,0.57739694,23,45,75,13,23,39,0.09953711,0.17671544,0.30293447,0.05322605,0.12960235,0.22571572
39163,0,USOhioVinton,Ohio,Vinton,2021-01-05 12:56:10.883925,2020-08-02 00:00:00.000000,0.18073598,0.34685081,0.57811929,23,45,75,12,23,39,0.09929574,0.17993951,0.30475734,0.05343130,0.13379991,0.21486835
39163,0,USOhioVinton,Ohio,Vinton,2021-01-05 12:56:10.883925,2020-08-03 00:00:00.000000,0.18988566,0.35350506,0.56490203,24,46,73,12,23,40,0.09930650,0.18264206,0.30752077,0.05417900,0.13907335,0.21383713
39163,0,USOhioVinton,Ohio,Vinton,2021-01-05 12:56:10.883925,2020-08-04 00:00:00.000000,0.20168509,0.35536008,0.56204531,26,46,73,13,24,40,0.10008346,0.18480531,0.31124556,0.05460784,0.14014120,0.23138819
39163,0,USOhioVinton,Ohio,Vinton,2021-01-05 12:56:10.883925,2020-08-05 00:00:00.000000,0.20453081,0.35894945,0.57312542,26,46,74,13,24,41,0.10137776,0.18911904,0.31693056,0.06142344,0.14371613,0.24700840
39163,0,USOhioVinton,Ohio,Vinton,2021-01-05 12:56:10.883925,2020-08-06 00:00:00.000000,0.21618711,0.35846001,0.57488819,28,46,75,13,25,43,0.10359802,0.19210117,0.33042740,0.06404527,0.14924995,0.24501105
39163,0,USOhioVinton,Ohio,Vinton,2021-01-05 12:56:10.883925,2020-08-07 00:00:00.000000,0.21378906,0.35804594,0.58378491,27,46,76,13,25,45,0.10664738,0.19338771,0.34568608,0.06463738,0.15228898,0.24462323
39163,0,USOhioVinton,Ohio,Vinton,2021-01-05 12:56:10.883925,2020-08-08 00:00:00.000000,0.21094850,0.35576031,0.60724611,27,46,79,14,25,47,0.10873272,0.19489250,0.36201639,0.06753012,0.15199741,0.24462853
39163,0,USOhioVinton,Ohio,Vinton,2021-01-05 12:56:10.883925,2020-08-09 00:00:00.000000,0.21168212,0.35432245,0.61845453,27,46,80,14,25,49,0.11118955,0.19269967,0.37886991,0.07067892,0.15421204,0.24453921
39163,0,USOhioVinton,Ohio,Vinton,2021-01-05 12:56:10.883925,2020-08-10 00:00:00.000000,0.23274719,0.36290085,0.63212714,30,47,82,14,24,50,0.11387913,0.19005450,0.38709982,0.06912480,0.15559521,0.25117071
39163,0,USOhioVinton,Ohio,Vinton,2021-01-05 12:56:10.883925,2020-08-11 00:00:00.000000,0.23295575,0.37249918,0.64523625,30,48,84,15,24,51,0.11999695,0.19086516,0.39321509,0.06844755,0.15836936,0.25231490
39163,0,USOhioVinton,Ohio,Vinton,2021-01-05 12:56:10.883925,2020-08-12 00:00:00.000000,0.23342538,0.37874200,0.65750618,30,49,86,16,25,50,0.12308092,0.19344874,0.38942932,0.06843288,0.15926315,0.25148190
39163,0,USOhioVinton,Ohio,Vinton,2021-01-05 12:56:10.883925,2020-08-13 00:00:00.000000,0.22606793,0.39005260,0.66929180,29,51,87,16,25,50,0.12290788,0.19312670,0.38567967,0.06833375,0.15911213,0.28129886
39163,0,USOhioVinton,Ohio,Vinton,2021-01-05 12:56:10.883925,2020-08-14 00:00:00.000000,0.22764732,0.39801625,0.67831923,29,52,88,16,25,49,0.12258210,0.19446425,0.38198844,0.06825162,0.16445537,0.29482756
39163,0,USOhioVinton,Ohio,Vinton,2021-01-05 12:56:10.883925,2020-08-15 00:00:00.000000,0.23213194,0.40855851,0.68181896,30,53,89,16,26,49,0.12288090,0.19939634,0.37836634,0.06893394,0.16425208,0.30155595
39163,0,USOhioVinton,Ohio,Vinton,2021-01-05 12:56:10.883925,2020-08-16 00:00:00.000000,0.22951523,0.42051897,0.68517865,30,55,89,16,26,49,0.12320816,0.20557638,0.37481706,0.07475888,0.16606714,0.30251306
39163,0,USOhioVinton,Ohio,Vinton,2021-01-05 12:56:10.883925,2020-08-17 00:00:00.000000,0.22817532,0.42547084,0.69346480,29,55,90,16,27,50,0.12381678,0.21294194,0.38720594,0.08300128,0.16976563,0.30261115
39163,0,USOhioVinton,Ohio,Vinton,2021-01-05 12:56:10.883925,2020-08-18 00:00:00.000000,0.22699906,0.42848665,0.71297332,29,56,93,16,28,52,0.12471490,0.21852395,0.40219559,0.08544775,0.17113494,0.30253477
39163,0,USOhioVinton,Ohio,Vinton,2021-01-05 12:56:10.883925,2020-08-19 00:00:00.000000,0.22599265,0.43085242,0.71540377,29,56,93,16,29,54,0.12593554,0.22188919,0.41341747,0.08575938,0.17340274,0.30235340
39163,0,USOhioVinton,Ohio,Vinton,2021-01-05 12:56:10.883925,2020-08-20 00:00:00.000000,0.22820634,0.42794651,0.71948067,29,55,94,16,29,55,0.12748261,0.22447132,0.42166373,0.08861042,0.17485505,0.30209431
39163,0,USOhioVinton,Ohio,Vinton,2021-01-05 12:56:10.883925,2020-08-21 00:00:00.000000,0.23362876,0.42931590,0.72805064,30,56,95,16,29,55,0.12615374,0.22521966,0.42762775,0.10142031,0.17986844,0.29665059
39163,0,USOhioVinton,Ohio,Vinton,2021-01-05 12:56:10.883925,2020-08-22 00:00:00.000000,0.23381498,0.43612718,0.73769374,30,57,96,16,29,57,0.12346178,0.22533070,0.44221571,0.10358809,0.18171466,0.29807846
39163,0,USOhioVinton,Ohio,Vinton,2021-01-05 12:56:10.883925,2020-08-23 00:00:00.000000,0.23323711,0.44356177,0.76474474,30,58,100,15,29,60,0.12202471,0.22554188,0.46467192,0.10274036,0.18949322,0.29750931
39163,0,USOhioVinton,Ohio,Vinton,2021-01-05 12:56:10.883925,2020-08-24 00:00:00.000000,0.23907057,0.44818859,0.78441752,31,58,102,16,29,62,0.12351783,0.22700628,0.47956690,0.10220904,0.19490998,0.29719322
39163,0,USOhioVinton,Ohio,Vinton,2021-01-05 12:56:10.883925,2020-08-25 00:00:00.000000,0.24298842,0.45401988,0.80532990,31,59,105,16,30,63,0.12403208,0.22976198,0.48532441,0.10330292,0.20165935,0.30418221
39163,0,USOhioVinton,Ohio,Vinton,2021-01-05 12:56:10.883925,2020-08-26 00:00:00.000000,0.24813862,0.46359776,0.82549157,32,60,108,16,30,64,0.12471547,0.23287047,0.49033299,0.10473232,0.20511491,0.31120187
39163,0,USOhioVinton,Ohio,Vinton,2021-01-05 12:56:10.883925,2020-08-27 00:00:00.000000,0.25333224,0.47358683,0.84332990,33,61,110,16,31,64,0.12544491,0.23700237,0.49510420,0.10969350,0.21109945,0.31641338
39163,0,USOhioVinton,Ohio,Vinton,2021-01-05 12:56:10.883925,2020-08-28 00:00:00.000000,0.25859118,0.48426158,0.85617506,33,63,112,16,31,65,0.12473484,0.24288365,0.49977102,0.11665678,0.21731022,0.33020711
39163,0,USOhioVinton,Ohio,Vinton,2021-01-05 12:56:10.883925,2020-08-29 00:00:00.000000,0.26428861,0.49730640,0.86314634,34,65,112,16,32,66,0.12676896,0.24912935,0.50444208,0.12024907,0.22122984,0.34826210
39163,0,USOhioVinton,Ohio,Vinton,2021-01-05 12:56:10.883925,2020-08-30 00:00:00.000000,0.26582388,0.51314840,0.86612320,34,67,113,16,33,67,0.12942499,0.25415718,0.51565481,0.12089319,0.22437402,0.35455984
39163,0,USOhioVinton,Ohio,Vinton,2021-01-05 12:56:10.883925,2020-08-31 00:00:00.000000,0.26121699,0.53035727,0.85683887,34,69,112,17,33,69,0.13250326,0.25975354,0.53316497,0.12148094,0.23134141,0.36219191
39163,0,USOhioVinton,Ohio,Vinton,2021-01-05 12:56:10.883925,2020-09-01 00:00:00.000000,0.25668600,0.54672855,0.87618571,33,71,114,18,34,71,0.13779000,0.26630697,0.54584474,0.12431880,0.23368286,0.36499623
39163,0,USOhioVinton,Ohio,Vinton,2021-01-05 12:56:10.883925,2020-09-02 00:00:00.000000,0.25259685,0.55936536,0.90435024,33,73,118,18,35,72,0.14277562,0.27322926,0.55047345,0.12457402,0.23704252,0.37057077
39163,0,USOhioVinton,Ohio,Vinton,2021-01-05 12:56:10.883925,2020-09-03 00:00:00.000000,0.26441423,0.58066087,0.90714427,34,75,118,18,36,74,0.14371841,0.27826246,0.57134500,0.13038334,0.23971129,0.37189927
39163,0,USOhioVinton,Ohio,Vinton,2021-01-05 12:56:10.883925,2020-09-04 00:00:00.000000,0.27760013,0.59855072,0.89609858,36,78,117,18,37,76,0.14467198,0.28602444,0.58125246,0.13658959,0.24616424,0.37091993
39163,0,USOhioVinton,Ohio,Vinton,2021-01-05 12:56:10.883925,2020-09-05 00:00:00.000000,0.29084085,0.61431811,0.91177724,38,80,119,19,39,76,0.14659702,0.29870289,0.58610005,0.13768784,0.25376972,0.38178120
39163,0,USOhioVinton,Ohio,Vinton,2021-01-05 12:56:10.883925,2020-09-06 00:00:00.000000,0.29771400,0.62720133,0.97891515,38,82,128,19,40,77,0.14650531,0.30839931,0.59013559,0.13790569,0.26833969,0.38699649
39163,0,USOhioVinton,Ohio,Vinton,2021-01-05 12:56:10.883925,2020-09-07 00:00:00.000000,0.30719906,0.64923075,1.01372312,40,84,132,19,41,77,0.14751607,0.31907453,0.59365771,0.13824923,0.28462905,0.38808308
39163,0,USOhioVinton,Ohio,Vinton,2021-01-05 12:56:10.883925,2020-09-08 00:00:00.000000,0.30931850,0.67405340,1.05137402,40,88,137,19,43,81,0.15261985,0.33272910,0.62230031,0.14363481,0.29554761,0.39561571
39163,0,USOhioVinton,Ohio,Vinton,2021-01-05 12:56:10.883925,2020-09-09 00:00:00.000000,0.31124197,0.70270890,1.09870531,40,91,143,21,45,85,0.16071297,0.34567436,0.65492019,0.15279096,0.30247113,0.39982305
39163,0,USOhioVinton,Ohio,Vinton,2021-01-05 12:56:10.883925,2020-09-10 00:00:00.000000,0.31293399,0.73546665,1.16284538,40,96,152,22,47,89,0.17106441,0.36262313,0.68589599,0.15286150,0.30889030,0.39976185
39163,0,USOhioVinton,Ohio,Vinton,2021-01-05 12:56:10.883925,2020-09-11 00:00:00.000000,0.31719408,0.75861226,1.21821576,41,99,159,22,48,93,0.17438667,0.37288231,0.71608024,0.15342429,0.30913216,0.39913160
39163,0,USOhioVinton,Ohio,Vinton,2021-01-05 12:56:10.883925,2020-09-12 00:00:00.000000,0.34175047,0.78025719,1.26053182,44,102,164,23,51,97,0.17581323,0.39231325,0.74632932,0.15693480,0.31705440,0.39816721
39163,0,USOhioVinton,Ohio,Vinton,2021-01-05 12:56:10.883925,2020-09-13 00:00:00.000000,0.36744615,0.81367449,1.30727017,48,106,171,23,53,101,0.17693874,0.40864574,0.77781945,0.16292423,0.32114419,0.43713490
39163,0,USOhioVinton,Ohio,Vinton,2021-01-05 12:56:10.883925,2020-09-14 00:00:00.000000,0.38899398,0.85616577,1.39412288,50,112,182,23,55,106,0.17811803,0.42460130,0.81165762,0.16520963,0.32399037,0.47022999
39163,0,USOhioVinton,Ohio,Vinton,2021-01-05 12:56:10.883925,2020-09-15 00:00:00.000000,0.41627331,0.88279700,1.48718228,54,115,194,24,57,111,0.18874335,0.44123046,0.85170831,0.16576335,0.32626820,0.48893598
39163,0,USOhioVinton,Ohio,Vinton,2021-01-05 12:56:10.883925,2020-09-16 00:00:00.000000,0.46688473,0.92267300,1.56521717,61,120,204,26,60,116,0.20624241,0.46044499,0.89175867,0.16642309,0.32767316,0.49845286
39163,0,USOhioVinton,Ohio,Vinton,2021-01-05 12:56:10.883925,2020-09-17 00:00:00.000000,0.48960444,0.95953531,1.62363041,64,125,212,28,62,121,0.21731318,0.47977011,0.92653142,0.17012565,0.33424560,0.50675263
39163,0,USOhioVinton,Ohio,Vinton,2021-01-05 12:56:10.883925,2020-09-18 00:00:00.000000,0.50614407,1.01669011,1.71094814,66,133,223,29,65,126,0.22679942,0.49848324,0.96426739,0.18566727,0.34358250,0.51005336
39163,0,USOhioVinton,Ohio,Vinton,2021-01-05 12:56:10.883925,2020-09-19 00:00:00.000000,0.54057130,1.07216720,1.80720432,70,140,236,31,67,131,0.23756110,0.51967383,1.00521800,0.20809714,0.35850567,0.51464255
39163,0,USOhioVinton,Ohio,Vinton,2021-01-05 12:56:10.883925,2020-09-20 00:00:00.000000,0.57265543,1.12104174,1.91055863,74,146,249,33,70,137,0.25285061,0.53875743,1.04963333,0.22086456,0.36642283,0.53634417
39163,0,USOhioVinton,Ohio,Vinton,2021-01-05 12:56:10.883925,2020-09-21 00:00:00.000000,0.58760135,1.16396267,2.00386058,76,152,262,35,72,143,0.27002241,0.55719914,1.09789840,0.22329175,0.37581592,0.55360800
39163,0,USOhioVinton,Ohio,Vinton,2021-01-05 12:56:10.883925,2020-09-22 00:00:00.000000,0.60286430,1.22121062,2.10256699,78,159,275,37,76,150,0.28584567,0.58268826,1.14870851,0.23106536,0.38004412,0.56260875
39163,0,USOhioVinton,Ohio,Vinton,2021-01-05 12:56:10.883925,2020-09-23 00:00:00.000000,0.61823056,1.30834382,2.20576145,80,171,288,39,79,157,0.30126326,0.60598873,1.20274894,0.23759690,0.39206787,0.56615873
39163,0,USOhioVinton,Ohio,Vinton,2021-01-05 12:56:10.883925,2020-09-24 00:00:00.000000,0.63362176,1.37594734,2.31347830,82,180,302,41,84,164,0.31572843,0.64496737,1.26022440,0.24301650,0.40278299,0.56662567
39163,0,USOhioVinton,Ohio,Vinton,2021-01-05 12:56:10.883925,2020-09-25 00:00:00.000000,0.64914781,1.44613178,2.42560556,84,189,317,43,88,172,0.33365135,0.67645705,1.32116113,0.24226561,0.40030186,0.56665120
39163,0,USOhioVinton,Ohio,Vinton,2021-01-05 12:56:10.883925,2020-09-26 00:00:00.000000,0.68036945,1.52724932,2.55515099,89,199,334,46,92,181,0.35231936,0.70948268,1.38570411,0.24040130,0.40593548,0.55223253
39163,0,USOhioVinton,Ohio,Vinton,2021-01-05 12:56:10.883925,2020-09-27 00:00:00.000000,0.73628336,1.64860929,2.73768466,96,215,358,48,99,190,0.37400931,0.75970104,1.45424517,0.23952523,0.41982679,0.53794535
39163,0,USOhioVinton,Ohio,Vinton,2021-01-05 12:56:10.883925,2020-09-28 00:00:00.000000,0.86444845,1.72606424,2.91568305,113,225,381,50,104,199,0.38347229,0.80161698,1.52711578,0.23921753,0.43117561,0.56995730
39163,0,USOhioVinton,Ohio,Vinton,2021-01-05 12:56:10.883925,2020-09-29 00:00:00.000000,0.92377647,1.81683122,3.10093586,120,237,405,55,111,210,0.42509501,0.84852039,1.60508154,0.23914290,0.43059965,0.57495898
39163,0,USOhioVinton,Ohio,Vinton,2021-01-05 12:56:10.883925,2020-09-30 00:00:00.000000,0.98598665,1.91331837,3.29543703,129,250,431,59,116,220,0.45099898,0.88889051,1.68779723,0.23919714,0.43154140,0.58322540
39163,0,USOhioVinton,Ohio,Vinton,2021-01-05 12:56:10.883925,2020-10-01 00:00:00.000000,1.05159073,2.00728905,3.35242016,137,262,438,62,121,232,0.47796050,0.92803844,1.77501672,0.23965138,0.43167113,0.59388002
39163,0,USOhioVinton,Ohio,Vinton,2021-01-05 12:56:10.883925,2020-10-02 00:00:00.000000,1.12197866,2.12933265,3.35638144,146,278,439,66,127,244,0.50581506,0.97785183,1.86660091,0.24911204,0.44045360,0.59757326
39163,0,USOhioVinton,Ohio,Vinton,2021-01-05 12:56:10.883925,2020-10-03 00:00:00.000000,1.19888678,2.22823243,3.47881815,156,291,455,71,135,254,0.54711262,1.03712349,1.94350628,0.25477196,0.43939606,0.60235904
39163,0,USOhioVinton,Ohio,Vinton,2021-01-05 12:56:10.883925,2020-10-04 00:00:00.000000,1.28788581,2.36531191,3.63627772,168,309,475,77,142,264,0.59422647,1.08810864,2.01983622,0.28101405,0.43724621,0.60900831
39163,0,USOhioVinton,Ohio,Vinton,2021-01-05 12:56:10.883925,2020-10-05 00:00:00.000000,1.39136017,2.51164033,3.79009289,182,328,495,83,149,275,0.63911260,1.14332281,2.10213669,0.28174455,0.42325087,0.60975838
39163,0,USOhioVinton,Ohio,Vinton,2021-01-05 12:56:10.883925,2020-10-06 00:00:00.000000,1.49912472,2.65417154,3.94209303,196,347,515,89,157,286,0.68697515,1.20731842,2.19081403,0.27509575,0.41962778,0.59498495
39163,0,USOhioVinton,Ohio,Vinton,2021-01-05 12:56:10.883925,2020-10-07 00:00:00.000000,1.57793317,2.74883891,4.09400281,206,359,535,96,167,299,0.73853184,1.28199796,2.28516428,0.27358843,0.41804105,0.60251727
39163,0,USOhioVinton,Ohio,Vinton,2021-01-05 12:56:10.883925,2020-10-08 00:00:00.000000,1.62647009,2.85364027,4.24697052,212,373,555,103,177,311,0.79380682,1.35697347,2.38438989,0.27096614,0.40925520,0.57990315
39163,0,USOhioVinton,Ohio,Vinton,2021-01-05 12:56:10.883925,2020-10-09 00:00:00.000000,1.69215722,3.01557442,4.40098995,221,394,575,111,187,325,0.85300402,1.43186355,2.48796193,0.27204438,0.41346091,0.57013384
39163,0,USOhioVinton,Ohio,Vinton,2021-01-05 12:56:10.883925,2020-10-10 00:00:00.000000,1.78533309,3.16980328,4.55374369,233,414,595,118,197,339,0.90325280,1.51105298,2.59558144,0.27307354,0.41677337,0.54876300
39163,0,USOhioVinton,Ohio,Vinton,2021-01-05 12:56:10.883925,2020-10-11 00:00:00.000000,1.91879892,3.29358447,4.69856394,251,430,614,121,203,354,0.93219063,1.55779938,2.70706669,0.26494250,0.42193779,0.54528119
39163,0,USOhioVinton,Ohio,Vinton,2021-01-05 12:56:10.883925,2020-10-12 00:00:00.000000,2.00455937,3.44056926,4.84246057,262,450,633,126,214,369,0.96656111,1.64250919,2.82226713,0.25633023,0.42535822,0.54506736
39163,0,USOhioVinton,Ohio,Vinton,2021-01-05 12:56:10.883925,2020-10-13 00:00:00.000000,2.09556834,3.55451327,5.02506913,274,465,657,131,224,385,1.00712544,1.71488758,2.94765951,0.25231133,0.41707753,0.54841571
39163,0,USOhioVinton,Ohio,Vinton,2021-01-05 12:56:10.883925,2020-10-14 00:00:00.000000,2.18953860,3.64240833,5.18790290,286,476,678,138,233,398,1.06088014,1.78365535,3.04525910,0.25272545,0.40984284,0.55200235
39163,0,USOhioVinton,Ohio,Vinton,2021-01-05 12:56:10.883925,2020-10-15 00:00:00.000000,2.29944439,3.76670743,5.32368954,300,492,696,145,245,408,1.11577426,1.87764010,3.11942497,0.26318852,0.39752423,0.55447275
39163,0,USOhioVinton,Ohio,Vinton,2021-01-05 12:56:10.883925,2020-10-16 00:00:00.000000,2.41345961,3.88815712,5.53459983,315,508,724,153,256,418,1.17037812,1.96174432,3.19483368,0.26584758,0.38695105,0.54623091
39163,0,USOhioVinton,Ohio,Vinton,2021-01-05 12:56:10.883925,2020-10-17 00:00:00.000000,2.53017812,3.99483313,5.65169677,331,522,739,160,264,428,1.22519763,2.02371761,3.27798018,0.25411143,0.37817204,0.51871178
39163,0,USOhioVinton,Ohio,Vinton,2021-01-05 12:56:10.883925,2020-10-18 00:00:00.000000,2.64564534,4.09190534,5.72817539,346,535,749,166,271,440,1.27602649,2.07723324,3.36720599,0.25731096,0.36968748,0.51763095
39163,0,USOhioVinton,Ohio,Vinton,2021-01-05 12:56:10.883925,2020-10-19 00:00:00.000000,2.74385470,4.21998924,5.81074271,359,552,760,173,279,452,1.32893828,2.13265064,3.45492900,0.24095401,0.36571031,0.47862783
39163,0,USOhioVinton,Ohio,Vinton,2021-01-05 12:56:10.883925,2020-10-20 00:00:00.000000,2.79127089,4.34474555,5.88868634,365,568,770,181,287,465,1.38954107,2.19688686,3.55583223,0.23655934,0.36795457,0.48124505
39163,0,USOhioVinton,Ohio,Vinton,2021-01-05 12:56:10.883925,2020-10-21 00:00:00.000000,2.87114061,4.44275921,5.96096179,375,581,779,188,296,477,1.44319707,2.26677783,3.65289905,0.23563704,0.36441876,0.48062192
39163,0,USOhioVinton,Ohio,Vinton,2021-01-05 12:56:10.883925,2020-10-22 00:00:00.000000,2.97119101,4.56511733,6.12194161,388,597,801,195,305,490,1.49708423,2.33280481,3.74954773,0.23714739,0.36369653,0.47669439
39163,0,USOhioVinton,Ohio,Vinton,2021-01-05 12:56:10.883925,2020-10-23 00:00:00.000000,3.03604582,4.69326567,6.28844578,397,614,822,203,312,503,1.55155016,2.38655905,3.84442599,0.23947798,0.36017653,0.46905285
39163,0,USOhioVinton,Ohio,Vinton,2021-01-05 12:56:10.883925,2020-10-24 00:00:00.000000,3.08614658,4.77598213,6.42830748,403,624,841,209,319,515,1.59835897,2.44144365,3.93597226,0.23688858,0.34983050,0.45803647
39163,0,USOhioVinton,Ohio,Vinton,2021-01-05 12:56:10.883925,2020-10-25 00:00:00.000000,3.13318789,4.84912691,6.50880959,409,634,851,213,327,526,1.62920562,2.50095075,4.02282061,0.22927319,0.34228610,0.44441526
39163,0,USOhioVinton,Ohio,Vinton,2021-01-05 12:56:10.883925,2020-10-26 00:00:00.000000,3.16881587,4.93018125,6.59225479,414,645,862,216,334,537,1.65252578,2.56000387,4.10405263,0.22063844,0.33696719,0.43812494
39163,0,USOhioVinton,Ohio,Vinton,2021-01-05 12:56:10.883925,2020-10-27 00:00:00.000000,3.20081822,5.03968062,6.74062274,418,659,882,218,340,546,1.67154144,2.60513187,4.17894401,0.21476136,0.33419766,0.45270123
39163,0,USOhioVinton,Ohio,Vinton,2021-01-05 12:56:10.883925,2020-10-28 00:00:00.000000,3.22843392,5.13363404,6.88426792,422,671,900,220,346,555,1.68763375,2.64922008,4.24788178,0.21235435,0.32897534,0.43678192
39163,0,USOhioVinton,Ohio,Vinton,2021-01-05 12:56:10.883925,2020-10-29 00:00:00.000000,3.25183319,5.18948083,7.02149497,425,679,918,222,353,564,1.70208379,2.70350542,4.31157917,0.20943074,0.32889597,0.42800943
39163,0,USOhioVinton,Ohio,Vinton,2021-01-05 12:56:10.883925,2020-10-30 00:00:00.000000,3.27103179,5.25039771,7.21420617,428,687,943,224,360,571,1.71622460,2.75248084,4.37089078,0.20279687,0.32831556,0.43332715
39163,0,USOhioVinton,Ohio,Vinton,2021-01-05 12:56:10.883925,2020-10-31 00:00:00.000000,3.28656156,5.38423280,7.25845035,430,704,949,226,365,579,1.73163376,2.78999133,4.42676230,0.20352028,0.32535261,0.43342726
39163,0,USOhioVinton,Ohio,Vinton,2021-01-05 12:56:10.883925,2020-11-01 00:00:00.000000,3.29899546,5.43266385,7.34920489,431,710,961,229,370,586,1.75014508,2.83279898,4.48024963,0.20288638,0.32789318,0.43340614
39163,0,USOhioVinton,Ohio,Vinton,2021-01-05 12:56:10.883925,2020-11-02 00:00:00.000000,3.32723742,5.48762132,7.41838881,435,718,970,232,375,593,1.77346204,2.86990306,4.53254608,0.20410948,0.32859400,0.43512036
39163,0,USOhioVinton,Ohio,Vinton,2021-01-05 12:56:10.883925,2020-11-03 00:00:00.000000,3.39183137,5.53163497,7.47790213,443,723,978,236,379,599,1.80380182,2.90002353,4.58492825,0.20589781,0.32824816,0.43600036
39163,0,USOhioVinton,Ohio,Vinton,2021-01-05 12:56:10.883925,2020-11-04 00:00:00.000000,3.46080272,5.57928620,7.53127704,452,730,985,240,383,606,1.84073616,2.93104344,4.63811601,0.20591148,0.32848176,0.43670931
39163,0,USOhioVinton,Ohio,Vinton,2021-01-05 12:56:10.883925,2020-11-05 00:00:00.000000,3.52670503,5.63050603,7.64303997,461,736,1000,245,387,613,1.87876475,2.95839143,4.69190355,0.20605697,0.33070643,0.43796240
39163,0,USOhioVinton,Ohio,Vinton,2021-01-05 12:56:10.883925,2020-11-06 00:00:00.000000,3.59097070,5.66320590,7.80717179,469,741,1021,246,391,620,1.88082947,2.99020186,4.74537681,0.20672152,0.33758383,0.44053935
39163,0,USOhioVinton,Ohio,Vinton,2021-01-05 12:56:10.883925,2020-11-07 00:00:00.000000,3.65425388,5.71752253,8.00669684,478,748,1047,246,397,627,1.88110215,3.03771664,4.79736198,0.20892044,0.34647057,0.45138770
39163,0,USOhioVinton,Ohio,Vinton,2021-01-05 12:56:10.883925,2020-11-08 00:00:00.000000,3.71866632,5.84526689,8.24132808,486,764,1078,246,399,634,1.88115971,3.05586933,4.84676363,0.21707103,0.35150169,0.47422788
39163,0,USOhioVinton,Ohio,Vinton,2021-01-05 12:56:10.883925,2020-11-09 00:00:00.000000,3.75698247,5.96371882,8.51073926,491,780,1113,246,401,640,1.88287710,3.06599092,4.89274514,0.22739095,0.36099994,0.51945402
39163,0,USOhioVinton,Ohio,Vinton,2021-01-05 12:56:10.883925,2020-11-10 00:00:00.000000,3.82973489,6.09554808,8.66854357,501,797,1134,246,408,646,1.88532578,3.12160839,4.93889165,0.22224938,0.37518247,0.56070728
39163,0,USOhioVinton,Ohio,Vinton,2021-01-05 12:56:10.883925,2020-11-11 00:00:00.000000,3.93469720,6.18746717,8.86011125,514,809,1159,248,416,664,1.89964975,3.18504891,5.08136087,0.22586337,0.38297187,0.59992457
39163,0,USOhioVinton,Ohio,Vinton,2021-01-05 12:56:10.883925,2020-11-12 00:00:00.000000,4.00491791,6.26637175,8.99899847,524,819,1177,254,424,676,1.94584234,3.24068858,5.16912252,0.23704744,0.41268413,0.61967437
39163,0,USOhioVinton,Ohio,Vinton,2021-01-05 12:56:10.883925,2020-11-13 00:00:00.000000,4.09026357,6.51444451,9.21958618,535,852,1206,257,430,686,1.96612337,3.29008447,5.24380257,0.25183773,0.43043652,0.66213846
39163,0,USOhioVinton,Ohio,Vinton,2021-01-05 12:56:10.883925,2020-11-14 00:00:00.000000,4.18023884,6.80926422,9.70415671,546,890,1269,256,439,696,1.96292955,3.36009929,5.32051846,0.26880157,0.45508190,0.71320405
39163,0,USOhioVinton,Ohio,Vinton,2021-01-05 12:56:10.883925,2020-11-15 00:00:00.000000,4.29038798,7.05751672,10.28747167,561,923,1346,258,453,709,1.97309973,3.46284412,5.42316475,0.28579216,0.48827252,0.74119261
39163,0,USOhioVinton,Ohio,Vinton,2021-01-05 12:56:10.883925,2020-11-16 00:00:00.000000,4.44240214,7.23579138,10.72856882,581,946,1403,266,466,748,2.03648034,3.56179360,5.71953297,0.31731459,0.52403295,0.75971739
39163,0,USOhioVinton,Ohio,Vinton,2021-01-05 12:56:10.883925,2020-11-17 00:00:00.000000,4.61550166,7.49654057,11.12250610,603,980,1455,277,485,790,2.12233910,3.71365366,6.03770090,0.35005213,0.53547551,0.78235589
39163,0,USOhioVinton,Ohio,Vinton,2021-01-05 12:56:10.883925,2020-11-18 00:00:00.000000,4.80820334,7.90987463,11.53060643,629,1035,1508,291,507,829,2.22681863,3.87659300,6.34303335,0.36965032,0.57381163,0.81254392
39163,0,USOhioVinton,Ohio,Vinton,2021-01-05 12:56:10.883925,2020-11-19 00:00:00.000000,5.01806376,8.33876336,12.15907031,656,1091,1591,307,530,859,2.34693362,4.05421205,6.56731311,0.39084584,0.58942764,0.84077109
39163,0,USOhioVinton,Ohio,Vinton,2021-01-05 12:56:10.883925,2020-11-20 00:00:00.000000,5.24441221,8.75915513,12.86521533,686,1146,1683,324,553,889,2.48142950,4.22839859,6.79846952,0.39623901,0.60584100,0.84745753
39163,0,USOhioVinton,Ohio,Vinton,2021-01-05 12:56:10.883925,2020-11-21 00:00:00.000000,5.48983178,9.24676042,13.60828492,718,1209,1780,344,573,920,2.63266910,4.38200434,7.03630328,0.40511670,0.62939885,0.86116291
39163,0,USOhioVinton,Ohio,Vinton,2021-01-05 12:56:10.883925,2020-11-22 00:00:00.000000,5.76178205,9.81009201,14.36972207,753,1283,1880,367,607,972,2.80835662,4.64563081,7.42980739,0.42273472,0.64821465,0.90165242
39163,0,USOhioVinton,Ohio,Vinton,2021-01-05 12:56:10.883925,2020-11-23 00:00:00.000000,6.08127148,10.42770444,15.16218665,795,1364,1983,394,636,1029,3.01558406,4.86632698,7.86620626,0.43705735,0.64730132,0.91458547
39163,0,USOhioVinton,Ohio,Vinton,2021-01-05 12:56:10.883925,2020-11-24 00:00:00.000000,6.44225226,11.04262329,15.95237603,842,1444,2087,419,664,1090,3.20226133,5.07504355,8.33229178,0.43808872,0.65185551,0.91947126
39163,0,USOhioVinton,Ohio,Vinton,2021-01-05 12:56:10.883925,2020-11-25 00:00:00.000000,6.83164536,11.65887031,16.73667932,893,1525,2189,441,692,1154,3.37365754,5.29439491,8.82029473,0.43229546,0.64440956,0.93689203
39163,0,USOhioVinton,Ohio,Vinton,2021-01-05 12:56:10.883925,2020-11-26 00:00:00.000000,7.23859451,12.18852122,17.47985634,947,1594,2287,466,726,1219,3.56360331,5.55066446,9.32098516,0.43196660,0.64775652,0.92334873
39163,0,USOhioVinton,Ohio,Vinton,2021-01-05 12:56:10.883925,2020-11-27 00:00:00.000000,7.65477109,12.68121846,18.12103036,1001,1659,2371,489,771,1285,3.74000551,5.89703589,9.82318402,0.41196741,0.64250400,0.92345816
39163,0,USOhioVinton,Ohio,Vinton,2021-01-05 12:56:10.883925,2020-11-28 00:00:00.000000,8.06863841,13.18095175,18.93254582,1055,1724,2477,512,820,1349,3.91483795,6.26974852,10.31444627,0.40193407,0.62915901,0.86555395
39163,0,USOhioVinton,Ohio,Vinton,2021-01-05 12:56:10.883925,2020-11-29 00:00:00.000000,8.46332159,13.69664065,19.68598141,1107,1792,2575,535,864,1410,4.08902395,6.60810640,10.78314909,0.40213310,0.61286092,0.85335953
39163,0,USOhioVinton,Ohio,Vinton,2021-01-05 12:56:10.883925,2020-11-30 00:00:00.000000,8.80407572,14.23953508,20.16158037,1152,1863,2638,557,902,1468,4.26262456,6.89723364,11.22453951,0.39294666,0.58270913,0.83860864
39163,0,USOhioVinton,Ohio,Vinton,2021-01-05 12:56:10.883925,2020-12-01 00:00:00.000000,9.10188580,14.68471087,20.57777788,1190,1921,2692,583,939,1522,4.46077568,7.18346027,11.63813149,0.38336494,0.55897258,0.82042070
39163,0,USOhioVinton,Ohio,Vinton,2021-01-05 12:56:10.883925,2020-12-02 00:00:00.000000,9.34874633,15.17533984,21.28416512,1223,1985,2785,607,966,1572,4.63994178,7.39003652,12.01651244,0.36859482,0.53810716,0.81328618
39163,0,USOhioVinton,Ohio,Vinton,2021-01-05 12:56:10.883925,2020-12-03 00:00:00.000000,9.52648645,15.58072901,21.66599261,1246,2038,2834,626,995,1614,4.79100495,7.60633191,12.34224641,0.36087544,0.50982812,0.78007908
39163,0,USOhioVinton,Ohio,Vinton,2021-01-05 12:56:10.883925,2020-12-04 00:00:00.000000,9.63100881,15.79487085,21.83514762,1260,2066,2857,645,1029,1650,4.93227294,7.86520046,12.61318152,0.31455732,0.50261888,0.74279485
39163,0,USOhioVinton,Ohio,Vinton,2021-01-05 12:56:10.883925,2020-12-05 00:00:00.000000,9.67948560,15.82523859,21.88867438,1266,2070,2864,661,1049,1679,5.05236514,8.01896043,12.83545221,0.30059618,0.47727008,0.73608316
39163,0,USOhioVinton,Ohio,Vinton,2021-01-05 12:56:10.883925,2020-12-06 00:00:00.000000,9.69297707,15.84046846,21.83011081,1268,2072,2856,672,1063,1702,5.13933182,8.12877606,13.01435720,0.29280576,0.45986177,0.72599315
39163,0,USOhioVinton,Ohio,Vinton,2021-01-05 12:56:10.883925,2020-12-07 00:00:00.000000,9.67838130,15.85511802,21.68586531,1266,2074,2837,680,1073,1721,5.19882803,8.20769287,13.15355033,0.28645748,0.45557542,0.70687525
39163,0,USOhioVinton,Ohio,Vinton,2021-01-05 12:56:10.883925,2020-12-08 00:00:00.000000,9.64927881,15.80468076,21.49205610,1262,2068,2812,684,1082,1734,5.22745448,8.26942394,13.25463270,0.28449256,0.44976538,0.70314273
39163,0,USOhioVinton,Ohio,Vinton,2021-01-05 12:56:10.883925,2020-12-09 00:00:00.000000,9.60896433,15.67291758,21.27000206,1257,2050,2783,685,1095,1742,5.23837866,8.37195992,13.31989019,0.27577774,0.44093583,0.70113702
39163,0,USOhioVinton,Ohio,Vinton,2021-01-05 12:56:10.883925,2020-12-10 00:00:00.000000,9.55920995,15.60076329,21.22199276,1250,2041,2776,689,1108,1747,5.26593122,8.47316783,13.35117699,0.26648835,0.44323945,0.70731037
39163,0,USOhioVinton,Ohio,Vinton,2021-01-05 12:56:10.883925,2020-12-11 00:00:00.000000,9.50104319,15.44991452,21.19825620,1243,2021,2773,690,1101,1746,5.27851076,8.41559326,13.35008712,0.26574674,0.43819721,0.71807602
39163,0,USOhioVinton,Ohio,Vinton,2021-01-05 12:56:10.883925,2020-12-12 00:00:00.000000,9.43418440,15.27974323,21.10750207,1234,1999,2761,677,1100,1742,5.17845302,8.41348985,13.31809993,0.26637356,0.42992575,0.71757176
39163,0,USOhioVinton,Ohio,Vinton,2021-01-05 12:56:10.883925,2020-12-13 00:00:00.000000,9.35624456,15.05795113,20.96944637,1224,1970,2743,668,1098,1734,5.10993513,8.39625580,13.25667679,0.26530119,0.41135241,0.71908830
39163,0,USOhioVinton,Ohio,Vinton,2021-01-05 12:56:10.883925,2020-12-14 00:00:00.000000,9.26295035,14.74803548,20.77058885,1212,1929,2717,659,1091,1722,5.03947419,8.33784282,13.16730538,0.26189204,0.40761240,0.72139561
39163,0,USOhioVinton,Ohio,Vinton,2021-01-05 12:56:10.883925,2020-12-15 00:00:00.000000,9.15979992,14.56334592,20.54171326,1198,1905,2687,646,1079,1708,4.94294222,8.24927220,13.05459266,0.26013741,0.41246206,0.71893874
39163,0,USOhioVinton,Ohio,Vinton,2021-01-05 12:56:10.883925,2020-12-16 00:00:00.000000,9.05057339,14.30245867,20.28642225,1184,1871,2654,631,1061,1690,4.82981515,8.10935284,12.91920228,0.26113901,0.41711803,0.71992202
39163,0,USOhioVinton,Ohio,Vinton,2021-01-05 12:56:10.883925,2020-12-17 00:00:00.000000,8.93584806,14.07574884,20.00769033,1169,1841,2618,618,1039,1676,4.73035389,7.94279739,12.81262721,0.26464791,0.42341001,0.73101944
39163,0,USOhioVinton,Ohio,Vinton,2021-01-05 12:56:10.883925,2020-12-18 00:00:00.000000,8.81492609,13.84515404,19.70772246,1153,1811,2578,613,1015,1667,4.69216398,7.76258469,12.74502767,0.25619721,0.43332808,0.74772847
39163,0,USOhioVinton,Ohio,Vinton,2021-01-05 12:56:10.883925,2020-12-19 00:00:00.000000,8.68860430,13.53581147,19.38770668,1136,1771,2536,608,994,1658,4.64999035,7.59789598,12.67462908,0.26072615,0.44244693,0.76113839
39163,0,USOhioVinton,Ohio,Vinton,2021-01-05 12:56:10.883925,2020-12-20 00:00:00.000000,8.54104695,13.12726457,19.04673559,1117,1717,2492,602,970,1649,4.60329018,7.41729860,12.60600774,0.24878169,0.44254352,0.77008877
39163,0,USOhioVinton,Ohio,Vinton,2021-01-05 12:56:10.883925,2020-12-21 00:00:00.000000,8.28532457,12.89372236,18.67879435,1084,1687,2444,595,938,1640,4.55243120,7.17565945,12.53846704,0.24750092,0.44065498,0.77724088
39163,0,USOhioVinton,Ohio,Vinton,2021-01-05 12:56:10.883925,2020-12-22 00:00:00.000000,8.00207540,12.58721415,18.27337600,1047,1647,2391,586,924,1631,4.48401539,7.06182080,12.46755777,0.24712300,0.44081617,0.78755444
39163,0,USOhioVinton,Ohio,Vinton,2021-01-05 12:56:10.883925,2020-12-23 00:00:00.000000,7.73055877,12.28860796,17.78228914,1011,1607,2326,567,908,1621,4.34004505,6.94060822,12.39093548,0.24586205,0.44346717,0.80929509
39163,0,USOhioVinton,Ohio,Vinton,2021-01-05 12:56:10.883925,2020-12-24 00:00:00.000000,7.46478128,12.00196703,17.52522965,976,1570,2293,550,884,1610,4.20640744,6.75996311,12.30734483,0.24255182,0.44617057,0.83363853
39163,0,USOhioVinton,Ohio,Vinton,2021-01-05 12:56:10.883925,2020-12-25 00:00:00.000000,7.19799461,11.72749808,17.17617064,941,1534,2247,535,870,1598,4.09418620,6.65546426,12.21659561,0.23799860,0.45624284,0.83742785
39163,0,USOhioVinton,Ohio,Vinton,2021-01-05 12:56:10.883925,2020-12-26 00:00:00.000000,7.00534339,11.38764038,16.86010797,916,1490,2206,526,853,1585,4.02278745,6.52411229,12.11910725,0.23231698,0.46846121,0.84805961
39163,0,USOhioVinton,Ohio,Vinton,2021-01-05 12:56:10.883925,2020-12-27 00:00:00.000000,6.87371188,11.15724621,16.55978690,899,1459,2166,520,835,1572,3.98028481,6.38620049,12.01528401,0.22510772,0.47117075,0.85950194
39163,0,USOhioVinton,Ohio,Vinton,2021-01-05 12:56:10.883925,2020-12-28 00:00:00.000000,6.70906302,10.88737405,16.25934309,877,1424,2127,517,820,1557,3.95386500,6.26688223,11.90516464,0.22043683,0.47569836,0.86390570
39163,0,USOhioVinton,Ohio,Vinton,2021-01-05 12:56:10.883925,2020-12-29 00:00:00.000000,6.54425364,10.51527642,15.77512938,856,1375,2064,503,798,1542,3.84879402,6.10119236,11.78685969,0.21816913,0.48382723,0.86807410
39163,0,USOhioVinton,Ohio,Vinton,2021-01-05 12:56:10.883925,2020-12-30 00:00:00.000000,6.37852698,10.21642196,15.24012937,834,1336,1994,488,771,1510,3.73339345,5.89347979,11.54608360,0.21695142,0.48697227,0.87365236
39163,0,USOhioVinton,Ohio,Vinton,2021-01-05 12:56:10.883925,2020-12-31 00:00:00.000000,6.21281883,9.90374483,14.92595285,812,1295,1953,469,755,1475,3.58969120,5.77567516,11.27774625,0.21467413,0.49028191,0.88140315
39163,0,USOhioVinton,Ohio,Vinton,2021-01-05 12:56:10.883925,2021-01-01 00:00:00.000000,5.82061898,9.61265802,14.77857249,761,1257,1933,445,735,1438,3.40526605,5.61941081,10.99712874,0.21036639,0.48956022,0.90406083
39163,0,USOhioVinton,Ohio,Vinton,2021-01-05 12:56:10.883925,2021-01-02 00:00:00.000000,5.36467545,9.37712041,14.62505280,701,1226,1913,420,715,1401,3.21349246,5.46641375,10.71036882,0.20871630,0.49588034,0.93087998
39163,0,USOhioVinton,Ohio,Vinton,2021-01-05 12:56:10.883925,2021-01-03 00:00:00.000000,4.93965708,9.13452271,14.46229601,646,1195,1892,393,693,1363,3.01038264,5.30010243,10.42259412,0.20822729,0.49088875,0.94990126
39163,0,USOhioVinton,Ohio,Vinton,2021-01-05 12:56:10.883925,2021-01-04 00:00:00.000000,4.54476135,8.93653653,14.28960958,594,1169,1869,366,671,1326,2.80038261,5.12860115,10.13387124,0.20243888,0.48469265,0.95904511
39163,0,USOhioVinton,Ohio,Vinton,2021-01-05 12:56:10.883925,2021-01-05 00:00:00.000000,4.17875521,8.62945313,14.04218401,546,1129,1837,338,649,1287,2.59052471,4.96659605,9.84323008,0.19953945,0.48316768,0.96262599
39163,0,USOhioVinton,Ohio,Vinton,2021-01-05 12:56:10.883925,2021-01-06 00:00:00.000000,3.93350796,8.28532581,13.75299329,514,1084,1799,312,622,1249,2.38635316,4.76082205,9.55231612,0.19829668,0.49076272,0.96391500
39163,0,USOhioVinton,Ohio,Vinton,2021-01-05 12:56:10.883925,2021-01-07 00:00:00.000000,3.60159161,7.89428470,13.45633416,471,1032,1760,286,607,1212,2.19142844,4.64462022,9.26257621,0.19779978,0.48425299,0.96436539
39163,0,USOhioVinton,Ohio,Vinton,2021-01-05 12:56:10.883925,2021-01-08 00:00:00.000000,3.28277863,7.51584935,13.25269278,429,983,1734,262,591,1174,2.00776772,4.51848554,8.97519742,0.19760647,0.48597023,0.96452142
39163,0,USOhioVinton,Ohio,Vinton,2021-01-05 12:56:10.883925,2021-01-09 00:00:00.000000,2.98990904,7.14917876,13.20176627,391,935,1727,240,575,1137,1.83632561,4.40156064,8.69112129,0.19753195,0.48893082,0.96457545
39163,0,USOhioVinton,Ohio,Vinton,2021-01-05 12:56:10.883925,2021-01-10 00:00:00.000000,2.72160284,6.83683778,13.08139290,356,894,1711,219,556,1110,1.67735796,4.25346471,8.48916876,0.19750325,0.48981758,0.96459424
39163,0,USOhioVinton,Ohio,Vinton,2021-01-05 12:56:10.883925,2021-01-11 00:00:00.000000,2.49029511,6.69250829,12.78969310,325,875,1673,206,535,1086,1.58097049,4.09131825,8.30054879,0.19749217,0.49007518,0.96460082
39163,0,USOhioVinton,Ohio,Vinton,2021-01-05 12:56:10.883925,2021-01-12 00:00:00.000000,2.28178619,6.53254227,12.42734513,298,854,1626,195,517,1061,1.49499048,3.95308351,8.10853070,0.19748786,0.49014659,0.96460315
39163,0,USOhioVinton,Ohio,Vinton,2021-01-05 12:56:10.883925,2021-01-13 00:00:00.000000,2.12864301,6.28128248,12.06295770,278,821,1578,184,492,1035,1.41340189,3.76692172,7.91395225,0.19748618,0.49016489,0.96460398
39163,0,USOhioVinton,Ohio,Vinton,2021-01-05 12:56:10.883925,2021-01-14 00:00:00.000000,2.00658945,6.10289798,11.69777922,262,798,1530,174,470,1009,1.33506929,3.59595747,7.71724711,0.19748550,0.49016875,0.96460429
39163,0,USOhioVinton,Ohio,Vinton,2021-01-05 12:56:10.883925,2021-01-15 00:00:00.000000,1.89127176,5.84128674,11.33297494,247,764,1482,160,457,983,1.22431290,3.49649962,7.51888347,0.19748523,0.49016906,0.96460440
39163,0,USOhioVinton,Ohio,Vinton,2021-01-05 12:56:10.883925,2021-01-16 00:00:00.000000,1.78234944,5.55342548,10.96962428,233,726,1435,146,441,957,1.12252427,3.37627634,7.31934661,0.19748512,0.49016871,0.96460445
39163,0,USOhioVinton,Ohio,Vinton,2021-01-05 12:56:10.883925,2021-01-17 00:00:00.000000,1.67949533,5.32772205,10.60871959,219,697,1388,134,421,931,1.02902316,3.21841097,7.11912570,0.19748507,0.49016837,0.96460447
