FIPS,HR_UID,nameid,province,region,analysisTime,dates,pointprevalence_025,pointprevalence_50,pointprevalence_975,pointinfections_025,pointinfections_50,pointinfections_975,pointinfectious_025,pointinfectious_50,pointinfectious_975,pointinfectiousprevalence_05,pointinfectiousprevalence_50,pointinfectiousprevalence_95,infectrate_025,infectrate_50,infectrate_975
5045,0,USArkansasFaulkner,Arkansas,Faulkner,2021-01-06 04:46:28.428270,2020-03-09 00:00:00.000000,0.00236900,0.00912893,0.01696980,2,11,21,1,5,10,0.00087124,0.00464911,0.00865541,0.42446089,0.54534095,0.80661573
5045,0,USArkansasFaulkner,Arkansas,Faulkner,2021-01-06 04:46:28.428270,2020-03-10 00:00:00.000000,0.00279275,0.00978711,0.01879255,3,12,23,1,5,11,0.00094208,0.00475457,0.00878948,0.42443305,0.54523069,0.80273743
5045,0,USArkansasFaulkner,Arkansas,Faulkner,2021-01-06 04:46:28.428270,2020-03-11 00:00:00.000000,0.00317117,0.01053254,0.02095324,3,13,26,1,6,12,0.00107356,0.00490298,0.00984501,0.42436864,0.54523052,0.79601487
5045,0,USArkansasFaulkner,Arkansas,Faulkner,2021-01-06 04:46:28.428270,2020-03-12 00:00:00.000000,0.00348557,0.01139982,0.02320540,4,14,29,1,6,13,0.00124221,0.00517153,0.01094893,0.42421980,0.54522091,0.78836799
5045,0,USArkansasFaulkner,Arkansas,Faulkner,2021-01-06 04:46:28.428270,2020-03-13 00:00:00.000000,0.00381281,0.01232435,0.02551318,4,15,32,1,7,14,0.00143809,0.00560357,0.01172921,0.42387646,0.54389514,0.78733521
5045,0,USArkansasFaulkner,Arkansas,Faulkner,2021-01-06 04:46:28.428270,2020-03-14 00:00:00.000000,0.00415696,0.01348533,0.02825939,5,16,35,2,7,15,0.00165765,0.00601818,0.01250389,0.42308792,0.53813941,0.78599203
5045,0,USArkansasFaulkner,Arkansas,Faulkner,2021-01-06 04:46:28.428270,2020-03-15 00:00:00.000000,0.00452128,0.01451575,0.03129553,5,18,39,2,8,16,0.00190084,0.00640388,0.01334157,0.42066279,0.53330386,0.78423937
5045,0,USArkansasFaulkner,Arkansas,Faulkner,2021-01-06 04:46:28.428270,2020-03-16 00:00:00.000000,0.00735157,0.01734852,0.03636752,9,21,45,2,8,17,0.00210364,0.00682980,0.01424247,0.39764806,0.52842203,0.78144856
5045,0,USArkansasFaulkner,Arkansas,Faulkner,2021-01-06 04:46:28.428270,2020-03-17 00:00:00.000000,0.00971591,0.02154467,0.04176688,12,27,52,3,9,19,0.00270573,0.00770520,0.01577500,0.39760479,0.51926372,0.74329606
5045,0,USArkansasFaulkner,Arkansas,Faulkner,2021-01-06 04:46:28.428270,2020-03-18 00:00:00.000000,0.01156908,0.02593482,0.04795152,14,32,60,5,11,22,0.00411905,0.00918558,0.01821238,0.36401075,0.51097725,0.73710563
5045,0,USArkansasFaulkner,Arkansas,Faulkner,2021-01-06 04:46:28.428270,2020-03-19 00:00:00.000000,0.01378149,0.02968237,0.05236480,17,37,65,6,14,28,0.00500238,0.01168156,0.02261403,0.36039022,0.50104954,0.70469004
5045,0,USArkansasFaulkner,Arkansas,Faulkner,2021-01-06 04:46:28.428270,2020-03-20 00:00:00.000000,0.01588381,0.03415230,0.05725204,20,43,72,7,17,34,0.00569372,0.01406255,0.02757800,0.33528400,0.48429734,0.64087932
5045,0,USArkansasFaulkner,Arkansas,Faulkner,2021-01-06 04:46:28.428270,2020-03-21 00:00:00.000000,0.01782893,0.03936975,0.06389681,22,49,80,8,20,38,0.00642727,0.01606225,0.03044959,0.30862277,0.46384780,0.61921177
5045,0,USArkansasFaulkner,Arkansas,Faulkner,2021-01-06 04:46:28.428270,2020-03-22 00:00:00.000000,0.02035415,0.04369221,0.07222278,25,55,91,9,23,40,0.00719140,0.01836196,0.03246143,0.29144973,0.42526511,0.60984380
5045,0,USArkansasFaulkner,Arkansas,Faulkner,2021-01-06 04:46:28.428270,2020-03-23 00:00:00.000000,0.02292636,0.04709289,0.07698587,28,59,97,10,25,43,0.00812217,0.02058803,0.03424414,0.28229957,0.39545522,0.57944694
5045,0,USArkansasFaulkner,Arkansas,Faulkner,2021-01-06 04:46:28.428270,2020-03-24 00:00:00.000000,0.02562250,0.05023443,0.08172387,32,63,102,11,28,49,0.00921942,0.02264509,0.03950725,0.25763211,0.36962310,0.55505274
5045,0,USArkansasFaulkner,Arkansas,Faulkner,2021-01-06 04:46:28.428270,2020-03-25 00:00:00.000000,0.02841991,0.05386314,0.08623160,35,67,108,13,31,55,0.01041657,0.02469053,0.04443914,0.24342085,0.36272379,0.54486328
5045,0,USArkansasFaulkner,Arkansas,Faulkner,2021-01-06 04:46:28.428270,2020-03-26 00:00:00.000000,0.03130914,0.05646472,0.09051756,39,71,114,14,33,61,0.01169096,0.02643938,0.04871784,0.22770103,0.34688850,0.52492226
5045,0,USArkansasFaulkner,Arkansas,Faulkner,2021-01-06 04:46:28.428270,2020-03-27 00:00:00.000000,0.03377129,0.05907473,0.09456688,42,74,119,16,35,65,0.01302850,0.02816177,0.05232322,0.22169403,0.32897192,0.49730039
5045,0,USArkansasFaulkner,Arkansas,Faulkner,2021-01-06 04:46:28.428270,2020-03-28 00:00:00.000000,0.03677884,0.06185798,0.09833309,46,77,123,18,38,69,0.01441951,0.03050979,0.05527118,0.18363744,0.29870752,0.49091703
5045,0,USArkansasFaulkner,Arkansas,Faulkner,2021-01-06 04:46:28.428270,2020-03-29 00:00:00.000000,0.03982251,0.06541786,0.10186759,50,82,128,19,40,72,0.01585560,0.03193744,0.05766724,0.18222010,0.27636743,0.44324457
5045,0,USArkansasFaulkner,Arkansas,Faulkner,2021-01-06 04:46:28.428270,2020-03-30 00:00:00.000000,0.04200362,0.06727530,0.10514707,52,84,132,21,40,75,0.01732970,0.03244031,0.05966450,0.18181096,0.26806472,0.42432840
5045,0,USArkansasFaulkner,Arkansas,Faulkner,2021-01-06 04:46:28.428270,2020-03-31 00:00:00.000000,0.04317153,0.06888194,0.10831883,54,86,136,23,42,78,0.01868660,0.03387877,0.06201022,0.18164280,0.26155887,0.38370955
5045,0,USArkansasFaulkner,Arkansas,Faulkner,2021-01-06 04:46:28.428270,2020-04-01 00:00:00.000000,0.04322319,0.07046474,0.11141744,54,88,140,25,44,81,0.02022945,0.03501580,0.06455256,0.17495400,0.25428708,0.37883626
5045,0,USArkansasFaulkner,Arkansas,Faulkner,2021-01-06 04:46:28.428270,2020-04-02 00:00:00.000000,0.04379851,0.07248162,0.11446169,55,91,144,26,45,84,0.02124457,0.03614742,0.06719489,0.17139714,0.24838626,0.36113739
5045,0,USArkansasFaulkner,Arkansas,Faulkner,2021-01-06 04:46:28.428270,2020-04-03 00:00:00.000000,0.04551186,0.07369267,0.11739621,57,92,147,28,45,87,0.02222325,0.03607975,0.06981264,0.16850521,0.23869978,0.35817561
5045,0,USArkansasFaulkner,Arkansas,Faulkner,2021-01-06 04:46:28.428270,2020-04-04 00:00:00.000000,0.04577812,0.07455033,0.12000634,57,93,151,28,45,91,0.02295229,0.03636538,0.07225853,0.15709842,0.22650609,0.35468151
5045,0,USArkansasFaulkner,Arkansas,Faulkner,2021-01-06 04:46:28.428270,2020-04-05 00:00:00.000000,0.04599702,0.07430029,0.12304527,57,93,155,29,47,93,0.02358752,0.03773476,0.07445451,0.14771052,0.21334634,0.34853860
5045,0,USArkansasFaulkner,Arkansas,Faulkner,2021-01-06 04:46:28.428270,2020-04-06 00:00:00.000000,0.04633569,0.07501016,0.12434716,58,94,156,30,48,96,0.02428951,0.03852461,0.07642115,0.14105958,0.21066462,0.33892351
5045,0,USArkansasFaulkner,Arkansas,Faulkner,2021-01-06 04:46:28.428270,2020-04-07 00:00:00.000000,0.04662245,0.07521568,0.12528726,58,94,157,29,49,97,0.02363677,0.03929848,0.07751780,0.14018572,0.20688261,0.33259118
5045,0,USArkansasFaulkner,Arkansas,Faulkner,2021-01-06 04:46:28.428270,2020-04-08 00:00:00.000000,0.04683039,0.07495202,0.12539050,59,94,158,29,49,98,0.02315931,0.03951106,0.07826019,0.13923669,0.20171898,0.31845882
5045,0,USArkansasFaulkner,Arkansas,Faulkner,2021-01-06 04:46:28.428270,2020-04-09 00:00:00.000000,0.04692657,0.07514146,0.12469089,59,94,157,28,49,99,0.02278771,0.03934698,0.07860745,0.13763889,0.19759004,0.31205706
5045,0,USArkansasFaulkner,Arkansas,Faulkner,2021-01-06 04:46:28.428270,2020-04-10 00:00:00.000000,0.04688863,0.07531250,0.12366712,59,94,155,28,48,99,0.02258664,0.03880944,0.07873576,0.12550008,0.19027579,0.30340889
5045,0,USArkansasFaulkner,Arkansas,Faulkner,2021-01-06 04:46:28.428270,2020-04-11 00:00:00.000000,0.04672012,0.07540077,0.12251429,58,95,154,28,49,99,0.02264409,0.03939565,0.07867745,0.11500350,0.18768431,0.28943959
5045,0,USArkansasFaulkner,Arkansas,Faulkner,2021-01-06 04:46:28.428270,2020-04-12 00:00:00.000000,0.04644930,0.07529097,0.12130109,58,94,152,28,50,98,0.02270052,0.03985894,0.07839254,0.11307441,0.18352283,0.28352436
5045,0,USArkansasFaulkner,Arkansas,Faulkner,2021-01-06 04:46:28.428270,2020-04-13 00:00:00.000000,0.04638349,0.07473096,0.12039160,58,94,151,28,50,98,0.02275484,0.04006470,0.07780372,0.11263724,0.18028313,0.27385366
5045,0,USArkansasFaulkner,Arkansas,Faulkner,2021-01-06 04:46:28.428270,2020-04-14 00:00:00.000000,0.04551502,0.07396615,0.11944059,57,93,150,28,51,96,0.02247020,0.04060960,0.07679220,0.11251396,0.17661357,0.27602696
5045,0,USArkansasFaulkner,Arkansas,Faulkner,2021-01-06 04:46:28.428270,2020-04-15 00:00:00.000000,0.04466841,0.07382063,0.11947023,56,93,150,27,51,95,0.02200898,0.04059408,0.07544657,0.11247638,0.17575453,0.27323178
5045,0,USArkansasFaulkner,Arkansas,Faulkner,2021-01-06 04:46:28.428270,2020-04-16 00:00:00.000000,0.04383943,0.07393008,0.12005018,55,93,151,27,50,93,0.02167381,0.04047389,0.07387787,0.11249003,0.17589657,0.26030930
5045,0,USArkansasFaulkner,Arkansas,Faulkner,2021-01-06 04:46:28.428270,2020-04-17 00:00:00.000000,0.04303396,0.07341754,0.11922311,54,92,150,27,50,90,0.02169272,0.03996126,0.07217749,0.11258566,0.17692535,0.25657769
5045,0,USArkansasFaulkner,Arkansas,Faulkner,2021-01-06 04:46:28.428270,2020-04-18 00:00:00.000000,0.04199979,0.07273548,0.11887018,52,91,149,27,49,88,0.02176844,0.03951128,0.07041031,0.11289677,0.17732085,0.25779665
5045,0,USArkansasFaulkner,Arkansas,Faulkner,2021-01-06 04:46:28.428270,2020-04-19 00:00:00.000000,0.04145855,0.07251913,0.12101121,52,91,152,27,49,89,0.02189285,0.03946016,0.07066455,0.11381166,0.17922759,0.25851897
5045,0,USArkansasFaulkner,Arkansas,Faulkner,2021-01-06 04:46:28.428270,2020-04-20 00:00:00.000000,0.04084423,0.07143762,0.11904112,51,90,150,27,49,90,0.02158849,0.03939276,0.07186681,0.11461353,0.17783689,0.25334437
5045,0,USArkansasFaulkner,Arkansas,Faulkner,2021-01-06 04:46:28.428270,2020-04-21 00:00:00.000000,0.04076290,0.07186431,0.11710785,51,90,147,27,49,89,0.02170080,0.03959273,0.07076175,0.11303636,0.17451482,0.25343618
5045,0,USArkansasFaulkner,Arkansas,Faulkner,2021-01-06 04:46:28.428270,2020-04-22 00:00:00.000000,0.03943509,0.07226958,0.11687354,49,91,147,27,50,87,0.02209603,0.03976460,0.06955584,0.11329826,0.17392058,0.25346219
5045,0,USArkansasFaulkner,Arkansas,Faulkner,2021-01-06 04:46:28.428270,2020-04-23 00:00:00.000000,0.03859853,0.07163792,0.11781301,48,90,148,27,49,86,0.02143433,0.03943090,0.06838259,0.11484244,0.17444878,0.25958544
5045,0,USArkansasFaulkner,Arkansas,Faulkner,2021-01-06 04:46:28.428270,2020-04-24 00:00:00.000000,0.03775323,0.07159342,0.11874365,47,90,149,25,50,86,0.02044843,0.03971704,0.06828510,0.11350865,0.17465007,0.26264993
5045,0,USArkansasFaulkner,Arkansas,Faulkner,2021-01-06 04:46:28.428270,2020-04-25 00:00:00.000000,0.03692974,0.07167283,0.11807824,46,90,148,24,50,86,0.01950127,0.04008710,0.06827842,0.11684424,0.17430117,0.26306917
5045,0,USArkansasFaulkner,Arkansas,Faulkner,2021-01-06 04:46:28.428270,2020-04-26 00:00:00.000000,0.03613874,0.07167972,0.11740591,45,90,147,23,50,85,0.01860357,0.04040318,0.06802509,0.11547400,0.17506319,0.26301449
5045,0,USArkansasFaulkner,Arkansas,Faulkner,2021-01-06 04:46:28.428270,2020-04-27 00:00:00.000000,0.03487697,0.07176122,0.11589533,43,90,146,22,50,83,0.01776408,0.04033161,0.06663384,0.11554663,0.17103825,0.25804443
5045,0,USArkansasFaulkner,Arkansas,Faulkner,2021-01-06 04:46:28.428270,2020-04-28 00:00:00.000000,0.03365195,0.07202241,0.11418190,42,90,143,21,50,84,0.01715125,0.03992017,0.06726721,0.11949282,0.17236774,0.26277875
5045,0,USArkansasFaulkner,Arkansas,Faulkner,2021-01-06 04:46:28.428270,2020-04-29 00:00:00.000000,0.03243676,0.07248924,0.11238357,40,91,141,21,49,84,0.01683681,0.03944425,0.06739738,0.11426495,0.17488252,0.26304314
5045,0,USArkansasFaulkner,Arkansas,Faulkner,2021-01-06 04:46:28.428270,2020-04-30 00:00:00.000000,0.03156225,0.07283022,0.11314542,39,91,142,21,49,85,0.01683747,0.03915939,0.06754161,0.11420373,0.17800968,0.26335861
5045,0,USArkansasFaulkner,Arkansas,Faulkner,2021-01-06 04:46:28.428270,2020-05-01 00:00:00.000000,0.03163918,0.07306582,0.11129630,39,92,140,21,49,84,0.01685867,0.03918521,0.06741085,0.11892911,0.18067596,0.26455397
5045,0,USArkansasFaulkner,Arkansas,Faulkner,2021-01-06 04:46:28.428270,2020-05-02 00:00:00.000000,0.03176091,0.07373096,0.10795144,40,92,136,21,49,83,0.01689457,0.03923889,0.06638242,0.11651587,0.18507076,0.26870605
5045,0,USArkansasFaulkner,Arkansas,Faulkner,2021-01-06 04:46:28.428270,2020-05-03 00:00:00.000000,0.03238965,0.07454359,0.10569651,40,93,133,21,49,84,0.01694625,0.03932155,0.06691998,0.11432992,0.18717409,0.27805277
5045,0,USArkansasFaulkner,Arkansas,Faulkner,2021-01-06 04:46:28.428270,2020-05-04 00:00:00.000000,0.03252527,0.07560332,0.10531460,40,95,132,21,49,84,0.01701854,0.03919318,0.06686484,0.12679736,0.19449775,0.28808566
5045,0,USArkansasFaulkner,Arkansas,Faulkner,2021-01-06 04:46:28.428270,2020-05-05 00:00:00.000000,0.03315996,0.07525491,0.10778002,41,94,135,21,49,83,0.01723099,0.03922960,0.06618022,0.12990514,0.19990560,0.29370849
5045,0,USArkansasFaulkner,Arkansas,Faulkner,2021-01-06 04:46:28.428270,2020-05-06 00:00:00.000000,0.03384987,0.07463490,0.10923843,42,94,137,22,49,82,0.01752266,0.03934344,0.06511198,0.12387103,0.20352506,0.30257766
5045,0,USArkansasFaulkner,Arkansas,Faulkner,2021-01-06 04:46:28.428270,2020-05-07 00:00:00.000000,0.03460653,0.07360682,0.11229407,43,92,141,22,50,81,0.01786164,0.03971049,0.06456017,0.12146124,0.20792111,0.30960154
5045,0,USArkansasFaulkner,Arkansas,Faulkner,2021-01-06 04:46:28.428270,2020-05-08 00:00:00.000000,0.03547395,0.07392788,0.11631461,44,93,146,22,50,83,0.01823939,0.04001016,0.06587133,0.12084704,0.21217413,0.32531612
5045,0,USArkansasFaulkner,Arkansas,Faulkner,2021-01-06 04:46:28.428270,2020-05-09 00:00:00.000000,0.03650641,0.07578964,0.11932195,46,95,150,23,51,82,0.01866693,0.04059706,0.06553258,0.12107300,0.21728172,0.34331965
5045,0,USArkansasFaulkner,Arkansas,Faulkner,2021-01-06 04:46:28.428270,2020-05-10 00:00:00.000000,0.03750928,0.07683498,0.12264211,47,96,154,24,51,82,0.01916677,0.04100600,0.06518855,0.12531458,0.22827980,0.36178116
5045,0,USArkansasFaulkner,Arkansas,Faulkner,2021-01-06 04:46:28.428270,2020-05-11 00:00:00.000000,0.03824046,0.07900460,0.12771605,48,99,160,24,52,83,0.01963914,0.04183922,0.06603411,0.13234124,0.23257053,0.36304218
5045,0,USArkansasFaulkner,Arkansas,Faulkner,2021-01-06 04:46:28.428270,2020-05-12 00:00:00.000000,0.03900962,0.08149610,0.13232187,49,102,166,25,52,86,0.02011713,0.04197719,0.06887074,0.13206569,0.23866639,0.36343510
5045,0,USArkansasFaulkner,Arkansas,Faulkner,2021-01-06 04:46:28.428270,2020-05-13 00:00:00.000000,0.03985606,0.08317745,0.13232872,50,104,166,26,53,90,0.02074801,0.04259062,0.07159838,0.13324359,0.24178242,0.36358127
5045,0,USArkansasFaulkner,Arkansas,Faulkner,2021-01-06 04:46:28.428270,2020-05-14 00:00:00.000000,0.04166256,0.08476983,0.13588300,52,106,171,27,53,90,0.02148602,0.04242910,0.07191663,0.14011231,0.24722230,0.37100154
5045,0,USArkansasFaulkner,Arkansas,Faulkner,2021-01-06 04:46:28.428270,2020-05-15 00:00:00.000000,0.04433368,0.08577686,0.13958239,55,108,175,28,54,92,0.02231759,0.04322839,0.07368463,0.15267183,0.25893775,0.38148763
5045,0,USArkansasFaulkner,Arkansas,Faulkner,2021-01-06 04:46:28.428270,2020-05-16 00:00:00.000000,0.04558300,0.08665162,0.14477199,57,109,182,29,54,96,0.02314219,0.04322592,0.07625879,0.17221091,0.26787809,0.40023064
5045,0,USArkansasFaulkner,Arkansas,Faulkner,2021-01-06 04:46:28.428270,2020-05-17 00:00:00.000000,0.04608154,0.08977513,0.15236951,58,113,191,30,55,99,0.02387790,0.04373828,0.07907687,0.19467549,0.28509805,0.42164456
5045,0,USArkansasFaulkner,Arkansas,Faulkner,2021-01-06 04:46:28.428270,2020-05-18 00:00:00.000000,0.04845540,0.09299682,0.16173319,61,117,203,31,56,103,0.02474353,0.04473766,0.08218700,0.21385072,0.30358571,0.44348934
5045,0,USArkansasFaulkner,Arkansas,Faulkner,2021-01-06 04:46:28.428270,2020-05-19 00:00:00.000000,0.05103578,0.09640819,0.17169233,64,121,216,32,58,108,0.02572575,0.04651899,0.08577916,0.21857585,0.31686601,0.47431632
5045,0,USArkansasFaulkner,Arkansas,Faulkner,2021-01-06 04:46:28.428270,2020-05-20 00:00:00.000000,0.05290357,0.10263122,0.17913703,66,129,225,33,61,112,0.02682336,0.04874969,0.08956198,0.23768392,0.32721618,0.49467813
5045,0,USArkansasFaulkner,Arkansas,Faulkner,2021-01-06 04:46:28.428270,2020-05-21 00:00:00.000000,0.05637838,0.10903520,0.18497855,71,137,233,35,63,115,0.02812679,0.05064108,0.09163945,0.24288209,0.34465015,0.50313106
5045,0,USArkansasFaulkner,Arkansas,Faulkner,2021-01-06 04:46:28.428270,2020-05-22 00:00:00.000000,0.06090819,0.11315359,0.19194609,76,142,241,37,67,120,0.02965291,0.05318010,0.09565444,0.25281515,0.35201325,0.50239408
5045,0,USArkansasFaulkner,Arkansas,Faulkner,2021-01-06 04:46:28.428270,2020-05-23 00:00:00.000000,0.06622302,0.12021675,0.20015428,83,151,252,39,69,127,0.03121080,0.05545804,0.10146936,0.27521109,0.36964757,0.51935858
5045,0,USArkansasFaulkner,Arkansas,Faulkner,2021-01-06 04:46:28.428270,2020-05-24 00:00:00.000000,0.07226285,0.12815587,0.20831838,91,161,262,40,73,135,0.03251516,0.05823493,0.10766586,0.28848897,0.38451178,0.53926919
5045,0,USArkansasFaulkner,Arkansas,Faulkner,2021-01-06 04:46:28.428270,2020-05-25 00:00:00.000000,0.07880977,0.13406086,0.21587504,99,168,272,42,78,141,0.03403583,0.06198006,0.11232771,0.29924777,0.39337871,0.58415895
5045,0,USArkansasFaulkner,Arkansas,Faulkner,2021-01-06 04:46:28.428270,2020-05-26 00:00:00.000000,0.08424236,0.14080197,0.22364628,106,177,281,45,82,148,0.03643956,0.06541727,0.11746212,0.31500232,0.42149929,0.64517270
5045,0,USArkansasFaulkner,Arkansas,Faulkner,2021-01-06 04:46:28.428270,2020-05-27 00:00:00.000000,0.09157660,0.15232034,0.23155227,115,191,291,48,88,155,0.03812724,0.06983985,0.12327035,0.31729449,0.43608461,0.64654712
5045,0,USArkansasFaulkner,Arkansas,Faulkner,2021-01-06 04:46:28.428270,2020-05-28 00:00:00.000000,0.09896229,0.16170291,0.24711496,124,203,311,50,93,163,0.03996506,0.07425140,0.12972540,0.32227073,0.46314275,0.65201219
5045,0,USArkansasFaulkner,Arkansas,Faulkner,2021-01-06 04:46:28.428270,2020-05-29 00:00:00.000000,0.10686435,0.17111622,0.26788274,134,215,337,52,100,172,0.04202004,0.07954197,0.13683449,0.33824156,0.49710539,0.70646313
5045,0,USArkansasFaulkner,Arkansas,Faulkner,2021-01-06 04:46:28.428270,2020-05-30 00:00:00.000000,0.11480130,0.18572092,0.29197287,144,234,367,56,109,182,0.04450824,0.08711715,0.14458322,0.35214376,0.51047968,0.74959986
5045,0,USArkansasFaulkner,Arkansas,Faulkner,2021-01-06 04:46:28.428270,2020-05-31 00:00:00.000000,0.12378894,0.20111356,0.32011400,155,253,403,60,119,192,0.04781462,0.09455743,0.15302320,0.37233934,0.52689205,0.78874979
5045,0,USArkansasFaulkner,Arkansas,Faulkner,2021-01-06 04:46:28.428270,2020-06-01 00:00:00.000000,0.13430508,0.21977840,0.35180411,169,276,443,65,128,204,0.05228613,0.10165671,0.16236340,0.39223514,0.54969199,0.79777660
5045,0,USArkansasFaulkner,Arkansas,Faulkner,2021-01-06 04:46:28.428270,2020-06-02 00:00:00.000000,0.14566853,0.24394442,0.38789638,183,307,488,73,135,218,0.05840463,0.10756187,0.17344565,0.40209406,0.56104439,0.80127682
5045,0,USArkansasFaulkner,Arkansas,Faulkner,2021-01-06 04:46:28.428270,2020-06-03 00:00:00.000000,0.16504642,0.26633483,0.42855013,207,335,540,83,147,235,0.06590420,0.11691066,0.18661281,0.40986185,0.57674970,0.80291000
5045,0,USArkansasFaulkner,Arkansas,Faulkner,2021-01-06 04:46:28.428270,2020-06-04 00:00:00.000000,0.18748042,0.29086388,0.47419970,236,366,597,94,163,254,0.07466487,0.12978929,0.20199573,0.41727987,0.58685792,0.86548035
5045,0,USArkansasFaulkner,Arkansas,Faulkner,2021-01-06 04:46:28.428270,2020-06-05 00:00:00.000000,0.20819973,0.32265679,0.52537543,262,406,662,103,179,276,0.08244861,0.14212754,0.21955408,0.42499512,0.59920136,0.90406342
5045,0,USArkansasFaulkner,Arkansas,Faulkner,2021-01-06 04:46:28.428270,2020-06-06 00:00:00.000000,0.23456876,0.35430323,0.58260532,295,446,734,113,198,301,0.09016537,0.15714336,0.23922964,0.47710018,0.61588801,0.83351788
5045,0,USArkansasFaulkner,Arkansas,Faulkner,2021-01-06 04:46:28.428270,2020-06-07 00:00:00.000000,0.26520740,0.39250922,0.64634726,334,494,814,124,218,328,0.09914420,0.17358040,0.26099620,0.46817111,0.63333517,0.83378250
5045,0,USArkansasFaulkner,Arkansas,Faulkner,2021-01-06 04:46:28.428270,2020-06-08 00:00:00.000000,0.29387703,0.43885378,0.71674733,370,552,903,138,244,358,0.11010829,0.19367576,0.28464945,0.46390171,0.64155222,0.84793609
5045,0,USArkansasFaulkner,Arkansas,Faulkner,2021-01-06 04:46:28.428270,2020-06-09 00:00:00.000000,0.32715803,0.49049229,0.78160134,412,618,984,156,271,396,0.12408220,0.21575018,0.31451030,0.47844686,0.64502700,0.85676436
5045,0,USArkansasFaulkner,Arkansas,Faulkner,2021-01-06 04:46:28.428270,2020-06-10 00:00:00.000000,0.36423333,0.54720740,0.85123926,458,689,1072,175,299,439,0.13956230,0.23731196,0.34891023,0.48315976,0.64452665,0.92258225
5045,0,USArkansasFaulkner,Arkansas,Faulkner,2021-01-06 04:46:28.428270,2020-06-11 00:00:00.000000,0.40534573,0.60225388,0.92670780,510,758,1167,197,325,486,0.15680997,0.25841591,0.38603340,0.48239938,0.64645481,0.92247744
5045,0,USArkansasFaulkner,Arkansas,Faulkner,2021-01-06 04:46:28.428270,2020-06-12 00:00:00.000000,0.44742382,0.66004865,1.00845107,563,831,1270,219,356,538,0.17383177,0.28282047,0.42726970,0.45957099,0.64232658,0.90835731
5045,0,USArkansasFaulkner,Arkansas,Faulkner,2021-01-06 04:46:28.428270,2020-06-13 00:00:00.000000,0.49189568,0.72890985,1.09676950,619,918,1382,240,392,596,0.19091708,0.31149383,0.47321525,0.43948312,0.64702341,0.85522069
5045,0,USArkansasFaulkner,Arkansas,Faulkner,2021-01-06 04:46:28.428270,2020-06-14 00:00:00.000000,0.54217122,0.80417347,1.19136535,683,1013,1501,261,436,653,0.20789655,0.34610069,0.51845837,0.43352541,0.63774467,0.85277973
5045,0,USArkansasFaulkner,Arkansas,Faulkner,2021-01-06 04:46:28.428270,2020-06-15 00:00:00.000000,0.59622030,0.87681449,1.30549179,751,1104,1645,293,475,710,0.23288204,0.37718303,0.56372396,0.45009545,0.62456107,0.84407065
5045,0,USArkansasFaulkner,Arkansas,Faulkner,2021-01-06 04:46:28.428270,2020-06-16 00:00:00.000000,0.65569055,0.94050223,1.42787524,826,1185,1799,327,523,775,0.25976527,0.41543304,0.61542302,0.43353808,0.60488599,0.80146723
5045,0,USArkansasFaulkner,Arkansas,Faulkner,2021-01-06 04:46:28.428270,2020-06-17 00:00:00.000000,0.71631445,1.01391474,1.53921712,902,1277,1939,358,575,859,0.28428327,0.45680816,0.68175077,0.42093796,0.58725562,0.79613842
5045,0,USArkansasFaulkner,Arkansas,Faulkner,2021-01-06 04:46:28.428270,2020-06-18 00:00:00.000000,0.78193743,1.10648198,1.64794648,985,1394,2076,391,634,926,0.31079955,0.50324000,0.73489268,0.40852783,0.56686866,0.78230631
5045,0,USArkansasFaulkner,Arkansas,Faulkner,2021-01-06 04:46:28.428270,2020-06-19 00:00:00.000000,0.85782092,1.20049376,1.80727515,1080,1512,2277,427,687,993,0.33952576,0.54536449,0.78872029,0.38638611,0.54822507,0.74712976
5045,0,USArkansasFaulkner,Arkansas,Faulkner,2021-01-06 04:46:28.428270,2020-06-20 00:00:00.000000,0.92343124,1.29732799,1.92367877,1163,1634,2423,466,741,1078,0.37019606,0.58857094,0.85623862,0.36687607,0.52709518,0.71939466
5045,0,USArkansasFaulkner,Arkansas,Faulkner,2021-01-06 04:46:28.428270,2020-06-21 00:00:00.000000,0.98238980,1.38931083,2.04429125,1237,1750,2575,509,800,1207,0.40403311,0.63538639,0.95841187,0.34872099,0.50665484,0.65937175
5045,0,USArkansasFaulkner,Arkansas,Faulkner,2021-01-06 04:46:28.428270,2020-06-22 00:00:00.000000,1.04299961,1.48203993,2.16885198,1314,1867,2732,554,864,1315,0.44007814,0.68607874,1.04403470,0.33497025,0.47201223,0.64639945
5045,0,USArkansasFaulkner,Arkansas,Faulkner,2021-01-06 04:46:28.428270,2020-06-23 00:00:00.000000,1.09720299,1.57123820,2.28317095,1382,1979,2876,603,920,1391,0.47915044,0.73039557,1.10448032,0.33051408,0.43641042,0.61264322
5045,0,USArkansasFaulkner,Arkansas,Faulkner,2021-01-06 04:46:28.428270,2020-06-24 00:00:00.000000,1.14014471,1.65697672,2.36454269,1436,2087,2979,646,979,1466,0.51322718,0.77732903,1.16393564,0.32703160,0.41901098,0.59470583
5045,0,USArkansasFaulkner,Arkansas,Faulkner,2021-01-06 04:46:28.428270,2020-06-25 00:00:00.000000,1.18310011,1.72426361,2.41710752,1490,2172,3045,686,1034,1539,0.54476344,0.82125138,1.22202251,0.30465775,0.40842388,0.57377414
5045,0,USArkansasFaulkner,Arkansas,Faulkner,2021-01-06 04:46:28.428270,2020-06-26 00:00:00.000000,1.21433142,1.79555098,2.52619175,1530,2262,3183,727,1078,1610,0.57704302,0.85629309,1.27848074,0.27591616,0.38240512,0.55495632
5045,0,USArkansasFaulkner,Arkansas,Faulkner,2021-01-06 04:46:28.428270,2020-06-27 00:00:00.000000,1.23450671,1.84927714,2.56243202,1555,2330,3228,756,1138,1678,0.60041491,0.90359480,1.33175476,0.25035656,0.35976188,0.53204241
5045,0,USArkansasFaulkner,Arkansas,Faulkner,2021-01-06 04:46:28.428270,2020-06-28 00:00:00.000000,1.26668170,1.89227720,2.58612219,1596,2384,3258,779,1176,1717,0.61826397,0.93339468,1.36272810,0.24226000,0.34513520,0.48955672
5045,0,USArkansasFaulkner,Arkansas,Faulkner,2021-01-06 04:46:28.428270,2020-06-29 00:00:00.000000,1.30005458,1.95145299,2.61216457,1638,2458,3291,801,1223,1789,0.63591817,0.97127907,1.42044690,0.23060196,0.33284971,0.44688504
5045,0,USArkansasFaulkner,Arkansas,Faulkner,2021-01-06 04:46:28.428270,2020-06-30 00:00:00.000000,1.32514749,1.97814007,2.69437776,1669,2492,3395,823,1253,1872,0.65351223,0.99467041,1.48575185,0.22554701,0.32405333,0.42400291
5045,0,USArkansasFaulkner,Arkansas,Faulkner,2021-01-06 04:46:28.428270,2020-07-01 00:00:00.000000,1.34192793,2.00124112,2.77290708,1690,2521,3494,834,1288,1941,0.66208264,1.02218616,1.54069029,0.21754347,0.31315098,0.41224374
5045,0,USArkansasFaulkner,Arkansas,Faulkner,2021-01-06 04:46:28.428270,2020-07-02 00:00:00.000000,1.35741805,2.02708447,2.84898508,1710,2554,3589,831,1313,1995,0.65974801,1.04277676,1.58369186,0.21523224,0.30341928,0.40881981
5045,0,USArkansasFaulkner,Arkansas,Faulkner,2021-01-06 04:46:28.428270,2020-07-03 00:00:00.000000,1.37210955,2.04061575,2.92067209,1728,2571,3680,826,1334,2035,0.65622471,1.05930700,1.61551974,0.21567806,0.28765428,0.40409121
5045,0,USArkansasFaulkner,Arkansas,Faulkner,2021-01-06 04:46:28.428270,2020-07-04 00:00:00.000000,1.38592403,2.04370577,2.98342530,1746,2575,3759,821,1347,2064,0.65162688,1.06943773,1.63800628,0.21106698,0.28173941,0.39770680
5045,0,USArkansasFaulkner,Arkansas,Faulkner,2021-01-06 04:46:28.428270,2020-07-05 00:00:00.000000,1.39223237,2.04847055,2.99996465,1754,2581,3780,814,1361,2082,0.64618286,1.08042971,1.65234619,0.20169056,0.27376028,0.38952155
5045,0,USArkansasFaulkner,Arkansas,Faulkner,2021-01-06 04:46:28.428270,2020-07-06 00:00:00.000000,1.39735306,2.05233304,2.98229616,1760,2586,3757,806,1384,2091,0.64015644,1.09878292,1.65997906,0.19398543,0.26438584,0.37967399
5045,0,USArkansasFaulkner,Arkansas,Faulkner,2021-01-06 04:46:28.428270,2020-07-07 00:00:00.000000,1.36651187,2.05570036,2.95412849,1721,2590,3722,798,1387,2093,0.63376695,1.10102047,1.66133439,0.19241263,0.25954897,0.36588166
5045,0,USArkansasFaulkner,Arkansas,Faulkner,2021-01-06 04:46:28.428270,2020-07-08 00:00:00.000000,1.35953596,2.05271000,2.91861835,1713,2586,3677,790,1389,2087,0.62697529,1.10239519,1.65658835,0.19074687,0.25356972,0.35683832
5045,0,USArkansasFaulkner,Arkansas,Faulkner,2021-01-06 04:46:28.428270,2020-07-09 00:00:00.000000,1.32739569,2.04598801,2.89946733,1672,2578,3653,788,1383,2108,0.62585493,1.09821449,1.67346643,0.18102896,0.24913655,0.35589768
5045,0,USArkansasFaulkner,Arkansas,Faulkner,2021-01-06 04:46:28.428270,2020-07-10 00:00:00.000000,1.29645835,2.03346043,2.88104173,1633,2562,3630,793,1380,2121,0.62996144,1.09539587,1.68363899,0.17375577,0.24712715,0.35441430
5045,0,USArkansasFaulkner,Arkansas,Faulkner,2021-01-06 04:46:28.428270,2020-07-11 00:00:00.000000,1.26908328,2.01073369,2.85553856,1599,2533,3598,796,1376,2126,0.63188101,1.09278188,1.68754651,0.16596477,0.24203861,0.34825268
5045,0,USArkansasFaulkner,Arkansas,Faulkner,2021-01-06 04:46:28.428270,2020-07-12 00:00:00.000000,1.24504286,1.99357364,2.82169716,1568,2512,3555,795,1384,2125,0.63095918,1.09843086,1.68664347,0.16015479,0.23725369,0.33107536
5045,0,USArkansasFaulkner,Arkansas,Faulkner,2021-01-06 04:46:28.428270,2020-07-13 00:00:00.000000,1.22168635,1.95880305,2.77942936,1539,2468,3502,790,1387,2119,0.62696922,1.10118551,1.68210587,0.15667563,0.22928171,0.33065359
5045,0,USArkansasFaulkner,Arkansas,Faulkner,2021-01-06 04:46:28.428270,2020-07-14 00:00:00.000000,1.19977104,1.94025368,2.73137888,1511,2444,3441,781,1390,2110,0.62025261,1.10358372,1.67499555,0.15524523,0.22857788,0.33321756
5045,0,USArkansasFaulkner,Arkansas,Faulkner,2021-01-06 04:46:28.428270,2020-07-15 00:00:00.000000,1.18198676,1.93054502,2.67942758,1489,2432,3376,770,1388,2099,0.61151913,1.10190695,1.66581075,0.15537252,0.22800363,0.33258628
5045,0,USArkansasFaulkner,Arkansas,Faulkner,2021-01-06 04:46:28.428270,2020-07-16 00:00:00.000000,1.16658836,1.91035332,2.62419396,1469,2407,3306,757,1374,2061,0.60143695,1.09075714,1.63598960,0.15262921,0.22491713,0.32932483
5045,0,USArkansasFaulkner,Arkansas,Faulkner,2021-01-06 04:46:28.428270,2020-07-17 00:00:00.000000,1.15381358,1.88133501,2.56417279,1453,2370,3231,744,1348,2021,0.59058248,1.06987070,1.60396323,0.15156014,0.22133078,0.31617905
5045,0,USArkansasFaulkner,Arkansas,Faulkner,2021-01-06 04:46:28.428270,2020-07-18 00:00:00.000000,1.14382590,1.86069683,2.50955123,1441,2344,3162,730,1328,1987,0.57940332,1.05407895,1.57703600,0.15140481,0.21966933,0.31819377
5045,0,USArkansasFaulkner,Arkansas,Faulkner,2021-01-06 04:46:28.428270,2020-07-19 00:00:00.000000,1.13666154,1.81992876,2.46307096,1432,2293,3103,715,1319,1962,0.56811940,1.04736733,1.55757155,0.15081830,0.21661476,0.31379861
5045,0,USArkansasFaulkner,Arkansas,Faulkner,2021-01-06 04:46:28.428270,2020-07-20 00:00:00.000000,1.12982865,1.78664066,2.41447666,1423,2251,3042,706,1311,1934,0.56074283,1.04061564,1.53528847,0.15196898,0.21774020,0.31104618
5045,0,USArkansasFaulkner,Arkansas,Faulkner,2021-01-06 04:46:28.428270,2020-07-21 00:00:00.000000,1.12483843,1.76960215,2.36554127,1417,2229,2980,700,1300,1903,0.55570960,1.03201830,1.51070641,0.15157757,0.22002572,0.30657015
5045,0,USArkansasFaulkner,Arkansas,Faulkner,2021-01-06 04:46:28.428270,2020-07-22 00:00:00.000000,1.12117075,1.74682367,2.31667848,1412,2201,2919,695,1281,1869,0.55178315,1.01684705,1.48372957,0.15157358,0.22072080,0.30374406
5045,0,USArkansasFaulkner,Arkansas,Faulkner,2021-01-06 04:46:28.428270,2020-07-23 00:00:00.000000,1.11824000,1.73129199,2.28530227,1409,2181,2879,691,1253,1833,0.54916861,0.99455551,1.45540986,0.15180114,0.22176216,0.30205131
5045,0,USArkansasFaulkner,Arkansas,Faulkner,2021-01-06 04:46:28.428270,2020-07-24 00:00:00.000000,1.11569254,1.71480436,2.26134142,1405,2160,2849,681,1225,1797,0.54098131,0.97287808,1.42620752,0.15325759,0.22308024,0.30271668
5045,0,USArkansasFaulkner,Arkansas,Faulkner,2021-01-06 04:46:28.428270,2020-07-25 00:00:00.000000,1.11323706,1.69314094,2.22994403,1402,2133,2809,669,1215,1759,0.53145971,0.96498011,1.39649458,0.15501249,0.22084641,0.31088226
5045,0,USArkansasFaulkner,Arkansas,Faulkner,2021-01-06 04:46:28.428270,2020-07-26 00:00:00.000000,1.08566442,1.65477527,2.19275254,1368,2085,2763,655,1204,1714,0.52053310,0.95624859,1.36080711,0.15498056,0.22092951,0.31500836
5045,0,USArkansasFaulkner,Arkansas,Faulkner,2021-01-06 04:46:28.428270,2020-07-27 00:00:00.000000,1.05492208,1.62344654,2.15485171,1329,2045,2715,642,1184,1684,0.50996366,0.94017771,1.33694383,0.15491970,0.21721698,0.33234163
5045,0,USArkansasFaulkner,Arkansas,Faulkner,2021-01-06 04:46:28.428270,2020-07-28 00:00:00.000000,1.03263649,1.58756616,2.13090531,1301,2000,2685,640,1158,1647,0.50803899,0.91904882,1.30750840,0.15483615,0.22060660,0.33723082
5045,0,USArkansasFaulkner,Arkansas,Faulkner,2021-01-06 04:46:28.428270,2020-07-29 00:00:00.000000,1.00688277,1.55255130,2.12038392,1268,1956,2671,631,1134,1610,0.50151301,0.90020846,1.27824368,0.15479100,0.22132993,0.32936412
5045,0,USArkansasFaulkner,Arkansas,Faulkner,2021-01-06 04:46:28.428270,2020-07-30 00:00:00.000000,0.98441815,1.51993019,2.11252767,1240,1915,2661,624,1111,1578,0.49554751,0.88219034,1.25301999,0.15579410,0.22301111,0.32254047
5045,0,USArkansasFaulkner,Arkansas,Faulkner,2021-01-06 04:46:28.428270,2020-07-31 00:00:00.000000,0.97395095,1.49272979,2.10901940,1227,1880,2657,617,1084,1556,0.49004976,0.86072220,1.23531793,0.15805781,0.22599698,0.31886911
5045,0,USArkansasFaulkner,Arkansas,Faulkner,2021-01-06 04:46:28.428270,2020-08-01 00:00:00.000000,0.96837799,1.46543267,2.10958461,1220,1846,2658,611,1059,1539,0.48495208,0.84119143,1.22195398,0.16124509,0.23224831,0.32333483
5045,0,USArkansasFaulkner,Arkansas,Faulkner,2021-01-06 04:46:28.428270,2020-08-02 00:00:00.000000,0.96271392,1.44720810,2.11219978,1213,1823,2661,605,1035,1527,0.48021466,0.82166337,1.21198771,0.16496424,0.23580940,0.33740566
5045,0,USArkansasFaulkner,Arkansas,Faulkner,2021-01-06 04:46:28.428270,2020-08-03 00:00:00.000000,0.95185763,1.42018233,2.11408206,1199,1789,2663,599,1020,1514,0.47581417,0.80968409,1.20173892,0.16935723,0.24102917,0.33750278
5045,0,USArkansasFaulkner,Arkansas,Faulkner,2021-01-06 04:46:28.428270,2020-08-04 00:00:00.000000,0.94137686,1.40022280,2.10523143,1186,1764,2652,594,1005,1498,0.47153798,0.79774338,1.18957872,0.16933150,0.24653573,0.33769843
5045,0,USArkansasFaulkner,Arkansas,Faulkner,2021-01-06 04:46:28.428270,2020-08-05 00:00:00.000000,0.93124685,1.37719190,2.09646919,1173,1735,2641,588,991,1489,0.46741471,0.78722625,1.18211775,0.16934703,0.24999491,0.33866762
5045,0,USArkansasFaulkner,Arkansas,Faulkner,2021-01-06 04:46:28.428270,2020-08-06 00:00:00.000000,0.92158561,1.35883271,2.08778169,1161,1712,2630,581,979,1481,0.46138686,0.77732355,1.17534980,0.16952943,0.25394970,0.35381764
5045,0,USArkansasFaulkner,Arkansas,Faulkner,2021-01-06 04:46:28.428270,2020-08-07 00:00:00.000000,0.91270498,1.34986550,2.07941888,1150,1700,2620,574,968,1473,0.45589171,0.76838322,1.16908623,0.17574967,0.26145726,0.36518761
5045,0,USArkansasFaulkner,Arkansas,Faulkner,2021-01-06 04:46:28.428270,2020-08-08 00:00:00.000000,0.90520968,1.34899593,2.07337035,1140,1699,2612,566,954,1465,0.44986470,0.75756201,1.16323460,0.17838687,0.26630226,0.37095751
5045,0,USArkansasFaulkner,Arkansas,Faulkner,2021-01-06 04:46:28.428270,2020-08-09 00:00:00.000000,0.90012232,1.36010935,2.07882667,1134,1713,2619,561,946,1459,0.44526355,0.75153238,1.15804547,0.18416367,0.27494183,0.39214566
5045,0,USArkansasFaulkner,Arkansas,Faulkner,2021-01-06 04:46:28.428270,2020-08-10 00:00:00.000000,0.89859970,1.36742587,2.09962471,1132,1723,2645,557,945,1455,0.44244768,0.75018705,1.15515266,0.19281609,0.27975356,0.39582689
5045,0,USArkansasFaulkner,Arkansas,Faulkner,2021-01-06 04:46:28.428270,2020-08-11 00:00:00.000000,0.90729125,1.36519633,2.12669435,1143,1720,2679,555,950,1457,0.44122829,0.75414945,1.15635096,0.20489158,0.28415270,0.40364626
5045,0,USArkansasFaulkner,Arkansas,Faulkner,2021-01-06 04:46:28.428270,2020-08-12 00:00:00.000000,0.92218551,1.37191414,2.15540210,1162,1728,2715,556,950,1463,0.44152703,0.75397416,1.16149347,0.20501323,0.29170077,0.42263395
5045,0,USArkansasFaulkner,Arkansas,Faulkner,2021-01-06 04:46:28.428270,2020-08-13 00:00:00.000000,0.92809986,1.37913118,2.17355009,1169,1737,2738,555,944,1464,0.44072376,0.74941482,1.16205772,0.20523443,0.29929237,0.43200050
5045,0,USArkansasFaulkner,Arkansas,Faulkner,2021-01-06 04:46:28.428270,2020-08-14 00:00:00.000000,0.93163734,1.39515699,2.17988038,1173,1757,2746,552,939,1471,0.43885701,0.74591552,1.16779764,0.21082050,0.30596931,0.43625403
5045,0,USArkansasFaulkner,Arkansas,Faulkner,2021-01-06 04:46:28.428270,2020-08-15 00:00:00.000000,0.94044312,1.41939623,2.18567678,1185,1788,2754,565,949,1483,0.44875616,0.75373532,1.17756386,0.21036841,0.32164522,0.44733888
5045,0,USArkansasFaulkner,Arkansas,Faulkner,2021-01-06 04:46:28.428270,2020-08-16 00:00:00.000000,0.95609493,1.43526062,2.19143367,1204,1808,2761,569,963,1495,0.45218489,0.76459406,1.18684403,0.22354612,0.34067044,0.45792436
5045,0,USArkansasFaulkner,Arkansas,Faulkner,2021-01-06 04:46:28.428270,2020-08-17 00:00:00.000000,0.98267203,1.46799559,2.19527271,1238,1849,2766,574,979,1506,0.45589228,0.77754616,1.19579049,0.23809273,0.34779483,0.47017940
5045,0,USArkansasFaulkner,Arkansas,Faulkner,2021-01-06 04:46:28.428270,2020-08-18 00:00:00.000000,1.01500192,1.51472768,2.19903844,1278,1908,2770,579,1007,1517,0.45980428,0.79944534,1.20423445,0.24030496,0.35055545,0.48551663
5045,0,USArkansasFaulkner,Arkansas,Faulkner,2021-01-06 04:46:28.428270,2020-08-19 00:00:00.000000,1.04812873,1.55222564,2.20280851,1320,1955,2775,584,1034,1527,0.46364461,0.82102678,1.21258596,0.24328827,0.34578135,0.50039498
5045,0,USArkansasFaulkner,Arkansas,Faulkner,2021-01-06 04:46:28.428270,2020-08-20 00:00:00.000000,1.04694239,1.57985581,2.20690799,1319,1990,2780,588,1061,1544,0.46727872,0.84205616,1.22604174,0.24259798,0.34819417,0.49252973
5045,0,USArkansasFaulkner,Arkansas,Faulkner,2021-01-06 04:46:28.428270,2020-08-21 00:00:00.000000,1.07768671,1.60777977,2.21208312,1357,2025,2787,598,1082,1563,0.47534586,0.85942238,1.24046039,0.24256346,0.34376183,0.48895891
5045,0,USArkansasFaulkner,Arkansas,Faulkner,2021-01-06 04:46:28.428270,2020-08-22 00:00:00.000000,1.11785924,1.63693832,2.23075731,1408,2062,2810,617,1107,1582,0.49039546,0.87899324,1.25617643,0.24375285,0.34423988,0.49702493
5045,0,USArkansasFaulkner,Arkansas,Faulkner,2021-01-06 04:46:28.428270,2020-08-23 00:00:00.000000,1.15167679,1.66270651,2.29019123,1451,2095,2885,639,1130,1605,0.50731745,0.89685428,1.27381751,0.24709786,0.35050882,0.49930363
5045,0,USArkansasFaulkner,Arkansas,Faulkner,2021-01-06 04:46:28.428270,2020-08-24 00:00:00.000000,1.16332875,1.68283999,2.35597262,1465,2120,2968,662,1157,1630,0.52580177,0.91853754,1.29395159,0.25579198,0.36059173,0.50751512
5045,0,USArkansasFaulkner,Arkansas,Faulkner,2021-01-06 04:46:28.428270,2020-08-25 00:00:00.000000,1.19774428,1.73111013,2.41315359,1509,2181,3040,688,1184,1658,0.54649228,0.94029563,1.31632449,0.27042341,0.36672493,0.51130512
5045,0,USArkansasFaulkner,Arkansas,Faulkner,2021-01-06 04:46:28.428270,2020-08-26 00:00:00.000000,1.23777728,1.80806939,2.45914190,1559,2278,3098,718,1204,1688,0.56993405,0.95619694,1.34023037,0.27636358,0.36893668,0.51216984
5045,0,USArkansasFaulkner,Arkansas,Faulkner,2021-01-06 04:46:28.428270,2020-08-27 00:00:00.000000,1.28643451,1.85104238,2.49951886,1620,2332,3149,748,1237,1720,0.59427865,0.98217045,1.36574746,0.27902841,0.37911945,0.51009742
5045,0,USArkansasFaulkner,Arkansas,Faulkner,2021-01-06 04:46:28.428270,2020-08-28 00:00:00.000000,1.32419529,1.89197104,2.58928242,1668,2384,3262,779,1256,1754,0.61852207,0.99688706,1.39245905,0.27754612,0.37781709,0.49271503
5045,0,USArkansasFaulkner,Arkansas,Faulkner,2021-01-06 04:46:28.428270,2020-08-29 00:00:00.000000,1.35854253,1.93322200,2.69530000,1711,2435,3396,807,1281,1789,0.64075975,1.01684496,1.42005957,0.27718194,0.37769405,0.49098365
5045,0,USArkansasFaulkner,Arkansas,Faulkner,2021-01-06 04:46:28.428270,2020-08-30 00:00:00.000000,1.38728462,1.97647493,2.80750192,1748,2490,3537,832,1313,1825,0.66040205,1.04270094,1.44834467,0.28186376,0.37991410,0.48335818
5045,0,USArkansasFaulkner,Arkansas,Faulkner,2021-01-06 04:46:28.428270,2020-08-31 00:00:00.000000,1.40438362,2.02379668,2.92599665,1769,2550,3686,851,1356,1861,0.67551907,1.07674120,1.47719520,0.27883345,0.38861178,0.50689054
5045,0,USArkansasFaulkner,Arkansas,Faulkner,2021-01-06 04:46:28.428270,2020-09-01 00:00:00.000000,1.42202632,2.08557974,3.04999369,1791,2627,3843,875,1383,1913,0.69479130,1.09766722,1.51886031,0.27588821,0.38964601,0.53464704
5045,0,USArkansasFaulkner,Arkansas,Faulkner,2021-01-06 04:46:28.428270,2020-09-02 00:00:00.000000,1.48315887,2.14958521,3.17917325,1868,2708,4005,903,1406,1993,0.71691687,1.11642221,1.58181575,0.27469141,0.39026825,0.54917336
5045,0,USArkansasFaulkner,Arkansas,Faulkner,2021-01-06 04:46:28.428270,2020-09-03 00:00:00.000000,1.50480010,2.21602356,3.31328981,1896,2792,4174,928,1442,2076,0.73687582,1.14459857,1.64790550,0.27300970,0.39189418,0.55327678
5045,0,USArkansasFaulkner,Arkansas,Faulkner,2021-01-06 04:46:28.428270,2020-09-04 00:00:00.000000,1.57236481,2.28479376,3.45217934,1981,2879,4349,943,1481,2163,0.74864338,1.17568083,1.71699679,0.27373096,0.39586833,0.54637820
5045,0,USArkansasFaulkner,Arkansas,Faulkner,2021-01-06 04:46:28.428270,2020-09-05 00:00:00.000000,1.64418769,2.35063560,3.58585195,2071,2961,4518,956,1508,2254,0.75930389,1.19749499,1.78897107,0.28818662,0.39658726,0.53431173
5045,0,USArkansasFaulkner,Arkansas,Faulkner,2021-01-06 04:46:28.428270,2020-09-06 00:00:00.000000,1.69332977,2.43809479,3.67134895,2133,3072,4626,971,1544,2348,0.77073052,1.22584930,1.86373176,0.29119760,0.39924729,0.53390525
5045,0,USArkansasFaulkner,Arkansas,Faulkner,2021-01-06 04:46:28.428270,2020-09-07 00:00:00.000000,1.74389165,2.53184415,3.75664431,2197,3190,4733,989,1605,2440,0.78557580,1.27397962,1.93659163,0.29194170,0.40282278,0.56839724
5045,0,USArkansasFaulkner,Arkansas,Faulkner,2021-01-06 04:46:28.428270,2020-09-08 00:00:00.000000,1.79618894,2.58988221,3.84281683,2263,3263,4842,1010,1665,2497,0.80202660,1.32196174,1.98177505,0.29522562,0.40877177,0.56822085
5045,0,USArkansasFaulkner,Arkansas,Faulkner,2021-01-06 04:46:28.428270,2020-09-09 00:00:00.000000,1.84943801,2.63428563,3.92957152,2330,3319,4951,1030,1701,2555,0.81748422,1.35031767,2.02773878,0.29357478,0.40609004,0.56717695
5045,0,USArkansasFaulkner,Arkansas,Faulkner,2021-01-06 04:46:28.428270,2020-09-10 00:00:00.000000,1.90301558,2.67454153,4.01610586,2397,3370,5060,1057,1739,2613,0.83905556,1.38073954,2.07433246,0.28196802,0.39763203,0.56692597
5045,0,USArkansasFaulkner,Arkansas,Faulkner,2021-01-06 04:46:28.428270,2020-09-11 00:00:00.000000,1.95622609,2.70776851,4.09960135,2464,3411,5165,1081,1776,2672,0.85830530,1.40976911,2.12130745,0.26112592,0.38426560,0.55167060
5045,0,USArkansasFaulkner,Arkansas,Faulkner,2021-01-06 04:46:28.428270,2020-09-12 00:00:00.000000,2.00779578,2.76950422,4.16676557,2529,3489,5250,1105,1824,2731,0.87754919,1.44794412,2.16798871,0.25490259,0.36946107,0.53873324
5045,0,USArkansasFaulkner,Arkansas,Faulkner,2021-01-06 04:46:28.428270,2020-09-13 00:00:00.000000,2.05659535,2.82306072,4.23806753,2591,3557,5340,1129,1872,2787,0.89619415,1.48603267,2.21185633,0.24244491,0.35481678,0.50840145
5045,0,USArkansasFaulkner,Arkansas,Faulkner,2021-01-06 04:46:28.428270,2020-09-14 00:00:00.000000,2.10015866,2.89129559,4.32879930,2646,3643,5454,1149,1907,2831,0.91199813,1.51359031,2.24714842,0.23367945,0.34397500,0.48292033
5045,0,USArkansasFaulkner,Arkansas,Faulkner,2021-01-06 04:46:28.428270,2020-09-15 00:00:00.000000,2.13767324,2.91562965,4.40211943,2693,3673,5546,1188,1937,2865,0.94305478,1.53766037,2.27386422,0.23091041,0.32101854,0.48256875
5045,0,USArkansasFaulkner,Arkansas,Faulkner,2021-01-06 04:46:28.428270,2020-09-16 00:00:00.000000,2.15241040,2.94504776,4.44987858,2712,3710,5607,1227,1971,2925,0.97394666,1.56443275,2.32172403,0.22526034,0.31233651,0.45104215
5045,0,USArkansasFaulkner,Arkansas,Faulkner,2021-01-06 04:46:28.428270,2020-09-17 00:00:00.000000,2.13199085,2.94758989,4.46399171,2686,3714,5624,1259,1995,2968,0.99967579,1.58333810,2.35594601,0.21412209,0.30517186,0.43596982
5045,0,USArkansasFaulkner,Arkansas,Faulkner,2021-01-06 04:46:28.428270,2020-09-18 00:00:00.000000,2.11244968,2.94601051,4.44821980,2661,3712,5605,1262,2010,2992,1.00166446,1.59571904,2.37503334,0.21304587,0.29696996,0.40485024
5045,0,USArkansasFaulkner,Arkansas,Faulkner,2021-01-06 04:46:28.428270,2020-09-19 00:00:00.000000,2.09470902,2.94076786,4.41445043,2639,3705,5562,1262,2038,2999,1.00169378,1.61754912,2.38071950,0.20586710,0.29462458,0.40437357
5045,0,USArkansasFaulkner,Arkansas,Faulkner,2021-01-06 04:46:28.428270,2020-09-20 00:00:00.000000,2.07385864,2.95293533,4.37077545,2613,3720,5507,1259,2050,2994,0.99960095,1.62696565,2.37614572,0.20723982,0.28516283,0.40376777
5045,0,USArkansasFaulkner,Arkansas,Faulkner,2021-01-06 04:46:28.428270,2020-09-21 00:00:00.000000,2.05837157,2.95610458,4.32577326,2593,3724,5450,1253,2051,2981,0.99506209,1.62773971,2.36627630,0.19923786,0.28268458,0.40115158
5045,0,USArkansasFaulkner,Arkansas,Faulkner,2021-01-06 04:46:28.428270,2020-09-22 00:00:00.000000,2.04720112,2.94777893,4.28355565,2579,3714,5397,1245,2036,3010,0.98808824,1.61581972,2.38906269,0.19438948,0.27871480,0.38350505
5045,0,USArkansasFaulkner,Arkansas,Faulkner,2021-01-06 04:46:28.428270,2020-09-23 00:00:00.000000,2.03886837,2.91080350,4.28251883,2569,3667,5396,1233,2032,3030,0.97892231,1.61319912,2.40523716,0.19367509,0.27559432,0.36119333
5045,0,USArkansasFaulkner,Arkansas,Faulkner,2021-01-06 04:46:28.428270,2020-09-24 00:00:00.000000,2.03208492,2.88824766,4.27726478,2560,3639,5389,1219,2020,3041,0.96803820,1.60327688,2.41340569,0.19550595,0.27303356,0.36986334
5045,0,USArkansasFaulkner,Arkansas,Faulkner,2021-01-06 04:46:28.428270,2020-09-25 00:00:00.000000,2.02381200,2.85610669,4.26733505,2550,3598,5377,1204,2020,3039,0.95591573,1.60376016,2.41209646,0.19023717,0.27106848,0.37910907
5045,0,USArkansasFaulkner,Arkansas,Faulkner,2021-01-06 04:46:28.428270,2020-09-26 00:00:00.000000,1.96897708,2.82501579,4.25243628,2481,3559,5358,1188,2020,3025,0.94291859,1.60383282,2.40075968,0.18415622,0.26749520,0.39143444
5045,0,USArkansasFaulkner,Arkansas,Faulkner,2021-01-06 04:46:28.428270,2020-09-27 00:00:00.000000,1.91688886,2.78585268,4.22123361,2415,3510,5319,1170,2001,2999,0.92926137,1.58813398,2.38029661,0.18360212,0.26688343,0.40497461
5045,0,USArkansasFaulkner,Arkansas,Faulkner,2021-01-06 04:46:28.428270,2020-09-28 00:00:00.000000,1.86325373,2.74424836,4.18522633,2347,3457,5273,1152,1964,2964,0.91502735,1.55895272,2.35247270,0.18239695,0.26960878,0.41859994
5045,0,USArkansasFaulkner,Arkansas,Faulkner,2021-01-06 04:46:28.428270,2020-09-29 00:00:00.000000,1.81232099,2.71014166,4.14856205,2283,3414,5227,1133,1929,2950,0.89977827,1.53132053,2.34120962,0.17777015,0.26989472,0.42131235
5045,0,USArkansasFaulkner,Arkansas,Faulkner,2021-01-06 04:46:28.428270,2020-09-30 00:00:00.000000,1.76358766,2.67552957,4.11819543,2222,3371,5189,1113,1896,2937,0.88372136,1.50501322,2.33108834,0.17518727,0.26927357,0.42014580
5045,0,USArkansasFaulkner,Arkansas,Faulkner,2021-01-06 04:46:28.428270,2020-10-01 00:00:00.000000,1.75222640,2.65835252,4.12257231,2207,3349,5194,1097,1892,2920,0.87078274,1.50220560,2.31808165,0.17420785,0.26832228,0.41798530
5045,0,USArkansasFaulkner,Arkansas,Faulkner,2021-01-06 04:46:28.428270,2020-10-02 00:00:00.000000,1.73372935,2.63059841,4.09090253,2184,3314,5154,1070,1867,2896,0.84932766,1.48238419,2.29872095,0.17352994,0.26909965,0.41567300
5045,0,USArkansasFaulkner,Arkansas,Faulkner,2021-01-06 04:46:28.428270,2020-10-03 00:00:00.000000,1.69691335,2.60644891,4.06318380,2138,3284,5119,1047,1840,2871,0.83148486,1.46043753,2.27921799,0.17436606,0.27125085,0.41359242
5045,0,USArkansasFaulkner,Arkansas,Faulkner,2021-01-06 04:46:28.428270,2020-10-04 00:00:00.000000,1.69510421,2.58162107,4.05104989,2135,3253,5104,1025,1816,2847,0.81367331,1.44161003,2.25982787,0.17962681,0.27144469,0.42065269
5045,0,USArkansasFaulkner,Arkansas,Faulkner,2021-01-06 04:46:28.428270,2020-10-05 00:00:00.000000,1.65764265,2.57549168,4.04598486,2088,3245,5098,1002,1794,2842,0.79598692,1.42441689,2.25546268,0.18147615,0.27700386,0.42514351
5045,0,USArkansasFaulkner,Arkansas,Faulkner,2021-01-06 04:46:28.428270,2020-10-06 00:00:00.000000,1.61961479,2.56513253,3.99084129,2040,3232,5028,981,1773,2845,0.77858065,1.40751777,2.25783056,0.17541247,0.27731852,0.42415039
5045,0,USArkansasFaulkner,Arkansas,Faulkner,2021-01-06 04:46:28.428270,2020-10-07 00:00:00.000000,1.58173154,2.53761662,3.93624635,1993,3197,4959,959,1765,2845,0.76121726,1.40147331,2.25805339,0.17551390,0.27592909,0.41613117
5045,0,USArkansasFaulkner,Arkansas,Faulkner,2021-01-06 04:46:28.428270,2020-10-08 00:00:00.000000,1.54580604,2.50199074,3.88191008,1947,3152,4891,937,1763,2840,0.74391195,1.39920747,2.25432042,0.18064044,0.27895147,0.41552852
5045,0,USArkansasFaulkner,Arkansas,Faulkner,2021-01-06 04:46:28.428270,2020-10-09 00:00:00.000000,1.52323872,2.48284451,3.83852638,1919,3128,4836,924,1763,2824,0.73401055,1.39926176,2.24187464,0.18823863,0.27917092,0.41506308
5045,0,USArkansasFaulkner,Arkansas,Faulkner,2021-01-06 04:46:28.428270,2020-10-10 00:00:00.000000,1.54979162,2.45247796,3.83704174,1952,3090,4834,923,1735,2818,0.73283416,1.37691741,2.23645563,0.19840021,0.28657863,0.41413874
5045,0,USArkansasFaulkner,Arkansas,Faulkner,2021-01-06 04:46:28.428270,2020-10-11 00:00:00.000000,1.57993768,2.41727144,3.84720685,1990,3045,4847,921,1701,2802,0.73148986,1.35005843,2.22371045,0.20921311,0.28809540,0.41928460
5045,0,USArkansasFaulkner,Arkansas,Faulkner,2021-01-06 04:46:28.428270,2020-10-12 00:00:00.000000,1.61510373,2.42902904,3.86205339,2035,3060,4866,920,1682,2783,0.73049850,1.33501553,2.20910524,0.21353943,0.29240171,0.42288441
5045,0,USArkansasFaulkner,Arkansas,Faulkner,2021-01-06 04:46:28.428270,2020-10-13 00:00:00.000000,1.63447437,2.42945883,3.88055286,2059,3061,4889,918,1680,2762,0.72931042,1.33403417,2.19259694,0.21550193,0.29934999,0.42660692
5045,0,USArkansasFaulkner,Arkansas,Faulkner,2021-01-06 04:46:28.428270,2020-10-14 00:00:00.000000,1.62824023,2.42145110,3.89905958,2051,3051,4913,917,1670,2735,0.72827519,1.32599987,2.17052523,0.21551528,0.30782862,0.42630204
5045,0,USArkansasFaulkner,Arkansas,Faulkner,2021-01-06 04:46:28.428270,2020-10-15 00:00:00.000000,1.61147076,2.42614543,3.85194958,2030,3057,4853,916,1678,2705,0.72733859,1.33214746,2.14729846,0.21555599,0.31128653,0.43200048
5045,0,USArkansasFaulkner,Arkansas,Faulkner,2021-01-06 04:46:28.428270,2020-10-16 00:00:00.000000,1.59432222,2.42975108,3.80492104,2008,3061,4794,915,1683,2699,0.72631636,1.33606176,2.14265515,0.21665924,0.31550787,0.44592466
5045,0,USArkansasFaulkner,Arkansas,Faulkner,2021-01-06 04:46:28.428270,2020-10-17 00:00:00.000000,1.57716017,2.43084846,3.75719014,1987,3063,4734,913,1695,2683,0.72489917,1.34552835,2.12972397,0.22309266,0.32087218,0.47253298
5045,0,USArkansasFaulkner,Arkansas,Faulkner,2021-01-06 04:46:28.428270,2020-10-18 00:00:00.000000,1.56452831,2.42559902,3.71199062,1971,3056,4677,910,1685,2683,0.72278315,1.33775314,2.12957895,0.23037535,0.32416116,0.48284664
5045,0,USArkansasFaulkner,Arkansas,Faulkner,2021-01-06 04:46:28.428270,2020-10-19 00:00:00.000000,1.56099650,2.40486771,3.71867994,1966,3030,4685,909,1677,2684,0.72209932,1.33094382,2.13078293,0.22979869,0.33440485,0.48587408
5045,0,USArkansasFaulkner,Arkansas,Faulkner,2021-01-06 04:46:28.428270,2020-10-20 00:00:00.000000,1.56121178,2.41248034,3.73278459,1967,3039,4703,933,1682,2682,0.74108591,1.33534352,2.12869876,0.23275795,0.34187879,0.48675614
5045,0,USArkansasFaulkner,Arkansas,Faulkner,2021-01-06 04:46:28.428270,2020-10-21 00:00:00.000000,1.56574769,2.42513415,3.74609716,1972,3055,4720,961,1691,2678,0.76292751,1.34228465,2.12553294,0.23154400,0.34800568,0.48681131
5045,0,USArkansasFaulkner,Arkansas,Faulkner,2021-01-06 04:46:28.428270,2020-10-22 00:00:00.000000,1.57651733,2.43012399,3.75852451,1986,3062,4736,982,1698,2675,0.77947633,1.34812522,2.12316012,0.23202498,0.35149939,0.48556920
5045,0,USArkansasFaulkner,Arkansas,Faulkner,2021-01-06 04:46:28.428270,2020-10-23 00:00:00.000000,1.59453979,2.45772465,3.76995487,2009,3096,4750,990,1704,2675,0.78627925,1.35281184,2.12341570,0.23904468,0.35741992,0.47063755
5045,0,USArkansasFaulkner,Arkansas,Faulkner,2021-01-06 04:46:28.428270,2020-10-24 00:00:00.000000,1.59986585,2.48695680,3.74936925,2015,3133,4724,1000,1721,2662,0.79423126,1.36628126,2.11285679,0.23846990,0.36517770,0.48846023
5045,0,USArkansasFaulkner,Arkansas,Faulkner,2021-01-06 04:46:28.428270,2020-10-25 00:00:00.000000,1.64085057,2.50441059,3.73632345,2067,3155,4708,1015,1731,2645,0.80554718,1.37375748,2.09962019,0.24750938,0.37436695,0.49681086
5045,0,USArkansasFaulkner,Arkansas,Faulkner,2021-01-06 04:46:28.428270,2020-10-26 00:00:00.000000,1.66443028,2.51883473,3.75083024,2097,3173,4726,1037,1756,2649,0.82315509,1.39415435,2.10299748,0.26349601,0.38467968,0.54546196
5045,0,USArkansasFaulkner,Arkansas,Faulkner,2021-01-06 04:46:28.428270,2020-10-27 00:00:00.000000,1.69114305,2.53118865,3.78696763,2130,3189,4771,1051,1776,2661,0.83465553,1.40946056,2.11209859,0.26612778,0.39503662,0.58504420
5045,0,USArkansasFaulkner,Arkansas,Faulkner,2021-01-06 04:46:28.428270,2020-10-28 00:00:00.000000,1.73430627,2.55185114,3.78808337,2185,3215,4773,1064,1783,2682,0.84445320,1.41546080,2.12850546,0.26422919,0.40010002,0.58061731
5045,0,USArkansasFaulkner,Arkansas,Faulkner,2021-01-06 04:46:28.428270,2020-10-29 00:00:00.000000,1.76605388,2.58611603,3.80844997,2225,3258,4798,1078,1795,2705,0.85607891,1.42501132,2.14736535,0.26340520,0.40485796,0.56164324
5045,0,USArkansasFaulkner,Arkansas,Faulkner,2021-01-06 04:46:28.428270,2020-10-30 00:00:00.000000,1.79984091,2.62110294,3.89145353,2267,3302,4903,1095,1822,2733,0.86952522,1.44648688,2.16894253,0.26435032,0.40991940,0.56689193
5045,0,USArkansasFaulkner,Arkansas,Faulkner,2021-01-06 04:46:28.428270,2020-10-31 00:00:00.000000,1.83642693,2.66548704,4.01143917,2314,3358,5054,1115,1843,2765,0.88492748,1.46336579,2.19458737,0.28916995,0.42968203,0.59273731
5045,0,USArkansasFaulkner,Arkansas,Faulkner,2021-01-06 04:46:28.428270,2020-11-01 00:00:00.000000,1.88394770,2.71155254,4.15312487,2373,3416,5233,1137,1878,2806,0.90239616,1.49050040,2.22697311,0.29771431,0.43683817,0.59065912
5045,0,USArkansasFaulkner,Arkansas,Faulkner,2021-01-06 04:46:28.428270,2020-11-02 00:00:00.000000,1.95011791,2.77302266,4.28257448,2457,3494,5396,1161,1922,2860,0.92190119,1.52609746,2.26991419,0.30256502,0.44174959,0.59017419
5045,0,USArkansasFaulkner,Arkansas,Faulkner,2021-01-06 04:46:28.428270,2020-11-03 00:00:00.000000,2.01830475,2.84971972,4.37078755,2543,3590,5507,1189,1971,2932,0.94413023,1.56445808,2.32709309,0.29985351,0.44233815,0.59009408
5045,0,USArkansasFaulkner,Arkansas,Faulkner,2021-01-06 04:46:28.428270,2020-11-04 00:00:00.000000,2.08845549,2.90590849,4.46249952,2631,3661,5623,1220,2011,2984,0.96849840,1.59629370,2.36883254,0.30246037,0.44828967,0.58999638
5045,0,USArkansasFaulkner,Arkansas,Faulkner,2021-01-06 04:46:28.428270,2020-11-05 00:00:00.000000,2.14787430,3.01214487,4.55886889,2706,3795,5744,1253,2059,3021,0.99453527,1.63435466,2.39824380,0.30534137,0.45452727,0.58974050
5045,0,USArkansasFaulkner,Arkansas,Faulkner,2021-01-06 04:46:28.428270,2020-11-06 00:00:00.000000,2.19564340,3.11080389,4.66055335,2766,3919,5872,1287,2100,3119,1.02189210,1.66698145,2.47599610,0.31561195,0.45728473,0.58921710
5045,0,USArkansasFaulkner,Arkansas,Faulkner,2021-01-06 04:46:28.428270,2020-11-07 00:00:00.000000,2.23076552,3.18980835,4.76769093,2810,4019,6007,1323,2141,3220,1.05033626,1.69958190,2.55564271,0.31531470,0.46163680,0.59861048
5045,0,USArkansasFaulkner,Arkansas,Faulkner,2021-01-06 04:46:28.428270,2020-11-08 00:00:00.000000,2.28282421,3.26714358,4.88002302,2876,4116,6149,1360,2186,3322,1.07975223,1.73497675,2.63688938,0.32160390,0.46483188,0.62224208
5045,0,USArkansasFaulkner,Arkansas,Faulkner,2021-01-06 04:46:28.428270,2020-11-09 00:00:00.000000,2.34848844,3.35071909,4.99790700,2959,4222,6297,1398,2233,3427,1.11016056,1.77245559,2.71975422,0.32719460,0.46754248,0.62922156
5045,0,USArkansasFaulkner,Arkansas,Faulkner,2021-01-06 04:46:28.428270,2020-11-10 00:00:00.000000,2.41128012,3.43484834,5.11972993,3038,4328,6451,1437,2284,3473,1.14112228,1.81269204,2.75675038,0.32981948,0.46696054,0.62937942
5045,0,USArkansasFaulkner,Arkansas,Faulkner,2021-01-06 04:46:28.428270,2020-11-11 00:00:00.000000,2.47751049,3.51930182,5.24468595,3121,4434,6608,1477,2360,3504,1.17293897,1.87346385,2.78083407,0.32998236,0.46755434,0.62968986
5045,0,USArkansasFaulkner,Arkansas,Faulkner,2021-01-06 04:46:28.428270,2020-11-12 00:00:00.000000,2.54186394,3.62670417,5.37175465,3202,4569,6768,1511,2421,3530,1.19973094,1.92207705,2.80206221,0.33190803,0.46952886,0.62900875
5045,0,USArkansasFaulkner,Arkansas,Faulkner,2021-01-06 04:46:28.428270,2020-11-13 00:00:00.000000,2.60036704,3.70231426,5.49952071,3276,4665,6929,1522,2478,3561,1.20800314,1.96688491,2.82627671,0.33644553,0.46994282,0.62442334
5045,0,USArkansasFaulkner,Arkansas,Faulkner,2021-01-06 04:46:28.428270,2020-11-14 00:00:00.000000,2.65029305,3.80983562,5.62630393,3339,4800,7089,1533,2540,3631,1.21664570,2.01630890,2.88222440,0.34447513,0.46937918,0.61225333
5045,0,USArkansasFaulkner,Arkansas,Faulkner,2021-01-06 04:46:28.428270,2020-11-15 00:00:00.000000,2.69435176,3.90082786,5.75128939,3395,4915,7247,1545,2627,3702,1.22652754,2.08485011,2.93861563,0.34315823,0.47038041,0.61811626
5045,0,USArkansasFaulkner,Arkansas,Faulkner,2021-01-06 04:46:28.428270,2020-11-16 00:00:00.000000,2.76813766,3.97642589,5.87583128,3488,5010,7403,1561,2691,3775,1.23921430,2.13604448,2.99614635,0.34419762,0.46841819,0.63192029
5045,0,USArkansasFaulkner,Arkansas,Faulkner,2021-01-06 04:46:28.428270,2020-11-17 00:00:00.000000,2.83767319,4.05121879,6.00002543,3575,5104,7560,1582,2744,3850,1.25596193,2.17811308,3.05593791,0.34571739,0.47130804,0.64079436
5045,0,USArkansasFaulkner,Arkansas,Faulkner,2021-01-06 04:46:28.428270,2020-11-18 00:00:00.000000,2.89374029,4.17739081,6.12489510,3646,5263,7717,1608,2806,3930,1.27637541,2.22748646,3.11954184,0.34705968,0.47124666,0.64496385
5045,0,USArkansasFaulkner,Arkansas,Faulkner,2021-01-06 04:46:28.428270,2020-11-19 00:00:00.000000,2.95251668,4.30853269,6.25225386,3720,5429,7878,1662,2893,4018,1.31933400,2.29590580,3.18878265,0.34866626,0.47700456,0.64694338
5045,0,USArkansasFaulkner,Arkansas,Faulkner,2021-01-06 04:46:28.428270,2020-11-20 00:00:00.000000,3.04255364,4.44853107,6.38400240,3833,5605,8044,1724,2958,4114,1.36894150,2.34775346,3.26514279,0.35821115,0.49204393,0.67003123
5045,0,USArkansasFaulkner,Arkansas,Faulkner,2021-01-06 04:46:28.428270,2020-11-21 00:00:00.000000,3.15157064,4.60053317,6.52850686,3971,5796,8226,1787,3047,4220,1.41827509,2.41828998,3.34918674,0.35679458,0.51593684,0.70772935
5045,0,USArkansasFaulkner,Arkansas,Faulkner,2021-01-06 04:46:28.428270,2020-11-22 00:00:00.000000,3.22761411,4.71815695,6.69038432,4067,5945,8430,1805,3139,4334,1.43313433,2.49143038,3.43957429,0.35563755,0.52380576,0.69368352
5045,0,USArkansasFaulkner,Arkansas,Faulkner,2021-01-06 04:46:28.428270,2020-11-23 00:00:00.000000,3.33041982,4.83891375,6.86728543,4196,6097,8653,1825,3229,4455,1.44843330,2.56299794,3.53592332,0.35759301,0.53110101,0.70082771
5045,0,USArkansasFaulkner,Arkansas,Faulkner,2021-01-06 04:46:28.428270,2020-11-24 00:00:00.000000,3.47705310,4.93979585,7.05558687,4381,6224,8890,1849,3316,4584,1.46793300,2.63205320,3.63814462,0.36662114,0.53752953,0.70702051
5045,0,USArkansasFaulkner,Arkansas,Faulkner,2021-01-06 04:46:28.428270,2020-11-25 00:00:00.000000,3.60102223,5.06547484,7.25174495,4537,6382,9137,1921,3411,4718,1.52482420,2.70760744,3.74489727,0.37338421,0.54156108,0.70831008
5045,0,USArkansasFaulkner,Arkansas,Faulkner,2021-01-06 04:46:28.428270,2020-11-26 00:00:00.000000,3.71575522,5.22623665,7.45500339,4682,6585,9393,2001,3499,4857,1.58865644,2.77723664,3.85504956,0.37280101,0.54766081,0.72286952
5045,0,USArkansasFaulkner,Arkansas,Faulkner,2021-01-06 04:46:28.428270,2020-11-27 00:00:00.000000,3.83149555,5.38763105,7.66671002,4827,6788,9660,2088,3582,4999,1.65723467,2.84322337,3.96757545,0.37092645,0.54543823,0.71565050
5045,0,USArkansasFaulkner,Arkansas,Faulkner,2021-01-06 04:46:28.428270,2020-11-28 00:00:00.000000,3.94792102,5.55813454,7.88934267,4974,7003,9941,2178,3667,5142,1.72925422,2.91054632,4.08135590,0.38150529,0.55011437,0.70921902
5045,0,USArkansasFaulkner,Arkansas,Faulkner,2021-01-06 04:46:28.428270,2020-11-29 00:00:00.000000,4.06446369,5.77686244,8.12513699,5121,7279,10238,2272,3785,5303,1.80369701,3.00412936,4.20861404,0.39113427,0.54913701,0.70852692
5045,0,USArkansasFaulkner,Arkansas,Faulkner,2021-01-06 04:46:28.428270,2020-11-30 00:00:00.000000,4.18098156,5.95819580,8.37321930,5268,7507,10550,2368,3898,5502,1.87932401,3.09426552,4.36668366,0.38234026,0.55324642,0.71366642
5045,0,USArkansasFaulkner,Arkansas,Faulkner,2021-01-06 04:46:28.428270,2020-12-01 00:00:00.000000,4.29212865,6.13721936,8.63260184,5408,7733,10877,2461,3975,5704,1.95314909,3.15486716,4.52688220,0.38877810,0.54911042,0.71690402
5045,0,USArkansasFaulkner,Arkansas,Faulkner,2021-01-06 04:46:28.428270,2020-12-02 00:00:00.000000,4.38929739,6.30476374,8.89518638,5530,7944,11208,2547,4059,5907,2.02159536,3.22146629,4.68828227,0.39108651,0.55449289,0.71865417
5045,0,USArkansasFaulkner,Arkansas,Faulkner,2021-01-06 04:46:28.428270,2020-12-03 00:00:00.000000,4.47491415,6.47083636,9.15782981,5638,8153,11539,2623,4212,6111,2.08167176,3.34301162,4.84980199,0.38483028,0.55375610,0.71972672
5045,0,USArkansasFaulkner,Arkansas,Faulkner,2021-01-06 04:46:28.428270,2020-12-04 00:00:00.000000,4.64775379,6.63348069,9.41667331,5856,8358,11865,2688,4340,6313,2.13364999,3.44467462,5.01017481,0.37473136,0.54224763,0.71983847
5045,0,USArkansasFaulkner,Arkansas,Faulkner,2021-01-06 04:46:28.428270,2020-12-05 00:00:00.000000,4.81712314,6.77630615,9.66589467,6069,8538,12179,2801,4408,6509,2.22326353,3.49824877,5.16596323,0.37015767,0.53276913,0.71560228
5045,0,USArkansasFaulkner,Arkansas,Faulkner,2021-01-06 04:46:28.428270,2020-12-06 00:00:00.000000,4.89853554,6.91478126,9.90022905,6172,8713,12474,2870,4546,6697,2.27787078,3.60823697,5.31524335,0.36954149,0.52149165,0.70717211
5045,0,USArkansasFaulkner,Arkansas,Faulkner,2021-01-06 04:46:28.428270,2020-12-07 00:00:00.000000,4.89090367,6.97628718,10.11612971,6162,8790,12747,2928,4642,6860,2.32425657,3.68420927,5.44422987,0.35743722,0.51080171,0.70627332
5045,0,USArkansasFaulkner,Arkansas,Faulkner,2021-01-06 04:46:28.428270,2020-12-08 00:00:00.000000,4.86247109,7.04414006,10.31208340,6127,8876,12993,2982,4700,6937,2.36726846,3.73036872,5.50572085,0.35772331,0.50496783,0.71030934
5045,0,USArkansasFaulkner,Arkansas,Faulkner,2021-01-06 04:46:28.428270,2020-12-09 00:00:00.000000,4.88585341,7.11379091,10.48866466,6156,8963,13216,3030,4791,7026,2.40502657,3.80249075,5.57632512,0.34751654,0.50826798,0.71919041
5045,0,USArkansasFaulkner,Arkansas,Faulkner,2021-01-06 04:46:28.428270,2020-12-10 00:00:00.000000,4.93175514,7.21212857,10.64678149,6214,9087,13415,3069,4890,7128,2.43566252,3.88149905,5.65688787,0.34271734,0.50853545,0.72162393
5045,0,USArkansasFaulkner,Arkansas,Faulkner,2021-01-06 04:46:28.428270,2020-12-11 00:00:00.000000,4.96321412,7.27584823,10.78365031,6253,9168,13588,3074,4951,7241,2.43955558,3.92932882,5.74699476,0.35193106,0.50737510,0.71769069
5045,0,USArkansasFaulkner,Arkansas,Faulkner,2021-01-06 04:46:28.428270,2020-12-12 00:00:00.000000,4.97333369,7.26914724,10.88201379,6266,9159,13712,3085,5008,7365,2.44834663,3.97485152,5.84503131,0.36181118,0.50498787,0.73106271
5045,0,USArkansasFaulkner,Arkansas,Faulkner,2021-01-06 04:46:28.428270,2020-12-13 00:00:00.000000,4.96003870,7.28339108,10.92041018,6249,9177,13760,3137,5058,7482,2.48993161,4.01438323,5.93808369,0.35923338,0.49728948,0.73871848
5045,0,USArkansasFaulkner,Arkansas,Faulkner,2021-01-06 04:46:28.428270,2020-12-14 00:00:00.000000,4.93042925,7.32131172,10.92424118,6212,9225,13765,3174,5114,7522,2.51895245,4.05927424,5.96971440,0.36359927,0.50763012,0.74299807
5045,0,USArkansasFaulkner,Arkansas,Faulkner,2021-01-06 04:46:28.428270,2020-12-15 00:00:00.000000,4.90753762,7.43286999,10.90942187,6183,9365,13746,3200,5166,7549,2.53983110,4.10005825,5.99146555,0.36406514,0.51208396,0.75290123
5045,0,USArkansasFaulkner,Arkansas,Faulkner,2021-01-06 04:46:28.428270,2020-12-16 00:00:00.000000,5.01632846,7.56376336,10.88247447,6320,9530,13712,3225,5199,7567,2.56011820,4.12672664,6.00541477,0.36625445,0.53416265,0.75798902
5045,0,USArkansasFaulkner,Arkansas,Faulkner,2021-01-06 04:46:28.428270,2020-12-17 00:00:00.000000,5.14247699,7.65863978,10.85165804,6479,9650,13673,3224,5248,7579,2.55898407,4.16507278,6.01497034,0.37350551,0.55380549,0.78641669
5045,0,USArkansasFaulkner,Arkansas,Faulkner,2021-01-06 04:46:28.428270,2020-12-18 00:00:00.000000,5.27695518,7.72581971,10.85104413,6649,9735,13673,3208,5300,7592,2.54667607,4.20689374,6.02547839,0.39649311,0.56913005,0.85241569
5045,0,USArkansasFaulkner,Arkansas,Faulkner,2021-01-06 04:46:28.428270,2020-12-19 00:00:00.000000,5.41646160,7.78142990,10.97665362,6825,9805,13831,3202,5375,7614,2.54142610,4.26613092,6.04319735,0.40218344,0.58043976,0.87966396
5045,0,USArkansasFaulkner,Arkansas,Faulkner,2021-01-06 04:46:28.428270,2020-12-20 00:00:00.000000,5.55876186,7.92055214,11.25184085,7004,9980,14178,3276,5453,7656,2.60003966,4.32774605,6.07625879,0.40714775,0.59093938,0.92699139
5045,0,USArkansasFaulkner,Arkansas,Faulkner,2021-01-06 04:46:28.428270,2020-12-21 00:00:00.000000,5.70170356,8.06474975,11.56749328,7184,10162,14575,3331,5546,7731,2.64424775,4.40213317,6.13616544,0.41815934,0.62161475,0.97356890
5045,0,USArkansasFaulkner,Arkansas,Faulkner,2021-01-06 04:46:28.428270,2020-12-22 00:00:00.000000,5.84487135,8.21154867,11.88009691,7364,10347,14969,3356,5644,7852,2.66359705,4.47918164,6.23192388,0.43739634,0.63692373,1.00276043
5045,0,USArkansasFaulkner,Arkansas,Faulkner,2021-01-06 04:46:28.428270,2020-12-23 00:00:00.000000,6.06067154,8.38494090,12.17778139,7636,10565,15344,3391,5744,8021,2.69178468,4.55902012,6.36594851,0.43635709,0.66093461,1.03591953
5045,0,USArkansasFaulkner,Arkansas,Faulkner,2021-01-06 04:46:28.428270,2020-12-24 00:00:00.000000,6.12753174,8.58458903,12.45765963,7721,10817,15697,3439,5845,8311,2.72948519,4.63916816,6.59605844,0.44376568,0.68060822,1.12442888
5045,0,USArkansasFaulkner,Arkansas,Faulkner,2021-01-06 04:46:28.428270,2020-12-25 00:00:00.000000,6.27812831,8.75301024,12.71779718,7910,11029,16025,3495,5952,8621,2.77430966,4.72394775,6.84207099,0.44660667,0.70827993,1.23172068
5045,0,USArkansasFaulkner,Arkansas,Faulkner,2021-01-06 04:46:28.428270,2020-12-26 00:00:00.000000,6.40468898,8.98795927,12.95571187,8070,11325,16325,3557,6082,8889,2.82309833,4.82699465,7.05468653,0.44737477,0.73547711,1.31464600
5045,0,USArkansasFaulkner,Arkansas,Faulkner,2021-01-06 04:46:28.428270,2020-12-27 00:00:00.000000,6.50476459,9.25455616,13.16441109,8196,11661,16588,3612,6264,9064,2.86701876,4.97149919,7.19389929,0.45025673,0.74240275,1.35759226
5045,0,USArkansasFaulkner,Arkansas,Faulkner,2021-01-06 04:46:28.428270,2020-12-28 00:00:00.000000,6.59288804,9.39852146,13.31514554,8307,11842,16778,3647,6374,9130,2.89473711,5.05916974,7.24630671,0.45225733,0.75835196,1.37546632
5045,0,USArkansasFaulkner,Arkansas,Faulkner,2021-01-06 04:46:28.428270,2020-12-29 00:00:00.000000,6.65564881,9.55515387,13.29445223,8386,12040,16751,3733,6551,9176,2.96279181,5.19969703,7.28269710,0.46046864,0.76013184,1.38230522
5045,0,USArkansasFaulkner,Arkansas,Faulkner,2021-01-06 04:46:28.428270,2020-12-30 00:00:00.000000,6.75062478,9.66838203,13.23863818,8506,12182,16681,3892,6723,9201,3.08911497,5.33559436,7.30243031,0.48406368,0.74118830,1.38491918
5045,0,USArkansasFaulkner,Arkansas,Faulkner,2021-01-06 04:46:28.428270,2020-12-31 00:00:00.000000,6.87899856,9.81802715,13.15145115,8668,12371,16571,4084,6824,9221,3.24161832,5.41582859,7.31843660,0.46509840,0.74547802,1.38623048
5045,0,USArkansasFaulkner,Arkansas,Faulkner,2021-01-06 04:46:28.428270,2021-01-01 00:00:00.000000,7.12010297,9.91628927,13.03401072,8971,12495,16423,4305,6895,9299,3.41688625,5.47237234,7.38034032,0.44626822,0.75541446,1.38928238
5045,0,USArkansasFaulkner,Arkansas,Faulkner,2021-01-06 04:46:28.428270,2021-01-02 00:00:00.000000,7.32905814,10.00445432,13.09865085,9235,12606,16505,4289,6964,9323,3.40444738,5.52672151,7.39957487,0.43359967,0.76328927,1.41025779
5045,0,USArkansasFaulkner,Arkansas,Faulkner,2021-01-06 04:46:28.428270,2021-01-03 00:00:00.000000,7.51913550,10.03794165,13.24889132,9474,12648,16694,4457,6961,9401,3.53761505,5.52482885,7.46122542,0.41093246,0.73157340,1.53096041
5045,0,USArkansasFaulkner,Arkansas,Faulkner,2021-01-06 04:46:28.428270,2021-01-04 00:00:00.000000,7.27055714,10.02528174,13.44465590,9161,12632,16941,4456,7050,9550,3.53699538,5.59539386,7.57948795,0.39565831,0.72570312,1.78209526
5045,0,USArkansasFaulkner,Arkansas,Faulkner,2021-01-06 04:46:28.428270,2021-01-05 00:00:00.000000,7.01057726,10.12769016,13.50677888,8833,12761,17019,4450,7039,9920,3.53159280,5.58659566,7.87324331,0.38331547,0.71846750,1.88955758
5045,0,USArkansasFaulkner,Arkansas,Faulkner,2021-01-06 04:46:28.428270,2021-01-06 00:00:00.000000,6.74569220,10.17030470,13.52419946,8500,12815,17041,4437,7093,9921,3.52186150,5.62921478,7.87405318,0.38091581,0.72092436,1.90649672
5045,0,USArkansasFaulkner,Arkansas,Faulkner,2021-01-06 04:46:28.428270,2021-01-07 00:00:00.000000,6.48007737,10.08944620,13.51691235,8165,12713,17032,4421,7098,9926,3.50925409,5.63376614,7.87761624,0.37876303,0.72732113,1.90860142
5045,0,USArkansasFaulkner,Arkansas,Faulkner,2021-01-06 04:46:28.428270,2021-01-08 00:00:00.000000,6.21659781,9.99191437,13.50803518,7833,12590,17021,4401,7087,10046,3.49288515,5.62431400,7.97265789,0.37739782,0.72770446,1.90885717
5045,0,USArkansasFaulkner,Arkansas,Faulkner,2021-01-06 04:46:28.428270,2021-01-09 00:00:00.000000,5.99013238,9.88523535,13.56738557,7547,12456,17095,4234,7034,10151,3.36048925,5.58253689,8.05623449,0.37670525,0.72651266,1.90888968
5045,0,USArkansasFaulkner,Arkansas,Faulkner,2021-01-06 04:46:28.428270,2021-01-10 00:00:00.000000,5.81992006,9.97874702,13.59799532,7333,12573,17134,4067,6953,10241,3.22790417,5.51872374,8.12792933,0.37635569,0.72615642,1.90889470
5045,0,USArkansasFaulkner,Arkansas,Faulkner,2021-01-06 04:46:28.428270,2021-01-11 00:00:00.000000,5.64786606,9.81912047,13.59973375,7116,12372,17136,3901,6869,10286,3.09647367,5.45172596,8.16372327,0.37617964,0.72605098,1.90889595
5045,0,USArkansasFaulkner,Arkansas,Faulkner,2021-01-06 04:46:28.428270,2021-01-12 00:00:00.000000,5.47599285,9.79758626,13.64529526,6900,12345,17194,3738,6888,10216,2.96715567,5.46715108,8.10809669,0.37609106,0.72601986,1.90889648
5045,0,USArkansasFaulkner,Arkansas,Faulkner,2021-01-06 04:46:28.428270,2021-01-13 00:00:00.000000,5.30541686,9.69378202,13.70212465,6685,12214,17265,3579,6850,10428,2.84061619,5.43683861,8.27629885,0.37604650,0.72601067,1.90889676
5045,0,USArkansasFaulkner,Arkansas,Faulkner,2021-01-06 04:46:28.428270,2021-01-14 00:00:00.000000,5.13684696,9.57731380,13.87594796,6472,12068,17484,3423,6847,10466,2.71730870,5.43406428,8.30650491,0.37602409,0.72600797,1.90889693
5045,0,USArkansasFaulkner,Arkansas,Faulkner,2021-01-06 04:46:28.428270,2021-01-15 00:00:00.000000,4.97077274,9.36680794,13.92907076,6263,11802,17551,3273,6856,10600,2.59753425,5.44171185,8.41282614,0.37601281,0.72600717,1.90889702
5045,0,USArkansasFaulkner,Arkansas,Faulkner,2021-01-06 04:46:28.428270,2021-01-16 00:00:00.000000,4.80754737,9.16231705,13.93549015,6057,11545,17559,3126,6766,10708,2.48148508,5.36989164,8.49801401,0.37600714,0.72600693,1.90889707
5045,0,USArkansasFaulkner,Arkansas,Faulkner,2021-01-06 04:46:28.428270,2021-01-17 00:00:00.000000,4.64743113,8.88620912,13.89535185,5856,11197,17509,2985,6661,10781,2.36927531,5.28645673,8.55659681,0.37600428,0.72600686,1.90889710
