FIPS,HR_UID,nameid,province,region,analysisTime,dates,pointprevalence_025,pointprevalence_50,pointprevalence_975,pointinfections_025,pointinfections_50,pointinfections_975,pointinfectious_025,pointinfectious_50,pointinfectious_975,pointinfectiousprevalence_05,pointinfectiousprevalence_50,pointinfectiousprevalence_95,infectrate_025,infectrate_50,infectrate_975
46065,0,USSouthDakotaHughes,South Dakota,Hughes,2021-01-05 10:46:10.588874,2020-03-09 00:00:00.000000,0.00393089,0.01924804,0.06079083,0,3,10,0,1,6,0.00192881,0.01065890,0.03607892,0.33816420,0.48173128,0.65450171
46065,0,USSouthDakotaHughes,South Dakota,Hughes,2021-01-05 10:46:10.588874,2020-03-10 00:00:00.000000,0.00429560,0.02037329,0.06405301,0,3,11,0,1,6,0.00198407,0.01076690,0.03463200,0.33813992,0.48172911,0.65450171
46065,0,USSouthDakotaHughes,South Dakota,Hughes,2021-01-05 10:46:10.588874,2020-03-11 00:00:00.000000,0.00464962,0.02163030,0.06685349,0,3,11,0,1,6,0.00211386,0.01112419,0.03589782,0.33810641,0.48172484,0.65450170
46065,0,USSouthDakotaHughes,South Dakota,Hughes,2021-01-05 10:46:10.588874,2020-03-12 00:00:00.000000,0.00499576,0.02294344,0.06983215,0,4,12,0,2,6,0.00229435,0.01147571,0.03853214,0.33806013,0.48171392,0.65450170
46065,0,USSouthDakotaHughes,South Dakota,Hughes,2021-01-05 10:46:10.588874,2020-03-13 00:00:00.000000,0.00533717,0.02438198,0.07295019,0,4,12,0,2,7,0.00250990,0.01229863,0.04050959,0.33799608,0.48167963,0.64825162
46065,0,USSouthDakotaHughes,South Dakota,Hughes,2021-01-05 10:46:10.588874,2020-03-14 00:00:00.000000,0.00583216,0.02596982,0.07619169,1,4,13,0,2,7,0.00275737,0.01294372,0.04264222,0.33790673,0.48155970,0.63365134
46065,0,USSouthDakotaHughes,South Dakota,Hughes,2021-01-05 10:46:10.588874,2020-03-15 00:00:00.000000,0.00639744,0.02796463,0.07955184,1,4,13,0,2,7,0.00303454,0.01394880,0.04489763,0.33777891,0.48028697,0.62626667
46065,0,USSouthDakotaHughes,South Dakota,Hughes,2021-01-05 10:46:10.588874,2020-03-16 00:00:00.000000,0.01115917,0.03698101,0.09072680,1,6,15,0,2,8,0.00333961,0.01517103,0.04722303,0.33758168,0.47701766,0.62609820
46065,0,USSouthDakotaHughes,South Dakota,Hughes,2021-01-05 10:46:10.588874,2020-03-17 00:00:00.000000,0.01498120,0.04466974,0.10201957,2,7,17,0,3,9,0.00427693,0.01805157,0.05182410,0.33721806,0.47288879,0.62568384
46065,0,USSouthDakotaHughes,South Dakota,Hughes,2021-01-05 10:46:10.588874,2020-03-18 00:00:00.000000,0.01910759,0.05369980,0.11387356,3,9,19,1,3,10,0.00602106,0.02173336,0.05775739,0.31078354,0.46554877,0.62467032
46065,0,USSouthDakotaHughes,South Dakota,Hughes,2021-01-05 10:46:10.588874,2020-03-19 00:00:00.000000,0.02203390,0.06332678,0.12622612,3,11,22,1,4,11,0.00821780,0.02552067,0.06452759,0.28137608,0.43663119,0.62222476
46065,0,USSouthDakotaHughes,South Dakota,Hughes,2021-01-05 10:46:10.588874,2020-03-20 00:00:00.000000,0.02461822,0.07233987,0.13899235,4,12,24,1,5,12,0.00989167,0.02931551,0.07187086,0.25877684,0.40824751,0.61634360
46065,0,USSouthDakotaHughes,South Dakota,Hughes,2021-01-05 10:46:10.588874,2020-03-21 00:00:00.000000,0.02812082,0.08249658,0.15532399,4,14,27,2,5,13,0.01163808,0.03422752,0.07963185,0.24606627,0.39606587,0.60135466
46065,0,USSouthDakotaHughes,South Dakota,Hughes,2021-01-05 10:46:10.588874,2020-03-22 00:00:00.000000,0.03067196,0.09089524,0.17268813,5,15,30,2,6,15,0.01340969,0.03953636,0.08766867,0.23359553,0.36899205,0.55253470
46065,0,USSouthDakotaHughes,South Dakota,Hughes,2021-01-05 10:46:10.588874,2020-03-23 00:00:00.000000,0.03821882,0.10154025,0.18481313,6,17,32,2,7,16,0.01518756,0.04489447,0.09572649,0.21613026,0.35508610,0.49902398
46065,0,USSouthDakotaHughes,South Dakota,Hughes,2021-01-05 10:46:10.588874,2020-03-24 00:00:00.000000,0.04898395,0.10862429,0.19783131,8,19,34,3,8,17,0.01930027,0.04901486,0.10174503,0.21360791,0.33882534,0.46661851
46065,0,USSouthDakotaHughes,South Dakota,Hughes,2021-01-05 10:46:10.588874,2020-03-25 00:00:00.000000,0.06002288,0.11880003,0.21024234,10,20,36,4,9,18,0.02299929,0.05400411,0.10794837,0.18385210,0.32198591,0.44715169
46065,0,USSouthDakotaHughes,South Dakota,Hughes,2021-01-05 10:46:10.588874,2020-03-26 00:00:00.000000,0.06960062,0.13186760,0.22218901,12,23,38,4,10,20,0.02699309,0.05979177,0.11507424,0.17079701,0.30513524,0.42425439
46065,0,USSouthDakotaHughes,South Dakota,Hughes,2021-01-05 10:46:10.588874,2020-03-27 00:00:00.000000,0.07582240,0.13916892,0.23342641,13,24,40,5,11,21,0.03161272,0.06383486,0.12095618,0.16821190,0.29405687,0.41311080
46065,0,USSouthDakotaHughes,South Dakota,Hughes,2021-01-05 10:46:10.588874,2020-03-28 00:00:00.000000,0.08041401,0.14795409,0.24419443,14,25,42,6,11,22,0.03621403,0.06823229,0.12586312,0.16743593,0.27952487,0.41271200
46065,0,USSouthDakotaHughes,South Dakota,Hughes,2021-01-05 10:46:10.588874,2020-03-29 00:00:00.000000,0.08421191,0.15500348,0.25546162,14,27,44,7,12,23,0.04062188,0.07250387,0.13210312,0.16688909,0.26710190,0.40840861
46065,0,USSouthDakotaHughes,South Dakota,Hughes,2021-01-05 10:46:10.588874,2020-03-30 00:00:00.000000,0.09216912,0.16026275,0.25966342,16,28,45,7,13,24,0.04455929,0.07769151,0.14020898,0.16665094,0.25935474,0.38479838
46065,0,USSouthDakotaHughes,South Dakota,Hughes,2021-01-05 10:46:10.588874,2020-03-31 00:00:00.000000,0.09681331,0.16714126,0.27716422,16,29,48,8,14,25,0.04756227,0.08303826,0.14769102,0.16330045,0.24534056,0.35663659
46065,0,USSouthDakotaHughes,South Dakota,Hughes,2021-01-05 10:46:10.588874,2020-04-01 00:00:00.000000,0.10126395,0.17555155,0.29828961,17,30,52,8,15,26,0.05036421,0.08676448,0.15218487,0.15273074,0.24054618,0.34154036
46065,0,USSouthDakotaHughes,South Dakota,Hughes,2021-01-05 10:46:10.588874,2020-04-02 00:00:00.000000,0.10685727,0.18052582,0.31342480,18,31,54,9,16,28,0.05300410,0.09157419,0.16146025,0.14567415,0.22530692,0.34131810
46065,0,USSouthDakotaHughes,South Dakota,Hughes,2021-01-05 10:46:10.588874,2020-04-03 00:00:00.000000,0.10911084,0.18754090,0.30772848,19,32,53,9,16,29,0.05552122,0.09480143,0.16766313,0.14207628,0.22115905,0.34092329
46065,0,USSouthDakotaHughes,South Dakota,Hughes,2021-01-05 10:46:10.588874,2020-04-04 00:00:00.000000,0.10853085,0.19298271,0.31543313,19,33,55,10,17,30,0.05802948,0.09908109,0.17305119,0.12953624,0.21460338,0.33956689
46065,0,USSouthDakotaHughes,South Dakota,Hughes,2021-01-05 10:46:10.588874,2020-04-05 00:00:00.000000,0.11061144,0.19636697,0.33094514,19,34,58,10,17,30,0.06163229,0.10173465,0.17622661,0.12218449,0.21031951,0.33075297
46065,0,USSouthDakotaHughes,South Dakota,Hughes,2021-01-05 10:46:10.588874,2020-04-06 00:00:00.000000,0.11482758,0.20054309,0.34062909,20,35,59,11,18,31,0.06281681,0.10497205,0.18246188,0.11941388,0.20445469,0.29781423
46065,0,USSouthDakotaHughes,South Dakota,Hughes,2021-01-05 10:46:10.588874,2020-04-07 00:00:00.000000,0.11734568,0.19891700,0.34847154,20,34,61,11,18,32,0.06431925,0.10692063,0.18621012,0.11727231,0.19937668,0.28389429
46065,0,USSouthDakotaHughes,South Dakota,Hughes,2021-01-05 10:46:10.588874,2020-04-08 00:00:00.000000,0.11597671,0.19992973,0.35218194,20,35,61,11,19,33,0.06456736,0.10866963,0.18930941,0.11622146,0.19226965,0.27221918
46065,0,USSouthDakotaHughes,South Dakota,Hughes,2021-01-05 10:46:10.588874,2020-04-09 00:00:00.000000,0.11387155,0.20266118,0.35805427,19,35,62,11,19,33,0.06491356,0.11220584,0.19235961,0.11565948,0.19051344,0.26255396
46065,0,USSouthDakotaHughes,South Dakota,Hughes,2021-01-05 10:46:10.588874,2020-04-10 00:00:00.000000,0.11557113,0.20628330,0.36254910,20,36,63,11,19,35,0.06519175,0.11081884,0.20182646,0.11490012,0.18435783,0.25459082
46065,0,USSouthDakotaHughes,South Dakota,Hughes,2021-01-05 10:46:10.588874,2020-04-11 00:00:00.000000,0.11730826,0.20599710,0.37218024,20,36,65,11,19,35,0.06536554,0.11089236,0.20138843,0.11265056,0.17686211,0.23877617
46065,0,USSouthDakotaHughes,South Dakota,Hughes,2021-01-05 10:46:10.588874,2020-04-12 00:00:00.000000,0.11892808,0.20751809,0.38446105,20,36,67,11,19,35,0.06547205,0.11051103,0.20257945,0.10860330,0.17128317,0.23721597
46065,0,USSouthDakotaHughes,South Dakota,Hughes,2021-01-05 10:46:10.588874,2020-04-13 00:00:00.000000,0.12693743,0.20632453,0.39568236,22,36,69,11,19,35,0.06545127,0.11069621,0.20388606,0.10303869,0.16353026,0.23630718
46065,0,USSouthDakotaHughes,South Dakota,Hughes,2021-01-05 10:46:10.588874,2020-04-14 00:00:00.000000,0.12598158,0.20764721,0.40681806,22,36,71,11,19,35,0.06743505,0.11232473,0.20388074,0.10302320,0.16075651,0.23549590
46065,0,USSouthDakotaHughes,South Dakota,Hughes,2021-01-05 10:46:10.588874,2020-04-15 00:00:00.000000,0.12931790,0.21142309,0.41765417,22,37,73,12,20,36,0.07046073,0.11420996,0.20594721,0.10300391,0.15868592,0.23521458
46065,0,USSouthDakotaHughes,South Dakota,Hughes,2021-01-05 10:46:10.588874,2020-04-16 00:00:00.000000,0.13773975,0.21196799,0.42445149,24,37,74,12,20,37,0.07366800,0.11577915,0.21265775,0.10301261,0.15726689,0.22668985
46065,0,USSouthDakotaHughes,South Dakota,Hughes,2021-01-05 10:46:10.588874,2020-04-17 00:00:00.000000,0.14583798,0.21375295,0.41571729,25,37,72,13,20,38,0.07611406,0.11642520,0.21771712,0.10026048,0.15397010,0.22506408
46065,0,USSouthDakotaHughes,South Dakota,Hughes,2021-01-05 10:46:10.588874,2020-04-18 00:00:00.000000,0.14358164,0.21275734,0.41560213,25,37,72,13,20,37,0.07771048,0.11768579,0.21663901,0.09901037,0.15063615,0.22299405
46065,0,USSouthDakotaHughes,South Dakota,Hughes,2021-01-05 10:46:10.588874,2020-04-19 00:00:00.000000,0.14118214,0.21597526,0.42467543,24,37,74,13,20,38,0.07939094,0.11787307,0.21785708,0.09552751,0.14623285,0.22441132
46065,0,USSouthDakotaHughes,South Dakota,Hughes,2021-01-05 10:46:10.588874,2020-04-20 00:00:00.000000,0.14145231,0.21841505,0.42004570,24,38,73,14,20,38,0.08102748,0.11817079,0.21799291,0.09322849,0.14229533,0.22614444
46065,0,USSouthDakotaHughes,South Dakota,Hughes,2021-01-05 10:46:10.588874,2020-04-21 00:00:00.000000,0.14142337,0.21714187,0.43344999,24,38,75,14,20,38,0.08103669,0.11751121,0.21726157,0.09297717,0.13832053,0.22628685
46065,0,USSouthDakotaHughes,South Dakota,Hughes,2021-01-05 10:46:10.588874,2020-04-22 00:00:00.000000,0.14143142,0.21773463,0.42733420,24,38,74,14,20,38,0.08073046,0.11797017,0.22150259,0.09279703,0.13633960,0.22629834
46065,0,USSouthDakotaHughes,South Dakota,Hughes,2021-01-05 10:46:10.588874,2020-04-23 00:00:00.000000,0.14144873,0.21537897,0.41688364,24,37,73,14,20,39,0.08068985,0.11878236,0.22270391,0.09120432,0.13234333,0.22334319
46065,0,USSouthDakotaHughes,South Dakota,Hughes,2021-01-05 10:46:10.588874,2020-04-24 00:00:00.000000,0.14142318,0.21753989,0.40515663,24,38,71,14,20,38,0.08062271,0.11759471,0.22139868,0.08478738,0.13008846,0.20814098
46065,0,USSouthDakotaHughes,South Dakota,Hughes,2021-01-05 10:46:10.588874,2020-04-25 00:00:00.000000,0.14133900,0.21942014,0.39282402,24,38,68,14,20,38,0.08057525,0.11871584,0.21828778,0.07745681,0.12809983,0.19981142
46065,0,USSouthDakotaHughes,South Dakota,Hughes,2021-01-05 10:46:10.588874,2020-04-26 00:00:00.000000,0.14119449,0.21933694,0.38029967,24,38,66,13,20,37,0.07927085,0.11912119,0.21393469,0.07760835,0.12554635,0.19430941
46065,0,USSouthDakotaHughes,South Dakota,Hughes,2021-01-05 10:46:10.588874,2020-04-27 00:00:00.000000,0.13761620,0.22189804,0.38383623,24,38,67,13,21,36,0.07666335,0.12038845,0.20876995,0.07824160,0.12359721,0.19176270
46065,0,USSouthDakotaHughes,South Dakota,Hughes,2021-01-05 10:46:10.588874,2020-04-28 00:00:00.000000,0.13446340,0.22236455,0.38753261,23,38,67,13,21,36,0.07779893,0.12096839,0.20619175,0.07851434,0.12084682,0.19726219
46065,0,USSouthDakotaHughes,South Dakota,Hughes,2021-01-05 10:46:10.588874,2020-04-29 00:00:00.000000,0.13096003,0.22188071,0.39169721,22,38,68,13,21,35,0.07762112,0.12041955,0.20536263,0.07661358,0.12153459,0.19674293
46065,0,USSouthDakotaHughes,South Dakota,Hughes,2021-01-05 10:46:10.588874,2020-04-30 00:00:00.000000,0.12776829,0.21975323,0.39302699,22,38,68,13,20,36,0.07564915,0.11951236,0.20569637,0.07606554,0.12203328,0.19281308
46065,0,USSouthDakotaHughes,South Dakota,Hughes,2021-01-05 10:46:10.588874,2020-05-01 00:00:00.000000,0.12402400,0.22219433,0.38780889,21,38,67,12,21,36,0.07357696,0.12029838,0.20677584,0.07598035,0.11999772,0.18967735
46065,0,USSouthDakotaHughes,South Dakota,Hughes,2021-01-05 10:46:10.588874,2020-05-02 00:00:00.000000,0.11949321,0.21972798,0.38979778,20,38,68,12,21,36,0.07153852,0.12225356,0.20829714,0.07387719,0.11843389,0.18807606
46065,0,USSouthDakotaHughes,South Dakota,Hughes,2021-01-05 10:46:10.588874,2020-05-03 00:00:00.000000,0.11682753,0.21609083,0.39170599,20,37,68,12,21,36,0.06965963,0.12323878,0.20875185,0.07258363,0.11712574,0.18827375
46065,0,USSouthDakotaHughes,South Dakota,Hughes,2021-01-05 10:46:10.588874,2020-05-04 00:00:00.000000,0.11681393,0.21492107,0.40616710,20,37,71,11,21,36,0.06798393,0.12361074,0.20600219,0.07185589,0.11664752,0.18933701
46065,0,USSouthDakotaHughes,South Dakota,Hughes,2021-01-05 10:46:10.588874,2020-05-05 00:00:00.000000,0.12100560,0.21932211,0.40682269,21,38,71,11,21,35,0.06649141,0.12376805,0.20368875,0.07147826,0.11609981,0.18995221
46065,0,USSouthDakotaHughes,South Dakota,Hughes,2021-01-05 10:46:10.588874,2020-05-06 00:00:00.000000,0.12566402,0.21200218,0.40486838,22,37,70,11,21,36,0.06515462,0.12383453,0.20731355,0.07065940,0.11563157,0.18774634
46065,0,USSouthDakotaHughes,South Dakota,Hughes,2021-01-05 10:46:10.588874,2020-05-07 00:00:00.000000,0.12634768,0.20306441,0.40215020,22,35,70,11,21,37,0.06598409,0.12184654,0.21286488,0.07032686,0.11468377,0.17744267
46065,0,USSouthDakotaHughes,South Dakota,Hughes,2021-01-05 10:46:10.588874,2020-05-08 00:00:00.000000,0.12217413,0.20441980,0.40006799,21,35,70,11,20,38,0.06797885,0.11784604,0.21926323,0.07026402,0.11175581,0.16613323
46065,0,USSouthDakotaHughes,South Dakota,Hughes,2021-01-05 10:46:10.588874,2020-05-09 00:00:00.000000,0.11806964,0.20182882,0.39758485,20,35,69,11,20,39,0.06574014,0.11494794,0.22606617,0.06985158,0.11075654,0.16628713
46065,0,USSouthDakotaHughes,South Dakota,Hughes,2021-01-05 10:46:10.588874,2020-05-10 00:00:00.000000,0.11429672,0.19778111,0.39435394,20,34,69,11,19,40,0.06354502,0.11372554,0.23231942,0.06762964,0.10907972,0.16182597
46065,0,USSouthDakotaHughes,South Dakota,Hughes,2021-01-05 10:46:10.588874,2020-05-11 00:00:00.000000,0.11497691,0.19542019,0.38243989,20,34,67,10,19,40,0.06024392,0.11210713,0.23152816,0.06509719,0.10892204,0.16178700
46065,0,USSouthDakotaHughes,South Dakota,Hughes,2021-01-05 10:46:10.588874,2020-05-12 00:00:00.000000,0.11121837,0.19260098,0.37064270,19,33,64,10,19,41,0.06089152,0.11128410,0.23554821,0.06378034,0.10868328,0.16342021
46065,0,USSouthDakotaHughes,South Dakota,Hughes,2021-01-05 10:46:10.588874,2020-05-13 00:00:00.000000,0.10794228,0.19672158,0.36251861,18,34,63,10,19,41,0.06142245,0.11178618,0.23601649,0.06751947,0.10727491,0.16138067
46065,0,USSouthDakotaHughes,South Dakota,Hughes,2021-01-05 10:46:10.588874,2020-05-14 00:00:00.000000,0.10501165,0.19810215,0.35364729,18,34,61,10,19,41,0.06258907,0.11013108,0.23411075,0.06728430,0.10558665,0.16083040
46065,0,USSouthDakotaHughes,South Dakota,Hughes,2021-01-05 10:46:10.588874,2020-05-15 00:00:00.000000,0.10233834,0.19889724,0.35819682,17,34,62,10,19,40,0.06268409,0.11216764,0.23065706,0.06299356,0.10577482,0.15950289
46065,0,USSouthDakotaHughes,South Dakota,Hughes,2021-01-05 10:46:10.588874,2020-05-16 00:00:00.000000,0.09987551,0.19733759,0.37635047,17,34,65,10,19,39,0.06096777,0.11352220,0.22625158,0.06361342,0.10370219,0.15663972
46065,0,USSouthDakotaHughes,South Dakota,Hughes,2021-01-05 10:46:10.588874,2020-05-17 00:00:00.000000,0.09760188,0.20054540,0.39364348,17,35,68,10,19,38,0.05950664,0.11146926,0.22131580,0.06498835,0.10297821,0.15455203
46065,0,USSouthDakotaHughes,South Dakota,Hughes,2021-01-05 10:46:10.588874,2020-05-18 00:00:00.000000,0.10183097,0.20111644,0.39494553,17,35,69,10,19,37,0.05824502,0.11189141,0.21614754,0.06476901,0.10387317,0.15514404
46065,0,USSouthDakotaHughes,South Dakota,Hughes,2021-01-05 10:46:10.588874,2020-05-19 00:00:00.000000,0.10295255,0.19982989,0.39265624,18,35,68,10,19,38,0.05879970,0.11152902,0.21857969,0.06469796,0.10325704,0.15535853
46065,0,USSouthDakotaHughes,South Dakota,Hughes,2021-01-05 10:46:10.588874,2020-05-20 00:00:00.000000,0.09890453,0.19900605,0.38805761,17,34,68,10,19,38,0.06000364,0.11103167,0.21732078,0.06458906,0.10493049,0.15544068
46065,0,USSouthDakotaHughes,South Dakota,Hughes,2021-01-05 10:46:10.588874,2020-05-21 00:00:00.000000,0.09521490,0.19743563,0.38201429,16,34,66,10,19,36,0.05809562,0.10972470,0.21019451,0.06429713,0.10384618,0.15984824
46065,0,USSouthDakotaHughes,South Dakota,Hughes,2021-01-05 10:46:10.588874,2020-05-22 00:00:00.000000,0.09176115,0.19401440,0.37488496,16,34,65,9,19,36,0.05634219,0.10903191,0.21082231,0.06352997,0.10369703,0.16146579
46065,0,USSouthDakotaHughes,South Dakota,Hughes,2021-01-05 10:46:10.588874,2020-05-23 00:00:00.000000,0.08846031,0.18985539,0.36718843,15,33,64,9,18,36,0.05483828,0.10817528,0.21061794,0.06169438,0.10364401,0.16302055
46065,0,USSouthDakotaHughes,South Dakota,Hughes,2021-01-05 10:46:10.588874,2020-05-24 00:00:00.000000,0.08532307,0.18572738,0.35939726,14,32,62,9,18,36,0.05301530,0.10730050,0.20985086,0.06057700,0.10819678,0.16434758
46065,0,USSouthDakotaHughes,South Dakota,Hughes,2021-01-05 10:46:10.588874,2020-05-25 00:00:00.000000,0.08702449,0.18996450,0.34409612,15,33,60,8,18,36,0.05088137,0.10513731,0.20867092,0.06270604,0.10887306,0.17654240
46065,0,USSouthDakotaHughes,South Dakota,Hughes,2021-01-05 10:46:10.588874,2020-05-26 00:00:00.000000,0.08900318,0.19041840,0.32912021,15,33,57,8,18,35,0.05042589,0.10513884,0.20357084,0.06332809,0.11046898,0.18695406
46065,0,USSouthDakotaHughes,South Dakota,Hughes,2021-01-05 10:46:10.588874,2020-05-27 00:00:00.000000,0.09147660,0.19730347,0.31443490,16,34,55,8,18,34,0.05063017,0.10493930,0.19626090,0.06373083,0.11086439,0.18948337
46065,0,USSouthDakotaHughes,South Dakota,Hughes,2021-01-05 10:46:10.588874,2020-05-28 00:00:00.000000,0.09425182,0.19950359,0.30050771,16,34,52,9,18,33,0.05152615,0.10438454,0.18842985,0.06435343,0.11094062,0.18018986
46065,0,USSouthDakotaHughes,South Dakota,Hughes,2021-01-05 10:46:10.588874,2020-05-29 00:00:00.000000,0.09345709,0.19999190,0.29446113,16,35,51,9,18,31,0.05265670,0.10453830,0.18048994,0.06539260,0.10791979,0.18247674
46065,0,USSouthDakotaHughes,South Dakota,Hughes,2021-01-05 10:46:10.588874,2020-05-30 00:00:00.000000,0.08972730,0.20338836,0.30207518,15,35,52,9,18,30,0.05136641,0.10550242,0.17269861,0.06646606,0.11093158,0.18367008
46065,0,USSouthDakotaHughes,South Dakota,Hughes,2021-01-05 10:46:10.588874,2020-05-31 00:00:00.000000,0.08831793,0.20044649,0.31593431,15,35,55,8,18,30,0.04916376,0.10553419,0.17451268,0.06656864,0.11134769,0.18862620
46065,0,USSouthDakotaHughes,South Dakota,Hughes,2021-01-05 10:46:10.588874,2020-06-01 00:00:00.000000,0.09260986,0.19890360,0.31119709,16,34,54,8,19,31,0.04919226,0.10989586,0.17774031,0.06634042,0.11131720,0.19141568
46065,0,USSouthDakotaHughes,South Dakota,Hughes,2021-01-05 10:46:10.588874,2020-06-02 00:00:00.000000,0.09710021,0.19826374,0.30710604,17,34,53,8,19,30,0.05070365,0.11037789,0.17396901,0.06622388,0.11172188,0.19278116
46065,0,USSouthDakotaHughes,South Dakota,Hughes,2021-01-05 10:46:10.588874,2020-06-03 00:00:00.000000,0.10242077,0.19701174,0.30359583,17,34,53,9,19,29,0.05276314,0.11243816,0.17082308,0.06622870,0.11146206,0.19163433
46065,0,USSouthDakotaHughes,South Dakota,Hughes,2021-01-05 10:46:10.588874,2020-06-04 00:00:00.000000,0.10430300,0.19224802,0.31156274,18,33,54,9,19,29,0.05489440,0.11309208,0.16944971,0.06647139,0.11088359,0.18747149
46065,0,USSouthDakotaHughes,South Dakota,Hughes,2021-01-05 10:46:10.588874,2020-06-05 00:00:00.000000,0.10628425,0.19432836,0.32431533,18,34,56,9,19,30,0.05554752,0.11054882,0.17514209,0.06552565,0.11089206,0.19024874
46065,0,USSouthDakotaHughes,South Dakota,Hughes,2021-01-05 10:46:10.588874,2020-06-06 00:00:00.000000,0.10493595,0.19368336,0.33655099,18,33,58,9,18,31,0.05532529,0.10738781,0.18112218,0.06396947,0.11245718,0.19572352
46065,0,USSouthDakotaHughes,South Dakota,Hughes,2021-01-05 10:46:10.588874,2020-06-07 00:00:00.000000,0.10370717,0.18926849,0.34703377,18,33,60,9,18,31,0.05663010,0.10581456,0.17975134,0.06608389,0.11083605,0.20612811
46065,0,USSouthDakotaHughes,South Dakota,Hughes,2021-01-05 10:46:10.588874,2020-06-08 00:00:00.000000,0.10603367,0.19481583,0.33877014,18,34,59,9,18,31,0.05583868,0.10391616,0.17917194,0.06653836,0.11097909,0.21232302
46065,0,USSouthDakotaHughes,South Dakota,Hughes,2021-01-05 10:46:10.588874,2020-06-09 00:00:00.000000,0.10801592,0.20841362,0.37808780,18,36,66,9,18,32,0.05588335,0.10608320,0.18332006,0.06661012,0.11156469,0.21166996
46065,0,USSouthDakotaHughes,South Dakota,Hughes,2021-01-05 10:46:10.588874,2020-06-10 00:00:00.000000,0.10558384,0.21296228,0.39051026,18,37,68,9,19,32,0.05469775,0.11263342,0.18690952,0.06686800,0.11248586,0.21753372
46065,0,USSouthDakotaHughes,South Dakota,Hughes,2021-01-05 10:46:10.588874,2020-06-11 00:00:00.000000,0.10313151,0.21260934,0.40852373,18,37,71,9,20,35,0.05601610,0.11660593,0.20005400,0.06754775,0.11229473,0.21138449
46065,0,USSouthDakotaHughes,South Dakota,Hughes,2021-01-05 10:46:10.588874,2020-06-12 00:00:00.000000,0.10080348,0.21796831,0.42476194,17,38,74,10,20,39,0.05803654,0.11941215,0.22285537,0.06823658,0.11395719,0.20023550
46065,0,USSouthDakotaHughes,South Dakota,Hughes,2021-01-05 10:46:10.588874,2020-06-13 00:00:00.000000,0.09858755,0.22700356,0.44089147,17,39,77,10,21,41,0.05853274,0.12188660,0.23415811,0.06786541,0.11644761,0.19294007
46065,0,USSouthDakotaHughes,South Dakota,Hughes,2021-01-05 10:46:10.588874,2020-06-14 00:00:00.000000,0.09656503,0.22594194,0.45661959,16,39,80,10,21,42,0.05723795,0.12140997,0.24328584,0.06775096,0.11887787,0.18894539
46065,0,USSouthDakotaHughes,South Dakota,Hughes,2021-01-05 10:46:10.588874,2020-06-15 00:00:00.000000,0.11764170,0.23215631,0.44795362,20,40,78,9,21,44,0.05603132,0.12248780,0.25237788,0.06776375,0.12050864,0.18623472
46065,0,USSouthDakotaHughes,South Dakota,Hughes,2021-01-05 10:46:10.588874,2020-06-16 00:00:00.000000,0.13705017,0.23749799,0.44406332,24,41,77,10,21,44,0.06098929,0.12345489,0.25551988,0.06789732,0.12142683,0.18629031
46065,0,USSouthDakotaHughes,South Dakota,Hughes,2021-01-05 10:46:10.588874,2020-06-17 00:00:00.000000,0.15667918,0.24989967,0.44463136,27,43,77,12,22,44,0.06886503,0.12717545,0.25489712,0.06822181,0.12090308,0.19194765
46065,0,USSouthDakotaHughes,South Dakota,Hughes,2021-01-05 10:46:10.588874,2020-06-18 00:00:00.000000,0.15904847,0.27286320,0.45069157,27,47,78,13,23,44,0.07810519,0.13254144,0.25194608,0.06885862,0.12177726,0.19602478
46065,0,USSouthDakotaHughes,South Dakota,Hughes,2021-01-05 10:46:10.588874,2020-06-19 00:00:00.000000,0.16667505,0.28114066,0.46834621,29,49,82,14,24,43,0.08545837,0.14132287,0.24761357,0.07000050,0.12493277,0.19797976
46065,0,USSouthDakotaHughes,South Dakota,Hughes,2021-01-05 10:46:10.588874,2020-06-20 00:00:00.000000,0.17498458,0.28960633,0.46486886,30,50,81,16,26,43,0.09295111,0.14915877,0.24671624,0.07168861,0.12603601,0.19676107
46065,0,USSouthDakotaHughes,South Dakota,Hughes,2021-01-05 10:46:10.588874,2020-06-21 00:00:00.000000,0.17857665,0.29067760,0.49636342,31,50,86,17,27,43,0.09785474,0.15733781,0.24894192,0.07349037,0.12672169,0.19109885
46065,0,USSouthDakotaHughes,South Dakota,Hughes,2021-01-05 10:46:10.588874,2020-06-22 00:00:00.000000,0.18604988,0.29414679,0.49812457,32,51,87,16,27,44,0.09530910,0.15782549,0.25452969,0.07514171,0.12708591,0.18157423
46065,0,USSouthDakotaHughes,South Dakota,Hughes,2021-01-05 10:46:10.588874,2020-06-23 00:00:00.000000,0.18904356,0.29488013,0.49072175,33,51,86,16,28,46,0.09526786,0.16089971,0.26681877,0.07568163,0.12806699,0.17259688
46065,0,USSouthDakotaHughes,South Dakota,Hughes,2021-01-05 10:46:10.588874,2020-06-24 00:00:00.000000,0.18726689,0.30226535,0.50126672,32,52,87,17,27,46,0.10019884,0.15964351,0.26249647,0.07587730,0.12757379,0.17409298
46065,0,USSouthDakotaHughes,South Dakota,Hughes,2021-01-05 10:46:10.588874,2020-06-25 00:00:00.000000,0.18095656,0.30453608,0.50028093,31,53,87,18,27,46,0.10520064,0.15711610,0.26664008,0.07605161,0.12733941,0.17513432
46065,0,USSouthDakotaHughes,South Dakota,Hughes,2021-01-05 10:46:10.588874,2020-06-26 00:00:00.000000,0.18195716,0.30798082,0.49809268,31,53,87,18,27,46,0.10470060,0.15814916,0.26410681,0.07627290,0.12762075,0.17557287
46065,0,USSouthDakotaHughes,South Dakota,Hughes,2021-01-05 10:46:10.588874,2020-06-27 00:00:00.000000,0.17704258,0.31092693,0.49634607,31,54,86,17,28,46,0.10121089,0.16259164,0.26575440,0.07691106,0.12895336,0.17455357
46065,0,USSouthDakotaHughes,South Dakota,Hughes,2021-01-05 10:46:10.588874,2020-06-28 00:00:00.000000,0.17217422,0.30807404,0.49470391,30,53,86,17,29,46,0.09785214,0.16622266,0.26651572,0.07873195,0.12968412,0.17968270
46065,0,USSouthDakotaHughes,South Dakota,Hughes,2021-01-05 10:46:10.588874,2020-06-29 00:00:00.000000,0.17292198,0.30630277,0.49420294,30,53,86,16,29,46,0.09630917,0.17039620,0.26666182,0.08159624,0.12993050,0.18173973
46065,0,USSouthDakotaHughes,South Dakota,Hughes,2021-01-05 10:46:10.588874,2020-06-30 00:00:00.000000,0.17386165,0.30387114,0.49308559,30,53,86,16,29,46,0.09531117,0.17054750,0.26648001,0.08257683,0.13031147,0.18220260
46065,0,USSouthDakotaHughes,South Dakota,Hughes,2021-01-05 10:46:10.588874,2020-07-01 00:00:00.000000,0.17510150,0.29914386,0.49116121,30,52,86,16,30,46,0.09635018,0.17229769,0.26688922,0.08195132,0.13111326,0.18299266
46065,0,USSouthDakotaHughes,South Dakota,Hughes,2021-01-05 10:46:10.588874,2020-07-02 00:00:00.000000,0.17657156,0.29603615,0.48828714,30,51,85,16,30,46,0.09609113,0.17120830,0.26539368,0.07972805,0.13173108,0.18247559
46065,0,USSouthDakotaHughes,South Dakota,Hughes,2021-01-05 10:46:10.588874,2020-07-03 00:00:00.000000,0.16972751,0.29330897,0.48392888,29,51,84,16,29,46,0.09619980,0.16695382,0.26438082,0.08132076,0.12875880,0.18306194
46065,0,USSouthDakotaHughes,South Dakota,Hughes,2021-01-05 10:46:10.588874,2020-07-04 00:00:00.000000,0.16324702,0.29171358,0.46888163,28,51,82,16,29,46,0.09650933,0.16575649,0.26315805,0.08119189,0.12640830,0.18432263
46065,0,USSouthDakotaHughes,South Dakota,Hughes,2021-01-05 10:46:10.588874,2020-07-05 00:00:00.000000,0.15745730,0.28958589,0.46515963,27,50,81,16,29,45,0.09417508,0.16558187,0.26224602,0.08051067,0.12884768,0.18432640
46065,0,USSouthDakotaHughes,South Dakota,Hughes,2021-01-05 10:46:10.588874,2020-07-06 00:00:00.000000,0.16172177,0.28630314,0.45837364,28,50,80,16,28,45,0.09268918,0.16272361,0.26110899,0.07995949,0.12829420,0.19269988
46065,0,USSouthDakotaHughes,South Dakota,Hughes,2021-01-05 10:46:10.588874,2020-07-07 00:00:00.000000,0.16570735,0.27986421,0.45115389,29,49,79,16,28,44,0.09244914,0.16109245,0.25642456,0.07968425,0.13082700,0.19370019
46065,0,USSouthDakotaHughes,South Dakota,Hughes,2021-01-05 10:46:10.588874,2020-07-08 00:00:00.000000,0.16799521,0.27328209,0.44339540,29,47,77,16,27,44,0.09151966,0.15849265,0.25395813,0.07981454,0.13150450,0.19201543
46065,0,USSouthDakotaHughes,South Dakota,Hughes,2021-01-05 10:46:10.588874,2020-07-09 00:00:00.000000,0.16901217,0.26744770,0.43765749,29,46,76,16,27,44,0.09158337,0.15730297,0.25134543,0.08125072,0.13221421,0.19103569
46065,0,USSouthDakotaHughes,South Dakota,Hughes,2021-01-05 10:46:10.588874,2020-07-10 00:00:00.000000,0.16706130,0.26684542,0.44924681,29,46,78,16,27,43,0.09212849,0.15456804,0.24837713,0.08279391,0.13568884,0.19437760
46065,0,USSouthDakotaHughes,South Dakota,Hughes,2021-01-05 10:46:10.588874,2020-07-11 00:00:00.000000,0.16550836,0.26229968,0.44512034,29,45,78,16,26,43,0.09171793,0.15341368,0.24553741,0.08518699,0.13927436,0.19756729
46065,0,USSouthDakotaHughes,South Dakota,Hughes,2021-01-05 10:46:10.588874,2020-07-12 00:00:00.000000,0.16430812,0.25926069,0.44167911,28,45,77,15,26,42,0.09111251,0.15290513,0.24369349,0.08400661,0.14195068,0.19593504
46065,0,USSouthDakotaHughes,South Dakota,Hughes,2021-01-05 10:46:10.588874,2020-07-13 00:00:00.000000,0.15917124,0.25797214,0.43235968,27,45,75,15,26,42,0.08923555,0.14925437,0.24154660,0.08345196,0.14509384,0.19801300
46065,0,USSouthDakotaHughes,South Dakota,Hughes,2021-01-05 10:46:10.588874,2020-07-14 00:00:00.000000,0.16470058,0.25632996,0.42534195,28,44,74,15,26,41,0.08806982,0.14844948,0.23836216,0.08318694,0.14917450,0.20074160
46065,0,USSouthDakotaHughes,South Dakota,Hughes,2021-01-05 10:46:10.588874,2020-07-15 00:00:00.000000,0.16193588,0.25493657,0.41996872,28,44,73,15,25,41,0.08588948,0.14760075,0.23493687,0.08309445,0.15227321,0.20858277
46065,0,USSouthDakotaHughes,South Dakota,Hughes,2021-01-05 10:46:10.588874,2020-07-16 00:00:00.000000,0.15954210,0.25910480,0.41517773,27,45,72,14,26,40,0.08410854,0.14848961,0.23170233,0.08341941,0.15262719,0.21006214
46065,0,USSouthDakotaHughes,South Dakota,Hughes,2021-01-05 10:46:10.588874,2020-07-17 00:00:00.000000,0.15759335,0.25588425,0.41020378,27,44,71,14,26,40,0.08497237,0.14859662,0.22871370,0.08617916,0.15507960,0.22697305
46065,0,USSouthDakotaHughes,South Dakota,Hughes,2021-01-05 10:46:10.588874,2020-07-18 00:00:00.000000,0.15586384,0.25635084,0.42082068,27,44,73,14,26,40,0.08263469,0.14935156,0.22911251,0.08757560,0.15776462,0.24587736
46065,0,USSouthDakotaHughes,South Dakota,Hughes,2021-01-05 10:46:10.588874,2020-07-19 00:00:00.000000,0.15431522,0.25862946,0.42039384,27,45,73,14,26,40,0.08021927,0.14887929,0.23119546,0.08869772,0.16025514,0.25134974
46065,0,USSouthDakotaHughes,South Dakota,Hughes,2021-01-05 10:46:10.588874,2020-07-20 00:00:00.000000,0.15966711,0.26072890,0.41744946,27,45,73,13,25,41,0.07920135,0.14596858,0.23913310,0.09106541,0.16118995,0.25177570
46065,0,USSouthDakotaHughes,South Dakota,Hughes,2021-01-05 10:46:10.588874,2020-07-21 00:00:00.000000,0.15809141,0.26254797,0.41346711,27,46,72,14,25,42,0.08284205,0.14670331,0.24012018,0.09269718,0.16340007,0.25192058
46065,0,USSouthDakotaHughes,South Dakota,Hughes,2021-01-05 10:46:10.588874,2020-07-22 00:00:00.000000,0.15664260,0.26323334,0.40186411,27,46,70,14,25,41,0.08156276,0.14586620,0.23738544,0.09647062,0.16702510,0.25795547
46065,0,USSouthDakotaHughes,South Dakota,Hughes,2021-01-05 10:46:10.588874,2020-07-23 00:00:00.000000,0.15284315,0.26633655,0.40800595,26,46,71,13,25,41,0.07920228,0.14721546,0.23441913,0.09592942,0.17122828,0.26026300
46065,0,USSouthDakotaHughes,South Dakota,Hughes,2021-01-05 10:46:10.588874,2020-07-24 00:00:00.000000,0.14908440,0.27061513,0.42399130,26,47,74,13,26,41,0.07682299,0.15018079,0.23524607,0.09507402,0.17408763,0.26461320
46065,0,USSouthDakotaHughes,South Dakota,Hughes,2021-01-05 10:46:10.588874,2020-07-25 00:00:00.000000,0.14568105,0.27454359,0.44018352,25,48,77,13,26,41,0.07447194,0.15102344,0.23522178,0.09507198,0.17832153,0.27368558
46065,0,USSouthDakotaHughes,South Dakota,Hughes,2021-01-05 10:46:10.588874,2020-07-26 00:00:00.000000,0.14262701,0.27694697,0.45576962,24,48,79,12,26,41,0.07218765,0.15057206,0.23787320,0.10630206,0.18200202,0.27502294
46065,0,USSouthDakotaHughes,South Dakota,Hughes,2021-01-05 10:46:10.588874,2020-07-27 00:00:00.000000,0.14109982,0.27805088,0.46881948,24,48,82,12,26,43,0.07109782,0.15181531,0.24660108,0.11357540,0.18536601,0.27707292
46065,0,USSouthDakotaHughes,South Dakota,Hughes,2021-01-05 10:46:10.588874,2020-07-28 00:00:00.000000,0.15580956,0.28086162,0.46943748,27,49,82,12,26,44,0.07115620,0.15198823,0.25223646,0.11311932,0.19103876,0.28075753
46065,0,USSouthDakotaHughes,South Dakota,Hughes,2021-01-05 10:46:10.588874,2020-07-29 00:00:00.000000,0.15790028,0.28062609,0.47462514,27,49,83,12,27,44,0.07392282,0.15523012,0.25566921,0.11544331,0.19442044,0.28264263
46065,0,USSouthDakotaHughes,South Dakota,Hughes,2021-01-05 10:46:10.588874,2020-07-30 00:00:00.000000,0.15996052,0.28485463,0.47594555,28,49,83,13,27,45,0.07617053,0.15688478,0.25774758,0.11594107,0.19710307,0.29233161
46065,0,USSouthDakotaHughes,South Dakota,Hughes,2021-01-05 10:46:10.588874,2020-07-31 00:00:00.000000,0.15800533,0.29345493,0.47675788,27,51,83,12,27,45,0.07379061,0.15923847,0.25899330,0.11608319,0.20404146,0.30669747
46065,0,USSouthDakotaHughes,South Dakota,Hughes,2021-01-05 10:46:10.588874,2020-08-01 00:00:00.000000,0.15663284,0.30224100,0.47731673,27,52,83,12,28,45,0.07400744,0.16017572,0.25973753,0.11846851,0.21212951,0.31774496
46065,0,USSouthDakotaHughes,South Dakota,Hughes,2021-01-05 10:46:10.588874,2020-08-02 00:00:00.000000,0.15736076,0.30552960,0.47878357,27,53,83,13,28,45,0.07575337,0.16192015,0.26191792,0.12407781,0.21810729,0.36168621
46065,0,USSouthDakotaHughes,South Dakota,Hughes,2021-01-05 10:46:10.588874,2020-08-03 00:00:00.000000,0.16150458,0.30858172,0.49876990,28,54,87,13,28,46,0.07817702,0.16485776,0.26673184,0.12944404,0.22133153,0.36622336
46065,0,USSouthDakotaHughes,South Dakota,Hughes,2021-01-05 10:46:10.588874,2020-08-04 00:00:00.000000,0.17054851,0.31728787,0.51611459,29,55,90,14,29,47,0.08146019,0.16771381,0.26884869,0.13397837,0.22997898,0.36825423
46065,0,USSouthDakotaHughes,South Dakota,Hughes,2021-01-05 10:46:10.588874,2020-08-05 00:00:00.000000,0.17807969,0.32554244,0.51139313,31,57,89,15,29,47,0.08995098,0.17020909,0.27080996,0.13751725,0.23429074,0.36861206
46065,0,USSouthDakotaHughes,South Dakota,Hughes,2021-01-05 10:46:10.588874,2020-08-06 00:00:00.000000,0.18585679,0.32932277,0.52954837,32,57,92,15,30,49,0.09117403,0.17616791,0.28059091,0.14026490,0.23785731,0.36741566
46065,0,USSouthDakotaHughes,South Dakota,Hughes,2021-01-05 10:46:10.588874,2020-08-07 00:00:00.000000,0.19320093,0.33490612,0.55477685,33,58,97,16,31,51,0.09151428,0.17926214,0.29179457,0.14280075,0.25179214,0.36436418
46065,0,USSouthDakotaHughes,South Dakota,Hughes,2021-01-05 10:46:10.588874,2020-08-08 00:00:00.000000,0.19760993,0.34413552,0.57666446,34,60,101,16,32,54,0.09428826,0.18399660,0.31069381,0.14816759,0.25502717,0.40221367
46065,0,USSouthDakotaHughes,South Dakota,Hughes,2021-01-05 10:46:10.588874,2020-08-09 00:00:00.000000,0.20306469,0.36514513,0.61780139,35,63,108,17,33,57,0.09764542,0.19053382,0.32975443,0.16099291,0.26134245,0.40839770
46065,0,USSouthDakotaHughes,South Dakota,Hughes,2021-01-05 10:46:10.588874,2020-08-10 00:00:00.000000,0.22855253,0.37186684,0.63003934,40,65,110,17,34,61,0.10190300,0.19488964,0.34889012,0.18234007,0.27411173,0.41893995
46065,0,USSouthDakotaHughes,South Dakota,Hughes,2021-01-05 10:46:10.588874,2020-08-11 00:00:00.000000,0.23818409,0.39003465,0.65013287,41,68,113,19,34,63,0.10966002,0.19865772,0.36051670,0.18400807,0.28220193,0.41952032
46065,0,USSouthDakotaHughes,South Dakota,Hughes,2021-01-05 10:46:10.588874,2020-08-12 00:00:00.000000,0.23763517,0.40728281,0.67030326,41,71,117,21,35,64,0.12052118,0.20485671,0.36817165,0.19668300,0.29300897,0.42805012
46065,0,USSouthDakotaHughes,South Dakota,Hughes,2021-01-05 10:46:10.588874,2020-08-13 00:00:00.000000,0.23955518,0.43197775,0.68967223,41,75,120,22,37,67,0.13116334,0.21288684,0.38719568,0.19949472,0.30600474,0.43509629
46065,0,USSouthDakotaHughes,South Dakota,Hughes,2021-01-05 10:46:10.588874,2020-08-14 00:00:00.000000,0.24282350,0.44898343,0.71037545,42,78,124,23,38,71,0.13295245,0.22248175,0.40537519,0.19983472,0.31757874,0.43430944
46065,0,USSouthDakotaHughes,South Dakota,Hughes,2021-01-05 10:46:10.588874,2020-08-15 00:00:00.000000,0.25658594,0.46565067,0.73329858,44,81,128,23,40,73,0.13400800,0.23263767,0.41822878,0.20176866,0.33216964,0.47199825
46065,0,USSouthDakotaHughes,South Dakota,Hughes,2021-01-05 10:46:10.588874,2020-08-16 00:00:00.000000,0.27607503,0.48412844,0.75922123,48,84,133,24,43,75,0.13834037,0.24642130,0.43080493,0.21146975,0.33971248,0.50757570
46065,0,USSouthDakotaHughes,South Dakota,Hughes,2021-01-05 10:46:10.588874,2020-08-17 00:00:00.000000,0.30028459,0.51070088,0.78862868,52,89,138,26,45,77,0.14892746,0.25822232,0.44327608,0.23178163,0.34829220,0.51286764
46065,0,USSouthDakotaHughes,South Dakota,Hughes,2021-01-05 10:46:10.588874,2020-08-18 00:00:00.000000,0.32525302,0.54266151,0.85021261,57,95,149,28,47,79,0.16113540,0.27289662,0.45277608,0.23731661,0.35954386,0.51373281
46065,0,USSouthDakotaHughes,South Dakota,Hughes,2021-01-05 10:46:10.588874,2020-08-19 00:00:00.000000,0.35142990,0.58475903,0.91620612,61,102,160,30,50,80,0.17446400,0.29038493,0.46072500,0.25474970,0.37116901,0.51397250
46065,0,USSouthDakotaHughes,South Dakota,Hughes,2021-01-05 10:46:10.588874,2020-08-20 00:00:00.000000,0.37972514,0.61999973,0.96360406,66,108,168,33,54,82,0.18871225,0.30956088,0.47232359,0.28909805,0.39040158,0.53971543
46065,0,USSouthDakotaHughes,South Dakota,Hughes,2021-01-05 10:46:10.588874,2020-08-21 00:00:00.000000,0.41249116,0.66437917,1.00201476,72,116,175,35,57,87,0.20401186,0.32623102,0.50122460,0.30527472,0.42151473,0.63541025
46065,0,USSouthDakotaHughes,South Dakota,Hughes,2021-01-05 10:46:10.588874,2020-08-22 00:00:00.000000,0.44056588,0.72337359,1.08174491,77,126,189,38,60,93,0.22034597,0.34449150,0.53244943,0.31565406,0.44069918,0.66762775
46065,0,USSouthDakotaHughes,South Dakota,Hughes,2021-01-05 10:46:10.588874,2020-08-23 00:00:00.000000,0.46835404,0.78990986,1.17144280,82,138,205,40,63,99,0.23335760,0.36350336,0.56567316,0.31758492,0.46637688,0.67037030
46065,0,USSouthDakotaHughes,South Dakota,Hughes,2021-01-05 10:46:10.588874,2020-08-24 00:00:00.000000,0.50558410,0.84387769,1.26116348,88,147,221,43,68,105,0.24773949,0.39160787,0.60088298,0.32157455,0.48346761,0.69407861
46065,0,USSouthDakotaHughes,South Dakota,Hughes,2021-01-05 10:46:10.588874,2020-08-25 00:00:00.000000,0.54518443,0.91399552,1.40294987,95,160,245,46,73,111,0.26578488,0.42150914,0.63697036,0.35700606,0.49273092,0.72463946
46065,0,USSouthDakotaHughes,South Dakota,Hughes,2021-01-05 10:46:10.588874,2020-08-26 00:00:00.000000,0.58971261,0.98337489,1.56178286,103,172,273,50,80,119,0.28618986,0.45845717,0.68071297,0.37075043,0.50940938,0.74748743
46065,0,USSouthDakotaHughes,South Dakota,Hughes,2021-01-05 10:46:10.588874,2020-08-27 00:00:00.000000,0.66161694,1.07894742,1.73145784,115,189,303,54,87,127,0.30895488,0.49769257,0.72770617,0.39011397,0.53450400,0.75234583
46065,0,USSouthDakotaHughes,South Dakota,Hughes,2021-01-05 10:46:10.588874,2020-08-28 00:00:00.000000,0.75878119,1.16923274,1.91382081,132,204,335,58,95,135,0.33501014,0.54463998,0.77038597,0.40997586,0.55173535,0.78839630
46065,0,USSouthDakotaHughes,South Dakota,Hughes,2021-01-05 10:46:10.588874,2020-08-29 00:00:00.000000,0.82579834,1.29748947,2.11276717,144,227,370,64,103,145,0.36579432,0.59138629,0.83118020,0.42683209,0.59402956,0.81490344
46065,0,USSouthDakotaHughes,South Dakota,Hughes,2021-01-05 10:46:10.588874,2020-08-30 00:00:00.000000,0.88437600,1.42119322,2.33221153,154,249,408,70,114,160,0.40249182,0.65068590,0.91825254,0.44331151,0.61272271,0.86837426
46065,0,USSouthDakotaHughes,South Dakota,Hughes,2021-01-05 10:46:10.588874,2020-08-31 00:00:00.000000,0.97327587,1.57718308,2.56253047,170,276,449,80,124,175,0.45865303,0.71134593,1.00017269,0.46959977,0.64526529,0.89572306
46065,0,USSouthDakotaHughes,South Dakota,Hughes,2021-01-05 10:46:10.588874,2020-09-01 00:00:00.000000,1.09389857,1.74501370,2.83267295,191,305,496,87,136,189,0.49675507,0.77902341,1.08379809,0.48108838,0.66054493,0.89722499
46065,0,USSouthDakotaHughes,South Dakota,Hughes,2021-01-05 10:46:10.588874,2020-09-02 00:00:00.000000,1.24096460,1.92675508,3.13489274,217,337,549,97,150,209,0.55389066,0.85851609,1.19756164,0.49487568,0.69425392,0.89894324
46065,0,USSouthDakotaHughes,South Dakota,Hughes,2021-01-05 10:46:10.588874,2020-09-03 00:00:00.000000,1.36371322,2.13762273,3.47700212,239,374,609,109,164,232,0.62230020,0.94129166,1.32676202,0.49829314,0.71739146,0.90300386
46065,0,USSouthDakotaHughes,South Dakota,Hughes,2021-01-05 10:46:10.588874,2020-09-04 00:00:00.000000,1.55310209,2.38038447,3.88441309,272,417,680,124,183,258,0.71190173,1.04546536,1.47575206,0.52990803,0.73321676,0.91790266
46065,0,USSouthDakotaHughes,South Dakota,Hughes,2021-01-05 10:46:10.588874,2020-09-05 00:00:00.000000,1.78065005,2.67323638,4.37141515,312,468,766,138,204,287,0.79295959,1.16426661,1.64265195,0.54709354,0.76057692,0.92411664
46065,0,USSouthDakotaHughes,South Dakota,Hughes,2021-01-05 10:46:10.588874,2020-09-06 00:00:00.000000,2.05370434,2.97723623,4.92524790,359,521,863,158,230,324,0.90480942,1.31320755,1.85194063,0.56450230,0.77025795,0.93424246
46065,0,USSouthDakotaHughes,South Dakota,Hughes,2021-01-05 10:46:10.588874,2020-09-07 00:00:00.000000,2.34547442,3.34695793,5.55712026,411,586,973,182,259,365,1.04089875,1.48043603,2.08636147,0.60279395,0.78440945,0.93634082
46065,0,USSouthDakotaHughes,South Dakota,Hughes,2021-01-05 10:46:10.588874,2020-09-08 00:00:00.000000,2.68663001,3.75671767,6.25308675,470,658,1095,208,293,411,1.19229717,1.67668822,2.35034865,0.61261783,0.78614992,0.93746999
46065,0,USSouthDakotaHughes,South Dakota,Hughes,2021-01-05 10:46:10.588874,2020-09-09 00:00:00.000000,3.07602316,4.24978799,7.01347733,539,744,1229,239,327,463,1.36453028,1.87100789,2.64216012,0.61000310,0.79149088,0.93786165
46065,0,USSouthDakotaHughes,South Dakota,Hughes,2021-01-05 10:46:10.588874,2020-09-10 00:00:00.000000,3.52165703,4.78730496,7.72451715,617,839,1353,273,369,518,1.56111377,2.10621272,2.95783080,0.60733823,0.78662130,0.94514253
46065,0,USSouthDakotaHughes,South Dakota,Hughes,2021-01-05 10:46:10.588874,2020-09-11 00:00:00.000000,4.03703621,5.40507484,8.39978255,707,947,1472,312,412,577,1.78522991,2.35415461,3.29719505,0.61319144,0.77586218,0.94772144
46065,0,USSouthDakotaHughes,South Dakota,Hughes,2021-01-05 10:46:10.588874,2020-09-12 00:00:00.000000,4.58074190,6.01387783,8.94268824,802,1053,1567,351,459,634,2.00714048,2.61937675,3.61982834,0.58309797,0.75765690,0.94805427
46065,0,USSouthDakotaHughes,South Dakota,Hughes,2021-01-05 10:46:10.588874,2020-09-13 00:00:00.000000,5.14699519,6.65376366,9.72674403,902,1166,1704,389,506,692,2.22495428,2.89233493,3.95368301,0.51035814,0.70624425,0.92569548
46065,0,USSouthDakotaHughes,South Dakota,Hughes,2021-01-05 10:46:10.588874,2020-09-14 00:00:00.000000,5.72609114,7.27333177,10.83635579,1003,1274,1899,431,567,778,2.46216904,3.23825731,4.44440201,0.45009112,0.66863092,0.89945265
46065,0,USSouthDakotaHughes,South Dakota,Hughes,2021-01-05 10:46:10.588874,2020-09-15 00:00:00.000000,6.12905736,7.96356654,11.45981897,1074,1395,2008,475,621,869,2.71222074,3.54620882,4.96225432,0.40563255,0.60857605,0.83535128
46065,0,USSouthDakotaHughes,South Dakota,Hughes,2021-01-05 10:46:10.588874,2020-09-16 00:00:00.000000,6.42342250,8.53338939,11.78560808,1125,1495,2065,521,689,950,2.97641907,3.93571650,5.42223354,0.36632929,0.51959967,0.70186623
46065,0,USSouthDakotaHughes,South Dakota,Hughes,2021-01-05 10:46:10.588874,2020-09-17 00:00:00.000000,6.64641820,8.77833035,11.86778862,1164,1538,2079,564,744,1009,3.22173118,4.24693632,5.76060632,0.31595271,0.44768653,0.59895075
46065,0,USSouthDakotaHughes,South Dakota,Hughes,2021-01-05 10:46:10.588874,2020-09-18 00:00:00.000000,6.82529966,9.04866431,11.90396875,1196,1585,2086,588,794,1068,3.35923939,4.53606644,6.09796220,0.28780758,0.39368321,0.56280164
46065,0,USSouthDakotaHughes,South Dakota,Hughes,2021-01-05 10:46:10.588874,2020-09-19 00:00:00.000000,6.91638091,9.02303732,11.91005187,1212,1581,2087,612,826,1104,3.49450922,4.71507734,6.30014628,0.26246333,0.35181370,0.53055673
46065,0,USSouthDakotaHughes,South Dakota,Hughes,2021-01-05 10:46:10.588874,2020-09-20 00:00:00.000000,6.97534577,8.96233321,11.89246761,1222,1570,2084,637,848,1118,3.63678958,4.83953231,6.38427357,0.24119828,0.33479077,0.45572254
46065,0,USSouthDakotaHughes,South Dakota,Hughes,2021-01-05 10:46:10.588874,2020-09-21 00:00:00.000000,7.02689647,8.95211042,11.86242357,1231,1568,2079,648,863,1121,3.69928627,4.92927199,6.40184229,0.23395640,0.32117458,0.43771293
46065,0,USSouthDakotaHughes,South Dakota,Hughes,2021-01-05 10:46:10.588874,2020-09-22 00:00:00.000000,7.05513865,8.93866748,11.78530019,1236,1566,2065,643,880,1134,3.67372155,5.02462091,6.47450043,0.23240921,0.31368978,0.40366929
46065,0,USSouthDakotaHughes,South Dakota,Hughes,2021-01-05 10:46:10.588874,2020-09-23 00:00:00.000000,7.06389250,8.83720034,11.70264338,1238,1548,2051,638,878,1142,3.64534831,5.01356801,6.51846587,0.22068064,0.30014190,0.39687378
46065,0,USSouthDakotaHughes,South Dakota,Hughes,2021-01-05 10:46:10.588874,2020-09-24 00:00:00.000000,7.04323375,8.80169440,11.43788162,1234,1542,2004,633,881,1158,3.61367291,5.02734847,6.61200435,0.21815037,0.29034836,0.38337694
46065,0,USSouthDakotaHughes,South Dakota,Hughes,2021-01-05 10:46:10.588874,2020-09-25 00:00:00.000000,6.98144940,8.65786792,11.15008099,1223,1517,1954,627,879,1174,3.57894453,5.02101339,6.70035269,0.21722691,0.27430049,0.37605681
46065,0,USSouthDakotaHughes,South Dakota,Hughes,2021-01-05 10:46:10.588874,2020-09-26 00:00:00.000000,6.84098126,8.52544443,10.87209284,1198,1494,1905,620,874,1183,3.54294736,4.99178167,6.75202747,0.21442329,0.26884313,0.36755746
46065,0,USSouthDakotaHughes,South Dakota,Hughes,2021-01-05 10:46:10.588874,2020-09-27 00:00:00.000000,6.67826437,8.42190491,10.75295212,1170,1476,1884,621,862,1185,3.54713014,4.91988744,6.76458498,0.21054484,0.26884770,0.35952773
46065,0,USSouthDakotaHughes,South Dakota,Hughes,2021-01-05 10:46:10.588874,2020-09-28 00:00:00.000000,6.50849277,8.27344286,10.70264398,1140,1450,1875,620,844,1180,3.53808899,4.82002062,6.73316316,0.19792119,0.26357126,0.35497116
46065,0,USSouthDakotaHughes,South Dakota,Hughes,2021-01-05 10:46:10.588874,2020-09-29 00:00:00.000000,6.33397875,8.12233212,10.60462774,1110,1423,1858,616,829,1168,3.51489590,4.73381652,6.66608032,0.19337512,0.26345435,0.35597963
46065,0,USSouthDakotaHughes,South Dakota,Hughes,2021-01-05 10:46:10.588874,2020-09-30 00:00:00.000000,6.15770516,7.98011780,10.48663598,1079,1398,1837,610,811,1151,3.48079268,4.63042738,6.56879261,0.19399921,0.26400139,0.35590010
46065,0,USSouthDakotaHughes,South Dakota,Hughes,2021-01-05 10:46:10.588874,2020-10-01 00:00:00.000000,5.98142018,7.74891854,10.35166244,1048,1358,1814,602,795,1129,3.43843500,4.54156694,6.44567337,0.19711855,0.26631918,0.34793780
46065,0,USSouthDakotaHughes,South Dakota,Hughes,2021-01-05 10:46:10.588874,2020-10-02 00:00:00.000000,5.79743145,7.57634038,10.17914732,1016,1327,1783,591,782,1105,3.37677541,4.46598102,6.30812666,0.19540250,0.26866498,0.33975324
46065,0,USSouthDakotaHughes,South Dakota,Hughes,2021-01-05 10:46:10.588874,2020-10-03 00:00:00.000000,5.56564005,7.45449663,9.95579190,975,1306,1744,575,767,1092,3.28101939,4.38033183,6.23410019,0.20185192,0.26900224,0.33553742
46065,0,USSouthDakotaHughes,South Dakota,Hughes,2021-01-05 10:46:10.588874,2020-10-04 00:00:00.000000,5.34151054,7.28704948,9.77902756,936,1277,1713,558,752,1082,3.18494769,4.29540014,6.17775925,0.20330502,0.27246363,0.33528281
46065,0,USSouthDakotaHughes,South Dakota,Hughes,2021-01-05 10:46:10.588874,2020-10-05 00:00:00.000000,5.12660103,7.10918449,9.56886870,898,1245,1677,541,735,1073,3.08898859,4.19608583,6.12673503,0.19908562,0.27453976,0.33914257
46065,0,USSouthDakotaHughes,South Dakota,Hughes,2021-01-05 10:46:10.588874,2020-10-06 00:00:00.000000,4.91970063,6.90384427,9.40174822,862,1209,1647,524,715,1055,2.99503428,4.08451004,6.02251529,0.19728524,0.27670943,0.35961856
46065,0,USSouthDakotaHughes,South Dakota,Hughes,2021-01-05 10:46:10.588874,2020-10-07 00:00:00.000000,4.72233059,6.74653911,9.22909630,827,1182,1617,508,702,1030,2.90273314,4.01071431,5.87788022,0.19745671,0.27888774,0.36239119
46065,0,USSouthDakotaHughes,South Dakota,Hughes,2021-01-05 10:46:10.588874,2020-10-08 00:00:00.000000,4.53974638,6.62010246,9.18428151,795,1160,1609,492,686,1006,2.81192344,3.91418860,5.74101389,0.19700046,0.28216815,0.36223914
46065,0,USSouthDakotaHughes,South Dakota,Hughes,2021-01-05 10:46:10.588874,2020-10-09 00:00:00.000000,4.42949274,6.48275981,9.16964132,776,1136,1607,476,668,984,2.72143907,3.81410981,5.61685660,0.19764388,0.28903167,0.36263711
46065,0,USSouthDakotaHughes,South Dakota,Hughes,2021-01-05 10:46:10.588874,2020-10-10 00:00:00.000000,4.33590319,6.36293598,9.15915136,759,1115,1605,461,653,965,2.63216437,3.72657073,5.50925714,0.20040823,0.29716176,0.37726547
46065,0,USSouthDakotaHughes,South Dakota,Hughes,2021-01-05 10:46:10.588874,2020-10-11 00:00:00.000000,4.24838419,6.24294406,9.04739611,744,1094,1585,446,637,941,2.54512406,3.63723346,5.37184371,0.21021161,0.30557787,0.39705055
46065,0,USSouthDakotaHughes,South Dakota,Hughes,2021-01-05 10:46:10.588874,2020-10-12 00:00:00.000000,4.15222062,6.16576578,8.91060064,727,1080,1561,431,625,916,2.46108135,3.56646074,5.23141411,0.23667639,0.31392241,0.41297252
46065,0,USSouthDakotaHughes,South Dakota,Hughes,2021-01-05 10:46:10.588874,2020-10-13 00:00:00.000000,4.07711429,6.12337737,8.77455835,714,1073,1537,417,613,896,2.38094001,3.50199922,5.11666634,0.24566552,0.32580837,0.43668987
46065,0,USSouthDakotaHughes,South Dakota,Hughes,2021-01-05 10:46:10.588874,2020-10-14 00:00:00.000000,4.04131348,6.02474564,8.64609024,708,1055,1515,404,601,880,2.31044863,3.43359864,5.02586467,0.25215866,0.33849786,0.46562146
46065,0,USSouthDakotaHughes,South Dakota,Hughes,2021-01-05 10:46:10.588874,2020-10-15 00:00:00.000000,4.03437168,5.94876246,8.63875649,707,1042,1514,395,591,868,2.25930071,3.37598895,4.95645371,0.26044658,0.35643207,0.50850003
46065,0,USSouthDakotaHughes,South Dakota,Hughes,2021-01-05 10:46:10.588874,2020-10-16 00:00:00.000000,4.08159911,5.97523351,8.71009407,715,1047,1526,391,587,859,2.23128404,3.35053089,4.90639199,0.27182578,0.38074520,0.53140666
46065,0,USSouthDakotaHughes,South Dakota,Hughes,2021-01-05 10:46:10.588874,2020-10-17 00:00:00.000000,4.17201968,5.96937063,8.70775185,731,1046,1526,390,591,854,2.22722087,3.37411161,4.87395346,0.27572736,0.39233668,0.56419395
46065,0,USSouthDakotaHughes,South Dakota,Hughes,2021-01-05 10:46:10.588874,2020-10-18 00:00:00.000000,4.28206172,5.97477988,8.67711596,750,1047,1520,396,590,851,2.26165425,3.37099318,4.85722859,0.29866976,0.41736937,0.58975967
46065,0,USSouthDakotaHughes,South Dakota,Hughes,2021-01-05 10:46:10.588874,2020-10-19 00:00:00.000000,4.40127598,5.98544518,8.71769196,771,1049,1527,401,583,850,2.29013385,3.32860487,4.85415758,0.31830001,0.43952903,0.59693099
46065,0,USSouthDakotaHughes,South Dakota,Hughes,2021-01-05 10:46:10.588874,2020-10-20 00:00:00.000000,4.46206511,6.09359799,8.86497042,782,1067,1553,404,585,854,2.30742202,3.34330436,4.87482537,0.31949866,0.45041278,0.60426756
46065,0,USSouthDakotaHughes,South Dakota,Hughes,2021-01-05 10:46:10.588874,2020-10-21 00:00:00.000000,4.45560761,6.23078400,9.05380837,780,1092,1586,410,587,873,2.34181489,3.35093756,4.98182820,0.32117152,0.47198369,0.61770611
46065,0,USSouthDakotaHughes,South Dakota,Hughes,2021-01-05 10:46:10.588874,2020-10-22 00:00:00.000000,4.49051462,6.29281605,9.12180935,787,1102,1598,415,595,889,2.36812839,3.39578579,5.07343351,0.32379011,0.48728374,0.66844462
46065,0,USSouthDakotaHughes,South Dakota,Hughes,2021-01-05 10:46:10.588874,2020-10-23 00:00:00.000000,4.59813109,6.37138048,9.19291874,805,1116,1611,424,602,901,2.42300175,3.43809315,5.14305531,0.33796109,0.50744253,0.74397735
46065,0,USSouthDakotaHughes,South Dakota,Hughes,2021-01-05 10:46:10.588874,2020-10-24 00:00:00.000000,4.60555826,6.54569194,9.26808579,807,1147,1624,436,613,924,2.49242095,3.50154978,5.27484396,0.39519947,0.53650839,0.74363499
46065,0,USSouthDakotaHughes,South Dakota,Hughes,2021-01-05 10:46:10.588874,2020-10-25 00:00:00.000000,4.66057070,6.74349270,9.34807950,816,1181,1638,450,623,943,2.57227181,3.55594406,5.38434105,0.42611452,0.57332947,0.74896522
46065,0,USSouthDakotaHughes,South Dakota,Hughes,2021-01-05 10:46:10.588874,2020-10-26 00:00:00.000000,4.85020050,7.09331192,9.60896062,850,1243,1684,458,638,970,2.61595494,3.64145637,5.53958573,0.45493630,0.61734117,0.80890169
46065,0,USSouthDakotaHughes,South Dakota,Hughes,2021-01-05 10:46:10.588874,2020-10-27 00:00:00.000000,5.09007514,7.37015439,9.97077873,892,1291,1747,465,661,1010,2.65548540,3.77703191,5.76383465,0.47576819,0.63829239,0.85506301
46065,0,USSouthDakotaHughes,South Dakota,Hughes,2021-01-05 10:46:10.588874,2020-10-28 00:00:00.000000,5.37430793,7.51947656,10.44007543,941,1317,1829,480,686,1051,2.74076011,3.91821502,6.00026339,0.48497513,0.66413879,0.85942776
46065,0,USSouthDakotaHughes,South Dakota,Hughes,2021-01-05 10:46:10.588874,2020-10-29 00:00:00.000000,5.64815371,7.86918235,10.94267109,989,1379,1917,498,723,1094,2.84679050,4.12734292,6.24458983,0.48930266,0.69127123,0.86235570
46065,0,USSouthDakotaHughes,South Dakota,Hughes,2021-01-05 10:46:10.588874,2020-10-30 00:00:00.000000,6.00565837,8.20678376,11.45487166,1052,1438,2007,523,748,1138,2.98528171,4.26866714,6.49478424,0.50840406,0.71373811,0.88733507
46065,0,USSouthDakotaHughes,South Dakota,Hughes,2021-01-05 10:46:10.588874,2020-10-31 00:00:00.000000,6.28044545,8.63959945,11.98519587,1100,1514,2100,541,776,1175,3.09237741,4.43063172,6.70882625,0.54388116,0.72804481,0.92052136
46065,0,USSouthDakotaHughes,South Dakota,Hughes,2021-01-05 10:46:10.588874,2020-11-01 00:00:00.000000,6.59854141,9.09289241,12.55204407,1156,1593,2199,570,816,1213,3.25433758,4.66037415,6.92151975,0.58623908,0.74407431,0.93513731
46065,0,USSouthDakotaHughes,South Dakota,Hughes,2021-01-05 10:46:10.588874,2020-11-02 00:00:00.000000,7.04067129,9.58771034,13.16769281,1233,1680,2307,606,851,1256,3.46170967,4.85633631,7.17207199,0.61076434,0.75463720,0.94749161
46065,0,USSouthDakotaHughes,South Dakota,Hughes,2021-01-05 10:46:10.588874,2020-11-03 00:00:00.000000,7.50957018,10.06290354,13.83600160,1316,1763,2424,644,887,1309,3.67976456,5.06200229,7.47260580,0.61373695,0.76531418,0.95792014
46065,0,USSouthDakotaHughes,South Dakota,Hughes,2021-01-05 10:46:10.588874,2020-11-04 00:00:00.000000,7.98864976,10.61195624,14.53201792,1400,1859,2546,676,936,1367,3.85875648,5.34568703,7.80423647,0.62208698,0.77402705,0.96551197
46065,0,USSouthDakotaHughes,South Dakota,Hughes,2021-01-05 10:46:10.588874,2020-11-05 00:00:00.000000,8.31374814,11.15821067,15.05491019,1457,1955,2638,710,986,1419,4.05376519,5.62597273,8.09756100,0.63129245,0.77553931,0.96191581
46065,0,USSouthDakotaHughes,South Dakota,Hughes,2021-01-05 10:46:10.588874,2020-11-06 00:00:00.000000,8.62328902,11.73994585,15.53183827,1511,2057,2722,748,1028,1462,4.26828370,5.86778623,8.34348388,0.62280433,0.78387595,0.96277771
46065,0,USSouthDakotaHughes,South Dakota,Hughes,2021-01-05 10:46:10.588874,2020-11-07 00:00:00.000000,8.94520825,12.23924375,15.96572483,1567,2145,2798,789,1075,1510,4.50297857,6.13411308,8.61644656,0.62999296,0.78857707,0.94295688
46065,0,USSouthDakotaHughes,South Dakota,Hughes,2021-01-05 10:46:10.588874,2020-11-08 00:00:00.000000,9.22848593,12.63187128,16.32475121,1617,2213,2861,832,1119,1568,4.75235688,6.38979683,8.95139070,0.60779322,0.78879406,0.92879993
46065,0,USSouthDakotaHughes,South Dakota,Hughes,2021-01-05 10:46:10.588874,2020-11-09 00:00:00.000000,9.56076461,12.96848272,16.91270042,1675,2272,2964,877,1164,1617,5.00688831,6.64408927,9.22669596,0.60443772,0.77466690,0.92188613
46065,0,USSouthDakotaHughes,South Dakota,Hughes,2021-01-05 10:46:10.588874,2020-11-10 00:00:00.000000,10.01655941,13.24161834,17.36005290,1755,2320,3042,921,1208,1661,5.25644975,6.89588024,9.48247161,0.58705917,0.76455958,0.92108442
46065,0,USSouthDakotaHughes,South Dakota,Hughes,2021-01-05 10:46:10.588874,2020-11-11 00:00:00.000000,10.46817056,13.68156678,17.59699846,1834,2397,3084,940,1240,1702,5.36641651,7.07661899,9.71373874,0.58594846,0.73868847,0.92241089
46065,0,USSouthDakotaHughes,South Dakota,Hughes,2021-01-05 10:46:10.588874,2020-11-12 00:00:00.000000,10.67992932,13.88844798,17.78302014,1871,2434,3116,956,1265,1737,5.45910485,7.21849044,9.91608729,0.57883977,0.71797898,0.90306997
46065,0,USSouthDakotaHughes,South Dakota,Hughes,2021-01-05 10:46:10.588874,2020-11-13 00:00:00.000000,10.66178651,13.99350876,17.91279698,1868,2452,3139,970,1286,1767,5.53711773,7.33790610,10.08563124,0.54918693,0.70027081,0.87026959
46065,0,USSouthDakotaHughes,South Dakota,Hughes,2021-01-05 10:46:10.588874,2020-11-14 00:00:00.000000,10.61140283,14.14886924,17.69545277,1859,2479,3101,981,1323,1790,5.60055486,7.55156090,10.21903925,0.51481695,0.67598836,0.83178121
46065,0,USSouthDakotaHughes,South Dakota,Hughes,2021-01-05 10:46:10.588874,2020-11-15 00:00:00.000000,10.53449503,14.06240334,17.64293346,1846,2464,3092,990,1345,1807,5.64952552,7.67580038,10.31362963,0.49358064,0.65331002,0.80590717
46065,0,USSouthDakotaHughes,South Dakota,Hughes,2021-01-05 10:46:10.588874,2020-11-16 00:00:00.000000,10.42877960,13.75093668,17.59695766,1827,2409,3084,996,1353,1823,5.68459825,7.72143535,10.40567887,0.46916328,0.61589071,0.78333245
46065,0,USSouthDakotaHughes,South Dakota,Hughes,2021-01-05 10:46:10.588874,2020-11-17 00:00:00.000000,10.30039237,13.62499612,17.32362812,1805,2387,3036,1000,1342,1822,5.70678404,7.65878047,10.39819479,0.42226941,0.57813062,0.76887001
46065,0,USSouthDakotaHughes,South Dakota,Hughes,2021-01-05 10:46:10.588874,2020-11-18 00:00:00.000000,10.14554422,13.37890633,17.02158328,1778,2344,2983,1001,1336,1815,5.71602823,7.62309758,10.35826429,0.41117032,0.56707525,0.76129475
46065,0,USSouthDakotaHughes,South Dakota,Hughes,2021-01-05 10:46:10.588874,2020-11-19 00:00:00.000000,9.92887025,13.07782869,16.89145734,1740,2292,2960,998,1320,1802,5.69953856,7.53525271,10.28728356,0.39281787,0.55727963,0.76393912
46065,0,USSouthDakotaHughes,South Dakota,Hughes,2021-01-05 10:46:10.588874,2020-11-20 00:00:00.000000,9.53884353,12.77919628,16.51537857,1671,2239,2894,962,1312,1784,5.49104520,7.48707335,10.17960993,0.37888010,0.54664673,0.73772482
46065,0,USSouthDakotaHughes,South Dakota,Hughes,2021-01-05 10:46:10.588874,2020-11-21 00:00:00.000000,9.14131484,12.39419715,16.08799297,1602,2172,2819,921,1289,1759,5.25706984,7.35557081,10.03881084,0.36893955,0.54261785,0.73729072
46065,0,USSouthDakotaHughes,South Dakota,Hughes,2021-01-05 10:46:10.588874,2020-11-22 00:00:00.000000,8.98505569,12.00041433,15.63145844,1574,2103,2739,877,1254,1729,5.00794694,7.15620184,9.86857212,0.35989326,0.53872488,0.73726644
46065,0,USSouthDakotaHughes,South Dakota,Hughes,2021-01-05 10:46:10.588874,2020-11-23 00:00:00.000000,8.80128709,11.57567685,15.14668441,1542,2028,2654,832,1215,1695,4.75263335,6.93482334,9.67247935,0.35845850,0.53954349,0.74279306
46065,0,USSouthDakotaHughes,South Dakota,Hughes,2021-01-05 10:46:10.588874,2020-11-24 00:00:00.000000,8.45607333,11.16480946,14.64940551,1482,1956,2567,795,1182,1657,4.54102873,6.74996735,9.45522475,0.35620796,0.52984879,0.74589968
46065,0,USSouthDakotaHughes,South Dakota,Hughes,2021-01-05 10:46:10.588874,2020-11-25 00:00:00.000000,7.92342443,10.70526653,14.14476633,1388,1876,2479,780,1139,1616,4.45093403,6.50447819,9.22066328,0.35499824,0.53275009,0.74673746
46065,0,USSouthDakotaHughes,South Dakota,Hughes,2021-01-05 10:46:10.588874,2020-11-26 00:00:00.000000,7.41637813,10.25955702,13.63712381,1299,1798,2390,763,1103,1567,4.35407225,6.29537122,8.94287671,0.35812112,0.54134056,0.74729900
46065,0,USSouthDakotaHughes,South Dakota,Hughes,2021-01-05 10:46:10.588874,2020-11-27 00:00:00.000000,6.95227227,9.85108640,13.12968318,1218,1726,2301,745,1061,1512,4.25346558,6.05539768,8.62737389,0.37530798,0.55487665,0.75767882
46065,0,USSouthDakotaHughes,South Dakota,Hughes,2021-01-05 10:46:10.588874,2020-11-28 00:00:00.000000,6.59220884,9.49113291,12.62479183,1155,1663,2212,716,1019,1455,4.08546354,5.81683915,8.30759160,0.38360915,0.56115769,0.80973697
46065,0,USSouthDakotaHughes,South Dakota,Hughes,2021-01-05 10:46:10.588874,2020-11-29 00:00:00.000000,6.29873467,9.13834000,12.12440535,1103,1601,2124,674,983,1399,3.84767831,5.61029954,7.98617952,0.39221603,0.58175781,0.91830969
46065,0,USSouthDakotaHughes,South Dakota,Hughes,2021-01-05 10:46:10.588874,2020-11-30 00:00:00.000000,6.02583750,8.83556071,11.82315796,1056,1548,2072,638,947,1343,3.64409279,5.40626652,7.66522991,0.40547763,0.60193652,0.98297359
46065,0,USSouthDakotaHughes,South Dakota,Hughes,2021-01-05 10:46:10.588874,2020-12-01 00:00:00.000000,5.75935103,8.53830050,11.55852759,1009,1496,2025,607,904,1287,3.46661187,5.16129521,7.34907027,0.41743419,0.62111336,0.99598834
46065,0,USSouthDakotaHughes,South Dakota,Hughes,2021-01-05 10:46:10.588874,2020-12-02 00:00:00.000000,5.50026339,8.21378933,11.27466438,963,1439,1975,579,864,1233,3.30663912,4.93372226,7.03799142,0.42253737,0.63106287,1.01683206
46065,0,USSouthDakotaHughes,South Dakota,Hughes,2021-01-05 10:46:10.588874,2020-12-03 00:00:00.000000,5.31754259,7.88777914,10.97235232,931,1382,1923,553,828,1181,3.15894716,4.72955970,6.73908978,0.42762041,0.64209690,1.05512669
46065,0,USSouthDakotaHughes,South Dakota,Hughes,2021-01-05 10:46:10.588874,2020-12-04 00:00:00.000000,5.18739765,7.56737549,10.58699796,909,1326,1855,529,798,1142,3.02126274,4.55458014,6.51672010,0.43460381,0.65312885,1.10751804
46065,0,USSouthDakotaHughes,South Dakota,Hughes,2021-01-05 10:46:10.588874,2020-12-05 00:00:00.000000,5.05490334,7.30445880,10.17522437,885,1280,1783,516,772,1105,2.94876816,4.40490683,6.30966762,0.44197152,0.67184897,1.11291779
46065,0,USSouthDakotaHughes,South Dakota,Hughes,2021-01-05 10:46:10.588874,2020-12-06 00:00:00.000000,4.86697208,7.02455967,9.76961462,852,1231,1712,507,747,1069,2.89313572,4.26266312,6.10237850,0.46732144,0.72636687,1.11454831
46065,0,USSouthDakotaHughes,South Dakota,Hughes,2021-01-05 10:46:10.588874,2020-12-07 00:00:00.000000,4.72036243,6.76925642,9.37271783,827,1186,1642,488,710,1033,2.78555575,4.05588608,5.89456354,0.46368358,0.73970198,1.13452827
46065,0,USSouthDakotaHughes,South Dakota,Hughes,2021-01-05 10:46:10.588874,2020-12-08 00:00:00.000000,4.62538846,6.53752345,8.98267834,810,1145,1574,467,689,996,2.66843781,3.93278185,5.68418021,0.49006410,0.75677640,1.15323451
46065,0,USSouthDakotaHughes,South Dakota,Hughes,2021-01-05 10:46:10.588874,2020-12-09 00:00:00.000000,4.47545522,6.33122107,8.60025629,784,1109,1507,456,671,959,2.60388858,3.83032609,5.47416779,0.51238475,0.77756499,1.27731087
46065,0,USSouthDakotaHughes,South Dakota,Hughes,2021-01-05 10:46:10.588874,2020-12-10 00:00:00.000000,4.32433828,6.12553512,8.31015224,757,1073,1456,443,652,932,2.52843728,3.72360190,5.31822577,0.50833781,0.79740882,1.31015497
46065,0,USSouthDakotaHughes,South Dakota,Hughes,2021-01-05 10:46:10.588874,2020-12-11 00:00:00.000000,4.17252432,5.90308792,8.08796350,731,1034,1417,429,633,906,2.45188858,3.61657597,5.16982907,0.50420248,0.81882065,1.38383632
46065,0,USSouthDakotaHughes,South Dakota,Hughes,2021-01-05 10:46:10.588874,2020-12-12 00:00:00.000000,4.04502341,5.69678587,7.86164274,708,998,1377,418,612,881,2.38749773,3.49612562,5.02731535,0.52000611,0.83844865,1.45632360
46065,0,USSouthDakotaHughes,South Dakota,Hughes,2021-01-05 10:46:10.588874,2020-12-13 00:00:00.000000,3.96163331,5.50512016,7.51205857,694,964,1316,408,591,857,2.33073861,3.37275514,4.88993729,0.53093221,0.84031004,1.49278826
46065,0,USSouthDakotaHughes,South Dakota,Hughes,2021-01-05 10:46:10.588874,2020-12-14 00:00:00.000000,3.87275750,5.33161226,7.16159560,678,934,1255,399,572,833,2.27937439,3.26924070,4.75823141,0.52992156,0.85211233,1.50942406
46065,0,USSouthDakotaHughes,South Dakota,Hughes,2021-01-05 10:46:10.588874,2020-12-15 00:00:00.000000,3.78304950,5.15422665,6.81978956,663,903,1195,390,553,811,2.22934537,3.15897796,4.63029633,0.52677586,0.87111014,1.51929277
46065,0,USSouthDakotaHughes,South Dakota,Hughes,2021-01-05 10:46:10.588874,2020-12-16 00:00:00.000000,3.69198245,4.96884975,6.50921332,647,870,1140,380,535,790,2.17180140,3.05264355,4.51224323,0.51246051,0.88521332,1.61248684
46065,0,USSouthDakotaHughes,South Dakota,Hughes,2021-01-05 10:46:10.588874,2020-12-17 00:00:00.000000,3.59965433,4.80679657,6.24061911,630,842,1093,367,516,756,2.09583871,2.94436031,4.31546000,0.52719969,0.90125067,1.63701208
46065,0,USSouthDakotaHughes,South Dakota,Hughes,2021-01-05 10:46:10.588874,2020-12-18 00:00:00.000000,3.47139726,4.60845797,5.97453560,608,807,1047,353,496,720,2.01818827,2.83528393,4.11050351,0.53790372,0.90377286,1.73232101
46065,0,USSouthDakotaHughes,South Dakota,Hughes,2021-01-05 10:46:10.588874,2020-12-19 00:00:00.000000,3.34307803,4.43546001,5.73348653,585,777,1004,339,477,685,1.93806072,2.72615975,3.91130676,0.56090212,0.90840542,1.82924738
46065,0,USSouthDakotaHughes,South Dakota,Hughes,2021-01-05 10:46:10.588874,2020-12-20 00:00:00.000000,3.22746976,4.29323875,5.49195008,565,752,962,325,461,660,1.85682783,2.63540407,3.77087819,0.57880674,0.91612775,1.84016090
46065,0,USSouthDakotaHughes,South Dakota,Hughes,2021-01-05 10:46:10.588874,2020-12-21 00:00:00.000000,3.15823641,4.15259238,5.31646692,553,727,931,312,443,636,1.78464798,2.53164295,3.63362319,0.61801012,0.91562740,1.84399457
46065,0,USSouthDakotaHughes,South Dakota,Hughes,2021-01-05 10:46:10.588874,2020-12-22 00:00:00.000000,3.00141436,3.97992792,5.14284940,526,697,901,300,428,605,1.71498598,2.44502460,3.45604531,0.60527952,0.91076488,1.84574735
46065,0,USSouthDakotaHughes,South Dakota,Hughes,2021-01-05 10:46:10.588874,2020-12-23 00:00:00.000000,2.84828488,3.87114034,4.98216634,499,678,873,287,411,576,1.64256114,2.34982500,3.29160987,0.58123621,0.91759413,1.84924084
46065,0,USSouthDakotaHughes,South Dakota,Hughes,2021-01-05 10:46:10.588874,2020-12-24 00:00:00.000000,2.70189220,3.73036966,4.82270939,473,653,845,275,396,559,1.57172295,2.26347177,3.19125992,0.56311738,0.91143121,1.86393671
46065,0,USSouthDakotaHughes,South Dakota,Hughes,2021-01-05 10:46:10.588874,2020-12-25 00:00:00.000000,2.57241307,3.59534650,4.66489774,450,630,817,263,381,545,1.50265464,2.17829355,3.11449309,0.54850551,0.91767508,1.87520321
46065,0,USSouthDakotaHughes,South Dakota,Hughes,2021-01-05 10:46:10.588874,2020-12-26 00:00:00.000000,2.43732809,3.44781477,4.50910739,427,604,790,251,366,531,1.43499332,2.08984539,3.03315341,0.53998931,0.92483534,1.90103457
46065,0,USSouthDakotaHughes,South Dakota,Hughes,2021-01-05 10:46:10.588874,2020-12-27 00:00:00.000000,2.30500984,3.34430025,4.35567403,403,586,763,239,351,511,1.36858105,2.00562930,2.91588713,0.54018374,0.91426511,1.97070358
46065,0,USSouthDakotaHughes,South Dakota,Hughes,2021-01-05 10:46:10.588874,2020-12-28 00:00:00.000000,2.20336867,3.19550933,4.18339206,386,560,733,228,339,490,1.30355090,1.93773023,2.80070003,0.53400511,0.90421529,1.98688934
46065,0,USSouthDakotaHughes,South Dakota,Hughes,2021-01-05 10:46:10.588874,2020-12-29 00:00:00.000000,2.10806244,3.01111374,4.01402675,369,527,703,216,324,474,1.23806947,1.85335791,2.70641802,0.52415372,0.90947322,2.17018876
46065,0,USSouthDakotaHughes,South Dakota,Hughes,2021-01-05 10:46:10.588874,2020-12-30 00:00:00.000000,2.01462976,2.84968684,3.84744141,353,499,674,205,310,460,1.17327365,1.76933633,2.62902836,0.50689068,0.91555940,2.20857624
46065,0,USSouthDakotaHughes,South Dakota,Hughes,2021-01-05 10:46:10.588874,2020-12-31 00:00:00.000000,1.91304915,2.70129052,3.68424625,335,473,645,194,296,446,1.10992392,1.69381031,2.55032541,0.50633950,0.92058278,2.25983923
46065,0,USSouthDakotaHughes,South Dakota,Hughes,2021-01-05 10:46:10.588874,2021-01-01 00:00:00.000000,1.79604775,2.56333688,3.52489481,314,449,617,183,282,433,1.04845916,1.61007716,2.47105072,0.49093087,0.91166077,2.18095268
46065,0,USSouthDakotaHughes,South Dakota,Hughes,2021-01-05 10:46:10.588874,2021-01-02 00:00:00.000000,1.67365241,2.43258230,3.42607742,293,426,600,173,267,419,0.98900900,1.52658542,2.39173638,0.47820386,0.90996105,2.05919196
46065,0,USSouthDakotaHughes,South Dakota,Hughes,2021-01-05 10:46:10.588874,2021-01-03 00:00:00.000000,1.54450542,2.30466368,3.36067243,270,403,588,163,253,405,0.93253024,1.44732929,2.31277638,0.47698897,0.90376380,2.11313843
46065,0,USSouthDakotaHughes,South Dakota,Hughes,2021-01-05 10:46:10.588874,2021-01-04 00:00:00.000000,1.42134181,2.18703229,3.29402145,249,383,577,153,240,391,0.87496917,1.37187253,2.23446440,0.47657226,0.90772014,2.22074759
46065,0,USSouthDakotaHughes,South Dakota,Hughes,2021-01-05 10:46:10.588874,2021-01-05 00:00:00.000000,1.30501813,2.06949366,3.22631771,228,362,565,143,229,378,0.81994146,1.31077430,2.15702261,0.47643319,0.90935154,2.26125828
46065,0,USSouthDakotaHughes,South Dakota,Hughes,2021-01-05 10:46:10.588874,2021-01-06 00:00:00.000000,1.19744580,1.94558155,3.15774245,209,340,553,134,216,364,0.76678396,1.23626834,2.08063797,0.47638696,0.89775158,2.26955851
46065,0,USSouthDakotaHughes,South Dakota,Hughes,2021-01-05 10:46:10.588874,2021-01-07 00:00:00.000000,1.10934598,1.82789888,3.08847392,194,320,541,125,204,351,0.71584435,1.16409518,2.00546823,0.47637148,0.89480963,2.28024286
46065,0,USSouthDakotaHughes,South Dakota,Hughes,2021-01-05 10:46:10.588874,2021-01-08 00:00:00.000000,1.02024017,1.70625304,3.02009238,178,299,529,116,191,337,0.66737898,1.09462661,1.92548960,0.47636621,0.89364757,2.28160561
46065,0,USSouthDakotaHughes,South Dakota,Hughes,2021-01-05 10:46:10.588874,2021-01-09 00:00:00.000000,0.93729498,1.60613669,2.95199890,164,281,517,107,180,322,0.61409280,1.02980855,1.84186895,0.47027794,0.89364595,2.28226877
46065,0,USSouthDakotaHughes,South Dakota,Hughes,2021-01-05 10:46:10.588874,2021-01-10 00:00:00.000000,0.86084930,1.51524776,2.86644077,150,265,502,98,170,308,0.56309359,0.97387478,1.75985323,0.46554008,0.89267773,2.28255483
46065,0,USSouthDakotaHughes,South Dakota,Hughes,2021-01-05 10:46:10.588874,2021-01-11 00:00:00.000000,0.79044915,1.43145064,2.73385067,138,250,479,91,159,299,0.52422294,0.90911475,1.70978217,0.46546398,0.89364560,2.28267210
46065,0,USSouthDakotaHughes,South Dakota,Hughes,2021-01-05 10:46:10.588874,2021-01-12 00:00:00.000000,0.72565718,1.35183745,2.60612845,127,236,456,84,148,289,0.48451709,0.84997302,1.65365784,0.46543809,0.89364560,2.28271916
46065,0,USSouthDakotaHughes,South Dakota,Hughes,2021-01-05 10:46:10.588874,2021-01-13 00:00:00.000000,0.66605724,1.27041303,2.48322958,116,222,435,78,139,283,0.44507854,0.79519990,1.62019815,0.46542940,0.89364561,2.28273788
46065,0,USSouthDakotaHughes,South Dakota,Hughes,2021-01-05 10:46:10.588874,2021-01-14 00:00:00.000000,0.61136667,1.19333381,2.36509312,107,209,414,71,130,278,0.40875648,0.74364122,1.58733201,0.46542643,0.89364561,2.28274529
46065,0,USSouthDakotaHughes,South Dakota,Hughes,2021-01-05 10:46:10.588874,2021-01-15 00:00:00.000000,0.56113014,1.12306622,2.25164398,98,196,394,65,122,268,0.37532450,0.69727223,1.53016387,0.46542538,0.89364562,2.28274823
46065,0,USSouthDakotaHughes,South Dakota,Hughes,2021-01-05 10:46:10.588874,2021-01-16 00:00:00.000000,0.51495766,1.05448133,2.14279503,90,184,375,60,114,255,0.34638578,0.65562623,1.45836549,0.46542498,0.89364562,2.28274938
46065,0,USSouthDakotaHughes,South Dakota,Hughes,2021-01-05 10:46:10.588874,2021-01-17 00:00:00.000000,0.47253186,0.98985937,2.05029796,82,173,359,56,108,243,0.32011791,0.61628799,1.38931459,0.46542482,0.89364562,2.28274984
