FIPS,HR_UID,nameid,province,region,analysisTime,dates,pointprevalence_025,pointprevalence_50,pointprevalence_975,pointinfections_025,pointinfections_50,pointinfections_975,pointinfectious_025,pointinfectious_50,pointinfectious_975,pointinfectiousprevalence_05,pointinfectiousprevalence_50,pointinfectiousprevalence_95,infectrate_025,infectrate_50,infectrate_975
20123,0,USKansasMitchell,Kansas,Mitchell,2021-01-05 22:47:40.867146,2020-03-09 00:00:00.000000,0.02691926,0.08063629,0.17495097,1,4,10,0,2,5,0.00916837,0.03550103,0.09301905,0.38748831,0.49942574,0.66635304
20123,0,USKansasMitchell,Kansas,Mitchell,2021-01-05 22:47:40.867146,2020-03-10 00:00:00.000000,0.03705591,0.10346951,0.19821499,2,6,11,0,2,5,0.01180823,0.03620670,0.08631044,0.38741489,0.49941601,0.66634444
20123,0,USKansasMitchell,Kansas,Mitchell,2021-01-05 22:47:40.867146,2020-03-11 00:00:00.000000,0.04777009,0.12506926,0.22457105,2,7,13,0,2,5,0.01564742,0.03865441,0.08463637,0.38727233,0.49940040,0.66632781
20123,0,USKansasMitchell,Kansas,Mitchell,2021-01-05 22:47:40.867146,2020-03-12 00:00:00.000000,0.05696632,0.15373405,0.26314445,3,9,15,1,2,5,0.02038745,0.04791178,0.08653593,0.38699606,0.49937459,0.66552031
20123,0,USKansasMitchell,Kansas,Mitchell,2021-01-05 22:47:40.867146,2020-03-13 00:00:00.000000,0.06829105,0.17536431,0.29644208,4,10,17,1,3,6,0.02419269,0.05804266,0.10167449,0.38431508,0.49933023,0.66321695
20123,0,USKansasMitchell,Kansas,Mitchell,2021-01-05 22:47:40.867146,2020-03-14 00:00:00.000000,0.08237228,0.19705525,0.34378392,4,11,20,1,3,7,0.02719023,0.06648296,0.12390420,0.36591160,0.49925048,0.66208765
20123,0,USKansasMitchell,Kansas,Mitchell,2021-01-05 22:47:40.867146,2020-03-15 00:00:00.000000,0.09146466,0.22438620,0.39461864,5,13,23,1,4,8,0.03062358,0.07640209,0.14084260,0.36590309,0.49909986,0.66189464
20123,0,USKansasMitchell,Kansas,Mitchell,2021-01-05 22:47:40.867146,2020-03-16 00:00:00.000000,0.10791283,0.26488455,0.42747958,6,15,25,2,5,9,0.03481953,0.08650683,0.16366815,0.36588113,0.49619863,0.66149877
20123,0,USKansasMitchell,Kansas,Mitchell,2021-01-05 22:47:40.867146,2020-03-17 00:00:00.000000,0.12128745,0.29937797,0.48776199,7,17,29,2,5,11,0.04265562,0.09861403,0.18427391,0.36582578,0.48825522,0.65791427
20123,0,USKansasMitchell,Kansas,Mitchell,2021-01-05 22:47:40.867146,2020-03-18 00:00:00.000000,0.13561785,0.33974474,0.53706161,8,20,32,3,6,12,0.05225338,0.11420874,0.20533015,0.35325988,0.47398108,0.64514801
20123,0,USKansasMitchell,Kansas,Mitchell,2021-01-05 22:47:40.867146,2020-03-19 00:00:00.000000,0.15448028,0.37085801,0.57487934,9,22,34,3,7,13,0.06240554,0.13176722,0.23128174,0.32972070,0.46541348,0.62343841
20123,0,USKansasMitchell,Kansas,Mitchell,2021-01-05 22:47:40.867146,2020-03-20 00:00:00.000000,0.17375016,0.40256555,0.63245797,10,24,37,4,8,15,0.07159996,0.14529897,0.25864676,0.29440242,0.43295582,0.59889566
20123,0,USKansasMitchell,Kansas,Mitchell,2021-01-05 22:47:40.867146,2020-03-21 00:00:00.000000,0.19340043,0.43585404,0.68389817,11,26,40,4,9,17,0.07712734,0.16192348,0.29029080,0.28386903,0.40149800,0.59085883
20123,0,USKansasMitchell,Kansas,Mitchell,2021-01-05 22:47:40.867146,2020-03-22 00:00:00.000000,0.21353619,0.47235452,0.74084684,12,28,44,4,10,19,0.08221906,0.17443148,0.32296157,0.27247378,0.37475162,0.55888254
20123,0,USKansasMitchell,Kansas,Mitchell,2021-01-05 22:47:40.867146,2020-03-23 00:00:00.000000,0.22235943,0.47936429,0.74977603,13,28,44,5,11,20,0.08971070,0.19194217,0.34946435,0.25220876,0.35951080,0.51059437
20123,0,USKansasMitchell,Kansas,Mitchell,2021-01-05 22:47:40.867146,2020-03-24 00:00:00.000000,0.22978910,0.49431435,0.77881365,13,29,46,5,12,22,0.09751747,0.20337982,0.36851428,0.24058179,0.35239287,0.46259303
20123,0,USKansasMitchell,Kansas,Mitchell,2021-01-05 22:47:40.867146,2020-03-25 00:00:00.000000,0.23223086,0.50130154,0.80816065,13,29,48,6,12,22,0.10288313,0.21082167,0.38439274,0.23249207,0.34039683,0.45771563
20123,0,USKansasMitchell,Kansas,Mitchell,2021-01-05 22:47:40.867146,2020-03-26 00:00:00.000000,0.23545287,0.50124363,0.83688718,14,29,50,6,13,23,0.10535020,0.21867259,0.39921344,0.21977677,0.32470138,0.42814529
20123,0,USKansasMitchell,Kansas,Mitchell,2021-01-05 22:47:40.867146,2020-03-27 00:00:00.000000,0.24058131,0.50504588,0.83657387,14,30,50,6,13,24,0.10698164,0.22263361,0.41427242,0.21236224,0.30548860,0.40119775
20123,0,USKansasMitchell,Kansas,Mitchell,2021-01-05 22:47:40.867146,2020-03-28 00:00:00.000000,0.24090805,0.51065295,0.82388309,14,30,49,6,13,25,0.10806745,0.22547074,0.42154702,0.21085081,0.28223691,0.38958037
20123,0,USKansasMitchell,Kansas,Mitchell,2021-01-05 22:47:40.867146,2020-03-29 00:00:00.000000,0.24025357,0.51517963,0.83887298,14,30,50,6,13,25,0.10875744,0.23052092,0.43034226,0.20528152,0.27550806,0.36815437
20123,0,USKansasMitchell,Kansas,Mitchell,2021-01-05 22:47:40.867146,2020-03-30 00:00:00.000000,0.23869892,0.51830032,0.85875157,14,30,51,6,14,26,0.10915918,0.23607149,0.43737479,0.19882518,0.26816620,0.35149244
20123,0,USKansasMitchell,Kansas,Mitchell,2021-01-05 22:47:40.867146,2020-03-31 00:00:00.000000,0.23651531,0.51970021,0.87530754,14,31,52,6,14,26,0.11176309,0.23974433,0.44183416,0.19611711,0.25691914,0.35062198
20123,0,USKansasMitchell,Kansas,Mitchell,2021-01-05 22:47:40.867146,2020-04-01 00:00:00.000000,0.23396991,0.52002564,0.88804075,13,31,53,6,14,26,0.11345469,0.23866083,0.44301799,0.18266676,0.24696977,0.34011719
20123,0,USKansasMitchell,Kansas,Mitchell,2021-01-05 22:47:40.867146,2020-04-02 00:00:00.000000,0.23123661,0.50579334,0.89633898,13,30,53,6,14,26,0.11395315,0.23879414,0.44105092,0.17224076,0.24264251,0.32278189
20123,0,USKansasMitchell,Kansas,Mitchell,2021-01-05 22:47:40.867146,2020-04-03 00:00:00.000000,0.23055612,0.49614258,0.89967809,13,29,53,6,14,26,0.11340835,0.23554100,0.43650116,0.16834476,0.23264955,0.32587020
20123,0,USKansasMitchell,Kansas,Mitchell,2021-01-05 22:47:40.867146,2020-04-04 00:00:00.000000,0.23073964,0.47976836,0.89808540,13,28,53,6,13,25,0.11206678,0.23085453,0.43001434,0.16011459,0.22305302,0.32756273
20123,0,USKansasMitchell,Kansas,Mitchell,2021-01-05 22:47:40.867146,2020-04-05 00:00:00.000000,0.22753261,0.46656604,0.89206264,13,27,53,6,13,25,0.11015735,0.22636244,0.43181717,0.15834399,0.20827391,0.32742696
20123,0,USKansasMitchell,Kansas,Mitchell,2021-01-05 22:47:40.867146,2020-04-06 00:00:00.000000,0.22072877,0.45763083,0.88243930,13,27,52,6,13,26,0.10785999,0.22505138,0.43541137,0.15436686,0.20364068,0.32595496
20123,0,USKansasMitchell,Kansas,Mitchell,2021-01-05 22:47:40.867146,2020-04-07 00:00:00.000000,0.21644481,0.44352167,0.87017856,12,26,52,6,13,26,0.10530759,0.22281342,0.43770279,0.15454364,0.20136919,0.32332141
20123,0,USKansasMitchell,Kansas,Mitchell,2021-01-05 22:47:40.867146,2020-04-08 00:00:00.000000,0.21371979,0.44310895,0.85618893,12,26,51,6,13,26,0.10259383,0.21815664,0.43897618,0.14485650,0.19843871,0.29865884
20123,0,USKansasMitchell,Kansas,Mitchell,2021-01-05 22:47:40.867146,2020-04-09 00:00:00.000000,0.21115246,0.43252868,0.84124729,12,25,50,6,12,26,0.10119012,0.21319457,0.43947689,0.13656804,0.19397945,0.28794476
20123,0,USKansasMitchell,Kansas,Mitchell,2021-01-05 22:47:40.867146,2020-04-10 00:00:00.000000,0.20403877,0.42263776,0.82599122,12,25,49,5,12,26,0.09694134,0.20583924,0.43931291,0.13180945,0.19252888,0.29020383
20123,0,USKansasMitchell,Kansas,Mitchell,2021-01-05 22:47:40.867146,2020-04-11 00:00:00.000000,0.19284744,0.41339980,0.81088509,11,24,48,5,12,26,0.09376659,0.20424131,0.43829367,0.12943095,0.18661210,0.29156986
20123,0,USKansasMitchell,Kansas,Mitchell,2021-01-05 22:47:40.867146,2020-04-12 00:00:00.000000,0.18195587,0.40409277,0.79259661,10,24,47,5,11,26,0.09068729,0.19930715,0.43575514,0.12826318,0.18261227,0.29153735
20123,0,USKansasMitchell,Kansas,Mitchell,2021-01-05 22:47:40.867146,2020-04-13 00:00:00.000000,0.20067510,0.41234261,0.78706063,11,24,47,5,11,25,0.08832778,0.19267598,0.43116859,0.12631025,0.18019324,0.28932904
20123,0,USKansasMitchell,Kansas,Mitchell,2021-01-05 22:47:40.867146,2020-04-14 00:00:00.000000,0.21933095,0.41789142,0.77495308,13,24,46,5,11,25,0.09016116,0.19226757,0.42556718,0.12534158,0.17920274,0.28419534
20123,0,USKansasMitchell,Kansas,Mitchell,2021-01-05 22:47:40.867146,2020-04-15 00:00:00.000000,0.21881312,0.43033897,0.76864905,13,25,45,5,11,24,0.09413306,0.19137133,0.41542303,0.12512360,0.17907941,0.27821437
20123,0,USKansasMitchell,Kansas,Mitchell,2021-01-05 22:47:40.867146,2020-04-16 00:00:00.000000,0.22175308,0.45289349,0.77179902,13,27,46,5,11,24,0.09956990,0.19711816,0.40579260,0.12376293,0.17811114,0.27188179
20123,0,USKansasMitchell,Kansas,Mitchell,2021-01-05 22:47:40.867146,2020-04-17 00:00:00.000000,0.23673344,0.47288019,0.79865176,14,28,47,6,12,23,0.10468880,0.20139793,0.39795025,0.12179391,0.17555587,0.26825964
20123,0,USKansasMitchell,Kansas,Mitchell,2021-01-05 22:47:40.867146,2020-04-18 00:00:00.000000,0.23176458,0.48828980,0.83919627,13,29,50,6,12,24,0.10364611,0.20731993,0.40684809,0.11977607,0.17211225,0.26662561
20123,0,USKansasMitchell,Kansas,Mitchell,2021-01-05 22:47:40.867146,2020-04-19 00:00:00.000000,0.22731392,0.50329915,0.88103205,13,30,52,6,12,24,0.10253960,0.21730108,0.41598772,0.11666506,0.16764827,0.26319577
20123,0,USKansasMitchell,Kansas,Mitchell,2021-01-05 22:47:40.867146,2020-04-20 00:00:00.000000,0.24713700,0.51032682,0.89297263,14,30,53,6,13,25,0.10140681,0.22786266,0.42436269,0.11282483,0.16669276,0.25776075
20123,0,USKansasMitchell,Kansas,Mitchell,2021-01-05 22:47:40.867146,2020-04-21 00:00:00.000000,0.27603089,0.51590124,0.90229382,16,30,53,6,14,25,0.10421860,0.23469523,0.42189815,0.10822362,0.16557235,0.25575690
20123,0,USKansasMitchell,Kansas,Mitchell,2021-01-05 22:47:40.867146,2020-04-22 00:00:00.000000,0.29107718,0.52622395,0.90857081,17,31,54,6,14,25,0.10964836,0.23620046,0.42342135,0.10042314,0.16305598,0.25326598
20123,0,USKansasMitchell,Kansas,Mitchell,2021-01-05 22:47:40.867146,2020-04-23 00:00:00.000000,0.29697269,0.53348567,0.91199755,17,31,54,6,14,25,0.11678277,0.24338378,0.43450448,0.09557227,0.16605926,0.25093956
20123,0,USKansasMitchell,Kansas,Mitchell,2021-01-05 22:47:40.867146,2020-04-24 00:00:00.000000,0.30291448,0.54447210,0.91028483,18,32,54,7,14,26,0.12500789,0.24462960,0.44209764,0.09534627,0.16665303,0.24635153
20123,0,USKansasMitchell,Kansas,Mitchell,2021-01-05 22:47:40.867146,2020-04-25 00:00:00.000000,0.30885684,0.54818916,0.91521738,18,32,54,7,15,26,0.13255743,0.25679887,0.43976280,0.09488442,0.16482769,0.24648411
20123,0,USKansasMitchell,Kansas,Mitchell,2021-01-05 22:47:40.867146,2020-04-26 00:00:00.000000,0.31479415,0.55549323,0.91574629,18,33,54,8,15,26,0.13497094,0.25767158,0.43591316,0.09347495,0.16051696,0.24917748
20123,0,USKansasMitchell,Kansas,Mitchell,2021-01-05 22:47:40.867146,2020-04-27 00:00:00.000000,0.30715137,0.54321853,0.89240826,18,32,53,8,15,25,0.13747445,0.26070385,0.43107682,0.08999354,0.16250411,0.26105697
20123,0,USKansasMitchell,Kansas,Mitchell,2021-01-05 22:47:40.867146,2020-04-28 00:00:00.000000,0.29955917,0.53082417,0.86869219,17,31,51,8,15,25,0.13685259,0.26088081,0.42318592,0.08550172,0.16278572,0.25921991
20123,0,USKansasMitchell,Kansas,Mitchell,2021-01-05 22:47:40.867146,2020-04-29 00:00:00.000000,0.29176986,0.51949231,0.84723537,17,31,50,8,15,24,0.13530825,0.25968120,0.41371957,0.08541567,0.16229652,0.25201937
20123,0,USKansasMitchell,Kansas,Mitchell,2021-01-05 22:47:40.867146,2020-04-30 00:00:00.000000,0.28393415,0.49235163,0.83286842,16,29,49,7,15,24,0.13345962,0.26165551,0.40515410,0.08541355,0.15892317,0.24747811
20123,0,USKansasMitchell,Kansas,Mitchell,2021-01-05 22:47:40.867146,2020-05-01 00:00:00.000000,0.27627456,0.47539443,0.80393104,16,28,48,7,15,23,0.13140398,0.26252139,0.39857017,0.08962875,0.16017114,0.25784547
20123,0,USKansasMitchell,Kansas,Mitchell,2021-01-05 22:47:40.867146,2020-05-02 00:00:00.000000,0.26401826,0.45774825,0.78629028,15,27,47,7,15,23,0.12730556,0.25769060,0.39723437,0.08694476,0.15679615,0.27101510
20123,0,USKansasMitchell,Kansas,Mitchell,2021-01-05 22:47:40.867146,2020-05-03 00:00:00.000000,0.24446062,0.44440829,0.76944102,14,26,46,7,14,23,0.12253166,0.24430496,0.39432100,0.08541469,0.15614492,0.28188055
20123,0,USKansasMitchell,Kansas,Mitchell,2021-01-05 22:47:40.867146,2020-05-04 00:00:00.000000,0.22648752,0.42668099,0.75243048,13,25,44,7,14,23,0.11778652,0.23531043,0.39011744,0.08488775,0.15701472,0.28818608
20123,0,USKansasMitchell,Kansas,Mitchell,2021-01-05 22:47:40.867146,2020-05-05 00:00:00.000000,0.20994018,0.40965791,0.73549272,12,24,43,6,13,23,0.11311597,0.22406806,0.38485575,0.08475340,0.15900327,0.29105215
20123,0,USKansasMitchell,Kansas,Mitchell,2021-01-05 22:47:40.867146,2020-05-06 00:00:00.000000,0.19468352,0.39366562,0.71880700,11,23,42,6,12,22,0.10855875,0.21593116,0.37874327,0.08471691,0.15830306,0.29188290
20123,0,USKansasMitchell,Kansas,Mitchell,2021-01-05 22:47:40.867146,2020-05-07 00:00:00.000000,0.18059875,0.37923642,0.70238998,10,22,41,6,12,22,0.10191807,0.20935194,0.37197263,0.08470359,0.15944521,0.29150868
20123,0,USKansasMitchell,Kansas,Mitchell,2021-01-05 22:47:40.867146,2020-05-08 00:00:00.000000,0.16757965,0.36664266,0.68625466,10,21,41,5,12,21,0.09458832,0.20541895,0.36471886,0.08469141,0.15872947,0.29098221
20123,0,USKansasMitchell,Kansas,Mitchell,2021-01-05 22:47:40.867146,2020-05-09 00:00:00.000000,0.15552917,0.35396197,0.67041311,9,21,40,5,11,21,0.08780807,0.19888851,0.35732925,0.08466006,0.15777742,0.29062229
20123,0,USKansasMitchell,Kansas,Mitchell,2021-01-05 22:47:40.867146,2020-05-10 00:00:00.000000,0.14435849,0.33636447,0.65488037,8,20,39,4,11,20,0.08153126,0.19212523,0.34969349,0.08451572,0.15616836,0.27573072
20123,0,USKansasMitchell,Kansas,Mitchell,2021-01-05 22:47:40.867146,2020-05-11 00:00:00.000000,0.15423599,0.34661348,0.66483136,9,20,39,4,11,20,0.07571658,0.18469157,0.34191430,0.08394522,0.15419375,0.27758540
20123,0,USKansasMitchell,Kansas,Mitchell,2021-01-05 22:47:40.867146,2020-05-12 00:00:00.000000,0.17245474,0.35277384,0.67519195,10,21,40,4,10,20,0.07571207,0.18092055,0.34027268,0.08317441,0.15415587,0.28192799
20123,0,USKansasMitchell,Kansas,Mitchell,2021-01-05 22:47:40.867146,2020-05-13 00:00:00.000000,0.18217888,0.36898516,0.68601749,10,22,41,4,10,20,0.07882364,0.18196170,0.34270244,0.08303167,0.15467797,0.28101038
20123,0,USKansasMitchell,Kansas,Mitchell,2021-01-05 22:47:40.867146,2020-05-14 00:00:00.000000,0.20403378,0.38160697,0.72615870,12,22,43,4,10,20,0.07947472,0.18276292,0.34787345,0.08343897,0.15659990,0.27323948
20123,0,USKansasMitchell,Kansas,Mitchell,2021-01-05 22:47:40.867146,2020-05-15 00:00:00.000000,0.21773075,0.39550793,0.79597223,13,23,47,4,11,21,0.08235517,0.18494472,0.35461569,0.08365262,0.15563385,0.25910953
20123,0,USKansasMitchell,Kansas,Mitchell,2021-01-05 22:47:40.867146,2020-05-16 00:00:00.000000,0.21848855,0.40972370,0.82452122,13,24,49,5,11,21,0.09260726,0.19212437,0.36394226,0.08402600,0.15486875,0.24918923
20123,0,USKansasMitchell,Kansas,Mitchell,2021-01-05 22:47:40.867146,2020-05-17 00:00:00.000000,0.22129443,0.42585586,0.83869515,13,25,50,5,11,22,0.09749506,0.19776961,0.37064219,0.08125007,0.14954813,0.25167035
20123,0,USKansasMitchell,Kansas,Mitchell,2021-01-05 22:47:40.867146,2020-05-18 00:00:00.000000,0.24951007,0.44004307,0.86600019,14,26,51,6,12,22,0.10274490,0.20212211,0.37833943,0.07888397,0.15102678,0.25050673
20123,0,USKansasMitchell,Kansas,Mitchell,2021-01-05 22:47:40.867146,2020-05-19 00:00:00.000000,0.25696355,0.44704558,0.89141423,15,26,53,6,12,23,0.10685876,0.21075183,0.38620908,0.07715845,0.14937199,0.24772812
20123,0,USKansasMitchell,Kansas,Mitchell,2021-01-05 22:47:40.867146,2020-05-20 00:00:00.000000,0.26447160,0.45718644,0.91543546,15,27,54,6,12,23,0.11189062,0.21674694,0.39407209,0.07598935,0.14681619,0.24807909
20123,0,USKansasMitchell,Kansas,Mitchell,2021-01-05 22:47:40.867146,2020-05-21 00:00:00.000000,0.27440205,0.45687266,0.93818049,16,27,56,6,13,24,0.11342266,0.21968382,0.40182069,0.07586420,0.14636602,0.24593672
20123,0,USKansasMitchell,Kansas,Mitchell,2021-01-05 22:47:40.867146,2020-05-22 00:00:00.000000,0.28333202,0.45988724,0.93630570,16,27,55,6,13,24,0.11529947,0.22100964,0.40939372,0.07954737,0.14984868,0.24199022
20123,0,USKansasMitchell,Kansas,Mitchell,2021-01-05 22:47:40.867146,2020-05-23 00:00:00.000000,0.28636260,0.46129318,0.93277486,17,27,55,7,13,24,0.11747821,0.22176665,0.41676793,0.07967250,0.14740777,0.23992973
20123,0,USKansasMitchell,Kansas,Mitchell,2021-01-05 22:47:40.867146,2020-05-24 00:00:00.000000,0.29329521,0.47365051,0.93038851,17,28,55,7,13,25,0.12003799,0.22861098,0.42395476,0.07523317,0.14321219,0.24016179
20123,0,USKansasMitchell,Kansas,Mitchell,2021-01-05 22:47:40.867146,2020-05-25 00:00:00.000000,0.28856109,0.45968987,0.90832322,17,27,54,7,13,25,0.12261166,0.23340414,0.43099205,0.07673144,0.14061314,0.23737792
20123,0,USKansasMitchell,Kansas,Mitchell,2021-01-05 22:47:40.867146,2020-05-26 00:00:00.000000,0.27614466,0.44089724,0.88771980,16,26,53,7,13,25,0.12407723,0.22628670,0.43119586,0.08080272,0.13747369,0.23687904
20123,0,USKansasMitchell,Kansas,Mitchell,2021-01-05 22:47:40.867146,2020-05-27 00:00:00.000000,0.26143521,0.42646340,0.86678667,15,25,51,7,13,25,0.12467026,0.21744911,0.42652588,0.07988051,0.13825946,0.23694661
20123,0,USKansasMitchell,Kansas,Mitchell,2021-01-05 22:47:40.867146,2020-05-28 00:00:00.000000,0.24706396,0.41342003,0.84585930,14,24,50,7,12,25,0.12291192,0.21193029,0.41994563,0.08115760,0.13868163,0.23679572
20123,0,USKansasMitchell,Kansas,Mitchell,2021-01-05 22:47:40.867146,2020-05-29 00:00:00.000000,0.23322727,0.39813905,0.82651724,13,23,49,7,12,24,0.11719234,0.20669135,0.41491365,0.08249582,0.13693493,0.23667867
20123,0,USKansasMitchell,Kansas,Mitchell,2021-01-05 22:47:40.867146,2020-05-30 00:00:00.000000,0.22004980,0.38179216,0.82108053,13,22,49,6,11,24,0.11603998,0.19902058,0.41195783,0.08334120,0.14081451,0.22728373
20123,0,USKansasMitchell,Kansas,Mitchell,2021-01-05 22:47:40.867146,2020-05-31 00:00:00.000000,0.20761441,0.36837103,0.80567959,12,22,48,6,11,24,0.11117400,0.19148755,0.40789066,0.08681685,0.14080023,0.22497333
20123,0,USKansasMitchell,Kansas,Mitchell,2021-01-05 22:47:40.867146,2020-06-01 00:00:00.000000,0.19597371,0.34960426,0.78043350,11,20,46,6,10,24,0.10440558,0.18349814,0.40289314,0.08650468,0.14106220,0.22182731
20123,0,USKansasMitchell,Kansas,Mitchell,2021-01-05 22:47:40.867146,2020-06-02 00:00:00.000000,0.18515225,0.33400685,0.75628678,11,19,45,5,10,23,0.09791003,0.17651290,0.39711298,0.08582984,0.14146787,0.22383297
20123,0,USKansasMitchell,Kansas,Mitchell,2021-01-05 22:47:40.867146,2020-06-03 00:00:00.000000,0.17148105,0.31864764,0.73282943,10,19,43,5,10,23,0.09172661,0.16993451,0.39070007,0.08514397,0.13921317,0.22186976
20123,0,USKansasMitchell,Kansas,Mitchell,2021-01-05 22:47:40.867146,2020-06-04 00:00:00.000000,0.15640338,0.30217511,0.71008705,9,18,42,5,9,22,0.08587303,0.16304443,0.38379372,0.08444236,0.13924118,0.21800953
20123,0,USKansasMitchell,Kansas,Mitchell,2021-01-05 22:47:40.867146,2020-06-05 00:00:00.000000,0.14253127,0.28802903,0.68823054,8,17,41,4,9,22,0.08035333,0.15511740,0.37651155,0.08374315,0.14117510,0.21365035
20123,0,USKansasMitchell,Kansas,Mitchell,2021-01-05 22:47:40.867146,2020-06-06 00:00:00.000000,0.12979797,0.27509212,0.66995586,7,16,40,4,8,22,0.07516369,0.14822977,0.36895216,0.08308218,0.14017114,0.23066151
20123,0,USKansasMitchell,Kansas,Mitchell,2021-01-05 22:47:40.867146,2020-06-07 00:00:00.000000,0.11813202,0.26210470,0.65576080,7,15,39,4,8,21,0.07030108,0.14191473,0.36439749,0.08249629,0.13841613,0.25215699
20123,0,USKansasMitchell,Kansas,Mitchell,2021-01-05 22:47:40.867146,2020-06-08 00:00:00.000000,0.10746048,0.24980464,0.66284302,6,14,39,3,8,21,0.06541748,0.13510911,0.35886011,0.08200896,0.13813204,0.24787669
20123,0,USKansasMitchell,Kansas,Mitchell,2021-01-05 22:47:40.867146,2020-06-09 00:00:00.000000,0.09771126,0.23831573,0.66974982,5,14,40,3,7,20,0.05960778,0.12955177,0.34995232,0.08162850,0.13628433,0.24459201
20123,0,USKansasMitchell,Kansas,Mitchell,2021-01-05 22:47:40.867146,2020-06-10 00:00:00.000000,0.08881639,0.22653101,0.67635408,5,13,40,3,7,20,0.05427553,0.12469689,0.34135314,0.08135251,0.13838079,0.24097226
20123,0,USKansasMitchell,Kansas,Mitchell,2021-01-05 22:47:40.867146,2020-06-11 00:00:00.000000,0.08072985,0.21735266,0.68242420,4,12,40,2,7,19,0.04939137,0.12113627,0.33300329,0.08118334,0.13945054,0.23454774
20123,0,USKansasMitchell,Kansas,Mitchell,2021-01-05 22:47:40.867146,2020-06-12 00:00:00.000000,0.07353394,0.20867475,0.68764599,4,12,41,2,6,19,0.04492892,0.11694860,0.32483491,0.08122085,0.13997598,0.23736783
20123,0,USKansasMitchell,Kansas,Mitchell,2021-01-05 22:47:40.867146,2020-06-13 00:00:00.000000,0.06733378,0.20134317,0.67703843,4,12,40,2,6,18,0.04088717,0.11204939,0.31673921,0.08739620,0.13689913,0.24476727
20123,0,USKansasMitchell,Kansas,Mitchell,2021-01-05 22:47:40.867146,2020-06-14 00:00:00.000000,0.06180121,0.19452588,0.66450908,3,11,39,2,6,18,0.03728550,0.10639055,0.30852226,0.08712705,0.13822473,0.25100346
20123,0,USKansasMitchell,Kansas,Mitchell,2021-01-05 22:47:40.867146,2020-06-15 00:00:00.000000,0.05678137,0.18807867,0.65161898,3,11,38,2,6,17,0.03407666,0.10184262,0.29990059,0.08517206,0.13508670,0.25458164
20123,0,USKansasMitchell,Kansas,Mitchell,2021-01-05 22:47:40.867146,2020-06-16 00:00:00.000000,0.05220881,0.18231627,0.63862865,3,10,38,1,5,17,0.03120129,0.09740921,0.29115021,0.08410325,0.13558584,0.25487225
20123,0,USKansasMitchell,Kansas,Mitchell,2021-01-05 22:47:40.867146,2020-06-17 00:00:00.000000,0.04804456,0.17677641,0.62571204,2,10,37,1,5,16,0.02861060,0.09306720,0.28357932,0.08367284,0.13520241,0.25158305
20123,0,USKansasMitchell,Kansas,Mitchell,2021-01-05 22:47:40.867146,2020-06-18 00:00:00.000000,0.04423712,0.16767257,0.61297163,2,10,36,1,5,16,0.02626571,0.08880557,0.28137594,0.08448054,0.13531985,0.24367169
20123,0,USKansasMitchell,Kansas,Mitchell,2021-01-05 22:47:40.867146,2020-06-19 00:00:00.000000,0.04074102,0.15900922,0.60048341,2,9,35,1,5,16,0.02413518,0.08515954,0.28218230,0.08326615,0.13697971,0.23650190
20123,0,USKansasMitchell,Kansas,Mitchell,2021-01-05 22:47:40.867146,2020-06-20 00:00:00.000000,0.03751008,0.15093456,0.58834774,2,9,35,1,4,16,0.02219259,0.08101569,0.28286401,0.08310582,0.13688662,0.23044008
20123,0,USKansasMitchell,Kansas,Mitchell,2021-01-05 22:47:40.867146,2020-06-21 00:00:00.000000,0.03450412,0.14339421,0.57667075,2,8,34,1,4,16,0.02041345,0.07754567,0.28345583,0.08044895,0.13681214,0.22394463
20123,0,USKansasMitchell,Kansas,Mitchell,2021-01-05 22:47:40.867146,2020-06-22 00:00:00.000000,0.05576257,0.19159227,0.64218697,3,11,38,1,4,16,0.01877541,0.07315465,0.28254139,0.07683500,0.13378250,0.22253557
20123,0,USKansasMitchell,Kansas,Mitchell,2021-01-05 22:47:40.867146,2020-06-23 00:00:00.000000,0.06577060,0.23267472,0.70791220,3,13,42,1,4,17,0.02601265,0.07800600,0.28695867,0.07339082,0.13292910,0.22479356
20123,0,USKansasMitchell,Kansas,Mitchell,2021-01-05 22:47:40.867146,2020-06-24 00:00:00.000000,0.06691525,0.26571561,0.79160244,4,15,47,1,5,17,0.02920096,0.09137147,0.29749001,0.07236038,0.13000437,0.22587605
20123,0,USKansasMitchell,Kansas,Mitchell,2021-01-05 22:47:40.867146,2020-06-25 00:00:00.000000,0.08029176,0.28653765,0.88424604,4,17,52,1,6,18,0.02897788,0.10748014,0.31016600,0.07179762,0.13058609,0.21328357
20123,0,USKansasMitchell,Kansas,Mitchell,2021-01-05 22:47:40.867146,2020-06-26 00:00:00.000000,0.09509825,0.30476700,0.97594086,5,18,58,1,6,20,0.03102129,0.11503565,0.33808063,0.06940221,0.12901172,0.20703554
20123,0,USKansasMitchell,Kansas,Mitchell,2021-01-05 22:47:40.867146,2020-06-27 00:00:00.000000,0.10904408,0.33140510,1.07115268,6,19,64,2,7,22,0.03743455,0.12300501,0.37951851,0.06605484,0.12885450,0.21024619
20123,0,USKansasMitchell,Kansas,Mitchell,2021-01-05 22:47:40.867146,2020-06-28 00:00:00.000000,0.12201579,0.36397800,1.21627827,7,21,72,2,8,24,0.04344258,0.13454435,0.41797920,0.06336480,0.12971734,0.21250795
20123,0,USKansasMitchell,Kansas,Mitchell,2021-01-05 22:47:40.867146,2020-06-29 00:00:00.000000,0.17379640,0.43788731,1.23879897,10,26,74,2,9,28,0.04887177,0.15271512,0.47836111,0.06128992,0.12731100,0.21268636
20123,0,USKansasMitchell,Kansas,Mitchell,2021-01-05 22:47:40.867146,2020-06-30 00:00:00.000000,0.21697121,0.50148553,1.25359631,12,29,74,3,10,31,0.06607643,0.17321823,0.52956030,0.05965321,0.12456612,0.22382952
20123,0,USKansasMitchell,Kansas,Mitchell,2021-01-05 22:47:40.867146,2020-07-01 00:00:00.000000,0.23732306,0.53170296,1.26052463,14,31,75,4,11,34,0.07712746,0.19156676,0.57272439,0.05853875,0.12320557,0.24266485
20123,0,USKansasMitchell,Kansas,Mitchell,2021-01-05 22:47:40.867146,2020-07-02 00:00:00.000000,0.25573763,0.60688710,1.31001499,15,36,78,5,12,35,0.09176771,0.20594995,0.59773725,0.05799979,0.12276050,0.24670787
20123,0,USKansasMitchell,Kansas,Mitchell,2021-01-05 22:47:40.867146,2020-07-03 00:00:00.000000,0.26840281,0.65559230,1.41338414,16,39,84,6,13,36,0.11088187,0.22754242,0.60430448,0.05782729,0.11973860,0.23611123
20123,0,USKansasMitchell,Kansas,Mitchell,2021-01-05 22:47:40.867146,2020-07-04 00:00:00.000000,0.27967513,0.69103871,1.45645034,16,41,87,7,15,36,0.12031240,0.25095596,0.60856714,0.05774639,0.11618504,0.21476058
20123,0,USKansasMitchell,Kansas,Mitchell,2021-01-05 22:47:40.867146,2020-07-05 00:00:00.000000,0.29259232,0.70920009,1.51974923,17,42,90,8,16,36,0.13425298,0.28184870,0.61127381,0.05762675,0.11493266,0.20663285
20123,0,USKansasMitchell,Kansas,Mitchell,2021-01-05 22:47:40.867146,2020-07-06 00:00:00.000000,0.31058840,0.72967803,1.56321256,18,43,93,8,17,38,0.14485718,0.29964968,0.64282824,0.05760316,0.10951217,0.20350393
20123,0,USKansasMitchell,Kansas,Mitchell,2021-01-05 22:47:40.867146,2020-07-07 00:00:00.000000,0.32521900,0.73073962,1.53379423,19,43,91,9,18,38,0.15291358,0.31701402,0.65103872,0.05769107,0.10620135,0.20765676
20123,0,USKansasMitchell,Kansas,Mitchell,2021-01-05 22:47:40.867146,2020-07-08 00:00:00.000000,0.34030646,0.74713782,1.52868064,20,44,91,9,19,39,0.15905795,0.32384032,0.66113451,0.05799900,0.10491177,0.19975089
20123,0,USKansasMitchell,Kansas,Mitchell,2021-01-05 22:47:40.867146,2020-07-09 00:00:00.000000,0.35458695,0.76469024,1.55151287,21,45,92,9,20,40,0.16374191,0.33704009,0.67413917,0.05876586,0.10150927,0.18760641
20123,0,USKansasMitchell,Kansas,Mitchell,2021-01-05 22:47:40.867146,2020-07-10 00:00:00.000000,0.35847507,0.76154361,1.57187691,21,45,93,9,21,41,0.16701585,0.35468978,0.68807564,0.05959720,0.10355650,0.18250092
20123,0,USKansasMitchell,Kansas,Mitchell,2021-01-05 22:47:40.867146,2020-07-11 00:00:00.000000,0.35071189,0.76272123,1.59029147,20,45,95,10,21,42,0.17039966,0.36039133,0.70314552,0.05471798,0.10339526,0.18205598
20123,0,USKansasMitchell,Kansas,Mitchell,2021-01-05 22:47:40.867146,2020-07-12 00:00:00.000000,0.35646834,0.77226422,1.60706203,21,46,96,10,21,43,0.17384685,0.36692552,0.72233621,0.05275148,0.10280912,0.18202914
20123,0,USKansasMitchell,Kansas,Mitchell,2021-01-05 22:47:40.867146,2020-07-13 00:00:00.000000,0.37888573,0.78329038,1.62622513,22,46,97,10,23,43,0.17742264,0.38569001,0.73038343,0.05237485,0.10377922,0.18154077
20123,0,USKansasMitchell,Kansas,Mitchell,2021-01-05 22:47:40.867146,2020-07-14 00:00:00.000000,0.40431714,0.79363574,1.64042889,24,47,98,10,23,43,0.17652782,0.38642124,0.72615453,0.05253331,0.10479157,0.18094463
20123,0,USKansasMitchell,Kansas,Mitchell,2021-01-05 22:47:40.867146,2020-07-15 00:00:00.000000,0.40875993,0.80417463,1.64408003,24,48,98,10,22,43,0.17743141,0.38056068,0.72360619,0.05306182,0.10496820,0.17761099
20123,0,USKansasMitchell,Kansas,Mitchell,2021-01-05 22:47:40.867146,2020-07-16 00:00:00.000000,0.41558652,0.81257514,1.64799717,24,48,98,10,22,43,0.18110017,0.37650528,0.72223205,0.05255466,0.10433167,0.16753954
20123,0,USKansasMitchell,Kansas,Mitchell,2021-01-05 22:47:40.867146,2020-07-17 00:00:00.000000,0.42816356,0.82063383,1.65205787,25,49,98,11,23,43,0.18555469,0.38925177,0.72167971,0.05115558,0.10583022,0.16431825
20123,0,USKansasMitchell,Kansas,Mitchell,2021-01-05 22:47:40.867146,2020-07-18 00:00:00.000000,0.42944538,0.83646671,1.65614596,25,50,99,11,22,43,0.19051607,0.38399961,0.72023034,0.05029655,0.10522318,0.16228551
20123,0,USKansasMitchell,Kansas,Mitchell,2021-01-05 22:47:40.867146,2020-07-19 00:00:00.000000,0.42898619,0.84672830,1.66016628,25,50,99,11,23,42,0.19576896,0.38658725,0.70706022,0.05071095,0.10743687,0.15960048
20123,0,USKansasMitchell,Kansas,Mitchell,2021-01-05 22:47:40.867146,2020-07-20 00:00:00.000000,0.42581929,0.83682920,1.62010048,25,50,96,12,23,42,0.20105691,0.38601469,0.71025379,0.05154305,0.10889627,0.16745250
20123,0,USKansasMitchell,Kansas,Mitchell,2021-01-05 22:47:40.867146,2020-07-21 00:00:00.000000,0.42828226,0.83911490,1.64645203,25,50,98,12,23,42,0.20192647,0.38553528,0.71076583,0.05221823,0.10808605,0.15974526
20123,0,USKansasMitchell,Kansas,Mitchell,2021-01-05 22:47:40.867146,2020-07-22 00:00:00.000000,0.42063630,0.85020166,1.61948672,25,50,96,12,23,42,0.20142323,0.39256597,0.70761107,0.05280616,0.10807721,0.16074222
20123,0,USKansasMitchell,Kansas,Mitchell,2021-01-05 22:47:40.867146,2020-07-23 00:00:00.000000,0.40663307,0.85423819,1.59222027,24,51,95,11,23,42,0.20033643,0.39318213,0.70261490,0.05353384,0.10790182,0.16101557
20123,0,USKansasMitchell,Kansas,Mitchell,2021-01-05 22:47:40.867146,2020-07-24 00:00:00.000000,0.38668375,0.83408829,1.56509739,23,49,93,11,23,41,0.19649733,0.39281405,0.69589530,0.05458667,0.10761367,0.15727941
20123,0,USKansasMitchell,Kansas,Mitchell,2021-01-05 22:47:40.867146,2020-07-25 00:00:00.000000,0.37372730,0.82291024,1.57189783,22,49,93,11,23,41,0.19189745,0.39364398,0.69557169,0.05551572,0.10346236,0.15656722
20123,0,USKansasMitchell,Kansas,Mitchell,2021-01-05 22:47:40.867146,2020-07-26 00:00:00.000000,0.36144920,0.81471524,1.62407202,21,48,97,10,23,41,0.17873038,0.39480222,0.69572334,0.05703467,0.10127551,0.15568005
20123,0,USKansasMitchell,Kansas,Mitchell,2021-01-05 22:47:40.867146,2020-07-27 00:00:00.000000,0.40535720,0.80363271,1.66347804,24,48,99,10,23,41,0.17263531,0.39520745,0.69535831,0.05836778,0.10106274,0.15461869
20123,0,USKansasMitchell,Kansas,Mitchell,2021-01-05 22:47:40.867146,2020-07-28 00:00:00.000000,0.44997936,0.79702684,1.70050165,26,47,101,10,23,41,0.17803823,0.39598276,0.69338656,0.05932225,0.09924731,0.15338495
20123,0,USKansasMitchell,Kansas,Mitchell,2021-01-05 22:47:40.867146,2020-07-29 00:00:00.000000,0.44899313,0.79657282,1.65617972,26,47,99,11,23,42,0.19048163,0.39506505,0.70268823,0.05989214,0.09797165,0.15193828
20123,0,USKansasMitchell,Kansas,Mitchell,2021-01-05 22:47:40.867146,2020-07-30 00:00:00.000000,0.43396009,0.78465330,1.61188770,25,46,96,12,23,43,0.20699458,0.38819754,0.72102466,0.06014981,0.09605659,0.15037874
20123,0,USKansasMitchell,Kansas,Mitchell,2021-01-05 22:47:40.867146,2020-07-31 00:00:00.000000,0.42019429,0.77736092,1.56791798,25,46,93,13,22,44,0.21825553,0.38026776,0.73941076,0.06027909,0.09561066,0.14875992
20123,0,USKansasMitchell,Kansas,Mitchell,2021-01-05 22:47:40.867146,2020-08-01 00:00:00.000000,0.41919005,0.77028307,1.52452609,25,46,91,13,21,44,0.22648915,0.36779789,0.73674797,0.06047808,0.09541854,0.15307046
20123,0,USKansasMitchell,Kansas,Mitchell,2021-01-05 22:47:40.867146,2020-08-02 00:00:00.000000,0.42871907,0.76360060,1.48105813,25,45,88,13,21,43,0.21882021,0.36566284,0.71952245,0.06054791,0.09623530,0.15907912
20123,0,USKansasMitchell,Kansas,Mitchell,2021-01-05 22:47:40.867146,2020-08-03 00:00:00.000000,0.42356552,0.76201941,1.43481662,25,45,85,12,21,41,0.21173394,0.36011645,0.70187069,0.06058511,0.09629420,0.16136063
20123,0,USKansasMitchell,Kansas,Mitchell,2021-01-05 22:47:40.867146,2020-08-04 00:00:00.000000,0.42073568,0.75257278,1.38714390,25,44,82,12,21,40,0.20559537,0.36075865,0.68342958,0.06061711,0.09741187,0.16224431
20123,0,USKansasMitchell,Kansas,Mitchell,2021-01-05 22:47:40.867146,2020-08-05 00:00:00.000000,0.41621413,0.76170769,1.33916431,24,45,80,11,21,39,0.20024701,0.36089646,0.66397951,0.06066257,0.09856611,0.16266944
20123,0,USKansasMitchell,Kansas,Mitchell,2021-01-05 22:47:40.867146,2020-08-06 00:00:00.000000,0.41151700,0.76730220,1.30013373,24,45,77,11,21,38,0.19556506,0.36430543,0.64649960,0.06094060,0.09698868,0.16266437
20123,0,USKansasMitchell,Kansas,Mitchell,2021-01-05 22:47:40.867146,2020-08-07 00:00:00.000000,0.40685205,0.77324611,1.35494685,24,46,81,11,21,38,0.19150080,0.36414255,0.63830208,0.06177052,0.09777588,0.16332414
20123,0,USKansasMitchell,Kansas,Mitchell,2021-01-05 22:47:40.867146,2020-08-08 00:00:00.000000,0.40297970,0.76860963,1.41113012,24,45,84,11,21,37,0.18803353,0.36234287,0.62976124,0.06171426,0.09717469,0.16831997
20123,0,USKansasMitchell,Kansas,Mitchell,2021-01-05 22:47:40.867146,2020-08-09 00:00:00.000000,0.39949479,0.77015632,1.46715411,23,46,87,11,21,37,0.18503397,0.35642157,0.62107321,0.06158527,0.09700486,0.16806331
20123,0,USKansasMitchell,Kansas,Mitchell,2021-01-05 22:47:40.867146,2020-08-10 00:00:00.000000,0.40761768,0.77471534,1.46564158,24,46,87,10,21,36,0.18245426,0.35725567,0.61856427,0.06129334,0.09770812,0.16827910
20123,0,USKansasMitchell,Kansas,Mitchell,2021-01-05 22:47:40.867146,2020-08-11 00:00:00.000000,0.41158658,0.78243111,1.46303962,24,46,87,10,21,37,0.18260982,0.36110805,0.63409545,0.06073065,0.09746565,0.17140807
20123,0,USKansasMitchell,Kansas,Mitchell,2021-01-05 22:47:40.867146,2020-08-12 00:00:00.000000,0.41349966,0.79280313,1.45851278,24,47,87,11,22,38,0.18463347,0.36911151,0.64408399,0.05988304,0.09777504,0.16951769
20123,0,USKansasMitchell,Kansas,Mitchell,2021-01-05 22:47:40.867146,2020-08-13 00:00:00.000000,0.41275121,0.77842513,1.45285223,24,46,86,11,22,38,0.18789376,0.36899498,0.65007713,0.05906479,0.10125323,0.17451951
20123,0,USKansasMitchell,Kansas,Mitchell,2021-01-05 22:47:40.867146,2020-08-14 00:00:00.000000,0.41312787,0.76974915,1.44703144,24,46,86,11,22,39,0.19055663,0.36904014,0.65322864,0.05898999,0.10232835,0.17713090
20123,0,USKansasMitchell,Kansas,Mitchell,2021-01-05 22:47:40.867146,2020-08-15 00:00:00.000000,0.40609309,0.76856904,1.44216195,24,45,86,11,21,39,0.18964428,0.36421154,0.65445591,0.05884980,0.10377996,0.18204399
20123,0,USKansasMitchell,Kansas,Mitchell,2021-01-05 22:47:40.867146,2020-08-16 00:00:00.000000,0.39303581,0.76230028,1.43831845,23,45,85,11,21,39,0.18871660,0.35808608,0.65453805,0.05867996,0.10388838,0.18671114
20123,0,USKansasMitchell,Kansas,Mitchell,2021-01-05 22:47:40.867146,2020-08-17 00:00:00.000000,0.39532330,0.74920741,1.42376190,23,44,85,11,21,39,0.18852868,0.35769461,0.65401070,0.05852838,0.10509420,0.18864503
20123,0,USKansasMitchell,Kansas,Mitchell,2021-01-05 22:47:40.867146,2020-08-18 00:00:00.000000,0.38253039,0.74128821,1.40926785,22,44,84,11,21,39,0.18786717,0.35908420,0.66270746,0.05844964,0.10730401,0.19278776
20123,0,USKansasMitchell,Kansas,Mitchell,2021-01-05 22:47:40.867146,2020-08-19 00:00:00.000000,0.37055642,0.75481050,1.39456448,22,45,83,10,21,40,0.18193921,0.36507666,0.67505133,0.05852913,0.10878839,0.20074551
20123,0,USKansasMitchell,Kansas,Mitchell,2021-01-05 22:47:40.867146,2020-08-20 00:00:00.000000,0.35944440,0.76490388,1.37955575,21,45,82,11,21,40,0.18781923,0.36350415,0.68396852,0.05899845,0.10999470,0.20840452
20123,0,USKansasMitchell,Kansas,Mitchell,2021-01-05 22:47:40.867146,2020-08-21 00:00:00.000000,0.34922307,0.77406388,1.36264246,20,46,81,10,21,41,0.18149648,0.36359693,0.69011424,0.06051542,0.11064991,0.21398164
20123,0,USKansasMitchell,Kansas,Mitchell,2021-01-05 22:47:40.867146,2020-08-22 00:00:00.000000,0.33989967,0.78147999,1.35033635,20,46,80,10,22,41,0.17484505,0.37541173,0.69402929,0.06390825,0.11129389,0.21828593
20123,0,USKansasMitchell,Kansas,Mitchell,2021-01-05 22:47:40.867146,2020-08-23 00:00:00.000000,0.33149709,0.77788816,1.34160680,19,46,80,10,22,41,0.16858023,0.37747648,0.69616431,0.06589179,0.11173650,0.20908246
20123,0,USKansasMitchell,Kansas,Mitchell,2021-01-05 22:47:40.867146,2020-08-24 00:00:00.000000,0.34293818,0.81229350,1.41033470,20,48,84,9,22,41,0.16272148,0.37403111,0.69689979,0.06637378,0.11292161,0.20292560
20123,0,USKansasMitchell,Kansas,Mitchell,2021-01-05 22:47:40.867146,2020-08-25 00:00:00.000000,0.35512517,0.79750361,1.41520655,21,47,84,9,22,41,0.15915494,0.37347645,0.70230478,0.06663160,0.11196237,0.20013764
20123,0,USKansasMitchell,Kansas,Mitchell,2021-01-05 22:47:40.867146,2020-08-26 00:00:00.000000,0.36822680,0.80835212,1.42392604,22,48,85,9,22,42,0.16084356,0.36901090,0.70809472,0.06630553,0.11197090,0.19975481
20123,0,USKansasMitchell,Kansas,Mitchell,2021-01-05 22:47:40.867146,2020-08-27 00:00:00.000000,0.38173120,0.82005115,1.45954645,22,49,87,9,22,42,0.16403742,0.37175863,0.70858284,0.06636393,0.11215081,0.20127020
20123,0,USKansasMitchell,Kansas,Mitchell,2021-01-05 22:47:40.867146,2020-08-28 00:00:00.000000,0.39526129,0.80243762,1.46115836,23,47,87,10,22,41,0.16814388,0.37557814,0.70094324,0.06680683,0.11160573,0.20449209
20123,0,USKansasMitchell,Kansas,Mitchell,2021-01-05 22:47:40.867146,2020-08-29 00:00:00.000000,0.40854024,0.79632506,1.48096069,24,47,88,10,23,41,0.17286210,0.38723403,0.69192776,0.06839195,0.11289649,0.20921377
20123,0,USKansasMitchell,Kansas,Mitchell,2021-01-05 22:47:40.867146,2020-08-30 00:00:00.000000,0.42138742,0.79902899,1.49871422,25,47,89,10,23,40,0.17793074,0.38806685,0.68172574,0.07358213,0.11374165,0.21493977
20123,0,USKansasMitchell,Kansas,Mitchell,2021-01-05 22:47:40.867146,2020-08-31 00:00:00.000000,0.42119625,0.79933527,1.47874282,25,47,88,10,23,41,0.18311527,0.38472268,0.69301221,0.07758215,0.11590318,0.22096557
20123,0,USKansasMitchell,Kansas,Mitchell,2021-01-05 22:47:40.867146,2020-09-01 00:00:00.000000,0.42040976,0.79311847,1.45773627,25,47,87,11,22,42,0.18754974,0.37418164,0.70947730,0.07850347,0.11697795,0.22675024
20123,0,USKansasMitchell,Kansas,Mitchell,2021-01-05 22:47:40.867146,2020-09-02 00:00:00.000000,0.41885309,0.79223825,1.44746260,25,47,86,11,22,43,0.19140541,0.37346262,0.72396873,0.07971989,0.11835065,0.20566372
20123,0,USKansasMitchell,Kansas,Mitchell,2021-01-05 22:47:40.867146,2020-09-03 00:00:00.000000,0.41685153,0.78701146,1.52352026,24,47,91,11,22,44,0.19483764,0.37660279,0.73633156,0.08195623,0.12080864,0.21528026
20123,0,USKansasMitchell,Kansas,Mitchell,2021-01-05 22:47:40.867146,2020-09-04 00:00:00.000000,0.41469878,0.80673113,1.60173636,24,48,95,11,22,44,0.19827125,0.37402020,0.74640697,0.08290991,0.12483421,0.20879855
20123,0,USKansasMitchell,Kansas,Mitchell,2021-01-05 22:47:40.867146,2020-09-05 00:00:00.000000,0.41183961,0.82369067,1.67680443,24,49,100,11,22,45,0.19990800,0.38436308,0.75430915,0.08209146,0.12689047,0.20511567
20123,0,USKansasMitchell,Kansas,Mitchell,2021-01-05 22:47:40.867146,2020-09-06 00:00:00.000000,0.40315516,0.80761804,1.70649113,24,48,102,11,23,46,0.19625184,0.38828197,0.76944207,0.08321448,0.13199327,0.23465211
20123,0,USKansasMitchell,Kansas,Mitchell,2021-01-05 22:47:40.867146,2020-09-07 00:00:00.000000,0.40069447,0.79878138,1.67047016,23,47,99,11,23,46,0.19126550,0.39404010,0.76940467,0.08326494,0.13537929,0.25599342
20123,0,USKansasMitchell,Kansas,Mitchell,2021-01-05 22:47:40.867146,2020-09-08 00:00:00.000000,0.39909055,0.79186729,1.63367446,23,47,97,11,23,45,0.18928729,0.39375591,0.76790698,0.08255209,0.13704903,0.25745881
20123,0,USKansasMitchell,Kansas,Mitchell,2021-01-05 22:47:40.867146,2020-09-09 00:00:00.000000,0.39858491,0.78487015,1.59550524,23,46,95,11,23,45,0.19484327,0.38696061,0.76539744,0.08253467,0.13810305,0.25856698
20123,0,USKansasMitchell,Kansas,Mitchell,2021-01-05 22:47:40.867146,2020-09-10 00:00:00.000000,0.39939525,0.78793380,1.55682247,23,47,93,12,22,45,0.20204685,0.38294732,0.76204891,0.08426798,0.13987816,0.25966969
20123,0,USKansasMitchell,Kansas,Mitchell,2021-01-05 22:47:40.867146,2020-09-11 00:00:00.000000,0.39982509,0.78654213,1.51820558,23,47,90,11,22,45,0.19765709,0.38267725,0.75771977,0.08694990,0.14424749,0.26088531
20123,0,USKansasMitchell,Kansas,Mitchell,2021-01-05 22:47:40.867146,2020-09-12 00:00:00.000000,0.39510368,0.78070933,1.48005916,23,46,88,11,22,44,0.19367102,0.38284983,0.75224039,0.08888800,0.15243467,0.26211160
20123,0,USKansasMitchell,Kansas,Mitchell,2021-01-05 22:47:40.867146,2020-09-13 00:00:00.000000,0.40115095,0.78171234,1.44273136,23,46,86,11,23,44,0.19038932,0.38933831,0.74577290,0.08669044,0.15550554,0.26310458
20123,0,USKansasMitchell,Kansas,Mitchell,2021-01-05 22:47:40.867146,2020-09-14 00:00:00.000000,0.40829903,0.78646335,1.42292957,24,47,85,11,23,44,0.18900309,0.39272472,0.73865760,0.08387625,0.15851500,0.26385655
20123,0,USKansasMitchell,Kansas,Mitchell,2021-01-05 22:47:40.867146,2020-09-15 00:00:00.000000,0.40599384,0.82866239,1.40544372,24,49,84,11,23,43,0.19960018,0.39139471,0.73427865,0.08300744,0.16453494,0.26545344
20123,0,USKansasMitchell,Kansas,Mitchell,2021-01-05 22:47:40.867146,2020-09-16 00:00:00.000000,0.40440870,0.85756713,1.39102499,24,51,83,12,23,43,0.20947559,0.39873849,0.73189477,0.08343469,0.16824527,0.26532921
20123,0,USKansasMitchell,Kansas,Mitchell,2021-01-05 22:47:40.867146,2020-09-17 00:00:00.000000,0.40343079,0.87298852,1.38244548,24,52,82,12,23,43,0.21444332,0.39985739,0.73111630,0.08410674,0.17266547,0.26562443
20123,0,USKansasMitchell,Kansas,Mitchell,2021-01-05 22:47:40.867146,2020-09-18 00:00:00.000000,0.40291369,0.88859987,1.39684161,24,53,83,12,23,43,0.21261228,0.39875230,0.73171104,0.08512395,0.18285760,0.27001330
20123,0,USKansasMitchell,Kansas,Mitchell,2021-01-05 22:47:40.867146,2020-09-19 00:00:00.000000,0.40508713,0.90053105,1.41170920,24,53,84,12,23,43,0.21087775,0.39875526,0.73341980,0.08654842,0.19208413,0.27654344
20123,0,USKansasMitchell,Kansas,Mitchell,2021-01-05 22:47:40.867146,2020-09-20 00:00:00.000000,0.41707474,0.91005510,1.42751394,24,54,85,12,24,44,0.20918520,0.41027780,0.73595486,0.08832550,0.19485561,0.27593451
20123,0,USKansasMitchell,Kansas,Mitchell,2021-01-05 22:47:40.867146,2020-09-21 00:00:00.000000,0.43297276,0.92185996,1.43433518,25,55,85,12,24,44,0.20747143,0.41341445,0.73906227,0.09027686,0.19889183,0.28571203
20123,0,USKansasMitchell,Kansas,Mitchell,2021-01-05 22:47:40.867146,2020-09-22 00:00:00.000000,0.44837507,0.94592187,1.44428400,26,56,86,12,25,43,0.21327547,0.41922108,0.73412796,0.09284263,0.20302517,0.29217249
20123,0,USKansasMitchell,Kansas,Mitchell,2021-01-05 22:47:40.867146,2020-09-23 00:00:00.000000,0.46389755,0.96569686,1.45846846,27,57,87,13,25,43,0.22174837,0.42406810,0.72402373,0.09614768,0.20540696,0.29636334
20123,0,USKansasMitchell,Kansas,Mitchell,2021-01-05 22:47:40.867146,2020-09-24 00:00:00.000000,0.47955775,0.97183921,1.48379096,28,58,88,13,25,42,0.22749016,0.42708286,0.71075857,0.10433837,0.20968876,0.30557531
20123,0,USKansasMitchell,Kansas,Mitchell,2021-01-05 22:47:40.867146,2020-09-25 00:00:00.000000,0.48175825,0.99492132,1.57936871,28,59,94,13,26,41,0.22858493,0.43675059,0.69581413,0.12166061,0.21773626,0.32294438
20123,0,USKansasMitchell,Kansas,Mitchell,2021-01-05 22:47:40.867146,2020-09-26 00:00:00.000000,0.48143451,1.00732106,1.63849732,28,60,97,13,26,40,0.22994695,0.44933138,0.68307477,0.13800025,0.22408128,0.32838859
20123,0,USKansasMitchell,Kansas,Mitchell,2021-01-05 22:47:40.867146,2020-09-27 00:00:00.000000,0.49376108,1.02543458,1.69932938,29,61,101,13,27,41,0.23147903,0.45634986,0.69760659,0.15056179,0.23241429,0.33800714
20123,0,USKansasMitchell,Kansas,Mitchell,2021-01-05 22:47:40.867146,2020-09-28 00:00:00.000000,0.49455427,1.05052041,1.74607775,29,62,104,13,27,42,0.23314052,0.46687999,0.71403312,0.15334300,0.24131817,0.34840754
20123,0,USKansasMitchell,Kansas,Mitchell,2021-01-05 22:47:40.867146,2020-09-29 00:00:00.000000,0.49496700,1.06970924,1.79336408,29,63,107,14,28,43,0.23716569,0.47956367,0.73324002,0.16336451,0.24561316,0.36836678
20123,0,USKansasMitchell,Kansas,Mitchell,2021-01-05 22:47:40.867146,2020-09-30 00:00:00.000000,0.51473697,1.10550948,1.84113896,30,66,110,14,29,45,0.25075178,0.50017560,0.75567044,0.17035860,0.24653737,0.39608672
20123,0,USKansasMitchell,Kansas,Mitchell,2021-01-05 22:47:40.867146,2020-10-01 00:00:00.000000,0.53486907,1.15615659,1.88988567,31,69,112,15,30,46,0.26696966,0.51343242,0.78000319,0.17359291,0.25553419,0.40035172
20123,0,USKansasMitchell,Kansas,Mitchell,2021-01-05 22:47:40.867146,2020-10-02 00:00:00.000000,0.54078747,1.21459811,1.94179236,32,72,116,15,31,48,0.26385113,0.52784277,0.80696291,0.17680548,0.26592512,0.40446068
20123,0,USKansasMitchell,Kansas,Mitchell,2021-01-05 22:47:40.867146,2020-10-03 00:00:00.000000,0.55548820,1.24261090,2.03335854,33,74,121,15,32,50,0.25610999,0.55187769,0.84228999,0.18324233,0.27143640,0.41432044
20123,0,USKansasMitchell,Kansas,Mitchell,2021-01-05 22:47:40.867146,2020-10-04 00:00:00.000000,0.57632699,1.26333038,2.17534587,34,75,130,14,34,52,0.25009808,0.57733814,0.88159073,0.18804979,0.28398840,0.43175072
20123,0,USKansasMitchell,Kansas,Mitchell,2021-01-05 22:47:40.867146,2020-10-05 00:00:00.000000,0.61453647,1.29381133,2.20370756,36,77,131,14,35,56,0.24569521,0.59286818,0.94257186,0.19503802,0.30150539,0.44974678
20123,0,USKansasMitchell,Kansas,Mitchell,2021-01-05 22:47:40.867146,2020-10-06 00:00:00.000000,0.65490645,1.32463233,2.21710033,39,79,132,15,35,59,0.26101635,0.60077147,0.99518178,0.20269595,0.31710088,0.46844958
20123,0,USKansasMitchell,Kansas,Mitchell,2021-01-05 22:47:40.867146,2020-10-07 00:00:00.000000,0.69889134,1.34668599,2.22933083,41,80,133,17,37,62,0.28933399,0.61906922,1.04213559,0.21318001,0.33102697,0.47149809
20123,0,USKansasMitchell,Kansas,Mitchell,2021-01-05 22:47:40.867146,2020-10-08 00:00:00.000000,0.74575308,1.39945243,2.30109925,44,83,137,19,38,64,0.32625461,0.63915093,1.08523495,0.22424405,0.34567405,0.48463059
20123,0,USKansasMitchell,Kansas,Mitchell,2021-01-05 22:47:40.867146,2020-10-09 00:00:00.000000,0.79745465,1.49654950,2.43668205,47,89,145,21,39,67,0.36722910,0.65798206,1.12567635,0.23312492,0.35948431,0.51624807
20123,0,USKansasMitchell,Kansas,Mitchell,2021-01-05 22:47:40.867146,2020-10-10 00:00:00.000000,0.85767157,1.54906178,2.61617368,51,92,156,22,40,69,0.37632833,0.68400819,1.16425277,0.23881635,0.37762664,0.57778346
20123,0,USKansasMitchell,Kansas,Mitchell,2021-01-05 22:47:40.867146,2020-10-11 00:00:00.000000,0.92786363,1.64570105,2.73011235,55,98,163,23,42,71,0.38621618,0.70843389,1.20150050,0.24064368,0.39215137,0.61313756
20123,0,USKansasMitchell,Kansas,Mitchell,2021-01-05 22:47:40.867146,2020-10-12 00:00:00.000000,1.01259621,1.72199804,2.84327029,60,102,169,23,43,73,0.39811979,0.73111364,1.23459811,0.24216175,0.39382200,0.63118268
20123,0,USKansasMitchell,Kansas,Mitchell,2021-01-05 22:47:40.867146,2020-10-13 00:00:00.000000,1.06114466,1.81206716,2.98596275,63,108,178,24,45,74,0.41354077,0.76475416,1.25352998,0.24432042,0.41038228,0.64990984
20123,0,USKansasMitchell,Kansas,Mitchell,2021-01-05 22:47:40.867146,2020-10-14 00:00:00.000000,1.07810508,1.87847573,3.17189708,64,112,189,25,47,76,0.43382854,0.79913820,1.28288909,0.24468829,0.43096638,0.65604893
20123,0,USKansasMitchell,Kansas,Mitchell,2021-01-05 22:47:40.867146,2020-10-15 00:00:00.000000,1.09621939,1.95600569,3.36793912,65,116,201,27,50,79,0.46393943,0.83931198,1.32392189,0.24890274,0.44880005,0.65826208
20123,0,USKansasMitchell,Kansas,Mitchell,2021-01-05 22:47:40.867146,2020-10-16 00:00:00.000000,1.13400863,2.08886266,3.57408523,67,124,213,29,53,82,0.48679208,0.89019438,1.37813694,0.26577152,0.46645406,0.67423717
20123,0,USKansasMitchell,Kansas,Mitchell,2021-01-05 22:47:40.867146,2020-10-17 00:00:00.000000,1.23467835,2.24768569,3.79070231,73,134,226,31,56,85,0.52567304,0.93688971,1.42952955,0.29262382,0.49553233,0.69471240
20123,0,USKansasMitchell,Kansas,Mitchell,2021-01-05 22:47:40.867146,2020-10-18 00:00:00.000000,1.32298974,2.39390247,4.01839585,79,143,240,33,59,90,0.55287616,0.99024065,1.50878152,0.32343278,0.52417067,0.71204071
20123,0,USKansasMitchell,Kansas,Mitchell,2021-01-05 22:47:40.867146,2020-10-19 00:00:00.000000,1.42962556,2.55860299,4.25714598,85,152,254,34,62,97,0.57146013,1.04545013,1.62415068,0.34373474,0.54607654,0.73742329
20123,0,USKansasMitchell,Kansas,Mitchell,2021-01-05 22:47:40.867146,2020-10-20 00:00:00.000000,1.50310514,2.71948493,4.50862556,89,162,269,36,66,104,0.61082890,1.11727407,1.74847713,0.34943086,0.55785644,0.76245872
20123,0,USKansasMitchell,Kansas,Mitchell,2021-01-05 22:47:40.867146,2020-10-21 00:00:00.000000,1.58269198,2.94285933,4.82086303,94,175,288,40,71,111,0.67419247,1.19409958,1.86816393,0.37141167,0.56148381,0.78222650
20123,0,USKansasMitchell,Kansas,Mitchell,2021-01-05 22:47:40.867146,2020-10-22 00:00:00.000000,1.67329066,3.21666240,5.27140496,100,192,315,42,77,119,0.71428945,1.29215257,1.99043396,0.43291267,0.58508336,0.79428052
20123,0,USKansasMitchell,Kansas,Mitchell,2021-01-05 22:47:40.867146,2020-10-23 00:00:00.000000,1.78275719,3.51111423,5.76561548,106,209,344,45,82,126,0.75515089,1.38760922,2.11898033,0.43498207,0.59682083,0.80835543
20123,0,USKansasMitchell,Kansas,Mitchell,2021-01-05 22:47:40.867146,2020-10-24 00:00:00.000000,1.91830412,3.73932128,6.29373828,114,223,376,48,89,134,0.81058610,1.48999247,2.25408380,0.44890641,0.62501612,0.81632418
20123,0,USKansasMitchell,Kansas,Mitchell,2021-01-05 22:47:40.867146,2020-10-25 00:00:00.000000,2.08098835,4.08729291,6.85450650,124,244,409,52,95,143,0.87211233,1.60117432,2.39651627,0.45671664,0.65485172,0.86841444
20123,0,USKansasMitchell,Kansas,Mitchell,2021-01-05 22:47:40.867146,2020-10-26 00:00:00.000000,2.31101103,4.50278321,7.44160687,138,269,444,56,103,152,0.94232827,1.73839699,2.54935565,0.47430635,0.69641762,0.93011416
20123,0,USKansasMitchell,Kansas,Mitchell,2021-01-05 22:47:40.867146,2020-10-27 00:00:00.000000,2.56183995,4.88280201,8.06629654,153,291,482,61,112,164,1.02298404,1.87524143,2.75784150,0.48751830,0.70843684,0.97259981
20123,0,USKansasMitchell,Kansas,Mitchell,2021-01-05 22:47:40.867146,2020-10-28 00:00:00.000000,2.84662478,5.40020141,8.79729822,170,322,525,66,122,179,1.11426210,2.05038132,2.99974064,0.54578589,0.73067799,0.98392916
20123,0,USKansasMitchell,Kansas,Mitchell,2021-01-05 22:47:40.867146,2020-10-29 00:00:00.000000,3.23556294,5.91699353,9.70904073,193,353,580,73,134,194,1.22229768,2.25435887,3.25730928,0.55621117,0.76635959,0.99325700
20123,0,USKansasMitchell,Kansas,Mitchell,2021-01-05 22:47:40.867146,2020-10-30 00:00:00.000000,3.79661876,6.47284977,10.69638367,226,387,639,81,148,211,1.36961772,2.47570098,3.53218226,0.58248618,0.80406830,1.01711590
20123,0,USKansasMitchell,Kansas,Mitchell,2021-01-05 22:47:40.867146,2020-10-31 00:00:00.000000,4.25526758,7.06898528,11.76123380,254,422,703,92,161,228,1.55450278,2.70825251,3.82672987,0.61025418,0.83229779,1.03599922
20123,0,USKansasMitchell,Kansas,Mitchell,2021-01-05 22:47:40.867146,2020-11-01 00:00:00.000000,4.71322529,7.76886853,12.90470624,281,464,771,105,178,252,1.77128091,2.98616989,4.21939732,0.65296117,0.84854945,1.04785401
20123,0,USKansasMitchell,Kansas,Mitchell,2021-01-05 22:47:40.867146,2020-11-02 00:00:00.000000,5.23091168,8.51652648,14.14263417,312,509,845,120,197,277,2.01458531,3.30599376,4.64674335,0.66945196,0.87370592,1.06376273
20123,0,USKansasMitchell,Kansas,Mitchell,2021-01-05 22:47:40.867146,2020-11-03 00:00:00.000000,5.77987296,9.31878919,15.45788170,345,557,924,135,217,307,2.26227159,3.64340192,5.13714561,0.67182423,0.87875845,1.06976793
20123,0,USKansasMitchell,Kansas,Mitchell,2021-01-05 22:47:40.867146,2020-11-04 00:00:00.000000,6.42148133,10.30626921,16.84821201,383,616,1007,151,239,335,2.53088250,3.99942412,5.61132603,0.67223095,0.88286842,1.08805953
20123,0,USKansasMitchell,Kansas,Mitchell,2021-01-05 22:47:40.867146,2020-11-05 00:00:00.000000,7.26058382,11.32379865,18.30893197,434,677,1094,169,263,367,2.82860583,4.40147027,6.14767349,0.67240954,0.88383113,1.08664188
20123,0,USKansasMitchell,Kansas,Mitchell,2021-01-05 22:47:40.867146,2020-11-06 00:00:00.000000,8.13634880,12.37748397,19.83308722,486,740,1185,187,290,402,3.14266432,4.85518170,6.73630404,0.67249668,0.88414884,1.10883691
20123,0,USKansasMitchell,Kansas,Mitchell,2021-01-05 22:47:40.867146,2020-11-07 00:00:00.000000,8.97632039,13.51783024,21.41141036,536,808,1280,208,319,442,3.47899409,5.33847750,7.40715216,0.67271068,0.88833750,1.11898789
20123,0,USKansasMitchell,Kansas,Mitchell,2021-01-05 22:47:40.867146,2020-11-08 00:00:00.000000,9.87032420,14.79461623,23.01096936,590,884,1375,229,348,485,3.83022109,5.83648385,8.12321473,0.67925547,0.88582661,1.14740963
20123,0,USKansasMitchell,Kansas,Mitchell,2021-01-05 22:47:40.867146,2020-11-09 00:00:00.000000,10.72482409,16.08819234,24.45427729,641,961,1462,250,385,531,4.19577458,6.44698833,8.88541076,0.67048294,0.87983263,1.17048921
20123,0,USKansasMitchell,Kansas,Mitchell,2021-01-05 22:47:40.867146,2020-11-10 00:00:00.000000,11.67612705,17.31939972,25.89859037,698,1035,1548,273,421,579,4.57391086,7.05487641,9.69060607,0.67083602,0.87297355,1.14942418
20123,0,USKansasMitchell,Kansas,Mitchell,2021-01-05 22:47:40.867146,2020-11-11 00:00:00.000000,12.55739342,18.53796133,27.33076029,750,1108,1634,296,457,630,4.96701646,7.64623849,10.53987793,0.64437328,0.86585503,1.14962617
20123,0,USKansasMitchell,Kansas,Mitchell,2021-01-05 22:47:40.867146,2020-11-12 00:00:00.000000,13.42485929,19.96636949,28.73605604,802,1193,1718,321,492,683,5.37533934,8.23975024,11.42949711,0.61496322,0.85231893,1.14924807
20123,0,USKansasMitchell,Kansas,Mitchell,2021-01-05 22:47:40.867146,2020-11-13 00:00:00.000000,14.30787260,21.33782394,30.09863320,855,1275,1799,346,530,738,5.79752137,8.87493230,12.35205399,0.59151019,0.82925576,1.14649564
20123,0,USKansasMitchell,Kansas,Mitchell,2021-01-05 22:47:40.867146,2020-11-14 00:00:00.000000,15.14587688,22.62395758,31.40195908,905,1352,1877,372,568,795,6.23096150,9.51246549,13.29820366,0.56697429,0.80692974,1.14271716
20123,0,USKansasMitchell,Kansas,Mitchell,2021-01-05 22:47:40.867146,2020-11-15 00:00:00.000000,15.94089060,23.60994567,32.86500926,953,1411,1964,398,603,852,6.67190954,10.08935970,14.25765747,0.53173071,0.79709513,1.16414496
20123,0,USKansasMitchell,Kansas,Mitchell,2021-01-05 22:47:40.867146,2020-11-16 00:00:00.000000,16.65960619,24.55602089,34.29777514,996,1468,2050,425,637,903,7.11497807,10.65938226,15.10977787,0.52051339,0.78959594,1.23643295
20123,0,USKansasMitchell,Kansas,Mitchell,2021-01-05 22:47:40.867146,2020-11-17 00:00:00.000000,17.40245028,25.46202285,35.61221306,1040,1522,2129,451,671,946,7.55145263,11.23255115,15.83454986,0.51642409,0.78828365,1.24256057
20123,0,USKansasMitchell,Kansas,Mitchell,2021-01-05 22:47:40.867146,2020-11-18 00:00:00.000000,18.16774506,26.18166036,36.78570625,1086,1565,2199,475,697,984,7.95977892,11.66717605,16.46991917,0.51623782,0.76582792,1.25838487
20123,0,USKansasMitchell,Kansas,Mitchell,2021-01-05 22:47:40.867146,2020-11-19 00:00:00.000000,18.60520356,26.99342018,37.79805531,1112,1613,2259,496,723,1014,8.30427159,12.09832093,16.97555727,0.51881560,0.76289767,1.25393555
20123,0,USKansasMitchell,Kansas,Mitchell,2021-01-05 22:47:40.867146,2020-11-20 00:00:00.000000,19.22781115,27.91187442,38.53387716,1149,1668,2303,512,750,1036,8.56756890,12.55626664,17.33983518,0.52694757,0.75679118,1.16180662
20123,0,USKansasMitchell,Kansas,Mitchell,2021-01-05 22:47:40.867146,2020-11-21 00:00:00.000000,19.79997824,28.47648370,39.29141304,1183,1702,2349,533,772,1053,8.91619705,12.92474986,17.61852350,0.51721523,0.75356102,1.15909502
20123,0,USKansasMitchell,Kansas,Mitchell,2021-01-05 22:47:40.867146,2020-11-22 00:00:00.000000,20.31386803,28.77174375,39.74975650,1214,1720,2376,556,790,1080,9.31321022,13.22683330,18.07878020,0.51735788,0.76159177,1.14061112
20123,0,USKansasMitchell,Kansas,Mitchell,2021-01-05 22:47:40.867146,2020-11-23 00:00:00.000000,20.22815665,29.17324571,40.10763795,1209,1744,2398,578,805,1104,9.66999281,13.46462122,18.47416009,0.52055938,0.77975873,1.17965336
20123,0,USKansasMitchell,Kansas,Mitchell,2021-01-05 22:47:40.867146,2020-11-24 00:00:00.000000,20.13325922,29.47365677,40.32386520,1203,1762,2410,578,818,1124,9.68159076,13.69788485,18.80471663,0.52424397,0.79456869,1.22170131
20123,0,USKansasMitchell,Kansas,Mitchell,2021-01-05 22:47:40.867146,2020-11-25 00:00:00.000000,19.95907364,29.61079274,40.58380769,1193,1770,2426,578,831,1139,9.67228287,13.90861866,19.06621974,0.52486754,0.79941045,1.19225029
20123,0,USKansasMitchell,Kansas,Mitchell,2021-01-05 22:47:40.867146,2020-11-26 00:00:00.000000,19.67463985,29.63339366,40.61178929,1176,1771,2428,578,839,1151,9.66858140,14.04300180,19.25566999,0.55371932,0.80354213,1.21543137
20123,0,USKansasMitchell,Kansas,Mitchell,2021-01-05 22:47:40.867146,2020-11-27 00:00:00.000000,19.69893965,29.74468970,40.41382074,1177,1778,2416,580,841,1158,9.70377910,14.07543601,19.37140569,0.54168386,0.82631345,1.25305203
20123,0,USKansasMitchell,Kansas,Mitchell,2021-01-05 22:47:40.867146,2020-11-28 00:00:00.000000,19.71310212,29.74502489,40.00108419,1178,1778,2391,574,841,1160,9.60651100,14.06974014,19.41325350,0.53469046,0.84025267,1.25314692
20123,0,USKansasMitchell,Kansas,Mitchell,2021-01-05 22:47:40.867146,2020-11-29 00:00:00.000000,19.66903504,29.29232492,39.38769044,1176,1751,2354,565,837,1160,9.46161348,14.00995784,19.40513878,0.54328545,0.83726135,1.29894052
20123,0,USKansasMitchell,Kansas,Mitchell,2021-01-05 22:47:40.867146,2020-11-30 00:00:00.000000,19.72942717,28.86085667,38.74294093,1179,1725,2316,562,835,1157,9.40215531,13.98125515,19.36016553,0.54740582,0.86778414,1.35915402
20123,0,USKansasMitchell,Kansas,Mitchell,2021-01-05 22:47:40.867146,2020-12-01 00:00:00.000000,19.86750077,28.49519029,37.97090964,1187,1703,2270,561,826,1150,9.39917234,13.82223516,19.23447270,0.55592788,0.88664446,1.36917972
20123,0,USKansasMitchell,Kansas,Mitchell,2021-01-05 22:47:40.867146,2020-12-02 00:00:00.000000,19.60919256,27.77285200,37.07459986,1172,1660,2216,558,816,1137,9.34584930,13.65726656,19.02792250,0.57002059,0.89110256,1.37897266
20123,0,USKansasMitchell,Kansas,Mitchell,2021-01-05 22:47:40.867146,2020-12-03 00:00:00.000000,19.12468544,26.85983380,36.06992860,1143,1605,2156,538,805,1129,9.00018943,13.47543269,18.89322853,0.57403024,0.89951552,1.38333001
20123,0,USKansasMitchell,Kansas,Mitchell,2021-01-05 22:47:40.867146,2020-12-04 00:00:00.000000,18.55131702,26.02955992,34.97316681,1109,1556,2091,514,787,1118,8.60851621,13.16344650,18.71054657,0.57539126,0.91522388,1.38798755
20123,0,USKansasMitchell,Kansas,Mitchell,2021-01-05 22:47:40.867146,2020-12-05 00:00:00.000000,17.84714398,25.13675358,33.71280605,1067,1502,2015,505,765,1092,8.45929309,12.80469794,18.26565632,0.56812466,0.92450112,1.39321809
20123,0,USKansasMitchell,Kansas,Mitchell,2021-01-05 22:47:40.867146,2020-12-06 00:00:00.000000,17.11150070,24.08236727,32.30804495,1023,1439,1931,496,737,1066,8.30470547,12.33799371,17.83779162,0.58174576,0.92827079,1.39436480
20123,0,USKansasMitchell,Kansas,Mitchell,2021-01-05 22:47:40.867146,2020-12-07 00:00:00.000000,16.30052023,23.06049598,30.99167341,974,1378,1852,486,718,1044,8.13537871,12.01374311,17.47491897,0.58845793,0.95581123,1.42043687
20123,0,USKansasMitchell,Kansas,Mitchell,2021-01-05 22:47:40.867146,2020-12-08 00:00:00.000000,15.48384591,22.18252513,29.64668912,925,1326,1772,475,695,1019,7.95163809,11.63886812,17.05943845,0.59040049,0.97964362,1.46704470
20123,0,USKansasMitchell,Kansas,Mitchell,2021-01-05 22:47:40.867146,2020-12-09 00:00:00.000000,14.66592965,21.14993880,28.29199223,876,1264,1691,463,666,992,7.75213337,11.15222088,16.59914291,0.59600845,0.97820946,1.53662469
20123,0,USKansasMitchell,Kansas,Mitchell,2021-01-05 22:47:40.867146,2020-12-10 00:00:00.000000,13.84941723,20.11782397,26.93979822,828,1202,1610,448,637,962,7.49634373,10.65598704,16.10224559,0.60402900,0.98551569,1.55647391
20123,0,USKansasMitchell,Kansas,Mitchell,2021-01-05 22:47:40.867146,2020-12-11 00:00:00.000000,13.04064416,19.33037010,25.58558592,779,1155,1529,425,611,931,7.11409679,10.22642821,15.57734251,0.59356023,0.98102781,1.57472888
20123,0,USKansasMitchell,Kansas,Mitchell,2021-01-05 22:47:40.867146,2020-12-12 00:00:00.000000,12.24630601,18.51678574,24.24855852,732,1107,1449,402,582,898,6.73043533,9.73996825,15.03313252,0.57399679,1.00275535,1.53927340
20123,0,USKansasMitchell,Kansas,Mitchell,2021-01-05 22:47:40.867146,2020-12-13 00:00:00.000000,11.66973032,17.46057392,23.19984393,697,1043,1387,379,557,865,6.34897776,9.32721567,14.47763576,0.55908108,1.02584608,1.54651858
20123,0,USKansasMitchell,Kansas,Mitchell,2021-01-05 22:47:40.867146,2020-12-14 00:00:00.000000,11.11118614,16.34159633,22.11257670,664,977,1322,357,533,832,5.97292068,8.91472376,13.91646627,0.56383280,1.02958240,1.56267600
20123,0,USKansasMitchell,Kansas,Mitchell,2021-01-05 22:47:40.867146,2020-12-15 00:00:00.000000,10.51293501,15.40336076,20.92614663,628,920,1251,340,512,798,5.69082692,8.56330520,13.34785865,0.56784683,1.00283925,1.57231570
20123,0,USKansasMitchell,Kansas,Mitchell,2021-01-05 22:47:40.867146,2020-12-16 00:00:00.000000,9.80593447,14.50114413,19.77496015,586,867,1182,323,490,763,5.41669100,8.20159798,12.77668099,0.57319373,1.03282921,1.65000763
20123,0,USKansasMitchell,Kansas,Mitchell,2021-01-05 22:47:40.867146,2020-12-17 00:00:00.000000,9.15318503,13.63386038,18.67107264,547,815,1116,305,465,730,5.11514946,7.78056703,12.21095807,0.58329093,1.01731716,1.65872222
20123,0,USKansasMitchell,Kansas,Mitchell,2021-01-05 22:47:40.867146,2020-12-18 00:00:00.000000,8.55453856,12.78456827,17.79142829,511,764,1063,285,434,696,4.77142599,7.26753097,11.64870921,0.58329052,1.00857045,1.64412852
20123,0,USKansasMitchell,Kansas,Mitchell,2021-01-05 22:47:40.867146,2020-12-19 00:00:00.000000,7.93480717,11.98875486,16.89155078,474,716,1009,266,409,665,4.45446139,6.84643927,11.12728646,0.58143476,1.01095288,1.62212413
20123,0,USKansasMitchell,Kansas,Mitchell,2021-01-05 22:47:40.867146,2020-12-20 00:00:00.000000,7.44994787,11.19793097,15.86923381,445,669,948,247,384,636,4.14430748,6.43760463,10.63931766,0.56025148,1.01495045,1.59741169
20123,0,USKansasMitchell,Kansas,Mitchell,2021-01-05 22:47:40.867146,2020-12-21 00:00:00.000000,6.94276865,10.52812773,14.91413736,415,629,891,232,362,607,3.89316290,6.06324290,10.16721709,0.55433333,1.00673396,1.67204668
20123,0,USKansasMitchell,Kansas,Mitchell,2021-01-05 22:47:40.867146,2020-12-22 00:00:00.000000,6.38343588,9.79139524,14.00572176,381,585,837,214,339,580,3.59334729,5.66999336,9.70912846,0.55878145,0.99861368,1.77337700
20123,0,USKansasMitchell,Kansas,Mitchell,2021-01-05 22:47:40.867146,2020-12-23 00:00:00.000000,5.80861354,9.05561797,13.41666995,347,541,802,196,319,551,3.29459077,5.33832706,9.21690695,0.57916655,0.99499187,1.84492665
20123,0,USKansasMitchell,Kansas,Mitchell,2021-01-05 22:47:40.867146,2020-12-24 00:00:00.000000,5.27987106,8.41262015,12.84086622,315,502,767,180,300,520,3.02555400,5.01947602,8.70730198,0.61193989,1.00336863,1.87225967
20123,0,USKansasMitchell,Kansas,Mitchell,2021-01-05 22:47:40.867146,2020-12-25 00:00:00.000000,4.83089108,7.82900641,12.27366847,288,468,733,166,279,491,2.78978877,4.67081195,8.21963953,0.61656927,0.99063662,1.87108989
20123,0,USKansasMitchell,Kansas,Mitchell,2021-01-05 22:47:40.867146,2020-12-26 00:00:00.000000,4.46954399,7.31971890,11.71827134,267,437,700,153,260,463,2.57278295,4.35635914,7.75348266,0.61825529,0.97356993,1.86739597
20123,0,USKansasMitchell,Kansas,Mitchell,2021-01-05 22:47:40.867146,2020-12-27 00:00:00.000000,4.14199952,6.81285616,11.07392851,247,407,662,141,242,436,2.37431515,4.04763015,7.30869396,0.58965711,1.00118989,1.86490598
20123,0,USKansasMitchell,Kansas,Mitchell,2021-01-05 22:47:40.867146,2020-12-28 00:00:00.000000,3.75905491,6.26660072,10.36614721,224,374,619,131,224,411,2.19345630,3.74966754,6.88518109,0.57464761,0.97011379,1.86024703
20123,0,USKansasMitchell,Kansas,Mitchell,2021-01-05 22:47:40.867146,2020-12-29 00:00:00.000000,3.41857647,5.78179575,9.69126165,204,345,579,121,206,387,2.02563005,3.45899924,6.47755749,0.56749671,0.95983668,1.83736180
20123,0,USKansasMitchell,Kansas,Mitchell,2021-01-05 22:47:40.867146,2020-12-30 00:00:00.000000,3.09387568,5.32479844,9.04887549,184,318,541,111,190,363,1.87014560,3.19279440,6.08654789,0.56439893,0.95339828,1.81927355
20123,0,USKansasMitchell,Kansas,Mitchell,2021-01-05 22:47:40.867146,2020-12-31 00:00:00.000000,2.79440562,4.89153579,8.43921554,167,292,504,103,176,341,1.72602488,2.95681668,5.71205684,0.56150126,0.94092766,1.82187287
20123,0,USKansasMitchell,Kansas,Mitchell,2021-01-05 22:47:40.867146,2021-01-01 00:00:00.000000,2.51957483,4.48817754,7.86215758,150,268,470,95,164,320,1.59244130,2.75050597,5.35486314,0.55675588,0.93412091,1.82223084
20123,0,USKansasMitchell,Kansas,Mitchell,2021-01-05 22:47:40.867146,2021-01-02 00:00:00.000000,2.26851567,4.13706882,7.37210036,135,247,440,86,152,299,1.45290273,2.55233109,5.01507775,0.55299637,0.92962548,1.86984397
20123,0,USKansasMitchell,Kansas,Mitchell,2021-01-05 22:47:40.867146,2021-01-03 00:00:00.000000,2.04001145,3.77647254,6.93393629,121,225,414,78,140,281,1.31395492,2.34421352,4.70698179,0.55441007,0.92972179,1.87806391
20123,0,USKansasMitchell,Kansas,Mitchell,2021-01-05 22:47:40.867146,2021-01-04 00:00:00.000000,1.83264322,3.45727110,6.51291038,109,206,389,70,127,265,1.18613656,2.13862231,4.44232863,0.54235148,0.93145453,1.91414931
20123,0,USKansasMitchell,Kansas,Mitchell,2021-01-05 22:47:40.867146,2021-01-05 00:00:00.000000,1.64491218,3.15681294,6.08612513,98,188,363,63,117,250,1.06911225,1.96560547,4.18579461,0.54154070,0.93101418,1.93549154
20123,0,USKansasMitchell,Kansas,Mitchell,2021-01-05 22:47:40.867146,2021-01-06 00:00:00.000000,1.47530345,2.87431354,5.65721734,88,171,338,57,108,235,0.96238271,1.80966114,3.93821686,0.54143616,0.93086976,1.93943078
20123,0,USKansasMitchell,Kansas,Mitchell,2021-01-05 22:47:40.867146,2021-01-07 00:00:00.000000,1.32232918,2.61901742,5.25480464,79,156,314,51,99,221,0.86535046,1.66307380,3.70019737,0.54141942,0.93083526,1.93985485
20123,0,USKansasMitchell,Kansas,Mitchell,2021-01-05 22:47:40.867146,2021-01-08 00:00:00.000000,1.18455720,2.38919964,4.87789165,70,142,291,46,90,206,0.77736635,1.51537243,3.46169271,0.54141633,0.93224049,1.95513957
20123,0,USKansasMitchell,Kansas,Mitchell,2021-01-05 22:47:40.867146,2021-01-09 00:00:00.000000,1.06062907,2.17855899,4.52538412,63,130,270,42,82,192,0.70282670,1.37786156,3.21478594,0.54141571,0.93862695,1.95849612
20123,0,USKansasMitchell,Kansas,Mitchell,2021-01-05 22:47:40.867146,2021-01-10 00:00:00.000000,0.94928285,1.98566346,4.19613127,56,118,250,38,75,178,0.64083096,1.25576138,2.98300740,0.54141557,0.94321745,1.96018608
20123,0,USKansasMitchell,Kansas,Mitchell,2021-01-05 22:47:40.867146,2021-01-11 00:00:00.000000,0.84938214,1.80915790,3.88895565,50,108,232,34,68,165,0.58334091,1.14338443,2.76582639,0.54141554,0.94419582,1.96100902
20123,0,USKansasMitchell,Kansas,Mitchell,2021-01-05 22:47:40.867146,2021-01-12 00:00:00.000000,0.75975276,1.64762322,3.60267492,45,98,215,31,62,153,0.52121505,1.04165556,2.56251367,0.54141553,0.94420243,1.96143670
20123,0,USKansasMitchell,Kansas,Mitchell,2021-01-05 22:47:40.867146,2021-01-13 00:00:00.000000,0.67939257,1.50840626,3.33611772,40,90,199,27,56,141,0.46551705,0.95028225,2.37238530,0.54141553,0.94420642,1.96167667
20123,0,USKansasMitchell,Kansas,Mitchell,2021-01-05 22:47:40.867146,2021-01-14 00:00:00.000000,0.60738474,1.37732967,3.08813559,36,82,184,24,51,131,0.41568971,0.86310873,2.19507756,0.54141552,0.94420882,1.96181895
20123,0,USKansasMitchell,Kansas,Mitchell,2021-01-05 22:47:40.867146,2021-01-15 00:00:00.000000,0.54289359,1.25446823,2.85761158,32,75,170,22,46,121,0.37114365,0.78577622,2.02992900,0.54141552,0.94421025,1.96190610
20123,0,USKansasMitchell,Kansas,Mitchell,2021-01-05 22:47:40.867146,2021-01-16 00:00:00.000000,0.48515972,1.14224354,2.64346660,29,68,158,19,43,112,0.33133999,0.72135080,1.87924979,0.54141552,0.94421111,1.96196044
20123,0,USKansasMitchell,Kansas,Mitchell,2021-01-05 22:47:40.867146,2021-01-17 00:00:00.000000,0.43349477,1.03979077,2.44466385,25,62,146,17,39,104,0.29578858,0.65781234,1.75372184,0.54141552,0.94421162,1.96199463
