FIPS,HR_UID,nameid,province,region,analysisTime,dates,pointprevalence_025,pointprevalence_50,pointprevalence_975,pointinfections_025,pointinfections_50,pointinfections_975,pointinfectious_025,pointinfectious_50,pointinfectious_975,pointinfectiousprevalence_05,pointinfectiousprevalence_50,pointinfectiousprevalence_95,infectrate_025,infectrate_50,infectrate_975
39105,0,USOhioMeigs,Ohio,Meigs,2021-01-05 13:02:03.465872,2020-03-09 00:00:00.000000,0.00267308,0.01723336,0.06000557,0,3,13,0,2,8,0.00131804,0.00952722,0.03764306,0.37694566,0.53170442,0.77399981
39105,0,USOhioMeigs,Ohio,Meigs,2021-01-05 13:02:03.465872,2020-03-10 00:00:00.000000,0.00297675,0.01819628,0.06366115,0,4,14,0,2,8,0.00137070,0.00943451,0.03743641,0.37694896,0.53164515,0.77398654
39105,0,USOhioMeigs,Ohio,Meigs,2021-01-05 13:02:03.465872,2020-03-11 00:00:00.000000,0.00327593,0.01986701,0.06760156,0,4,15,0,2,8,0.00142577,0.00969502,0.03875300,0.37695691,0.52927689,0.77394770
39105,0,USOhioMeigs,Ohio,Meigs,2021-01-05 13:02:03.465872,2020-03-12 00:00:00.000000,0.00358150,0.02240860,0.07174698,0,5,16,0,2,9,0.00145021,0.01020085,0.04080907,0.37697610,0.52924920,0.77383400
39105,0,USOhioMeigs,Ohio,Meigs,2021-01-05 13:02:03.465872,2020-03-13 00:00:00.000000,0.00390110,0.02465360,0.07606356,0,5,17,0,2,9,0.00151031,0.01080732,0.04324476,0.37701260,0.52918517,0.77350142
39105,0,USOhioMeigs,Ohio,Meigs,2021-01-05 13:02:03.465872,2020-03-14 00:00:00.000000,0.00424029,0.02544611,0.08050749,0,5,18,0,2,10,0.00159713,0.01158595,0.04589680,0.37369676,0.52882615,0.77253101
39105,0,USOhioMeigs,Ohio,Meigs,2021-01-05 13:02:03.465872,2020-03-15 00:00:00.000000,0.00460316,0.02682643,0.08501655,1,6,19,0,2,11,0.00170523,0.01232416,0.04868801,0.37337574,0.52750102,0.76972171
39105,0,USOhioMeigs,Ohio,Meigs,2021-01-05 13:02:03.465872,2020-03-16 00:00:00.000000,0.00499240,0.02856733,0.08948169,1,6,20,0,3,11,0.00183142,0.01331300,0.05156621,0.37329083,0.52372455,0.76177245
39105,0,USOhioMeigs,Ohio,Meigs,2021-01-05 13:02:03.465872,2020-03-17 00:00:00.000000,0.00537634,0.02986416,0.09367915,1,6,21,0,3,12,0.00197388,0.01436693,0.05332599,0.35320863,0.51626111,0.74066442
39105,0,USOhioMeigs,Ohio,Meigs,2021-01-05 13:02:03.465872,2020-03-18 00:00:00.000000,0.00569710,0.03221204,0.09734135,1,7,22,0,3,12,0.00213145,0.01487452,0.05404248,0.35814671,0.50625708,0.71544203
39105,0,USOhioMeigs,Ohio,Meigs,2021-01-05 13:02:03.465872,2020-03-19 00:00:00.000000,0.00601161,0.03365113,0.10041823,1,7,23,0,3,12,0.00230301,0.01571998,0.05423980,0.32958357,0.50148813,0.71248009
39105,0,USOhioMeigs,Ohio,Meigs,2021-01-05 13:02:03.465872,2020-03-20 00:00:00.000000,0.00631467,0.03492448,0.10307306,1,8,23,0,3,12,0.00248683,0.01666474,0.05410310,0.32049127,0.48484347,0.70815287
39105,0,USOhioMeigs,Ohio,Meigs,2021-01-05 13:02:03.465872,2020-03-21 00:00:00.000000,0.00660234,0.03670770,0.10549009,1,8,24,0,4,12,0.00268060,0.01778041,0.05375886,0.31920928,0.45569198,0.67864456
39105,0,USOhioMeigs,Ohio,Meigs,2021-01-05 13:02:03.465872,2020-03-22 00:00:00.000000,0.00687249,0.03851337,0.10779574,1,8,24,0,4,12,0.00288237,0.01878251,0.05328633,0.31315449,0.42871596,0.67433056
39105,0,USOhioMeigs,Ohio,Meigs,2021-01-05 13:02:03.465872,2020-03-23 00:00:00.000000,0.01156674,0.04572747,0.11221811,2,10,25,0,4,12,0.00309146,0.01951428,0.05272369,0.28990555,0.41376915,0.65815000
39105,0,USOhioMeigs,Ohio,Meigs,2021-01-05 13:02:03.465872,2020-03-24 00:00:00.000000,0.01627752,0.05274782,0.11671909,3,12,26,1,4,12,0.00471130,0.02089545,0.05413710,0.28531267,0.39986413,0.61512264
39105,0,USOhioMeigs,Ohio,Meigs,2021-01-05 13:02:03.465872,2020-03-25 00:00:00.000000,0.02123254,0.06275488,0.12151387,4,14,27,1,5,13,0.00654141,0.02418793,0.05773256,0.27589659,0.38949344,0.59496526
39105,0,USOhioMeigs,Ohio,Meigs,2021-01-05 13:02:03.465872,2020-03-26 00:00:00.000000,0.02635966,0.07113120,0.14131997,6,16,32,2,6,14,0.00875070,0.02841083,0.06170241,0.24812002,0.38203404,0.59266729
39105,0,USOhioMeigs,Ohio,Meigs,2021-01-05 13:02:03.465872,2020-03-27 00:00:00.000000,0.03161855,0.07938236,0.15060493,7,18,34,2,7,15,0.01121895,0.03286147,0.06590603,0.24298766,0.37429147,0.59075815
39105,0,USOhioMeigs,Ohio,Meigs,2021-01-05 13:02:03.465872,2020-03-28 00:00:00.000000,0.03698431,0.08556740,0.15928451,8,19,36,3,8,17,0.01384710,0.03577118,0.07751143,0.21848509,0.35614657,0.54982839
39105,0,USOhioMeigs,Ohio,Meigs,2021-01-05 13:02:03.465872,2020-03-29 00:00:00.000000,0.04214960,0.09292424,0.18055102,9,21,41,3,9,18,0.01647791,0.03963278,0.08159444,0.21516114,0.34385084,0.50720522
39105,0,USOhioMeigs,Ohio,Meigs,2021-01-05 13:02:03.465872,2020-03-30 00:00:00.000000,0.04685120,0.10134254,0.19500721,10,23,44,4,9,18,0.01898006,0.04315574,0.08203311,0.19693153,0.32767240,0.47623409
39105,0,USOhioMeigs,Ohio,Meigs,2021-01-05 13:02:03.465872,2020-03-31 00:00:00.000000,0.05267012,0.10825274,0.20795416,12,24,47,4,10,20,0.02127424,0.04681236,0.08880076,0.19631139,0.31769036,0.46195136
39105,0,USOhioMeigs,Ohio,Meigs,2021-01-05 13:02:03.465872,2020-04-01 00:00:00.000000,0.05860278,0.11779852,0.22072822,13,26,50,5,11,22,0.02345676,0.05020493,0.09714163,0.19407039,0.31209787,0.45253843
39105,0,USOhioMeigs,Ohio,Meigs,2021-01-05 13:02:03.465872,2020-04-02 00:00:00.000000,0.06465821,0.12481574,0.22818684,14,28,52,5,12,24,0.02558239,0.05613954,0.10479168,0.19582049,0.30272845,0.45175581
39105,0,USOhioMeigs,Ohio,Meigs,2021-01-05 13:02:03.465872,2020-04-03 00:00:00.000000,0.07090314,0.12982045,0.23379989,16,29,53,6,13,25,0.02767450,0.06024076,0.11204299,0.19158874,0.29280448,0.44466989
39105,0,USOhioMeigs,Ohio,Meigs,2021-01-05 13:02:03.465872,2020-04-04 00:00:00.000000,0.07437370,0.13507379,0.25087332,17,30,57,6,14,27,0.03051934,0.06432508,0.11908944,0.18066211,0.28253399,0.42465439
39105,0,USOhioMeigs,Ohio,Meigs,2021-01-05 13:02:03.465872,2020-04-05 00:00:00.000000,0.07652901,0.14195378,0.27292311,17,32,62,7,15,28,0.03342700,0.06673153,0.12607741,0.17698277,0.27481812,0.41699889
39105,0,USOhioMeigs,Ohio,Meigs,2021-01-05 13:02:03.465872,2020-04-06 00:00:00.000000,0.07788940,0.14600396,0.27650945,17,33,63,8,16,31,0.03596528,0.06992733,0.13675575,0.17668681,0.25956381,0.41429531
39105,0,USOhioMeigs,Ohio,Meigs,2021-01-05 13:02:03.465872,2020-04-07 00:00:00.000000,0.07938253,0.15029015,0.27937127,18,34,63,8,16,32,0.03669430,0.07196834,0.14089343,0.17583205,0.24818846,0.41259730
39105,0,USOhioMeigs,Ohio,Meigs,2021-01-05 13:02:03.465872,2020-04-08 00:00:00.000000,0.08485029,0.15432345,0.29280481,19,35,67,8,17,34,0.03851347,0.07477360,0.14907023,0.17750688,0.24419582,0.40998490
39105,0,USOhioMeigs,Ohio,Meigs,2021-01-05 13:02:03.465872,2020-04-09 00:00:00.000000,0.08808837,0.15778528,0.29421007,20,36,67,9,17,34,0.04135516,0.07783012,0.15175558,0.16800187,0.24131517,0.40204975
39105,0,USOhioMeigs,Ohio,Meigs,2021-01-05 13:02:03.465872,2020-04-10 00:00:00.000000,0.08900482,0.16362084,0.29520400,20,37,67,10,18,35,0.04426764,0.08062382,0.15324716,0.15883426,0.23410625,0.38986617
39105,0,USOhioMeigs,Ohio,Meigs,2021-01-05 13:02:03.465872,2020-04-11 00:00:00.000000,0.09188876,0.16724072,0.29570998,21,38,67,10,18,35,0.04602603,0.08202226,0.15437650,0.14333509,0.22800829,0.37741979
39105,0,USOhioMeigs,Ohio,Meigs,2021-01-05 13:02:03.465872,2020-04-12 00:00:00.000000,0.09463284,0.17039059,0.29474643,21,39,67,10,19,35,0.04622875,0.08451774,0.15514850,0.13657050,0.22363614,0.36276703
39105,0,USOhioMeigs,Ohio,Meigs,2021-01-05 13:02:03.465872,2020-04-13 00:00:00.000000,0.09184650,0.16887071,0.28896645,21,38,66,10,20,35,0.04626570,0.08917654,0.15568608,0.13430007,0.21823957,0.35095230
39105,0,USOhioMeigs,Ohio,Meigs,2021-01-05 13:02:03.465872,2020-04-14 00:00:00.000000,0.08886024,0.16479284,0.28239054,20,37,64,10,20,36,0.04523584,0.08893906,0.15734275,0.13383626,0.21209477,0.34379112
39105,0,USOhioMeigs,Ohio,Meigs,2021-01-05 13:02:03.465872,2020-04-15 00:00:00.000000,0.08378946,0.15972940,0.27461699,19,36,62,10,20,36,0.04447344,0.08832116,0.15862826,0.13443990,0.20606321,0.32254768
39105,0,USOhioMeigs,Ohio,Meigs,2021-01-05 13:02:03.465872,2020-04-16 00:00:00.000000,0.07771122,0.15462613,0.26619775,17,35,60,9,19,36,0.04323088,0.08573221,0.15850246,0.13654193,0.20188897,0.29606434
39105,0,USOhioMeigs,Ohio,Meigs,2021-01-05 13:02:03.465872,2020-04-17 00:00:00.000000,0.07171224,0.15119017,0.25962657,16,34,59,9,19,36,0.04169684,0.08298047,0.15751587,0.14147008,0.19840922,0.28099696
39105,0,USOhioMeigs,Ohio,Meigs,2021-01-05 13:02:03.465872,2020-04-18 00:00:00.000000,0.06779976,0.14682910,0.25565130,15,33,58,9,18,35,0.03991440,0.08176465,0.15596421,0.12929946,0.19257151,0.27377329
39105,0,USOhioMeigs,Ohio,Meigs,2021-01-05 13:02:03.465872,2020-04-19 00:00:00.000000,0.06418559,0.14104037,0.25153552,14,32,57,8,18,35,0.03791255,0.08009579,0.15402699,0.11816552,0.18635639,0.27857016
39105,0,USOhioMeigs,Ohio,Meigs,2021-01-05 13:02:03.465872,2020-04-20 00:00:00.000000,0.06710384,0.14155078,0.25655915,15,32,58,8,17,34,0.03584318,0.07788272,0.15184886,0.11792936,0.18329423,0.28911453
39105,0,USOhioMeigs,Ohio,Meigs,2021-01-05 13:02:03.465872,2020-04-21 00:00:00.000000,0.07265371,0.14359206,0.26158149,16,32,59,8,17,34,0.03504307,0.07592915,0.15202926,0.11311032,0.17700781,0.29136291
39105,0,USOhioMeigs,Ohio,Meigs,2021-01-05 13:02:03.465872,2020-04-22 00:00:00.000000,0.07563801,0.14467605,0.26692162,17,33,61,8,17,35,0.03605545,0.07500887,0.15359158,0.11419822,0.17558833,0.28467568
39105,0,USOhioMeigs,Ohio,Meigs,2021-01-05 13:02:03.465872,2020-04-23 00:00:00.000000,0.07576574,0.14356420,0.27237459,17,32,62,8,17,35,0.03670924,0.07438413,0.15595153,0.11586031,0.17698434,0.27695725
39105,0,USOhioMeigs,Ohio,Meigs,2021-01-05 13:02:03.465872,2020-04-24 00:00:00.000000,0.07550823,0.14776294,0.27766404,17,33,63,8,17,36,0.03752669,0.07554867,0.15875253,0.11388822,0.17652621,0.27316628
39105,0,USOhioMeigs,Ohio,Meigs,2021-01-05 13:02:03.465872,2020-04-25 00:00:00.000000,0.07505331,0.14978632,0.28180034,17,34,64,8,17,37,0.03836386,0.07577320,0.16173524,0.10582638,0.17827648,0.28673925
39105,0,USOhioMeigs,Ohio,Meigs,2021-01-05 13:02:03.465872,2020-04-26 00:00:00.000000,0.07559041,0.15011312,0.28312531,17,34,64,9,17,37,0.03943309,0.07670159,0.16449296,0.10379750,0.17393774,0.28702564
39105,0,USOhioMeigs,Ohio,Meigs,2021-01-05 13:02:03.465872,2020-04-27 00:00:00.000000,0.08039060,0.14995437,0.28054044,18,34,64,9,17,37,0.04157161,0.07678980,0.16343677,0.10360089,0.16967714,0.28471561
39105,0,USOhioMeigs,Ohio,Meigs,2021-01-05 13:02:03.465872,2020-04-28 00:00:00.000000,0.07863810,0.14887540,0.27740243,18,34,63,9,17,36,0.04280781,0.07692694,0.16081741,0.10373509,0.17229996,0.28233286
39105,0,USOhioMeigs,Ohio,Meigs,2021-01-05 13:02:03.465872,2020-04-29 00:00:00.000000,0.07615310,0.14862734,0.27397240,17,34,62,9,17,36,0.04121674,0.07647597,0.15782962,0.10410189,0.17154616,0.27390196
39105,0,USOhioMeigs,Ohio,Meigs,2021-01-05 13:02:03.465872,2020-04-30 00:00:00.000000,0.07391667,0.15038891,0.27049143,16,34,61,9,17,35,0.03978870,0.07545272,0.15460922,0.10488625,0.16788813,0.25140551
39105,0,USOhioMeigs,Ohio,Meigs,2021-01-05 13:02:03.465872,2020-05-01 00:00:00.000000,0.07189624,0.15397598,0.27486664,16,35,62,8,17,34,0.03850978,0.07547827,0.15127225,0.10164676,0.16424186,0.24957079
39105,0,USOhioMeigs,Ohio,Meigs,2021-01-05 13:02:03.465872,2020-05-02 00:00:00.000000,0.07006304,0.15196474,0.28470481,16,34,65,8,17,33,0.03736003,0.07710823,0.14790667,0.09585875,0.16538046,0.24726973
39105,0,USOhioMeigs,Ohio,Meigs,2021-01-05 13:02:03.465872,2020-05-03 00:00:00.000000,0.06839267,0.15104105,0.29774317,15,34,68,8,17,35,0.03642432,0.07790697,0.15321035,0.09166977,0.16366138,0.25294835
39105,0,USOhioMeigs,Ohio,Meigs,2021-01-05 13:02:03.465872,2020-05-04 00:00:00.000000,0.07010861,0.15221389,0.29414783,16,34,67,8,18,36,0.03554258,0.07883828,0.15753039,0.09013624,0.16317472,0.27828783
39105,0,USOhioMeigs,Ohio,Meigs,2021-01-05 13:02:03.465872,2020-05-05 00:00:00.000000,0.07347551,0.15746067,0.29008317,16,36,66,8,18,35,0.03643840,0.08050702,0.15672664,0.08591754,0.16129022,0.29033406
39105,0,USOhioMeigs,Ohio,Meigs,2021-01-05 13:02:03.465872,2020-05-06 00:00:00.000000,0.07830543,0.15972626,0.28526255,17,36,65,8,18,35,0.03828269,0.08238709,0.15660038,0.08473632,0.16133276,0.29063993
39105,0,USOhioMeigs,Ohio,Meigs,2021-01-05 13:02:03.465872,2020-05-07 00:00:00.000000,0.08312700,0.16125906,0.28002384,19,36,64,9,19,35,0.04059312,0.08368934,0.15703538,0.08437702,0.16117654,0.29091438
39105,0,USOhioMeigs,Ohio,Meigs,2021-01-05 13:02:03.465872,2020-05-08 00:00:00.000000,0.08780100,0.16381625,0.29336377,20,37,67,9,19,36,0.04309122,0.08478588,0.15788523,0.08659885,0.16050553,0.29120811
39105,0,USOhioMeigs,Ohio,Meigs,2021-01-05 13:02:03.465872,2020-05-09 00:00:00.000000,0.08645395,0.16956373,0.29651079,19,38,67,10,19,36,0.04561848,0.08651447,0.16026534,0.08825773,0.15980476,0.28217496
39105,0,USOhioMeigs,Ohio,Meigs,2021-01-05 13:02:03.465872,2020-05-10 00:00:00.000000,0.08359472,0.17012531,0.29961198,19,38,68,10,19,37,0.04733023,0.08710024,0.16299005,0.09157268,0.15885541,0.25275008
39105,0,USOhioMeigs,Ohio,Meigs,2021-01-05 13:02:03.465872,2020-05-11 00:00:00.000000,0.08056866,0.16941611,0.30181574,18,38,69,10,20,37,0.04564863,0.08948203,0.16174981,0.09534405,0.16019172,0.24509146
39105,0,USOhioMeigs,Ohio,Meigs,2021-01-05 13:02:03.465872,2020-05-12 00:00:00.000000,0.07774156,0.16798691,0.30371691,17,38,69,10,20,37,0.04401781,0.08965088,0.16152842,0.08790975,0.15920091,0.24453236
39105,0,USOhioMeigs,Ohio,Meigs,2021-01-05 13:02:03.465872,2020-05-13 00:00:00.000000,0.08128147,0.17486334,0.30526628,18,40,69,9,20,36,0.04245755,0.08818528,0.16025373,0.08767052,0.15926393,0.25251905
39105,0,USOhioMeigs,Ohio,Meigs,2021-01-05 13:02:03.465872,2020-05-14 00:00:00.000000,0.08754595,0.17323728,0.30653985,20,39,70,9,20,36,0.04097769,0.08790947,0.15827124,0.08722667,0.15831303,0.26255652
39105,0,USOhioMeigs,Ohio,Meigs,2021-01-05 13:02:03.465872,2020-05-15 00:00:00.000000,0.09049278,0.17553812,0.30757531,20,40,70,9,20,35,0.04069258,0.09008729,0.15580683,0.08621991,0.15699991,0.27079778
39105,0,USOhioMeigs,Ohio,Meigs,2021-01-05 13:02:03.465872,2020-05-16 00:00:00.000000,0.08696453,0.17556346,0.31043440,19,40,71,10,20,35,0.04365618,0.09070707,0.15379551,0.08417539,0.15813955,0.27503529
39105,0,USOhioMeigs,Ohio,Meigs,2021-01-05 13:02:03.465872,2020-05-17 00:00:00.000000,0.08369642,0.17440347,0.30869329,19,39,70,10,20,35,0.04442881,0.08848980,0.15473716,0.08391660,0.15558112,0.27581029
39105,0,USOhioMeigs,Ohio,Meigs,2021-01-05 13:02:03.465872,2020-05-18 00:00:00.000000,0.07812715,0.16839534,0.29759220,17,38,68,9,19,36,0.04295144,0.08578738,0.15784456,0.08399459,0.15544660,0.27424423
39105,0,USOhioMeigs,Ohio,Meigs,2021-01-05 13:02:03.465872,2020-05-19 00:00:00.000000,0.07313478,0.15972176,0.28716642,16,36,65,9,19,36,0.04112653,0.08426388,0.15907135,0.08443494,0.15744056,0.27099922
39105,0,USOhioMeigs,Ohio,Meigs,2021-01-05 13:02:03.465872,2020-05-20 00:00:00.000000,0.06881782,0.15175059,0.27655441,15,34,63,8,19,35,0.03913515,0.08308854,0.15376791,0.08549918,0.15826780,0.26637198
39105,0,USOhioMeigs,Ohio,Meigs,2021-01-05 13:02:03.465872,2020-05-21 00:00:00.000000,0.06511782,0.14575241,0.26592653,14,33,60,8,18,34,0.03709577,0.07970325,0.15020010,0.08769346,0.16090908,0.26061810
39105,0,USOhioMeigs,Ohio,Meigs,2021-01-05 13:02:03.465872,2020-05-22 00:00:00.000000,0.06196292,0.13919373,0.25757575,14,31,59,8,17,33,0.03508239,0.07676104,0.14544173,0.09143439,0.15756766,0.25358631
39105,0,USOhioMeigs,Ohio,Meigs,2021-01-05 13:02:03.465872,2020-05-23 00:00:00.000000,0.05938449,0.13277670,0.24923608,13,30,57,7,16,32,0.03313793,0.07404831,0.14017003,0.09152182,0.16025625,0.23324151
39105,0,USOhioMeigs,Ohio,Meigs,2021-01-05 13:02:03.465872,2020-05-24 00:00:00.000000,0.05675620,0.12721493,0.23942582,13,29,54,7,16,30,0.03128428,0.07111606,0.13522103,0.09133678,0.16132376,0.24084329
39105,0,USOhioMeigs,Ohio,Meigs,2021-01-05 13:02:03.465872,2020-05-25 00:00:00.000000,0.05309649,0.12073228,0.23236278,12,27,53,6,15,29,0.02952883,0.06804353,0.12962465,0.09151480,0.15998059,0.23795729
39105,0,USOhioMeigs,Ohio,Meigs,2021-01-05 13:02:03.465872,2020-05-26 00:00:00.000000,0.04969052,0.11161340,0.22561845,11,25,51,6,14,28,0.02786532,0.06490586,0.12367369,0.09339289,0.16294459,0.24769314
39105,0,USOhioMeigs,Ohio,Meigs,2021-01-05 13:02:03.465872,2020-05-27 00:00:00.000000,0.04654628,0.10379163,0.21902818,10,23,50,6,14,26,0.02627887,0.06174980,0.11758882,0.09298483,0.16325589,0.25044897
39105,0,USOhioMeigs,Ohio,Meigs,2021-01-05 13:02:03.465872,2020-05-28 00:00:00.000000,0.04259153,0.09735929,0.21260914,9,22,48,5,13,25,0.02476504,0.05858860,0.11266278,0.09105462,0.16710185,0.25241446
39105,0,USOhioMeigs,Ohio,Meigs,2021-01-05 13:02:03.465872,2020-05-29 00:00:00.000000,0.03881946,0.09237712,0.20637384,8,21,47,5,12,25,0.02310628,0.05615280,0.11074215,0.09112572,0.16751622,0.25620383
39105,0,USOhioMeigs,Ohio,Meigs,2021-01-05 13:02:03.465872,2020-05-30 00:00:00.000000,0.03539647,0.08810611,0.20032949,8,20,45,4,12,24,0.02131259,0.05315666,0.10881802,0.09281575,0.16855253,0.26187131
39105,0,USOhioMeigs,Ohio,Meigs,2021-01-05 13:02:03.465872,2020-05-31 00:00:00.000000,0.03233298,0.08410847,0.19450725,7,19,44,4,11,24,0.01971163,0.05088399,0.10675304,0.09675027,0.16951144,0.26638271
39105,0,USOhioMeigs,Ohio,Meigs,2021-01-05 13:02:03.465872,2020-06-01 00:00:00.000000,0.03583625,0.08781774,0.19135124,8,20,43,4,11,23,0.01830822,0.04821591,0.10456367,0.09679704,0.16866585,0.26846205
39105,0,USOhioMeigs,Ohio,Meigs,2021-01-05 13:02:03.465872,2020-06-02 00:00:00.000000,0.04085400,0.09149778,0.18837541,9,20,43,4,10,23,0.01870081,0.04701940,0.10362743,0.09899760,0.17089764,0.26917675
39105,0,USOhioMeigs,Ohio,Meigs,2021-01-05 13:02:03.465872,2020-06-03 00:00:00.000000,0.04386678,0.09703638,0.18561575,10,22,42,4,10,23,0.02008648,0.04674707,0.10360797,0.09915699,0.17175785,0.26939210
39105,0,USOhioMeigs,Ohio,Meigs,2021-01-05 13:02:03.465872,2020-06-04 00:00:00.000000,0.05007976,0.10182060,0.18301559,11,23,41,5,10,23,0.02206556,0.04659956,0.10425385,0.09994216,0.17116159,0.27079072
39105,0,USOhioMeigs,Ohio,Meigs,2021-01-05 13:02:03.465872,2020-06-05 00:00:00.000000,0.05583495,0.10629835,0.18346405,12,24,42,5,11,23,0.02398381,0.04862878,0.10387348,0.10198243,0.17098288,0.27438438
39105,0,USOhioMeigs,Ohio,Meigs,2021-01-05 13:02:03.465872,2020-06-06 00:00:00.000000,0.05554130,0.10977622,0.20565093,12,25,47,6,12,23,0.02630826,0.05248037,0.10225225,0.10376096,0.17102005,0.28105312
39105,0,USOhioMeigs,Ohio,Meigs,2021-01-05 13:02:03.465872,2020-06-07 00:00:00.000000,0.05925268,0.10984813,0.22797810,13,25,52,6,12,23,0.02823735,0.05546850,0.10073079,0.10357717,0.17103185,0.28694622
39105,0,USOhioMeigs,Ohio,Meigs,2021-01-05 13:02:03.465872,2020-06-08 00:00:00.000000,0.06025372,0.11732986,0.23266827,13,26,53,6,12,23,0.03015480,0.05655136,0.10086840,0.10401785,0.17380908,0.28960051
39105,0,USOhioMeigs,Ohio,Meigs,2021-01-05 13:02:03.465872,2020-06-09 00:00:00.000000,0.06126335,0.12160798,0.23752074,14,27,54,7,13,24,0.03160210,0.05956395,0.10656699,0.10427727,0.17859611,0.29543311
39105,0,USOhioMeigs,Ohio,Meigs,2021-01-05 13:02:03.465872,2020-06-10 00:00:00.000000,0.06577181,0.12289074,0.24180765,15,28,55,7,14,24,0.03330819,0.06139611,0.10689418,0.10413978,0.18114515,0.29843789
39105,0,USOhioMeigs,Ohio,Meigs,2021-01-05 13:02:03.465872,2020-06-11 00:00:00.000000,0.06747912,0.12570677,0.24569463,15,28,56,7,14,24,0.03458582,0.06331017,0.10756764,0.10430310,0.18350806,0.29983100
39105,0,USOhioMeigs,Ohio,Meigs,2021-01-05 13:02:03.465872,2020-06-12 00:00:00.000000,0.06902981,0.12867088,0.25161955,15,29,57,8,14,24,0.03565813,0.06499880,0.10851144,0.10485416,0.18470788,0.30644002
39105,0,USOhioMeigs,Ohio,Meigs,2021-01-05 13:02:03.465872,2020-06-13 00:00:00.000000,0.07044645,0.12756505,0.25293074,16,29,57,8,15,25,0.03661533,0.06671305,0.10961570,0.10617335,0.19257250,0.30888363
39105,0,USOhioMeigs,Ohio,Meigs,2021-01-05 13:02:03.465872,2020-06-14 00:00:00.000000,0.07174633,0.13176511,0.25637408,16,30,58,8,15,25,0.03729457,0.06943770,0.11080926,0.10899608,0.19791334,0.30833965
39105,0,USOhioMeigs,Ohio,Meigs,2021-01-05 13:02:03.465872,2020-06-15 00:00:00.000000,0.07404261,0.13625157,0.25752981,16,31,58,8,16,26,0.03697685,0.07177811,0.11516242,0.11384745,0.20143852,0.31570478
39105,0,USOhioMeigs,Ohio,Meigs,2021-01-05 13:02:03.465872,2020-06-16 00:00:00.000000,0.07440102,0.14118044,0.25421010,17,32,58,8,16,27,0.03670450,0.07305327,0.11793529,0.11833488,0.20333411,0.31973253
39105,0,USOhioMeigs,Ohio,Meigs,2021-01-05 13:02:03.465872,2020-06-17 00:00:00.000000,0.07982787,0.14396685,0.25710722,18,32,58,8,16,28,0.03648440,0.07405816,0.12241075,0.11861879,0.20564030,0.32853795
39105,0,USOhioMeigs,Ohio,Meigs,2021-01-05 13:02:03.465872,2020-06-18 00:00:00.000000,0.08457121,0.14758795,0.26792416,19,33,61,8,17,28,0.03631688,0.07702166,0.12581844,0.11956100,0.20589233,0.32839758
39105,0,USOhioMeigs,Ohio,Meigs,2021-01-05 13:02:03.465872,2020-06-19 00:00:00.000000,0.08465018,0.14712964,0.28135280,19,33,64,8,17,29,0.03707151,0.07760136,0.13012381,0.11968868,0.20722401,0.33085057
39105,0,USOhioMeigs,Ohio,Meigs,2021-01-05 13:02:03.465872,2020-06-20 00:00:00.000000,0.08548395,0.14948226,0.28989877,19,34,66,9,17,30,0.03954949,0.07758855,0.13359855,0.12188665,0.21293382,0.34710623
39105,0,USOhioMeigs,Ohio,Meigs,2021-01-05 13:02:03.465872,2020-06-21 00:00:00.000000,0.08575336,0.15809365,0.29598429,19,36,67,9,17,31,0.04289778,0.07734934,0.13720483,0.12198767,0.21668394,0.36848659
39105,0,USOhioMeigs,Ohio,Meigs,2021-01-05 13:02:03.465872,2020-06-22 00:00:00.000000,0.08705571,0.16319441,0.30160174,19,37,69,10,18,32,0.04571883,0.08046749,0.14295455,0.12157432,0.21933351,0.37554039
39105,0,USOhioMeigs,Ohio,Meigs,2021-01-05 13:02:03.465872,2020-06-23 00:00:00.000000,0.08903876,0.16862758,0.30733406,20,38,70,10,19,33,0.04792544,0.08399445,0.14768749,0.12552293,0.22255448,0.37685940
39105,0,USOhioMeigs,Ohio,Meigs,2021-01-05 13:02:03.465872,2020-06-24 00:00:00.000000,0.09190652,0.17427953,0.32150939,21,39,73,11,19,34,0.04940710,0.08677765,0.15198148,0.12755971,0.22909753,0.37014169
39105,0,USOhioMeigs,Ohio,Meigs,2021-01-05 13:02:03.465872,2020-06-25 00:00:00.000000,0.09568722,0.17761146,0.32888475,21,40,75,11,20,35,0.04958108,0.09024791,0.15713005,0.13317981,0.23427640,0.36908442
39105,0,USOhioMeigs,Ohio,Meigs,2021-01-05 13:02:03.465872,2020-06-26 00:00:00.000000,0.10053870,0.18426612,0.33494554,23,42,76,11,21,37,0.04936847,0.09265494,0.16290681,0.13629219,0.23747951,0.36918552
39105,0,USOhioMeigs,Ohio,Meigs,2021-01-05 13:02:03.465872,2020-06-27 00:00:00.000000,0.10193729,0.19220448,0.34414161,23,44,78,11,21,38,0.05021894,0.09419787,0.16925476,0.14132251,0.24913567,0.37638737
39105,0,USOhioMeigs,Ohio,Meigs,2021-01-05 13:02:03.465872,2020-06-28 00:00:00.000000,0.10460005,0.19970696,0.36454017,23,45,83,11,22,40,0.05031206,0.09722061,0.17505217,0.14559031,0.26011795,0.38007194
39105,0,USOhioMeigs,Ohio,Meigs,2021-01-05 13:02:03.465872,2020-06-29 00:00:00.000000,0.11291930,0.20486150,0.37163134,25,46,85,11,22,41,0.04989774,0.09892169,0.18047499,0.14892703,0.26723468,0.38437108
39105,0,USOhioMeigs,Ohio,Meigs,2021-01-05 13:02:03.465872,2020-06-30 00:00:00.000000,0.11894197,0.21415315,0.38941805,27,49,89,12,23,42,0.05640447,0.10050112,0.18455193,0.16388960,0.27307415,0.38399827
39105,0,USOhioMeigs,Ohio,Meigs,2021-01-05 13:02:03.465872,2020-07-01 00:00:00.000000,0.12136020,0.22427734,0.39737378,27,51,91,13,23,43,0.05909404,0.10339574,0.18854908,0.16862667,0.27763053,0.38840186
39105,0,USOhioMeigs,Ohio,Meigs,2021-01-05 13:02:03.465872,2020-07-02 00:00:00.000000,0.12372352,0.23183762,0.40544269,28,53,92,13,24,44,0.06092310,0.10768175,0.19356843,0.16986004,0.28486048,0.39066228
39105,0,USOhioMeigs,Ohio,Meigs,2021-01-05 13:02:03.465872,2020-07-03 00:00:00.000000,0.12609323,0.24143992,0.41543116,28,55,95,14,26,45,0.06293545,0.11468082,0.19849340,0.17271044,0.29664111,0.39454051
39105,0,USOhioMeigs,Ohio,Meigs,2021-01-05 13:02:03.465872,2020-07-04 00:00:00.000000,0.13095570,0.25371639,0.43333186,29,58,99,14,27,46,0.06515749,0.12075167,0.20506509,0.17935654,0.30408946,0.40527875
39105,0,USOhioMeigs,Ohio,Meigs,2021-01-05 13:02:03.465872,2020-07-05 00:00:00.000000,0.13703208,0.26488611,0.45936945,31,60,105,15,29,48,0.06767668,0.12665287,0.21363894,0.19360445,0.30931467,0.40691753
39105,0,USOhioMeigs,Ohio,Meigs,2021-01-05 13:02:03.465872,2020-07-06 00:00:00.000000,0.15004457,0.27179676,0.48247212,34,62,110,16,30,52,0.07008152,0.13183279,0.22836817,0.20169148,0.31358694,0.42456299
39105,0,USOhioMeigs,Ohio,Meigs,2021-01-05 13:02:03.465872,2020-07-07 00:00:00.000000,0.15264503,0.27732812,0.49017314,34,63,112,17,31,55,0.07528399,0.13635238,0.24219475,0.20527395,0.31544435,0.43934144
39105,0,USOhioMeigs,Ohio,Meigs,2021-01-05 13:02:03.465872,2020-07-08 00:00:00.000000,0.15540375,0.29840834,0.50571032,35,68,115,18,33,59,0.08008419,0.14426460,0.25782354,0.20765118,0.32145573,0.45355397
39105,0,USOhioMeigs,Ohio,Meigs,2021-01-05 13:02:03.465872,2020-07-09 00:00:00.000000,0.15824097,0.30781861,0.52930268,36,70,121,18,34,61,0.08212303,0.15038555,0.26913678,0.21154235,0.33040104,0.47015866
39105,0,USOhioMeigs,Ohio,Meigs,2021-01-05 13:02:03.465872,2020-07-10 00:00:00.000000,0.16118598,0.31929535,0.55096439,36,73,126,19,35,62,0.08362015,0.15606941,0.27348464,0.21699599,0.33771505,0.48518255
39105,0,USOhioMeigs,Ohio,Meigs,2021-01-05 13:02:03.465872,2020-07-11 00:00:00.000000,0.16414256,0.33315661,0.57007363,37,76,130,19,36,63,0.08429868,0.16092011,0.27719802,0.22270226,0.34624721,0.50083158
39105,0,USOhioMeigs,Ohio,Meigs,2021-01-05 13:02:03.465872,2020-07-12 00:00:00.000000,0.16725166,0.35225113,0.60455893,38,80,138,19,38,65,0.08498933,0.16769137,0.28554068,0.22714754,0.35775162,0.51532733
39105,0,USOhioMeigs,Ohio,Meigs,2021-01-05 13:02:03.465872,2020-07-13 00:00:00.000000,0.17038888,0.36692244,0.63152649,39,84,144,19,40,68,0.08599620,0.17741316,0.29979668,0.23102331,0.37494050,0.53501975
39105,0,USOhioMeigs,Ohio,Meigs,2021-01-05 13:02:03.465872,2020-07-14 00:00:00.000000,0.17569115,0.38207102,0.66043455,40,87,151,20,42,72,0.08887880,0.18443748,0.31518251,0.25653146,0.38553076,0.56066274
39105,0,USOhioMeigs,Ohio,Meigs,2021-01-05 13:02:03.465872,2020-07-15 00:00:00.000000,0.18277066,0.40624882,0.68951785,41,93,157,21,43,75,0.09286312,0.18960293,0.33149015,0.26453856,0.39353880,0.57186189
39105,0,USOhioMeigs,Ohio,Meigs,2021-01-05 13:02:03.465872,2020-07-16 00:00:00.000000,0.19341355,0.43070250,0.71903062,44,98,164,22,45,78,0.09747510,0.19649485,0.34363379,0.26536250,0.40626704,0.58408188
39105,0,USOhioMeigs,Ohio,Meigs,2021-01-05 13:02:03.465872,2020-07-17 00:00:00.000000,0.20691390,0.45474804,0.74980109,47,104,171,23,47,83,0.10244706,0.20928351,0.36569029,0.27333561,0.42137708,0.58665888
39105,0,USOhioMeigs,Ohio,Meigs,2021-01-05 13:02:03.465872,2020-07-18 00:00:00.000000,0.22276360,0.47504667,0.78754974,51,108,180,24,51,88,0.10764573,0.22370690,0.38611753,0.28634955,0.43314307,0.60891680
39105,0,USOhioMeigs,Ohio,Meigs,2021-01-05 13:02:03.465872,2020-07-19 00:00:00.000000,0.24097439,0.50290724,0.85508509,55,115,195,25,54,93,0.11310108,0.23925933,0.40649249,0.30284635,0.44133484,0.63678537
39105,0,USOhioMeigs,Ohio,Meigs,2021-01-05 13:02:03.465872,2020-07-20 00:00:00.000000,0.27158623,0.53589731,0.91756775,62,122,210,27,58,98,0.11922571,0.25590411,0.42972088,0.32386661,0.45863513,0.66085035
39105,0,USOhioMeigs,Ohio,Meigs,2021-01-05 13:02:03.465872,2020-07-21 00:00:00.000000,0.28960926,0.56755633,0.98582326,66,130,225,28,62,104,0.12525833,0.27208047,0.45466415,0.33403748,0.46704356,0.67989160
39105,0,USOhioMeigs,Ohio,Meigs,2021-01-05 13:02:03.465872,2020-07-22 00:00:00.000000,0.30509165,0.61188118,1.05913657,69,140,242,30,65,110,0.13158233,0.28701619,0.48132873,0.33666150,0.47724222,0.68887162
39105,0,USOhioMeigs,Ohio,Meigs,2021-01-05 13:02:03.465872,2020-07-23 00:00:00.000000,0.33317533,0.66622842,1.13763281,76,152,260,32,69,116,0.14336744,0.30303905,0.50964694,0.34385324,0.49000425,0.70206316
39105,0,USOhioMeigs,Ohio,Meigs,2021-01-05 13:02:03.465872,2020-07-24 00:00:00.000000,0.37097156,0.71815328,1.22161245,84,164,279,37,73,123,0.16155117,0.32134976,0.53959662,0.36216060,0.50199586,0.70228529
39105,0,USOhioMeigs,Ohio,Meigs,2021-01-05 13:02:03.465872,2020-07-25 00:00:00.000000,0.41052835,0.76756836,1.31151819,94,175,300,41,79,130,0.18098966,0.34603603,0.57116872,0.38921079,0.51920234,0.72813497
39105,0,USOhioMeigs,Ohio,Meigs,2021-01-05 13:02:03.465872,2020-07-26 00:00:00.000000,0.45266034,0.81745537,1.40784594,103,187,322,46,85,139,0.20158925,0.37113597,0.60815007,0.39769547,0.53881056,0.75916798
39105,0,USOhioMeigs,Ohio,Meigs,2021-01-05 13:02:03.465872,2020-07-27 00:00:00.000000,0.47999478,0.87590062,1.51315541,109,200,346,50,91,149,0.22221907,0.39933553,0.65367920,0.40290321,0.55411052,0.77223030
39105,0,USOhioMeigs,Ohio,Meigs,2021-01-05 13:02:03.465872,2020-07-28 00:00:00.000000,0.55260120,0.93903342,1.62515677,126,215,372,55,97,159,0.24186309,0.42730310,0.69812556,0.41493365,0.55893485,0.77921043
39105,0,USOhioMeigs,Ohio,Meigs,2021-01-05 13:02:03.465872,2020-07-29 00:00:00.000000,0.63444848,1.01339481,1.74353730,145,232,399,59,105,169,0.26112196,0.45840714,0.74185751,0.42697694,0.56603114,0.77556643
39105,0,USOhioMeigs,Ohio,Meigs,2021-01-05 13:02:03.465872,2020-07-30 00:00:00.000000,0.69509533,1.10054967,1.86721663,159,252,427,65,112,179,0.28694479,0.49071000,0.78485371,0.43869987,0.58203959,0.77079263
39105,0,USOhioMeigs,Ohio,Meigs,2021-01-05 13:02:03.465872,2020-07-31 00:00:00.000000,0.75983410,1.19653894,1.98106973,174,274,453,73,120,189,0.31971158,0.52521508,0.82699576,0.43897014,0.58605474,0.76950115
39105,0,USOhioMeigs,Ohio,Meigs,2021-01-05 13:02:03.465872,2020-08-01 00:00:00.000000,0.83653311,1.29767089,2.12512940,191,297,486,81,130,203,0.35686696,0.56830046,0.88993061,0.43890894,0.60192579,0.76155098
39105,0,USOhioMeigs,Ohio,Meigs,2021-01-05 13:02:03.465872,2020-08-02 00:00:00.000000,0.92734998,1.39444465,2.25805850,212,319,517,89,141,220,0.39073680,0.61944925,0.96265577,0.43810608,0.60525229,0.76926515
39105,0,USOhioMeigs,Ohio,Meigs,2021-01-05 13:02:03.465872,2020-08-03 00:00:00.000000,1.00652619,1.48943899,2.39189761,230,341,547,97,154,240,0.42712087,0.67357462,1.05201427,0.43574075,0.60409830,0.78460108
39105,0,USOhioMeigs,Ohio,Meigs,2021-01-05 13:02:03.465872,2020-08-04 00:00:00.000000,1.09770375,1.62454954,2.55809321,251,372,585,105,165,260,0.46062731,0.72309313,1.13759023,0.43468226,0.60242432,0.78954742
39105,0,USOhioMeigs,Ohio,Meigs,2021-01-05 13:02:03.465872,2020-08-05 00:00:00.000000,1.19622249,1.75234428,2.72673158,274,401,624,113,177,275,0.49451923,0.77360754,1.20395803,0.43569504,0.59718276,0.78870847
39105,0,USOhioMeigs,Ohio,Meigs,2021-01-05 13:02:03.465872,2020-08-06 00:00:00.000000,1.30245580,1.88469790,2.89801735,298,431,663,121,190,289,0.53100606,0.83352829,1.26507796,0.43810941,0.58352313,0.78111147
39105,0,USOhioMeigs,Ohio,Meigs,2021-01-05 13:02:03.465872,2020-08-07 00:00:00.000000,1.41686455,2.01339388,3.06797445,324,461,702,130,207,303,0.57149579,0.90580382,1.32527063,0.42841217,0.56648763,0.76412216
39105,0,USOhioMeigs,Ohio,Meigs,2021-01-05 13:02:03.465872,2020-08-08 00:00:00.000000,1.53995640,2.12164961,3.21412754,352,486,736,141,221,320,0.61661447,0.96906371,1.40085806,0.41136120,0.54061103,0.75152567
39105,0,USOhioMeigs,Ohio,Meigs,2021-01-05 13:02:03.465872,2020-08-09 00:00:00.000000,1.64682140,2.25467629,3.33042131,377,516,762,152,237,335,0.66579497,1.03870079,1.46604829,0.37693685,0.52574686,0.71374524
39105,0,USOhioMeigs,Ohio,Meigs,2021-01-05 13:02:03.465872,2020-08-10 00:00:00.000000,1.73499210,2.36846846,3.50575370,397,542,803,164,254,351,0.71680044,1.11206204,1.53531547,0.36307006,0.51432887,0.69214268
39105,0,USOhioMeigs,Ohio,Meigs,2021-01-05 13:02:03.465872,2020-08-11 00:00:00.000000,1.82695709,2.49045669,3.68674534,418,570,844,176,272,373,0.77093984,1.18786312,1.62921532,0.34988290,0.49684260,0.68848917
39105,0,USOhioMeigs,Ohio,Meigs,2021-01-05 13:02:03.465872,2020-08-12 00:00:00.000000,1.92332719,2.62519176,3.87220269,440,601,887,189,288,391,0.82819281,1.25823739,1.70911305,0.35194465,0.48797717,0.67775367
39105,0,USOhioMeigs,Ohio,Meigs,2021-01-05 13:02:03.465872,2020-08-13 00:00:00.000000,2.02568960,2.76654561,3.99638151,464,633,915,203,304,408,0.88886821,1.33117269,1.78439531,0.33864659,0.47911331,0.61770621
39105,0,USOhioMeigs,Ohio,Meigs,2021-01-05 13:02:03.465872,2020-08-14 00:00:00.000000,2.13741863,2.91179538,4.06846676,489,667,931,218,319,429,0.95321454,1.39675700,1.87488860,0.32131516,0.46993679,0.61545152
39105,0,USOhioMeigs,Ohio,Meigs,2021-01-05 13:02:03.465872,2020-08-15 00:00:00.000000,2.22325109,3.02916993,4.13095270,509,693,946,233,329,448,1.02133862,1.43910423,1.95971774,0.31906209,0.45420495,0.59654827
39105,0,USOhioMeigs,Ohio,Meigs,2021-01-05 13:02:03.465872,2020-08-16 00:00:00.000000,2.27367494,3.13040154,4.20330610,520,717,962,247,346,464,1.08101317,1.51145707,2.02671444,0.31775436,0.43755000,0.61847453
39105,0,USOhioMeigs,Ohio,Meigs,2021-01-05 13:02:03.465872,2020-08-17 00:00:00.000000,2.36593759,3.20656896,4.27682603,541,734,979,258,358,474,1.12652500,1.56689724,2.06998134,0.31583453,0.42348008,0.59698519
39105,0,USOhioMeigs,Ohio,Meigs,2021-01-05 13:02:03.465872,2020-08-18 00:00:00.000000,2.48366401,3.26490898,4.31451256,568,747,988,266,368,479,1.16157665,1.60972504,2.09327550,0.31575757,0.41138440,0.55154112
39105,0,USOhioMeigs,Ohio,Meigs,2021-01-05 13:02:03.465872,2020-08-19 00:00:00.000000,2.52649231,3.32005298,4.33260938,578,760,992,273,378,495,1.19431107,1.65091428,2.16394292,0.30793059,0.40281667,0.53706875
39105,0,USOhioMeigs,Ohio,Meigs,2021-01-05 13:02:03.465872,2020-08-20 00:00:00.000000,2.56621843,3.40487383,4.31776840,587,779,989,279,390,509,1.22207333,1.70458952,2.22528222,0.28329495,0.39352088,0.53373639
39105,0,USOhioMeigs,Ohio,Meigs,2021-01-05 13:02:03.465872,2020-08-21 00:00:00.000000,2.60265119,3.44059640,4.32023428,596,788,989,285,398,518,1.24761638,1.74038141,2.26223963,0.27545801,0.38272036,0.53163367
39105,0,USOhioMeigs,Ohio,Meigs,2021-01-05 13:02:03.465872,2020-08-22 00:00:00.000000,2.63335305,3.48831287,4.40115345,603,799,1008,290,403,525,1.26834833,1.76264364,2.29324929,0.25340790,0.36286434,0.48709093
39105,0,USOhioMeigs,Ohio,Meigs,2021-01-05 13:02:03.465872,2020-08-23 00:00:00.000000,2.62093769,3.53742301,4.46404930,600,810,1022,293,411,529,1.28046055,1.79717816,2.30961259,0.23777943,0.34005911,0.46657424
39105,0,USOhioMeigs,Ohio,Meigs,2021-01-05 13:02:03.465872,2020-08-24 00:00:00.000000,2.65151187,3.54049027,4.44245235,607,811,1017,293,421,529,1.28112033,1.84054051,2.31194647,0.21574089,0.32154214,0.43917241
39105,0,USOhioMeigs,Ohio,Meigs,2021-01-05 13:02:03.465872,2020-08-25 00:00:00.000000,2.65144578,3.50198082,4.37155169,607,802,1001,291,421,527,1.27143636,1.83934345,2.30434902,0.21410001,0.29671772,0.40767752
39105,0,USOhioMeigs,Ohio,Meigs,2021-01-05 13:02:03.465872,2020-08-26 00:00:00.000000,2.59157621,3.43782500,4.31538467,593,787,988,291,425,524,1.27144179,1.85797062,2.28945230,0.20731554,0.27430773,0.37042827
39105,0,USOhioMeigs,Ohio,Meigs,2021-01-05 13:02:03.465872,2020-08-27 00:00:00.000000,2.52347342,3.36906696,4.29215320,578,771,983,290,422,527,1.27003425,1.84226035,2.30432480,0.18305889,0.25379523,0.35360907
39105,0,USOhioMeigs,Ohio,Meigs,2021-01-05 13:02:03.465872,2020-08-28 00:00:00.000000,2.44828314,3.28260313,4.25593043,560,751,974,289,415,532,1.26479558,1.81331476,2.32372066,0.15943576,0.24311548,0.32944685
39105,0,USOhioMeigs,Ohio,Meigs,2021-01-05 13:02:03.465872,2020-08-29 00:00:00.000000,2.36695916,3.18481369,4.15361281,542,729,951,282,408,522,1.23501694,1.78408660,2.28238129,0.15023400,0.23032997,0.31767605
39105,0,USOhioMeigs,Ohio,Meigs,2021-01-05 13:02:03.465872,2020-08-30 00:00:00.000000,2.27339861,3.07226557,4.04441060,520,703,926,274,399,507,1.19858263,1.74566699,2.21469553,0.14791020,0.21291603,0.29956182
39105,0,USOhioMeigs,Ohio,Meigs,2021-01-05 13:02:03.465872,2020-08-31 00:00:00.000000,2.17688993,2.95867339,3.86436001,498,677,885,265,389,490,1.15926134,1.70081864,2.14146224,0.14350180,0.20349026,0.27812118
39105,0,USOhioMeigs,Ohio,Meigs,2021-01-05 13:02:03.465872,2020-09-01 00:00:00.000000,2.08356641,2.85272734,3.68519350,477,653,844,255,380,472,1.11731511,1.66112198,2.06339275,0.13757266,0.20177166,0.26980512
39105,0,USOhioMeigs,Ohio,Meigs,2021-01-05 13:02:03.465872,2020-09-02 00:00:00.000000,1.99324519,2.74633428,3.50673384,456,629,803,246,369,457,1.07400159,1.61358277,1.99877662,0.13350570,0.19570349,0.26743073
39105,0,USOhioMeigs,Ohio,Meigs,2021-01-05 13:02:03.465872,2020-09-03 00:00:00.000000,1.90613707,2.64592671,3.35048931,436,606,767,236,357,441,1.03033921,1.56235807,1.92685850,0.12396073,0.18681667,0.25670482
39105,0,USOhioMeigs,Ohio,Meigs,2021-01-05 13:02:03.465872,2020-09-04 00:00:00.000000,1.82269532,2.54677758,3.23245148,417,583,740,226,342,428,0.98703982,1.49408126,1.86856106,0.11394482,0.18395122,0.24170727
39105,0,USOhioMeigs,Ohio,Meigs,2021-01-05 13:02:03.465872,2020-09-05 00:00:00.000000,1.74298067,2.43137443,3.11566017,399,556,713,216,328,418,0.94448488,1.43198356,1.82658147,0.11077898,0.17826651,0.23780241
39105,0,USOhioMeigs,Ohio,Meigs,2021-01-05 13:02:03.465872,2020-09-06 00:00:00.000000,1.66694838,2.31966679,2.99936036,381,531,687,203,313,404,0.88942171,1.36803234,1.76512736,0.10893372,0.17607170,0.23198126
39105,0,USOhioMeigs,Ohio,Meigs,2021-01-05 13:02:03.465872,2020-09-07 00:00:00.000000,1.58246755,2.22071703,2.88033290,362,508,659,188,300,392,0.82495797,1.31114838,1.71506944,0.10791990,0.17524761,0.23237139
39105,0,USOhioMeigs,Ohio,Meigs,2021-01-05 13:02:03.465872,2020-09-08 00:00:00.000000,1.45984170,2.10224756,2.77440087,334,481,635,175,287,380,0.76452495,1.25724496,1.66268015,0.10742369,0.17496731,0.23307548
39105,0,USOhioMeigs,Ohio,Meigs,2021-01-05 13:02:03.465872,2020-09-09 00:00:00.000000,1.34546086,1.97911797,2.65225717,308,453,607,162,275,368,0.70824370,1.20275495,1.60909132,0.10736137,0.17502685,0.23443672
39105,0,USOhioMeigs,Ohio,Meigs,2021-01-05 13:02:03.465872,2020-09-10 00:00:00.000000,1.23944680,1.88441850,2.54674211,283,431,583,150,262,356,0.65607350,1.14415751,1.55517433,0.10811039,0.17272423,0.23654436
39105,0,USOhioMeigs,Ohio,Meigs,2021-01-05 13:02:03.465872,2020-09-11 00:00:00.000000,1.14162276,1.80370653,2.44985033,261,413,561,139,248,343,0.60788608,1.08560058,1.50156368,0.11116802,0.17119811,0.24030113
39105,0,USOhioMeigs,Ohio,Meigs,2021-01-05 13:02:03.465872,2020-09-12 00:00:00.000000,1.05168779,1.73102798,2.34896364,240,396,538,129,234,331,0.56352326,1.02483831,1.44868446,0.11367192,0.17148194,0.24369421
39105,0,USOhioMeigs,Ohio,Meigs,2021-01-05 13:02:03.465872,2020-09-13 00:00:00.000000,0.96942175,1.65783421,2.25426197,222,379,516,119,222,319,0.52284755,0.97018206,1.39645017,0.11576930,0.17479401,0.24551984
39105,0,USOhioMeigs,Ohio,Meigs,2021-01-05 13:02:03.465872,2020-09-14 00:00:00.000000,0.89499159,1.57135639,2.16344820,205,359,495,111,209,307,0.48576852,0.91638569,1.34186145,0.11310296,0.17841972,0.24636159
39105,0,USOhioMeigs,Ohio,Meigs,2021-01-05 13:02:03.465872,2020-09-15 00:00:00.000000,0.83119335,1.48022517,2.09934443,190,339,480,103,199,294,0.45171925,0.87219947,1.28492697,0.12523297,0.17901011,0.24712507
39105,0,USOhioMeigs,Ohio,Meigs,2021-01-05 13:02:03.465872,2020-09-16 00:00:00.000000,0.80210309,1.41231889,2.02780345,183,323,464,96,190,281,0.42066399,0.83114531,1.22702068,0.12299208,0.18004932,0.25048781
39105,0,USOhioMeigs,Ohio,Meigs,2021-01-05 13:02:03.465872,2020-09-17 00:00:00.000000,0.77504971,1.35656475,1.95918057,177,310,448,91,181,267,0.39758856,0.79178428,1.16938816,0.12212874,0.18324225,0.25894381
39105,0,USOhioMeigs,Ohio,Meigs,2021-01-05 13:02:03.465872,2020-09-18 00:00:00.000000,0.75047223,1.30101357,1.90790121,171,298,437,87,172,254,0.38098600,0.75491624,1.11296226,0.13014839,0.18590073,0.26818095
39105,0,USOhioMeigs,Ohio,Meigs,2021-01-05 13:02:03.465872,2020-09-19 00:00:00.000000,0.72950861,1.24308813,1.87557496,167,284,429,84,166,242,0.36807729,0.72882396,1.05849843,0.13671033,0.19305075,0.29564432
39105,0,USOhioMeigs,Ohio,Meigs,2021-01-05 13:02:03.465872,2020-09-20 00:00:00.000000,0.70475714,1.19474602,1.82525970,161,273,418,81,161,230,0.35608654,0.70498894,1.00668865,0.13881156,0.20217546,0.32124935
39105,0,USOhioMeigs,Ohio,Meigs,2021-01-05 13:02:03.465872,2020-09-21 00:00:00.000000,0.68960963,1.15723341,1.78158398,157,265,408,79,155,219,0.34684980,0.67959928,0.95814145,0.13620709,0.20568456,0.34072510
39105,0,USOhioMeigs,Ohio,Meigs,2021-01-05 13:02:03.465872,2020-09-22 00:00:00.000000,0.67554181,1.12655625,1.73962406,154,258,398,77,149,209,0.33993347,0.65203039,0.91276533,0.14426008,0.21163727,0.34454334
39105,0,USOhioMeigs,Ohio,Meigs,2021-01-05 13:02:03.465872,2020-09-23 00:00:00.000000,0.65803770,1.09380298,1.69530586,150,250,388,76,144,199,0.33449601,0.63209976,0.87098362,0.14362462,0.21882256,0.34420478
39105,0,USOhioMeigs,Ohio,Meigs,2021-01-05 13:02:03.465872,2020-09-24 00:00:00.000000,0.63502815,1.06035684,1.66251732,145,242,380,75,140,194,0.32752460,0.61143464,0.84758737,0.14329869,0.22548845,0.34770236
39105,0,USOhioMeigs,Ohio,Meigs,2021-01-05 13:02:03.465872,2020-09-25 00:00:00.000000,0.61941517,1.03182408,1.61793691,141,236,370,73,135,189,0.32064831,0.59206801,0.82734272,0.14356382,0.23156591,0.35105507
39105,0,USOhioMeigs,Ohio,Meigs,2021-01-05 13:02:03.465872,2020-09-26 00:00:00.000000,0.61242570,1.01069826,1.55455955,140,231,356,71,132,185,0.31377705,0.57642283,0.80843791,0.14504132,0.24268220,0.34821121
39105,0,USOhioMeigs,Ohio,Meigs,2021-01-05 13:02:03.465872,2020-09-27 00:00:00.000000,0.60616935,0.99142811,1.50930866,138,227,345,70,129,181,0.30694717,0.56643516,0.79102226,0.15544373,0.24707874,0.35046435
39105,0,USOhioMeigs,Ohio,Meigs,2021-01-05 13:02:03.465872,2020-09-28 00:00:00.000000,0.59333014,0.96959794,1.45649747,135,222,333,68,126,177,0.30014917,0.55075337,0.77540040,0.16418822,0.26126618,0.35057541
39105,0,USOhioMeigs,Ohio,Meigs,2021-01-05 13:02:03.465872,2020-09-29 00:00:00.000000,0.58451877,0.96184733,1.40627720,133,220,322,68,122,176,0.29688192,0.53531505,0.77007954,0.17724262,0.26896208,0.35052345
39105,0,USOhioMeigs,Ohio,Meigs,2021-01-05 13:02:03.465872,2020-09-30 00:00:00.000000,0.57304506,0.94593520,1.37660010,131,216,315,67,120,175,0.29453914,0.52441279,0.76646203,0.19541626,0.27573983,0.36229653
39105,0,USOhioMeigs,Ohio,Meigs,2021-01-05 13:02:03.465872,2020-10-01 00:00:00.000000,0.55509520,0.94512044,1.36558557,127,216,312,67,118,175,0.29374635,0.51763561,0.76425979,0.20552504,0.28285141,0.36841039
39105,0,USOhioMeigs,Ohio,Meigs,2021-01-05 13:02:03.465872,2020-10-02 00:00:00.000000,0.54214061,0.93167785,1.36182960,124,213,311,67,117,174,0.29433334,0.51348323,0.76334214,0.20839266,0.29226961,0.38105498
39105,0,USOhioMeigs,Ohio,Meigs,2021-01-05 13:02:03.465872,2020-10-03 00:00:00.000000,0.53425344,0.93545649,1.35772870,122,214,311,67,116,174,0.29584711,0.50936962,0.76372572,0.21825280,0.30825085,0.41423589
39105,0,USOhioMeigs,Ohio,Meigs,2021-01-05 13:02:03.465872,2020-10-04 00:00:00.000000,0.53136542,0.93968534,1.36568777,121,215,312,67,115,175,0.29433009,0.50625229,0.76548349,0.22433677,0.32288889,0.44354835
39105,0,USOhioMeigs,Ohio,Meigs,2021-01-05 13:02:03.465872,2020-10-05 00:00:00.000000,0.53784340,0.93753083,1.37497507,123,214,314,66,116,175,0.29038726,0.50692621,0.76428000,0.22956445,0.33109283,0.46229784
39105,0,USOhioMeigs,Ohio,Meigs,2021-01-05 13:02:03.465872,2020-10-06 00:00:00.000000,0.54696457,0.94731588,1.37507390,125,217,314,66,115,172,0.29032314,0.50389273,0.75377512,0.23717896,0.34349736,0.46686298
39105,0,USOhioMeigs,Ohio,Meigs,2021-01-05 13:02:03.465872,2020-10-07 00:00:00.000000,0.55865225,0.96075323,1.37078829,127,220,314,67,115,170,0.29294600,0.50304223,0.74427258,0.24897758,0.35354769,0.47373155
39105,0,USOhioMeigs,Ohio,Meigs,2021-01-05 13:02:03.465872,2020-10-08 00:00:00.000000,0.57383156,0.96999634,1.39819139,131,222,320,68,116,172,0.29752430,0.50847338,0.75286994,0.25515527,0.36662568,0.47888175
39105,0,USOhioMeigs,Ohio,Meigs,2021-01-05 13:02:03.465872,2020-10-09 00:00:00.000000,0.59585109,0.98603486,1.43462298,136,225,328,69,117,175,0.30399057,0.51175131,0.76573160,0.26243969,0.38005942,0.48509431
39105,0,USOhioMeigs,Ohio,Meigs,2021-01-05 13:02:03.465872,2020-10-10 00:00:00.000000,0.60176045,0.99658276,1.45786322,137,228,333,71,118,179,0.31322665,0.51575414,0.78188756,0.27061435,0.39462286,0.53283805
39105,0,USOhioMeigs,Ohio,Meigs,2021-01-05 13:02:03.465872,2020-10-11 00:00:00.000000,0.63456063,1.01728535,1.49955998,145,233,343,72,118,183,0.31458732,0.51848442,0.80161839,0.27968228,0.41369111,0.54490465
39105,0,USOhioMeigs,Ohio,Meigs,2021-01-05 13:02:03.465872,2020-10-12 00:00:00.000000,0.66519832,1.03885726,1.53793519,152,237,352,71,121,188,0.31243854,0.52848425,0.82443264,0.29638186,0.41817892,0.55430396
39105,0,USOhioMeigs,Ohio,Meigs,2021-01-05 13:02:03.465872,2020-10-13 00:00:00.000000,0.69825063,1.07210149,1.57861181,159,245,361,74,122,194,0.32304592,0.53664197,0.84924861,0.30239722,0.42832093,0.56175878
39105,0,USOhioMeigs,Ohio,Meigs,2021-01-05 13:02:03.465872,2020-10-14 00:00:00.000000,0.73359159,1.10831110,1.62062593,168,253,371,77,126,200,0.33906122,0.55171146,0.87557932,0.31375273,0.44256581,0.62382267
39105,0,USOhioMeigs,Ohio,Meigs,2021-01-05 13:02:03.465872,2020-10-15 00:00:00.000000,0.77272400,1.15315793,1.66451472,177,264,381,81,130,206,0.35534718,0.57016453,0.90205249,0.32826115,0.44888072,0.64867832
39105,0,USOhioMeigs,Ohio,Meigs,2021-01-05 13:02:03.465872,2020-10-16 00:00:00.000000,0.79917137,1.20881012,1.71267432,183,276,392,83,134,211,0.36316115,0.58902098,0.92512399,0.34248840,0.45751504,0.66014986
39105,0,USOhioMeigs,Ohio,Meigs,2021-01-05 13:02:03.465872,2020-10-17 00:00:00.000000,0.81729791,1.24908999,1.76957874,187,286,405,85,139,217,0.37130507,0.60775354,0.94976468,0.36379501,0.47754641,0.67086694
39105,0,USOhioMeigs,Ohio,Meigs,2021-01-05 13:02:03.465872,2020-10-18 00:00:00.000000,0.85353198,1.30524484,1.82706928,195,298,418,86,143,223,0.37969881,0.62638875,0.97637714,0.37921102,0.49082498,0.68208139
39105,0,USOhioMeigs,Ohio,Meigs,2021-01-05 13:02:03.465872,2020-10-19 00:00:00.000000,0.90456718,1.37336176,1.88191362,207,314,431,91,148,230,0.39838989,0.64800868,1.00518342,0.37690490,0.50954219,0.69089997
39105,0,USOhioMeigs,Ohio,Meigs,2021-01-05 13:02:03.465872,2020-10-20 00:00:00.000000,0.96949677,1.44892255,1.96846205,222,331,450,96,155,237,0.42267406,0.68018708,1.03677760,0.37588875,0.52398765,0.68857360
39105,0,USOhioMeigs,Ohio,Meigs,2021-01-05 13:02:03.465872,2020-10-21 00:00:00.000000,1.03761138,1.52429258,2.01561638,237,349,461,103,163,245,0.45021106,0.71411487,1.07062289,0.38086785,0.53005413,0.73818269
39105,0,USOhioMeigs,Ohio,Meigs,2021-01-05 13:02:03.465872,2020-10-22 00:00:00.000000,1.10760835,1.60238096,2.12149579,253,367,485,110,171,249,0.48035186,0.74888301,1.08911439,0.40562597,0.54072755,0.73916616
39105,0,USOhioMeigs,Ohio,Meigs,2021-01-05 13:02:03.465872,2020-10-23 00:00:00.000000,1.17896709,1.66787117,2.26188621,270,382,518,117,180,254,0.51251693,0.78663456,1.11039944,0.41014629,0.54897827,0.73886990
39105,0,USOhioMeigs,Ohio,Meigs,2021-01-05 13:02:03.465872,2020-10-24 00:00:00.000000,1.24990029,1.76470784,2.40994620,286,404,552,125,188,268,0.54614990,0.82223557,1.17218773,0.41445698,0.55942982,0.74950567
39105,0,USOhioMeigs,Ohio,Meigs,2021-01-05 13:02:03.465872,2020-10-25 00:00:00.000000,1.32033360,1.84678078,2.56201731,302,423,586,132,198,277,0.57868654,0.86756465,1.21188840,0.42881668,0.56779120,0.74822925
39105,0,USOhioMeigs,Ohio,Meigs,2021-01-05 13:02:03.465872,2020-10-26 00:00:00.000000,1.37824461,1.92711613,2.72622283,315,441,624,139,209,286,0.61080283,0.91300978,1.24964459,0.42581074,0.57092886,0.75840316
39105,0,USOhioMeigs,Ohio,Meigs,2021-01-05 13:02:03.465872,2020-10-27 00:00:00.000000,1.43660861,2.04538557,2.88450822,329,468,660,147,220,295,0.64242209,0.96357562,1.28886394,0.42578626,0.57350168,0.76062368
39105,0,USOhioMeigs,Ohio,Meigs,2021-01-05 13:02:03.465872,2020-10-28 00:00:00.000000,1.51203365,2.16513600,3.03719011,346,495,695,154,232,315,0.67532958,1.01672652,1.37593891,0.42520747,0.59226313,0.76161230
39105,0,USOhioMeigs,Ohio,Meigs,2021-01-05 13:02:03.465872,2020-10-29 00:00:00.000000,1.60157843,2.28594410,3.18541837,366,523,729,162,247,328,0.71128973,1.08242099,1.43613927,0.43981490,0.59379232,0.76003582
39105,0,USOhioMeigs,Ohio,Meigs,2021-01-05 13:02:03.465872,2020-10-30 00:00:00.000000,1.70317072,2.43335428,3.32620075,390,557,761,170,261,353,0.74516721,1.14080371,1.54183141,0.44155470,0.60051663,0.80901064
39105,0,USOhioMeigs,Ohio,Meigs,2021-01-05 13:02:03.465872,2020-10-31 00:00:00.000000,1.81494290,2.56166725,3.45247261,415,586,790,177,274,378,0.77680169,1.19986352,1.65077195,0.44379680,0.60246942,0.83586312
39105,0,USOhioMeigs,Ohio,Meigs,2021-01-05 13:02:03.465872,2020-11-01 00:00:00.000000,1.91865958,2.74059877,3.56261874,439,627,816,185,289,401,0.80900432,1.26468651,1.75253343,0.44422395,0.61432986,0.83579589
39105,0,USOhioMeigs,Ohio,Meigs,2021-01-05 13:02:03.465872,2020-11-02 00:00:00.000000,1.95554536,2.93614089,3.73801596,447,672,856,192,305,420,0.84203427,1.33196496,1.83712221,0.43894830,0.61662033,0.83597983
39105,0,USOhioMeigs,Ohio,Meigs,2021-01-05 13:02:03.465872,2020-11-03 00:00:00.000000,1.98765956,3.12418933,4.01283928,455,715,919,206,324,445,0.90243855,1.41533999,1.94609547,0.43656554,0.63234492,0.83647052
39105,0,USOhioMeigs,Ohio,Meigs,2021-01-05 13:02:03.465872,2020-11-04 00:00:00.000000,2.03160291,3.32805985,4.24963683,465,762,973,222,347,475,0.97002637,1.51606075,2.07518171,0.43640699,0.63686552,0.83674625
39105,0,USOhioMeigs,Ohio,Meigs,2021-01-05 13:02:03.465872,2020-11-05 00:00:00.000000,2.14059820,3.51602207,4.46927438,490,805,1023,238,367,500,1.04250780,1.60596160,2.18485918,0.44547017,0.63971852,0.83731322
39105,0,USOhioMeigs,Ohio,Meigs,2021-01-05 13:02:03.465872,2020-11-06 00:00:00.000000,2.26369702,3.73831589,4.69307218,518,856,1075,250,388,531,1.09430632,1.69661340,2.32226029,0.45096902,0.64366031,0.89414556
39105,0,USOhioMeigs,Ohio,Meigs,2021-01-05 13:02:03.465872,2020-11-07 00:00:00.000000,2.40478007,3.96673364,4.99730202,550,908,1144,254,413,564,1.10967216,1.80299673,2.46602772,0.46279341,0.65145516,0.86490047
39105,0,USOhioMeigs,Ohio,Meigs,2021-01-05 13:02:03.465872,2020-11-08 00:00:00.000000,2.56605209,4.17940237,5.33034552,587,957,1221,259,435,596,1.13448312,1.90226869,2.60213093,0.48130494,0.65600361,0.82025285
39105,0,USOhioMeigs,Ohio,Meigs,2021-01-05 13:02:03.465872,2020-11-09 00:00:00.000000,2.68562405,4.37728999,5.68732355,615,1002,1302,275,460,625,1.20392640,2.00980183,2.73085955,0.49709998,0.65849920,0.81976729
39105,0,USOhioMeigs,Ohio,Meigs,2021-01-05 13:02:03.465872,2020-11-10 00:00:00.000000,2.81031011,4.61652672,6.06291516,643,1057,1388,293,486,655,1.28010457,2.12267840,2.86235333,0.50606907,0.66876488,0.84872044
39105,0,USOhioMeigs,Ohio,Meigs,2021-01-05 13:02:03.465872,2020-11-11 00:00:00.000000,2.97030302,4.88533268,6.46134567,680,1119,1480,312,511,686,1.36322603,2.23421265,2.99764041,0.51427361,0.67309990,0.85144223
39105,0,USOhioMeigs,Ohio,Meigs,2021-01-05 13:02:03.465872,2020-11-12 00:00:00.000000,3.17311004,5.13204140,6.92981050,726,1175,1587,338,539,718,1.47957742,2.35550744,3.13737178,0.53185330,0.68506759,0.85243044
39105,0,USOhioMeigs,Ohio,Meigs,2021-01-05 13:02:03.465872,2020-11-13 00:00:00.000000,3.45793330,5.42295630,7.42323712,792,1242,1700,369,567,765,1.61357288,2.47779970,3.34041444,0.56176424,0.69388835,0.85394891
39105,0,USOhioMeigs,Ohio,Meigs,2021-01-05 13:02:03.465872,2020-11-14 00:00:00.000000,3.77038055,5.78302188,7.94610790,863,1324,1820,390,597,820,1.70648165,2.60623057,3.58298603,0.57903468,0.69894312,0.85631842
39105,0,USOhioMeigs,Ohio,Meigs,2021-01-05 13:02:03.465872,2020-11-15 00:00:00.000000,4.04700759,6.13683381,8.45681531,927,1405,1937,404,630,879,1.76768996,2.75135095,3.83927367,0.58088353,0.70016190,0.88646811
39105,0,USOhioMeigs,Ohio,Meigs,2021-01-05 13:02:03.465872,2020-11-16 00:00:00.000000,4.31047525,6.50935632,8.93126882,987,1491,2045,430,666,934,1.87951487,2.90894499,4.07801863,0.58070794,0.70644338,0.89067521
39105,0,USOhioMeigs,Ohio,Meigs,2021-01-05 13:02:03.465872,2020-11-17 00:00:00.000000,4.58829477,6.88653979,9.39126702,1051,1577,2151,458,708,981,2.00283525,3.09206712,4.28444443,0.58070018,0.70247220,0.89340442
39105,0,USOhioMeigs,Ohio,Meigs,2021-01-05 13:02:03.465872,2020-11-18 00:00:00.000000,4.87566270,7.28512053,9.77366906,1116,1668,2238,488,756,1032,2.13259955,3.30166242,4.50697200,0.58073784,0.69767809,0.90073650
39105,0,USOhioMeigs,Ohio,Meigs,2021-01-05 13:02:03.465872,2020-11-19 00:00:00.000000,5.16328591,7.64542174,10.17738412,1182,1751,2331,519,803,1112,2.26827451,3.50636075,4.85614106,0.56746004,0.69178418,0.90005732
39105,0,USOhioMeigs,Ohio,Meigs,2021-01-05 13:02:03.465872,2020-11-20 00:00:00.000000,5.47405903,8.02098042,10.71343770,1253,1837,2454,551,850,1197,2.40774323,3.71172062,5.22631726,0.52735820,0.67602379,0.91788424
39105,0,USOhioMeigs,Ohio,Meigs,2021-01-05 13:02:03.465872,2020-11-21 00:00:00.000000,5.69975875,8.42071515,11.18824840,1305,1928,2562,583,900,1272,2.54743090,3.93217820,5.55549096,0.49095931,0.67097870,0.92265722
39105,0,USOhioMeigs,Ohio,Meigs,2021-01-05 13:02:03.465872,2020-11-22 00:00:00.000000,5.95588231,8.75450864,11.62653230,1364,2005,2663,615,953,1327,2.68555962,4.16041088,5.79422550,0.49041572,0.66260766,0.86602184
39105,0,USOhioMeigs,Ohio,Meigs,2021-01-05 13:02:03.465872,2020-11-23 00:00:00.000000,6.21368332,9.13153934,12.30117267,1423,2091,2817,641,1003,1381,2.80234657,4.38143417,6.02908718,0.49013933,0.65880456,0.82743256
39105,0,USOhioMeigs,Ohio,Meigs,2021-01-05 13:02:03.465872,2020-11-24 00:00:00.000000,6.47534192,9.52137442,12.64725804,1483,2181,2897,666,1051,1434,2.90770024,4.59060441,6.26124764,0.48995810,0.64995224,0.82191361
39105,0,USOhioMeigs,Ohio,Meigs,2021-01-05 13:02:03.465872,2020-11-25 00:00:00.000000,6.74136409,9.84968731,13.21273763,1544,2256,3026,689,1099,1467,3.01024359,4.79919397,6.40426197,0.48992021,0.64059741,0.82212792
39105,0,USOhioMeigs,Ohio,Meigs,2021-01-05 13:02:03.465872,2020-11-26 00:00:00.000000,7.01149517,10.16119522,13.76493897,1606,2327,3153,712,1142,1534,3.11029783,4.98812688,6.69974111,0.49321128,0.62698120,0.81562011
39105,0,USOhioMeigs,Ohio,Meigs,2021-01-05 13:02:03.465872,2020-11-27 00:00:00.000000,7.28498911,10.32611303,14.29051126,1668,2365,3273,735,1184,1588,3.20878072,5.17029140,6.93302425,0.49189604,0.61181732,0.80448301
39105,0,USOhioMeigs,Ohio,Meigs,2021-01-05 13:02:03.465872,2020-11-28 00:00:00.000000,7.54020516,10.52138604,14.75393972,1727,2410,3379,756,1219,1646,3.30452070,5.32336801,7.18637826,0.47314014,0.60455470,0.79402846
39105,0,USOhioMeigs,Ohio,Meigs,2021-01-05 13:02:03.465872,2020-11-29 00:00:00.000000,7.78453174,10.71086312,14.90512551,1783,2453,3414,778,1249,1698,3.39692316,5.45646178,7.41261238,0.44619609,0.58804096,0.79228698
39105,0,USOhioMeigs,Ohio,Meigs,2021-01-05 13:02:03.465872,2020-11-30 00:00:00.000000,8.00398163,10.91156738,14.92099191,1833,2499,3417,798,1274,1734,3.48538042,5.56573456,7.57337155,0.42534645,0.57353291,0.78571615
39105,0,USOhioMeigs,Ohio,Meigs,2021-01-05 13:02:03.465872,2020-12-01 00:00:00.000000,8.19790940,11.00085294,14.87326793,1877,2519,3407,817,1295,1757,3.56970022,5.65729907,7.67030235,0.42019077,0.55819649,0.74181315
39105,0,USOhioMeigs,Ohio,Meigs,2021-01-05 13:02:03.465872,2020-12-02 00:00:00.000000,8.34114542,11.05052237,14.76624699,1910,2531,3382,835,1310,1767,3.64801669,5.72012538,7.71756726,0.39934124,0.55021533,0.73427482
39105,0,USOhioMeigs,Ohio,Meigs,2021-01-05 13:02:03.465872,2020-12-03 00:00:00.000000,8.41976826,11.07152260,14.59610345,1928,2536,3343,851,1317,1776,3.71587184,5.75070723,7.75723322,0.37944236,0.54017721,0.72418611
39105,0,USOhioMeigs,Ohio,Meigs,2021-01-05 13:02:03.465872,2020-12-04 00:00:00.000000,8.43259735,11.01893539,14.37343480,1931,2524,3292,861,1329,1793,3.76293130,5.80428383,7.83073846,0.36682131,0.52683335,0.70272989
39105,0,USOhioMeigs,Ohio,Meigs,2021-01-05 13:02:03.465872,2020-12-05 00:00:00.000000,8.42064025,10.96178415,14.32363486,1928,2511,3281,864,1333,1805,3.77543735,5.81919669,7.88159818,0.35870579,0.51264431,0.67455849
39105,0,USOhioMeigs,Ohio,Meigs,2021-01-05 13:02:03.465872,2020-12-06 00:00:00.000000,8.34316830,10.89812175,14.25089707,1911,2496,3264,859,1337,1809,3.75004055,5.83923603,7.89991897,0.35413293,0.50523907,0.65950098
39105,0,USOhioMeigs,Ohio,Meigs,2021-01-05 13:02:03.465872,2020-12-07 00:00:00.000000,8.25891178,10.77063838,14.12331487,1891,2467,3235,846,1330,1805,3.69522865,5.80856227,7.88107852,0.35468138,0.50396407,0.62860606
39105,0,USOhioMeigs,Ohio,Meigs,2021-01-05 13:02:03.465872,2020-12-08 00:00:00.000000,8.19856570,10.63052306,13.98536453,1878,2435,3203,829,1329,1813,3.62232395,5.80440365,7.91668111,0.34751022,0.49652308,0.63991201
39105,0,USOhioMeigs,Ohio,Meigs,2021-01-05 13:02:03.465872,2020-12-09 00:00:00.000000,8.10807871,10.43125717,13.73190798,1857,2389,3145,810,1325,1809,3.53866144,5.78529145,7.90047866,0.34306312,0.49160426,0.64376548
39105,0,USOhioMeigs,Ohio,Meigs,2021-01-05 13:02:03.465872,2020-12-10 00:00:00.000000,7.91505500,10.32330883,13.45738930,1813,2364,3082,790,1310,1804,3.44906347,5.71987260,7.87679359,0.34086697,0.48484377,0.63364819
39105,0,USOhioMeigs,Ohio,Meigs,2021-01-05 13:02:03.465872,2020-12-11 00:00:00.000000,7.69349185,10.19933407,13.21035346,1762,2336,3026,768,1291,1786,3.35678824,5.63870249,7.80093720,0.34080261,0.48551146,0.65064273
39105,0,USOhioMeigs,Ohio,Meigs,2021-01-05 13:02:03.465872,2020-12-12 00:00:00.000000,7.41383565,10.05790214,13.05936080,1698,2303,2991,747,1268,1762,3.26437200,5.53840459,7.69308788,0.33567616,0.50361491,0.70015622
39105,0,USOhioMeigs,Ohio,Meigs,2021-01-05 13:02:03.465872,2020-12-13 00:00:00.000000,7.12940664,9.94006942,12.87480554,1633,2276,2949,727,1241,1733,3.17410406,5.41972348,7.56679438,0.34587889,0.50756386,0.71973649
39105,0,USOhioMeigs,Ohio,Meigs,2021-01-05 13:02:03.465872,2020-12-14 00:00:00.000000,6.87161447,9.79086624,12.66742676,1574,2242,2901,707,1223,1702,3.08818979,5.33986761,7.43345357,0.34959643,0.51921338,0.72346442
39105,0,USOhioMeigs,Ohio,Meigs,2021-01-05 13:02:03.465872,2020-12-15 00:00:00.000000,6.66591495,9.66105914,12.43824474,1526,2213,2849,688,1204,1665,3.00660402,5.25767050,7.27269137,0.35394043,0.52804023,0.76139536
39105,0,USOhioMeigs,Ohio,Meigs,2021-01-05 13:02:03.465872,2020-12-16 00:00:00.000000,6.50541329,9.48210281,12.19236004,1490,2172,2792,671,1177,1628,2.93196317,5.14110800,7.10980547,0.36442160,0.54159369,0.77342606
39105,0,USOhioMeigs,Ohio,Meigs,2021-01-05 13:02:03.465872,2020-12-17 00:00:00.000000,6.31376848,9.23728960,12.06620407,1446,2115,2764,656,1151,1591,2.86587102,5.02893105,6.94584318,0.37644298,0.55700602,0.77536062
39105,0,USOhioMeigs,Ohio,Meigs,2021-01-05 13:02:03.465872,2020-12-18 00:00:00.000000,6.17938661,9.06855089,11.95788583,1415,2077,2739,643,1129,1553,2.80901713,4.92947642,6.78103454,0.39755523,0.58232176,0.79419335
39105,0,USOhioMeigs,Ohio,Meigs,2021-01-05 13:02:03.465872,2020-12-19 00:00:00.000000,6.09700949,8.99352262,11.85522400,1396,2060,2715,632,1121,1515,2.76104757,4.89410350,6.61748135,0.40394065,0.60360886,0.80402175
39105,0,USOhioMeigs,Ohio,Meigs,2021-01-05 13:02:03.465872,2020-12-20 00:00:00.000000,6.04005406,9.05243600,11.78190794,1383,2073,2698,623,1104,1481,2.72046000,4.82273609,6.46641314,0.42266087,0.62667670,0.94653007
39105,0,USOhioMeigs,Ohio,Meigs,2021-01-05 13:02:03.465872,2020-12-21 00:00:00.000000,5.99602860,9.01785454,11.75940451,1373,2065,2693,615,1092,1454,2.68502972,4.77025170,6.34893221,0.44508639,0.64695644,0.98062055
39105,0,USOhioMeigs,Ohio,Meigs,2021-01-05 13:02:03.465872,2020-12-22 00:00:00.000000,5.95303188,8.98691348,11.77252894,1363,2058,2696,607,1084,1434,2.65206224,4.73310953,6.26140243,0.45292544,0.66416668,1.01830990
39105,0,USOhioMeigs,Ohio,Meigs,2021-01-05 13:02:03.465872,2020-12-23 00:00:00.000000,5.90817400,8.88787958,11.78145393,1353,2035,2698,600,1080,1417,2.62009982,4.71589711,6.18992689,0.45319457,0.67501930,1.02654378
39105,0,USOhioMeigs,Ohio,Meigs,2021-01-05 13:02:03.465872,2020-12-24 00:00:00.000000,5.86124720,8.84792880,11.77657947,1342,2026,2697,593,1082,1402,2.58936151,4.72664491,6.12306879,0.45390141,0.70949983,1.03543277
39105,0,USOhioMeigs,Ohio,Meigs,2021-01-05 13:02:03.465872,2020-12-25 00:00:00.000000,5.81202929,8.76812637,11.75568127,1331,2008,2692,589,1075,1386,2.57492237,4.69586457,6.05396669,0.47935958,0.71489439,1.06559860
39105,0,USOhioMeigs,Ohio,Meigs,2021-01-05 13:02:03.465872,2020-12-26 00:00:00.000000,5.75808847,8.75695691,11.71796944,1319,2005,2684,593,1067,1369,2.59180061,4.66189281,5.97888503,0.45761864,0.72730491,1.08847865
39105,0,USOhioMeigs,Ohio,Meigs,2021-01-05 13:02:03.465872,2020-12-27 00:00:00.000000,5.69986270,8.71709730,11.66301720,1305,1996,2671,601,1055,1350,2.62546221,4.60765211,5.89596106,0.46137077,0.75887150,1.09107179
39105,0,USOhioMeigs,Ohio,Meigs,2021-01-05 13:02:03.465872,2020-12-28 00:00:00.000000,5.62806543,8.66762674,11.58444013,1289,1985,2653,610,1052,1329,2.66568040,4.59328446,5.80443757,0.46611633,0.77408435,1.09169830
39105,0,USOhioMeigs,Ohio,Meigs,2021-01-05 13:02:03.465872,2020-12-29 00:00:00.000000,5.68449909,8.47675856,11.48839555,1302,1941,2631,620,1051,1336,2.70767622,4.59135035,5.83612384,0.45354227,0.77918843,1.10409296
39105,0,USOhioMeigs,Ohio,Meigs,2021-01-05 13:02:03.465872,2020-12-30 00:00:00.000000,5.77913396,8.34282253,11.37515974,1323,1911,2605,629,1047,1347,2.74731385,4.57229024,5.88131808,0.42344783,0.78774985,1.11938766
39105,0,USOhioMeigs,Ohio,Meigs,2021-01-05 13:02:03.465872,2020-12-31 00:00:00.000000,5.99778632,8.23887032,11.24818798,1373,1887,2576,637,1035,1358,2.78365170,4.52119810,5.92873831,0.40637530,0.79840510,1.13278640
39105,0,USOhioMeigs,Ohio,Meigs,2021-01-05 13:02:03.465872,2021-01-01 00:00:00.000000,5.90370941,8.18155289,11.15021858,1352,1874,2554,645,1018,1368,2.81613045,4.44591400,5.97370349,0.42899007,0.80464441,1.15321189
39105,0,USOhioMeigs,Ohio,Meigs,2021-01-05 13:02:03.465872,2021-01-02 00:00:00.000000,5.89296714,8.06445584,10.89383689,1349,1847,2495,653,1001,1339,2.85073300,4.37121978,5.84834783,0.47373240,0.80691017,1.22651517
39105,0,USOhioMeigs,Ohio,Meigs,2021-01-05 13:02:03.465872,2021-01-03 00:00:00.000000,5.80173361,7.98990067,10.92651123,1329,1830,2502,676,985,1337,2.95330491,4.30023490,5.83825800,0.47713806,0.81236753,1.24476690
39105,0,USOhioMeigs,Ohio,Meigs,2021-01-05 13:02:03.465872,2021-01-04 00:00:00.000000,5.67103005,7.86070363,10.95830352,1299,1800,2510,699,960,1359,3.05499223,4.19490919,5.93274270,0.45644184,0.81519717,1.24666788
39105,0,USOhioMeigs,Ohio,Meigs,2021-01-05 13:02:03.465872,2021-01-05 00:00:00.000000,5.46989784,7.68479891,10.88614012,1252,1760,2493,675,942,1379,2.94693738,4.11561436,6.02278847,0.44217811,0.81910993,1.25306251
39105,0,USOhioMeigs,Ohio,Meigs,2021-01-05 13:02:03.465872,2021-01-06 00:00:00.000000,5.40372742,7.49366185,10.77831406,1237,1716,2468,664,932,1398,2.90021140,4.07209653,6.10552352,0.43855160,0.81601237,1.25550375
39105,0,USOhioMeigs,Ohio,Meigs,2021-01-05 13:02:03.465872,2021-01-07 00:00:00.000000,5.24323056,7.32009255,10.66669124,1201,1676,2443,649,920,1410,2.83747832,4.01976558,6.15783358,0.43809446,0.81125899,1.25642254
39105,0,USOhioMeigs,Ohio,Meigs,2021-01-05 13:02:03.465872,2021-01-08 00:00:00.000000,4.99659717,7.14495477,10.60122396,1144,1636,2428,627,910,1411,2.73872364,3.97426896,6.16388906,0.43803532,0.81127995,1.25677232
39105,0,USOhioMeigs,Ohio,Meigs,2021-01-05 13:02:03.465872,2021-01-09 00:00:00.000000,4.76122921,7.00799838,10.51688479,1090,1605,2409,604,897,1400,2.64073199,3.91974683,6.11274454,0.43802608,0.81128743,1.25690924
39105,0,USOhioMeigs,Ohio,Meigs,2021-01-05 13:02:03.465872,2021-01-10 00:00:00.000000,4.58691376,6.89834997,10.41424667,1050,1580,2385,582,883,1383,2.54390043,3.85782427,6.03853713,0.43802425,0.81129010,1.25696519
39105,0,USOhioMeigs,Ohio,Meigs,2021-01-05 13:02:03.465872,2021-01-11 00:00:00.000000,4.31966826,6.81560917,10.29403675,989,1561,2358,560,870,1364,2.44853322,3.79839310,5.95601987,0.43802381,0.81129106,1.25698944
39105,0,USOhioMeigs,Ohio,Meigs,2021-01-05 13:02:03.465872,2021-01-12 00:00:00.000000,4.07086252,6.64633212,10.15711284,932,1522,2326,523,858,1343,2.28593772,3.74675836,5.86545572,0.43802369,0.81129140,1.25700076
39105,0,USOhioMeigs,Ohio,Meigs,2021-01-05 13:02:03.465872,2021-01-13 00:00:00.000000,3.85664328,6.51062748,10.01602796,883,1491,2294,489,839,1345,2.13744998,3.66454617,5.87401555,0.43802365,0.81129152,1.25700650
39105,0,USOhioMeigs,Ohio,Meigs,2021-01-05 13:02:03.465872,2021-01-14 00:00:00.000000,3.65045557,6.34018903,9.89111567,836,1452,2265,484,821,1355,2.11554645,3.58563883,5.91678335,0.43802364,0.81129156,1.25700967
39105,0,USOhioMeigs,Ohio,Meigs,2021-01-05 13:02:03.465872,2021-01-15 00:00:00.000000,3.45239563,6.16285454,9.74892528,790,1411,2233,470,795,1338,2.05213424,3.47443830,5.84495753,0.43802364,0.81129158,1.25701154
39105,0,USOhioMeigs,Ohio,Meigs,2021-01-05 13:02:03.465872,2021-01-16 00:00:00.000000,3.26249809,5.99164206,9.60456423,747,1372,2200,439,765,1317,1.91983700,3.33965940,5.75172237,0.43802364,0.81129159,1.25701270
39105,0,USOhioMeigs,Ohio,Meigs,2021-01-05 13:02:03.465872,2021-01-17 00:00:00.000000,3.08074358,5.76066766,9.52687085,705,1319,2182,411,742,1293,1.79529677,3.24140180,5.64777082,0.43802364,0.81129159,1.25701346
