FIPS,HR_UID,nameid,province,region,analysisTime,dates,pointprevalence_025,pointprevalence_50,pointprevalence_975,pointinfections_025,pointinfections_50,pointinfections_975,pointinfectious_025,pointinfectious_50,pointinfectious_975,pointinfectiousprevalence_05,pointinfectiousprevalence_50,pointinfectiousprevalence_95,infectrate_025,infectrate_50,infectrate_975
51580,0,USVirginiaCovington,Virginia,Covington,2021-01-05 06:35:15.873543,2020-03-09 00:00:00.000000,0.00632626,0.05023553,0.13704239,0,2,7,0,1,5,0.00329698,0.02813954,0.09331094,0.35710288,0.47003324,0.62347575
51580,0,USVirginiaCovington,Virginia,Covington,2021-01-05 06:35:15.873543,2020-03-10 00:00:00.000000,0.00738994,0.05480316,0.14352776,0,3,7,0,1,4,0.00324149,0.02770469,0.08513979,0.35709526,0.47003042,0.62347078
51580,0,USVirginiaCovington,Virginia,Covington,2021-01-05 06:35:15.873543,2020-03-11 00:00:00.000000,0.00794736,0.05851264,0.15044885,0,3,8,0,1,4,0.00338913,0.02773172,0.08166747,0.35707728,0.47002159,0.62346142
51580,0,USVirginiaCovington,Virginia,Covington,2021-01-05 06:35:15.873543,2020-03-12 00:00:00.000000,0.00835796,0.06319613,0.15887264,0,3,8,0,1,4,0.00365687,0.02881656,0.08107987,0.35703492,0.46999361,0.62344378
51580,0,USVirginiaCovington,Virginia,Covington,2021-01-05 06:35:15.873543,2020-03-13 00:00:00.000000,0.00880721,0.06856195,0.16861698,0,3,9,0,1,4,0.00403821,0.03073211,0.08230561,0.35693531,0.46990411,0.62341039
51580,0,USVirginiaCovington,Virginia,Covington,2021-01-05 06:35:15.873543,2020-03-14 00:00:00.000000,0.00964248,0.07284435,0.17850422,0,4,9,0,1,4,0.00452840,0.03326558,0.08694568,0.35670184,0.46961669,0.62334663
51580,0,USVirginiaCovington,Virginia,Covington,2021-01-05 06:35:15.873543,2020-03-15 00:00:00.000000,0.01046365,0.07706016,0.19226702,0,4,10,0,1,5,0.00482555,0.03609977,0.09563829,0.35615917,0.46601290,0.62322220
51580,0,USVirginiaCovington,Virginia,Covington,2021-01-05 06:35:15.873543,2020-03-16 00:00:00.000000,0.02437076,0.10154621,0.23149258,1,5,12,0,2,5,0.00517798,0.03908436,0.10502760,0.35492137,0.45877890,0.62296654
51580,0,USVirginiaCovington,Virginia,Covington,2021-01-05 06:35:15.873543,2020-03-17 00:00:00.000000,0.03792269,0.12569035,0.27976050,2,6,15,0,2,6,0.00849802,0.04364893,0.11829767,0.33639743,0.45251881,0.62238169
51580,0,USVirginiaCovington,Virginia,Covington,2021-01-05 06:35:15.873543,2020-03-18 00:00:00.000000,0.05219430,0.14896545,0.32963533,2,8,18,0,2,7,0.01175091,0.04958571,0.13381090,0.31267918,0.44396997,0.62078224
51580,0,USVirginiaCovington,Virginia,Covington,2021-01-05 06:35:15.873543,2020-03-19 00:00:00.000000,0.06728644,0.17267566,0.38165014,3,9,21,0,3,8,0.01589188,0.05822365,0.15083851,0.27710144,0.43387078,0.61544782
51580,0,USVirginiaCovington,Virginia,Covington,2021-01-05 06:35:15.873543,2020-03-20 00:00:00.000000,0.07782599,0.20138040,0.43535237,4,11,24,1,3,9,0.02073347,0.06923230,0.16881522,0.26298456,0.41262787,0.59598815
51580,0,USVirginiaCovington,Virginia,Covington,2021-01-05 06:35:15.873543,2020-03-21 00:00:00.000000,0.08755368,0.22195329,0.48728613,4,12,26,1,4,10,0.02613669,0.08245525,0.19414007,0.22852859,0.38832096,0.57309064
51580,0,USVirginiaCovington,Virginia,Covington,2021-01-05 06:35:15.873543,2020-03-22 00:00:00.000000,0.09738358,0.24703045,0.53144803,5,13,29,1,5,12,0.03196058,0.09431479,0.22032052,0.22054228,0.36523185,0.56986146
51580,0,USVirginiaCovington,Virginia,Covington,2021-01-05 06:35:15.873543,2020-03-23 00:00:00.000000,0.12168247,0.27456932,0.57213023,6,15,31,2,5,13,0.03804251,0.10592388,0.24484888,0.21933996,0.35330619,0.55160874
51580,0,USVirginiaCovington,Virginia,Covington,2021-01-05 06:35:15.873543,2020-03-24 00:00:00.000000,0.13572209,0.29675950,0.60969455,7,16,33,2,6,14,0.04771648,0.12144115,0.26758146,0.21902214,0.33834285,0.48997631
51580,0,USVirginiaCovington,Virginia,Covington,2021-01-05 06:35:15.873543,2020-03-25 00:00:00.000000,0.14988575,0.32676793,0.64381798,8,18,35,3,7,16,0.05998489,0.13605309,0.29050448,0.21679154,0.31619467,0.46416625
51580,0,USVirginiaCovington,Virginia,Covington,2021-01-05 06:35:15.873543,2020-03-26 00:00:00.000000,0.16572904,0.34744958,0.67316870,9,19,37,4,8,17,0.07415104,0.14877179,0.31111858,0.20687955,0.30762686,0.43504360
51580,0,USVirginiaCovington,Virginia,Covington,2021-01-05 06:35:15.873543,2020-03-27 00:00:00.000000,0.19061747,0.38223773,0.69698321,10,21,38,4,9,18,0.08647379,0.16291056,0.32566345,0.18260533,0.29051110,0.40147876
51580,0,USVirginiaCovington,Virginia,Covington,2021-01-05 06:35:15.873543,2020-03-28 00:00:00.000000,0.21301044,0.41747812,0.71576253,11,23,39,5,9,18,0.09499871,0.17958624,0.34075135,0.17969471,0.27473985,0.38695328
51580,0,USVirginiaCovington,Virginia,Covington,2021-01-05 06:35:15.873543,2020-03-29 00:00:00.000000,0.22977916,0.44156754,0.72804871,12,24,40,5,10,19,0.10355542,0.19315221,0.35541037,0.16838012,0.25701690,0.37311811
51580,0,USVirginiaCovington,Virginia,Covington,2021-01-05 06:35:15.873543,2020-03-30 00:00:00.000000,0.23073884,0.44424946,0.71475764,12,24,39,6,11,20,0.11431797,0.20903047,0.37650366,0.16707033,0.24440508,0.36237280
51580,0,USVirginiaCovington,Virginia,Covington,2021-01-05 06:35:15.873543,2020-03-31 00:00:00.000000,0.23114305,0.44680550,0.71423435,12,24,39,6,12,21,0.12040272,0.21796860,0.39190371,0.15234584,0.23847637,0.35989871
51580,0,USVirginiaCovington,Virginia,Covington,2021-01-05 06:35:15.873543,2020-04-01 00:00:00.000000,0.23064399,0.45024969,0.71607826,12,24,39,6,12,22,0.12253688,0.22491478,0.40316455,0.13402850,0.23153265,0.34297733
51580,0,USVirginiaCovington,Virginia,Covington,2021-01-05 06:35:15.873543,2020-04-02 00:00:00.000000,0.22954437,0.45003994,0.71275342,12,24,39,6,12,22,0.12363179,0.23053369,0.41136752,0.12350823,0.22522106,0.32466760
51580,0,USVirginiaCovington,Virginia,Covington,2021-01-05 06:35:15.873543,2020-04-03 00:00:00.000000,0.22800808,0.45137683,0.70591593,12,24,39,6,12,23,0.12493423,0.23271197,0.41717729,0.12075305,0.21677254,0.32329853
51580,0,USVirginiaCovington,Virginia,Covington,2021-01-05 06:35:15.873543,2020-04-04 00:00:00.000000,0.22220571,0.44820533,0.71786835,12,24,39,6,13,23,0.12552797,0.23646164,0.42086443,0.11938789,0.20860433,0.32145899
51580,0,USVirginiaCovington,Virginia,Covington,2021-01-05 06:35:15.873543,2020-04-05 00:00:00.000000,0.22085534,0.44477117,0.71112824,12,24,39,6,13,23,0.12573404,0.23856211,0.42249572,0.11647612,0.19910339,0.31622868
51580,0,USVirginiaCovington,Virginia,Covington,2021-01-05 06:35:15.873543,2020-04-06 00:00:00.000000,0.21291631,0.43466659,0.72298720,11,24,40,6,13,23,0.12285728,0.23635065,0.42227566,0.11127910,0.19327725,0.30658859
51580,0,USVirginiaCovington,Virginia,Covington,2021-01-05 06:35:15.873543,2020-04-07 00:00:00.000000,0.20502144,0.42662487,0.74714812,11,23,41,6,12,23,0.11965123,0.23399748,0.42056209,0.11029418,0.18524902,0.30362417
51580,0,USVirginiaCovington,Virginia,Covington,2021-01-05 06:35:15.873543,2020-04-08 00:00:00.000000,0.19726289,0.41636160,0.76908742,10,23,42,6,13,23,0.11631180,0.23475620,0.42099978,0.10928029,0.18200440,0.30293103
51580,0,USVirginiaCovington,Virginia,Covington,2021-01-05 06:35:15.873543,2020-04-09 00:00:00.000000,0.18960380,0.40349123,0.78766103,10,22,43,6,12,22,0.11300500,0.23259291,0.41508562,0.10679861,0.17605727,0.28684934
51580,0,USVirginiaCovington,Virginia,Covington,2021-01-05 06:35:15.873543,2020-04-10 00:00:00.000000,0.18201602,0.38695105,0.80142169,10,21,44,6,12,22,0.10960537,0.22517891,0.41085883,0.10337879,0.17007548,0.27991934
51580,0,USVirginiaCovington,Virginia,Covington,2021-01-05 06:35:15.873543,2020-04-11 00:00:00.000000,0.17442498,0.37694746,0.80855159,9,20,44,5,12,22,0.10607080,0.21843286,0.40657211,0.10060017,0.16391551,0.28114126
51580,0,USVirginiaCovington,Virginia,Covington,2021-01-05 06:35:15.873543,2020-04-12 00:00:00.000000,0.16675743,0.36659072,0.80761805,9,20,44,5,11,22,0.10240365,0.20617584,0.40683960,0.09644975,0.16146143,0.27193442
51580,0,USVirginiaCovington,Virginia,Covington,2021-01-05 06:35:15.873543,2020-04-13 00:00:00.000000,0.15902310,0.35743495,0.79907744,8,19,44,5,10,22,0.09865334,0.19860418,0.41337600,0.09562111,0.15903985,0.26873823
51580,0,USVirginiaCovington,Virginia,Covington,2021-01-05 06:35:15.873543,2020-04-14 00:00:00.000000,0.15132708,0.35082255,0.78500969,8,19,43,5,10,23,0.09488356,0.19806600,0.41697364,0.09560473,0.15628225,0.26860655
51580,0,USVirginiaCovington,Virginia,Covington,2021-01-05 06:35:15.873543,2020-04-15 00:00:00.000000,0.14379391,0.34616516,0.76733170,7,19,42,4,10,23,0.08937825,0.19747850,0.41762169,0.09446931,0.15405513,0.26415607
51580,0,USVirginiaCovington,Virginia,Covington,2021-01-05 06:35:15.873543,2020-04-16 00:00:00.000000,0.13652282,0.33466806,0.74679019,7,18,41,4,10,23,0.08426338,0.19270357,0.41558126,0.09416530,0.14993749,0.25498812
51580,0,USVirginiaCovington,Virginia,Covington,2021-01-05 06:35:15.873543,2020-04-17 00:00:00.000000,0.12958991,0.32479805,0.72458943,7,17,40,4,10,22,0.08134127,0.18489868,0.41121946,0.09535926,0.14501785,0.23896474
51580,0,USVirginiaCovington,Virginia,Covington,2021-01-05 06:35:15.873543,2020-04-18 00:00:00.000000,0.12365046,0.31055893,0.70159795,6,17,38,4,9,22,0.07897246,0.17806315,0.40493297,0.09293371,0.13925360,0.22434217
51580,0,USVirginiaCovington,Virginia,Covington,2021-01-05 06:35:15.873543,2020-04-19 00:00:00.000000,0.11680846,0.29543152,0.67838532,6,16,37,4,9,21,0.07320169,0.17112715,0.39712289,0.09226199,0.13195415,0.22263969
51580,0,USVirginiaCovington,Virginia,Covington,2021-01-05 06:35:15.873543,2020-04-20 00:00:00.000000,0.13585568,0.31784400,0.67180683,7,17,37,3,9,21,0.06778051,0.16832533,0.38816262,0.09335779,0.12937019,0.21880145
51580,0,USVirginiaCovington,Virginia,Covington,2021-01-05 06:35:15.873543,2020-04-21 00:00:00.000000,0.14151546,0.34728556,0.64879404,7,19,35,3,9,21,0.07064911,0.16478918,0.38121259,0.09292797,0.12597893,0.21680910
51580,0,USVirginiaCovington,Virginia,Covington,2021-01-05 06:35:15.873543,2020-04-22 00:00:00.000000,0.14697245,0.37080905,0.67847148,8,20,37,4,9,20,0.07856991,0.16703508,0.37574586,0.09025178,0.12484460,0.21380790
51580,0,USVirginiaCovington,Virginia,Covington,2021-01-05 06:35:15.873543,2020-04-23 00:00:00.000000,0.15210380,0.38809609,0.71988931,8,21,39,4,9,20,0.08117381,0.17511960,0.37793515,0.08770684,0.12440816,0.21123501
51580,0,USVirginiaCovington,Virginia,Covington,2021-01-05 06:35:15.873543,2020-04-24 00:00:00.000000,0.15695864,0.39082590,0.75719667,8,21,41,4,10,21,0.08342984,0.18987073,0.39250915,0.08596155,0.12282232,0.20668304
51580,0,USVirginiaCovington,Virginia,Covington,2021-01-05 06:35:15.873543,2020-04-25 00:00:00.000000,0.16373805,0.40410260,0.79437973,9,22,43,4,10,21,0.08589613,0.19640286,0.39697586,0.08252234,0.12144624,0.19459761
51580,0,USVirginiaCovington,Virginia,Covington,2021-01-05 06:35:15.873543,2020-04-26 00:00:00.000000,0.17054779,0.42077000,0.83045396,9,23,45,4,11,21,0.08841477,0.20512439,0.38458944,0.08071926,0.11912077,0.19078844
51580,0,USVirginiaCovington,Virginia,Covington,2021-01-05 06:35:15.873543,2020-04-27 00:00:00.000000,0.18515936,0.43933609,0.85978670,10,24,47,5,11,21,0.09089479,0.21188532,0.38664843,0.07950421,0.11513986,0.19100921
51580,0,USVirginiaCovington,Virginia,Covington,2021-01-05 06:35:15.873543,2020-04-28 00:00:00.000000,0.19882201,0.45798960,0.87384720,11,25,48,5,12,22,0.09470113,0.22029806,0.40389432,0.07720800,0.11380020,0.19246162
51580,0,USVirginiaCovington,Virginia,Covington,2021-01-05 06:35:15.873543,2020-04-29 00:00:00.000000,0.21261719,0.46858004,0.86976073,11,25,48,5,12,23,0.09880162,0.22858753,0.42377327,0.07682674,0.11327239,0.19285326
51580,0,USVirginiaCovington,Virginia,Covington,2021-01-05 06:35:15.873543,2020-04-30 00:00:00.000000,0.21973821,0.47160724,0.91792941,12,26,50,5,13,24,0.10293022,0.23588321,0.44160421,0.07650929,0.11157613,0.19328992
51580,0,USVirginiaCovington,Virginia,Covington,2021-01-05 06:35:15.873543,2020-05-01 00:00:00.000000,0.21553527,0.47620018,0.95211759,11,26,52,5,13,25,0.10318525,0.24108310,0.46641992,0.07504798,0.10991668,0.19355916
51580,0,USVirginiaCovington,Virginia,Covington,2021-01-05 06:35:15.873543,2020-05-02 00:00:00.000000,0.22178763,0.47654061,0.97184152,12,26,53,5,13,27,0.10614249,0.24473772,0.49099963,0.07228933,0.10812889,0.19132556
51580,0,USVirginiaCovington,Virginia,Covington,2021-01-05 06:35:15.873543,2020-05-03 00:00:00.000000,0.22770695,0.48302025,0.99958757,12,26,55,6,13,28,0.10991591,0.24781863,0.51550244,0.06944693,0.10539753,0.18690556
51580,0,USVirginiaCovington,Virginia,Covington,2021-01-05 06:35:15.873543,2020-05-04 00:00:00.000000,0.24451468,0.49395575,1.00778408,13,27,55,6,13,29,0.11348030,0.25041694,0.53908651,0.06695369,0.10434622,0.17720988
51580,0,USVirginiaCovington,Virginia,Covington,2021-01-05 06:35:15.873543,2020-05-05 00:00:00.000000,0.26071489,0.50646979,1.01485105,14,28,56,6,14,30,0.11932025,0.25718763,0.55433203,0.06593207,0.10235395,0.16897381
51580,0,USVirginiaCovington,Virginia,Covington,2021-01-05 06:35:15.873543,2020-05-06 00:00:00.000000,0.26962983,0.52528774,1.02039747,14,29,56,6,14,31,0.12635867,0.26301556,0.56295828,0.06288227,0.10101668,0.16417300
51580,0,USVirginiaCovington,Virginia,Covington,2021-01-05 06:35:15.873543,2020-05-07 00:00:00.000000,0.27007247,0.54306123,1.02473171,14,30,56,7,14,31,0.13227328,0.27009276,0.56636456,0.06089012,0.10042634,0.15994282
51580,0,USVirginiaCovington,Virginia,Covington,2021-01-05 06:35:15.873543,2020-05-08 00:00:00.000000,0.26962900,0.55672941,1.02807725,14,30,56,7,15,31,0.13261426,0.27252889,0.56562851,0.05983353,0.10000506,0.15455534
51580,0,USVirginiaCovington,Virginia,Covington,2021-01-05 06:35:15.873543,2020-05-09 00:00:00.000000,0.27632029,0.57075501,1.01170613,15,31,56,7,15,31,0.13270682,0.28179011,0.56157361,0.05857542,0.09856614,0.14781891
51580,0,USVirginiaCovington,Virginia,Covington,2021-01-05 06:35:15.873543,2020-05-10 00:00:00.000000,0.27438198,0.57163997,0.99020198,15,31,54,7,16,30,0.13262093,0.29528129,0.55484656,0.05455132,0.09852638,0.14310654
51580,0,USVirginiaCovington,Virginia,Covington,2021-01-05 06:35:15.873543,2020-05-11 00:00:00.000000,0.29601941,0.57060192,0.98715637,16,31,54,7,16,30,0.13240903,0.30132649,0.54598535,0.05255875,0.09685389,0.13798317
51580,0,USVirginiaCovington,Virginia,Covington,2021-01-05 06:35:15.873543,2020-05-12 00:00:00.000000,0.32058844,0.58069060,0.97003702,17,32,53,7,16,30,0.13362406,0.30420553,0.55780733,0.05182340,0.09509900,0.13644356
51580,0,USVirginiaCovington,Virginia,Covington,2021-01-05 06:35:15.873543,2020-05-13 00:00:00.000000,0.31653384,0.58656984,0.97611110,17,32,54,7,16,31,0.13882762,0.30547127,0.57271355,0.05158246,0.09277641,0.13533637
51580,0,USVirginiaCovington,Virginia,Covington,2021-01-05 06:35:15.873543,2020-05-14 00:00:00.000000,0.32825841,0.58634323,0.99689501,18,32,55,8,17,31,0.14847732,0.31031092,0.56412433,0.05153044,0.09172505,0.13468758
51580,0,USVirginiaCovington,Virginia,Covington,2021-01-05 06:35:15.873543,2020-05-15 00:00:00.000000,0.33950146,0.57897888,1.00553973,18,32,55,8,16,31,0.15857028,0.30467736,0.56839647,0.05173371,0.09104835,0.13411257
51580,0,USVirginiaCovington,Virginia,Covington,2021-01-05 06:35:15.873543,2020-05-16 00:00:00.000000,0.34242511,0.57635446,1.00953807,18,31,55,8,16,32,0.15942307,0.30395749,0.58500689,0.05231452,0.08879421,0.13265319
51580,0,USVirginiaCovington,Virginia,Covington,2021-01-05 06:35:15.873543,2020-05-17 00:00:00.000000,0.33944957,0.56730204,1.01725699,18,31,56,8,16,32,0.16008998,0.30443290,0.59423460,0.05211898,0.08659155,0.13189939
51580,0,USVirginiaCovington,Virginia,Covington,2021-01-05 06:35:15.873543,2020-05-18 00:00:00.000000,0.33704706,0.57694552,1.02670937,18,31,56,9,16,33,0.16549861,0.30455071,0.59669765,0.05194716,0.08750355,0.13848818
51580,0,USVirginiaCovington,Virginia,Covington,2021-01-05 06:35:15.873543,2020-05-19 00:00:00.000000,0.33515053,0.57634646,1.03989575,18,31,57,9,16,33,0.16880404,0.30613243,0.60075894,0.04986253,0.08641584,0.14133469
51580,0,USVirginiaCovington,Virginia,Covington,2021-01-05 06:35:15.873543,2020-05-20 00:00:00.000000,0.33022653,0.58005247,1.03905596,18,32,57,9,17,33,0.17062202,0.30770588,0.60595231,0.04827169,0.08588338,0.14208008
51580,0,USVirginiaCovington,Virginia,Covington,2021-01-05 06:35:15.873543,2020-05-21 00:00:00.000000,0.33129617,0.57532169,1.01622974,18,31,56,9,17,33,0.17016048,0.30828693,0.61192672,0.04711140,0.08572012,0.14560832
51580,0,USVirginiaCovington,Virginia,Covington,2021-01-05 06:35:15.873543,2020-05-22 00:00:00.000000,0.32980079,0.57175233,1.02594908,18,31,56,9,17,34,0.16918288,0.31057445,0.61841821,0.04618319,0.08610723,0.14955426
51580,0,USVirginiaCovington,Virginia,Covington,2021-01-05 06:35:15.873543,2020-05-23 00:00:00.000000,0.32871376,0.56911850,1.03148015,18,31,57,9,17,34,0.17066714,0.31565418,0.62522874,0.04523665,0.08530325,0.14887572
51580,0,USVirginiaCovington,Virginia,Covington,2021-01-05 06:35:15.873543,2020-05-24 00:00:00.000000,0.32786194,0.57178141,1.02692656,18,31,56,9,17,34,0.17031245,0.31894041,0.62438884,0.04439315,0.08466095,0.15206801
51580,0,USVirginiaCovington,Virginia,Covington,2021-01-05 06:35:15.873543,2020-05-25 00:00:00.000000,0.30696462,0.54616418,0.99466904,16,30,55,9,17,34,0.16941976,0.31968860,0.62254645,0.04394314,0.08543679,0.15303873
51580,0,USVirginiaCovington,Virginia,Covington,2021-01-05 06:35:15.873543,2020-05-26 00:00:00.000000,0.28625599,0.51596617,0.96327301,15,28,53,9,17,33,0.16411878,0.31430545,0.60974441,0.04376321,0.08475349,0.15307155
51580,0,USVirginiaCovington,Virginia,Covington,2021-01-05 06:35:15.873543,2020-05-27 00:00:00.000000,0.26567851,0.48556706,0.92125230,14,26,51,8,16,32,0.15610606,0.30533182,0.59090318,0.04369930,0.08346523,0.15298298
51580,0,USVirginiaCovington,Virginia,Covington,2021-01-05 06:35:15.873543,2020-05-28 00:00:00.000000,0.24588360,0.46133318,0.87742522,13,25,48,8,16,31,0.14684709,0.29448167,0.56953673,0.04358832,0.08338267,0.15290193
51580,0,USVirginiaCovington,Virginia,Covington,2021-01-05 06:35:15.873543,2020-05-29 00:00:00.000000,0.22706658,0.43073597,0.83347944,12,23,46,7,15,30,0.13769699,0.28279163,0.55273864,0.04343946,0.08148858,0.15470289
51580,0,USVirginiaCovington,Virginia,Covington,2021-01-05 06:35:15.873543,2020-05-30 00:00:00.000000,0.20928072,0.40265747,0.78984807,11,22,43,7,14,29,0.12837448,0.26933939,0.53337690,0.04286700,0.08086388,0.15539100
51580,0,USVirginiaCovington,Virginia,Covington,2021-01-05 06:35:15.873543,2020-05-31 00:00:00.000000,0.19257352,0.37959955,0.74706842,10,21,41,6,13,28,0.11917238,0.25097591,0.51225022,0.04337467,0.07992031,0.15583080
51580,0,USVirginiaCovington,Virginia,Covington,2021-01-05 06:35:15.873543,2020-06-01 00:00:00.000000,0.17552098,0.35536626,0.71853750,9,19,39,6,13,27,0.11026988,0.23897484,0.49001757,0.04312188,0.07900075,0.15604344
51580,0,USVirginiaCovington,Virginia,Covington,2021-01-05 06:35:15.873543,2020-06-02 00:00:00.000000,0.15651664,0.33483058,0.69941523,8,18,38,5,12,25,0.10177335,0.22338844,0.46722149,0.04300376,0.07680433,0.15613597
51580,0,USVirginiaCovington,Virginia,Covington,2021-01-05 06:35:15.873543,2020-06-03 00:00:00.000000,0.13933117,0.31545854,0.68086354,7,17,37,5,11,24,0.09245189,0.21068124,0.44428996,0.04290947,0.07637404,0.15617533
51580,0,USVirginiaCovington,Virginia,Covington,2021-01-05 06:35:15.873543,2020-06-04 00:00:00.000000,0.12386481,0.29747796,0.66282266,6,16,36,4,10,23,0.08261552,0.19824800,0.42154345,0.04279078,0.07711600,0.15619324
51580,0,USVirginiaCovington,Virginia,Covington,2021-01-05 06:35:15.873543,2020-06-05 00:00:00.000000,0.10999181,0.27988099,0.64525419,6,15,35,4,10,22,0.07366749,0.18585813,0.39920337,0.04261165,0.07659121,0.15620285
51580,0,USVirginiaCovington,Virginia,Covington,2021-01-05 06:35:15.873543,2020-06-06 00:00:00.000000,0.09756467,0.26345991,0.62805862,5,14,34,3,9,20,0.06582105,0.17399664,0.37738316,0.03995447,0.07607778,0.15614557
51580,0,USVirginiaCovington,Virginia,Covington,2021-01-05 06:35:15.873543,2020-06-07 00:00:00.000000,0.08641792,0.24688311,0.61102002,4,13,33,3,9,20,0.05957768,0.16330021,0.36497509,0.04037941,0.07646040,0.15404246
51580,0,USVirginiaCovington,Virginia,Covington,2021-01-05 06:35:15.873543,2020-06-08 00:00:00.000000,0.07642391,0.23224037,0.58706245,4,12,32,2,8,19,0.05386921,0.15320435,0.35501076,0.04096576,0.07590810,0.14697487
51580,0,USVirginiaCovington,Virginia,Covington,2021-01-05 06:35:15.873543,2020-06-09 00:00:00.000000,0.06750869,0.21713798,0.55985427,3,12,31,2,7,19,0.04865341,0.14371357,0.34517434,0.04047589,0.07599987,0.14273076
51580,0,USVirginiaCovington,Virginia,Covington,2021-01-05 06:35:15.873543,2020-06-10 00:00:00.000000,0.05959331,0.20262611,0.53370210,3,11,29,2,7,18,0.04389393,0.13562918,0.33519253,0.03970942,0.07517063,0.13323628
51580,0,USVirginiaCovington,Virginia,Covington,2021-01-05 06:35:15.873543,2020-06-11 00:00:00.000000,0.05347081,0.19112381,0.50862758,2,10,28,2,7,17,0.03948188,0.12883991,0.32497719,0.03902074,0.07377542,0.13166871
51580,0,USVirginiaCovington,Virginia,Covington,2021-01-05 06:35:15.873543,2020-06-12 00:00:00.000000,0.04823308,0.17818499,0.48462793,2,9,26,1,6,17,0.03518096,0.11999185,0.31457943,0.03842643,0.07170896,0.13374542
51580,0,USVirginiaCovington,Virginia,Covington,2021-01-05 06:35:15.873543,2020-06-13 00:00:00.000000,0.04343496,0.16648102,0.46168711,2,9,25,1,6,16,0.03134255,0.11163254,0.30406894,0.03791529,0.07150274,0.13641764
51580,0,USVirginiaCovington,Virginia,Covington,2021-01-05 06:35:15.873543,2020-06-14 00:00:00.000000,0.03903023,0.15517910,0.43969314,2,8,24,1,5,16,0.02791849,0.10467503,0.29353127,0.03748479,0.07111524,0.13951707
51580,0,USVirginiaCovington,Virginia,Covington,2021-01-05 06:35:15.873543,2020-06-15 00:00:00.000000,0.06485920,0.18311576,0.43648745,3,10,24,1,5,15,0.02485990,0.09783422,0.28304860,0.03761455,0.07062226,0.13958999
51580,0,USVirginiaCovington,Virginia,Covington,2021-01-05 06:35:15.873543,2020-06-16 00:00:00.000000,0.07201951,0.20551802,0.43504650,3,11,24,1,5,15,0.02755616,0.09876220,0.27754942,0.03780514,0.06935741,0.13968922
51580,0,USVirginiaCovington,Virginia,Covington,2021-01-05 06:35:15.873543,2020-06-17 00:00:00.000000,0.07369982,0.21871784,0.49105855,4,12,27,1,5,15,0.03385353,0.10627856,0.27588645,0.03794566,0.06750639,0.13987148
51580,0,USVirginiaCovington,Virginia,Covington,2021-01-05 06:35:15.873543,2020-06-18 00:00:00.000000,0.07554557,0.23544779,0.53823298,4,13,29,2,6,15,0.04042468,0.11482870,0.27715602,0.03776163,0.06674482,0.14033824
51580,0,USVirginiaCovington,Virginia,Covington,2021-01-05 06:35:15.873543,2020-06-19 00:00:00.000000,0.07745376,0.26112449,0.55697642,4,14,30,2,6,15,0.04086072,0.12197624,0.28064332,0.03821539,0.06852558,0.14170414
51580,0,USVirginiaCovington,Virginia,Covington,2021-01-05 06:35:15.873543,2020-06-20 00:00:00.000000,0.07935605,0.27179546,0.58313617,4,15,32,2,7,15,0.04156931,0.12646992,0.28591423,0.03876372,0.07023229,0.14525439
51580,0,USVirginiaCovington,Virginia,Covington,2021-01-05 06:35:15.873543,2020-06-21 00:00:00.000000,0.08532035,0.29001844,0.60162789,4,16,33,2,7,16,0.04242820,0.13110994,0.30265389,0.03732886,0.07091468,0.15278849
51580,0,USVirginiaCovington,Virginia,Covington,2021-01-05 06:35:15.873543,2020-06-22 00:00:00.000000,0.11828107,0.31553785,0.63114338,6,17,34,2,7,18,0.04373860,0.13777806,0.32926552,0.03736307,0.07122435,0.15430868
51580,0,USVirginiaCovington,Virginia,Covington,2021-01-05 06:35:15.873543,2020-06-23 00:00:00.000000,0.13795963,0.33283125,0.66010684,7,18,36,2,8,18,0.05142394,0.14803815,0.33823450,0.03747604,0.07123354,0.15436142
51580,0,USVirginiaCovington,Virginia,Covington,2021-01-05 06:35:15.873543,2020-06-24 00:00:00.000000,0.15012663,0.34209822,0.68856079,8,18,38,3,8,19,0.05989606,0.16023556,0.35628004,0.03734741,0.07111379,0.15441111
51580,0,USVirginiaCovington,Virginia,Covington,2021-01-05 06:35:15.873543,2020-06-25 00:00:00.000000,0.16181840,0.35452226,0.68432814,8,19,37,3,9,20,0.07036508,0.17147871,0.36951929,0.03726277,0.07219596,0.15445489
51580,0,USVirginiaCovington,Virginia,Covington,2021-01-05 06:35:15.873543,2020-06-26 00:00:00.000000,0.17477330,0.37386411,0.69322452,9,20,38,4,10,20,0.07923804,0.18523204,0.37516936,0.03715953,0.07209961,0.15447906
51580,0,USVirginiaCovington,Virginia,Covington,2021-01-05 06:35:15.873543,2020-06-27 00:00:00.000000,0.18222838,0.38201323,0.71615987,10,21,39,4,10,21,0.08545308,0.19049495,0.39528364,0.03760825,0.07186187,0.15448324
51580,0,USVirginiaCovington,Virginia,Covington,2021-01-05 06:35:15.873543,2020-06-28 00:00:00.000000,0.19106923,0.39208853,0.73936172,10,21,40,5,11,22,0.09527152,0.19949847,0.41275721,0.03710050,0.07149156,0.15463422
51580,0,USVirginiaCovington,Virginia,Covington,2021-01-05 06:35:15.873543,2020-06-29 00:00:00.000000,0.21098766,0.39503988,0.78687468,11,21,43,5,11,22,0.09598432,0.20463346,0.40717824,0.03684262,0.07168253,0.15633979
51580,0,USVirginiaCovington,Virginia,Covington,2021-01-05 06:35:15.873543,2020-06-30 00:00:00.000000,0.21435399,0.42436767,0.77425487,11,23,42,6,11,22,0.11024110,0.20834490,0.40979129,0.03681390,0.07107084,0.15532444
51580,0,USVirginiaCovington,Virginia,Covington,2021-01-05 06:35:15.873543,2020-07-01 00:00:00.000000,0.21329385,0.43314634,0.75964489,11,23,42,6,11,23,0.11359556,0.21517992,0.41761889,0.03704612,0.06994631,0.15395597
51580,0,USVirginiaCovington,Virginia,Covington,2021-01-05 06:35:15.873543,2020-07-02 00:00:00.000000,0.21141282,0.42357341,0.76558094,11,23,42,6,12,23,0.11512407,0.22167965,0.42848976,0.03770205,0.07126999,0.15230479
51580,0,USVirginiaCovington,Virginia,Covington,2021-01-05 06:35:15.873543,2020-07-03 00:00:00.000000,0.20903527,0.44192891,0.77072224,11,24,42,6,12,24,0.11552015,0.22384665,0.44105275,0.03892086,0.07107075,0.15030782
51580,0,USVirginiaCovington,Virginia,Covington,2021-01-05 06:35:15.873543,2020-07-04 00:00:00.000000,0.20642139,0.44879271,0.78829204,11,24,43,6,12,25,0.11516421,0.23162783,0.45433331,0.03969360,0.06936040,0.14763884
51580,0,USVirginiaCovington,Virginia,Covington,2021-01-05 06:35:15.873543,2020-07-05 00:00:00.000000,0.20375152,0.44523773,0.82120085,11,24,45,6,12,25,0.11433101,0.23023279,0.45193380,0.03986466,0.06960654,0.14315011
51580,0,USVirginiaCovington,Virginia,Covington,2021-01-05 06:35:15.873543,2020-07-06 00:00:00.000000,0.21630020,0.47522399,0.83947685,11,26,46,6,13,24,0.11321765,0.24216033,0.44649720,0.03951173,0.06941428,0.14006888
51580,0,USVirginiaCovington,Virginia,Covington,2021-01-05 06:35:15.873543,2020-07-07 00:00:00.000000,0.23315649,0.48196010,0.85624814,12,26,47,6,13,25,0.12259667,0.24787009,0.46225058,0.03862537,0.07080431,0.13735217
51580,0,USVirginiaCovington,Virginia,Covington,2021-01-05 06:35:15.873543,2020-07-08 00:00:00.000000,0.24770753,0.48575155,0.87196345,13,26,48,7,13,25,0.12963411,0.24968808,0.46912833,0.03793659,0.07179121,0.13421690
51580,0,USVirginiaCovington,Virginia,Covington,2021-01-05 06:35:15.873543,2020-07-09 00:00:00.000000,0.24632053,0.50802741,0.92286211,13,28,51,7,14,25,0.12827917,0.25553378,0.46713390,0.03809325,0.07201288,0.13462493
51580,0,USVirginiaCovington,Virginia,Covington,2021-01-05 06:35:15.873543,2020-07-10 00:00:00.000000,0.24128204,0.52004434,0.94391278,13,28,52,7,14,25,0.13147407,0.26177896,0.46648254,0.03846820,0.07168716,0.13212457
51580,0,USVirginiaCovington,Virginia,Covington,2021-01-05 06:35:15.873543,2020-07-11 00:00:00.000000,0.24384106,0.53377553,1.01069351,13,29,55,7,15,25,0.12737763,0.27422640,0.46364693,0.03606881,0.07112532,0.12977903
51580,0,USVirginiaCovington,Virginia,Covington,2021-01-05 06:35:15.873543,2020-07-12 00:00:00.000000,0.24266615,0.54164929,0.99103447,13,29,54,7,15,27,0.12713881,0.27831202,0.48903455,0.03564565,0.07146639,0.12879460
51580,0,USVirginiaCovington,Virginia,Covington,2021-01-05 06:35:15.873543,2020-07-13 00:00:00.000000,0.24556730,0.55739361,0.99144257,13,30,54,7,15,29,0.12789253,0.28041180,0.53087695,0.03451553,0.07222068,0.13023959
51580,0,USVirginiaCovington,Virginia,Covington,2021-01-05 06:35:15.873543,2020-07-14 00:00:00.000000,0.24858263,0.55636066,0.99935224,13,30,55,7,16,31,0.13513300,0.29265727,0.56134483,0.03496688,0.07397427,0.13236042
51580,0,USVirginiaCovington,Virginia,Covington,2021-01-05 06:35:15.873543,2020-07-15 00:00:00.000000,0.25046587,0.55583816,1.00636588,13,30,55,7,16,31,0.13562177,0.29403111,0.57187673,0.03579979,0.07470946,0.12879127
51580,0,USVirginiaCovington,Virginia,Covington,2021-01-05 06:35:15.873543,2020-07-16 00:00:00.000000,0.24795140,0.55856574,1.01299741,13,30,56,7,16,32,0.13185531,0.29199729,0.57954532,0.03756726,0.07539981,0.12441428
51580,0,USVirginiaCovington,Virginia,Covington,2021-01-05 06:35:15.873543,2020-07-17 00:00:00.000000,0.24641528,0.56832794,1.01957821,13,31,56,7,16,32,0.12929939,0.29630885,0.58608504,0.03878143,0.07596904,0.12818835
51580,0,USVirginiaCovington,Virginia,Covington,2021-01-05 06:35:15.873543,2020-07-18 00:00:00.000000,0.24564732,0.57502437,1.02625776,13,31,56,7,16,32,0.12760689,0.30285342,0.59182941,0.03939699,0.07644153,0.12552179
51580,0,USVirginiaCovington,Virginia,Covington,2021-01-05 06:35:15.873543,2020-07-19 00:00:00.000000,0.24569595,0.58256192,1.03302826,13,32,57,7,17,33,0.12654703,0.31021898,0.59703776,0.03967446,0.07710847,0.12557170
51580,0,USVirginiaCovington,Virginia,Covington,2021-01-05 06:35:15.873543,2020-07-20 00:00:00.000000,0.27237260,0.59387876,1.01395201,15,32,56,6,17,33,0.12596947,0.30948661,0.60188946,0.04096430,0.07856702,0.13389602
51580,0,USVirginiaCovington,Virginia,Covington,2021-01-05 06:35:15.873543,2020-07-21 00:00:00.000000,0.28082476,0.60866736,0.99477591,15,33,55,7,17,33,0.13212590,0.30873298,0.60192851,0.04322681,0.07997410,0.13457329
51580,0,USVirginiaCovington,Virginia,Covington,2021-01-05 06:35:15.873543,2020-07-22 00:00:00.000000,0.28912930,0.61827880,0.98242865,16,34,54,7,17,33,0.14223411,0.31229046,0.59849092,0.04322525,0.08145697,0.12739634
51580,0,USVirginiaCovington,Virginia,Covington,2021-01-05 06:35:15.873543,2020-07-23 00:00:00.000000,0.29714054,0.60907949,1.00408680,16,33,55,8,17,32,0.15445657,0.32085054,0.59257902,0.04322169,0.08240529,0.12806051
51580,0,USVirginiaCovington,Virginia,Covington,2021-01-05 06:35:15.873543,2020-07-24 00:00:00.000000,0.30477349,0.60947128,1.02424263,16,33,56,9,18,32,0.16295394,0.32534195,0.59306026,0.04321327,0.08270133,0.12898214
51580,0,USVirginiaCovington,Virginia,Covington,2021-01-05 06:35:15.873543,2020-07-25 00:00:00.000000,0.30856079,0.60911089,1.04304960,17,33,57,8,18,33,0.15951335,0.32646105,0.59625687,0.04319182,0.08473864,0.13045586
51580,0,USVirginiaCovington,Virginia,Covington,2021-01-05 06:35:15.873543,2020-07-26 00:00:00.000000,0.29902166,0.60653867,1.06061459,16,33,58,8,18,33,0.15455903,0.32923853,0.59978695,0.04314259,0.08353690,0.13215686
51580,0,USVirginiaCovington,Virginia,Covington,2021-01-05 06:35:15.873543,2020-07-27 00:00:00.000000,0.32105266,0.63228328,1.06996653,17,35,59,8,18,33,0.14976872,0.33318593,0.60373505,0.04182143,0.08281329,0.13402792
51580,0,USVirginiaCovington,Virginia,Covington,2021-01-05 06:35:15.873543,2020-07-28 00:00:00.000000,0.32119381,0.63063174,1.07875989,17,34,59,8,18,34,0.15822618,0.33173237,0.62219332,0.04080211,0.08664132,0.13646092
51580,0,USVirginiaCovington,Virginia,Covington,2021-01-05 06:35:15.873543,2020-07-29 00:00:00.000000,0.32817278,0.64024130,1.08691995,18,35,60,8,18,35,0.15739433,0.32987465,0.64243241,0.04050999,0.08692811,0.13925613
51580,0,USVirginiaCovington,Virginia,Covington,2021-01-05 06:35:15.873543,2020-07-30 00:00:00.000000,0.34864146,0.63652251,1.09502043,19,35,60,8,18,35,0.15712873,0.33136243,0.63879374,0.04049662,0.08641741,0.14274639
51580,0,USVirginiaCovington,Virginia,Covington,2021-01-05 06:35:15.873543,2020-07-31 00:00:00.000000,0.35868036,0.64151064,1.17879569,19,35,65,8,18,35,0.16219445,0.33090911,0.63374439,0.04125836,0.08596066,0.14551261
51580,0,USVirginiaCovington,Virginia,Covington,2021-01-05 06:35:15.873543,2020-08-01 00:00:00.000000,0.36948979,0.63503639,1.26022884,20,35,69,9,18,35,0.17283591,0.32842469,0.63209615,0.04223847,0.08679335,0.14646058
51580,0,USVirginiaCovington,Virginia,Covington,2021-01-05 06:35:15.873543,2020-08-02 00:00:00.000000,0.37867969,0.64334664,1.24886462,20,35,69,10,18,34,0.18342451,0.32710242,0.62666073,0.04284776,0.08791886,0.14918433
51580,0,USVirginiaCovington,Virginia,Covington,2021-01-05 06:35:15.873543,2020-08-03 00:00:00.000000,0.37623372,0.65045354,1.26019208,20,36,69,10,18,35,0.19050230,0.32999133,0.64017608,0.04303507,0.08746459,0.14991971
51580,0,USVirginiaCovington,Virginia,Covington,2021-01-05 06:35:15.873543,2020-08-04 00:00:00.000000,0.37414640,0.64228170,1.27204960,20,35,70,11,18,37,0.19936642,0.33847272,0.67774185,0.04420103,0.08832241,0.15099119
51580,0,USVirginiaCovington,Virginia,Covington,2021-01-05 06:35:15.873543,2020-08-05 00:00:00.000000,0.38320888,0.63084432,1.26590598,21,34,70,11,18,39,0.20461548,0.33846354,0.70711675,0.04469799,0.09002319,0.15208708
51580,0,USVirginiaCovington,Virginia,Covington,2021-01-05 06:35:15.873543,2020-08-06 00:00:00.000000,0.37668578,0.62452373,1.22415572,20,34,67,11,18,40,0.20292233,0.34155941,0.73020815,0.04492503,0.09146477,0.15237189
51580,0,USVirginiaCovington,Virginia,Covington,2021-01-05 06:35:15.873543,2020-08-07 00:00:00.000000,0.37077779,0.65537878,1.22079216,20,36,67,11,19,41,0.20121662,0.34636798,0.74837741,0.04514740,0.09040858,0.15154895
51580,0,USVirginiaCovington,Virginia,Covington,2021-01-05 06:35:15.873543,2020-08-08 00:00:00.000000,0.36727722,0.66735479,1.23098554,20,36,68,11,19,42,0.20240385,0.34722998,0.76251417,0.04570548,0.09048767,0.15141363
51580,0,USVirginiaCovington,Virginia,Covington,2021-01-05 06:35:15.873543,2020-08-09 00:00:00.000000,0.36240147,0.66843373,1.23966590,20,37,68,11,19,42,0.20250718,0.34854412,0.77304625,0.04718514,0.09194037,0.15198070
51580,0,USVirginiaCovington,Virginia,Covington,2021-01-05 06:35:15.873543,2020-08-10 00:00:00.000000,0.40629489,0.68212664,1.22487448,22,37,67,11,19,41,0.20559466,0.34853119,0.75460335,0.04942314,0.09207690,0.15217979
51580,0,USVirginiaCovington,Virginia,Covington,2021-01-05 06:35:15.873543,2020-08-11 00:00:00.000000,0.41536502,0.71771768,1.21078989,23,39,67,11,19,41,0.21508896,0.35161353,0.74336807,0.05070995,0.09090269,0.15223961
51580,0,USVirginiaCovington,Virginia,Covington,2021-01-05 06:35:15.873543,2020-08-12 00:00:00.000000,0.41313314,0.74340102,1.20252529,22,41,66,12,20,41,0.22217928,0.36502279,0.74658077,0.05061154,0.09058532,0.15225296
51580,0,USVirginiaCovington,Virginia,Covington,2021-01-05 06:35:15.873543,2020-08-13 00:00:00.000000,0.40986019,0.77370180,1.19358042,22,42,66,12,21,41,0.22832266,0.38106546,0.75200785,0.05035854,0.08843023,0.15225169
51580,0,USVirginiaCovington,Virginia,Covington,2021-01-05 06:35:15.873543,2020-08-14 00:00:00.000000,0.40637307,0.78339285,1.24099784,22,43,68,12,21,41,0.23130181,0.38236480,0.75311573,0.04976864,0.08722584,0.15224736
51580,0,USVirginiaCovington,Virginia,Covington,2021-01-05 06:35:15.873543,2020-08-15 00:00:00.000000,0.40277066,0.79944125,1.33023100,22,44,73,12,21,41,0.22918553,0.38943471,0.75431400,0.04904116,0.08710593,0.15224497
51580,0,USVirginiaCovington,Virginia,Covington,2021-01-05 06:35:15.873543,2020-08-16 00:00:00.000000,0.39907327,0.80286062,1.41944261,22,44,78,12,21,41,0.22720389,0.39515972,0.75246815,0.04842876,0.09024642,0.15603950
51580,0,USVirginiaCovington,Virginia,Covington,2021-01-05 06:35:15.873543,2020-08-17 00:00:00.000000,0.42287092,0.80587818,1.41739573,23,44,78,12,22,41,0.22534473,0.39944079,0.74933846,0.04889158,0.09255015,0.15991828
51580,0,USVirginiaCovington,Virginia,Covington,2021-01-05 06:35:15.873543,2020-08-18 00:00:00.000000,0.40470480,0.82204669,1.41365112,22,45,78,12,22,41,0.22944433,0.40305516,0.75315564,0.04884166,0.09202075,0.16044954
51580,0,USVirginiaCovington,Virginia,Covington,2021-01-05 06:35:15.873543,2020-08-19 00:00:00.000000,0.38740457,0.82890388,1.40785382,21,45,77,12,22,42,0.22073642,0.41453398,0.76186150,0.04883883,0.09568815,0.16105160
51580,0,USVirginiaCovington,Virginia,Covington,2021-01-05 06:35:15.873543,2020-08-20 00:00:00.000000,0.37642031,0.83189568,1.40334097,20,46,77,11,23,42,0.21181928,0.42458330,0.77502921,0.04886858,0.09632207,0.16704606
51580,0,USVirginiaCovington,Virginia,Covington,2021-01-05 06:35:15.873543,2020-08-21 00:00:00.000000,0.38287716,0.85254012,1.40449914,21,47,77,11,24,43,0.20457186,0.43836273,0.77873094,0.04895383,0.09420149,0.17753148
51580,0,USVirginiaCovington,Virginia,Covington,2021-01-05 06:35:15.873543,2020-08-22 00:00:00.000000,0.38937243,0.86727448,1.40452403,21,48,77,11,24,42,0.19966491,0.44083901,0.77585964,0.04905634,0.09591369,0.18044307
51580,0,USVirginiaCovington,Virginia,Covington,2021-01-05 06:35:15.873543,2020-08-23 00:00:00.000000,0.39581986,0.87440646,1.40859056,21,48,78,10,25,42,0.19710459,0.45295775,0.77491091,0.04962551,0.09491813,0.18270189
51580,0,USVirginiaCovington,Virginia,Covington,2021-01-05 06:35:15.873543,2020-08-24 00:00:00.000000,0.38726838,0.87831105,1.43506047,21,48,79,11,25,44,0.20025034,0.46218970,0.80002609,0.05055308,0.09384473,0.18421076
51580,0,USVirginiaCovington,Virginia,Covington,2021-01-05 06:35:15.873543,2020-08-25 00:00:00.000000,0.37843692,0.87618310,1.46640214,20,48,81,11,25,45,0.20014920,0.46775954,0.81995642,0.05224338,0.09367876,0.18511509
51580,0,USVirginiaCovington,Virginia,Covington,2021-01-05 06:35:15.873543,2020-08-26 00:00:00.000000,0.36905539,0.88158684,1.47573653,20,48,81,10,26,46,0.19801035,0.47027535,0.83609101,0.05381281,0.09665315,0.18561940
51580,0,USVirginiaCovington,Virginia,Covington,2021-01-05 06:35:15.873543,2020-08-27 00:00:00.000000,0.37433817,0.90716455,1.48382329,20,50,82,10,25,47,0.19507901,0.46815801,0.84908621,0.05486077,0.09873348,0.18589354
51580,0,USVirginiaCovington,Virginia,Covington,2021-01-05 06:35:15.873543,2020-08-28 00:00:00.000000,0.38448236,0.89918153,1.49164585,21,49,82,10,25,47,0.19584273,0.46877931,0.85083764,0.05572217,0.10055986,0.18751760
51580,0,USVirginiaCovington,Virginia,Covington,2021-01-05 06:35:15.873543,2020-08-29 00:00:00.000000,0.38841394,0.88201547,1.49740151,21,48,82,10,25,46,0.19305574,0.46239207,0.84526642,0.05702588,0.10155769,0.18878813
51580,0,USVirginiaCovington,Virginia,Covington,2021-01-05 06:35:15.873543,2020-08-30 00:00:00.000000,0.38715058,0.86611053,1.50424661,21,47,83,10,25,47,0.19098592,0.46186094,0.85205188,0.05966950,0.10386434,0.18937119
51580,0,USVirginiaCovington,Virginia,Covington,2021-01-05 06:35:15.873543,2020-08-31 00:00:00.000000,0.38137226,0.85629417,1.50445011,21,47,83,10,25,47,0.18951127,0.46070841,0.85845814,0.06141670,0.10611877,0.18856197
51580,0,USVirginiaCovington,Virginia,Covington,2021-01-05 06:35:15.873543,2020-09-01 00:00:00.000000,0.37615176,0.84456178,1.50408810,20,46,83,10,25,47,0.18754319,0.45856775,0.86328298,0.06143847,0.10898336,0.18850273
51580,0,USVirginiaCovington,Virginia,Covington,2021-01-05 06:35:15.873543,2020-09-02 00:00:00.000000,0.37130989,0.84249148,1.50297972,20,46,83,10,25,47,0.18534543,0.45704599,0.86657541,0.06157054,0.11087280,0.18831626
51580,0,USVirginiaCovington,Virginia,Covington,2021-01-05 06:35:15.873543,2020-09-03 00:00:00.000000,0.36687355,0.84591725,1.49514621,20,46,82,10,24,48,0.18308819,0.45063350,0.86865306,0.06201472,0.11121513,0.18780643
51580,0,USVirginiaCovington,Virginia,Covington,2021-01-05 06:35:15.873543,2020-09-04 00:00:00.000000,0.37109369,0.83801102,1.48425960,20,46,82,10,24,48,0.18314038,0.44666008,0.87204128,0.06339813,0.11363708,0.18640852
51580,0,USVirginiaCovington,Virginia,Covington,2021-01-05 06:35:15.873543,2020-09-05 00:00:00.000000,0.37790862,0.82020159,1.46889889,20,45,81,10,24,48,0.18657899,0.44118947,0.87033345,0.06704074,0.11636991,0.18708986
51580,0,USVirginiaCovington,Virginia,Covington,2021-01-05 06:35:15.873543,2020-09-06 00:00:00.000000,0.37391036,0.81957338,1.47888216,20,45,81,10,24,48,0.19006004,0.44465873,0.86999372,0.06840354,0.11849460,0.19187673
51580,0,USVirginiaCovington,Virginia,Covington,2021-01-05 06:35:15.873543,2020-09-07 00:00:00.000000,0.38992875,0.79652675,1.47315798,21,44,81,10,24,48,0.19344736,0.43967857,0.86911895,0.07083122,0.12066168,0.19094802
51580,0,USVirginiaCovington,Virginia,Covington,2021-01-05 06:35:15.873543,2020-09-08 00:00:00.000000,0.39528278,0.78525298,1.44701558,21,43,80,10,24,47,0.19139920,0.43423404,0.86598874,0.07335925,0.11883959,0.18846500
51580,0,USVirginiaCovington,Virginia,Covington,2021-01-05 06:35:15.873543,2020-09-09 00:00:00.000000,0.40118263,0.78890480,1.41450849,22,43,78,10,23,47,0.19688178,0.43135267,0.85743096,0.07403477,0.12066265,0.19193654
51580,0,USVirginiaCovington,Virginia,Covington,2021-01-05 06:35:15.873543,2020-09-10 00:00:00.000000,0.40780183,0.78750804,1.38301561,22,43,76,11,23,46,0.20291843,0.43294873,0.83797531,0.07435122,0.12042802,0.19818854
51580,0,USVirginiaCovington,Virginia,Covington,2021-01-05 06:35:15.873543,2020-09-11 00:00:00.000000,0.41573329,0.77415967,1.35761431,23,42,75,11,23,45,0.20614367,0.42771033,0.81602803,0.07743422,0.12464193,0.20389686
51580,0,USVirginiaCovington,Virginia,Covington,2021-01-05 06:35:15.873543,2020-09-12 00:00:00.000000,0.42526699,0.76307994,1.41766016,23,42,78,11,24,43,0.20974510,0.43607485,0.79255408,0.07787278,0.12805380,0.20328486
51580,0,USVirginiaCovington,Virginia,Covington,2021-01-05 06:35:15.873543,2020-09-13 00:00:00.000000,0.42193653,0.76493141,1.41614950,23,42,78,11,24,45,0.21392445,0.44300487,0.81372098,0.07929014,0.13095539,0.20166336
51580,0,USVirginiaCovington,Virginia,Covington,2021-01-05 06:35:15.873543,2020-09-14 00:00:00.000000,0.41571646,0.76977750,1.40091680,23,42,77,12,24,46,0.21874379,0.44610288,0.83390072,0.07967306,0.13570010,0.20611210
51580,0,USVirginiaCovington,Virginia,Covington,2021-01-05 06:35:15.873543,2020-09-15 00:00:00.000000,0.40966486,0.79152404,1.38641020,22,43,76,12,24,45,0.22653973,0.44729868,0.82922805,0.08150485,0.13885693,0.21123778
51580,0,USVirginiaCovington,Virginia,Covington,2021-01-05 06:35:15.873543,2020-09-16 00:00:00.000000,0.40384341,0.80758564,1.37228070,22,44,75,12,24,45,0.22497531,0.44730608,0.82349871,0.08784980,0.14316286,0.21487073
51580,0,USVirginiaCovington,Virginia,Covington,2021-01-05 06:35:15.873543,2020-09-17 00:00:00.000000,0.39839581,0.81882827,1.35889189,22,45,75,12,24,45,0.22173782,0.44927754,0.81708252,0.08980400,0.14875403,0.21912181
51580,0,USVirginiaCovington,Virginia,Covington,2021-01-05 06:35:15.873543,2020-09-18 00:00:00.000000,0.39342330,0.83361718,1.47693167,21,46,81,12,24,44,0.21862600,0.44742603,0.81028858,0.09060398,0.15156878,0.22400650
51580,0,USVirginiaCovington,Virginia,Covington,2021-01-05 06:35:15.873543,2020-09-19 00:00:00.000000,0.38933756,0.84386477,1.51182397,21,46,83,11,24,44,0.21569697,0.44934570,0.80339616,0.09434564,0.15423498,0.22937545
51580,0,USVirginiaCovington,Virginia,Covington,2021-01-05 06:35:15.873543,2020-09-20 00:00:00.000000,0.38934284,0.85626003,1.52468592,21,47,84,11,24,44,0.21299283,0.45116932,0.79664299,0.09770749,0.15848687,0.27557731
51580,0,USVirginiaCovington,Virginia,Covington,2021-01-05 06:35:15.873543,2020-09-21 00:00:00.000000,0.40846002,0.85511165,1.51249697,22,47,83,11,25,46,0.21054425,0.45771036,0.84668196,0.09881310,0.16428405,0.31771780
51580,0,USVirginiaCovington,Virginia,Covington,2021-01-05 06:35:15.873543,2020-09-22 00:00:00.000000,0.42955651,0.89107112,1.50033071,23,49,83,11,25,49,0.21520377,0.45513108,0.89128765,0.09962475,0.17417713,0.33368705
51580,0,USVirginiaCovington,Virginia,Covington,2021-01-05 06:35:15.873543,2020-09-23 00:00:00.000000,0.45275540,0.90732605,1.50148205,25,50,83,12,25,51,0.23259264,0.45253711,0.92164570,0.10122773,0.17935668,0.33578565
51580,0,USVirginiaCovington,Virginia,Covington,2021-01-05 06:35:15.873543,2020-09-24 00:00:00.000000,0.47625484,0.92018480,1.54103458,26,50,85,13,25,52,0.24808157,0.46746051,0.94135254,0.10471125,0.18482491,0.33607484
51580,0,USVirginiaCovington,Virginia,Covington,2021-01-05 06:35:15.873543,2020-09-25 00:00:00.000000,0.49791158,0.92167351,1.58263680,27,51,87,13,25,52,0.24651297,0.46820734,0.95330750,0.10842151,0.18766997,0.33577399
51580,0,USVirginiaCovington,Virginia,Covington,2021-01-05 06:35:15.873543,2020-09-26 00:00:00.000000,0.50700588,0.94418016,1.62529488,28,52,90,14,25,53,0.25390454,0.46141693,0.95998920,0.10855338,0.19717892,0.33465075
51580,0,USVirginiaCovington,Virginia,Covington,2021-01-05 06:35:15.873543,2020-09-27 00:00:00.000000,0.51660913,0.96196336,1.66884284,28,53,92,14,26,53,0.26582759,0.48237760,0.96356665,0.10884251,0.20339148,0.33161070
51580,0,USVirginiaCovington,Virginia,Covington,2021-01-05 06:35:15.873543,2020-09-28 00:00:00.000000,0.49892757,0.94822845,1.64634319,27,52,91,15,27,53,0.27786206,0.49486939,0.95893553,0.11923842,0.20940741,0.32564752
51580,0,USVirginiaCovington,Virginia,Covington,2021-01-05 06:35:15.873543,2020-09-29 00:00:00.000000,0.48179943,0.92523335,1.62219606,26,51,89,15,27,52,0.28040220,0.50531803,0.94637251,0.12120385,0.21850448,0.33563772
51580,0,USVirginiaCovington,Virginia,Covington,2021-01-05 06:35:15.873543,2020-09-30 00:00:00.000000,0.46458185,0.90890492,1.62491849,25,50,89,15,27,51,0.27529717,0.50014981,0.93034385,0.12402237,0.22748664,0.33691901
51580,0,USVirginiaCovington,Virginia,Covington,2021-01-05 06:35:15.873543,2020-10-01 00:00:00.000000,0.44800678,0.90501832,1.64501965,24,50,91,14,27,50,0.26811342,0.49064535,0.92041453,0.12821099,0.23154954,0.36560413
51580,0,USVirginiaCovington,Virginia,Covington,2021-01-05 06:35:15.873543,2020-10-02 00:00:00.000000,0.43247362,0.90129108,1.68527350,23,49,93,14,27,51,0.25992785,0.48789201,0.93022554,0.13069577,0.24232799,0.37142902
51580,0,USVirginiaCovington,Virginia,Covington,2021-01-05 06:35:15.873543,2020-10-03 00:00:00.000000,0.41806678,0.90355122,1.72962071,23,50,95,13,27,51,0.25144621,0.48755823,0.92760999,0.13182167,0.25579750,0.37676698
51580,0,USVirginiaCovington,Virginia,Covington,2021-01-05 06:35:15.873543,2020-10-04 00:00:00.000000,0.40470071,0.92562306,1.77675205,22,51,98,13,27,50,0.24311149,0.48872419,0.91806438,0.14133298,0.27336991,0.38292178
51580,0,USVirginiaCovington,Virginia,Covington,2021-01-05 06:35:15.873543,2020-10-05 00:00:00.000000,0.42936313,0.96285196,1.84675058,23,53,102,13,26,50,0.23520418,0.48502911,0.91653583,0.16048304,0.28489705,0.39130775
51580,0,USVirginiaCovington,Virginia,Covington,2021-01-05 06:35:15.873543,2020-10-06 00:00:00.000000,0.50005618,1.00265945,1.94785259,27,55,107,13,27,52,0.23563613,0.49150974,0.94068908,0.16504018,0.28966776,0.40636376
51580,0,USVirginiaCovington,Virginia,Covington,2021-01-05 06:35:15.873543,2020-10-07 00:00:00.000000,0.57403655,1.05119667,2.09995650,31,58,116,13,28,53,0.24147535,0.50780039,0.96978721,0.17192676,0.29630380,0.42536083
51580,0,USVirginiaCovington,Virginia,Covington,2021-01-05 06:35:15.873543,2020-10-08 00:00:00.000000,0.62162137,1.09631220,2.18284145,34,60,120,14,29,56,0.25876588,0.52740678,1.02759030,0.17587074,0.30715154,0.47692006
51580,0,USVirginiaCovington,Virginia,Covington,2021-01-05 06:35:15.873543,2020-10-09 00:00:00.000000,0.64820544,1.16194844,2.28068014,35,64,126,16,30,61,0.29400907,0.55025078,1.11217248,0.17809043,0.32179165,0.50822988
51580,0,USVirginiaCovington,Virginia,Covington,2021-01-05 06:35:15.873543,2020-10-10 00:00:00.000000,0.67878530,1.23020538,2.40231538,37,68,133,17,31,66,0.31548731,0.57747080,1.19854820,0.18027429,0.33454233,0.51284706
51580,0,USVirginiaCovington,Virginia,Covington,2021-01-05 06:35:15.873543,2020-10-11 00:00:00.000000,0.71149642,1.27059449,2.51804126,39,70,139,18,33,69,0.32545590,0.60298673,1.26071834,0.18866230,0.35092110,0.51827926
51580,0,USVirginiaCovington,Virginia,Covington,2021-01-05 06:35:15.873543,2020-10-12 00:00:00.000000,0.79398261,1.40562412,2.62736706,43,77,145,18,35,73,0.33816257,0.64212829,1.32755145,0.22595801,0.35878341,0.52956174
51580,0,USVirginiaCovington,Virginia,Covington,2021-01-05 06:35:15.873543,2020-10-13 00:00:00.000000,0.87874978,1.55228528,2.77934274,48,85,153,20,38,77,0.37886046,0.68872273,1.39461037,0.24276653,0.36990741,0.53518990
51580,0,USVirginiaCovington,Virginia,Covington,2021-01-05 06:35:15.873543,2020-10-14 00:00:00.000000,0.91876166,1.66684329,2.94584040,50,92,163,23,40,81,0.41581681,0.72497008,1.46402200,0.25482350,0.38127568,0.53933597
51580,0,USVirginiaCovington,Virginia,Covington,2021-01-05 06:35:15.873543,2020-10-15 00:00:00.000000,0.98332652,1.78117210,3.15097650,54,98,174,24,43,85,0.44616056,0.79422106,1.53813348,0.26798360,0.40542050,0.55502629
51580,0,USVirginiaCovington,Virginia,Covington,2021-01-05 06:35:15.873543,2020-10-16 00:00:00.000000,1.05140654,1.88800325,3.36690878,58,104,186,26,47,89,0.47847748,0.85350614,1.61889088,0.28100111,0.41770554,0.57293409
51580,0,USVirginiaCovington,Virginia,Covington,2021-01-05 06:35:15.873543,2020-10-17 00:00:00.000000,1.12355622,2.05236143,3.62050502,62,113,200,28,51,94,0.51127532,0.93397484,1.70908253,0.29275982,0.44339865,0.59484510
51580,0,USVirginiaCovington,Virginia,Covington,2021-01-05 06:35:15.873543,2020-10-18 00:00:00.000000,1.20280584,2.24056602,3.84575003,66,124,212,30,56,100,0.54739802,1.02337482,1.81103916,0.31084348,0.46658193,0.63241610
51580,0,USVirginiaCovington,Virginia,Covington,2021-01-05 06:35:15.873543,2020-10-19 00:00:00.000000,1.44074990,2.42410749,4.17732784,79,134,231,32,63,106,0.58503631,1.14569256,1.92524409,0.32893558,0.48957286,0.66404757
51580,0,USVirginiaCovington,Virginia,Covington,2021-01-05 06:35:15.873543,2020-10-20 00:00:00.000000,1.69829948,2.64228055,4.52935753,94,146,250,34,68,116,0.62863897,1.23552680,2.10086466,0.33668601,0.50972203,0.71390861
51580,0,USVirginiaCovington,Virginia,Covington,2021-01-05 06:35:15.873543,2020-10-21 00:00:00.000000,1.97414807,2.89572994,4.89696751,109,160,271,37,72,127,0.68058220,1.31382336,2.31092126,0.35401837,0.52009630,0.74483288
51580,0,USVirginiaCovington,Virginia,Covington,2021-01-05 06:35:15.873543,2020-10-22 00:00:00.000000,2.23161901,3.13748003,5.27505595,123,173,292,43,76,140,0.78774167,1.37915057,2.54334438,0.40650375,0.53127599,0.76028923
51580,0,USVirginiaCovington,Virginia,Covington,2021-01-05 06:35:15.873543,2020-10-23 00:00:00.000000,2.44681261,3.41278671,5.66361943,135,189,313,50,84,154,0.90923575,1.52425205,2.79824167,0.41326500,0.54155637,0.76670800
51580,0,USVirginiaCovington,Virginia,Covington,2021-01-05 06:35:15.873543,2020-10-24 00:00:00.000000,2.68138056,3.72669195,6.07943224,148,206,336,57,91,170,1.04391247,1.65641979,3.07570889,0.41540535,0.56271249,0.76785049
51580,0,USVirginiaCovington,Virginia,Covington,2021-01-05 06:35:15.873543,2020-10-25 00:00:00.000000,2.93566110,4.07637869,6.52599749,162,225,361,64,100,183,1.16574360,1.82188853,3.30993416,0.41856076,0.56593702,0.76439799
51580,0,USVirginiaCovington,Virginia,Covington,2021-01-05 06:35:15.873543,2020-10-26 00:00:00.000000,3.27096604,4.38843425,6.83798272,181,243,378,73,110,195,1.32665208,1.99493426,3.52698250,0.42192363,0.57153348,0.74894628
51580,0,USVirginiaCovington,Virginia,Covington,2021-01-05 06:35:15.873543,2020-10-27 00:00:00.000000,3.58810788,4.73510677,7.18418290,198,262,397,81,120,208,1.47225324,2.17886730,3.75712966,0.41395714,0.56747028,0.74598173
51580,0,USVirginiaCovington,Virginia,Covington,2021-01-05 06:35:15.873543,2020-10-28 00:00:00.000000,3.84799022,5.11044003,7.63993938,213,283,423,90,131,220,1.63186419,2.37761748,3.99037237,0.41146463,0.56333042,0.73883307
51580,0,USVirginiaCovington,Virginia,Covington,2021-01-05 06:35:15.873543,2020-10-29 00:00:00.000000,4.13152669,5.52559112,8.09268987,228,306,448,99,140,233,1.80481365,2.54440347,4.21703010,0.38598277,0.55400631,0.73424900
51580,0,USVirginiaCovington,Virginia,Covington,2021-01-05 06:35:15.873543,2020-10-30 00:00:00.000000,4.49346692,5.96289400,8.66328882,248,330,479,109,149,245,1.97598540,2.70588018,4.43103907,0.37692694,0.53869206,0.72318087
51580,0,USVirginiaCovington,Virginia,Covington,2021-01-05 06:35:15.873543,2020-10-31 00:00:00.000000,4.85560137,6.46560894,9.24816399,268,358,512,117,160,256,2.11564016,2.89268418,4.63156385,0.36858251,0.50762810,0.69741949
51580,0,USVirginiaCovington,Virginia,Covington,2021-01-05 06:35:15.873543,2020-11-01 00:00:00.000000,5.06036758,7.01475288,9.52967430,280,388,527,128,172,266,2.31580797,3.10735771,4.81993077,0.36086660,0.48328930,0.67587866
51580,0,USVirginiaCovington,Virginia,Covington,2021-01-05 06:35:15.873543,2020-11-02 00:00:00.000000,5.25090279,7.22457931,10.37791781,290,400,574,137,185,286,2.48362933,3.34715610,5.17892679,0.35439072,0.47084556,0.65561414
51580,0,USVirginiaCovington,Virginia,Covington,2021-01-05 06:35:15.873543,2020-11-03 00:00:00.000000,5.44247914,7.65785627,11.18965176,301,424,619,143,196,300,2.58784193,3.54339142,5.42400425,0.34972276,0.45674111,0.61926904
51580,0,USVirginiaCovington,Virginia,Covington,2021-01-05 06:35:15.873543,2020-11-04 00:00:00.000000,5.59652002,7.96382183,11.71872197,309,441,648,148,206,314,2.68869534,3.72525142,5.67469167,0.32473836,0.43661312,0.56021192
51580,0,USVirginiaCovington,Virginia,Covington,2021-01-05 06:35:15.873543,2020-11-05 00:00:00.000000,5.74095106,8.26134456,12.16783828,317,457,673,154,217,328,2.78935349,3.93550173,5.92577636,0.29723551,0.42418234,0.55914100
51580,0,USVirginiaCovington,Virginia,Covington,2021-01-05 06:35:15.873543,2020-11-06 00:00:00.000000,5.84926508,8.55260805,12.55789889,323,473,695,159,227,347,2.88847367,4.11471381,6.26692729,0.28085002,0.41147355,0.53345225
51580,0,USVirginiaCovington,Virginia,Covington,2021-01-05 06:35:15.873543,2020-11-07 00:00:00.000000,5.94238051,8.81247399,12.78434163,329,488,707,165,240,363,2.98393441,4.33507562,6.56734968,0.27683754,0.39376321,0.51774833
51580,0,USVirginiaCovington,Virginia,Covington,2021-01-05 06:35:15.873543,2020-11-08 00:00:00.000000,6.02739305,9.00028120,12.91688020,333,498,715,170,249,377,3.07119380,4.50563743,6.81651054,0.27419190,0.38580596,0.48823061
51580,0,USVirginiaCovington,Virginia,Covington,2021-01-05 06:35:15.873543,2020-11-09 00:00:00.000000,6.20594578,9.23110029,13.00258562,343,511,720,174,258,389,3.14855380,4.67241764,7.03278039,0.26711004,0.37890353,0.46963195
51580,0,USVirginiaCovington,Virginia,Covington,2021-01-05 06:35:15.873543,2020-11-10 00:00:00.000000,6.37824078,9.49199647,13.06709759,353,525,723,178,268,394,3.21814706,4.84045580,7.13173489,0.26877880,0.37344819,0.45441474
51580,0,USVirginiaCovington,Virginia,Covington,2021-01-05 06:35:15.873543,2020-11-11 00:00:00.000000,6.54831701,9.65424753,13.31351405,362,534,737,181,274,396,3.27984113,4.96124464,7.16799384,0.26964172,0.36670015,0.44901027
51580,0,USVirginiaCovington,Virginia,Covington,2021-01-05 06:35:15.873543,2020-11-12 00:00:00.000000,6.68148504,9.90810669,13.65404280,370,548,756,184,281,400,3.33499240,5.07484243,7.23918582,0.27176293,0.36414843,0.44776171
51580,0,USVirginiaCovington,Virginia,Covington,2021-01-05 06:35:15.873543,2020-11-13 00:00:00.000000,6.60649631,10.17256037,14.00522208,365,563,775,187,287,404,3.38490137,5.18413377,7.30077510,0.27273994,0.36211469,0.44771825
51580,0,USVirginiaCovington,Virginia,Covington,2021-01-05 06:35:15.873543,2020-11-14 00:00:00.000000,6.58058144,10.39200081,14.39011573,364,575,796,189,294,409,3.43025374,5.31260387,7.39265832,0.27327702,0.36751712,0.46922292
51580,0,USVirginiaCovington,Virginia,Covington,2021-01-05 06:35:15.873543,2020-11-15 00:00:00.000000,6.71438631,10.51591945,14.82419435,371,582,820,189,301,419,3.41972696,5.44784632,7.58052344,0.27482989,0.37425880,0.48680342
51580,0,USVirginiaCovington,Virginia,Covington,2021-01-05 06:35:15.873543,2020-11-16 00:00:00.000000,6.91439486,10.72390169,15.21379063,382,593,842,191,310,430,3.45002139,5.61048934,7.76932193,0.28021531,0.37571127,0.50219612
51580,0,USVirginiaCovington,Virginia,Covington,2021-01-05 06:35:15.873543,2020-11-17 00:00:00.000000,7.12550300,10.89360001,15.75741503,394,603,872,194,319,440,3.51951131,5.76252174,7.95951690,0.28760671,0.37815004,0.50825493
51580,0,USVirginiaCovington,Virginia,Covington,2021-01-05 06:35:15.873543,2020-11-18 00:00:00.000000,7.25214012,11.10435731,16.23310665,401,614,898,195,327,448,3.52255504,5.90496252,8.09370527,0.29718015,0.38338943,0.51250293
51580,0,USVirginiaCovington,Virginia,Covington,2021-01-05 06:35:15.873543,2020-11-19 00:00:00.000000,7.29728245,11.14677058,16.70259469,404,617,924,195,333,460,3.52138802,6.01655294,8.32302108,0.30757440,0.39940251,0.52033705
51580,0,USVirginiaCovington,Virginia,Covington,2021-01-05 06:35:15.873543,2020-11-20 00:00:00.000000,7.34827546,11.40185378,17.18050289,406,631,951,200,336,473,3.62441839,6.07512255,8.54869484,0.32545013,0.41985795,0.53111184
51580,0,USVirginiaCovington,Virginia,Covington,2021-01-05 06:35:15.873543,2020-11-21 00:00:00.000000,7.48060858,11.80542368,17.66743068,414,653,978,208,341,484,3.77087082,6.16431140,8.75425391,0.34942117,0.44471134,0.56184092
51580,0,USVirginiaCovington,Virginia,Covington,2021-01-05 06:35:15.873543,2020-11-22 00:00:00.000000,7.73739374,12.12421169,18.14105370,428,671,1004,214,348,496,3.86662700,6.28435502,8.96315674,0.36247690,0.46272729,0.61472307
51580,0,USVirginiaCovington,Virginia,Covington,2021-01-05 06:35:15.873543,2020-11-23 00:00:00.000000,8.02650052,12.64289078,18.69192958,444,700,1035,218,354,508,3.95140522,6.39535632,9.17358703,0.37235942,0.46985412,0.67168599
51580,0,USVirginiaCovington,Virginia,Covington,2021-01-05 06:35:15.873543,2020-11-24 00:00:00.000000,8.32120025,12.93819782,19.08313284,460,716,1056,225,361,524,4.06832843,6.53136850,9.47962573,0.37688246,0.49496638,0.69884561
51580,0,USVirginiaCovington,Virginia,Covington,2021-01-05 06:35:15.873543,2020-11-25 00:00:00.000000,8.62094075,13.35940307,19.45957499,477,739,1077,232,368,543,4.20319766,6.65786517,9.81330908,0.39170684,0.51099994,0.70942848
51580,0,USVirginiaCovington,Virginia,Covington,2021-01-05 06:35:15.873543,2020-11-26 00:00:00.000000,8.92928685,13.81366960,20.41426602,494,765,1130,240,381,562,4.34852499,6.88027964,10.14881038,0.40648419,0.52517327,0.72896021
51580,0,USVirginiaCovington,Virginia,Covington,2021-01-05 06:35:15.873543,2020-11-27 00:00:00.000000,9.25730246,14.34707971,21.08697652,512,794,1167,249,396,580,4.50138487,7.15877454,10.48216205,0.41323278,0.54757433,0.76950358
51580,0,USVirginiaCovington,Virginia,Covington,2021-01-05 06:35:15.873543,2020-11-28 00:00:00.000000,9.72617292,14.94932599,21.82482756,538,827,1208,258,415,598,4.66291020,7.49427969,10.80936463,0.42144683,0.57664716,0.80982725
51580,0,USVirginiaCovington,Virginia,Covington,2021-01-05 06:35:15.873543,2020-11-29 00:00:00.000000,10.30933835,15.41397202,22.59776992,570,853,1251,267,431,616,4.83796041,7.79928964,11.12677114,0.42644186,0.59602391,0.83282611
51580,0,USVirginiaCovington,Virginia,Covington,2021-01-05 06:35:15.873543,2020-11-30 00:00:00.000000,11.02109478,16.03190833,23.28232514,610,887,1289,278,447,633,5.03155159,8.08829904,11.43118013,0.44310511,0.61269311,0.86400629
51580,0,USVirginiaCovington,Virginia,Covington,2021-01-05 06:35:15.873543,2020-12-01 00:00:00.000000,11.59739746,16.80703797,23.95828489,642,930,1326,291,469,654,5.25949327,8.47014079,11.82487416,0.46817840,0.62064562,0.89875679
51580,0,USVirginiaCovington,Virginia,Covington,2021-01-05 06:35:15.873543,2020-12-02 00:00:00.000000,12.08668888,17.53067566,24.61906948,669,970,1363,305,485,673,5.51322411,8.77221580,12.16421553,0.48364137,0.63001864,0.90323440
51580,0,USVirginiaCovington,Virginia,Covington,2021-01-05 06:35:15.873543,2020-12-03 00:00:00.000000,12.64351624,18.29507533,25.26539866,700,1013,1399,320,499,693,5.79272583,9.01576740,12.51362157,0.49715035,0.64389023,0.89853061
51580,0,USVirginiaCovington,Virginia,Covington,2021-01-05 06:35:15.873543,2020-12-04 00:00:00.000000,13.23561359,19.03517740,25.89412968,732,1054,1434,337,519,715,6.09308379,9.38439152,12.92311548,0.50181932,0.66735971,0.91842739
51580,0,USVirginiaCovington,Virginia,Covington,2021-01-05 06:35:15.873543,2020-12-05 00:00:00.000000,13.86109335,19.73645220,26.49434191,767,1093,1467,356,544,738,6.42842436,9.82515221,13.33673093,0.48329609,0.66683273,0.96671824
51580,0,USVirginiaCovington,Virginia,Covington,2021-01-05 06:35:15.873543,2020-12-06 00:00:00.000000,14.46027908,20.45372727,27.09688391,800,1132,1500,374,563,766,6.76467447,10.17925242,13.84518140,0.50054530,0.67541643,0.99607349
51580,0,USVirginiaCovington,Virginia,Covington,2021-01-05 06:35:15.873543,2020-12-07 00:00:00.000000,15.00998748,21.04696127,28.11224206,831,1165,1556,392,582,795,7.09116385,10.52313465,14.35543060,0.51816562,0.68860889,1.05501835
51580,0,USVirginiaCovington,Virginia,Covington,2021-01-05 06:35:15.873543,2020-12-08 00:00:00.000000,15.52758186,21.54360109,29.02855636,859,1193,1607,411,607,825,7.42200070,10.96072290,14.90803323,0.49787293,0.68613524,1.09473244
51580,0,USVirginiaCovington,Virginia,Covington,2021-01-05 06:35:15.873543,2020-12-09 00:00:00.000000,16.02639891,22.02206111,29.69484498,887,1219,1644,425,627,857,7.67439781,11.33753278,15.48013267,0.49039034,0.69236503,1.10187089
51580,0,USVirginiaCovington,Virginia,Covington,2021-01-05 06:35:15.873543,2020-12-10 00:00:00.000000,16.31451110,22.33862988,30.04947078,903,1237,1664,438,640,887,7.92576242,11.56823737,16.03036699,0.48765719,0.69268975,1.10862260
51580,0,USVirginiaCovington,Virginia,Covington,2021-01-05 06:35:15.873543,2020-12-11 00:00:00.000000,16.54687367,22.50027536,30.27064262,916,1246,1676,450,651,915,8.13094050,11.76263475,16.53877731,0.48640181,0.66997418,1.11573198
51580,0,USVirginiaCovington,Virginia,Covington,2021-01-05 06:35:15.873543,2020-12-12 00:00:00.000000,16.42772419,22.56661499,30.38542893,909,1249,1682,457,661,940,8.26173744,11.94317655,16.98961392,0.47502997,0.66356091,1.12599121
51580,0,USVirginiaCovington,Virginia,Covington,2021-01-05 06:35:15.873543,2020-12-13 00:00:00.000000,16.22315128,22.64216127,30.80307497,898,1253,1705,463,665,962,8.37170079,12.02543784,17.37140452,0.45497436,0.66601001,1.09284557
51580,0,USVirginiaCovington,Virginia,Covington,2021-01-05 06:35:15.873543,2020-12-14 00:00:00.000000,15.93982794,22.76008580,30.98871676,882,1260,1716,468,668,978,8.46535197,12.06550542,17.67720045,0.43707114,0.65560537,1.08528792
51580,0,USVirginiaCovington,Virginia,Covington,2021-01-05 06:35:15.873543,2020-12-15 00:00:00.000000,15.61562644,22.63014265,31.06059371,864,1253,1720,466,669,991,8.43053956,12.08683454,17.89922463,0.43406625,0.66132400,1.09089324
51580,0,USVirginiaCovington,Virginia,Covington,2021-01-05 06:35:15.873543,2020-12-16 00:00:00.000000,15.26181811,22.59725480,30.88354179,845,1251,1710,459,672,999,8.30051665,12.13689754,18.03907116,0.43431614,0.66292229,1.11167181
51580,0,USVirginiaCovington,Virginia,Covington,2021-01-05 06:35:15.873543,2020-12-17 00:00:00.000000,14.88927161,22.38528281,30.58060866,824,1239,1693,451,669,1002,8.14430918,12.09046029,18.09941510,0.44013338,0.66798156,1.13925955
51580,0,USVirginiaCovington,Virginia,Covington,2021-01-05 06:35:15.873543,2020-12-18 00:00:00.000000,14.50700490,22.13193580,30.33523503,803,1225,1679,445,670,1001,8.04609451,12.10608806,18.07589003,0.46040287,0.66945944,1.10024450
51580,0,USVirginiaCovington,Virginia,Covington,2021-01-05 06:35:15.873543,2020-12-19 00:00:00.000000,14.22585049,21.76816581,30.14079175,787,1205,1669,444,670,996,8.02026964,12.11292630,17.98685545,0.44833113,0.67068593,1.10290708
51580,0,USVirginiaCovington,Virginia,Covington,2021-01-05 06:35:15.873543,2020-12-20 00:00:00.000000,14.00319715,21.48365543,29.57246276,775,1189,1637,443,668,988,8.00026362,12.07550948,17.84523323,0.46474982,0.68729785,1.23953249
51580,0,USVirginiaCovington,Virginia,Covington,2021-01-05 06:35:15.873543,2020-12-21 00:00:00.000000,13.78266038,20.95223590,28.84952873,763,1160,1597,440,661,976,7.94527155,11.94989055,17.63716701,0.46501503,0.70569273,1.29613567
51580,0,USVirginiaCovington,Virginia,Covington,2021-01-05 06:35:15.873543,2020-12-22 00:00:00.000000,13.54881106,20.61061790,28.26697086,750,1141,1565,431,654,963,7.78305445,11.81659052,17.39051612,0.46704128,0.71840054,1.31843312
51580,0,USVirginiaCovington,Virginia,Covington,2021-01-05 06:35:15.873543,2020-12-23 00:00:00.000000,13.30492828,20.25376827,27.62671838,736,1121,1529,421,644,947,7.61818301,11.62987627,17.11421569,0.47146070,0.74103138,1.32949903
51580,0,USVirginiaCovington,Virginia,Covington,2021-01-05 06:35:15.873543,2020-12-24 00:00:00.000000,13.05556150,19.61869369,26.85453368,723,1086,1487,411,629,931,7.42252688,11.35795318,16.81462799,0.48606822,0.75819743,1.32938879
51580,0,USVirginiaCovington,Virginia,Covington,2021-01-05 06:35:15.873543,2020-12-25 00:00:00.000000,12.81988580,18.96743137,26.05618149,709,1050,1442,397,611,921,7.17954502,11.03508510,16.63779930,0.49153277,0.78067728,1.31840247
51580,0,USVirginiaCovington,Virginia,Covington,2021-01-05 06:35:15.873543,2020-12-26 00:00:00.000000,12.51642823,18.40588269,25.34247587,693,1019,1403,384,595,911,6.94299569,10.75245161,16.45077969,0.49466118,0.80276723,1.29674807
51580,0,USVirginiaCovington,Virginia,Covington,2021-01-05 06:35:15.873543,2020-12-27 00:00:00.000000,12.23316603,18.07183201,24.60558268,677,1000,1362,371,578,898,6.71609778,10.45064371,16.22079619,0.49453781,0.81665372,1.26656744
51580,0,USVirginiaCovington,Virginia,Covington,2021-01-05 06:35:15.873543,2020-12-28 00:00:00.000000,11.79675626,17.41723635,23.66094657,653,964,1310,359,563,883,6.49911970,10.16670234,15.94761900,0.49216150,0.82475523,1.23575133
51580,0,USVirginiaCovington,Virginia,Covington,2021-01-05 06:35:15.873543,2020-12-29 00:00:00.000000,11.35681030,16.94842883,22.83680783,628,938,1264,347,548,865,6.27924712,9.90069688,15.63108905,0.48798900,0.84426620,1.26939185
51580,0,USVirginiaCovington,Virginia,Covington,2021-01-05 06:35:15.873543,2020-12-30 00:00:00.000000,10.91872793,16.50722700,22.11998149,604,914,1225,335,529,838,6.05824542,9.56640279,15.13793324,0.48175137,0.85554629,1.42353921
51580,0,USVirginiaCovington,Virginia,Covington,2021-01-05 06:35:15.873543,2020-12-31 00:00:00.000000,10.48344721,15.93690281,21.34772393,580,882,1182,323,508,806,5.84393224,9.17631778,14.56938725,0.47418018,0.84650937,1.49139663
51580,0,USVirginiaCovington,Virginia,Covington,2021-01-05 06:35:15.873543,2021-01-01 00:00:00.000000,10.05664917,15.34022211,20.53775693,556,849,1137,318,490,774,5.74546263,8.85948431,13.98853651,0.46973297,0.84481011,1.54455192
51580,0,USVirginiaCovington,Virginia,Covington,2021-01-05 06:35:15.873543,2021-01-02 00:00:00.000000,9.44346971,14.60600079,19.69954878,522,808,1090,303,472,742,5.48203001,8.53376684,13.40082068,0.46249049,0.84053288,1.58014985
51580,0,USVirginiaCovington,Virginia,Covington,2021-01-05 06:35:15.873543,2021-01-03 00:00:00.000000,8.75582198,13.83066873,18.84203015,484,765,1043,289,454,709,5.23620515,8.20046730,12.81108055,0.45008221,0.83286678,1.59833356
51580,0,USVirginiaCovington,Virginia,Covington,2021-01-05 06:35:15.873543,2021-01-04 00:00:00.000000,8.10173255,13.19023560,17.97348207,448,730,995,274,436,676,4.95091035,7.88805439,12.22374034,0.43383669,0.80782390,1.60620031
51580,0,USVirginiaCovington,Virginia,Covington,2021-01-05 06:35:15.873543,2021-01-05 00:00:00.000000,7.48244563,12.63530342,17.12571926,414,699,948,259,427,644,4.68929265,7.71855552,11.64264699,0.42849365,0.80512425,1.60935007
51580,0,USVirginiaCovington,Virginia,Covington,2021-01-05 06:35:15.873543,2021-01-06 00:00:00.000000,6.89852947,12.06518183,16.53736125,382,668,915,245,412,613,4.43359481,7.44611720,11.07078436,0.42669086,0.79844061,1.61057164
51580,0,USVirginiaCovington,Virginia,Covington,2021-01-05 06:35:15.873543,2021-01-07 00:00:00.000000,6.37040626,11.45620771,15.92294175,352,634,881,229,395,583,4.14983700,7.14400312,10.53397373,0.41714000,0.80520089,1.61103957
51580,0,USVirginiaCovington,Virginia,Covington,2021-01-05 06:35:15.873543,2021-01-08 00:00:00.000000,5.89159861,10.73217733,15.28964966,326,594,846,212,378,565,3.84503933,6.82973774,10.20259277,0.41043207,0.80538809,1.61121799
51580,0,USVirginiaCovington,Virginia,Covington,2021-01-05 06:35:15.873543,2021-01-09 00:00:00.000000,5.44561341,10.17481175,14.64393037,301,563,810,197,361,545,3.56025583,6.52076780,9.85139050,0.41012790,0.80551283,1.61128591
51580,0,USVirginiaCovington,Virginia,Covington,2021-01-05 06:35:15.873543,2021-01-10 00:00:00.000000,5.03049505,9.61388941,13.99160880,278,532,774,182,344,525,3.29449110,6.21511157,9.48507889,0.41002446,0.80559048,1.61131175
51580,0,USVirginiaCovington,Virginia,Covington,2021-01-05 06:35:15.873543,2021-01-11 00:00:00.000000,4.64444255,9.00347160,13.33792334,257,498,738,168,326,504,3.04672115,5.90293515,9.10789826,0.41000151,0.80563769,1.61132158
51580,0,USVirginiaCovington,Virginia,Covington,2021-01-05 06:35:15.873543,2021-01-12 00:00:00.000000,4.28575488,8.38231686,12.60445477,237,464,698,155,307,483,2.81594323,5.55696400,8.72366818,0.40999344,0.80566607,1.61132532
51580,0,USVirginiaCovington,Virginia,Covington,2021-01-05 06:35:15.873543,2021-01-13 00:00:00.000000,3.95280488,7.79424606,11.86334755,218,431,656,144,288,461,2.60119076,5.20398581,8.33581964,0.40999041,0.80568304,1.61132674
51580,0,USVirginiaCovington,Virginia,Covington,2021-01-05 06:35:15.873543,2021-01-14 00:00:00.000000,3.64402850,7.26032821,11.15361608,201,402,617,132,269,440,2.40153537,4.86558660,7.94741584,0.40998919,0.80569314,1.61132728
51580,0,USVirginiaCovington,Virginia,Covington,2021-01-05 06:35:15.873543,2021-01-15 00:00:00.000000,3.35792145,6.83815381,10.47563305,185,378,580,122,252,418,2.21608538,4.55701120,7.56116751,0.40998865,0.80569914,1.61132749
51580,0,USVirginiaCovington,Virginia,Covington,2021-01-05 06:35:15.873543,2021-01-16 00:00:00.000000,3.09303908,6.39692775,9.82946618,171,354,544,113,240,397,2.04398400,4.33525316,7.17944684,0.40998840,0.80570269,1.61132757
51580,0,USVirginiaCovington,Virginia,Covington,2021-01-05 06:35:15.873543,2021-01-17 00:00:00.000000,2.84799756,5.94864190,9.21492320,157,329,510,104,223,376,1.88440830,4.04053701,6.80430215,0.40998828,0.80570479,1.61132760
