FIPS,HR_UID,nameid,province,region,analysisTime,dates,pointprevalence_025,pointprevalence_50,pointprevalence_975,pointinfections_025,pointinfections_50,pointinfections_975,pointinfectious_025,pointinfectious_50,pointinfectious_975,pointinfectiousprevalence_05,pointinfectiousprevalence_50,pointinfectiousprevalence_95,infectrate_025,infectrate_50,infectrate_975
48439,0,USTexasTarrant,Texas,Tarrant,2021-01-05 08:17:36.616910,2020-03-09 00:00:00.000000,0.00031024,0.00133856,0.00249231,6,28,52,2,13,26,0.00010199,0.00063223,0.00124242,0.52900820,0.70617783,1.07538655
48439,0,USTexasTarrant,Texas,Tarrant,2021-01-05 08:17:36.616910,2020-03-10 00:00:00.000000,0.00043402,0.00162797,0.00294252,9,34,61,2,13,27,0.00012890,0.00066183,0.00128432,0.52901589,0.70614510,1.07538020
48439,0,USTexasTarrant,Texas,Tarrant,2021-01-05 08:17:36.616910,2020-03-11 00:00:00.000000,0.00056938,0.00191388,0.00344939,11,40,72,3,15,29,0.00017406,0.00072636,0.00140185,0.52903107,0.70607719,1.07536426
48439,0,USTexasTarrant,Texas,Tarrant,2021-01-05 08:17:36.616910,2020-03-12 00:00:00.000000,0.00072151,0.00225606,0.00404457,15,47,85,4,17,32,0.00023376,0.00082911,0.00152609,0.52906097,0.70593465,1.07531890
48439,0,USTexasTarrant,Texas,Tarrant,2021-01-05 08:17:36.616910,2020-03-13 00:00:00.000000,0.00089441,0.00262312,0.00474875,18,55,99,6,19,36,0.00031259,0.00093015,0.00173456,0.52911965,0.70563130,1.07517238
48439,0,USTexasTarrant,Texas,Tarrant,2021-01-05 08:17:36.616910,2020-03-14 00:00:00.000000,0.00109209,0.00304489,0.00547841,22,64,115,8,23,41,0.00040582,0.00110448,0.00197701,0.52923397,0.70495250,1.07466244
48439,0,USTexasTarrant,Texas,Tarrant,2021-01-05 08:17:36.616910,2020-03-15 00:00:00.000000,0.00131870,0.00343654,0.00635116,27,72,133,10,26,48,0.00051456,0.00126839,0.00230546,0.52945379,0.70354587,1.07283751
48439,0,USTexasTarrant,Texas,Tarrant,2021-01-05 08:17:36.616910,2020-03-16 00:00:00.000000,0.00156743,0.00390665,0.00740625,32,82,155,13,30,56,0.00062578,0.00146361,0.00267699,0.52986657,0.70158200,1.06553367
48439,0,USTexasTarrant,Texas,Tarrant,2021-01-05 08:17:36.616910,2020-03-17 00:00:00.000000,0.00188711,0.00452521,0.00847641,39,95,178,16,35,65,0.00076384,0.00169482,0.00309397,0.53060716,0.70144424,1.03894502
48439,0,USTexasTarrant,Texas,Tarrant,2021-01-05 08:17:36.616910,2020-03-18 00:00:00.000000,0.00229426,0.00511871,0.00959514,48,107,201,19,41,74,0.00092947,0.00195810,0.00355449,0.53181464,0.69957608,1.00614949
48439,0,USTexasTarrant,Texas,Tarrant,2021-01-05 08:17:36.616910,2020-03-19 00:00:00.000000,0.00274564,0.00572377,0.01083418,57,120,227,23,47,85,0.00111989,0.00224066,0.00405083,0.53336797,0.70022058,0.99176110
48439,0,USTexasTarrant,Texas,Tarrant,2021-01-05 08:17:36.616910,2020-03-20 00:00:00.000000,0.00324504,0.00647347,0.01220284,68,136,256,28,53,96,0.00133448,0.00255697,0.00459632,0.53402229,0.70044182,0.99077815
48439,0,USTexasTarrant,Texas,Tarrant,2021-01-05 08:17:36.616910,2020-03-21 00:00:00.000000,0.00379282,0.00727716,0.01389478,79,153,292,33,61,109,0.00157672,0.00290289,0.00520583,0.52560952,0.68929577,0.99079414
48439,0,USTexasTarrant,Texas,Tarrant,2021-01-05 08:17:36.616910,2020-03-22 00:00:00.000000,0.00438449,0.00817674,0.01585454,92,171,333,39,68,124,0.00186302,0.00326068,0.00590776,0.50243828,0.68190335,0.99302877
48439,0,USTexasTarrant,Texas,Tarrant,2021-01-05 08:17:36.616910,2020-03-23 00:00:00.000000,0.00491764,0.00911916,0.01795073,103,191,377,45,77,141,0.00218282,0.00367413,0.00674774,0.48529627,0.68116542,0.99648933
48439,0,USTexasTarrant,Texas,Tarrant,2021-01-05 08:17:36.616910,2020-03-24 00:00:00.000000,0.00579294,0.01030958,0.02029595,121,216,426,52,86,162,0.00249658,0.00412088,0.00770532,0.45700010,0.67963236,1.00815544
48439,0,USTexasTarrant,Texas,Tarrant,2021-01-05 08:17:36.616910,2020-03-25 00:00:00.000000,0.00680157,0.01168419,0.02202959,143,245,463,59,99,184,0.00281638,0.00470888,0.00875606,0.43289590,0.68015028,1.01352031
48439,0,USTexasTarrant,Texas,Tarrant,2021-01-05 08:17:36.616910,2020-03-26 00:00:00.000000,0.00796204,0.01320628,0.02506832,167,277,527,66,111,209,0.00317907,0.00531473,0.00994945,0.42033125,0.68057470,1.01306059
48439,0,USTexasTarrant,Texas,Tarrant,2021-01-05 08:17:36.616910,2020-03-27 00:00:00.000000,0.00930020,0.01479942,0.02868954,195,311,603,75,123,237,0.00358536,0.00589417,0.01128962,0.41500279,0.67651730,1.01954676
48439,0,USTexasTarrant,Texas,Tarrant,2021-01-05 08:17:36.616910,2020-03-28 00:00:00.000000,0.01044951,0.01672780,0.03281493,219,351,689,86,141,268,0.00412345,0.00672918,0.01279180,0.41288174,0.66160025,0.99976261
48439,0,USTexasTarrant,Texas,Tarrant,2021-01-05 08:17:36.616910,2020-03-29 00:00:00.000000,0.01159214,0.01873451,0.03687085,243,393,775,99,158,303,0.00474216,0.00752966,0.01445157,0.40709508,0.64808005,0.99857822
48439,0,USTexasTarrant,Texas,Tarrant,2021-01-05 08:17:36.616910,2020-03-30 00:00:00.000000,0.01271064,0.02078241,0.04137161,267,436,869,109,179,341,0.00519520,0.00852355,0.01625513,0.40755450,0.63581309,0.99205995
48439,0,USTexasTarrant,Texas,Tarrant,2021-01-05 08:17:36.616910,2020-03-31 00:00:00.000000,0.01403271,0.02294971,0.04630894,295,482,973,119,198,384,0.00568291,0.00945481,0.01826621,0.40790816,0.63158876,0.95999449
48439,0,USTexasTarrant,Texas,Tarrant,2021-01-05 08:17:36.616910,2020-04-01 00:00:00.000000,0.01516297,0.02537823,0.05155524,318,533,1083,130,225,439,0.00621818,0.01072374,0.02090218,0.40805514,0.62608790,0.93779932
48439,0,USTexasTarrant,Texas,Tarrant,2021-01-05 08:17:36.616910,2020-04-02 00:00:00.000000,0.01621007,0.02828181,0.05659587,340,594,1189,143,253,494,0.00681928,0.01206469,0.02352937,0.40773684,0.60108016,0.91126939
48439,0,USTexasTarrant,Texas,Tarrant,2021-01-05 08:17:36.616910,2020-04-03 00:00:00.000000,0.01736837,0.03130430,0.06142896,365,658,1291,157,284,550,0.00750167,0.01353670,0.02617254,0.40610866,0.58475742,0.84243296
48439,0,USTexasTarrant,Texas,Tarrant,2021-01-05 08:17:36.616910,2020-04-04 00:00:00.000000,0.01873301,0.03480376,0.06650941,393,731,1398,173,313,607,0.00824658,0.01489088,0.02889555,0.39687282,0.57408744,0.83628276
48439,0,USTexasTarrant,Texas,Tarrant,2021-01-05 08:17:36.616910,2020-04-05 00:00:00.000000,0.02043441,0.03798400,0.07199450,429,798,1513,190,339,667,0.00906493,0.01615899,0.03174898,0.39774010,0.57185650,0.78433915
48439,0,USTexasTarrant,Texas,Tarrant,2021-01-05 08:17:36.616910,2020-04-06 00:00:00.000000,0.02242783,0.04182277,0.07864391,471,879,1653,209,373,731,0.00997335,0.01776370,0.03477871,0.39378276,0.54843318,0.82365686
48439,0,USTexasTarrant,Texas,Tarrant,2021-01-05 08:17:36.616910,2020-04-07 00:00:00.000000,0.02467550,0.04576988,0.08754109,518,962,1840,231,410,799,0.01101876,0.01954788,0.03803248,0.39609057,0.53785443,0.87741116
48439,0,USTexasTarrant,Texas,Tarrant,2021-01-05 08:17:36.616910,2020-04-08 00:00:00.000000,0.02690942,0.05005908,0.09356247,565,1052,1967,256,457,873,0.01221823,0.02177027,0.04154424,0.39606480,0.53646276,0.86772273
48439,0,USTexasTarrant,Texas,Tarrant,2021-01-05 08:17:36.616910,2020-04-09 00:00:00.000000,0.02924736,0.05535801,0.10000835,614,1163,2102,275,507,953,0.01309067,0.02415535,0.04534598,0.38953056,0.51752286,0.84428930
48439,0,USTexasTarrant,Texas,Tarrant,2021-01-05 08:17:36.616910,2020-04-10 00:00:00.000000,0.03171637,0.06082114,0.10695776,666,1278,2248,295,557,1040,0.01404336,0.02653582,0.04946893,0.37857667,0.51009881,0.81027907
48439,0,USTexasTarrant,Texas,Tarrant,2021-01-05 08:17:36.616910,2020-04-11 00:00:00.000000,0.03430086,0.06612992,0.11533981,721,1390,2425,327,600,1134,0.01556122,0.02854412,0.05394331,0.35543877,0.48899559,0.79454556
48439,0,USTexasTarrant,Texas,Tarrant,2021-01-05 08:17:36.616910,2020-04-12 00:00:00.000000,0.03727923,0.07094983,0.12535341,783,1491,2635,366,637,1232,0.01741724,0.03031409,0.05862931,0.34060769,0.48722499,0.78327183
48439,0,USTexasTarrant,Texas,Tarrant,2021-01-05 08:17:36.616910,2020-04-13 00:00:00.000000,0.04121365,0.07626122,0.13571652,866,1603,2853,399,687,1328,0.01901826,0.03267951,0.06320882,0.33989502,0.47995124,0.78227568
48439,0,USTexasTarrant,Texas,Tarrant,2021-01-05 08:17:36.616910,2020-04-14 00:00:00.000000,0.04430151,0.08233108,0.14681613,931,1731,3086,431,740,1453,0.02054502,0.03520941,0.06911886,0.32591379,0.47008803,0.77522867
48439,0,USTexasTarrant,Texas,Tarrant,2021-01-05 08:17:36.616910,2020-04-15 00:00:00.000000,0.04752647,0.08760075,0.15876202,999,1841,3337,465,793,1557,0.02216100,0.03773788,0.07407924,0.31748285,0.45538621,0.74506801
48439,0,USTexasTarrant,Texas,Tarrant,2021-01-05 08:17:36.616910,2020-04-16 00:00:00.000000,0.05095234,0.09395533,0.17128790,1071,1975,3601,501,850,1669,0.02387205,0.04044125,0.07940722,0.30946997,0.44953218,0.73527600
48439,0,USTexasTarrant,Texas,Tarrant,2021-01-05 08:17:36.616910,2020-04-17 00:00:00.000000,0.05621954,0.09969537,0.18283213,1182,2096,3844,546,913,1790,0.02601058,0.04343135,0.08514579,0.30822475,0.44199710,0.71539557
48439,0,USTexasTarrant,Texas,Tarrant,2021-01-05 08:17:36.616910,2020-04-18 00:00:00.000000,0.06049218,0.10499498,0.19261158,1271,2207,4049,595,974,1916,0.02833501,0.04635284,0.09116124,0.30743342,0.43141183,0.70100410
48439,0,USTexasTarrant,Texas,Tarrant,2021-01-05 08:17:36.616910,2020-04-19 00:00:00.000000,0.06327371,0.11074477,0.20239916,1330,2328,4255,639,1043,2018,0.03040470,0.04963013,0.09598335,0.28980699,0.42359781,0.66731828
48439,0,USTexasTarrant,Texas,Tarrant,2021-01-05 08:17:36.616910,2020-04-20 00:00:00.000000,0.06723584,0.11666620,0.21277880,1413,2452,4473,685,1118,2135,0.03261192,0.05321090,0.10158993,0.26883574,0.42102879,0.66297391
48439,0,USTexasTarrant,Texas,Tarrant,2021-01-05 08:17:36.616910,2020-04-21 00:00:00.000000,0.07226936,0.12380319,0.22358678,1519,2602,4700,735,1212,2251,0.03499201,0.05764606,0.10706485,0.26651491,0.41558191,0.65007606
48439,0,USTexasTarrant,Texas,Tarrant,2021-01-05 08:17:36.616910,2020-04-22 00:00:00.000000,0.07635591,0.13006824,0.23496331,1605,2734,4940,775,1276,2364,0.03690507,0.06072638,0.11245999,0.26349140,0.40561006,0.62819993
48439,0,USTexasTarrant,Texas,Tarrant,2021-01-05 08:17:36.616910,2020-04-23 00:00:00.000000,0.07962072,0.13499315,0.24569746,1674,2838,5165,818,1368,2477,0.03891079,0.06508104,0.11781891,0.25152327,0.39695283,0.59418566
48439,0,USTexasTarrant,Texas,Tarrant,2021-01-05 08:17:36.616910,2020-04-24 00:00:00.000000,0.08361642,0.14077025,0.25977233,1758,2959,5461,861,1467,2604,0.04099178,0.06981259,0.12385502,0.24398031,0.38849390,0.58333178
48439,0,USTexasTarrant,Texas,Tarrant,2021-01-05 08:17:36.616910,2020-04-25 00:00:00.000000,0.08702888,0.14841917,0.27319427,1829,3120,5743,912,1553,2821,0.04340905,0.07390803,0.13419676,0.24779868,0.38525173,0.54159720
48439,0,USTexasTarrant,Texas,Tarrant,2021-01-05 08:17:36.616910,2020-04-26 00:00:00.000000,0.09221189,0.15460209,0.28716769,1938,3250,6037,965,1625,3041,0.04592474,0.07728845,0.14464909,0.23863349,0.37502770,0.48525491
48439,0,USTexasTarrant,Texas,Tarrant,2021-01-05 08:17:36.616910,2020-04-27 00:00:00.000000,0.09840374,0.16142801,0.30163920,2068,3394,6342,1020,1718,3249,0.04852576,0.08171309,0.15455316,0.23909357,0.36313702,0.51869823
48439,0,USTexasTarrant,Texas,Tarrant,2021-01-05 08:17:36.616910,2020-04-28 00:00:00.000000,0.10139777,0.16874736,0.31637006,2131,3547,6651,1045,1775,3441,0.04970673,0.08446430,0.16370445,0.24254093,0.35708411,0.52455095
48439,0,USTexasTarrant,Texas,Tarrant,2021-01-05 08:17:36.616910,2020-04-29 00:00:00.000000,0.10451930,0.17759757,0.32862563,2197,3734,6909,1063,1846,3619,0.05056240,0.08780376,0.17217343,0.24095974,0.34833028,0.48905586
48439,0,USTexasTarrant,Texas,Tarrant,2021-01-05 08:17:36.616910,2020-04-30 00:00:00.000000,0.10774118,0.18799557,0.33503357,2265,3952,7044,1086,1950,3781,0.05166522,0.09278009,0.17987492,0.22201143,0.33112291,0.46119477
48439,0,USTexasTarrant,Texas,Tarrant,2021-01-05 08:17:36.616910,2020-05-01 00:00:00.000000,0.11093962,0.19787020,0.35329432,2332,4160,7428,1126,2058,3922,0.05357302,0.09789152,0.18655445,0.20415910,0.32484365,0.46519400
48439,0,USTexasTarrant,Texas,Tarrant,2021-01-05 08:17:36.616910,2020-05-02 00:00:00.000000,0.11375669,0.20555280,0.36382405,2391,4321,7649,1167,2147,4040,0.05554151,0.10213015,0.19218904,0.19868505,0.30975371,0.49303197
48439,0,USTexasTarrant,Texas,Tarrant,2021-01-05 08:17:36.616910,2020-05-03 00:00:00.000000,0.11608135,0.21159771,0.37216971,2440,4448,7824,1210,2192,4141,0.05758922,0.10429676,0.19696152,0.19734954,0.31082782,0.50328645
48439,0,USTexasTarrant,Texas,Tarrant,2021-01-05 08:17:36.616910,2020-05-04 00:00:00.000000,0.11837417,0.21594105,0.38010244,2488,4540,7991,1255,2256,4342,0.05972995,0.10732827,0.20655000,0.19704306,0.30276271,0.50530255
48439,0,USTexasTarrant,Texas,Tarrant,2021-01-05 08:17:36.616910,2020-05-05 00:00:00.000000,0.12065051,0.22483224,0.40169764,2536,4727,8445,1303,2318,4573,0.06201069,0.11026482,0.21751719,0.19697380,0.29146863,0.50035919
48439,0,USTexasTarrant,Texas,Tarrant,2021-01-05 08:17:36.616910,2020-05-06 00:00:00.000000,0.12448634,0.22968296,0.42431710,2617,4829,8921,1354,2364,4695,0.06440785,0.11243838,0.22334746,0.19695736,0.28944495,0.46852807
48439,0,USTexasTarrant,Texas,Tarrant,2021-01-05 08:17:36.616910,2020-05-07 00:00:00.000000,0.12936273,0.23330700,0.44750147,2719,4905,9408,1395,2485,4866,0.06636025,0.11822134,0.23146851,0.19693665,0.28667930,0.42943877
48439,0,USTexasTarrant,Texas,Tarrant,2021-01-05 08:17:36.616910,2020-05-08 00:00:00.000000,0.13446907,0.23808337,0.46937695,2827,5005,9868,1423,2550,4975,0.06769088,0.12131905,0.23666842,0.19588169,0.28212753,0.40279175
48439,0,USTexasTarrant,Texas,Tarrant,2021-01-05 08:17:36.616910,2020-05-09 00:00:00.000000,0.13986401,0.24420014,0.48763466,2940,5134,10252,1450,2627,5085,0.06898876,0.12498678,0.24189417,0.19248813,0.27814241,0.39786121
48439,0,USTexasTarrant,Texas,Tarrant,2021-01-05 08:17:36.616910,2020-05-10 00:00:00.000000,0.14560101,0.25105415,0.49934385,3061,5278,10498,1477,2707,5243,0.07025124,0.12875295,0.24940242,0.17451353,0.27646568,0.39503300
48439,0,USTexasTarrant,Texas,Tarrant,2021-01-05 08:17:36.616910,2020-05-11 00:00:00.000000,0.15145234,0.25214683,0.50686057,3184,5301,10656,1502,2783,5461,0.07148108,0.13236812,0.25977929,0.16628921,0.26707412,0.39319337
48439,0,USTexasTarrant,Texas,Tarrant,2021-01-05 08:17:36.616910,2020-05-12 00:00:00.000000,0.15684209,0.25387359,0.51252746,3297,5337,10775,1527,2853,5670,0.07266322,0.13573884,0.26972252,0.17123425,0.26329642,0.38502204
48439,0,USTexasTarrant,Texas,Tarrant,2021-01-05 08:17:36.616910,2020-05-13 00:00:00.000000,0.16099042,0.25742205,0.51747441,3384,5412,10879,1567,2940,5862,0.07453510,0.13984691,0.27881531,0.18613783,0.26003951,0.37265870
48439,0,USTexasTarrant,Texas,Tarrant,2021-01-05 08:17:36.616910,2020-05-14 00:00:00.000000,0.16420578,0.26024554,0.52208791,3452,5471,10976,1611,2987,6036,0.07666915,0.14207587,0.28708591,0.19007322,0.25652547,0.37245660
48439,0,USTexasTarrant,Texas,Tarrant,2021-01-05 08:17:36.616910,2020-05-15 00:00:00.000000,0.16709522,0.26351337,0.52606605,3513,5540,11060,1657,3064,6196,0.07881713,0.14573968,0.29473290,0.19549738,0.25861726,0.37349100
48439,0,USTexasTarrant,Texas,Tarrant,2021-01-05 08:17:36.616910,2020-05-16 00:00:00.000000,0.16990619,0.26850007,0.52726557,3572,5645,11085,1700,3107,6348,0.08088650,0.14781610,0.30192885,0.18091017,0.26340228,0.37402853
48439,0,USTexasTarrant,Texas,Tarrant,2021-01-05 08:17:36.616910,2020-05-17 00:00:00.000000,0.17271158,0.27229813,0.53342021,3631,5725,11215,1740,3139,6491,0.08279637,0.14931484,0.30875796,0.17749771,0.26392063,0.37484340
48439,0,USTexasTarrant,Texas,Tarrant,2021-01-05 08:17:36.616910,2020-05-18 00:00:00.000000,0.17555960,0.27627072,0.54674955,3691,5808,11495,1778,3174,6627,0.08459753,0.15096735,0.31521496,0.17679950,0.26455784,0.37551349
48439,0,USTexasTarrant,Texas,Tarrant,2021-01-05 08:17:36.616910,2020-05-19 00:00:00.000000,0.17843598,0.28379171,0.55973349,3751,5966,11768,1816,3214,6752,0.08638395,0.15289915,0.32116269,0.17675884,0.26593219,0.37497354
48439,0,USTexasTarrant,Texas,Tarrant,2021-01-05 08:17:36.616910,2020-05-20 00:00:00.000000,0.18134907,0.29080277,0.57270767,3812,6114,12041,1854,3299,6818,0.08820099,0.15693273,0.32430726,0.17680318,0.26926786,0.37127054
48439,0,USTexasTarrant,Texas,Tarrant,2021-01-05 08:17:36.616910,2020-05-21 00:00:00.000000,0.18430794,0.29609683,0.58598612,3875,6225,12320,1894,3387,6822,0.09011975,0.16111476,0.32451075,0.17598731,0.26915540,0.38634778
48439,0,USTexasTarrant,Texas,Tarrant,2021-01-05 08:17:36.616910,2020-05-22 00:00:00.000000,0.18732550,0.30569721,0.59994229,3938,6427,12613,1939,3445,6821,0.09222949,0.16385355,0.32444890,0.17622715,0.27049534,0.38228277
48439,0,USTexasTarrant,Texas,Tarrant,2021-01-05 08:17:36.616910,2020-05-23 00:00:00.000000,0.19048283,0.31519578,0.61504151,4004,6627,12931,1988,3487,6821,0.09459295,0.16586069,0.32442171,0.19238171,0.28224131,0.41815134
48439,0,USTexasTarrant,Texas,Tarrant,2021-01-05 08:17:36.616910,2020-05-24 00:00:00.000000,0.19377127,0.32410406,0.61735284,4074,6814,12979,2039,3590,6826,0.09698079,0.17076300,0.32470315,0.20924823,0.29754080,0.41922155
48439,0,USTexasTarrant,Texas,Tarrant,2021-01-05 08:17:36.616910,2020-05-25 00:00:00.000000,0.19736902,0.33717038,0.61925739,4149,7089,13019,2075,3731,6838,0.09870785,0.17746878,0.32523595,0.21286793,0.30228394,0.41972328
48439,0,USTexasTarrant,Texas,Tarrant,2021-01-05 08:17:36.616910,2020-05-26 00:00:00.000000,0.20147805,0.35063441,0.62310833,4236,7372,13100,2113,3816,6853,0.10052208,0.18153713,0.32595071,0.21409015,0.30366349,0.41987344
48439,0,USTexasTarrant,Texas,Tarrant,2021-01-05 08:17:36.616910,2020-05-27 00:00:00.000000,0.20638435,0.36376016,0.62866691,4339,7648,13217,2155,3963,6976,0.10249890,0.18853323,0.33184016,0.21774564,0.30479121,0.42131777
48439,0,USTexasTarrant,Texas,Tarrant,2021-01-05 08:17:36.616910,2020-05-28 00:00:00.000000,0.21207734,0.38096280,0.63878075,4458,8009,13430,2201,4115,7181,0.10472241,0.19572373,0.34158317,0.21728587,0.30730778,0.44909153
48439,0,USTexasTarrant,Texas,Tarrant,2021-01-05 08:17:36.616910,2020-05-29 00:00:00.000000,0.21830344,0.39930237,0.66517066,4589,8395,13985,2255,4218,7314,0.10725268,0.20065689,0.34787978,0.21831625,0.31504144,0.46160106
48439,0,USTexasTarrant,Texas,Tarrant,2021-01-05 08:17:36.616910,2020-05-30 00:00:00.000000,0.22486846,0.41211825,0.69325223,4727,8664,14575,2315,4397,7586,0.11011160,0.20915676,0.36084696,0.21961875,0.32107021,0.47874962
48439,0,USTexasTarrant,Texas,Tarrant,2021-01-05 08:17:36.616910,2020-05-31 00:00:00.000000,0.23168859,0.42287185,0.72320188,4871,8890,15205,2381,4586,7897,0.11329286,0.21814786,0.37560219,0.22396756,0.32739697,0.48094232
48439,0,USTexasTarrant,Texas,Tarrant,2021-01-05 08:17:36.616910,2020-06-01 00:00:00.000000,0.23867115,0.44365088,0.75468301,5018,9327,15867,2455,4757,8169,0.11678494,0.22627214,0.38856909,0.22989630,0.33063381,0.47951492
48439,0,USTexasTarrant,Texas,Tarrant,2021-01-05 08:17:36.616910,2020-06-02 00:00:00.000000,0.24589055,0.45734267,0.78392440,5169,9615,16482,2541,4943,8458,0.12089125,0.23510338,0.40231515,0.24294638,0.33008335,0.47877111
48439,0,USTexasTarrant,Texas,Tarrant,2021-01-05 08:17:36.616910,2020-06-03 00:00:00.000000,0.25339737,0.47442935,0.82054407,5327,9974,17252,2632,5099,8763,0.12520952,0.24255854,0.41679820,0.25313568,0.33974605,0.48521948
48439,0,USTexasTarrant,Texas,Tarrant,2021-01-05 08:17:36.616910,2020-06-04 00:00:00.000000,0.26156368,0.49757038,0.85953037,5499,10461,18071,2726,5300,9081,0.12968742,0.25209785,0.43194316,0.25618662,0.34098526,0.48253827
48439,0,USTexasTarrant,Texas,Tarrant,2021-01-05 08:17:36.616910,2020-06-05 00:00:00.000000,0.27458677,0.51966129,0.90030328,5773,10925,18929,2833,5552,9409,0.13476582,0.26410155,0.44753004,0.26095595,0.34127683,0.48444118
48439,0,USTexasTarrant,Texas,Tarrant,2021-01-05 08:17:36.616910,2020-06-06 00:00:00.000000,0.29232280,0.53976630,0.94155463,6146,11348,19796,2958,5745,9744,0.14072291,0.27326182,0.46348382,0.26765481,0.34993928,0.51127686
48439,0,USTexasTarrant,Texas,Tarrant,2021-01-05 08:17:36.616910,2020-06-07 00:00:00.000000,0.31095316,0.56276459,0.98418927,6537,11832,20692,3100,6000,10086,0.14745530,0.28539558,0.47973527,0.27272307,0.36071780,0.51710736
48439,0,USTexasTarrant,Texas,Tarrant,2021-01-05 08:17:36.616910,2020-06-08 00:00:00.000000,0.33068772,0.58434042,1.02799341,6952,12285,21613,3285,6275,10432,0.15625510,0.29847579,0.49617473,0.27838170,0.35930095,0.51674595
48439,0,USTexasTarrant,Texas,Tarrant,2021-01-05 08:17:36.616910,2020-06-09 00:00:00.000000,0.35162790,0.60926477,1.07224984,7393,12809,22544,3480,6580,10780,0.16555508,0.31297922,0.51271971,0.27806529,0.36801055,0.51163661
48439,0,USTexasTarrant,Texas,Tarrant,2021-01-05 08:17:36.616910,2020-06-10 00:00:00.000000,0.37386094,0.64649133,1.11379366,7860,13592,23417,3642,6902,11129,0.17325396,0.32827708,0.52935956,0.27761109,0.37014841,0.51288946
48439,0,USTexasTarrant,Texas,Tarrant,2021-01-05 08:17:36.616910,2020-06-11 00:00:00.000000,0.39741266,0.68339312,1.14706323,8355,14368,24117,3818,7231,11482,0.18163806,0.34392224,0.54613893,0.27676686,0.37907830,0.52496884
48439,0,USTexasTarrant,Texas,Tarrant,2021-01-05 08:17:36.616910,2020-06-12 00:00:00.000000,0.42230034,0.72554474,1.18154527,8878,15254,24842,4014,7579,11840,0.19093548,0.36051199,0.56314842,0.27546703,0.38223815,0.54690819
48439,0,USTexasTarrant,Texas,Tarrant,2021-01-05 08:17:36.616910,2020-06-13 00:00:00.000000,0.44845712,0.76741892,1.21769809,9428,16135,25602,4257,7980,12205,0.20251406,0.37955248,0.58051128,0.27388437,0.39342972,0.54660933
48439,0,USTexasTarrant,Texas,Tarrant,2021-01-05 08:17:36.616910,2020-06-14 00:00:00.000000,0.47582040,0.80951556,1.25600988,10004,17020,26407,4531,8400,12581,0.21553177,0.39952990,0.59838299,0.27216841,0.40511227,0.55628936
48439,0,USTexasTarrant,Texas,Tarrant,2021-01-05 08:17:36.616910,2020-06-15 00:00:00.000000,0.50453761,0.86144530,1.29697784,10607,18112,27269,4825,8837,12971,0.22953267,0.42030666,0.61696252,0.27029837,0.41564083,0.56386319
48439,0,USTexasTarrant,Texas,Tarrant,2021-01-05 08:17:36.616910,2020-06-16 00:00:00.000000,0.53489199,0.92234424,1.34107919,11246,19392,28196,5141,9343,13958,0.24454497,0.44438296,0.66387267,0.26827992,0.41509019,0.55071072
48439,0,USTexasTarrant,Texas,Tarrant,2021-01-05 08:17:36.616910,2020-06-17 00:00:00.000000,0.56729928,0.97028161,1.41401888,11927,20400,29729,5479,9867,14657,0.26063812,0.46932738,0.69714621,0.26627844,0.40753619,0.54743627
48439,0,USTexasTarrant,Texas,Tarrant,2021-01-05 08:17:36.616910,2020-06-18 00:00:00.000000,0.60238374,1.02163731,1.45458799,12665,21480,30582,5852,10407,15398,0.27836428,0.49497980,0.73237723,0.25663102,0.40364419,0.54168065
48439,0,USTexasTarrant,Texas,Tarrant,2021-01-05 08:17:36.616910,2020-06-19 00:00:00.000000,0.64952167,1.06813088,1.51466897,13656,22457,31846,6335,10979,16188,0.30133122,0.52220702,0.76994715,0.24829122,0.40446996,0.53438142
48439,0,USTexasTarrant,Texas,Tarrant,2021-01-05 08:17:36.616910,2020-06-20 00:00:00.000000,0.70470060,1.12144230,1.58365540,14816,23578,33296,6699,11586,16996,0.31865129,0.55108694,0.80837437,0.24842755,0.40136287,0.53254227
48439,0,USTexasTarrant,Texas,Tarrant,2021-01-05 08:17:36.616910,2020-06-21 00:00:00.000000,0.76387363,1.18884238,1.67722310,16060,24995,35263,7066,12090,17899,0.33608261,0.57507089,0.85131673,0.25135943,0.39764642,0.53115222
48439,0,USTexasTarrant,Texas,Tarrant,2021-01-05 08:17:36.616910,2020-06-22 00:00:00.000000,0.82683753,1.23007230,1.77333821,17384,25862,37284,7516,12633,18853,0.35751253,0.60085626,0.89671658,0.24779266,0.39982075,0.52227029
48439,0,USTexasTarrant,Texas,Tarrant,2021-01-05 08:17:36.616910,2020-06-23 00:00:00.000000,0.88237107,1.29150661,1.84940553,18551,27154,38884,7989,13343,19824,0.37999549,0.63462879,0.94289864,0.24761587,0.39933750,0.51919932
48439,0,USTexasTarrant,Texas,Tarrant,2021-01-05 08:17:36.616910,2020-06-24 00:00:00.000000,0.93248512,1.36782686,1.90798323,19605,28758,40115,8485,14004,20816,0.40357409,0.66606069,0.99005765,0.24771864,0.39655073,0.51389558
48439,0,USTexasTarrant,Texas,Tarrant,2021-01-05 08:17:36.616910,2020-06-25 00:00:00.000000,0.98463403,1.44003267,2.00401343,20702,30276,42134,9006,14640,21833,0.42837070,0.69634917,1.03842369,0.25148204,0.38918894,0.51198774
48439,0,USTexasTarrant,Texas,Tarrant,2021-01-05 08:17:36.616910,2020-06-26 00:00:00.000000,1.02807063,1.51402688,2.10316969,21615,31832,44219,9555,15215,22884,0.45447806,0.72368356,1.08845109,0.23929160,0.37872739,0.50943828
48439,0,USTexasTarrant,Texas,Tarrant,2021-01-05 08:17:36.616910,2020-06-27 00:00:00.000000,1.05573554,1.56345300,2.19784391,22196,32871,46209,10132,16056,23975,0.48191918,0.76366399,1.14030232,0.23292209,0.35729156,0.50701423
48439,0,USTexasTarrant,Texas,Tarrant,2021-01-05 08:17:36.616910,2020-06-28 00:00:00.000000,1.10326291,1.63047823,2.28192274,23196,34281,47977,10735,16925,25095,0.51061626,0.80501581,1.19357349,0.23104731,0.34865731,0.48862741
48439,0,USTexasTarrant,Texas,Tarrant,2021-01-05 08:17:36.616910,2020-06-29 00:00:00.000000,1.14608856,1.68131357,2.36030619,24096,35349,49625,11363,17536,26238,0.54048589,0.83405447,1.24797999,0.22906057,0.33742448,0.46027598
48439,0,USTexasTarrant,Texas,Tarrant,2021-01-05 08:17:36.616910,2020-06-30 00:00:00.000000,1.18167718,1.72669106,2.43865538,24844,36303,51273,12013,18200,27394,0.57140195,0.86563854,1.30294902,0.22471936,0.33001197,0.45886384
48439,0,USTexasTarrant,Texas,Tarrant,2021-01-05 08:17:36.616910,2020-07-01 00:00:00.000000,1.23267323,1.77224032,2.51879513,25917,37261,52958,12640,18871,28695,0.60120225,0.89758585,1.36482884,0.21642005,0.31310199,0.44822077
48439,0,USTexasTarrant,Texas,Tarrant,2021-01-05 08:17:36.616910,2020-07-02 00:00:00.000000,1.29740799,1.81410031,2.60110145,27278,38141,54688,13158,19403,30020,0.62582774,0.92288998,1.42783283,0.21494914,0.30561975,0.44024179
48439,0,USTexasTarrant,Texas,Tarrant,2021-01-05 08:17:36.616910,2020-07-03 00:00:00.000000,1.36532314,1.85639693,2.68554684,28706,39031,56464,13690,19996,31211,0.65116497,0.95105436,1.48448943,0.21837732,0.29245378,0.43998125
48439,0,USTexasTarrant,Texas,Tarrant,2021-01-05 08:17:36.616910,2020-07-04 00:00:00.000000,1.38782121,1.90318514,2.77060791,29179,40014,58252,14252,20810,32382,0.67787603,0.98980059,1.54020177,0.22232061,0.28771953,0.42648535
48439,0,USTexasTarrant,Texas,Tarrant,2021-01-05 08:17:36.616910,2020-07-05 00:00:00.000000,1.42796331,1.96134640,2.85463218,30023,41237,60019,14814,21506,33557,0.70461425,1.02290609,1.59604345,0.22003244,0.28464243,0.41742184
48439,0,USTexasTarrant,Texas,Tarrant,2021-01-05 08:17:36.616910,2020-07-06 00:00:00.000000,1.46399347,2.01666128,2.91983427,30780,42400,61389,15278,22097,34736,0.72666524,1.05101317,1.65213496,0.21098714,0.28130996,0.41562015
48439,0,USTexasTarrant,Texas,Tarrant,2021-01-05 08:17:36.616910,2020-07-07 00:00:00.000000,1.46024803,2.06637190,2.98814896,30701,43445,62826,15682,22661,35924,0.74590807,1.07783315,1.70863322,0.20599272,0.27428940,0.41198291
48439,0,USTexasTarrant,Texas,Tarrant,2021-01-05 08:17:36.616910,2020-07-08 00:00:00.000000,1.45635457,2.11223112,3.04394048,30620,44409,63999,16073,23257,37123,0.76447192,1.10617467,1.76568475,0.20258281,0.27019221,0.40331832
48439,0,USTexasTarrant,Texas,Tarrant,2021-01-05 08:17:36.616910,2020-07-09 00:00:00.000000,1.45179954,2.16008143,3.09026626,30524,45416,64973,16062,23674,38234,0.76398556,1.12599969,1.81852706,0.19578932,0.26444315,0.38717504
48439,0,USTexasTarrant,Texas,Tarrant,2021-01-05 08:17:36.616910,2020-07-10 00:00:00.000000,1.47595499,2.20241989,3.17112498,31032,46306,66673,16404,24106,38585,0.78023479,1.14656556,1.83522509,0.19383745,0.25863132,0.37691777
48439,0,USTexasTarrant,Texas,Tarrant,2021-01-05 08:17:36.616910,2020-07-11 00:00:00.000000,1.50181786,2.20720253,3.29185403,31575,46406,69211,16749,24640,39492,0.79665175,1.17192987,1.87834829,0.18844997,0.25508181,0.36851049
48439,0,USTexasTarrant,Texas,Tarrant,2021-01-05 08:17:36.616910,2020-07-12 00:00:00.000000,1.52094238,2.21789475,3.36572982,31978,46631,70764,16822,25014,40382,0.80008991,1.18974356,1.92065390,0.17640200,0.24940159,0.35694215
48439,0,USTexasTarrant,Texas,Tarrant,2021-01-05 08:17:36.616910,2020-07-13 00:00:00.000000,1.53307048,2.25623913,3.43932776,32233,47437,72312,16949,25397,41255,0.80615117,1.20793513,1.96218331,0.16789315,0.24693429,0.34534775
48439,0,USTexasTarrant,Texas,Tarrant,2021-01-05 08:17:36.616910,2020-07-14 00:00:00.000000,1.53935178,2.29806077,3.51171660,32365,48317,73834,17152,25676,42093,0.81580736,1.22122505,2.00207824,0.16784982,0.24300699,0.33538380
48439,0,USTexasTarrant,Texas,Tarrant,2021-01-05 08:17:36.616910,2020-07-15 00:00:00.000000,1.54140926,2.30644474,3.58490970,32408,48493,75373,17326,26088,43010,0.82408576,1.24081895,2.04567302,0.16852358,0.24129481,0.33065044
48439,0,USTexasTarrant,Texas,Tarrant,2021-01-05 08:17:36.616910,2020-07-16 00:00:00.000000,1.54086205,2.30121315,3.62140353,32396,48383,76140,17481,26442,43872,0.83146897,1.25765449,2.08667685,0.17000547,0.23907522,0.32731939
48439,0,USTexasTarrant,Texas,Tarrant,2021-01-05 08:17:36.616910,2020-07-17 00:00:00.000000,1.53888573,2.31511384,3.64035082,32355,48675,76538,17559,26671,44726,0.83516196,1.26855682,2.12728874,0.17174563,0.23601073,0.32802383
48439,0,USTexasTarrant,Texas,Tarrant,2021-01-05 08:17:36.616910,2020-07-18 00:00:00.000000,1.53612441,2.32901585,3.65646281,32297,48967,76877,17429,26833,45315,0.82897628,1.27625328,2.15530682,0.15758061,0.23141979,0.32884908
48439,0,USTexasTarrant,Texas,Tarrant,2021-01-05 08:17:36.616910,2020-07-19 00:00:00.000000,1.53292059,2.33843219,3.66840689,32229,49165,77128,17289,26931,45666,0.82233763,1.28092138,2.17199343,0.15586235,0.22687606,0.32974802
48439,0,USTexasTarrant,Texas,Tarrant,2021-01-05 08:17:36.616910,2020-07-20 00:00:00.000000,1.52930608,2.33922813,3.68880571,32153,49182,77557,17143,26971,45961,0.81537317,1.28280627,2.18600524,0.16060957,0.22535015,0.33068701
48439,0,USTexasTarrant,Texas,Tarrant,2021-01-05 08:17:36.616910,2020-07-21 00:00:00.000000,1.52552048,2.34353678,3.68799642,32074,49273,77540,16991,26960,46182,0.80817035,1.28231699,2.19655508,0.16554258,0.22368045,0.33163165
48439,0,USTexasTarrant,Texas,Tarrant,2021-01-05 08:17:36.616910,2020-07-22 00:00:00.000000,1.52161557,2.34674196,3.68133989,31992,49340,77400,16845,26911,46317,0.80120153,1.27994720,2.20294160,0.16570990,0.22299567,0.33250555
48439,0,USTexasTarrant,Texas,Tarrant,2021-01-05 08:17:36.616910,2020-07-23 00:00:00.000000,1.51764849,2.35657329,3.67240033,31908,49547,77212,16885,26831,46368,0.80310596,1.27614840,2.20536188,0.16152572,0.22098782,0.33287218
48439,0,USTexasTarrant,Texas,Tarrant,2021-01-05 08:17:36.616910,2020-07-24 00:00:00.000000,1.51374716,2.36674779,3.66146189,31826,49761,76982,16919,26728,46325,0.80471026,1.27128260,2.20333176,0.15391622,0.22043184,0.32963406
48439,0,USTexasTarrant,Texas,Tarrant,2021-01-05 08:17:36.616910,2020-07-25 00:00:00.000000,1.51030721,2.36977831,3.64749596,31754,49824,76689,16944,26609,46184,0.80593045,1.26561553,2.19665374,0.14934172,0.21923314,0.32476807
48439,0,USTexasTarrant,Texas,Tarrant,2021-01-05 08:17:36.616910,2020-07-26 00:00:00.000000,1.50848666,2.36458081,3.60302262,31716,49715,75754,16961,26553,45954,0.80671227,1.26293440,2.18567673,0.14722730,0.21910754,0.30642293
48439,0,USTexasTarrant,Texas,Tarrant,2021-01-05 08:17:36.616910,2020-07-27 00:00:00.000000,1.51108168,2.36436140,3.56890857,31770,49711,75036,16967,26619,45646,0.80703097,1.26606366,2.17106651,0.14474007,0.22059781,0.29783857
48439,0,USTexasTarrant,Texas,Tarrant,2021-01-05 08:17:36.616910,2020-07-28 00:00:00.000000,1.52042357,2.37208819,3.59736027,31967,49873,75635,17028,26692,45279,0.80989714,1.26954855,2.15357362,0.13589787,0.21828941,0.30075443
48439,0,USTexasTarrant,Texas,Tarrant,2021-01-05 08:17:36.616910,2020-07-29 00:00:00.000000,1.53554974,2.37133806,3.58121278,32285,49857,75295,17344,26773,44864,0.82495144,1.27338361,2.13385440,0.13811625,0.21781117,0.30241247
48439,0,USTexasTarrant,Texas,Tarrant,2021-01-05 08:17:36.616910,2020-07-30 00:00:00.000000,1.55362897,2.37082538,3.56429592,32665,49846,74939,17675,26728,44416,0.84066649,1.27126612,2.11255174,0.14536522,0.21747307,0.30906370
48439,0,USTexasTarrant,Texas,Tarrant,2021-01-05 08:17:36.616910,2020-07-31 00:00:00.000000,1.56306348,2.35858602,3.54339629,32863,49589,74500,17448,26482,43990,0.82990815,1.25958177,2.09227673,0.14924045,0.21199152,0.32123748
48439,0,USTexasTarrant,Texas,Tarrant,2021-01-05 08:17:36.616910,2020-08-01 00:00:00.000000,1.55604789,2.35704764,3.55045983,32716,49557,74648,17220,26508,43553,0.81905871,1.26081264,2.07151237,0.15389996,0.20711522,0.33800780
48439,0,USTexasTarrant,Texas,Tarrant,2021-01-05 08:17:36.616910,2020-08-02 00:00:00.000000,1.54946291,2.36282661,3.60231279,32577,49678,75739,17002,26595,43500,0.80866923,1.26495958,2.06897229,0.16091362,0.21006082,0.33834933
48439,0,USTexasTarrant,Texas,Tarrant,2021-01-05 08:17:36.616910,2020-08-03 00:00:00.000000,1.54378435,2.37741297,3.61091142,32458,49985,75919,16878,26710,43522,0.80278778,1.27038492,2.07003883,0.15870603,0.21023940,0.34061018
48439,0,USTexasTarrant,Texas,Tarrant,2021-01-05 08:17:36.616910,2020-08-04 00:00:00.000000,1.53934824,2.37393723,3.58895376,32365,49912,75458,16916,26653,43542,0.80458075,1.26770240,2.07098886,0.16450140,0.20999666,0.35081959
48439,0,USTexasTarrant,Texas,Tarrant,2021-01-05 08:17:36.616910,2020-08-05 00:00:00.000000,1.52799814,2.36087671,3.57195224,32126,49637,75100,16972,26529,43563,0.80725514,1.26180912,2.07197190,0.15905918,0.21359368,0.35882378
48439,0,USTexasTarrant,Texas,Tarrant,2021-01-05 08:17:36.616910,2020-08-06 00:00:00.000000,1.48498277,2.35802820,3.55812915,31221,49577,74810,17046,26593,43583,0.81078924,1.26482344,2.07293100,0.16112526,0.21319502,0.36330250
48439,0,USTexasTarrant,Texas,Tarrant,2021-01-05 08:17:36.616910,2020-08-07 00:00:00.000000,1.49186476,2.35884722,3.54664774,31366,49595,74568,17135,26640,43602,0.81499160,1.26705832,2.07382886,0.15544713,0.21260332,0.36632636
48439,0,USTexasTarrant,Texas,Tarrant,2021-01-05 08:17:36.616910,2020-08-08 00:00:00.000000,1.50046173,2.35923005,3.53725293,31547,49603,74371,17232,26689,43901,0.81961803,1.26938951,2.08806243,0.16266167,0.21352096,0.37226371
48439,0,USTexasTarrant,Texas,Tarrant,2021-01-05 08:17:36.616910,2020-08-09 00:00:00.000000,1.50934978,2.37730516,3.52976641,31734,49983,74213,17335,26820,44339,0.82449707,1.27565484,2.10887230,0.16163049,0.21669784,0.37746063
48439,0,USTexasTarrant,Texas,Tarrant,2021-01-05 08:17:36.616910,2020-08-10 00:00:00.000000,1.51419306,2.39456622,3.52385365,31836,50346,74089,17385,26957,44601,0.82688074,1.28217120,2.12132701,0.16152498,0.21753755,0.37895836
48439,0,USTexasTarrant,Texas,Tarrant,2021-01-05 08:17:36.616910,2020-08-11 00:00:00.000000,1.50997191,2.39795074,3.51891857,31747,50417,73985,16934,27311,44312,0.80544499,1.29897895,2.10758833,0.16116735,0.21887427,0.37864640
48439,0,USTexasTarrant,Texas,Tarrant,2021-01-05 08:17:36.616910,2020-08-12 00:00:00.000000,1.50580189,2.41341012,3.51444550,31659,50742,73891,16571,27739,44038,0.78819527,1.31934891,2.09456090,0.15781491,0.22232376,0.37736338
48439,0,USTexasTarrant,Texas,Tarrant,2021-01-05 08:17:36.616910,2020-08-13 00:00:00.000000,1.50046533,2.41355589,3.50996746,31547,50745,73797,16359,27875,43767,0.77808466,1.32581071,2.08167315,0.15629276,0.22488305,0.39106712
48439,0,USTexasTarrant,Texas,Tarrant,2021-01-05 08:17:36.616910,2020-08-14 00:00:00.000000,1.49210583,2.40225108,3.50474250,31371,50507,73687,16312,28108,43489,0.77585137,1.33691100,2.06844969,0.15607175,0.22594613,0.40067345
48439,0,USTexasTarrant,Texas,Tarrant,2021-01-05 08:17:36.616910,2020-08-15 00:00:00.000000,1.48078741,2.37310594,3.49678459,31133,49894,73520,16406,28100,43199,0.78034642,1.33652961,2.05463516,0.15723328,0.22537503,0.38497277
48439,0,USTexasTarrant,Texas,Tarrant,2021-01-05 08:17:36.616910,2020-08-16 00:00:00.000000,1.47311142,2.35960549,3.48311303,30972,49611,73232,16611,28018,42895,0.79009156,1.33261736,2.04018050,0.15553182,0.22219347,0.36801223
48439,0,USTexasTarrant,Texas,Tarrant,2021-01-05 08:17:36.616910,2020-08-17 00:00:00.000000,1.52149167,2.34922516,3.53392631,31989,49392,74301,16899,28071,43086,0.80378671,1.33512194,2.04927511,0.15794583,0.21998737,0.36369443
48439,0,USTexasTarrant,Texas,Tarrant,2021-01-05 08:17:36.616910,2020-08-18 00:00:00.000000,1.51169285,2.33907738,3.59119612,31783,49179,75505,17182,27775,43602,0.81723576,1.32104990,2.07381151,0.15867092,0.21705664,0.36108005
48439,0,USTexasTarrant,Texas,Tarrant,2021-01-05 08:17:36.616910,2020-08-19 00:00:00.000000,1.55029195,2.34094623,3.64914881,32595,49218,76723,17140,27572,44173,0.81524076,1.31139954,2.10097599,0.15857969,0.21702736,0.35952046
48439,0,USTexasTarrant,Texas,Tarrant,2021-01-05 08:17:36.616910,2020-08-20 00:00:00.000000,1.58544762,2.34188418,3.70587862,33334,49238,77916,16934,27489,44787,0.80543252,1.30743809,2.13018510,0.15855441,0.21857327,0.35613431
48439,0,USTexasTarrant,Texas,Tarrant,2021-01-05 08:17:36.616910,2020-08-21 00:00:00.000000,1.58833046,2.34175339,3.75727428,33394,49235,78997,16930,27416,45429,0.80525304,1.30400511,2.16070742,0.15860309,0.21642211,0.34958909
48439,0,USTexasTarrant,Texas,Tarrant,2021-01-05 08:17:36.616910,2020-08-22 00:00:00.000000,1.58926375,2.33482777,3.79522030,33414,49090,79795,16799,27419,45926,0.79899636,1.30415120,2.18437131,0.15724815,0.21427574,0.33807669
48439,0,USTexasTarrant,Texas,Tarrant,2021-01-05 08:17:36.616910,2020-08-23 00:00:00.000000,1.58373913,2.31740720,3.81193526,33298,48723,80146,16608,27319,45724,0.78991736,1.29936230,2.17474963,0.15462035,0.21216399,0.33854914
48439,0,USTexasTarrant,Texas,Tarrant,2021-01-05 08:17:36.616910,2020-08-24 00:00:00.000000,1.58093271,2.28702855,3.76120293,33239,48085,79079,16408,27182,45430,0.78043858,1.29284824,2.16075483,0.15163750,0.20648654,0.33734447
48439,0,USTexasTarrant,Texas,Tarrant,2021-01-05 08:17:36.616910,2020-08-25 00:00:00.000000,1.57966291,2.25771365,3.70146378,33212,47468,77823,16202,26881,45042,0.77060909,1.27853542,2.14232445,0.14986172,0.20246248,0.32757988
48439,0,USTexasTarrant,Texas,Tarrant,2021-01-05 08:17:36.616910,2020-08-26 00:00:00.000000,1.57888517,2.23229327,3.63206067,33196,46934,76364,15990,26579,44561,0.76053904,1.26419647,2.11942104,0.14113400,0.19860608,0.32418820
48439,0,USTexasTarrant,Texas,Tarrant,2021-01-05 08:17:36.616910,2020-08-27 00:00:00.000000,1.57815741,2.20629813,3.55232347,33180,46387,74688,15776,26246,43979,0.75038343,1.24834537,2.09176991,0.13434126,0.19841877,0.28155794
48439,0,USTexasTarrant,Texas,Tarrant,2021-01-05 08:17:36.616910,2020-08-28 00:00:00.000000,1.57698174,2.19105468,3.46467884,33156,46067,72845,15668,26160,43292,0.74521007,1.24425939,2.05906270,0.12939741,0.19555137,0.27629625
48439,0,USTexasTarrant,Texas,Tarrant,2021-01-05 08:17:36.616910,2020-08-29 00:00:00.000000,1.57371660,2.17156105,3.37292111,33087,45657,70916,15579,26050,42502,0.74099910,1.23901641,2.02148959,0.12846185,0.19186569,0.27449727
48439,0,USTexasTarrant,Texas,Tarrant,2021-01-05 08:17:36.616910,2020-08-30 00:00:00.000000,1.56646433,2.14537771,3.27990211,32935,45106,68960,15487,25915,41626,0.73663746,1.23260963,1.97982666,0.12866944,0.19050107,0.27094710
48439,0,USTexasTarrant,Texas,Tarrant,2021-01-05 08:17:36.616910,2020-08-31 00:00:00.000000,1.55680177,2.12563140,3.18732672,32731,44691,67014,15388,25793,40685,0.73190351,1.22677880,1.93510214,0.12752198,0.18865132,0.27828389
48439,0,USTexasTarrant,Texas,Tarrant,2021-01-05 08:17:36.616910,2020-09-01 00:00:00.000000,1.53134921,2.11829407,3.09607296,32196,44537,65095,15280,25468,39702,0.72679383,1.21133491,1.88832246,0.12774631,0.19234457,0.28661257
48439,0,USTexasTarrant,Texas,Tarrant,2021-01-05 08:17:36.616910,2020-09-02 00:00:00.000000,1.50418169,2.08173939,3.00676187,31625,43768,63217,15166,25218,38693,0.72133593,1.19942891,1.84033637,0.12827440,0.19514861,0.29422884
48439,0,USTexasTarrant,Texas,Tarrant,2021-01-05 08:17:36.616910,2020-09-03 00:00:00.000000,1.47642990,2.06720280,2.91916775,31042,43463,61375,15056,25099,37726,0.71614140,1.19378548,1.79435339,0.12926961,0.19774349,0.29462539
48439,0,USTexasTarrant,Texas,Tarrant,2021-01-05 08:17:36.616910,2020-09-04 00:00:00.000000,1.44703800,2.03823215,2.86848717,30424,42854,60310,15119,24992,37297,0.71912355,1.18868222,1.77392446,0.13088273,0.19655127,0.31370906
48439,0,USTexasTarrant,Texas,Tarrant,2021-01-05 08:17:36.616910,2020-09-05 00:00:00.000000,1.40385315,2.03648699,2.86019993,29516,42817,60136,15222,24866,36967,0.72399039,1.18268035,1.75823077,0.13315301,0.19626545,0.31483013
48439,0,USTexasTarrant,Texas,Tarrant,2021-01-05 08:17:36.616910,2020-09-06 00:00:00.000000,1.36235462,2.02315087,2.84756107,28643,42537,59870,15343,24594,36933,0.72974645,1.16975560,1.75661259,0.13628843,0.19769529,0.31498505
48439,0,USTexasTarrant,Texas,Tarrant,2021-01-05 08:17:36.616910,2020-09-07 00:00:00.000000,1.37164621,2.01214484,2.83174337,28839,42305,59537,15477,24311,36861,0.73616165,1.15628531,1.75319466,0.13775175,0.20038802,0.31491378
48439,0,USTexasTarrant,Texas,Tarrant,2021-01-05 08:17:36.616910,2020-09-08 00:00:00.000000,1.37912552,1.98763856,2.81459453,28996,41790,59177,15623,24147,36750,0.74308935,1.14852591,1.74793135,0.13766932,0.20607598,0.31469368
48439,0,USTexasTarrant,Texas,Tarrant,2021-01-05 08:17:36.616910,2020-09-09 00:00:00.000000,1.38304366,1.96410705,2.80932545,29078,41295,59066,15676,24084,36607,0.74562632,1.14550133,1.74112664,0.13778813,0.21364653,0.30786729
48439,0,USTexasTarrant,Texas,Tarrant,2021-01-05 08:17:36.616910,2020-09-10 00:00:00.000000,1.38357978,1.94331101,2.82749163,29089,40858,59448,15319,24030,36443,0.72864382,1.14293332,1.73334192,0.13805016,0.21563232,0.30066112
48439,0,USTexasTarrant,Texas,Tarrant,2021-01-05 08:17:36.616910,2020-09-11 00:00:00.000000,1.35547265,1.92748889,2.80262498,28499,40525,58925,15364,23920,36276,0.73076730,1.13769558,1.72537617,0.14678723,0.22201709,0.30597262
48439,0,USTexasTarrant,Texas,Tarrant,2021-01-05 08:17:36.616910,2020-09-12 00:00:00.000000,1.32375956,1.92762304,2.78175694,27832,40528,58486,15384,23812,36120,0.73173025,1.13256548,1.71795853,0.14961968,0.22461648,0.30803116
48439,0,USTexasTarrant,Texas,Tarrant,2021-01-05 08:17:36.616910,2020-09-13 00:00:00.000000,1.29364853,1.93741252,2.77596467,27199,40734,58365,15264,23725,35981,0.72599154,1.12841068,1.71136805,0.15192989,0.23294006,0.31057296
48439,0,USTexasTarrant,Texas,Tarrant,2021-01-05 08:17:36.616910,2020-09-14 00:00:00.000000,1.26504645,1.94814452,2.77977322,26597,40960,58445,14986,23700,35859,0.71279432,1.12726811,1.70554414,0.15351374,0.24021933,0.33109276
48439,0,USTexasTarrant,Texas,Tarrant,2021-01-05 08:17:36.616910,2020-09-15 00:00:00.000000,1.23768746,1.95835128,2.78862200,26022,41174,58631,14762,23591,35704,0.70211513,1.12206371,1.69818637,0.15585571,0.24268393,0.34007327
48439,0,USTexasTarrant,Texas,Tarrant,2021-01-05 08:17:36.616910,2020-09-16 00:00:00.000000,1.21140814,1.96691777,2.80015991,25470,41354,58873,14604,23551,35498,0.69462347,1.12015694,1.68839142,0.16081920,0.24644725,0.34743449
48439,0,USTexasTarrant,Texas,Tarrant,2021-01-05 08:17:36.616910,2020-09-17 00:00:00.000000,1.21562016,1.97744764,2.81337058,25558,41576,59151,14366,23534,35389,0.68328910,1.11934250,1.68322212,0.16550972,0.24823460,0.35273323
48439,0,USTexasTarrant,Texas,Tarrant,2021-01-05 08:17:36.616910,2020-09-18 00:00:00.000000,1.23110809,1.97480350,2.82801860,25884,41520,59459,14062,23507,35469,0.66885070,1.11808628,1.68701979,0.16822065,0.24873253,0.36566502
48439,0,USTexasTarrant,Texas,Tarrant,2021-01-05 08:17:36.616910,2020-09-19 00:00:00.000000,1.24471746,1.96337007,2.84451968,26170,41280,59806,14217,23533,35580,0.67619153,1.11928637,1.69228103,0.17021127,0.25166231,0.39429626
48439,0,USTexasTarrant,Texas,Tarrant,2021-01-05 08:17:36.616910,2020-09-20 00:00:00.000000,1.25665061,1.96479159,2.86406295,26421,41310,60217,14377,23625,35809,0.68381284,1.12366998,1.70317094,0.20078675,0.25646829,0.40861091
48439,0,USTexasTarrant,Texas,Tarrant,2021-01-05 08:17:36.616910,2020-09-21 00:00:00.000000,1.26040002,1.98302264,2.88865475,26500,41693,60734,14535,23794,36047,0.69133067,1.13169575,1.71449084,0.19581632,0.25989194,0.40882608
48439,0,USTexasTarrant,Texas,Tarrant,2021-01-05 08:17:36.616910,2020-09-22 00:00:00.000000,1.27421291,2.00582708,2.92112452,26790,42172,61417,14683,24002,36291,0.69838885,1.14163151,1.72610952,0.19394387,0.26481895,0.40890969
48439,0,USTexasTarrant,Texas,Tarrant,2021-01-05 08:17:36.616910,2020-09-23 00:00:00.000000,1.29072063,2.03919027,2.96393206,27137,42874,62317,14787,24242,36541,0.70334214,1.15300136,1.73796653,0.19387453,0.27607022,0.40893648
48439,0,USTexasTarrant,Texas,Tarrant,2021-01-05 08:17:36.616910,2020-09-24 00:00:00.000000,1.30802594,2.05243572,3.01791478,27501,43152,63452,14886,24383,36797,0.70801544,1.15974057,1.75015847,0.19464100,0.27773376,0.40891876
48439,0,USTexasTarrant,Texas,Tarrant,2021-01-05 08:17:36.616910,2020-09-25 00:00:00.000000,1.32583766,2.06350243,3.06534077,27875,43385,64449,15034,24480,37074,0.71506562,1.16433932,1.76334384,0.19080645,0.27620859,0.41566715
48439,0,USTexasTarrant,Texas,Tarrant,2021-01-05 08:17:36.616910,2020-09-26 00:00:00.000000,1.34342244,2.05557913,3.07223341,28245,43218,64594,15203,24537,37412,0.72309184,1.16705036,1.77942486,0.18844522,0.27793767,0.42613816
48439,0,USTexasTarrant,Texas,Tarrant,2021-01-05 08:17:36.616910,2020-09-27 00:00:00.000000,1.35906808,2.08203557,3.09991671,28574,43775,65176,15313,24558,38007,0.72834710,1.16805191,1.80769433,0.17288361,0.28535305,0.42349466
48439,0,USTexasTarrant,Texas,Tarrant,2021-01-05 08:17:36.616910,2020-09-28 00:00:00.000000,1.37031998,2.09643649,3.16912668,28811,44077,66631,15411,24505,38736,0.73298719,1.16553615,1.84239939,0.17228241,0.28411655,0.41621029
48439,0,USTexasTarrant,Texas,Tarrant,2021-01-05 08:17:36.616910,2020-09-29 00:00:00.000000,1.37827789,2.09203045,3.23963388,28978,43985,68113,15492,24405,39261,0.73684972,1.16076062,1.86734717,0.17196792,0.28092858,0.40215472
48439,0,USTexasTarrant,Texas,Tarrant,2021-01-05 08:17:36.616910,2020-09-30 00:00:00.000000,1.37103981,2.11126967,3.31089835,28826,44389,69612,15556,24336,39748,0.73989184,1.15749081,1.89052574,0.17199137,0.27997950,0.38771869
48439,0,USTexasTarrant,Texas,Tarrant,2021-01-05 08:17:36.616910,2020-10-01 00:00:00.000000,1.35334526,2.14811653,3.38285288,28454,45164,71124,15597,24403,40518,0.74186563,1.16067034,1.92715157,0.17276359,0.28157045,0.38377741
48439,0,USTexasTarrant,Texas,Tarrant,2021-01-05 08:17:36.616910,2020-10-02 00:00:00.000000,1.33419540,2.16218309,3.45594953,28051,45460,72661,15616,24589,41329,0.74276081,1.16951212,1.96571966,0.17581811,0.28336237,0.39352077
48439,0,USTexasTarrant,Texas,Tarrant,2021-01-05 08:17:36.616910,2020-10-03 00:00:00.000000,1.31535231,2.19357486,3.53085032,27655,46120,74236,15614,24763,42174,0.74266043,1.17782710,2.00589111,0.18463457,0.28474518,0.39456133
48439,0,USTexasTarrant,Texas,Tarrant,2021-01-05 08:17:36.616910,2020-10-04 00:00:00.000000,1.30843384,2.20986261,3.60756562,27510,46462,75849,15524,24916,43049,0.73836861,1.18506658,2.04753214,0.18745023,0.28250995,0.40444213
48439,0,USTexasTarrant,Texas,Tarrant,2021-01-05 08:17:36.616910,2020-10-05 00:00:00.000000,1.30478538,2.21949695,3.66396754,27433,46665,77035,15376,25162,43954,0.73132611,1.19679956,2.09054990,0.18678312,0.27995372,0.42090960
48439,0,USTexasTarrant,Texas,Tarrant,2021-01-05 08:17:36.616910,2020-10-06 00:00:00.000000,1.32331739,2.22276363,3.70076161,27822,46733,77809,15258,25511,44580,0.72572753,1.21336441,2.12032905,0.18791361,0.27915387,0.42157258
48439,0,USTexasTarrant,Texas,Tarrant,2021-01-05 08:17:36.616910,2020-10-07 00:00:00.000000,1.34270504,2.21454525,3.73702616,28230,46561,78571,15233,25547,45115,0.72451824,1.21509718,2.14579227,0.19145628,0.28000452,0.43156753
48439,0,USTexasTarrant,Texas,Tarrant,2021-01-05 08:17:36.616910,2020-10-08 00:00:00.000000,1.36197667,2.21674488,3.77276495,28635,46607,79322,15383,25604,45627,0.73167214,1.21779901,2.17015893,0.19993325,0.28167512,0.43882522
48439,0,USTexasTarrant,Texas,Tarrant,2021-01-05 08:17:36.616910,2020-10-09 00:00:00.000000,1.38415035,2.24671798,3.80794915,29101,47237,80062,15504,25825,46121,0.73743106,1.22832837,2.19365834,0.20010952,0.28496930,0.43856557
48439,0,USTexasTarrant,Texas,Tarrant,2021-01-05 08:17:36.616910,2020-10-10 00:00:00.000000,1.41687006,2.28219295,3.84141746,29789,47983,80766,15744,26092,46601,0.74886103,1.24102311,2.21644782,0.20455294,0.28633744,0.43401257
48439,0,USTexasTarrant,Texas,Tarrant,2021-01-05 08:17:36.616910,2020-10-11 00:00:00.000000,1.45036963,2.31237497,3.87373451,30494,48618,81445,16009,26446,47067,0.76144645,1.25784857,2.23861446,0.20239724,0.27913249,0.42274476
48439,0,USTexasTarrant,Texas,Tarrant,2021-01-05 08:17:36.616910,2020-10-12 00:00:00.000000,1.48442728,2.34008602,3.90755644,31210,49200,82156,16200,26681,47519,0.77051264,1.26902299,2.26014384,0.19749029,0.28105321,0.42331451
48439,0,USTexasTarrant,Texas,Tarrant,2021-01-05 08:17:36.616910,2020-10-13 00:00:00.000000,1.51926577,2.37403275,3.94846894,31942,49914,83017,16374,26913,47955,0.77879012,1.28008229,2.28084266,0.19076129,0.28623671,0.43269839
48439,0,USTexasTarrant,Texas,Tarrant,2021-01-05 08:17:36.616910,2020-10-14 00:00:00.000000,1.55514496,2.38503368,3.98863079,32697,50145,83861,16529,27160,48345,0.78620090,1.29182563,2.29939524,0.19526256,0.29588670,0.43687947
48439,0,USTexasTarrant,Texas,Tarrant,2021-01-05 08:17:36.616910,2020-10-15 00:00:00.000000,1.59278291,2.39648887,4.02832315,33488,50386,84696,16669,27549,48839,0.79281959,1.31031931,2.32289377,0.20814157,0.30261811,0.43837201
48439,0,USTexasTarrant,Texas,Tarrant,2021-01-05 08:17:36.616910,2020-10-16 00:00:00.000000,1.63369764,2.43346814,4.06741097,34348,51164,85517,16797,28070,49458,0.79894551,1.33506963,2.35235702,0.20900995,0.30568463,0.43899116
48439,0,USTexasTarrant,Texas,Tarrant,2021-01-05 08:17:36.616910,2020-10-17 00:00:00.000000,1.68000329,2.47945519,4.10576158,35322,52130,86324,16931,28649,50045,0.80530067,1.36265060,2.38028860,0.20906687,0.31263181,0.43930855
48439,0,USTexasTarrant,Texas,Tarrant,2021-01-05 08:17:36.616910,2020-10-18 00:00:00.000000,1.71243644,2.52253425,4.16390479,36004,53036,87546,17105,29180,50607,0.81357566,1.38789559,2.40698414,0.20930688,0.31509543,0.44661259
48439,0,USTexasTarrant,Texas,Tarrant,2021-01-05 08:17:36.616910,2020-10-19 00:00:00.000000,1.74607374,2.56187399,4.24031768,36711,53863,89153,17357,29631,51147,0.82553566,1.40933985,2.43266979,0.21011301,0.31202503,0.47825633
48439,0,USTexasTarrant,Texas,Tarrant,2021-01-05 08:17:36.616910,2020-10-20 00:00:00.000000,1.79282502,2.61040592,4.31698878,37694,54884,90765,17702,30006,51670,0.84195519,1.42719281,2.45756816,0.21887546,0.31647986,0.48765585
48439,0,USTexasTarrant,Texas,Tarrant,2021-01-05 08:17:36.616910,2020-10-21 00:00:00.000000,1.84895718,2.66153304,4.39321961,38874,55959,92368,18133,30218,52180,0.86248432,1.43724647,2.48179717,0.22930079,0.32378431,0.48818671
48439,0,USTexasTarrant,Texas,Tarrant,2021-01-05 08:17:36.616910,2020-10-22 00:00:00.000000,1.90903998,2.71607160,4.46977650,40137,57105,93977,18642,30562,53016,0.88666214,1.45361007,2.52157293,0.23847595,0.32660403,0.48885261
48439,0,USTexasTarrant,Texas,Tarrant,2021-01-05 08:17:36.616910,2020-10-23 00:00:00.000000,1.95124023,2.78375830,4.54756915,41025,58528,95613,19220,31023,53903,0.91417522,1.47555218,2.56375238,0.24388372,0.33420287,0.49580540
48439,0,USTexasTarrant,Texas,Tarrant,2021-01-05 08:17:36.616910,2020-10-24 00:00:00.000000,1.96522180,2.84466893,4.59047373,41319,59809,96515,19860,31605,54818,0.94460737,1.50323954,2.60726002,0.25083519,0.34187034,0.49398870
48439,0,USTexasTarrant,Texas,Tarrant,2021-01-05 08:17:36.616910,2020-10-25 00:00:00.000000,1.98410064,2.94800486,4.71041963,41716,61982,99037,20550,32269,55765,0.97742672,1.53479360,2.65233985,0.26215870,0.34934125,0.49495807
48439,0,USTexasTarrant,Texas,Tarrant,2021-01-05 08:17:36.616910,2020-10-26 00:00:00.000000,2.02868232,3.01472148,4.82299031,42653,63384,101404,20991,33005,56774,0.99841213,1.56982111,2.70032516,0.26716306,0.35633766,0.49055227
48439,0,USTexasTarrant,Texas,Tarrant,2021-01-05 08:17:36.616910,2020-10-27 00:00:00.000000,2.09704495,3.07787180,4.92412747,44090,64712,103530,21466,33998,57992,1.02097623,1.61705685,2.75822328,0.27220723,0.35986434,0.49908775
48439,0,USTexasTarrant,Texas,Tarrant,2021-01-05 08:17:36.616910,2020-10-28 00:00:00.000000,2.16519515,3.16067064,5.02650557,45523,66453,105683,21974,35220,59251,1.04515935,1.67516441,2.81814220,0.27789884,0.36244012,0.50535568
48439,0,USTexasTarrant,Texas,Tarrant,2021-01-05 08:17:36.616910,2020-10-29 00:00:00.000000,2.20153399,3.26542008,5.14316300,46287,68655,108135,22586,36088,60543,1.07425249,1.71642568,2.87955831,0.27895735,0.36484028,0.51215243
48439,0,USTexasTarrant,Texas,Tarrant,2021-01-05 08:17:36.616910,2020-10-30 00:00:00.000000,2.25580354,3.34886868,5.27750517,47428,70410,110960,23239,36837,61856,1.10532508,1.75206569,2.94203235,0.27917955,0.37029783,0.52585924
48439,0,USTexasTarrant,Texas,Tarrant,2021-01-05 08:17:36.616910,2020-10-31 00:00:00.000000,2.31215832,3.43836740,5.43455296,48613,72292,114262,23959,37691,63185,1.13957043,1.79268658,3.00525029,0.28597530,0.37994795,0.53447778
48439,0,USTexasTarrant,Texas,Tarrant,2021-01-05 08:17:36.616910,2020-11-01 00:00:00.000000,2.35291024,3.54942019,5.59182905,49470,74627,117569,24326,38991,64525,1.15700299,1.85453048,3.06897568,0.29382706,0.38528377,0.54117353
48439,0,USTexasTarrant,Texas,Tarrant,2021-01-05 08:17:36.616910,2020-11-02 00:00:00.000000,2.41020833,3.67708617,5.72689727,50674,77311,120408,24899,40461,65872,1.18428713,1.92443946,3.13301070,0.29421872,0.39416144,0.54621792
48439,0,USTexasTarrant,Texas,Tarrant,2021-01-05 08:17:36.616910,2020-11-03 00:00:00.000000,2.46720498,3.81175782,5.86347517,51873,80142,123280,25499,42032,67258,1.21282951,1.99913210,3.19897488,0.29131408,0.39892580,0.55535412
48439,0,USTexasTarrant,Texas,Tarrant,2021-01-05 08:17:36.616910,2020-11-04 00:00:00.000000,2.52309854,3.94535013,6.00114471,53048,82951,126174,26100,43189,68936,1.24139418,2.05417345,3.27878268,0.29311110,0.39939072,0.55793659
48439,0,USTexasTarrant,Texas,Tarrant,2021-01-05 08:17:36.616910,2020-11-05 00:00:00.000000,2.59882172,4.07511420,6.13960041,54640,85679,129086,26733,44461,70843,1.27151039,2.11468520,3.36944759,0.29497940,0.39884386,0.55681491
48439,0,USTexasTarrant,Texas,Tarrant,2021-01-05 08:17:36.616910,2020-11-06 00:00:00.000000,2.67664048,4.19134044,6.27858552,56276,88123,132008,27724,45853,72882,1.31865563,2.18088929,3.46645413,0.29463021,0.39923969,0.55370648
48439,0,USTexasTarrant,Texas,Tarrant,2021-01-05 08:17:36.616910,2020-11-07 00:00:00.000000,2.73189988,4.31956469,6.41781550,57438,90819,134935,28763,47221,74996,1.36804870,2.24594313,3.56697474,0.29422232,0.40389799,0.55788418
48439,0,USTexasTarrant,Texas,Tarrant,2021-01-05 08:17:36.616910,2020-11-08 00:00:00.000000,2.81412750,4.45207150,6.55672390,59167,93605,137856,29839,48579,77116,1.41923737,2.31055890,3.66781233,0.29152057,0.40610455,0.57574368
48439,0,USTexasTarrant,Texas,Tarrant,2021-01-05 08:17:36.616910,2020-11-09 00:00:00.000000,2.90787846,4.59003127,6.70639757,61138,96506,141003,30952,49947,79537,1.47216807,2.37562126,3.78298205,0.29045774,0.40419173,0.59160341
48439,0,USTexasTarrant,Texas,Tarrant,2021-01-05 08:17:36.616910,2020-11-10 00:00:00.000000,3.01324196,4.72576246,6.92270494,63353,99359,145550,32006,51289,81320,1.52229087,2.43944928,3.86778883,0.29034482,0.40202719,0.61236177
48439,0,USTexasTarrant,Texas,Tarrant,2021-01-05 08:17:36.616910,2020-11-11 00:00:00.000000,3.12135474,4.87021560,7.15421432,65626,102397,150418,33265,52626,83261,1.58215341,2.50302365,3.96010494,0.28362743,0.39869372,0.62068994
48439,0,USTexasTarrant,Texas,Tarrant,2021-01-05 08:17:36.616910,2020-11-12 00:00:00.000000,3.23151423,5.02347347,7.39077632,67943,105619,155392,34481,53939,87063,1.64001024,2.56547941,4.14093790,0.28478770,0.39823847,0.61116726
48439,0,USTexasTarrant,Texas,Tarrant,2021-01-05 08:17:36.616910,2020-11-13 00:00:00.000000,3.33969084,5.11492055,7.61576283,70217,107541,160122,35721,55315,89949,1.69896805,2.63091254,4.27817648,0.28542956,0.39211366,0.57981743
48439,0,USTexasTarrant,Texas,Tarrant,2021-01-05 08:17:36.616910,2020-11-14 00:00:00.000000,3.43326538,5.23383723,7.81584559,72184,110042,164329,36997,56554,92063,1.75966042,2.68983638,4.37872230,0.27928237,0.38268246,0.54178777
48439,0,USTexasTarrant,Texas,Tarrant,2021-01-05 08:17:36.616910,2020-11-15 00:00:00.000000,3.50945804,5.33953613,7.95886680,73786,112264,167336,38213,58089,94119,1.81749814,2.76285228,4.47652857,0.28042261,0.37160010,0.55303836
48439,0,USTexasTarrant,Texas,Tarrant,2021-01-05 08:17:36.616910,2020-11-16 00:00:00.000000,3.57905623,5.42550955,8.09574458,75250,114072,170214,39320,59487,96106,1.87017165,2.82934965,4.57103945,0.26840357,0.36110317,0.56134140
48439,0,USTexasTarrant,Texas,Tarrant,2021-01-05 08:17:36.616910,2020-11-17 00:00:00.000000,3.64509271,5.51136325,8.22642612,76638,115877,172961,40333,60838,98017,1.91835688,2.89358728,4.66194057,0.26586863,0.36086361,0.57979659
48439,0,USTexasTarrant,Texas,Tarrant,2021-01-05 08:17:36.616910,2020-11-18 00:00:00.000000,3.70536959,5.63188051,8.35076139,77905,118411,175576,41269,61708,99850,1.96287381,2.93499090,4.74908803,0.27194240,0.36183145,0.57799224
48439,0,USTexasTarrant,Texas,Tarrant,2021-01-05 08:17:36.616910,2020-11-19 00:00:00.000000,3.75576430,5.78010787,8.46823074,78965,121527,178045,42132,62628,102267,2.00389328,2.97873026,4.86405833,0.27252579,0.36133377,0.57068233
48439,0,USTexasTarrant,Texas,Tarrant,2021-01-05 08:17:36.616910,2020-11-20 00:00:00.000000,3.78186237,5.89407715,8.57761131,79514,123923,180345,42907,63627,104777,2.04076650,3.02624336,4.98342817,0.26206395,0.36205290,0.56498405
48439,0,USTexasTarrant,Texas,Tarrant,2021-01-05 08:17:36.616910,2020-11-21 00:00:00.000000,3.86434433,5.97547620,8.67728072,81248,125635,182441,43574,65143,107111,2.07249189,3.09834948,5.09444224,0.25935383,0.35900541,0.56297507
48439,0,USTexasTarrant,Texas,Tarrant,2021-01-05 08:17:36.616910,2020-11-22 00:00:00.000000,3.96913437,6.10767707,8.76672381,83451,128414,184321,44122,67001,108710,2.09858107,3.18673995,5.17049298,0.24217603,0.35602559,0.56291288
48439,0,USTexasTarrant,Texas,Tarrant,2021-01-05 08:17:36.616910,2020-11-23 00:00:00.000000,4.08767809,6.22505018,8.84745855,85944,130882,186019,45035,68741,109037,2.14200218,3.26948406,5.18605959,0.23656222,0.35504841,0.56383669
48439,0,USTexasTarrant,Texas,Tarrant,2021-01-05 08:17:36.616910,2020-11-24 00:00:00.000000,4.21697615,6.30418330,8.92196265,88662,132546,187585,46772,69833,109228,2.22461352,3.32143166,5.19512741,0.23605423,0.35901715,0.56474713
48439,0,USTexasTarrant,Texas,Tarrant,2021-01-05 08:17:36.616910,2020-11-25 00:00:00.000000,4.34914710,6.34424224,8.99348082,91441,133388,189089,48570,70845,110355,2.31011269,3.36954703,5.24873922,0.23608250,0.36108316,0.56250622
48439,0,USTexasTarrant,Texas,Tarrant,2021-01-05 08:17:36.616910,2020-11-26 00:00:00.000000,4.47127117,6.40408847,9.06780088,94009,134646,190651,50367,71841,111503,2.39557190,3.41692658,5.30333791,0.23619638,0.36108043,0.55716158
48439,0,USTexasTarrant,Texas,Tarrant,2021-01-05 08:17:36.616910,2020-11-27 00:00:00.000000,4.48488734,6.45528510,9.15662038,94295,135723,192519,51406,73330,112600,2.44501354,3.48775853,5.35552117,0.23636690,0.35929600,0.54153479
48439,0,USTexasTarrant,Texas,Tarrant,2021-01-05 08:17:36.616910,2020-11-28 00:00:00.000000,4.49557944,6.51958761,9.27672196,94520,137075,195044,51979,74159,113709,2.47224071,3.52718475,5.40824867,0.23659668,0.35825682,0.54145524
48439,0,USTexasTarrant,Texas,Tarrant,2021-01-05 08:17:36.616910,2020-11-29 00:00:00.000000,4.50560704,6.59268588,9.43814530,94731,138612,198438,52441,75083,114931,2.49424188,3.57113379,5.46637366,0.23688631,0.35544528,0.54965524
48439,0,USTexasTarrant,Texas,Tarrant,2021-01-05 08:17:36.616910,2020-11-30 00:00:00.000000,4.51511211,6.67777359,9.63292774,94930,140401,202533,52987,76084,116375,2.52017688,3.61875385,5.53506499,0.23723751,0.35456741,0.55782672
48439,0,USTexasTarrant,Texas,Tarrant,2021-01-05 08:17:36.616910,2020-12-01 00:00:00.000000,4.52411339,6.76174653,9.84454607,95120,142166,206983,53399,77013,118095,2.53978976,3.66294040,5.61685998,0.23766367,0.35390252,0.56415787
48439,0,USTexasTarrant,Texas,Tarrant,2021-01-05 08:17:36.616910,2020-12-02 00:00:00.000000,4.53278727,6.83983360,10.06118300,95302,143808,211537,53707,77756,120074,2.55443219,3.69828494,5.71097464,0.23929176,0.35414660,0.56801917
48439,0,USTexasTarrant,Texas,Tarrant,2021-01-05 08:17:36.616910,2020-12-03 00:00:00.000000,4.54156048,6.95051873,10.27718645,95486,146135,216079,53969,78373,122259,2.56689624,3.72759822,5.81492470,0.24206965,0.35640722,0.56469009
48439,0,USTexasTarrant,Texas,Tarrant,2021-01-05 08:17:36.616910,2020-12-04 00:00:00.000000,4.55155199,7.03000777,10.49045603,95697,147806,220563,54174,78973,124594,2.57663390,3.75615731,5.92597631,0.24537030,0.36503484,0.55619576
48439,0,USTexasTarrant,Texas,Tarrant,2021-01-05 08:17:36.616910,2020-12-05 00:00:00.000000,4.56489315,7.07701045,10.70086015,95977,148795,224987,54296,79639,127029,2.58244324,3.78780812,6.04179267,0.25252777,0.36941620,0.54855762
48439,0,USTexasTarrant,Texas,Tarrant,2021-01-05 08:17:36.616910,2020-12-06 00:00:00.000000,4.58360077,7.03179986,10.90958023,96370,147844,229375,54304,80750,129527,2.58284915,3.84064826,6.16060928,0.24954936,0.37207126,0.54696771
48439,0,USTexasTarrant,Texas,Tarrant,2021-01-05 08:17:36.616910,2020-12-07 00:00:00.000000,4.69424759,7.01606004,11.11786197,98697,147513,233754,54868,81827,130831,2.60965281,3.89188907,6.22260389,0.25363952,0.38409443,0.54781804
48439,0,USTexasTarrant,Texas,Tarrant,2021-01-05 08:17:36.616910,2020-12-08 00:00:00.000000,4.82452271,7.04562268,11.32488043,101436,148135,238107,55677,82324,131486,2.64813014,3.91551887,6.25376320,0.25432223,0.39029914,0.54937742
48439,0,USTexasTarrant,Texas,Tarrant,2021-01-05 08:17:36.616910,2020-12-09 00:00:00.000000,4.92569928,7.08839006,11.52801244,103563,149034,242378,56531,82388,132253,2.68876335,3.91856333,6.29023378,0.25721848,0.39244423,0.55066146
48439,0,USTexasTarrant,Texas,Tarrant,2021-01-05 08:17:36.616910,2020-12-10 00:00:00.000000,4.87878000,7.13008612,11.72655923,102577,149911,246552,57419,82414,133179,2.73101442,3.91978884,6.33431148,0.26001471,0.39780983,0.55249591
48439,0,USTexasTarrant,Texas,Tarrant,2021-01-05 08:17:36.616910,2020-12-11 00:00:00.000000,4.85944703,7.18957776,11.94470107,102170,151161,251139,57423,82565,134190,2.73118344,3.92699558,6.38237804,0.27335219,0.40072885,0.56520513
48439,0,USTexasTarrant,Texas,Tarrant,2021-01-05 08:17:36.616910,2020-12-12 00:00:00.000000,4.86363942,7.23626216,12.11756484,102258,152143,254773,57009,83292,135222,2.71150611,3.96156659,6.43146411,0.28176330,0.41200454,0.58370671
48439,0,USTexasTarrant,Texas,Tarrant,2021-01-05 08:17:36.616910,2020-12-13 00:00:00.000000,4.93389317,7.35544334,12.28466841,103735,154649,258286,56816,84090,136224,2.70231535,3.99951466,6.47910483,0.28331263,0.42979087,0.58888574
48439,0,USTexasTarrant,Texas,Tarrant,2021-01-05 08:17:36.616910,2020-12-14 00:00:00.000000,4.92726139,7.42098825,12.40230438,103596,156027,260760,56792,85624,137038,2.70115247,4.07250261,6.51785768,0.28313712,0.44263120,0.62553448
48439,0,USTexasTarrant,Texas,Tarrant,2021-01-05 08:17:36.616910,2020-12-15 00:00:00.000000,5.00723307,7.51397379,12.39999572,105277,157982,260711,57176,86912,139092,2.71942457,4.13375208,6.61551155,0.28354407,0.46321364,0.68244675
48439,0,USTexasTarrant,Texas,Tarrant,2021-01-05 08:17:36.616910,2020-12-16 00:00:00.000000,5.09499307,7.68626823,12.51588128,107122,161604,263148,56922,88297,143136,2.70734768,4.19963503,6.80788248,0.28595700,0.48487464,0.72063859
48439,0,USTexasTarrant,Texas,Tarrant,2021-01-05 08:17:36.616910,2020-12-17 00:00:00.000000,5.18902177,7.87807950,12.83567012,109099,165637,269871,57006,90025,147394,2.71134607,4.28180584,7.01038915,0.29670196,0.49381501,0.79979741
48439,0,USTexasTarrant,Texas,Tarrant,2021-01-05 08:17:36.616910,2020-12-18 00:00:00.000000,5.28798281,8.09037763,13.20331566,111180,170101,277601,57088,91378,151804,2.71525767,4.34615803,7.22016180,0.31825761,0.49985476,0.84258236
48439,0,USTexasTarrant,Texas,Tarrant,2021-01-05 08:17:36.616910,2020-12-19 00:00:00.000000,5.39080847,8.26431895,13.54491591,113342,173758,284783,57177,93075,156336,2.71947631,4.42684447,7.43570232,0.32524420,0.50924495,0.85628821
48439,0,USTexasTarrant,Texas,Tarrant,2021-01-05 08:17:36.616910,2020-12-20 00:00:00.000000,5.49709256,8.39941007,13.80606740,115577,176598,290274,57312,95121,160969,2.72590713,4.52416754,7.65602666,0.32699531,0.51654900,0.85097175
48439,0,USTexasTarrant,Texas,Tarrant,2021-01-05 08:17:36.616910,2020-12-21 00:00:00.000000,5.60977041,8.61616054,14.07131042,117946,181156,295851,57586,96805,165672,2.73891605,4.60427492,7.87972150,0.32950007,0.53574889,0.85747401
48439,0,USTexasTarrant,Texas,Tarrant,2021-01-05 08:17:36.616910,2020-12-22 00:00:00.000000,5.75442355,8.91503194,14.42880760,120987,187439,303367,58139,98441,168783,2.76522105,4.68209786,8.02767180,0.33277371,0.56751435,0.88139146
48439,0,USTexasTarrant,Texas,Tarrant,2021-01-05 08:17:36.616910,2020-12-23 00:00:00.000000,6.00210372,9.25078477,14.72983524,126195,194499,309696,59088,100185,171701,2.81039248,4.76502303,8.16649001,0.33853514,0.57546981,0.90760258
48439,0,USTexasTarrant,Texas,Tarrant,2021-01-05 08:17:36.616910,2020-12-24 00:00:00.000000,6.31181897,9.55872136,14.95347140,132706,200973,314398,60455,102384,174446,2.87537493,4.86960029,8.29703494,0.33937688,0.58253800,0.94020542
48439,0,USTexasTarrant,Texas,Tarrant,2021-01-05 08:17:36.616910,2020-12-25 00:00:00.000000,6.63507153,9.90069424,15.14140331,139503,208163,318350,62209,104620,176944,2.95879411,4.97597031,8.41586681,0.34303699,0.61370086,0.95858597
48439,0,USTexasTarrant,Texas,Tarrant,2021-01-05 08:17:36.616910,2020-12-26 00:00:00.000000,6.95479897,10.14119089,15.28079207,146225,213220,321280,64381,107001,179131,3.06210192,5.08923698,8.51986526,0.34528286,0.63817820,0.91997712
48439,0,USTexasTarrant,Texas,Tarrant,2021-01-05 08:17:36.616910,2020-12-27 00:00:00.000000,7.17729683,10.34303692,15.36219496,150903,217463,322992,67095,110037,180947,3.19119186,5.23359605,8.60622583,0.34640672,0.65241043,0.94512898
48439,0,USTexasTarrant,Texas,Tarrant,2021-01-05 08:17:36.616910,2020-12-28 00:00:00.000000,7.32225426,10.51326275,15.38946355,153951,221042,323565,70442,113524,182339,3.35038361,5.39948465,8.67246590,0.35844195,0.62524160,0.96606591
48439,0,USTexasTarrant,Texas,Tarrant,2021-01-05 08:17:36.616910,2020-12-29 00:00:00.000000,7.41899168,10.75498220,15.36174022,155985,226125,322982,74264,118001,183242,3.53219097,5.61241035,8.71541485,0.35875198,0.61870764,1.02201771
48439,0,USTexasTarrant,Texas,Tarrant,2021-01-05 08:17:36.616910,2020-12-30 00:00:00.000000,7.50282474,10.97000404,15.25390461,157748,230645,320715,78377,122115,183618,3.72781361,5.80808493,8.73328888,0.35887566,0.61733957,1.00635041
48439,0,USTexasTarrant,Texas,Tarrant,2021-01-05 08:17:36.616910,2020-12-31 00:00:00.000000,7.73276044,11.26848768,15.21296312,162582,236921,319854,82567,124827,183494,3.92707503,5.93705748,8.72738522,0.35893140,0.61337494,1.10677295
48439,0,USTexasTarrant,Texas,Tarrant,2021-01-05 08:17:36.616910,2021-01-01 00:00:00.000000,7.85864781,11.56740330,15.64765991,165229,243206,328994,82276,127310,186543,3.91323245,6.05513251,8.87239296,0.35904824,0.61149568,1.10418244
48439,0,USTexasTarrant,Texas,Tarrant,2021-01-05 08:17:36.616910,2021-01-02 00:00:00.000000,7.98665507,11.73862822,15.91235391,167920,246806,334559,82514,130198,193538,3.92458178,6.19250183,9.20510444,0.34876249,0.60805558,1.08239924
48439,0,USTexasTarrant,Texas,Tarrant,2021-01-05 08:17:36.616910,2021-01-03 00:00:00.000000,8.10236935,11.87479157,16.22040136,170353,249669,341036,86317,133756,193994,4.10544372,6.36176173,9.22676335,0.34283436,0.63425344,1.06310093
48439,0,USTexasTarrant,Texas,Tarrant,2021-01-05 08:17:36.616910,2021-01-04 00:00:00.000000,8.20259627,12.08712096,16.45738128,172460,254133,346018,90160,135934,194601,4.28822962,6.46532751,9.25565761,0.34083421,0.64929989,1.11094684
48439,0,USTexasTarrant,Texas,Tarrant,2021-01-05 08:17:36.616910,2021-01-05 00:00:00.000000,8.29688532,12.29500288,16.99054552,174443,258504,357228,93749,137962,199944,4.45890534,6.56179688,9.50977565,0.34034089,0.62691663,1.12375427
48439,0,USTexasTarrant,Texas,Tarrant,2021-01-05 08:17:36.616910,2021-01-06 00:00:00.000000,8.38634913,12.54690060,17.32249877,176324,263800,364208,95000,141417,205162,4.51840966,6.72612490,9.75795232,0.34022634,0.62645713,1.13776961
48439,0,USTexasTarrant,Texas,Tarrant,2021-01-05 08:17:36.616910,2021-01-07 00:00:00.000000,8.47086031,12.76534030,17.61114298,178101,268393,370276,95730,144107,210146,4.55316517,6.85406201,9.99500229,0.34019978,0.62407934,1.14757697
48439,0,USTexasTarrant,Texas,Tarrant,2021-01-05 08:17:36.616910,2021-01-08 00:00:00.000000,8.55023295,12.70597091,18.01933135,179769,267144,378859,95136,147627,211561,4.52488807,7.02145469,10.06229977,0.34019386,0.62441249,1.14851610
48439,0,USTexasTarrant,Texas,Tarrant,2021-01-05 08:17:36.616910,2021-01-09 00:00:00.000000,8.60656157,12.63279968,18.37960629,180954,265606,386433,94423,149514,211764,4.49099390,7.11123941,10.07197162,0.34019273,0.62455121,1.14861805
48439,0,USTexasTarrant,Texas,Tarrant,2021-01-05 08:17:36.616910,2021-01-10 00:00:00.000000,8.47608137,12.76244733,18.68553701,178210,268332,392866,94364,149597,211634,4.48818770,7.11516764,10.06577717,0.34019264,0.62460801,1.14865151
48439,0,USTexasTarrant,Texas,Tarrant,2021-01-05 08:17:36.616910,2021-01-11 00:00:00.000000,8.34070293,12.81251590,18.93388717,175364,269385,398087,94923,151052,211160,4.51474774,7.18439046,10.04325406,0.34019274,0.62463110,1.14866398
48439,0,USTexasTarrant,Texas,Tarrant,2021-01-05 08:17:36.616910,2021-01-12 00:00:00.000000,8.32812887,12.67657668,19.12212097,175100,266526,402045,93404,152023,214100,4.44253549,7.23054085,10.18305156,0.34019283,0.62464046,1.14866902
48439,0,USTexasTarrant,Texas,Tarrant,2021-01-05 08:17:36.616910,2021-01-13 00:00:00.000000,8.33033481,12.80512864,19.63991101,175146,269229,412932,91756,150995,223880,4.36410739,7.18165362,10.64820100,0.34019291,0.62464425,1.14867115
48439,0,USTexasTarrant,Texas,Tarrant,2021-01-05 08:17:36.616910,2021-01-14 00:00:00.000000,8.30319920,12.71609237,20.25627830,174576,267357,425891,89998,151353,233545,4.28049472,7.19866511,11.10793101,0.34019296,0.62464578,1.14867207
48439,0,USTexasTarrant,Texas,Tarrant,2021-01-05 08:17:36.616910,2021-01-15 00:00:00.000000,8.13535956,12.64509850,20.36852039,171047,265865,428251,88148,151923,235677,4.19253336,7.22581852,11.20930838,0.34019299,0.62464641,1.14867247
48439,0,USTexasTarrant,Texas,Tarrant,2021-01-05 08:17:36.616910,2021-01-16 00:00:00.000000,7.95960426,12.62400755,20.32293350,167351,265421,427292,86222,150488,236666,4.10092135,7.15754921,11.25637586,0.34019301,0.62464666,1.14867264
48439,0,USTexasTarrant,Texas,Tarrant,2021-01-05 08:17:36.616910,2021-01-17 00:00:00.000000,7.77682201,12.43739413,20.06850420,163508,261498,421943,84232,147919,237087,4.00625895,7.03536747,11.27638081,0.34019302,0.62464676,1.14867272
