FIPS,HR_UID,nameid,province,region,analysisTime,dates,pointprevalence_025,pointprevalence_50,pointprevalence_975,pointinfections_025,pointinfections_50,pointinfections_975,pointinfectious_025,pointinfectious_50,pointinfectious_975,pointinfectiousprevalence_05,pointinfectiousprevalence_50,pointinfectiousprevalence_95,infectrate_025,infectrate_50,infectrate_975
20065,0,USKansasGraham,Kansas,Graham,2021-01-05 21:51:10.311034,2020-03-09 00:00:00.000000,0.00429053,0.02774959,0.15694028,0,0,3,0,0,2,0.00229657,0.01628094,0.09963450,0.44608282,0.55489841,0.74973418
20065,0,USKansasGraham,Kansas,Graham,2021-01-05 21:51:10.311034,2020-03-10 00:00:00.000000,0.00512466,0.03141589,0.16563605,0,0,4,0,0,2,0.00232894,0.01516339,0.09487423,0.44608082,0.55487489,0.74973384
20065,0,USKansasGraham,Kansas,Graham,2021-01-05 21:51:10.311034,2020-03-11 00:00:00.000000,0.00592493,0.03504980,0.17957338,0,0,4,0,0,2,0.00246211,0.01605740,0.09300872,0.44607558,0.55482340,0.74973244
20065,0,USKansasGraham,Kansas,Graham,2021-01-05 21:51:10.311034,2020-03-12 00:00:00.000000,0.00671728,0.03939183,0.19833840,0,0,4,0,0,2,0.00270182,0.01757362,0.09328107,0.44606004,0.55471077,0.74972685
20065,0,USKansasGraham,Kansas,Graham,2021-01-05 21:51:10.311034,2020-03-13 00:00:00.000000,0.00752022,0.04395929,0.22087751,0,1,5,0,0,2,0.00301133,0.01928549,0.10001856,0.44600905,0.55446509,0.74970438
20065,0,USKansasGraham,Kansas,Graham,2021-01-05 21:51:10.311034,2020-03-14 00:00:00.000000,0.00834768,0.04882611,0.24462483,0,1,6,0,0,2,0.00336930,0.02125250,0.10720725,0.44583013,0.55373111,0.74961408
20065,0,USKansasGraham,Kansas,Graham,2021-01-05 21:51:10.311034,2020-03-15 00:00:00.000000,0.00921080,0.05395375,0.26984533,0,1,6,0,0,2,0.00376393,0.02348666,0.11991202,0.44517998,0.54771953,0.74925178
20065,0,USKansasGraham,Kansas,Graham,2021-01-05 21:51:10.311034,2020-03-16 00:00:00.000000,0.00988814,0.05825369,0.29678322,0,1,7,0,0,3,0.00418934,0.02588735,0.13344575,0.44029119,0.54464717,0.74780624
20065,0,USKansasGraham,Kansas,Graham,2021-01-05 21:51:10.311034,2020-03-17 00:00:00.000000,0.01052010,0.06279696,0.32567019,0,1,8,0,0,3,0.00464335,0.02845146,0.14782829,0.43404262,0.53363726,0.74216474
20065,0,USKansasGraham,Kansas,Graham,2021-01-05 21:51:10.311034,2020-03-18 00:00:00.000000,0.01118088,0.06868911,0.35671849,0,1,8,0,0,4,0.00512606,0.03178314,0.16315179,0.41119461,0.52729369,0.73155658
20065,0,USKansasGraham,Kansas,Graham,2021-01-05 21:51:10.311034,2020-03-19 00:00:00.000000,0.01186315,0.07615047,0.39002538,0,1,9,0,0,4,0.00556969,0.03573285,0.17952308,0.39883663,0.51044320,0.70679340
20065,0,USKansasGraham,Kansas,Graham,2021-01-05 21:51:10.311034,2020-03-20 00:00:00.000000,0.01254654,0.08275122,0.42499433,0,2,10,0,0,4,0.00594161,0.03969536,0.19703020,0.39643713,0.49877346,0.63285751
20065,0,USKansasGraham,Kansas,Graham,2021-01-05 21:51:10.311034,2020-03-21 00:00:00.000000,0.01319953,0.08888924,0.46050162,0,2,11,0,1,5,0.00632035,0.04308938,0.21558991,0.37547060,0.49408754,0.61224341
20065,0,USKansasGraham,Kansas,Graham,2021-01-05 21:51:10.311034,2020-03-22 00:00:00.000000,0.01380548,0.09503898,0.49773752,0,2,12,0,1,5,0.00669633,0.04639447,0.23489110,0.32536981,0.47600351,0.58853488
20065,0,USKansasGraham,Kansas,Graham,2021-01-05 21:51:10.311034,2020-03-23 00:00:00.000000,0.01475429,0.10090123,0.53747255,0,2,13,0,1,6,0.00706013,0.04981749,0.25501424,0.32362685,0.45697427,0.58224299
20065,0,USKansasGraham,Kansas,Graham,2021-01-05 21:51:10.311034,2020-03-24 00:00:00.000000,0.01621410,0.10717120,0.57925556,0,2,14,0,1,6,0.00740844,0.05325392,0.27619789,0.31140925,0.44187745,0.58172581
20065,0,USKansasGraham,Kansas,Graham,2021-01-05 21:51:10.311034,2020-03-25 00:00:00.000000,0.01781358,0.11411203,0.61901234,0,2,15,0,1,7,0.00814203,0.05665144,0.29848781,0.27409324,0.44065307,0.58037494
20065,0,USKansasGraham,Kansas,Graham,2021-01-05 21:51:10.311034,2020-03-26 00:00:00.000000,0.01956071,0.12087616,0.64458111,0,3,15,0,1,7,0.00895994,0.05952562,0.32097415,0.27128111,0.42063823,0.55855626
20065,0,USKansasGraham,Kansas,Graham,2021-01-05 21:51:10.311034,2020-03-27 00:00:00.000000,0.02145486,0.12782632,0.65454813,0,3,16,0,1,8,0.00985323,0.06277982,0.34030102,0.26125857,0.40531405,0.55252035
20065,0,USKansasGraham,Kansas,Graham,2021-01-05 21:51:10.311034,2020-03-28 00:00:00.000000,0.02283875,0.13325395,0.65892027,0,3,16,0,1,8,0.01038055,0.06641890,0.35406117,0.25140406,0.39288793,0.53067448
20065,0,USKansasGraham,Kansas,Graham,2021-01-05 21:51:10.311034,2020-03-29 00:00:00.000000,0.02331506,0.13932227,0.66107476,0,3,16,0,1,9,0.01062748,0.06994619,0.36313457,0.24462192,0.37553938,0.51952143
20065,0,USKansasGraham,Kansas,Graham,2021-01-05 21:51:10.311034,2020-03-30 00:00:00.000000,0.02379004,0.14346270,0.66196303,0,3,16,0,1,9,0.01086761,0.07406176,0.36891787,0.23004581,0.36809606,0.51501893
20065,0,USKansasGraham,Kansas,Graham,2021-01-05 21:51:10.311034,2020-03-31 00:00:00.000000,0.02426368,0.14932001,0.66214316,0,3,16,0,1,9,0.01110538,0.07689298,0.37248190,0.22105557,0.35938961,0.51656964
20065,0,USKansasGraham,Kansas,Graham,2021-01-05 21:51:10.311034,2020-04-01 00:00:00.000000,0.02473752,0.15541667,0.66182831,0,3,16,0,1,9,0.01134548,0.08041689,0.37458991,0.21447486,0.35420083,0.49746720
20065,0,USKansasGraham,Kansas,Graham,2021-01-05 21:51:10.311034,2020-04-02 00:00:00.000000,0.02520964,0.16173301,0.68644482,0,4,17,0,2,9,0.01159357,0.08399235,0.37626301,0.20700190,0.34788443,0.49747059
20065,0,USKansasGraham,Kansas,Graham,2021-01-05 21:51:10.311034,2020-04-03 00:00:00.000000,0.02562083,0.16826067,0.71076521,0,4,17,0,2,9,0.01185335,0.08864578,0.39255955,0.19535066,0.33848703,0.49241727
20065,0,USKansasGraham,Kansas,Graham,2021-01-05 21:51:10.311034,2020-04-04 00:00:00.000000,0.02582945,0.17495562,0.73565548,0,4,18,0,2,10,0.01212093,0.09319933,0.40851896,0.18853637,0.33176310,0.44644633
20065,0,USKansasGraham,Kansas,Graham,2021-01-05 21:51:10.311034,2020-04-05 00:00:00.000000,0.02598061,0.18158221,0.76138196,0,4,18,0,2,10,0.01238355,0.09769329,0.42436220,0.17429398,0.32420893,0.42494948
20065,0,USKansasGraham,Kansas,Graham,2021-01-05 21:51:10.311034,2020-04-06 00:00:00.000000,0.02612206,0.18344233,0.78801741,0,4,19,0,2,10,0.01262654,0.10207806,0.44029463,0.17061919,0.30747438,0.42381632
20065,0,USKansasGraham,Kansas,Graham,2021-01-05 21:51:10.311034,2020-04-07 00:00:00.000000,0.02625643,0.18772148,0.80863196,0,4,20,0,2,11,0.01284286,0.10426506,0.45647049,0.16929067,0.29438960,0.42360712
20065,0,USKansasGraham,Kansas,Graham,2021-01-05 21:51:10.311034,2020-04-08 00:00:00.000000,0.02638345,0.18978745,0.83321150,0,4,20,0,2,11,0.01303374,0.10638855,0.47299745,0.16869395,0.28156950,0.42357025
20065,0,USKansasGraham,Kansas,Graham,2021-01-05 21:51:10.311034,2020-04-09 00:00:00.000000,0.02650178,0.19468248,0.85865896,0,4,21,0,2,11,0.01320365,0.10901698,0.45881408,0.16744012,0.27630568,0.42355363
20065,0,USKansasGraham,Kansas,Graham,2021-01-05 21:51:10.311034,2020-04-10 00:00:00.000000,0.02660908,0.20002298,0.88524584,0,4,21,0,2,11,0.01335637,0.11152102,0.44452463,0.15999576,0.27220582,0.42322465
20065,0,USKansasGraham,Kansas,Graham,2021-01-05 21:51:10.311034,2020-04-11 00:00:00.000000,0.02670257,0.20381411,0.91315976,0,5,22,0,2,10,0.01349308,0.11147008,0.43404653,0.15170568,0.26566079,0.42138890
20065,0,USKansasGraham,Kansas,Graham,2021-01-05 21:51:10.311034,2020-04-12 00:00:00.000000,0.02678022,0.20748083,0.94213085,0,5,23,0,2,11,0.01361151,0.11249569,0.45076224,0.14561029,0.25369220,0.40488542
20065,0,USKansasGraham,Kansas,Graham,2021-01-05 21:51:10.311034,2020-04-13 00:00:00.000000,0.02684172,0.20873916,0.91746690,0,5,22,0,2,11,0.01370687,0.11433222,0.46551114,0.13635615,0.24915581,0.40370403
20065,0,USKansasGraham,Kansas,Graham,2021-01-05 21:51:10.311034,2020-04-14 00:00:00.000000,0.02688825,0.21285046,0.88153077,0,5,21,0,2,11,0.01377509,0.11476993,0.47840420,0.13559599,0.24442516,0.40880903
20065,0,USKansasGraham,Kansas,Graham,2021-01-05 21:51:10.311034,2020-04-15 00:00:00.000000,0.02701801,0.21493455,0.84601561,0,5,20,0,2,12,0.01396015,0.11498949,0.49053589,0.13553112,0.24210301,0.40880323
20065,0,USKansasGraham,Kansas,Graham,2021-01-05 21:51:10.311034,2020-04-16 00:00:00.000000,0.02774412,0.21586186,0.85296373,0,5,21,0,2,12,0.01434522,0.11371200,0.49598758,0.13549906,0.24095749,0.40870530
20065,0,USKansasGraham,Kansas,Graham,2021-01-05 21:51:10.311034,2020-04-17 00:00:00.000000,0.02847251,0.21585645,0.87124775,0,5,21,0,2,12,0.01436019,0.11431692,0.49707299,0.13116822,0.23853257,0.40498747
20065,0,USKansasGraham,Kansas,Graham,2021-01-05 21:51:10.311034,2020-04-18 00:00:00.000000,0.02887207,0.21078848,0.88949624,0,5,22,0,2,12,0.01436723,0.11528710,0.51304647,0.12797147,0.23145275,0.40190032
20065,0,USKansasGraham,Kansas,Graham,2021-01-05 21:51:10.311034,2020-04-19 00:00:00.000000,0.02852963,0.20889121,0.90738044,0,5,22,0,2,13,0.01436445,0.11490782,0.52889560,0.12401078,0.22504457,0.39632809
20065,0,USKansasGraham,Kansas,Graham,2021-01-05 21:51:10.311034,2020-04-20 00:00:00.000000,0.02817243,0.20560603,0.92459999,0,5,22,0,2,13,0.01434711,0.11088267,0.54418354,0.11990237,0.21784178,0.36901538
20065,0,USKansasGraham,Kansas,Graham,2021-01-05 21:51:10.311034,2020-04-21 00:00:00.000000,0.02780993,0.19654814,0.94153137,0,4,23,0,2,13,0.01430979,0.10755205,0.55856146,0.11637020,0.21315509,0.38314298
20065,0,USKansasGraham,Kansas,Graham,2021-01-05 21:51:10.311034,2020-04-22 00:00:00.000000,0.02744554,0.18759939,0.95852334,0,4,23,0,2,14,0.01425071,0.10718762,0.57182863,0.11377480,0.20990203,0.40460081
20065,0,USKansasGraham,Kansas,Graham,2021-01-05 21:51:10.311034,2020-04-23 00:00:00.000000,0.02708216,0.18381051,0.96681599,0,4,23,0,2,14,0.01417386,0.10683074,0.58380968,0.11195007,0.20795659,0.40868873
20065,0,USKansasGraham,Kansas,Graham,2021-01-05 21:51:10.311034,2020-04-24 00:00:00.000000,0.02672526,0.18497940,0.95354542,0,4,23,0,2,14,0.01408752,0.10532888,0.59430718,0.10807692,0.19791475,0.40245041
20065,0,USKansasGraham,Kansas,Graham,2021-01-05 21:51:10.311034,2020-04-25 00:00:00.000000,0.02641383,0.18932021,0.93902174,0,4,23,0,2,14,0.01396924,0.10435512,0.60321164,0.10881273,0.19337367,0.37215307
20065,0,USKansasGraham,Kansas,Graham,2021-01-05 21:51:10.311034,2020-04-26 00:00:00.000000,0.02627398,0.18910976,0.92336621,0,4,22,0,2,14,0.01376405,0.10479289,0.60396360,0.10673667,0.19004528,0.32873765
20065,0,USKansasGraham,Kansas,Graham,2021-01-05 21:51:10.311034,2020-04-27 00:00:00.000000,0.02620705,0.18856079,0.90697034,0,4,22,0,2,14,0.01359441,0.10537173,0.59604876,0.10648670,0.18872377,0.33863981
20065,0,USKansasGraham,Kansas,Graham,2021-01-05 21:51:10.311034,2020-04-28 00:00:00.000000,0.02606485,0.18791477,0.89881788,0,4,22,0,2,14,0.01347504,0.10501298,0.58734322,0.10398842,0.18695422,0.34247659
20065,0,USKansasGraham,Kansas,Graham,2021-01-05 21:51:10.311034,2020-04-29 00:00:00.000000,0.02574549,0.18391045,0.90043578,0,4,22,0,2,14,0.01337912,0.10620261,0.57800200,0.09846602,0.18553065,0.34352879
20065,0,USKansasGraham,Kansas,Graham,2021-01-05 21:51:10.311034,2020-04-30 00:00:00.000000,0.02532862,0.17685916,0.90020205,0,4,22,0,2,14,0.01327209,0.10648271,0.56815169,0.09495102,0.18349790,0.34414575
20065,0,USKansasGraham,Kansas,Graham,2021-01-05 21:51:10.311034,2020-05-01 00:00:00.000000,0.02488919,0.17025878,0.89730294,0,4,22,0,2,13,0.01314284,0.10655512,0.55787180,0.09110939,0.18334859,0.34609664
20065,0,USKansasGraham,Kansas,Graham,2021-01-05 21:51:10.311034,2020-05-02 00:00:00.000000,0.02451112,0.16585964,0.89163235,0,4,22,0,2,13,0.01299520,0.10622303,0.54720713,0.08749489,0.18029285,0.34550163
20065,0,USKansasGraham,Kansas,Graham,2021-01-05 21:51:10.311034,2020-05-03 00:00:00.000000,0.02425221,0.16046491,0.88386619,0,3,21,0,2,13,0.01283477,0.10262945,0.53619717,0.08448337,0.17856133,0.33915763
20065,0,USKansasGraham,Kansas,Graham,2021-01-05 21:51:10.311034,2020-05-04 00:00:00.000000,0.02398934,0.15930288,0.87476102,0,3,21,0,2,13,0.01266603,0.10018317,0.52903867,0.07998415,0.17883384,0.34435380
20065,0,USKansasGraham,Kansas,Graham,2021-01-05 21:51:10.311034,2020-05-05 00:00:00.000000,0.02372214,0.15820094,0.86474453,0,3,21,0,2,13,0.01249221,0.10019084,0.52622927,0.07861297,0.17814651,0.34238871
20065,0,USKansasGraham,Kansas,Graham,2021-01-05 21:51:10.311034,2020-05-06 00:00:00.000000,0.02323553,0.15484049,0.85383398,0,3,21,0,2,12,0.01231554,0.09782858,0.52251225,0.07690168,0.17789631,0.33757833
20065,0,USKansasGraham,Kansas,Graham,2021-01-05 21:51:10.311034,2020-05-07 00:00:00.000000,0.02238048,0.15338536,0.84150268,0,3,20,0,2,12,0.01213675,0.09427688,0.51802645,0.07663171,0.17351930,0.33690996
20065,0,USKansasGraham,Kansas,Graham,2021-01-05 21:51:10.311034,2020-05-08 00:00:00.000000,0.02205860,0.15386764,0.82692961,0,3,20,0,2,12,0.01195461,0.09215237,0.51276971,0.07656436,0.16757231,0.33110128
20065,0,USKansasGraham,Kansas,Graham,2021-01-05 21:51:10.311034,2020-05-09 00:00:00.000000,0.02174628,0.14827196,0.81019687,0,3,20,0,2,12,0.01177025,0.08901937,0.50658931,0.07593174,0.16460996,0.29243573
20065,0,USKansasGraham,Kansas,Graham,2021-01-05 21:51:10.311034,2020-05-10 00:00:00.000000,0.02144152,0.14099263,0.79224633,0,3,19,0,2,12,0.01158516,0.08730464,0.49938540,0.06840639,0.16056662,0.28554501
20065,0,USKansasGraham,Kansas,Graham,2021-01-05 21:51:10.311034,2020-05-11 00:00:00.000000,0.02114333,0.13819405,0.77372739,0,3,19,0,2,12,0.01140046,0.08623929,0.49124891,0.06644658,0.15900208,0.28337474
20065,0,USKansasGraham,Kansas,Graham,2021-01-05 21:51:10.311034,2020-05-12 00:00:00.000000,0.02085101,0.13357648,0.76009061,0,3,18,0,2,11,0.01121691,0.08270616,0.48235679,0.06495862,0.15616499,0.28409488
20065,0,USKansasGraham,Kansas,Graham,2021-01-05 21:51:10.311034,2020-05-13 00:00:00.000000,0.02056375,0.13072290,0.75495407,0,3,18,0,1,11,0.01103505,0.07888715,0.47286903,0.06328959,0.15590411,0.28410287
20065,0,USKansasGraham,Kansas,Graham,2021-01-05 21:51:10.311034,2020-05-14 00:00:00.000000,0.02027964,0.12807065,0.75057354,0,3,18,0,1,11,0.01085522,0.07814527,0.46289643,0.06520026,0.15535888,0.27584939
20065,0,USKansasGraham,Kansas,Graham,2021-01-05 21:51:10.311034,2020-05-15 00:00:00.000000,0.01999208,0.12541291,0.77032678,0,3,19,0,1,11,0.01065311,0.07670870,0.45250560,0.06861547,0.15503285,0.27701714
20065,0,USKansasGraham,Kansas,Graham,2021-01-05 21:51:10.311034,2020-05-16 00:00:00.000000,0.01968032,0.12377733,0.78745627,0,3,19,0,1,10,0.01021309,0.07522418,0.44173970,0.07053745,0.15397172,0.27233688
20065,0,USKansasGraham,Kansas,Graham,2021-01-05 21:51:10.311034,2020-05-17 00:00:00.000000,0.01931148,0.12203155,0.80063079,0,3,19,0,1,10,0.00979261,0.07369985,0.43869248,0.07103242,0.15335379,0.27248645
20065,0,USKansasGraham,Kansas,Graham,2021-01-05 21:51:10.311034,2020-05-18 00:00:00.000000,0.01883424,0.12002770,0.80986189,0,2,20,0,1,11,0.00943534,0.07240385,0.44921784,0.07113794,0.15245041,0.27249930
20065,0,USKansasGraham,Kansas,Graham,2021-01-05 21:51:10.311034,2020-05-19 00:00:00.000000,0.01825630,0.11789433,0.81636832,0,2,20,0,1,11,0.00926557,0.07146395,0.45816550,0.06667856,0.14579388,0.27224357
20065,0,USKansasGraham,Kansas,Graham,2021-01-05 21:51:10.311034,2020-05-20 00:00:00.000000,0.01770724,0.11572152,0.82141092,0,2,20,0,1,11,0.00908253,0.07042255,0.46552263,0.06633136,0.14110102,0.27097234
20065,0,USKansasGraham,Kansas,Graham,2021-01-05 21:51:10.311034,2020-05-21 00:00:00.000000,0.01721678,0.11354556,0.81036150,0,2,20,0,1,11,0.00889085,0.06930789,0.47151346,0.06581117,0.14076366,0.26490038
20065,0,USKansasGraham,Kansas,Graham,2021-01-05 21:51:10.311034,2020-05-22 00:00:00.000000,0.01684454,0.11137726,0.78764610,0,2,19,0,1,11,0.00869470,0.06814548,0.47645617,0.06569392,0.13732199,0.25226437
20065,0,USKansasGraham,Kansas,Graham,2021-01-05 21:51:10.311034,2020-05-23 00:00:00.000000,0.01656568,0.10883904,0.76543919,0,2,18,0,1,11,0.00849726,0.06695390,0.48071430,0.06504540,0.13898095,0.25112972
20065,0,USKansasGraham,Kansas,Graham,2021-01-05 21:51:10.311034,2020-05-24 00:00:00.000000,0.01632131,0.10495845,0.74381887,0,2,18,0,1,12,0.00830081,0.06574460,0.48474604,0.05750331,0.14101675,0.24217641
20065,0,USKansasGraham,Kansas,Graham,2021-01-05 21:51:10.311034,2020-05-25 00:00:00.000000,0.01555279,0.10121383,0.73966365,0,2,18,0,1,12,0.00810689,0.06362320,0.48908989,0.05550608,0.14034892,0.23403984
20065,0,USKansasGraham,Kansas,Graham,2021-01-05 21:51:10.311034,2020-05-26 00:00:00.000000,0.01460022,0.09822623,0.73878102,0,2,18,0,1,11,0.00791652,0.06143531,0.47896509,0.05542280,0.13811282,0.23861512
20065,0,USKansasGraham,Kansas,Graham,2021-01-05 21:51:10.311034,2020-05-27 00:00:00.000000,0.01370661,0.09629947,0.73780400,0,2,18,0,1,11,0.00773048,0.05930590,0.46550032,0.05538475,0.13708214,0.24041974
20065,0,USKansasGraham,Kansas,Graham,2021-01-05 21:51:10.311034,2020-05-28 00:00:00.000000,0.01285674,0.09456002,0.73656771,0,2,18,0,1,11,0.00754948,0.05725654,0.45237422,0.05538581,0.13466245,0.24130635
20065,0,USKansasGraham,Kansas,Graham,2021-01-05 21:51:10.311034,2020-05-29 00:00:00.000000,0.01205516,0.09227426,0.73466458,0,2,18,0,1,10,0.00723292,0.05532490,0.43958827,0.05550315,0.13345338,0.24217644
20065,0,USKansasGraham,Kansas,Graham,2021-01-05 21:51:10.311034,2020-05-30 00:00:00.000000,0.01130314,0.08883958,0.73122410,0,2,18,0,1,10,0.00678386,0.05352722,0.42713357,0.05603028,0.13259699,0.24346442
20065,0,USKansasGraham,Kansas,Graham,2021-01-05 21:51:10.311034,2020-05-31 00:00:00.000000,0.01059799,0.08463964,0.72504123,0,2,17,0,1,10,0.00642396,0.05184746,0.41498669,0.05665204,0.13227668,0.24535305
20065,0,USKansasGraham,Kansas,Graham,2021-01-05 21:51:10.311034,2020-06-01 00:00:00.000000,0.00993656,0.08061580,0.71567564,0,2,17,0,1,10,0.00633712,0.05026527,0.40309972,0.05569434,0.13214978,0.24767705
20065,0,USKansasGraham,Kansas,Graham,2021-01-05 21:51:10.311034,2020-06-02 00:00:00.000000,0.00939116,0.07576133,0.70402529,0,1,17,0,1,9,0.00625534,0.04784233,0.39138315,0.05475371,0.13157607,0.24399097
20065,0,USKansasGraham,Kansas,Graham,2021-01-05 21:51:10.311034,2020-06-03 00:00:00.000000,0.00873184,0.07114163,0.69108348,0,1,17,0,1,9,0.00617662,0.04516243,0.37966418,0.05516785,0.13065813,0.24355244
20065,0,USKansasGraham,Kansas,Graham,2021-01-05 21:51:10.311034,2020-06-04 00:00:00.000000,0.00814317,0.06726391,0.67670502,0,1,16,0,1,9,0.00609936,0.04304068,0.36744666,0.05405261,0.13114919,0.24538609
20065,0,USKansasGraham,Kansas,Graham,2021-01-05 21:51:10.311034,2020-06-05 00:00:00.000000,0.00760507,0.06438239,0.66053183,0,1,16,0,1,8,0.00580045,0.04146114,0.35481932,0.05368971,0.13054346,0.23599808
20065,0,USKansasGraham,Kansas,Graham,2021-01-05 21:51:10.311034,2020-06-06 00:00:00.000000,0.00708933,0.06158728,0.64381996,0,1,15,0,0,8,0.00539522,0.03969831,0.34822443,0.05262259,0.12518601,0.24409782
20065,0,USKansasGraham,Kansas,Graham,2021-01-05 21:51:10.311034,2020-06-07 00:00:00.000000,0.00659438,0.06022767,0.62705197,0,1,15,0,0,8,0.00501913,0.03798773,0.34194351,0.05187730,0.12450499,0.25306090
20065,0,USKansasGraham,Kansas,Graham,2021-01-05 21:51:10.311034,2020-06-08 00:00:00.000000,0.00612211,0.05854511,0.61021123,0,1,15,0,0,8,0.00466999,0.03699069,0.33518551,0.05139120,0.12262127,0.26160826
20065,0,USKansasGraham,Kansas,Graham,2021-01-05 21:51:10.311034,2020-06-09 00:00:00.000000,0.00567475,0.05632679,0.59322560,0,1,14,0,0,8,0.00434564,0.03595503,0.32805424,0.05109134,0.12113587,0.26844255
20065,0,USKansasGraham,Kansas,Graham,2021-01-05 21:51:10.311034,2020-06-10 00:00:00.000000,0.00535683,0.05413909,0.57599749,0,1,14,0,0,7,0.00404415,0.03414520,0.32062027,0.05091189,0.11693973,0.26130620
20065,0,USKansasGraham,Kansas,Graham,2021-01-05 21:51:10.311034,2020-06-11 00:00:00.000000,0.00525650,0.05198472,0.55843719,0,1,13,0,0,7,0.00367951,0.03275812,0.31292592,0.04915467,0.11488398,0.26198316
20065,0,USKansasGraham,Kansas,Graham,2021-01-05 21:51:10.311034,2020-06-12 00:00:00.000000,0.00474632,0.04945534,0.54050560,0,1,13,0,0,7,0.00332935,0.03162985,0.30499288,0.04802205,0.11690276,0.26232920
20065,0,USKansasGraham,Kansas,Graham,2021-01-05 21:51:10.311034,2020-06-13 00:00:00.000000,0.00428113,0.04701099,0.52224626,0,1,12,0,0,7,0.00301170,0.03050513,0.29683310,0.04799287,0.11658432,0.26280207
20065,0,USKansasGraham,Kansas,Graham,2021-01-05 21:51:10.311034,2020-06-14 00:00:00.000000,0.00393497,0.04566075,0.50378372,0,1,12,0,0,7,0.00294645,0.02939437,0.28846071,0.04797791,0.11514740,0.26408804
20065,0,USKansasGraham,Kansas,Graham,2021-01-05 21:51:10.311034,2020-06-15 00:00:00.000000,0.00363678,0.04374339,0.48528969,0,1,12,0,0,6,0.00282317,0.02772588,0.27990110,0.04799464,0.11298962,0.26332082
20065,0,USKansasGraham,Kansas,Graham,2021-01-05 21:51:10.311034,2020-06-16 00:00:00.000000,0.00335614,0.04201429,0.46694460,0,1,11,0,0,6,0.00261707,0.02678263,0.27119373,0.04681068,0.11587599,0.25394347
20065,0,USKansasGraham,Kansas,Graham,2021-01-05 21:51:10.311034,2020-06-17 00:00:00.000000,0.00309393,0.03985331,0.44892579,0,0,11,0,0,6,0.00242179,0.02609581,0.26238995,0.04897374,0.11316545,0.24577327
20065,0,USKansasGraham,Kansas,Graham,2021-01-05 21:51:10.311034,2020-06-18 00:00:00.000000,0.00285025,0.03781395,0.43429650,0,0,10,0,0,6,0.00223777,0.02521526,0.25354974,0.05196194,0.11082236,0.24274971
20065,0,USKansasGraham,Kansas,Graham,2021-01-05 21:51:10.311034,2020-06-19 00:00:00.000000,0.00262451,0.03602443,0.42508760,0,0,10,0,0,6,0.00206532,0.02424453,0.24474409,0.05324761,0.11074391,0.24326068
20065,0,USKansasGraham,Kansas,Graham,2021-01-05 21:51:10.311034,2020-06-20 00:00:00.000000,0.00241579,0.03452067,0.41581633,0,0,10,0,0,5,0.00190446,0.02312462,0.23945637,0.05328729,0.10750887,0.24645044
20065,0,USKansasGraham,Kansas,Graham,2021-01-05 21:51:10.311034,2020-06-21 00:00:00.000000,0.00222310,0.03285235,0.40654926,0,0,10,0,0,5,0.00175493,0.02203274,0.23488840,0.05057723,0.10468892,0.25275138
20065,0,USKansasGraham,Kansas,Graham,2021-01-05 21:51:10.311034,2020-06-22 00:00:00.000000,0.02749085,0.13345031,0.68714351,0,3,17,0,0,5,0.00161631,0.02094981,0.23013633,0.05000287,0.10368566,0.25931016
20065,0,USKansasGraham,Kansas,Graham,2021-01-05 21:51:10.311034,2020-06-23 00:00:00.000000,0.05002421,0.23261640,0.98855956,1,5,24,0,1,6,0.01061568,0.04039268,0.24818048,0.04991816,0.10527152,0.26072320
20065,0,USKansasGraham,Kansas,Graham,2021-01-05 21:51:10.311034,2020-06-24 00:00:00.000000,0.07024875,0.32816495,1.23706675,1,8,30,0,1,7,0.02188875,0.07311323,0.30558892,0.04990576,0.10618354,0.24544515
20065,0,USKansasGraham,Kansas,Graham,2021-01-05 21:51:10.311034,2020-06-25 00:00:00.000000,0.08434369,0.39336395,1.59894491,2,9,39,0,2,11,0.03499233,0.11021767,0.44576691,0.04988937,0.10542444,0.22799807
20065,0,USKansasGraham,Kansas,Graham,2021-01-05 21:51:10.311034,2020-06-26 00:00:00.000000,0.10321009,0.47139970,1.90393705,2,11,47,1,3,14,0.04178075,0.15755032,0.59843990,0.04972197,0.10470464,0.21989420
20065,0,USKansasGraham,Kansas,Graham,2021-01-05 21:51:10.311034,2020-06-27 00:00:00.000000,0.12120496,0.55514717,2.19883222,3,13,54,1,5,17,0.05357694,0.20204633,0.68881600,0.04867311,0.10526198,0.20882177
20065,0,USKansasGraham,Kansas,Graham,2021-01-05 21:51:10.311034,2020-06-28 00:00:00.000000,0.13826420,0.63395854,2.44910616,3,15,60,1,6,17,0.06546625,0.24598875,0.71684978,0.04741126,0.10284194,0.20755621
20065,0,USKansasGraham,Kansas,Graham,2021-01-05 21:51:10.311034,2020-06-29 00:00:00.000000,0.22335001,0.72364131,2.47049989,5,17,61,1,7,20,0.07701549,0.29470372,0.83427259,0.04717376,0.10265123,0.21216578
20065,0,USKansasGraham,Kansas,Graham,2021-01-05 21:51:10.311034,2020-06-30 00:00:00.000000,0.30352456,0.81552506,2.48743917,7,20,61,2,8,23,0.10790937,0.34170836,0.93251698,0.04717301,0.10139722,0.21772311
20065,0,USKansasGraham,Kansas,Graham,2021-01-05 21:51:10.311034,2020-07-01 00:00:00.000000,0.37897604,0.88205425,2.49814160,9,21,62,3,9,25,0.14977731,0.39134241,1.00910631,0.04774736,0.10137378,0.21811149
20065,0,USKansasGraham,Kansas,Graham,2021-01-05 21:51:10.311034,2020-07-02 00:00:00.000000,0.41134957,0.95968721,2.50387036,10,23,62,4,10,26,0.18859418,0.42853588,1.06832160,0.04911861,0.10202165,0.21938917
20065,0,USKansasGraham,Kansas,Graham,2021-01-05 21:51:10.311034,2020-07-03 00:00:00.000000,0.45503852,1.02289849,2.50564692,11,25,62,5,11,27,0.22091072,0.47707774,1.11361095,0.05180521,0.10154144,0.21986964
20065,0,USKansasGraham,Kansas,Graham,2021-01-05 21:51:10.311034,2020-07-04 00:00:00.000000,0.48483839,1.07061658,2.51514584,12,26,62,5,12,28,0.22890014,0.52060615,1.14776740,0.04845345,0.10165170,0.22001576
20065,0,USKansasGraham,Kansas,Graham,2021-01-05 21:51:10.311034,2020-07-05 00:00:00.000000,0.51376902,1.09163207,2.64765584,12,27,65,6,13,29,0.24515110,0.55475765,1.17308217,0.04804859,0.10223449,0.21998614
20065,0,USKansasGraham,Kansas,Graham,2021-01-05 21:51:10.311034,2020-07-06 00:00:00.000000,0.57870911,1.13352607,2.72432378,14,28,67,6,14,29,0.26096674,0.58326600,1.19147101,0.04997345,0.10287293,0.21721267
20065,0,USKansasGraham,Kansas,Graham,2021-01-05 21:51:10.311034,2020-07-07 00:00:00.000000,0.63935154,1.22059661,2.79555900,15,30,69,6,15,29,0.27972419,0.61691080,1.20486213,0.05148348,0.10157423,0.21029536
20065,0,USKansasGraham,Kansas,Graham,2021-01-05 21:51:10.311034,2020-07-08 00:00:00.000000,0.67977964,1.29315150,2.85903031,16,32,70,7,16,30,0.30560252,0.65491556,1.23013324,0.05190889,0.10198819,0.20871904
20065,0,USKansasGraham,Kansas,Graham,2021-01-05 21:51:10.311034,2020-07-09 00:00:00.000000,0.71859065,1.36251332,2.91491873,17,33,72,8,17,31,0.33612260,0.68655872,1.25438709,0.05204328,0.10234292,0.20332015
20065,0,USKansasGraham,Kansas,Graham,2021-01-05 21:51:10.311034,2020-07-10 00:00:00.000000,0.75531275,1.43598424,2.95239719,18,35,73,9,17,32,0.36836067,0.71890322,1.29123873,0.04784543,0.10131945,0.19955959
20065,0,USKansasGraham,Kansas,Graham,2021-01-05 21:51:10.311034,2020-07-11 00:00:00.000000,0.78961091,1.49938029,2.97392095,19,37,73,9,18,32,0.40156998,0.74424927,1.32343342,0.04476968,0.10116520,0.19751823
20065,0,USKansasGraham,Kansas,Graham,2021-01-05 21:51:10.311034,2020-07-12 00:00:00.000000,0.82137303,1.55748001,2.98847160,20,38,74,10,19,33,0.43428269,0.77519969,1.35234084,0.04377712,0.10128471,0.19467632
20065,0,USKansasGraham,Kansas,Graham,2021-01-05 21:51:10.311034,2020-07-13 00:00:00.000000,0.81098583,1.56032016,2.96150753,20,38,73,11,19,34,0.45481326,0.79836981,1.37379119,0.04349390,0.10221115,0.19679084
20065,0,USKansasGraham,Kansas,Graham,2021-01-05 21:51:10.311034,2020-07-14 00:00:00.000000,0.83862835,1.57004444,2.91198941,20,38,72,11,20,34,0.46547260,0.83572054,1.38551819,0.04344511,0.10223173,0.20126758
20065,0,USKansasGraham,Kansas,Graham,2021-01-05 21:51:10.311034,2020-07-15 00:00:00.000000,0.88845036,1.56615333,2.84991441,22,38,70,11,21,34,0.46920168,0.86396751,1.38265670,0.04349273,0.10414846,0.20400853
20065,0,USKansasGraham,Kansas,Graham,2021-01-05 21:51:10.311034,2020-07-16 00:00:00.000000,0.88075733,1.60523756,2.78188340,21,39,69,12,21,34,0.49176183,0.88488745,1.40091852,0.04385953,0.10398389,0.19975433
20065,0,USKansasGraham,Kansas,Graham,2021-01-05 21:51:10.311034,2020-07-17 00:00:00.000000,0.87593298,1.67372361,2.80437021,21,41,69,12,22,35,0.49428534,0.91251414,1.44173240,0.04579127,0.10681913,0.20212963
20065,0,USKansasGraham,Kansas,Graham,2021-01-05 21:51:10.311034,2020-07-18 00:00:00.000000,0.87252298,1.71235409,2.82839147,21,42,70,12,23,36,0.49264995,0.94915731,1.47842173,0.04793319,0.10687970,0.20764362
20065,0,USKansasGraham,Kansas,Graham,2021-01-05 21:51:10.311034,2020-07-19 00:00:00.000000,0.86998172,1.73610534,2.86610302,21,43,71,12,23,37,0.49234572,0.95871375,1.51167345,0.05464291,0.10791861,0.20583780
20065,0,USKansasGraham,Kansas,Graham,2021-01-05 21:51:10.311034,2020-07-20 00:00:00.000000,1.00143284,1.75489330,2.89742646,24,43,71,12,24,38,0.49375047,1.00561779,1.56038926,0.05592785,0.10878536,0.19649249
20065,0,USKansasGraham,Kansas,Graham,2021-01-05 21:51:10.311034,2020-07-21 00:00:00.000000,1.00122416,1.76066803,2.85245852,24,43,70,12,24,39,0.52050545,1.00053520,1.61139129,0.05692927,0.10973389,0.19264362
20065,0,USKansasGraham,Kansas,Graham,2021-01-05 21:51:10.311034,2020-07-22 00:00:00.000000,0.96921791,1.76685296,2.80680863,24,43,69,14,25,40,0.56420177,1.02836335,1.63869419,0.05810624,0.11125560,0.19217360
20065,0,USKansasGraham,Kansas,Graham,2021-01-05 21:51:10.311034,2020-07-23 00:00:00.000000,1.02883208,1.81302182,2.91913804,25,44,72,14,26,40,0.58181696,1.05334829,1.65064423,0.05944419,0.11251989,0.19152520
20065,0,USKansasGraham,Kansas,Graham,2021-01-05 21:51:10.311034,2020-07-24 00:00:00.000000,1.08234597,1.83160900,3.07122660,26,45,76,14,25,41,0.56431968,1.04035996,1.68567345,0.05774285,0.11266731,0.18953117
20065,0,USKansasGraham,Kansas,Graham,2021-01-05 21:51:10.311034,2020-07-25 00:00:00.000000,1.05192306,1.83638397,3.26553171,26,45,81,14,26,42,0.58918573,1.05812344,1.73082802,0.05540533,0.11069861,0.18391872
20065,0,USKansasGraham,Kansas,Graham,2021-01-05 21:51:10.311034,2020-07-26 00:00:00.000000,1.02266184,1.83438731,3.46634899,25,45,86,14,26,44,0.58940979,1.05394776,1.78913140,0.05384882,0.10729972,0.18537198
20065,0,USKansasGraham,Kansas,Graham,2021-01-05 21:51:10.311034,2020-07-27 00:00:00.000000,1.02256071,1.83261916,3.46762483,25,45,86,14,26,45,0.57245124,1.05667812,1.85313102,0.05325518,0.10648091,0.18841887
20065,0,USKansasGraham,Kansas,Graham,2021-01-05 21:51:10.311034,2020-07-28 00:00:00.000000,1.02372297,1.85090092,3.42834727,25,45,85,14,26,46,0.56476859,1.06572001,1.88799583,0.05324879,0.10542384,0.19276491
20065,0,USKansasGraham,Kansas,Graham,2021-01-05 21:51:10.311034,2020-07-29 00:00:00.000000,1.02647371,1.85556569,3.42271982,25,46,84,14,26,47,0.56406265,1.07948885,1.90174385,0.05388896,0.10516924,0.19065845
20065,0,USKansasGraham,Kansas,Graham,2021-01-05 21:51:10.311034,2020-07-30 00:00:00.000000,1.05996149,1.85103215,3.39943599,26,45,84,14,26,47,0.56785413,1.08225650,1.93352138,0.05579468,0.10405641,0.18973097
20065,0,USKansasGraham,Kansas,Graham,2021-01-05 21:51:10.311034,2020-07-31 00:00:00.000000,1.04010828,1.85699511,3.65905850,25,46,90,14,27,51,0.56654711,1.09410118,2.07759603,0.05943175,0.10175516,0.18893734
20065,0,USKansasGraham,Kansas,Graham,2021-01-05 21:51:10.311034,2020-08-01 00:00:00.000000,1.03635192,1.89544419,3.91322075,25,47,97,14,27,52,0.56663976,1.09441895,2.10818706,0.06300118,0.10010212,0.18702936
20065,0,USKansasGraham,Kansas,Graham,2021-01-05 21:51:10.311034,2020-08-02 00:00:00.000000,1.00301157,1.88564075,4.15270796,24,46,103,14,26,53,0.57981487,1.07719114,2.13928388,0.06497294,0.09898112,0.18226771
20065,0,USKansasGraham,Kansas,Graham,2021-01-05 21:51:10.311034,2020-08-03 00:00:00.000000,1.04531653,1.89030123,4.09317539,25,46,101,14,26,56,0.56939533,1.08008839,2.27407288,0.06515709,0.10002941,0.17519570
20065,0,USKansasGraham,Kansas,Graham,2021-01-05 21:51:10.311034,2020-08-04 00:00:00.000000,1.09037846,1.90174023,4.02417938,27,47,99,14,27,58,0.57215231,1.09448680,2.37046013,0.06511973,0.10084526,0.17254607
20065,0,USKansasGraham,Kansas,Graham,2021-01-05 21:51:10.311034,2020-08-05 00:00:00.000000,1.13963296,1.96287631,3.94522143,28,48,97,14,27,60,0.58319685,1.10223499,2.42489137,0.06515775,0.10232529,0.17478122
20065,0,USKansasGraham,Kansas,Graham,2021-01-05 21:51:10.311034,2020-08-06 00:00:00.000000,1.18769194,1.97950966,3.86117174,29,49,95,14,27,60,0.60023028,1.11534504,2.44424596,0.06525267,0.10302169,0.17800818
20065,0,USKansasGraham,Kansas,Graham,2021-01-05 21:51:10.311034,2020-08-07 00:00:00.000000,1.22612894,1.99250172,3.77560200,30,49,93,15,27,60,0.61691212,1.11551538,2.44150893,0.06535939,0.10276418,0.17973976
20065,0,USKansasGraham,Kansas,Graham,2021-01-05 21:51:10.311034,2020-08-08 00:00:00.000000,1.22520149,1.96934896,3.68985589,30,48,91,15,27,60,0.64111698,1.12284124,2.42317721,0.06512867,0.10371511,0.18025375
20065,0,USKansasGraham,Kansas,Graham,2021-01-05 21:51:10.311034,2020-08-09 00:00:00.000000,1.22747401,1.96732708,3.60399897,30,48,89,16,28,59,0.64626999,1.13580386,2.39400938,0.06327323,0.10376481,0.18036947
20065,0,USKansasGraham,Kansas,Graham,2021-01-05 21:51:10.311034,2020-08-10 00:00:00.000000,1.23542343,2.02731785,3.55138558,30,50,88,16,28,58,0.65128010,1.14960168,2.35731222,0.06146207,0.10370775,0.17996996
20065,0,USKansasGraham,Kansas,Graham,2021-01-05 21:51:10.311034,2020-08-11 00:00:00.000000,1.21615553,2.07828596,3.49885218,30,51,86,16,28,57,0.65093327,1.15029470,2.32166734,0.06165351,0.10357459,0.18110220
20065,0,USKansasGraham,Kansas,Graham,2021-01-05 21:51:10.311034,2020-08-12 00:00:00.000000,1.19656850,2.01864512,3.49938187,29,50,86,16,28,56,0.64699938,1.14290257,2.29275817,0.06251956,0.10398370,0.18187675
20065,0,USKansasGraham,Kansas,Graham,2021-01-05 21:51:10.311034,2020-08-13 00:00:00.000000,1.17622766,2.02783459,3.50210972,29,50,86,15,28,57,0.64072710,1.15154165,2.30238982,0.06376080,0.10417357,0.18274171
20065,0,USKansasGraham,Kansas,Graham,2021-01-05 21:51:10.311034,2020-08-14 00:00:00.000000,1.13651167,2.06435630,3.50058934,28,51,86,15,28,56,0.63299272,1.16223122,2.28421087,0.06490608,0.10952017,0.18384607
20065,0,USKansasGraham,Kansas,Graham,2021-01-05 21:51:10.311034,2020-08-15 00:00:00.000000,1.09824572,2.14462665,3.45629892,27,53,85,15,29,56,0.62443619,1.17364722,2.25831072,0.06640288,0.11191075,0.17842397
20065,0,USKansasGraham,Kansas,Graham,2021-01-05 21:51:10.311034,2020-08-16 00:00:00.000000,1.06289474,2.21646348,3.48238322,26,55,86,15,29,55,0.61565237,1.18619151,2.23170117,0.06637833,0.11303240,0.18558482
20065,0,USKansasGraham,Kansas,Graham,2021-01-05 21:51:10.311034,2020-08-17 00:00:00.000000,1.05371636,2.20888077,3.44614430,26,54,85,15,30,54,0.60747779,1.21206856,2.20396602,0.06627648,0.11586041,0.18846594
20065,0,USKansasGraham,Kansas,Graham,2021-01-05 21:51:10.311034,2020-08-18 00:00:00.000000,1.04809001,2.16032323,3.50965724,26,53,87,14,30,53,0.60025754,1.22268457,2.17324544,0.06644549,0.11736320,0.18849295
20065,0,USKansasGraham,Kansas,Graham,2021-01-05 21:51:10.311034,2020-08-19 00:00:00.000000,1.04507101,2.10883710,3.47773020,25,52,86,14,30,53,0.59066673,1.21275078,2.15515876,0.06693311,0.11688595,0.18841415
20065,0,USKansasGraham,Kansas,Graham,2021-01-05 21:51:10.311034,2020-08-20 00:00:00.000000,1.05435541,2.07603257,3.53992504,26,51,87,14,30,52,0.58424091,1.21379838,2.12242173,0.07071107,0.12032552,0.18825152
20065,0,USKansasGraham,Kansas,Graham,2021-01-05 21:51:10.311034,2020-08-21 00:00:00.000000,1.04243958,2.10629053,3.60405226,25,52,89,14,30,51,0.57997569,1.21069627,2.08079663,0.07395395,0.12258355,0.18799967
20065,0,USKansasGraham,Kansas,Graham,2021-01-05 21:51:10.311034,2020-08-22 00:00:00.000000,1.03815996,2.10295647,3.67120988,25,52,91,14,29,50,0.57414975,1.20655919,2.04818314,0.07668844,0.12192147,0.18767432
20065,0,USKansasGraham,Kansas,Graham,2021-01-05 21:51:10.311034,2020-08-23 00:00:00.000000,1.03524900,2.09662026,3.74190900,25,52,92,14,30,51,0.56453340,1.21010860,2.08023649,0.07699009,0.12185289,0.18741972
20065,0,USKansasGraham,Kansas,Graham,2021-01-05 21:51:10.311034,2020-08-24 00:00:00.000000,1.07728063,2.09280147,3.76578429,26,51,93,13,30,51,0.55628224,1.20914499,2.06385622,0.07860833,0.12234636,0.18766220
20065,0,USKansasGraham,Kansas,Graham,2021-01-05 21:51:10.311034,2020-08-25 00:00:00.000000,1.11410249,2.10416928,3.79118123,27,52,94,13,30,50,0.56131429,1.21781854,2.05096102,0.07964225,0.12319829,0.18928979
20065,0,USKansasGraham,Kansas,Graham,2021-01-05 21:51:10.311034,2020-08-26 00:00:00.000000,1.10554044,2.07715513,3.81618240,27,51,94,14,30,50,0.57496106,1.20907750,2.01728173,0.08010479,0.12386661,0.19318726
20065,0,USKansasGraham,Kansas,Graham,2021-01-05 21:51:10.311034,2020-08-27 00:00:00.000000,1.07821722,2.07261133,3.84048339,26,51,95,14,29,51,0.59408616,1.20330886,2.05633257,0.07966955,0.12638164,0.20378483
20065,0,USKansasGraham,Kansas,Graham,2021-01-05 21:51:10.311034,2020-08-28 00:00:00.000000,1.05438509,2.13386195,3.86420183,26,52,95,15,29,51,0.61705000,1.20741682,2.08749929,0.07994080,0.13018051,0.21535681
20065,0,USKansasGraham,Kansas,Graham,2021-01-05 21:51:10.311034,2020-08-29 00:00:00.000000,1.03314871,2.12673624,3.88825597,25,52,96,15,30,52,0.62991618,1.20895028,2.10083695,0.08113511,0.13350187,0.23260028
20065,0,USKansasGraham,Kansas,Graham,2021-01-05 21:51:10.311034,2020-08-30 00:00:00.000000,1.01397613,2.10096635,3.91389762,25,52,97,15,29,52,0.61484039,1.20616003,2.11338959,0.08188786,0.13770228,0.24333015
20065,0,USKansasGraham,Kansas,Graham,2021-01-05 21:51:10.311034,2020-08-31 00:00:00.000000,1.20961437,2.12554243,3.95284498,30,52,98,14,30,52,0.60154850,1.21275980,2.12304857,0.08212625,0.13682236,0.24870315
20065,0,USKansasGraham,Kansas,Graham,2021-01-05 21:51:10.311034,2020-09-01 00:00:00.000000,1.28450153,2.16760352,3.99143848,31,53,99,15,30,52,0.64156815,1.22415803,2.12495576,0.08257936,0.13765583,0.25178332
20065,0,USKansasGraham,Kansas,Graham,2021-01-05 21:51:10.311034,2020-09-02 00:00:00.000000,1.31789836,2.24334525,4.04913006,32,55,100,17,31,52,0.70676142,1.25568242,2.13011466,0.08347458,0.14372134,0.25196938
20065,0,USKansasGraham,Kansas,Graham,2021-01-05 21:51:10.311034,2020-09-03 00:00:00.000000,1.31502790,2.27433100,4.11353675,32,56,102,17,31,53,0.70066551,1.27182946,2.14766098,0.08508077,0.14379161,0.25203662
20065,0,USKansasGraham,Kansas,Graham,2021-01-05 21:51:10.311034,2020-09-04 00:00:00.000000,1.31124334,2.27457080,4.17662139,32,56,103,17,32,53,0.69071734,1.29211450,2.16413531,0.08495242,0.14293387,0.25210464
20065,0,USKansasGraham,Kansas,Graham,2021-01-05 21:51:10.311034,2020-09-05 00:00:00.000000,1.30670084,2.27869175,4.23795090,32,56,105,18,32,54,0.72543303,1.32105588,2.17978521,0.08394980,0.14772165,0.25287454
20065,0,USKansasGraham,Kansas,Graham,2021-01-05 21:51:10.311034,2020-09-06 00:00:00.000000,1.30161665,2.30024097,4.29721798,32,57,106,18,33,54,0.75440669,1.33868430,2.19441161,0.08315054,0.15036327,0.25237673
20065,0,USKansasGraham,Kansas,Graham,2021-01-05 21:51:10.311034,2020-09-07 00:00:00.000000,1.41448136,2.37024601,4.41781432,35,58,109,18,33,53,0.75584406,1.35453387,2.17287267,0.08331142,0.15375578,0.25139284
20065,0,USKansasGraham,Kansas,Graham,2021-01-05 21:51:10.311034,2020-09-08 00:00:00.000000,1.43617987,2.42238820,4.53675857,35,60,112,18,34,53,0.76329239,1.38286302,2.16753142,0.09412494,0.15883053,0.25928442
20065,0,USKansasGraham,Kansas,Graham,2021-01-05 21:51:10.311034,2020-09-09 00:00:00.000000,1.43345849,2.49565934,4.65464659,35,61,115,19,35,55,0.77507139,1.42318541,2.22858314,0.09717975,0.16335594,0.26343871
20065,0,USKansasGraham,Kansas,Graham,2021-01-05 21:51:10.311034,2020-09-10 00:00:00.000000,1.42803369,2.57358486,4.77115590,35,63,118,20,35,56,0.81703954,1.42680545,2.29086946,0.09815881,0.16522015,0.26776059
20065,0,USKansasGraham,Kansas,Graham,2021-01-05 21:51:10.311034,2020-09-11 00:00:00.000000,1.42064046,2.66579641,4.88600892,35,66,121,21,36,58,0.87517360,1.46419093,2.34809851,0.09819048,0.16608293,0.27025055
20065,0,USKansasGraham,Kansas,Graham,2021-01-05 21:51:10.311034,2020-09-12 00:00:00.000000,1.41190700,2.70788325,4.99896368,35,67,124,21,36,59,0.88134394,1.48219866,2.39433213,0.09825718,0.16751614,0.27111160
20065,0,USKansasGraham,Kansas,Graham,2021-01-05 21:51:10.311034,2020-09-13 00:00:00.000000,1.40231324,2.84408674,5.10977225,34,70,126,21,37,60,0.87699458,1.52206792,2.44527591,0.10015052,0.16802965,0.28794280
20065,0,USKansasGraham,Kansas,Graham,2021-01-05 21:51:10.311034,2020-09-14 00:00:00.000000,1.61019334,2.99060715,5.42110865,39,74,134,21,39,62,0.87366642,1.58862817,2.50264393,0.10474464,0.17254799,0.30011526
20065,0,USKansasGraham,Kansas,Graham,2021-01-05 21:51:10.311034,2020-09-15 00:00:00.000000,1.85079515,3.09919536,5.72942239,45,76,142,23,40,63,0.94368971,1.64294636,2.56444218,0.10833659,0.17906473,0.30553881
20065,0,USKansasGraham,Kansas,Graham,2021-01-05 21:51:10.311034,2020-09-16 00:00:00.000000,2.03595061,3.28887307,6.03589007,50,81,149,25,42,65,1.04469856,1.69364463,2.63059792,0.11168918,0.18105590,0.30642846
20065,0,USKansasGraham,Kansas,Graham,2021-01-05 21:51:10.311034,2020-09-17 00:00:00.000000,2.28733194,3.45884521,6.34095509,56,85,157,27,43,67,1.12644823,1.74772207,2.70101160,0.11552878,0.18099378,0.30515759
20065,0,USKansasGraham,Kansas,Graham,2021-01-05 21:51:10.311034,2020-09-18 00:00:00.000000,2.29259892,3.58700791,6.50193200,56,89,161,29,46,68,1.20282236,1.87491250,2.77530750,0.11800158,0.18578930,0.30215430
20065,0,USKansasGraham,Kansas,Graham,2021-01-05 21:51:10.311034,2020-09-19 00:00:00.000000,2.33550078,3.74602652,6.54443979,57,92,162,32,48,70,1.29715308,1.97145167,2.85171707,0.11850359,0.18599098,0.29919240
20065,0,USKansasGraham,Kansas,Graham,2021-01-05 21:51:10.311034,2020-09-20 00:00:00.000000,2.30989838,3.92638248,6.75114071,57,97,167,32,51,72,1.32454645,2.06034609,2.92960158,0.11873838,0.19813159,0.30160811
20065,0,USKansasGraham,Kansas,Graham,2021-01-05 21:51:10.311034,2020-09-21 00:00:00.000000,2.51197479,3.99739984,6.77450172,62,99,168,32,53,74,1.32587881,2.16163452,3.01193796,0.11897642,0.20365019,0.29852960
20065,0,USKansasGraham,Kansas,Graham,2021-01-05 21:51:10.311034,2020-09-22 00:00:00.000000,2.62907953,4.09211052,6.79664571,65,101,168,33,55,78,1.36347988,2.21922577,3.18015416,0.11951876,0.20415021,0.29644686
20065,0,USKansasGraham,Kansas,Graham,2021-01-05 21:51:10.311034,2020-09-23 00:00:00.000000,2.67946496,4.15638678,6.81186622,66,103,169,33,55,79,1.36256643,2.23147700,3.20232039,0.12098302,0.20064604,0.29240198
20065,0,USKansasGraham,Kansas,Graham,2021-01-05 21:51:10.311034,2020-09-24 00:00:00.000000,2.70716805,4.24870027,6.78668826,67,105,168,35,56,80,1.44067767,2.27604938,3.25483426,0.12615425,0.20446883,0.30303701
20065,0,USKansasGraham,Kansas,Graham,2021-01-05 21:51:10.311034,2020-09-25 00:00:00.000000,2.70262622,4.31890314,6.75697015,67,107,167,37,57,82,1.53050230,2.31586660,3.31344163,0.13113069,0.20763558,0.30969879
20065,0,USKansasGraham,Kansas,Graham,2021-01-05 21:51:10.311034,2020-09-26 00:00:00.000000,2.76296455,4.41575137,6.72452395,68,109,166,40,60,83,1.61702071,2.43555347,3.36974616,0.13852813,0.21473751,0.31161288
20065,0,USKansasGraham,Kansas,Graham,2021-01-05 21:51:10.311034,2020-09-27 00:00:00.000000,2.84471131,4.58026161,6.75985293,70,113,167,40,61,85,1.61262110,2.49238436,3.44206581,0.14201758,0.21665288,0.31246618
20065,0,USKansasGraham,Kansas,Graham,2021-01-05 21:51:10.311034,2020-09-28 00:00:00.000000,2.98055350,4.74364590,6.88771509,73,117,170,39,62,88,1.61020331,2.53294138,3.57954245,0.14498118,0.21871036,0.31268860
20065,0,USKansasGraham,Kansas,Graham,2021-01-05 21:51:10.311034,2020-09-29 00:00:00.000000,3.14969038,4.82122432,6.98309586,78,119,173,41,64,91,1.66954192,2.60845109,3.66732075,0.14632979,0.22196545,0.31230412
20065,0,USKansasGraham,Kansas,Graham,2021-01-05 21:51:10.311034,2020-09-30 00:00:00.000000,3.28998415,4.93929578,7.05961312,81,122,175,43,66,91,1.76973127,2.66558425,3.67735013,0.14730349,0.22351311,0.31149453
20065,0,USKansasGraham,Kansas,Graham,2021-01-05 21:51:10.311034,2020-10-01 00:00:00.000000,3.33369451,5.03624769,7.14254354,82,124,177,45,67,92,1.84489333,2.73124193,3.72970057,0.14798672,0.22651983,0.32050464
20065,0,USKansasGraham,Kansas,Graham,2021-01-05 21:51:10.311034,2020-10-02 00:00:00.000000,3.39316205,5.16034422,7.16026964,84,128,177,46,69,94,1.88192771,2.78789711,3.80795393,0.14842384,0.23286346,0.33933009
20065,0,USKansasGraham,Kansas,Graham,2021-01-05 21:51:10.311034,2020-10-03 00:00:00.000000,3.50070328,5.36866399,7.16839328,86,133,177,47,70,96,1.92245092,2.85650276,3.88037570,0.14856662,0.24084034,0.34113685
20065,0,USKansasGraham,Kansas,Graham,2021-01-05 21:51:10.311034,2020-10-04 00:00:00.000000,3.63725371,5.44639299,7.34950152,90,135,182,49,72,98,1.97884143,2.90225494,3.96776090,0.14938711,0.24937911,0.37666519
20065,0,USKansasGraham,Kansas,Graham,2021-01-05 21:51:10.311034,2020-10-05 00:00:00.000000,3.73230761,5.56419736,7.54395838,92,138,187,50,73,101,2.04107331,2.95716356,4.08800987,0.15402706,0.25655177,0.37874092
20065,0,USKansasGraham,Kansas,Graham,2021-01-05 21:51:10.311034,2020-10-06 00:00:00.000000,3.84561808,5.63824794,7.88751404,95,139,195,51,74,103,2.05508578,3.01415363,4.17649687,0.17105680,0.26154088,0.37522443
20065,0,USKansasGraham,Kansas,Graham,2021-01-05 21:51:10.311034,2020-10-07 00:00:00.000000,3.96312557,5.74486085,8.11817658,98,142,201,51,76,105,2.06891956,3.10052613,4.25522247,0.17943414,0.26054549,0.36748174
20065,0,USKansasGraham,Kansas,Graham,2021-01-05 21:51:10.311034,2020-10-08 00:00:00.000000,4.04901184,5.84654455,8.21726946,100,145,203,53,78,108,2.15425905,3.18040671,4.36531673,0.18584371,0.26048317,0.35380881
20065,0,USKansasGraham,Kansas,Graham,2021-01-05 21:51:10.311034,2020-10-09 00:00:00.000000,4.00915823,5.98152195,8.41891197,99,148,208,54,81,111,2.21462638,3.27118140,4.47571461,0.19139960,0.26491816,0.36039320
20065,0,USKansasGraham,Kansas,Graham,2021-01-05 21:51:10.311034,2020-10-10 00:00:00.000000,4.12412424,6.20092834,8.66436317,102,153,215,55,82,114,2.23815168,3.34193294,4.59509110,0.19439154,0.26879900,0.35693423
20065,0,USKansasGraham,Kansas,Graham,2021-01-05 21:51:10.311034,2020-10-11 00:00:00.000000,4.25861918,6.34210541,8.92317609,105,157,221,56,84,117,2.27657831,3.39076911,4.71716568,0.20112357,0.27055128,0.36425577
20065,0,USKansasGraham,Kansas,Graham,2021-01-05 21:51:10.311034,2020-10-12 00:00:00.000000,4.42629850,6.47833829,9.08665463,109,160,225,56,85,120,2.27095423,3.43889941,4.84413728,0.20104759,0.26713744,0.36892097
20065,0,USKansasGraham,Kansas,Graham,2021-01-05 21:51:10.311034,2020-10-13 00:00:00.000000,4.59738479,6.53817060,9.26128074,114,162,229,56,87,123,2.29122231,3.51918340,4.95806602,0.20021235,0.27291512,0.37959442
20065,0,USKansasGraham,Kansas,Graham,2021-01-05 21:51:10.311034,2020-10-14 00:00:00.000000,4.71095042,6.64611159,9.44207170,116,164,234,58,88,126,2.36801276,3.57710490,5.07972708,0.20503962,0.27819140,0.39507709
20065,0,USKansasGraham,Kansas,Graham,2021-01-05 21:51:10.311034,2020-10-15 00:00:00.000000,4.70290850,6.73739223,9.62661279,116,167,238,60,91,129,2.45166143,3.67692150,5.20340090,0.21855782,0.28444616,0.44330149
20065,0,USKansasGraham,Kansas,Graham,2021-01-05 21:51:10.311034,2020-10-16 00:00:00.000000,4.71983976,6.83130640,10.10403402,117,169,250,63,93,132,2.54018371,3.75306348,5.33213918,0.22661465,0.29763948,0.45202208
20065,0,USKansasGraham,Kansas,Graham,2021-01-05 21:51:10.311034,2020-10-17 00:00:00.000000,4.73117817,6.99903238,10.73760720,117,173,266,62,94,135,2.53759777,3.81946598,5.47088019,0.23070620,0.31407680,0.45472488
20065,0,USKansasGraham,Kansas,Graham,2021-01-05 21:51:10.311034,2020-10-18 00:00:00.000000,4.73248150,7.20425802,11.38928164,117,178,282,63,97,139,2.54373412,3.92977941,5.62672492,0.23440449,0.32346507,0.46084521
20065,0,USKansasGraham,Kansas,Graham,2021-01-05 21:51:10.311034,2020-10-19 00:00:00.000000,4.82126040,7.43351214,12.01728006,119,184,298,63,100,144,2.56137213,4.05227796,5.81457924,0.24818230,0.33538570,0.48689561
20065,0,USKansasGraham,Kansas,Graham,2021-01-05 21:51:10.311034,2020-10-20 00:00:00.000000,4.99071268,7.66082461,12.51107767,123,190,310,64,103,150,2.61089728,4.15377811,6.06328150,0.25581497,0.34337276,0.49316086
20065,0,USKansasGraham,Kansas,Graham,2021-01-05 21:51:10.311034,2020-10-21 00:00:00.000000,5.24410076,7.95236028,13.00719769,130,197,322,66,105,156,2.68400917,4.25382154,6.28600253,0.25796488,0.35728216,0.51636535
20065,0,USKansasGraham,Kansas,Graham,2021-01-05 21:51:10.311034,2020-10-22 00:00:00.000000,5.57103220,8.27971710,13.62882002,138,205,338,68,107,163,2.76395911,4.34809645,6.57213345,0.25952031,0.37069647,0.50971635
20065,0,USKansasGraham,Kansas,Graham,2021-01-05 21:51:10.311034,2020-10-23 00:00:00.000000,5.71749421,8.57947525,14.22642025,141,212,353,69,110,170,2.80877782,4.44399094,6.88061612,0.26414492,0.39915783,0.53998702
20065,0,USKansasGraham,Kansas,Graham,2021-01-05 21:51:10.311034,2020-10-24 00:00:00.000000,5.84299296,8.94743262,14.76644878,145,222,366,71,113,178,2.86607254,4.56293519,7.20761096,0.27605742,0.42007061,0.55205620
20065,0,USKansasGraham,Kansas,Graham,2021-01-05 21:51:10.311034,2020-10-25 00:00:00.000000,5.97649276,9.39108779,15.26385130,148,233,378,73,115,187,2.95365564,4.66171548,7.55090730,0.30149560,0.42782391,0.59465184
20065,0,USKansasGraham,Kansas,Graham,2021-01-05 21:51:10.311034,2020-10-26 00:00:00.000000,6.10960885,9.95774654,15.85964052,151,247,393,76,120,195,3.09085466,4.86233048,7.89420431,0.33934545,0.45343769,0.61829588
20065,0,USKansasGraham,Kansas,Graham,2021-01-05 21:51:10.311034,2020-10-27 00:00:00.000000,6.62882576,10.61620146,16.45552324,164,263,408,81,126,204,3.27717916,5.10732400,8.23004255,0.36615022,0.46723248,0.65784401
20065,0,USKansasGraham,Kansas,Graham,2021-01-05 21:51:10.311034,2020-10-28 00:00:00.000000,7.27453381,11.26034447,17.05794665,180,279,423,87,133,213,3.50963358,5.39418294,8.58739075,0.37048111,0.48177400,0.69692981
20065,0,USKansasGraham,Kansas,Graham,2021-01-05 21:51:10.311034,2020-10-29 00:00:00.000000,7.61198625,11.90854479,17.57914550,188,295,436,93,140,223,3.78207078,5.67729699,9.01573079,0.38061994,0.50518155,0.75326368
20065,0,USKansasGraham,Kansas,Graham,2021-01-05 21:51:10.311034,2020-10-30 00:00:00.000000,7.84468421,12.67016493,18.14606886,194,314,450,97,149,233,3.94765134,6.02430304,9.40776157,0.40500620,0.53117734,0.78373436
20065,0,USKansasGraham,Kansas,Graham,2021-01-05 21:51:10.311034,2020-10-31 00:00:00.000000,8.23641442,13.50401370,18.79807879,204,335,466,102,159,244,4.11295601,6.41908457,9.83466904,0.42110523,0.56474596,0.83007716
20065,0,USKansasGraham,Kansas,Graham,2021-01-05 21:51:10.311034,2020-11-01 00:00:00.000000,8.73716781,14.43605134,19.89223955,216,358,493,106,169,255,4.29267825,6.84695446,10.31011824,0.43455342,0.59554011,0.87393098
20065,0,USKansasGraham,Kansas,Graham,2021-01-05 21:51:10.311034,2020-11-02 00:00:00.000000,9.26025496,15.38791846,21.02035249,229,381,521,112,180,268,4.54195002,7.27399991,10.83058917,0.44439085,0.62707667,0.88868849
20065,0,USKansasGraham,Kansas,Graham,2021-01-05 21:51:10.311034,2020-11-03 00:00:00.000000,9.91190836,16.44101871,22.10460456,246,408,548,122,193,282,4.91545889,7.78441288,11.38506289,0.48595037,0.64732219,0.89339428
20065,0,USKansasGraham,Kansas,Graham,2021-01-05 21:51:10.311034,2020-11-04 00:00:00.000000,10.35101834,17.77509460,23.47890704,256,441,582,131,205,297,5.28720340,8.25976947,11.99284468,0.49324624,0.66481914,0.91469132
20065,0,USKansasGraham,Kansas,Graham,2021-01-05 21:51:10.311034,2020-11-05 00:00:00.000000,10.93525544,18.90439674,25.11064060,271,469,623,140,220,314,5.64656402,8.86416644,12.68062070,0.50217821,0.70224990,0.95403001
20065,0,USKansasGraham,Kansas,Graham,2021-01-05 21:51:10.311034,2020-11-06 00:00:00.000000,11.57622261,20.10834850,26.76908521,287,499,664,149,234,334,6.00939464,9.46325934,13.48803606,0.54483232,0.71356254,0.98055492
20065,0,USKansasGraham,Kansas,Graham,2021-01-05 21:51:10.311034,2020-11-07 00:00:00.000000,12.28749221,21.39781303,28.45802714,304,531,706,164,250,357,6.62780830,10.08973318,14.40911185,0.59814101,0.75184368,1.09999048
20065,0,USKansasGraham,Kansas,Graham,2021-01-05 21:51:10.311034,2020-11-08 00:00:00.000000,13.05534328,22.54054281,30.17256503,324,559,748,182,266,382,7.34437649,10.73250418,15.41121544,0.60309994,0.78646924,1.13408012
20065,0,USKansasGraham,Kansas,Graham,2021-01-05 21:51:10.311034,2020-11-09 00:00:00.000000,14.20481409,23.66518606,32.04492744,352,587,795,194,285,409,7.85215839,11.49828615,16.48411418,0.61767805,0.80835416,1.14002766
20065,0,USKansasGraham,Kansas,Graham,2021-01-05 21:51:10.311034,2020-11-10 00:00:00.000000,15.38685620,25.02311113,33.73720107,381,621,837,210,304,436,8.47805063,12.27291800,17.59718360,0.63096555,0.83086857,1.14566946
20065,0,USKansasGraham,Kansas,Graham,2021-01-05 21:51:10.311034,2020-11-11 00:00:00.000000,16.73269316,26.21376068,35.39532654,415,650,878,227,324,464,9.15494246,13.05861801,18.70828066,0.60228858,0.84618528,1.17208818
20065,0,USKansasGraham,Kansas,Graham,2021-01-05 21:51:10.311034,2020-11-12 00:00:00.000000,18.13614563,27.50469965,37.21300999,450,682,923,244,343,489,9.86987282,13.83097744,19.70859763,0.60850599,0.85845654,1.17756610
20065,0,USKansasGraham,Kansas,Graham,2021-01-05 21:51:10.311034,2020-11-13 00:00:00.000000,19.63444494,28.76914010,39.08844246,487,714,970,263,361,511,10.60354512,14.57049750,20.60459915,0.61225775,0.86555728,1.22146849
20065,0,USKansasGraham,Kansas,Graham,2021-01-05 21:51:10.311034,2020-11-14 00:00:00.000000,21.18438909,29.81202404,40.80399812,525,739,1012,281,376,532,11.33924016,15.16727905,21.44539896,0.59875320,0.86771450,1.23706218
20065,0,USKansasGraham,Kansas,Graham,2021-01-05 21:51:10.311034,2020-11-15 00:00:00.000000,22.71362290,30.83583189,42.32795460,563,765,1050,296,393,541,11.93557937,15.83682488,21.83278802,0.58524953,0.88425549,1.26622209
20065,0,USKansasGraham,Kansas,Graham,2021-01-05 21:51:10.311034,2020-11-16 00:00:00.000000,23.96287670,31.73461381,43.32743564,594,787,1075,309,408,547,12.46737639,16.46242310,22.06607246,0.59436959,0.88105694,1.32696880
20065,0,USKansasGraham,Kansas,Graham,2021-01-05 21:51:10.311034,2020-11-17 00:00:00.000000,24.50943845,32.40466377,43.66686554,608,804,1083,325,422,549,13.13430640,17.02939590,22.14463538,0.63053693,0.87483453,1.35627539
20065,0,USKansasGraham,Kansas,Graham,2021-01-05 21:51:10.311034,2020-11-18 00:00:00.000000,24.89521480,33.21396352,43.35792291,617,824,1076,335,433,553,13.52655543,17.47565432,22.31087243,0.63449085,0.88618795,1.36114272
20065,0,USKansasGraham,Kansas,Graham,2021-01-05 21:51:10.311034,2020-11-19 00:00:00.000000,25.45849826,33.20391220,42.85078933,631,824,1063,344,442,567,13.88638308,17.84605137,22.84618094,0.61119979,0.89321352,1.36674599
20065,0,USKansasGraham,Kansas,Graham,2021-01-05 21:51:10.311034,2020-11-20 00:00:00.000000,26.06998677,33.32474974,42.17043856,647,827,1046,347,452,577,14.00310681,18.21114560,23.25987984,0.55749499,0.90849426,1.38361083
20065,0,USKansasGraham,Kansas,Graham,2021-01-05 21:51:10.311034,2020-11-21 00:00:00.000000,26.14958516,33.23764855,41.58042316,649,824,1032,349,455,592,14.08239578,18.36402707,23.87960681,0.54138567,0.91464616,1.56730694
20065,0,USKansasGraham,Kansas,Graham,2021-01-05 21:51:10.311034,2020-11-22 00:00:00.000000,25.93467493,32.68481035,41.24673084,643,811,1023,359,456,604,14.48472121,18.39490584,24.36569395,0.53800342,0.92464877,1.62786138
20065,0,USKansasGraham,Kansas,Graham,2021-01-05 21:51:10.311034,2020-11-23 00:00:00.000000,25.59677868,32.00487897,40.72177735,635,794,1010,357,456,606,14.41040817,18.38244679,24.42785368,0.53661705,0.91117257,1.69941662
20065,0,USKansasGraham,Kansas,Graham,2021-01-05 21:51:10.311034,2020-11-24 00:00:00.000000,25.64917148,31.28993345,40.31320502,636,776,1000,354,455,597,14.29413279,18.35294509,24.05515995,0.53466360,0.88778534,1.68627022
20065,0,USKansasGraham,Kansas,Graham,2021-01-05 21:51:10.311034,2020-11-25 00:00:00.000000,25.15375357,30.50917477,39.71758936,624,757,985,350,452,592,14.11496234,18.21205384,23.85478931,0.52087440,0.88940865,1.67381905
20065,0,USKansasGraham,Kansas,Graham,2021-01-05 21:51:10.311034,2020-11-26 00:00:00.000000,24.53202567,29.67829904,38.92563192,608,736,966,344,445,586,13.89153265,17.95402274,23.64251111,0.48149220,0.89859325,1.70331460
20065,0,USKansasGraham,Kansas,Graham,2021-01-05 21:51:10.311034,2020-11-27 00:00:00.000000,23.34817353,28.56067834,37.96332448,579,708,942,338,439,571,13.62566111,17.72655736,23.03860587,0.46400868,0.88883300,1.71398171
20065,0,USKansasGraham,Kansas,Graham,2021-01-05 21:51:10.311034,2020-11-28 00:00:00.000000,22.20004688,27.40055786,36.78866720,551,680,913,330,427,555,13.32053560,17.23826892,22.37740653,0.45971262,0.88601175,1.72407990
20065,0,USKansasGraham,Kansas,Graham,2021-01-05 21:51:10.311034,2020-11-29 00:00:00.000000,21.06865665,26.09200004,35.21642798,522,647,874,322,415,542,12.98036538,16.75844071,21.87166827,0.45514022,0.86798510,1.73892552
20065,0,USKansasGraham,Kansas,Graham,2021-01-05 21:51:10.311034,2020-11-30 00:00:00.000000,19.74743502,24.98592238,33.58564745,490,620,833,312,401,528,12.59042805,16.18874258,21.29572652,0.45997356,0.87752105,1.76815212
20065,0,USKansasGraham,Kansas,Graham,2021-01-05 21:51:10.311034,2020-12-01 00:00:00.000000,18.46959773,23.85029638,31.92970765,458,591,792,300,387,512,12.09200921,15.59547208,20.66359668,0.45187679,0.89087605,1.82371082
20065,0,USKansasGraham,Kansas,Graham,2021-01-05 21:51:10.311034,2020-12-02 00:00:00.000000,17.23828456,22.62579030,30.27298358,427,561,751,288,371,498,11.63510996,14.96494176,20.06952812,0.45052011,0.89479136,1.91152502
20065,0,USKansasGraham,Kansas,Graham,2021-01-05 21:51:10.311034,2020-12-03 00:00:00.000000,16.06153782,21.31420884,28.63272692,398,529,710,272,354,482,10.97031088,14.28140643,19.44440193,0.45083416,0.89207270,2.00563875
20065,0,USKansasGraham,Kansas,Graham,2021-01-05 21:51:10.311034,2020-12-04 00:00:00.000000,14.94464252,20.11812453,27.29643339,370,499,677,257,335,465,10.37966362,13.53188171,18.76500317,0.45165066,0.88892637,2.06760373
20065,0,USKansasGraham,Kansas,Graham,2021-01-05 21:51:10.311034,2020-12-05 00:00:00.000000,13.78058001,19.02209929,26.15525563,342,472,649,242,316,449,9.78902554,12.76197799,18.09154449,0.45509700,0.87447248,2.09834897
20065,0,USKansasGraham,Kansas,Graham,2021-01-05 21:51:10.311034,2020-12-06 00:00:00.000000,12.57473206,17.84955311,24.90914691,312,443,618,228,301,431,9.20647282,12.16037173,17.40502462,0.45791616,0.85452707,2.11345377
20065,0,USKansasGraham,Kansas,Graham,2021-01-05 21:51:10.311034,2020-12-07 00:00:00.000000,11.47091068,16.72865266,23.48162852,284,415,582,213,286,416,8.61767307,11.52715640,16.76934392,0.44425371,0.84194571,2.13828404
20065,0,USKansasGraham,Kansas,Graham,2021-01-05 21:51:10.311034,2020-12-08 00:00:00.000000,10.48712397,15.66927727,22.36801759,260,388,555,197,270,400,7.96642155,10.89476522,16.13115592,0.44252817,0.83255888,2.15294495
20065,0,USKansasGraham,Kansas,Graham,2021-01-05 21:51:10.311034,2020-12-09 00:00:00.000000,9.68998796,14.68446074,21.40064878,240,364,531,182,255,384,7.36233991,10.27736297,15.49492259,0.44295224,0.83324666,2.16572897
20065,0,USKansasGraham,Kansas,Graham,2021-01-05 21:51:10.311034,2020-12-10 00:00:00.000000,8.96001348,13.68583858,20.46366737,222,339,507,168,240,368,6.80366255,9.70958261,14.86431375,0.44839786,0.83365220,2.29641784
20065,0,USKansasGraham,Kansas,Graham,2021-01-05 21:51:10.311034,2020-12-11 00:00:00.000000,8.29336023,12.69060610,19.55482938,205,314,485,156,228,353,6.28838846,9.20573099,14.24236660,0.46023876,0.83275810,2.33005065
20065,0,USKansasGraham,Kansas,Graham,2021-01-05 21:51:10.311034,2020-12-12 00:00:00.000000,7.68396063,11.89921168,18.55366453,190,295,460,144,215,338,5.81434186,8.66609716,13.63162322,0.46298444,0.84285366,2.35671040
20065,0,USKansasGraham,Kansas,Graham,2021-01-05 21:51:10.311034,2020-12-13 00:00:00.000000,7.12808887,10.97818307,17.78022156,176,272,441,133,199,323,5.37923058,8.03178591,13.03428700,0.46802779,0.84588257,2.49022889
20065,0,USKansasGraham,Kansas,Graham,2021-01-05 21:51:10.311034,2020-12-14 00:00:00.000000,6.55577644,10.10785222,16.98448575,162,250,421,123,185,309,4.98069903,7.46139066,12.45254859,0.47932638,0.85053927,2.65352026
20065,0,USKansasGraham,Kansas,Graham,2021-01-05 21:51:10.311034,2020-12-15 00:00:00.000000,6.15914257,9.38904689,16.17604542,152,233,401,114,170,294,4.60082960,6.87712045,11.88438201,0.49955108,0.84153710,2.67623526
20065,0,USKansasGraham,Kansas,Graham,2021-01-05 21:51:10.311034,2020-12-16 00:00:00.000000,5.88965389,8.66751921,15.41865746,146,215,382,105,158,277,4.24269490,6.39026461,11.18328675,0.49299593,0.83568734,2.67482989
20065,0,USKansasGraham,Kansas,Graham,2021-01-05 21:51:10.311034,2020-12-17 00:00:00.000000,5.65128108,8.00660942,14.70342802,140,198,364,97,147,260,3.90940185,5.93297849,10.49399416,0.48289430,0.82295221,2.68295578
20065,0,USKansasGraham,Kansas,Graham,2021-01-05 21:51:10.311034,2020-12-18 00:00:00.000000,5.23629054,7.42712433,14.02688516,129,184,348,89,136,244,3.59984851,5.50319526,9.84056918,0.47275274,0.81219864,2.74400510
20065,0,USKansasGraham,Kansas,Graham,2021-01-05 21:51:10.311034,2020-12-19 00:00:00.000000,4.83612831,6.89423799,13.38547081,120,171,332,82,126,229,3.31390600,5.10640115,9.22753388,0.46307840,0.81052707,2.98765314
20065,0,USKansasGraham,Kansas,Graham,2021-01-05 21:51:10.311034,2020-12-20 00:00:00.000000,4.47081012,6.37440653,12.77444605,110,158,317,75,117,219,3.05094178,4.73297759,8.85072681,0.44673828,0.79378194,3.30919493
20065,0,USKansasGraham,Kansas,Graham,2021-01-05 21:51:10.311034,2020-12-21 00:00:00.000000,4.14744778,5.87373226,12.15517833,102,145,301,69,108,210,2.80998964,4.38331963,8.48939922,0.41892234,0.79011892,3.37000790
20065,0,USKansasGraham,Kansas,Graham,2021-01-05 21:51:10.311034,2020-12-22 00:00:00.000000,3.85295652,5.48730812,11.56052093,95,136,286,64,100,201,2.60802404,4.04987705,8.13298077,0.41163971,0.78317874,3.37690259
20065,0,USKansasGraham,Kansas,Graham,2021-01-05 21:51:10.311034,2020-12-23 00:00:00.000000,3.52467101,5.15790028,10.98900209,87,128,272,59,93,193,2.40731973,3.75492975,7.78278087,0.40437916,0.78401361,3.36178336
20065,0,USKansasGraham,Kansas,Graham,2021-01-05 21:51:10.311034,2020-12-24 00:00:00.000000,3.22260404,4.85060176,10.43999595,79,120,259,54,86,184,2.21294931,3.49014971,7.43974344,0.39769271,0.78484821,3.28694267
20065,0,USKansasGraham,Kansas,Graham,2021-01-05 21:51:10.311034,2020-12-25 00:00:00.000000,2.94668185,4.61931296,9.91277479,73,114,246,50,81,176,2.05081927,3.29479176,7.10454040,0.38319403,0.77592927,3.08597001
20065,0,USKansasGraham,Kansas,Graham,2021-01-05 21:51:10.311034,2020-12-26 00:00:00.000000,2.69441865,4.41091219,9.40645993,66,109,233,47,76,168,1.90467075,3.08353978,6.77760803,0.37794510,0.77487160,3.09528781
20065,0,USKansasGraham,Kansas,Graham,2021-01-05 21:51:10.311034,2020-12-27 00:00:00.000000,2.46398011,4.20684934,8.92011722,61,104,221,44,72,160,1.77297521,2.90551061,6.45916631,0.36671022,0.77403140,3.12596051
20065,0,USKansasGraham,Kansas,Graham,2021-01-05 21:51:10.311034,2020-12-28 00:00:00.000000,2.22749211,3.85322358,8.40846905,55,95,208,41,68,152,1.65434220,2.74855846,6.14925565,0.34504563,0.78083134,3.13384504
20065,0,USKansasGraham,Kansas,Graham,2021-01-05 21:51:10.311034,2020-12-29 00:00:00.000000,2.01023982,3.50400246,7.91566251,49,86,196,38,63,144,1.53179075,2.55330172,5.84189632,0.34018570,0.77556432,3.15274242
20065,0,USKansasGraham,Kansas,Graham,2021-01-05 21:51:10.311034,2020-12-30 00:00:00.000000,1.81061553,3.17422228,7.44170864,44,78,184,34,58,137,1.40974872,2.34679515,5.53862070,0.33805385,0.77395173,3.19575371
20065,0,USKansasGraham,Kansas,Graham,2021-01-05 21:51:10.311034,2020-12-31 00:00:00.000000,1.63523188,2.87498082,6.98762190,40,71,173,32,53,130,1.29118418,2.14472937,5.24075528,0.33709049,0.76521994,3.23988707
20065,0,USKansasGraham,Kansas,Graham,2021-01-05 21:51:10.311034,2021-01-01 00:00:00.000000,1.47798819,2.59689055,6.55425182,36,64,162,29,48,122,1.17800759,1.95137470,4.94953031,0.33665783,0.76641514,3.26016970
20065,0,USKansasGraham,Kansas,Graham,2021-01-05 21:51:10.311034,2021-01-02 00:00:00.000000,1.33386905,2.34289377,6.14213862,33,58,152,26,44,115,1.07136909,1.77302714,4.66609177,0.33652048,0.77314229,3.26644766
20065,0,USKansasGraham,Kansas,Graham,2021-01-05 21:51:10.311034,2021-01-03 00:00:00.000000,1.20230585,2.11189520,5.75149125,29,52,142,24,40,108,0.97187723,1.61830967,4.39147853,0.33665584,0.78606067,3.26826307
20065,0,USKansasGraham,Kansas,Graham,2021-01-05 21:51:10.311034,2021-01-04 00:00:00.000000,1.08259347,1.90229798,5.38219919,26,47,133,21,36,102,0.87975978,1.47327638,4.12660319,0.33738529,0.79339704,3.26880432
20065,0,USKansasGraham,Kansas,Graham,2021-01-05 21:51:10.311034,2021-01-05 00:00:00.000000,0.97395269,1.71237768,5.03386885,24,42,124,19,33,96,0.79217001,1.33913172,3.87222474,0.34098700,0.78909371,3.26897303
20065,0,USKansasGraham,Kansas,Graham,2021-01-05 21:51:10.311034,2021-01-06 00:00:00.000000,0.87557419,1.54032410,4.70589260,21,38,116,17,30,90,0.70251957,1.21128114,3.62891566,0.34234192,0.78932759,3.26902815
20065,0,USKansasGraham,Kansas,Graham,2021-01-05 21:51:10.311034,2021-01-07 00:00:00.000000,0.78664893,1.37610840,4.39752233,19,34,109,15,27,84,0.62208384,1.09613245,3.39704689,0.34386317,0.79099230,3.26904698
20065,0,USKansasGraham,Kansas,Graham,2021-01-05 21:51:10.311034,2021-01-08 00:00:00.000000,0.70028242,1.24199909,4.10792682,17,30,101,13,24,78,0.55017720,0.98780592,3.17679706,0.34365773,0.79211091,3.26905366
20065,0,USKansasGraham,Kansas,Graham,2021-01-05 21:51:10.311034,2021-01-09 00:00:00.000000,0.61727573,1.11842455,3.82885838,15,27,95,12,22,73,0.48608368,0.89319200,2.96817713,0.34359509,0.79285667,3.26905610
20065,0,USKansasGraham,Kansas,Graham,2021-01-05 21:51:10.311034,2021-01-10 00:00:00.000000,0.54385049,1.00506018,3.55951774,13,24,88,10,19,68,0.42909078,0.80416116,2.77106032,0.34357570,0.79334938,3.26905701
20065,0,USKansasGraham,Kansas,Graham,2021-01-05 21:51:10.311034,2021-01-11 00:00:00.000000,0.47896896,0.90572380,3.30804698,11,22,82,9,17,64,0.37851109,0.72300953,2.58521147,0.34356955,0.79367240,3.26905736
20065,0,USKansasGraham,Kansas,Graham,2021-01-05 21:51:10.311034,2021-01-12 00:00:00.000000,0.42285886,0.81804759,3.07346213,10,20,76,8,16,59,0.33369532,0.65310142,2.41031313,0.34356754,0.79388296,3.26905749
20065,0,USKansasGraham,Kansas,Graham,2021-01-05 21:51:10.311034,2021-01-13 00:00:00.000000,0.37672157,0.74155269,2.85479219,9,18,70,7,14,55,0.29403957,0.59008620,2.24598776,0.34356685,0.79401965,3.26905754
20065,0,USKansasGraham,Kansas,Graham,2021-01-05 21:51:10.311034,2021-01-14 00:00:00.000000,0.33554838,0.67243399,2.65108956,8,16,65,6,13,51,0.25898851,0.53298718,2.09181586,0.34356660,0.79410814,3.26905756
20065,0,USKansasGraham,Kansas,Graham,2021-01-05 21:51:10.311034,2021-01-15 00:00:00.000000,0.29882092,0.60890655,2.46143726,7,15,61,5,11,48,0.22803596,0.48128638,1.94735072,0.34356651,0.79416530,3.26905757
20065,0,USKansasGraham,Kansas,Graham,2021-01-05 21:51:10.311034,2021-01-16 00:00:00.000000,0.26607132,0.54891859,2.28480768,6,13,56,4,10,44,0.20072365,0.43450241,1.81213012,0.34356648,0.79420219,3.26905757
20065,0,USKansasGraham,Kansas,Graham,2021-01-05 21:51:10.311034,2021-01-17 00:00:00.000000,0.23687816,0.49479578,2.12042440,5,12,52,4,9,41,0.17689995,0.39219011,1.68568550,0.34356646,0.79422597,3.26905757
