FIPS,HR_UID,nameid,province,region,analysisTime,dates,pointprevalence_025,pointprevalence_50,pointprevalence_975,pointinfections_025,pointinfections_50,pointinfections_975,pointinfectious_025,pointinfectious_50,pointinfectious_975,pointinfectiousprevalence_05,pointinfectiousprevalence_50,pointinfectiousprevalence_95,infectrate_025,infectrate_50,infectrate_975
42033,0,USPennsylvaniaClearfield,Pennsylvania,Clearfield,2021-01-05 12:04:05.025439,2020-03-09 00:00:00.000000,0.00084977,0.00482427,0.01666701,0,3,13,0,1,6,0.00043973,0.00243655,0.00844706,0.38961369,0.52931667,0.72434161
42033,0,USPennsylvaniaClearfield,Pennsylvania,Clearfield,2021-01-05 12:04:05.025439,2020-03-10 00:00:00.000000,0.00098604,0.00549818,0.01840541,0,4,14,0,1,6,0.00044230,0.00246502,0.00853249,0.38961344,0.52924502,0.72434158
42033,0,USPennsylvaniaClearfield,Pennsylvania,Clearfield,2021-01-05 12:04:05.025439,2020-03-11 00:00:00.000000,0.00112072,0.00613624,0.02013861,0,4,15,0,2,7,0.00046391,0.00254900,0.00892920,0.38961291,0.52912056,0.72434147
42033,0,USPennsylvaniaClearfield,Pennsylvania,Clearfield,2021-01-05 12:04:05.025439,2020-03-12 00:00:00.000000,0.00125797,0.00661111,0.02210169,0,5,17,0,2,7,0.00050863,0.00275004,0.00953203,0.38961177,0.52890177,0.72434105
42033,0,USPennsylvaniaClearfield,Pennsylvania,Clearfield,2021-01-05 12:04:05.025439,2020-03-13 00:00:00.000000,0.00140096,0.00709871,0.02413736,1,5,19,0,2,8,0.00057832,0.00300356,0.01028264,0.38960927,0.52882682,0.72433920
42033,0,USPennsylvaniaClearfield,Pennsylvania,Clearfield,2021-01-05 12:04:05.025439,2020-03-14 00:00:00.000000,0.00155217,0.00755655,0.02632441,1,5,20,0,2,8,0.00065329,0.00336466,0.01115008,0.38960363,0.52862058,0.72432988
42033,0,USPennsylvaniaClearfield,Pennsylvania,Clearfield,2021-01-05 12:04:05.025439,2020-03-15 00:00:00.000000,0.00171350,0.00811289,0.02868040,1,6,22,0,2,9,0.00073251,0.00362717,0.01211938,0.38959024,0.52603395,0.72427741
42033,0,USPennsylvaniaClearfield,Pennsylvania,Clearfield,2021-01-05 12:04:05.025439,2020-03-16 00:00:00.000000,0.00415821,0.01054271,0.03228396,3,8,25,0,3,10,0.00081582,0.00382020,0.01336123,0.38955603,0.52034202,0.72395992
42033,0,USPennsylvaniaClearfield,Pennsylvania,Clearfield,2021-01-05 12:04:05.025439,2020-03-17 00:00:00.000000,0.00573831,0.01300486,0.03601582,4,10,28,1,3,11,0.00134169,0.00428595,0.01501747,0.37655561,0.51184243,0.72196463
42033,0,USPennsylvaniaClearfield,Pennsylvania,Clearfield,2021-01-05 12:04:05.025439,2020-03-18 00:00:00.000000,0.00720081,0.01541322,0.04010072,5,12,31,1,4,13,0.00211930,0.00537359,0.01719980,0.37313301,0.50478771,0.70958288
42033,0,USPennsylvaniaClearfield,Pennsylvania,Clearfield,2021-01-05 12:04:05.025439,2020-03-19 00:00:00.000000,0.00842943,0.01881850,0.04447610,6,14,35,2,5,15,0.00259041,0.00631319,0.01962280,0.34623420,0.48560977,0.69494540
42033,0,USPennsylvaniaClearfield,Pennsylvania,Clearfield,2021-01-05 12:04:05.025439,2020-03-20 00:00:00.000000,0.00974411,0.02202927,0.04873101,7,17,38,2,5,17,0.00318623,0.00728460,0.02210853,0.31360556,0.45821554,0.67510684
42033,0,USPennsylvaniaClearfield,Pennsylvania,Clearfield,2021-01-05 12:04:05.025439,2020-03-21 00:00:00.000000,0.01139267,0.02456132,0.05276089,9,19,41,2,6,19,0.00376088,0.00845528,0.02447161,0.30300598,0.43489227,0.65780159
42033,0,USPennsylvaniaClearfield,Pennsylvania,Clearfield,2021-01-05 12:04:05.025439,2020-03-22 00:00:00.000000,0.01263990,0.02703304,0.05657587,10,21,44,3,7,21,0.00439076,0.00979623,0.02683828,0.27690426,0.41187916,0.62551423
42033,0,USPennsylvaniaClearfield,Pennsylvania,Clearfield,2021-01-05 12:04:05.025439,2020-03-23 00:00:00.000000,0.01551741,0.02951906,0.06145768,12,23,48,4,8,23,0.00521965,0.01129025,0.02953107,0.25110988,0.39416398,0.60459525
42033,0,USPennsylvaniaClearfield,Pennsylvania,Clearfield,2021-01-05 12:04:05.025439,2020-03-24 00:00:00.000000,0.01679443,0.03265952,0.06655546,13,25,52,4,10,25,0.00609500,0.01294736,0.03252743,0.24726907,0.38137825,0.58814439
42033,0,USPennsylvaniaClearfield,Pennsylvania,Clearfield,2021-01-05 12:04:05.025439,2020-03-25 00:00:00.000000,0.01819028,0.03546514,0.07178384,14,28,56,5,11,28,0.00672821,0.01459088,0.03554490,0.23266209,0.37580886,0.58233988
42033,0,USPennsylvaniaClearfield,Pennsylvania,Clearfield,2021-01-05 12:04:05.025439,2020-03-26 00:00:00.000000,0.01946929,0.03994080,0.07715961,15,31,61,6,12,30,0.00764195,0.01621904,0.03851549,0.23241738,0.36678287,0.56862413
42033,0,USPennsylvaniaClearfield,Pennsylvania,Clearfield,2021-01-05 12:04:05.025439,2020-03-27 00:00:00.000000,0.02070182,0.04405186,0.08262564,16,34,65,6,14,32,0.00843280,0.01800985,0.04140128,0.22973572,0.34966303,0.53913904
42033,0,USPennsylvaniaClearfield,Pennsylvania,Clearfield,2021-01-05 12:04:05.025439,2020-03-28 00:00:00.000000,0.02189833,0.04752687,0.08763725,17,37,69,7,15,35,0.00914497,0.01996281,0.04418275,0.20623860,0.32849148,0.51829569
42033,0,USPennsylvaniaClearfield,Pennsylvania,Clearfield,2021-01-05 12:04:05.025439,2020-03-29 00:00:00.000000,0.02309922,0.05111802,0.09164779,18,40,72,7,17,37,0.00984113,0.02167743,0.04683081,0.19809661,0.31064942,0.49853784
42033,0,USPennsylvaniaClearfield,Pennsylvania,Clearfield,2021-01-05 12:04:05.025439,2020-03-30 00:00:00.000000,0.02492042,0.05470113,0.09490324,19,43,75,8,18,39,0.01067370,0.02337956,0.04936874,0.19316019,0.29656724,0.48013189
42033,0,USPennsylvaniaClearfield,Pennsylvania,Clearfield,2021-01-05 12:04:05.025439,2020-03-31 00:00:00.000000,0.02688368,0.05769693,0.09809865,21,45,77,9,19,41,0.01170076,0.02506231,0.05246731,0.18342122,0.28756730,0.46130226
42033,0,USPennsylvaniaClearfield,Pennsylvania,Clearfield,2021-01-05 12:04:05.025439,2020-04-01 00:00:00.000000,0.02948272,0.05967447,0.10118865,23,47,80,10,21,43,0.01276098,0.02687740,0.05490047,0.17965145,0.28138787,0.44841516
42033,0,USPennsylvaniaClearfield,Pennsylvania,Clearfield,2021-01-05 12:04:05.025439,2020-04-02 00:00:00.000000,0.03206876,0.06261882,0.10463389,25,49,82,10,22,45,0.01386494,0.02846647,0.05731947,0.17825392,0.27601505,0.43859191
42033,0,USPennsylvaniaClearfield,Pennsylvania,Clearfield,2021-01-05 12:04:05.025439,2020-04-03 00:00:00.000000,0.03464390,0.06525202,0.11035961,27,51,87,11,23,47,0.01502197,0.03027897,0.05973399,0.17759810,0.26846489,0.39791603
42033,0,USPennsylvaniaClearfield,Pennsylvania,Clearfield,2021-01-05 12:04:05.025439,2020-04-04 00:00:00.000000,0.03719846,0.06679406,0.11584157,29,52,91,12,25,49,0.01624016,0.03203498,0.06214763,0.16995786,0.25930328,0.38363263
42033,0,USPennsylvaniaClearfield,Pennsylvania,Clearfield,2021-01-05 12:04:05.025439,2020-04-05 00:00:00.000000,0.03836280,0.06930832,0.12108230,30,54,95,13,26,51,0.01752586,0.03370752,0.06453941,0.15878222,0.24975584,0.37300071
42033,0,USPennsylvaniaClearfield,Pennsylvania,Clearfield,2021-01-05 12:04:05.025439,2020-04-06 00:00:00.000000,0.04125999,0.07289772,0.12515017,32,57,99,14,27,52,0.01888050,0.03496815,0.06599334,0.15757070,0.24492623,0.37338391
42033,0,USPennsylvaniaClearfield,Pennsylvania,Clearfield,2021-01-05 12:04:05.025439,2020-04-07 00:00:00.000000,0.04272665,0.07648687,0.12905575,33,60,102,15,28,54,0.01951764,0.03623677,0.06902057,0.15671256,0.23891150,0.37173474
42033,0,USPennsylvaniaClearfield,Pennsylvania,Clearfield,2021-01-05 12:04:05.025439,2020-04-08 00:00:00.000000,0.04409401,0.07940846,0.13191648,34,62,104,15,29,56,0.02002848,0.03771596,0.07093804,0.15531659,0.23427065,0.34114567
42033,0,USPennsylvaniaClearfield,Pennsylvania,Clearfield,2021-01-05 12:04:05.025439,2020-04-09 00:00:00.000000,0.04537855,0.08177950,0.13655493,35,64,108,16,31,57,0.02061358,0.03936360,0.07262783,0.15216660,0.22894954,0.33782026
42033,0,USPennsylvaniaClearfield,Pennsylvania,Clearfield,2021-01-05 12:04:05.025439,2020-04-10 00:00:00.000000,0.04659227,0.08552032,0.14039242,36,67,111,16,32,59,0.02122655,0.04061323,0.07450996,0.14670874,0.22243617,0.33768079
42033,0,USPennsylvaniaClearfield,Pennsylvania,Clearfield,2021-01-05 12:04:05.025439,2020-04-11 00:00:00.000000,0.04774812,0.08857059,0.14668671,37,70,116,17,32,60,0.02183508,0.04155715,0.07676435,0.14135651,0.21784855,0.33740884
42033,0,USPennsylvaniaClearfield,Pennsylvania,Clearfield,2021-01-05 12:04:05.025439,2020-04-12 00:00:00.000000,0.04886652,0.09001960,0.15285529,38,71,121,17,34,62,0.02241954,0.04308658,0.07892688,0.13839873,0.21300843,0.33478434
42033,0,USPennsylvaniaClearfield,Pennsylvania,Clearfield,2021-01-05 12:04:05.025439,2020-04-13 00:00:00.000000,0.04963427,0.09078870,0.15843746,39,71,125,18,35,64,0.02297076,0.04434369,0.08101308,0.13720994,0.21066789,0.31622203
42033,0,USPennsylvaniaClearfield,Pennsylvania,Clearfield,2021-01-05 12:04:05.025439,2020-04-14 00:00:00.000000,0.05150203,0.09391468,0.16396677,40,74,129,18,36,66,0.02378036,0.04571043,0.08392354,0.13414644,0.20798301,0.31419541
42033,0,USPennsylvaniaClearfield,Pennsylvania,Clearfield,2021-01-05 12:04:05.025439,2020-04-15 00:00:00.000000,0.05387184,0.09615891,0.17047934,42,76,135,19,37,69,0.02475065,0.04706644,0.08737724,0.13129190,0.20371210,0.30031678
42033,0,USPennsylvaniaClearfield,Pennsylvania,Clearfield,2021-01-05 12:04:05.025439,2020-04-16 00:00:00.000000,0.05619783,0.09834526,0.17501037,44,77,138,20,38,70,0.02581580,0.04842110,0.08873681,0.12816247,0.20367679,0.29784673
42033,0,USPennsylvaniaClearfield,Pennsylvania,Clearfield,2021-01-05 12:04:05.025439,2020-04-17 00:00:00.000000,0.05845955,0.09870613,0.18042058,46,78,142,21,39,71,0.02693098,0.04967635,0.09005697,0.12723445,0.20324904,0.29822992
42033,0,USPennsylvaniaClearfield,Pennsylvania,Clearfield,2021-01-05 12:04:05.025439,2020-04-18 00:00:00.000000,0.05994216,0.09967715,0.18510666,47,78,146,22,40,72,0.02806467,0.05073259,0.09133228,0.12486987,0.19578369,0.30154739
42033,0,USPennsylvaniaClearfield,Pennsylvania,Clearfield,2021-01-05 12:04:05.025439,2020-04-19 00:00:00.000000,0.05971535,0.10050153,0.18850248,47,79,149,23,40,74,0.02919390,0.05165952,0.09372825,0.12322280,0.19139293,0.29991706
42033,0,USPennsylvaniaClearfield,Pennsylvania,Clearfield,2021-01-05 12:04:05.025439,2020-04-20 00:00:00.000000,0.06036869,0.10205658,0.18920237,47,80,149,24,41,76,0.03030361,0.05233101,0.09626619,0.12216123,0.18767243,0.29915414
42033,0,USPennsylvaniaClearfield,Pennsylvania,Clearfield,2021-01-05 12:04:05.025439,2020-04-21 00:00:00.000000,0.06100832,0.10475235,0.18942989,48,83,150,24,42,77,0.03100101,0.05317846,0.09815237,0.12006940,0.18485132,0.29858268
42033,0,USPennsylvaniaClearfield,Pennsylvania,Clearfield,2021-01-05 12:04:05.025439,2020-04-22 00:00:00.000000,0.06165783,0.10585923,0.18941839,48,83,150,24,42,78,0.03141538,0.05400976,0.09950031,0.11855775,0.18175135,0.29774236
42033,0,USPennsylvaniaClearfield,Pennsylvania,Clearfield,2021-01-05 12:04:05.025439,2020-04-23 00:00:00.000000,0.06230854,0.10706290,0.18926769,49,84,150,24,43,79,0.03143256,0.05444109,0.10043590,0.12110869,0.17914693,0.29620929
42033,0,USPennsylvaniaClearfield,Pennsylvania,Clearfield,2021-01-05 12:04:05.025439,2020-04-24 00:00:00.000000,0.06277305,0.10882934,0.18919858,49,86,149,24,43,80,0.03132605,0.05542479,0.10106324,0.12134127,0.17605824,0.29324540
42033,0,USPennsylvaniaClearfield,Pennsylvania,Clearfield,2021-01-05 12:04:05.025439,2020-04-25 00:00:00.000000,0.06306180,0.10985792,0.19221954,49,87,152,24,44,80,0.03122700,0.05658180,0.10146084,0.12127501,0.17460168,0.28882417
42033,0,USPennsylvaniaClearfield,Pennsylvania,Clearfield,2021-01-05 12:04:05.025439,2020-04-26 00:00:00.000000,0.06335464,0.11144389,0.19117565,50,88,151,24,45,80,0.03112736,0.05777219,0.10168623,0.10793786,0.16405159,0.27821506
42033,0,USPennsylvaniaClearfield,Pennsylvania,Clearfield,2021-01-05 12:04:05.025439,2020-04-27 00:00:00.000000,0.06383600,0.11561889,0.19008980,50,91,150,24,46,80,0.03102047,0.05854110,0.10178231,0.10320072,0.16436692,0.26581202
42033,0,USPennsylvaniaClearfield,Pennsylvania,Clearfield,2021-01-05 12:04:05.025439,2020-04-28 00:00:00.000000,0.06539531,0.11771724,0.18891391,51,93,149,24,46,82,0.03084836,0.05926986,0.10351634,0.10113724,0.16418090,0.25745307
42033,0,USPennsylvaniaClearfield,Pennsylvania,Clearfield,2021-01-05 12:04:05.025439,2020-04-29 00:00:00.000000,0.06500431,0.11942696,0.18770313,51,94,148,24,47,81,0.03062585,0.06008087,0.10315803,0.10133650,0.16346923,0.25027006
42033,0,USPennsylvaniaClearfield,Pennsylvania,Clearfield,2021-01-05 12:04:05.025439,2020-04-30 00:00:00.000000,0.06668330,0.11937477,0.18645401,52,94,147,24,48,81,0.03136346,0.06082486,0.10271699,0.10286551,0.16248701,0.24452164
42033,0,USPennsylvaniaClearfield,Pennsylvania,Clearfield,2021-01-05 12:04:05.025439,2020-05-01 00:00:00.000000,0.06728622,0.12180156,0.19023400,53,96,150,25,49,81,0.03250906,0.06239715,0.10221094,0.10387777,0.16348950,0.24138228
42033,0,USPennsylvaniaClearfield,Pennsylvania,Clearfield,2021-01-05 12:04:05.025439,2020-05-02 00:00:00.000000,0.06784395,0.12105985,0.20338214,53,95,161,26,51,81,0.03319522,0.06451893,0.10306730,0.10360744,0.16484982,0.23128929
42033,0,USPennsylvaniaClearfield,Pennsylvania,Clearfield,2021-01-05 12:04:05.025439,2020-05-03 00:00:00.000000,0.06834282,0.12222990,0.21621316,54,96,171,27,51,85,0.03464849,0.06466821,0.10759089,0.09868116,0.16669480,0.23341654
42033,0,USPennsylvaniaClearfield,Pennsylvania,Clearfield,2021-01-05 12:04:05.025439,2020-05-04 00:00:00.000000,0.07072225,0.12213204,0.21836436,56,96,173,28,52,91,0.03622941,0.06600401,0.11505899,0.09713525,0.16445384,0.23894198
42033,0,USPennsylvaniaClearfield,Pennsylvania,Clearfield,2021-01-05 12:04:05.025439,2020-05-05 00:00:00.000000,0.07404396,0.12274251,0.21964803,58,97,174,29,54,95,0.03722318,0.06821413,0.12002302,0.09707103,0.16039406,0.24476179
42033,0,USPennsylvaniaClearfield,Pennsylvania,Clearfield,2021-01-05 12:04:05.025439,2020-05-06 00:00:00.000000,0.07447740,0.12257807,0.22032917,59,97,174,30,53,96,0.03786703,0.06767034,0.12203840,0.09705333,0.15738887,0.23736833
42033,0,USPennsylvaniaClearfield,Pennsylvania,Clearfield,2021-01-05 12:04:05.025439,2020-05-07 00:00:00.000000,0.07668668,0.12412253,0.22082524,60,98,175,30,53,98,0.03795325,0.06735595,0.12388798,0.09634858,0.16080952,0.23102081
42033,0,USPennsylvaniaClearfield,Pennsylvania,Clearfield,2021-01-05 12:04:05.025439,2020-05-08 00:00:00.000000,0.07699861,0.12483708,0.22140548,61,98,175,30,53,99,0.03794591,0.06754483,0.12561991,0.09542781,0.16107861,0.22257232
42033,0,USPennsylvaniaClearfield,Pennsylvania,Clearfield,2021-01-05 12:04:05.025439,2020-05-09 00:00:00.000000,0.07730727,0.12567500,0.22221744,61,99,176,30,53,100,0.03789124,0.06806022,0.12727783,0.09787114,0.15968198,0.23566167
42033,0,USPennsylvaniaClearfield,Pennsylvania,Clearfield,2021-01-05 12:04:05.025439,2020-05-10 00:00:00.000000,0.07712033,0.12704651,0.22328750,61,100,176,29,54,102,0.03780765,0.06829995,0.12890115,0.09944179,0.15922839,0.24731966
42033,0,USPennsylvaniaClearfield,Pennsylvania,Clearfield,2021-01-05 12:04:05.025439,2020-05-11 00:00:00.000000,0.07833774,0.12688069,0.22275135,62,100,176,29,53,103,0.03744191,0.06796630,0.13052363,0.09820079,0.16112277,0.25237855
42033,0,USPennsylvaniaClearfield,Pennsylvania,Clearfield,2021-01-05 12:04:05.025439,2020-05-12 00:00:00.000000,0.07853323,0.12807139,0.22236049,62,101,176,29,54,104,0.03758741,0.06836714,0.13203150,0.09769684,0.16317735,0.25116095
42033,0,USPennsylvaniaClearfield,Pennsylvania,Clearfield,2021-01-05 12:04:05.025439,2020-05-13 00:00:00.000000,0.07806986,0.12765860,0.22207739,61,101,176,29,53,105,0.03735500,0.06809738,0.13347320,0.09681885,0.16625074,0.24884056
42033,0,USPennsylvaniaClearfield,Pennsylvania,Clearfield,2021-01-05 12:04:05.025439,2020-05-14 00:00:00.000000,0.07763630,0.12803143,0.22184603,61,101,175,29,53,106,0.03703153,0.06766509,0.13488017,0.09762356,0.16774254,0.24652871
42033,0,USPennsylvaniaClearfield,Pennsylvania,Clearfield,2021-01-05 12:04:05.025439,2020-05-15 00:00:00.000000,0.07717315,0.12783805,0.22180229,61,101,175,29,54,108,0.03682671,0.06867645,0.13627030,0.10253256,0.16450885,0.24470108
42033,0,USPennsylvaniaClearfield,Pennsylvania,Clearfield,2021-01-05 12:04:05.025439,2020-05-16 00:00:00.000000,0.07577884,0.12891687,0.22202903,60,102,175,29,54,109,0.03725288,0.06922557,0.13765156,0.10133831,0.16522192,0.24296829
42033,0,USPennsylvaniaClearfield,Pennsylvania,Clearfield,2021-01-05 12:04:05.025439,2020-05-17 00:00:00.000000,0.07426061,0.13070960,0.22249741,58,103,176,29,55,110,0.03778260,0.06946145,0.13902512,0.10103572,0.16369364,0.23691816
42033,0,USPennsylvaniaClearfield,Pennsylvania,Clearfield,2021-01-05 12:04:05.025439,2020-05-18 00:00:00.000000,0.07163428,0.13183191,0.22350554,56,104,177,30,55,110,0.03838624,0.06948416,0.13962440,0.09988378,0.15995011,0.23175191
42033,0,USPennsylvaniaClearfield,Pennsylvania,Clearfield,2021-01-05 12:04:05.025439,2020-05-19 00:00:00.000000,0.06871125,0.13308899,0.22459107,54,105,177,30,55,108,0.03890364,0.07001442,0.13729118,0.09850509,0.15848932,0.23110047
42033,0,USPennsylvaniaClearfield,Pennsylvania,Clearfield,2021-01-05 12:04:05.025439,2020-05-20 00:00:00.000000,0.06626897,0.13290935,0.22255475,52,105,176,31,56,106,0.03927088,0.07130809,0.13491693,0.09773656,0.15803357,0.23192038
42033,0,USPennsylvaniaClearfield,Pennsylvania,Clearfield,2021-01-05 12:04:05.025439,2020-05-21 00:00:00.000000,0.06381811,0.13331190,0.22057774,50,105,174,29,57,104,0.03752202,0.07296889,0.13247900,0.09739668,0.15783524,0.23447238
42033,0,USPennsylvaniaClearfield,Pennsylvania,Clearfield,2021-01-05 12:04:05.025439,2020-05-22 00:00:00.000000,0.06191985,0.13597102,0.22549624,49,107,178,28,58,102,0.03581851,0.07375661,0.12994305,0.09888357,0.15877494,0.23196855
42033,0,USPennsylvaniaClearfield,Pennsylvania,Clearfield,2021-01-05 12:04:05.025439,2020-05-23 00:00:00.000000,0.06201645,0.13711120,0.22966554,49,108,182,27,58,100,0.03455996,0.07400574,0.12727804,0.10065065,0.15875190,0.23180220
42033,0,USPennsylvaniaClearfield,Pennsylvania,Clearfield,2021-01-05 12:04:05.025439,2020-05-24 00:00:00.000000,0.06226120,0.13860437,0.23092196,49,109,183,27,58,98,0.03456526,0.07430747,0.12447343,0.09979101,0.15959440,0.22603442
42033,0,USPennsylvaniaClearfield,Pennsylvania,Clearfield,2021-01-05 12:04:05.025439,2020-05-25 00:00:00.000000,0.06404557,0.13756525,0.23320495,50,109,184,27,59,96,0.03463701,0.07519783,0.12223490,0.09868865,0.15725966,0.23122460
42033,0,USPennsylvaniaClearfield,Pennsylvania,Clearfield,2021-01-05 12:04:05.025439,2020-05-26 00:00:00.000000,0.06591141,0.13810301,0.23541151,52,109,186,27,59,98,0.03501569,0.07511635,0.12373146,0.09734371,0.15789993,0.24228862
42033,0,USPennsylvaniaClearfield,Pennsylvania,Clearfield,2021-01-05 12:04:05.025439,2020-05-27 00:00:00.000000,0.06782508,0.13686356,0.23763683,53,108,188,27,59,99,0.03514070,0.07539317,0.12556352,0.09875974,0.15797453,0.24530050
42033,0,USPennsylvaniaClearfield,Pennsylvania,Clearfield,2021-01-05 12:04:05.025439,2020-05-28 00:00:00.000000,0.06974597,0.13623922,0.23995030,55,107,190,27,59,101,0.03518953,0.07535132,0.12770751,0.10216207,0.15915087,0.24914543
42033,0,USPennsylvaniaClearfield,Pennsylvania,Clearfield,2021-01-05 12:04:05.025439,2020-05-29 00:00:00.000000,0.07104816,0.13822255,0.24687837,56,109,195,27,60,103,0.03523093,0.07621904,0.13004275,0.10754405,0.16192520,0.23999910
42033,0,USPennsylvaniaClearfield,Pennsylvania,Clearfield,2021-01-05 12:04:05.025439,2020-05-30 00:00:00.000000,0.07058848,0.13931329,0.24995688,55,110,198,27,60,104,0.03528716,0.07578933,0.13236100,0.10985887,0.16506778,0.24257561
42033,0,USPennsylvaniaClearfield,Pennsylvania,Clearfield,2021-01-05 12:04:05.025439,2020-05-31 00:00:00.000000,0.07109250,0.14094400,0.25586946,56,111,202,28,60,106,0.03551836,0.07590292,0.13454193,0.11002286,0.16724611,0.26803066
42033,0,USPennsylvaniaClearfield,Pennsylvania,Clearfield,2021-01-05 12:04:05.025439,2020-06-01 00:00:00.000000,0.07592440,0.14187764,0.25489306,60,112,202,29,59,109,0.03687770,0.07547226,0.13866753,0.11040798,0.16715021,0.24294234
42033,0,USPennsylvaniaClearfield,Pennsylvania,Clearfield,2021-01-05 12:04:05.025439,2020-06-02 00:00:00.000000,0.07642381,0.14391750,0.25487657,60,114,202,30,60,112,0.03809619,0.07581408,0.14228448,0.11097606,0.16693764,0.24657503
42033,0,USPennsylvaniaClearfield,Pennsylvania,Clearfield,2021-01-05 12:04:05.025439,2020-06-03 00:00:00.000000,0.07926500,0.14606242,0.25599404,62,115,202,30,61,114,0.03806733,0.07749852,0.14400383,0.11175875,0.16958279,0.25211185
42033,0,USPennsylvaniaClearfield,Pennsylvania,Clearfield,2021-01-05 12:04:05.025439,2020-06-04 00:00:00.000000,0.08285815,0.14542548,0.25973501,65,115,205,30,62,113,0.03819391,0.07853894,0.14294670,0.11277969,0.17390491,0.26307715
42033,0,USPennsylvaniaClearfield,Pennsylvania,Clearfield,2021-01-05 12:04:05.025439,2020-06-05 00:00:00.000000,0.08564221,0.14584956,0.26308802,67,115,208,30,63,114,0.03842838,0.07953284,0.14488820,0.11296499,0.17530147,0.26640375
42033,0,USPennsylvaniaClearfield,Pennsylvania,Clearfield,2021-01-05 12:04:05.025439,2020-06-06 00:00:00.000000,0.08664260,0.14927558,0.26527373,68,118,210,30,63,117,0.03873819,0.07979698,0.14770788,0.11310604,0.17668736,0.26586968
42033,0,USPennsylvaniaClearfield,Pennsylvania,Clearfield,2021-01-05 12:04:05.025439,2020-06-07 00:00:00.000000,0.08769141,0.15053351,0.26758415,69,119,212,30,64,119,0.03910255,0.08126759,0.15092681,0.11348894,0.17824554,0.26464619
42033,0,USPennsylvaniaClearfield,Pennsylvania,Clearfield,2021-01-05 12:04:05.025439,2020-06-08 00:00:00.000000,0.08521150,0.15221138,0.27594438,67,120,218,31,65,122,0.03951027,0.08215881,0.15442990,0.11441742,0.18017352,0.26245368
42033,0,USPennsylvaniaClearfield,Pennsylvania,Clearfield,2021-01-05 12:04:05.025439,2020-06-09 00:00:00.000000,0.08283451,0.15556222,0.28556947,65,123,226,31,65,125,0.03937563,0.08223843,0.15807917,0.11581918,0.18096616,0.26279310
42033,0,USPennsylvaniaClearfield,Pennsylvania,Clearfield,2021-01-05 12:04:05.025439,2020-06-10 00:00:00.000000,0.08179994,0.15883057,0.29526119,64,125,234,30,65,128,0.03889186,0.08290020,0.16184629,0.11817403,0.18389687,0.26762558
42033,0,USPennsylvaniaClearfield,Pennsylvania,Clearfield,2021-01-05 12:04:05.025439,2020-06-11 00:00:00.000000,0.08270039,0.16047191,0.30518767,65,127,241,31,66,131,0.03925936,0.08393259,0.16571094,0.12108099,0.18462846,0.26380953
42033,0,USPennsylvaniaClearfield,Pennsylvania,Clearfield,2021-01-05 12:04:05.025439,2020-06-12 00:00:00.000000,0.08359031,0.16193593,0.31537741,66,128,249,31,67,133,0.03982003,0.08459540,0.16865905,0.12138149,0.18995730,0.27656992
42033,0,USPennsylvaniaClearfield,Pennsylvania,Clearfield,2021-01-05 12:04:05.025439,2020-06-13 00:00:00.000000,0.08446668,0.16264341,0.32408020,66,128,256,32,68,134,0.04041507,0.08644989,0.16960761,0.12133865,0.19719994,0.30975871
42033,0,USPennsylvaniaClearfield,Pennsylvania,Clearfield,2021-01-05 12:04:05.025439,2020-06-14 00:00:00.000000,0.08532982,0.16672802,0.33196899,67,132,263,32,69,134,0.04114075,0.08789677,0.17026947,0.12128647,0.19897135,0.31840994
42033,0,USPennsylvaniaClearfield,Pennsylvania,Clearfield,2021-01-05 12:04:05.025439,2020-06-15 00:00:00.000000,0.08717005,0.16807850,0.33845701,69,133,268,33,70,135,0.04211189,0.08866573,0.17083398,0.12176678,0.20408125,0.31869068
42033,0,USPennsylvaniaClearfield,Pennsylvania,Clearfield,2021-01-05 12:04:05.025439,2020-06-16 00:00:00.000000,0.08922756,0.17136694,0.34525973,70,135,273,34,70,136,0.04330198,0.08937229,0.17212690,0.12360046,0.20971170,0.31702748
42033,0,USPennsylvaniaClearfield,Pennsylvania,Clearfield,2021-01-05 12:04:05.025439,2020-06-17 00:00:00.000000,0.09156439,0.17490680,0.35213050,72,138,279,35,71,137,0.04472584,0.09045077,0.17409981,0.13559709,0.21221399,0.31442394
42033,0,USPennsylvaniaClearfield,Pennsylvania,Clearfield,2021-01-05 12:04:05.025439,2020-06-18 00:00:00.000000,0.09709656,0.17692355,0.35846358,76,140,284,36,72,140,0.04628827,0.09135597,0.17670207,0.13680043,0.21366922,0.31171229
42033,0,USPennsylvaniaClearfield,Pennsylvania,Clearfield,2021-01-05 12:04:05.025439,2020-06-19 00:00:00.000000,0.10487802,0.18047823,0.36267816,83,143,287,37,73,142,0.04706581,0.09321602,0.17993470,0.14043878,0.21454362,0.32326791
42033,0,USPennsylvaniaClearfield,Pennsylvania,Clearfield,2021-01-05 12:04:05.025439,2020-06-20 00:00:00.000000,0.10942368,0.18160490,0.36422908,86,143,288,39,74,145,0.04941295,0.09460516,0.18383665,0.14300477,0.21795884,0.32558859
42033,0,USPennsylvaniaClearfield,Pennsylvania,Clearfield,2021-01-05 12:04:05.025439,2020-06-21 00:00:00.000000,0.11094970,0.18595431,0.36463864,87,147,288,40,75,149,0.05081514,0.09526501,0.18841294,0.14187700,0.21883628,0.33113842
42033,0,USPennsylvaniaClearfield,Pennsylvania,Clearfield,2021-01-05 12:04:05.025439,2020-06-22 00:00:00.000000,0.11459201,0.18713364,0.36546519,90,148,289,41,75,153,0.05209262,0.09575154,0.19361013,0.14533196,0.22429776,0.33662749
42033,0,USPennsylvaniaClearfield,Pennsylvania,Clearfield,2021-01-05 12:04:05.025439,2020-06-23 00:00:00.000000,0.11353276,0.18762862,0.36609663,89,148,290,42,77,157,0.05321720,0.09773841,0.19885658,0.14868830,0.23180284,0.33846552
42033,0,USPennsylvaniaClearfield,Pennsylvania,Clearfield,2021-01-05 12:04:05.025439,2020-06-24 00:00:00.000000,0.11048232,0.18798049,0.37740470,87,148,299,42,78,161,0.05356437,0.09946522,0.20407274,0.14916959,0.22936305,0.33364021
42033,0,USPennsylvaniaClearfield,Pennsylvania,Clearfield,2021-01-05 12:04:05.025439,2020-06-25 00:00:00.000000,0.11163273,0.19012572,0.38998028,88,150,309,42,79,165,0.05387954,0.09985885,0.20896609,0.14918162,0.23264697,0.32206525
42033,0,USPennsylvaniaClearfield,Pennsylvania,Clearfield,2021-01-05 12:04:05.025439,2020-06-26 00:00:00.000000,0.11630322,0.19388734,0.40266800,92,153,319,44,79,166,0.05565545,0.10054122,0.21049817,0.14937293,0.23373262,0.31225926
42033,0,USPennsylvaniaClearfield,Pennsylvania,Clearfield,2021-01-05 12:04:05.025439,2020-06-27 00:00:00.000000,0.12256652,0.19721697,0.41541196,97,156,329,44,80,167,0.05671572,0.10214245,0.21109219,0.15314580,0.23833220,0.33018938
42033,0,USPennsylvaniaClearfield,Pennsylvania,Clearfield,2021-01-05 12:04:05.025439,2020-06-28 00:00:00.000000,0.12295115,0.19985156,0.42807594,97,158,339,45,82,167,0.05743458,0.10408978,0.21158964,0.15815808,0.24443579,0.35112114
42033,0,USPennsylvaniaClearfield,Pennsylvania,Clearfield,2021-01-05 12:04:05.025439,2020-06-29 00:00:00.000000,0.12376683,0.20280585,0.43458528,98,160,344,46,84,168,0.05808889,0.10605556,0.21204255,0.15978800,0.24518791,0.35768999
42033,0,USPennsylvaniaClearfield,Pennsylvania,Clearfield,2021-01-05 12:04:05.025439,2020-06-30 00:00:00.000000,0.12553100,0.20905094,0.44129100,99,165,349,46,86,169,0.05886261,0.10919107,0.21410523,0.16165388,0.24989229,0.36789889
42033,0,USPennsylvaniaClearfield,Pennsylvania,Clearfield,2021-01-05 12:04:05.025439,2020-07-01 00:00:00.000000,0.12851690,0.21742234,0.44842520,101,172,355,47,88,175,0.05968790,0.11199994,0.22129364,0.16473371,0.25161948,0.38537820
42033,0,USPennsylvaniaClearfield,Pennsylvania,Clearfield,2021-01-05 12:04:05.025439,2020-07-02 00:00:00.000000,0.13242230,0.22644560,0.45626340,104,179,361,48,89,181,0.06082245,0.11343181,0.22882510,0.17012408,0.25863916,0.38753321
42033,0,USPennsylvaniaClearfield,Pennsylvania,Clearfield,2021-01-05 12:04:05.025439,2020-07-03 00:00:00.000000,0.13683128,0.23573816,0.46484696,108,186,368,49,90,187,0.06265428,0.11475828,0.23609529,0.17020761,0.26230340,0.38606320
42033,0,USPennsylvaniaClearfield,Pennsylvania,Clearfield,2021-01-05 12:04:05.025439,2020-07-04 00:00:00.000000,0.14151305,0.24155575,0.47574896,112,191,377,50,93,189,0.06428495,0.11764062,0.23865166,0.17182682,0.26250577,0.39304163
42033,0,USPennsylvaniaClearfield,Pennsylvania,Clearfield,2021-01-05 12:04:05.025439,2020-07-05 00:00:00.000000,0.14565990,0.24899470,0.48367879,115,197,383,51,97,191,0.06501847,0.12300718,0.24110278,0.18487092,0.26496687,0.39624124
42033,0,USPennsylvaniaClearfield,Pennsylvania,Clearfield,2021-01-05 12:04:05.025439,2020-07-06 00:00:00.000000,0.14839169,0.25744315,0.49477788,117,204,392,52,101,192,0.06569383,0.12776634,0.24346463,0.19000053,0.27525035,0.39863514
42033,0,USPennsylvaniaClearfield,Pennsylvania,Clearfield,2021-01-05 12:04:05.025439,2020-07-07 00:00:00.000000,0.15124955,0.26410226,0.50601634,119,209,401,52,105,194,0.06658359,0.13320041,0.24557419,0.19298604,0.28127277,0.40214133
42033,0,USPennsylvaniaClearfield,Pennsylvania,Clearfield,2021-01-05 12:04:05.025439,2020-07-08 00:00:00.000000,0.15433154,0.27605501,0.51741576,122,218,410,53,107,196,0.06763774,0.13622232,0.24748280,0.19240244,0.28466186,0.41435647
42033,0,USPennsylvaniaClearfield,Pennsylvania,Clearfield,2021-01-05 12:04:05.025439,2020-07-09 00:00:00.000000,0.15604856,0.28623645,0.52901822,123,226,419,54,109,198,0.06934182,0.13779501,0.25075992,0.19399668,0.28661185,0.41167588
42033,0,USPennsylvaniaClearfield,Pennsylvania,Clearfield,2021-01-05 12:04:05.025439,2020-07-10 00:00:00.000000,0.15747722,0.29419968,0.54093105,124,233,428,56,113,204,0.07122769,0.14278820,0.25816574,0.19617288,0.28629271,0.41439263
42033,0,USPennsylvaniaClearfield,Pennsylvania,Clearfield,2021-01-05 12:04:05.025439,2020-07-11 00:00:00.000000,0.15953940,0.30650818,0.55153828,126,242,437,56,118,210,0.07160473,0.14900172,0.26553188,0.19692187,0.28608388,0.41543965
42033,0,USPennsylvaniaClearfield,Pennsylvania,Clearfield,2021-01-05 12:04:05.025439,2020-07-12 00:00:00.000000,0.16188303,0.31999420,0.55593882,128,253,440,57,121,216,0.07308194,0.15297981,0.27290798,0.19852884,0.28761106,0.42045217
42033,0,USPennsylvaniaClearfield,Pennsylvania,Clearfield,2021-01-05 12:04:05.025439,2020-07-13 00:00:00.000000,0.16552392,0.33563115,0.58170324,131,266,461,59,124,222,0.07474917,0.15666512,0.28031350,0.20424451,0.29105697,0.43278847
42033,0,USPennsylvaniaClearfield,Pennsylvania,Clearfield,2021-01-05 12:04:05.025439,2020-07-14 00:00:00.000000,0.16925607,0.34888957,0.60170827,134,276,476,60,128,228,0.07647651,0.16260537,0.28789840,0.20934244,0.29307535,0.44139306
42033,0,USPennsylvaniaClearfield,Pennsylvania,Clearfield,2021-01-05 12:04:05.025439,2020-07-15 00:00:00.000000,0.17415395,0.36182516,0.62004457,138,286,491,62,134,234,0.07834118,0.16938645,0.29560729,0.21926367,0.29879017,0.44880478
42033,0,USPennsylvaniaClearfield,Pennsylvania,Clearfield,2021-01-05 12:04:05.025439,2020-07-16 00:00:00.000000,0.17926435,0.37343897,0.63824418,142,295,505,63,139,240,0.08063654,0.17607449,0.30341062,0.21786166,0.29926337,0.45123608
42033,0,USPennsylvaniaClearfield,Pennsylvania,Clearfield,2021-01-05 12:04:05.025439,2020-07-17 00:00:00.000000,0.18151697,0.38482451,0.65159569,143,304,516,65,144,246,0.08325551,0.18282102,0.31126435,0.21677876,0.29954136,0.46424818
42033,0,USPennsylvaniaClearfield,Pennsylvania,Clearfield,2021-01-05 12:04:05.025439,2020-07-18 00:00:00.000000,0.18663384,0.39463771,0.66516263,147,312,527,68,149,252,0.08619076,0.18880212,0.31904360,0.21686209,0.30338357,0.47153576
42033,0,USPennsylvaniaClearfield,Pennsylvania,Clearfield,2021-01-05 12:04:05.025439,2020-07-19 00:00:00.000000,0.19306074,0.40562907,0.67899609,153,321,538,70,153,256,0.08933323,0.19413151,0.32355622,0.21826788,0.30580585,0.47544878
42033,0,USPennsylvaniaClearfield,Pennsylvania,Clearfield,2021-01-05 12:04:05.025439,2020-07-20 00:00:00.000000,0.20882686,0.41935586,0.69092762,165,332,547,74,158,264,0.09353594,0.20040011,0.33339389,0.22341098,0.30693634,0.47697054
42033,0,USPennsylvaniaClearfield,Pennsylvania,Clearfield,2021-01-05 12:04:05.025439,2020-07-21 00:00:00.000000,0.23037402,0.43271401,0.70483474,182,342,558,80,164,269,0.10131807,0.20708537,0.33972773,0.22737956,0.30238405,0.47052084
42033,0,USPennsylvaniaClearfield,Pennsylvania,Clearfield,2021-01-05 12:04:05.025439,2020-07-22 00:00:00.000000,0.25071920,0.44857893,0.72158972,198,355,571,83,172,279,0.10565304,0.21720024,0.35266952,0.22501526,0.30234177,0.46248852
42033,0,USPennsylvaniaClearfield,Pennsylvania,Clearfield,2021-01-05 12:04:05.025439,2020-07-23 00:00:00.000000,0.25917327,0.46475425,0.73910431,205,368,585,87,176,291,0.11008344,0.22233017,0.36814980,0.22374659,0.29818955,0.45389082
42033,0,USPennsylvaniaClearfield,Pennsylvania,Clearfield,2021-01-05 12:04:05.025439,2020-07-24 00:00:00.000000,0.26819918,0.47480564,0.76196132,212,376,603,91,181,300,0.11507451,0.22886743,0.37939895,0.22179592,0.29735624,0.43705583
42033,0,USPennsylvaniaClearfield,Pennsylvania,Clearfield,2021-01-05 12:04:05.025439,2020-07-25 00:00:00.000000,0.27756363,0.48223393,0.78470149,219,382,621,95,187,307,0.12048566,0.23701340,0.38832231,0.21708674,0.29917674,0.42741943
42033,0,USPennsylvaniaClearfield,Pennsylvania,Clearfield,2021-01-05 12:04:05.025439,2020-07-26 00:00:00.000000,0.28719058,0.49407606,0.80512519,227,391,638,100,194,314,0.12621685,0.24540127,0.39623596,0.20931755,0.29429952,0.41450672
42033,0,USPennsylvaniaClearfield,Pennsylvania,Clearfield,2021-01-05 12:04:05.025439,2020-07-27 00:00:00.000000,0.30204219,0.50378432,0.82620998,239,399,654,104,201,319,0.13220423,0.25398966,0.40338717,0.20527038,0.29563200,0.41080336
42033,0,USPennsylvaniaClearfield,Pennsylvania,Clearfield,2021-01-05 12:04:05.025439,2020-07-28 00:00:00.000000,0.31742551,0.51734568,0.83960756,251,410,665,111,208,326,0.14021539,0.26257217,0.41257751,0.20472486,0.29403120,0.40763333
42033,0,USPennsylvaniaClearfield,Pennsylvania,Clearfield,2021-01-05 12:04:05.025439,2020-07-29 00:00:00.000000,0.33329710,0.53229424,0.85380089,264,421,676,118,214,340,0.14950992,0.27099375,0.42969050,0.20432953,0.29046561,0.40015985
42033,0,USPennsylvaniaClearfield,Pennsylvania,Clearfield,2021-01-05 12:04:05.025439,2020-07-30 00:00:00.000000,0.34963915,0.54926428,0.87356823,277,435,692,126,220,354,0.15961150,0.27874909,0.44750700,0.20428396,0.28890710,0.40027011
42033,0,USPennsylvaniaClearfield,Pennsylvania,Clearfield,2021-01-05 12:04:05.025439,2020-07-31 00:00:00.000000,0.36642787,0.55680220,0.90894015,290,441,720,132,226,369,0.16666017,0.28552957,0.46599094,0.19857181,0.28359948,0.40074836
42033,0,USPennsylvaniaClearfield,Pennsylvania,Clearfield,2021-01-05 12:04:05.025439,2020-08-01 00:00:00.000000,0.38168188,0.56397761,0.94508989,302,446,749,134,231,384,0.16944917,0.29182148,0.48507048,0.19273927,0.27848469,0.40103978
42033,0,USPennsylvaniaClearfield,Pennsylvania,Clearfield,2021-01-05 12:04:05.025439,2020-08-02 00:00:00.000000,0.38963275,0.56875107,0.98099746,308,450,777,139,236,399,0.17598690,0.29893026,0.50460636,0.18755388,0.27018848,0.40259765
42033,0,USPennsylvaniaClearfield,Pennsylvania,Clearfield,2021-01-05 12:04:05.025439,2020-08-03 00:00:00.000000,0.39442418,0.57766774,1.00565189,312,457,797,142,243,415,0.18015356,0.30724390,0.52452996,0.18194403,0.26386175,0.39434214
42033,0,USPennsylvaniaClearfield,Pennsylvania,Clearfield,2021-01-05 12:04:05.025439,2020-08-04 00:00:00.000000,0.39895640,0.59285114,1.02231403,316,469,810,146,248,430,0.18426888,0.31353841,0.54291458,0.17740731,0.25791092,0.38707898
42033,0,USPennsylvaniaClearfield,Pennsylvania,Clearfield,2021-01-05 12:04:05.025439,2020-08-05 00:00:00.000000,0.40301478,0.61081400,1.03337416,319,484,819,149,253,442,0.18832175,0.31979025,0.55886975,0.17352568,0.25504134,0.38527224
42033,0,USPennsylvaniaClearfield,Pennsylvania,Clearfield,2021-01-05 12:04:05.025439,2020-08-06 00:00:00.000000,0.40684756,0.61922291,1.04250955,322,490,826,152,255,453,0.19232188,0.32285855,0.57217060,0.17000356,0.25338775,0.37026321
42033,0,USPennsylvaniaClearfield,Pennsylvania,Clearfield,2021-01-05 12:04:05.025439,2020-08-07 00:00:00.000000,0.41067880,0.62610602,1.05077538,325,496,832,155,257,462,0.19628616,0.32501878,0.58325453,0.16729746,0.25384923,0.37041459
42033,0,USPennsylvaniaClearfield,Pennsylvania,Clearfield,2021-01-05 12:04:05.025439,2020-08-08 00:00:00.000000,0.41473400,0.63280294,1.05774980,328,501,838,158,260,469,0.20023317,0.32857031,0.59261266,0.16998542,0.24688253,0.36514740
42033,0,USPennsylvaniaClearfield,Pennsylvania,Clearfield,2021-01-05 12:04:05.025439,2020-08-09 00:00:00.000000,0.42596855,0.63748555,1.06033851,337,505,840,161,261,475,0.20418185,0.33028668,0.60053067,0.17014504,0.24391409,0.35740825
42033,0,USPennsylvaniaClearfield,Pennsylvania,Clearfield,2021-01-05 12:04:05.025439,2020-08-10 00:00:00.000000,0.43329555,0.64200343,1.05955227,343,508,839,164,266,481,0.20815018,0.33678337,0.60690522,0.17102967,0.23847074,0.35559113
42033,0,USPennsylvaniaClearfield,Pennsylvania,Clearfield,2021-01-05 12:04:05.025439,2020-08-11 00:00:00.000000,0.44105943,0.64420803,1.05254048,349,510,834,168,270,484,0.21250739,0.34140386,0.61125858,0.16463980,0.23486028,0.35336583
42033,0,USPennsylvaniaClearfield,Pennsylvania,Clearfield,2021-01-05 12:04:05.025439,2020-08-12 00:00:00.000000,0.45172408,0.64699358,1.04243648,358,512,826,172,274,486,0.21728406,0.34606242,0.61324301,0.16741172,0.23562850,0.34962043
42033,0,USPennsylvaniaClearfield,Pennsylvania,Clearfield,2021-01-05 12:04:05.025439,2020-08-13 00:00:00.000000,0.45344344,0.65497838,1.03131433,359,519,817,176,276,485,0.22253198,0.34885820,0.61305179,0.16756122,0.23417258,0.34517229
42033,0,USPennsylvaniaClearfield,Pennsylvania,Clearfield,2021-01-05 12:04:05.025439,2020-08-14 00:00:00.000000,0.45479366,0.66357889,1.02270169,360,525,810,180,276,484,0.22818996,0.34927202,0.61112899,0.16425353,0.23308492,0.34465460
42033,0,USPennsylvaniaClearfield,Pennsylvania,Clearfield,2021-01-05 12:04:05.025439,2020-08-15 00:00:00.000000,0.46004154,0.66646648,1.02972229,364,528,816,182,279,481,0.23048239,0.35263852,0.60791654,0.16174225,0.23190007,0.33974852
42033,0,USPennsylvaniaClearfield,Pennsylvania,Clearfield,2021-01-05 12:04:05.025439,2020-08-16 00:00:00.000000,0.45947300,0.66876215,1.03686563,364,530,821,184,281,478,0.23303800,0.35551587,0.60369945,0.16194496,0.23468593,0.32330708
42033,0,USPennsylvaniaClearfield,Pennsylvania,Clearfield,2021-01-05 12:04:05.025439,2020-08-17 00:00:00.000000,0.46366948,0.67535569,1.04479907,367,535,828,187,284,474,0.23639188,0.35921406,0.59893960,0.15991745,0.23216711,0.31586304
42033,0,USPennsylvaniaClearfield,Pennsylvania,Clearfield,2021-01-05 12:04:05.025439,2020-08-18 00:00:00.000000,0.46691354,0.68280622,1.05370460,370,541,835,190,287,470,0.24054173,0.36316341,0.59427010,0.16272157,0.23379000,0.31608185
42033,0,USPennsylvaniaClearfield,Pennsylvania,Clearfield,2021-01-05 12:04:05.025439,2020-08-19 00:00:00.000000,0.47071328,0.68455496,1.06158903,373,542,841,194,290,467,0.24513475,0.36690268,0.58992156,0.16336828,0.23224832,0.31297022
42033,0,USPennsylvaniaClearfield,Pennsylvania,Clearfield,2021-01-05 12:04:05.025439,2020-08-20 00:00:00.000000,0.47469181,0.68584908,1.06877162,376,543,847,198,293,470,0.24986608,0.37059100,0.59315673,0.16347746,0.22972836,0.31354956
42033,0,USPennsylvaniaClearfield,Pennsylvania,Clearfield,2021-01-05 12:04:05.025439,2020-08-21 00:00:00.000000,0.47903860,0.68590394,1.08334352,379,543,858,201,297,472,0.25453641,0.37584230,0.59601811,0.16166654,0.22615073,0.31642080
42033,0,USPennsylvaniaClearfield,Pennsylvania,Clearfield,2021-01-05 12:04:05.025439,2020-08-22 00:00:00.000000,0.48420594,0.69020016,1.09490012,383,547,867,204,300,474,0.25764200,0.37930842,0.59849843,0.16068469,0.22701757,0.32277548
42033,0,USPennsylvaniaClearfield,Pennsylvania,Clearfield,2021-01-05 12:04:05.025439,2020-08-23 00:00:00.000000,0.49017198,0.69516726,1.10481165,388,550,875,202,302,475,0.25582193,0.38136263,0.60059294,0.15998021,0.22854419,0.31909600
42033,0,USPennsylvaniaClearfield,Pennsylvania,Clearfield,2021-01-05 12:04:05.025439,2020-08-24 00:00:00.000000,0.50117698,0.70069101,1.11742146,397,555,885,201,300,477,0.25402001,0.37949631,0.60232679,0.15797678,0.23021567,0.32042350
42033,0,USPennsylvaniaClearfield,Pennsylvania,Clearfield,2021-01-05 12:04:05.025439,2020-08-25 00:00:00.000000,0.51300472,0.70898971,1.12985941,406,561,895,201,298,478,0.25462668,0.37670388,0.60390260,0.15621782,0.23168941,0.31668279
42033,0,USPennsylvaniaClearfield,Pennsylvania,Clearfield,2021-01-05 12:04:05.025439,2020-08-26 00:00:00.000000,0.50294595,0.71088375,1.14229584,398,563,905,201,299,479,0.25467762,0.37812413,0.60533837,0.15539753,0.22762273,0.30958227
42033,0,USPennsylvaniaClearfield,Pennsylvania,Clearfield,2021-01-05 12:04:05.025439,2020-08-27 00:00:00.000000,0.49424070,0.71390217,1.15475985,391,565,915,199,300,480,0.25228403,0.37912363,0.60665969,0.15525815,0.22596891,0.30627905
42033,0,USPennsylvaniaClearfield,Pennsylvania,Clearfield,2021-01-05 12:04:05.025439,2020-08-28 00:00:00.000000,0.48674581,0.71379373,1.16691104,385,565,924,198,300,481,0.24985119,0.37968805,0.60790153,0.15585173,0.22233948,0.30769951
42033,0,USPennsylvaniaClearfield,Pennsylvania,Clearfield,2021-01-05 12:04:05.025439,2020-08-29 00:00:00.000000,0.48459168,0.71796896,1.17887185,384,569,934,198,300,482,0.25092978,0.37975888,0.60911139,0.15684875,0.22299646,0.30908517
42033,0,USPennsylvaniaClearfield,Pennsylvania,Clearfield,2021-01-05 12:04:05.025439,2020-08-30 00:00:00.000000,0.49962111,0.71803494,1.18589570,395,569,939,201,302,483,0.25402030,0.38114981,0.61032409,0.15156422,0.22256977,0.31573599
42033,0,USPennsylvaniaClearfield,Pennsylvania,Clearfield,2021-01-05 12:04:05.025439,2020-08-31 00:00:00.000000,0.51568099,0.71496643,1.18881890,408,566,942,201,302,484,0.25431388,0.38144720,0.61154367,0.13964448,0.22416043,0.31315672
42033,0,USPennsylvaniaClearfield,Pennsylvania,Clearfield,2021-01-05 12:04:05.025439,2020-09-01 00:00:00.000000,0.51821786,0.71707350,1.19163061,410,568,944,200,302,485,0.25352185,0.38209853,0.61280965,0.13954806,0.22530206,0.30889105
42033,0,USPennsylvaniaClearfield,Pennsylvania,Clearfield,2021-01-05 12:04:05.025439,2020-09-02 00:00:00.000000,0.50974373,0.72045224,1.19422668,403,570,946,199,305,486,0.25232446,0.38503144,0.61410772,0.13956147,0.22147171,0.31286950
42033,0,USPennsylvaniaClearfield,Pennsylvania,Clearfield,2021-01-05 12:04:05.025439,2020-09-03 00:00:00.000000,0.50141376,0.71857090,1.20148598,397,569,952,198,307,490,0.25080919,0.38777034,0.61893911,0.13988836,0.22470750,0.31056819
42033,0,USPennsylvaniaClearfield,Pennsylvania,Clearfield,2021-01-05 12:04:05.025439,2020-09-04 00:00:00.000000,0.49393034,0.71535510,1.20222477,391,566,952,196,308,497,0.24830922,0.38921394,0.62715287,0.13563614,0.22021888,0.29339846
42033,0,USPennsylvaniaClearfield,Pennsylvania,Clearfield,2021-01-05 12:04:05.025439,2020-09-05 00:00:00.000000,0.48896211,0.71038681,1.19394679,387,563,946,193,306,504,0.24474959,0.38718719,0.63614684,0.13438289,0.21533042,0.28250923
42033,0,USPennsylvaniaClearfield,Pennsylvania,Clearfield,2021-01-05 12:04:05.025439,2020-09-06 00:00:00.000000,0.48564749,0.70875545,1.19066313,384,561,943,192,307,511,0.24323948,0.38787401,0.64588729,0.13260005,0.21141198,0.28182168
42033,0,USPennsylvaniaClearfield,Pennsylvania,Clearfield,2021-01-05 12:04:05.025439,2020-09-07 00:00:00.000000,0.48286489,0.71196906,1.18685827,382,564,940,192,307,521,0.24264956,0.38839370,0.65739673,0.12543077,0.20825866,0.28036940
42033,0,USPennsylvaniaClearfield,Pennsylvania,Clearfield,2021-01-05 12:04:05.025439,2020-09-08 00:00:00.000000,0.48015346,0.71169090,1.18257860,380,564,937,190,308,528,0.24092195,0.38974767,0.66656201,0.12182021,0.20796197,0.27899662
42033,0,USPennsylvaniaClearfield,Pennsylvania,Clearfield,2021-01-05 12:04:05.025439,2020-09-09 00:00:00.000000,0.46889498,0.71275778,1.17730703,371,564,933,189,310,536,0.23958551,0.39150995,0.67743986,0.12002264,0.20602496,0.27842070
42033,0,USPennsylvaniaClearfield,Pennsylvania,Clearfield,2021-01-05 12:04:05.025439,2020-09-10 00:00:00.000000,0.46360045,0.71318461,1.16610863,367,565,924,189,311,545,0.23872889,0.39275714,0.68864595,0.12236019,0.20305233,0.27828267
42033,0,USPennsylvaniaClearfield,Pennsylvania,Clearfield,2021-01-05 12:04:05.025439,2020-09-11 00:00:00.000000,0.46569981,0.71469789,1.15700283,369,566,916,189,312,540,0.23947491,0.39440954,0.68178157,0.12728454,0.20041031,0.27833190
42033,0,USPennsylvaniaClearfield,Pennsylvania,Clearfield,2021-01-05 12:04:05.025439,2020-09-12 00:00:00.000000,0.46848909,0.70815639,1.14548918,371,561,907,191,310,538,0.24163983,0.39199003,0.68007193,0.12993460,0.20144526,0.27899214
42033,0,USPennsylvaniaClearfield,Pennsylvania,Clearfield,2021-01-05 12:04:05.025439,2020-09-13 00:00:00.000000,0.46687447,0.70557492,1.13191666,370,559,897,190,313,537,0.24061902,0.39529582,0.67858774,0.13285553,0.20238307,0.28963888
42033,0,USPennsylvaniaClearfield,Pennsylvania,Clearfield,2021-01-05 12:04:05.025439,2020-09-14 00:00:00.000000,0.46848297,0.70878258,1.11967257,371,561,887,189,312,535,0.23873231,0.39422357,0.67540290,0.13294215,0.20077502,0.29214252
42033,0,USPennsylvaniaClearfield,Pennsylvania,Clearfield,2021-01-05 12:04:05.025439,2020-09-15 00:00:00.000000,0.47136071,0.70964865,1.11119938,373,562,880,189,312,531,0.23875337,0.39382668,0.67076677,0.13272474,0.20110598,0.29197410
42033,0,USPennsylvaniaClearfield,Pennsylvania,Clearfield,2021-01-05 12:04:05.025439,2020-09-16 00:00:00.000000,0.47484805,0.70617127,1.10047149,376,559,872,189,309,526,0.23855876,0.39049850,0.66473610,0.13315316,0.20269260,0.28990084
42033,0,USPennsylvaniaClearfield,Pennsylvania,Clearfield,2021-01-05 12:04:05.025439,2020-09-17 00:00:00.000000,0.47905626,0.69692026,1.08986710,379,552,863,188,307,521,0.23812726,0.38827959,0.65778714,0.13291944,0.20440649,0.28632322
42033,0,USPennsylvaniaClearfield,Pennsylvania,Clearfield,2021-01-05 12:04:05.025439,2020-09-18 00:00:00.000000,0.48322917,0.68952706,1.07949625,382,546,855,188,303,515,0.23753432,0.38325248,0.65011365,0.13540094,0.20445972,0.28759724
42033,0,USPennsylvaniaClearfield,Pennsylvania,Clearfield,2021-01-05 12:04:05.025439,2020-09-19 00:00:00.000000,0.47890312,0.68569817,1.06956201,379,543,847,186,302,508,0.23571135,0.38190042,0.64188248,0.13888315,0.20723293,0.29880894
42033,0,USPennsylvaniaClearfield,Pennsylvania,Clearfield,2021-01-05 12:04:05.025439,2020-09-20 00:00:00.000000,0.47618143,0.68104296,1.06011543,377,539,840,183,302,501,0.23192416,0.38118717,0.63321630,0.13722739,0.21006343,0.30116729
42033,0,USPennsylvaniaClearfield,Pennsylvania,Clearfield,2021-01-05 12:04:05.025439,2020-09-21 00:00:00.000000,0.47374416,0.68692160,1.04581698,375,544,828,180,301,494,0.22830733,0.38053422,0.62417790,0.13526767,0.21413894,0.29699840
42033,0,USPennsylvaniaClearfield,Pennsylvania,Clearfield,2021-01-05 12:04:05.025439,2020-09-22 00:00:00.000000,0.47344606,0.68689876,1.03179556,375,544,817,178,298,487,0.22501969,0.37663938,0.61524085,0.13416047,0.21481148,0.29428795
42033,0,USPennsylvaniaClearfield,Pennsylvania,Clearfield,2021-01-05 12:04:05.025439,2020-09-23 00:00:00.000000,0.46239372,0.68296274,1.01814341,366,541,806,176,294,482,0.22231802,0.37152961,0.60883287,0.13413518,0.21504879,0.29629662
42033,0,USPennsylvaniaClearfield,Pennsylvania,Clearfield,2021-01-05 12:04:05.025439,2020-09-24 00:00:00.000000,0.45171426,0.68330971,1.00520640,358,541,796,174,292,482,0.22015602,0.36940524,0.60866333,0.13498709,0.21534115,0.30352760
42033,0,USPennsylvaniaClearfield,Pennsylvania,Clearfield,2021-01-05 12:04:05.025439,2020-09-25 00:00:00.000000,0.44879559,0.68190229,0.99354542,355,540,787,173,293,482,0.21852869,0.37004202,0.60865040,0.13728867,0.21573887,0.31591151
42033,0,USPennsylvaniaClearfield,Pennsylvania,Clearfield,2021-01-05 12:04:05.025439,2020-09-26 00:00:00.000000,0.44847674,0.67910524,0.98396647,355,538,779,172,293,482,0.21746329,0.37073478,0.60893714,0.14407387,0.21989230,0.32052152
42033,0,USPennsylvaniaClearfield,Pennsylvania,Clearfield,2021-01-05 12:04:05.025439,2020-09-27 00:00:00.000000,0.44741596,0.67983112,0.97738435,354,538,774,171,295,483,0.21698178,0.37268705,0.60966170,0.15007075,0.22386630,0.32719093
42033,0,USPennsylvaniaClearfield,Pennsylvania,Clearfield,2021-01-05 12:04:05.025439,2020-09-28 00:00:00.000000,0.45435598,0.68889042,0.98267216,360,545,778,172,293,484,0.21707139,0.37039726,0.61086573,0.15405965,0.22845217,0.33955786
42033,0,USPennsylvaniaClearfield,Pennsylvania,Clearfield,2021-01-05 12:04:05.025439,2020-09-29 00:00:00.000000,0.46129536,0.69175182,1.00976222,365,548,800,172,293,485,0.21764174,0.36991337,0.61195204,0.15621023,0.23650216,0.34201532
42033,0,USPennsylvaniaClearfield,Pennsylvania,Clearfield,2021-01-05 12:04:05.025439,2020-09-30 00:00:00.000000,0.46849935,0.69895604,1.01269776,371,553,802,173,297,485,0.21863264,0.37579356,0.61302701,0.15699798,0.23959781,0.35186015
42033,0,USPennsylvaniaClearfield,Pennsylvania,Clearfield,2021-01-05 12:04:05.025439,2020-10-01 00:00:00.000000,0.47620501,0.70205759,1.01569456,377,556,804,174,298,486,0.21998703,0.37691074,0.61412454,0.15723688,0.24627148,0.35365744
42033,0,USPennsylvaniaClearfield,Pennsylvania,Clearfield,2021-01-05 12:04:05.025439,2020-10-02 00:00:00.000000,0.48546787,0.71087825,1.01427303,384,563,803,176,300,487,0.22220055,0.37949230,0.61545124,0.15740950,0.25778102,0.35102440
42033,0,USPennsylvaniaClearfield,Pennsylvania,Clearfield,2021-01-05 12:04:05.025439,2020-10-03 00:00:00.000000,0.49896127,0.72399911,1.02918767,395,573,815,177,303,500,0.22381853,0.38316268,0.63172367,0.16484586,0.26743206,0.36326515
42033,0,USPennsylvaniaClearfield,Pennsylvania,Clearfield,2021-01-05 12:04:05.025439,2020-10-04 00:00:00.000000,0.50787011,0.73395809,1.04451819,402,581,827,179,303,513,0.22674779,0.38342404,0.64766868,0.17986770,0.27165061,0.38411984
42033,0,USPennsylvaniaClearfield,Pennsylvania,Clearfield,2021-01-05 12:04:05.025439,2020-10-05 00:00:00.000000,0.51598723,0.73859866,1.06248312,408,585,842,182,306,523,0.23050583,0.38698503,0.65994944,0.19256909,0.27942455,0.39163034
42033,0,USPennsylvaniaClearfield,Pennsylvania,Clearfield,2021-01-05 12:04:05.025439,2020-10-06 00:00:00.000000,0.52441308,0.75761247,1.08431795,415,600,859,184,314,527,0.23275120,0.39723276,0.66573430,0.20038368,0.28836132,0.42228305
42033,0,USPennsylvaniaClearfield,Pennsylvania,Clearfield,2021-01-05 12:04:05.025439,2020-10-07 00:00:00.000000,0.53270229,0.78381395,1.11588299,422,621,884,187,323,533,0.23636120,0.40803229,0.67335816,0.20099568,0.30478106,0.44768222
42033,0,USPennsylvaniaClearfield,Pennsylvania,Clearfield,2021-01-05 12:04:05.025439,2020-10-08 00:00:00.000000,0.53463707,0.79877460,1.16759961,423,633,925,191,329,541,0.24194719,0.41582263,0.68284748,0.20139841,0.31317055,0.44858054
42033,0,USPennsylvaniaClearfield,Pennsylvania,Clearfield,2021-01-05 12:04:05.025439,2020-10-09 00:00:00.000000,0.53805854,0.80857873,1.22214166,426,640,968,196,335,548,0.24841815,0.42374898,0.69186936,0.20273025,0.32559988,0.45245504
42033,0,USPennsylvaniaClearfield,Pennsylvania,Clearfield,2021-01-05 12:04:05.025439,2020-10-10 00:00:00.000000,0.54732505,0.83852682,1.28028461,433,664,1014,202,341,550,0.25580648,0.43140529,0.69404355,0.20738125,0.33452702,0.46665800
42033,0,USPennsylvaniaClearfield,Pennsylvania,Clearfield,2021-01-05 12:04:05.025439,2020-10-11 00:00:00.000000,0.56661175,0.86915540,1.34212827,449,688,1063,208,347,552,0.26339897,0.43846876,0.69664496,0.22883270,0.34606911,0.49904579
42033,0,USPennsylvaniaClearfield,Pennsylvania,Clearfield,2021-01-05 12:04:05.025439,2020-10-12 00:00:00.000000,0.58731132,0.90197070,1.40716446,465,714,1115,214,357,554,0.27048084,0.45168017,0.69990192,0.23549712,0.35287276,0.50232342
42033,0,USPennsylvaniaClearfield,Pennsylvania,Clearfield,2021-01-05 12:04:05.025439,2020-10-13 00:00:00.000000,0.60531144,0.93592410,1.47522147,479,741,1169,222,366,558,0.28119694,0.46183165,0.70429181,0.23767362,0.36106958,0.52374662
42033,0,USPennsylvaniaClearfield,Pennsylvania,Clearfield,2021-01-05 12:04:05.025439,2020-10-14 00:00:00.000000,0.63208500,0.96798333,1.54631566,500,767,1225,233,374,570,0.29478693,0.47269185,0.72010232,0.24035301,0.38250844,0.53646439
42033,0,USPennsylvaniaClearfield,Pennsylvania,Clearfield,2021-01-05 12:04:05.025439,2020-10-15 00:00:00.000000,0.66319376,1.01502346,1.62061032,525,804,1284,246,386,594,0.31092035,0.48758842,0.75047787,0.24541598,0.39118224,0.54000418
42033,0,USPennsylvaniaClearfield,Pennsylvania,Clearfield,2021-01-05 12:04:05.025439,2020-10-16 00:00:00.000000,0.69873431,1.05553965,1.69295201,553,836,1341,260,396,620,0.32891546,0.50005111,0.78272213,0.25485653,0.40019669,0.54079431
42033,0,USPennsylvaniaClearfield,Pennsylvania,Clearfield,2021-01-05 12:04:05.025439,2020-10-17 00:00:00.000000,0.72501910,1.10705350,1.76978047,574,877,1402,272,411,647,0.34437887,0.51889150,0.81672686,0.28409990,0.41014523,0.53879868
42033,0,USPennsylvaniaClearfield,Pennsylvania,Clearfield,2021-01-05 12:04:05.025439,2020-10-18 00:00:00.000000,0.76772073,1.18082913,1.84210789,608,935,1459,285,430,675,0.36018417,0.54348882,0.85242286,0.32749522,0.42123426,0.56118718
42033,0,USPennsylvaniaClearfield,Pennsylvania,Clearfield,2021-01-05 12:04:05.025439,2020-10-19 00:00:00.000000,0.81599739,1.22810748,1.92244114,646,973,1523,303,458,705,0.38284280,0.57865642,0.88982013,0.33088006,0.43241598,0.59178112
42033,0,USPennsylvaniaClearfield,Pennsylvania,Clearfield,2021-01-05 12:04:05.025439,2020-10-20 00:00:00.000000,0.86767284,1.29518659,2.05186820,687,1026,1626,321,485,736,0.40621679,0.61204384,0.92969947,0.33056925,0.44279471,0.63151960
42033,0,USPennsylvaniaClearfield,Pennsylvania,Clearfield,2021-01-05 12:04:05.025439,2020-10-21 00:00:00.000000,0.92205721,1.36307505,2.15789248,730,1080,1710,337,504,770,0.42639673,0.63689603,0.97256439,0.33157184,0.45843581,0.65187631
42033,0,USPennsylvaniaClearfield,Pennsylvania,Clearfield,2021-01-05 12:04:05.025439,2020-10-22 00:00:00.000000,0.97659271,1.45291812,2.28026952,773,1151,1807,354,535,814,0.44700357,0.67628126,1.02707285,0.33607021,0.48075607,0.66051129
42033,0,USPennsylvaniaClearfield,Pennsylvania,Clearfield,2021-01-05 12:04:05.025439,2020-10-23 00:00:00.000000,1.03466859,1.54676915,2.42240428,820,1225,1919,372,564,865,0.47027563,0.71278614,1.09264814,0.33439434,0.49542597,0.66451995
42033,0,USPennsylvaniaClearfield,Pennsylvania,Clearfield,2021-01-05 12:04:05.025439,2020-10-24 00:00:00.000000,1.10216078,1.65734505,2.57905245,873,1313,2044,395,595,922,0.49856102,0.75164534,1.16346057,0.33702558,0.50339952,0.67019900
42033,0,USPennsylvaniaClearfield,Pennsylvania,Clearfield,2021-01-05 12:04:05.025439,2020-10-25 00:00:00.000000,1.16863375,1.77074622,2.76681377,926,1403,2192,419,628,982,0.52893104,0.79344291,1.23913392,0.34961621,0.50657009,0.72603327
42033,0,USPennsylvaniaClearfield,Pennsylvania,Clearfield,2021-01-05 12:04:05.025439,2020-10-26 00:00:00.000000,1.23973726,1.88960074,2.96499121,982,1497,2349,445,666,1046,0.56159372,0.84086976,1.31991912,0.36468561,0.53210503,0.74010584
42033,0,USPennsylvaniaClearfield,Pennsylvania,Clearfield,2021-01-05 12:04:05.025439,2020-10-27 00:00:00.000000,1.31595480,2.00468887,3.17784894,1042,1588,2518,472,713,1114,0.59607967,0.90029693,1.40610322,0.37875258,0.53640424,0.72668419
42033,0,USPennsylvaniaClearfield,Pennsylvania,Clearfield,2021-01-05 12:04:05.025439,2020-10-28 00:00:00.000000,1.40765817,2.14703771,3.42418989,1115,1701,2713,509,765,1175,0.64336927,0.96529055,1.48331187,0.38765831,0.56073357,0.73585439
42033,0,USPennsylvaniaClearfield,Pennsylvania,Clearfield,2021-01-05 12:04:05.025439,2020-10-29 00:00:00.000000,1.53042175,2.32919808,3.70077273,1212,1846,2933,552,822,1234,0.69649041,1.03724178,1.55714887,0.39297758,0.58280136,0.76143852
42033,0,USPennsylvaniaClearfield,Pennsylvania,Clearfield,2021-01-05 12:04:05.025439,2020-10-30 00:00:00.000000,1.67535227,2.53816704,3.99966221,1327,2011,3169,584,875,1318,0.73802057,1.10484148,1.66365844,0.40963586,0.60697455,0.80415834
42033,0,USPennsylvaniaClearfield,Pennsylvania,Clearfield,2021-01-05 12:04:05.025439,2020-10-31 00:00:00.000000,1.81527146,2.75314794,4.32310239,1438,2182,3426,621,944,1426,0.78383523,1.19126187,1.79954455,0.43740396,0.62366699,0.86091977
42033,0,USPennsylvaniaClearfield,Pennsylvania,Clearfield,2021-01-05 12:04:05.025439,2020-11-01 00:00:00.000000,1.99790895,3.03376954,4.67258513,1583,2404,3703,665,1024,1535,0.83923397,1.29315622,1.93690948,0.46875728,0.63202756,0.85059507
42033,0,USPennsylvaniaClearfield,Pennsylvania,Clearfield,2021-01-05 12:04:05.025439,2020-11-02 00:00:00.000000,2.20449481,3.32698337,5.04858868,1747,2636,4001,718,1111,1645,0.90633047,1.40300775,2.07674122,0.47914243,0.64550361,0.88888526
42033,0,USPennsylvaniaClearfield,Pennsylvania,Clearfield,2021-01-05 12:04:05.025439,2020-11-03 00:00:00.000000,2.43185005,3.62006147,5.45267634,1927,2869,4321,778,1212,1772,0.98196598,1.53007894,2.23604444,0.50710644,0.65551911,0.92035658
42033,0,USPennsylvaniaClearfield,Pennsylvania,Clearfield,2021-01-05 12:04:05.025439,2020-11-04 00:00:00.000000,2.69479397,3.93241652,5.88596784,2135,3116,4664,850,1314,1914,1.07306991,1.65889875,2.41514028,0.52083970,0.66067729,0.93192276
42033,0,USPennsylvaniaClearfield,Pennsylvania,Clearfield,2021-01-05 12:04:05.025439,2020-11-05 00:00:00.000000,2.95288667,4.32497412,6.34989791,2340,3427,5032,933,1424,2071,1.17781913,1.79760980,2.61319122,0.53293202,0.66298110,0.92164432
42033,0,USPennsylvaniaClearfield,Pennsylvania,Clearfield,2021-01-05 12:04:05.025439,2020-11-06 00:00:00.000000,3.21014778,4.74765034,6.82329906,2544,3762,5407,1010,1545,2243,1.27461214,1.95010678,2.83089284,0.54265454,0.67114837,0.87223051
42033,0,USPennsylvaniaClearfield,Pennsylvania,Clearfield,2021-01-05 12:04:05.025439,2020-11-07 00:00:00.000000,3.52881697,5.15246143,7.32933898,2796,4083,5808,1104,1684,2436,1.39350668,2.12589880,3.07436520,0.53294382,0.67441121,0.90536226
42033,0,USPennsylvaniaClearfield,Pennsylvania,Clearfield,2021-01-05 12:04:05.025439,2020-11-08 00:00:00.000000,3.90526713,5.60491621,7.87609515,3095,4442,6242,1206,1839,2657,1.52288668,2.32153390,3.35289057,0.52856362,0.67464576,0.90046490
42033,0,USPennsylvaniaClearfield,Pennsylvania,Clearfield,2021-01-05 12:04:05.025439,2020-11-09 00:00:00.000000,4.27196724,6.10349912,8.45962655,3385,4837,6704,1316,2000,2911,1.66070723,2.52377567,3.67367513,0.51874018,0.67016355,0.84506084
42033,0,USPennsylvaniaClearfield,Pennsylvania,Clearfield,2021-01-05 12:04:05.025439,2020-11-10 00:00:00.000000,4.61285611,6.62261004,9.07625066,3655,5248,7193,1443,2170,3177,1.82179495,2.73909529,4.00959563,0.50515932,0.65512028,0.83159306
42033,0,USPennsylvaniaClearfield,Pennsylvania,Clearfield,2021-01-05 12:04:05.025439,2020-11-11 00:00:00.000000,4.98509833,7.19834796,9.72016884,3950,5705,7703,1589,2373,3455,2.00610394,2.99495251,4.35966722,0.49269600,0.65387959,0.81724810
42033,0,USPennsylvaniaClearfield,Pennsylvania,Clearfield,2021-01-05 12:04:05.025439,2020-11-12 00:00:00.000000,5.36407758,7.77558363,10.44999692,4251,6162,8282,1754,2584,3741,2.21341620,3.26107062,4.72145656,0.47830576,0.64809014,0.80835071
42033,0,USPennsylvaniaClearfield,Pennsylvania,Clearfield,2021-01-05 12:04:05.025439,2020-11-13 00:00:00.000000,5.72633885,8.31763519,11.29665028,4538,6592,8953,1923,2811,4038,2.42725942,3.54757482,5.09529768,0.46617348,0.63665335,0.78266127
42033,0,USPennsylvaniaClearfield,Pennsylvania,Clearfield,2021-01-05 12:04:05.025439,2020-11-14 00:00:00.000000,6.10611859,8.90073624,12.16431331,4839,7054,9640,2078,3034,4379,2.62262398,3.82878718,5.52568421,0.44943025,0.61231897,0.76088133
42033,0,USPennsylvaniaClearfield,Pennsylvania,Clearfield,2021-01-05 12:04:05.025439,2020-11-15 00:00:00.000000,6.49873470,9.47301990,13.07583522,5150,7507,10363,2228,3284,4737,2.81139963,4.14399155,5.97807519,0.44204142,0.59818744,0.74874165
42033,0,USPennsylvaniaClearfield,Pennsylvania,Clearfield,2021-01-05 12:04:05.025439,2020-11-16 00:00:00.000000,6.90095623,10.03428158,14.11554938,5469,7952,11187,2373,3564,5108,2.99440031,4.49727506,6.44519877,0.43814836,0.58074031,0.75343576
42033,0,USPennsylvaniaClearfield,Pennsylvania,Clearfield,2021-01-05 12:04:05.025439,2020-11-17 00:00:00.000000,7.31436422,10.62348264,15.16032146,5796,8419,12015,2521,3825,5479,3.18139941,4.82738855,6.91369351,0.43565371,0.56408556,0.76768336
42033,0,USPennsylvaniaClearfield,Pennsylvania,Clearfield,2021-01-05 12:04:05.025439,2020-11-18 00:00:00.000000,7.74145488,11.23348872,16.15458397,6135,8903,12803,2673,4077,5844,3.37276416,5.14444441,7.37435525,0.43490625,0.55751509,0.76850204
42033,0,USPennsylvaniaClearfield,Pennsylvania,Clearfield,2021-01-05 12:04:05.025439,2020-11-19 00:00:00.000000,8.18079991,11.90757727,17.03740077,6483,9437,13502,2819,4337,6197,3.55690371,5.47323946,7.81912789,0.43403694,0.54949958,0.73734171
42033,0,USPennsylvaniaClearfield,Pennsylvania,Clearfield,2021-01-05 12:04:05.025439,2020-11-20 00:00:00.000000,8.62601501,12.57948821,17.79151977,6836,9969,14100,2973,4597,6532,3.75138093,5.80092201,8.24216840,0.42642772,0.53640837,0.68949525
42033,0,USPennsylvaniaClearfield,Pennsylvania,Clearfield,2021-01-05 12:04:05.025439,2020-11-21 00:00:00.000000,9.06488489,13.09709851,18.44806861,7184,10380,14621,3143,4862,6844,3.96630777,6.13547028,8.63658472,0.41491180,0.53109874,0.68052801
42033,0,USPennsylvaniaClearfield,Pennsylvania,Clearfield,2021-01-05 12:04:05.025439,2020-11-22 00:00:00.000000,9.48229531,13.55803501,19.19424097,7515,10745,15212,3302,5134,7167,4.16661874,6.47901557,9.04359203,0.40364668,0.51216805,0.62485880
42033,0,USPennsylvaniaClearfield,Pennsylvania,Clearfield,2021-01-05 12:04:05.025439,2020-11-23 00:00:00.000000,9.87080743,14.01118710,19.92714109,7823,11104,15793,3460,5397,7490,4.36668110,6.80987678,9.45143769,0.38676187,0.50801002,0.62490180
42033,0,USPennsylvaniaClearfield,Pennsylvania,Clearfield,2021-01-05 12:04:05.025439,2020-11-24 00:00:00.000000,10.23478471,14.49074822,20.70176703,8111,11484,16407,3617,5601,7811,4.56428988,7.06808540,9.85623801,0.37551415,0.50377896,0.62469110
42033,0,USPennsylvaniaClearfield,Pennsylvania,Clearfield,2021-01-05 12:04:05.025439,2020-11-25 00:00:00.000000,10.59792743,14.90399311,21.45073423,8399,11812,17000,3759,5843,8129,4.74324609,7.37303029,10.25682602,0.37100873,0.49533766,0.62374555
42033,0,USPennsylvaniaClearfield,Pennsylvania,Clearfield,2021-01-05 12:04:05.025439,2020-11-26 00:00:00.000000,11.00649233,15.35554318,22.06390671,8723,12170,17486,3878,6059,8440,4.89336524,7.64547028,10.65030775,0.35370590,0.48847882,0.62031591
42033,0,USPennsylvaniaClearfield,Pennsylvania,Clearfield,2021-01-05 12:04:05.025439,2020-11-27 00:00:00.000000,11.34624964,15.82683455,22.60945507,8992,12543,17919,3993,6261,8743,5.03880920,7.90047064,11.03170529,0.34083666,0.47799766,0.60886366
42033,0,USPennsylvaniaClearfield,Pennsylvania,Clearfield,2021-01-05 12:04:05.025439,2020-11-28 00:00:00.000000,11.48851460,16.28598150,23.13025772,9105,12907,18331,4105,6443,9029,5.17951714,8.12969473,11.39321636,0.33426729,0.46153644,0.58888296
42033,0,USPennsylvaniaClearfield,Pennsylvania,Clearfield,2021-01-05 12:04:05.025439,2020-11-29 00:00:00.000000,11.66326559,16.62614577,23.62643696,9243,13177,18725,4212,6624,9298,5.31468576,8.35891172,11.73204331,0.32300018,0.44878552,0.57768950
42033,0,USPennsylvaniaClearfield,Pennsylvania,Clearfield,2021-01-05 12:04:05.025439,2020-11-30 00:00:00.000000,11.82115429,16.86659589,24.09236726,9368,13367,19094,4313,6820,9570,5.44196429,8.60630131,12.07602788,0.31899373,0.44397087,0.56981163
42033,0,USPennsylvaniaClearfield,Pennsylvania,Clearfield,2021-01-05 12:04:05.025439,2020-12-01 00:00:00.000000,11.96536141,17.18143177,24.53008967,9483,13617,19441,4405,7010,9818,5.55869764,8.84492606,12.38801131,0.31773441,0.44001887,0.56824035
42033,0,USPennsylvaniaClearfield,Pennsylvania,Clearfield,2021-01-05 12:04:05.025439,2020-12-02 00:00:00.000000,12.10059650,17.50492807,24.93690031,9590,13873,19763,4489,7175,10042,5.66406509,9.05370915,12.67123674,0.31727515,0.43265823,0.56018443
42033,0,USPennsylvaniaClearfield,Pennsylvania,Clearfield,2021-01-05 12:04:05.025439,2020-12-03 00:00:00.000000,12.22974962,17.66743658,25.31031144,9692,14002,20059,4564,7264,10245,5.75891080,9.16537023,12.92752985,0.31705504,0.42732009,0.55581774
42033,0,USPennsylvaniaClearfield,Pennsylvania,Clearfield,2021-01-05 12:04:05.025439,2020-12-04 00:00:00.000000,12.35452429,17.70879915,25.64793859,9791,14035,20327,4605,7330,10428,5.81158393,9.24876132,13.15773511,0.31699467,0.42321948,0.56063641
42033,0,USPennsylvaniaClearfield,Pennsylvania,Clearfield,2021-01-05 12:04:05.025439,2020-12-05 00:00:00.000000,12.47118512,17.61556259,25.94711173,9884,13961,20564,4634,7417,10590,5.84806007,9.35844368,13.36202188,0.28686676,0.41593816,0.56889564
42033,0,USPennsylvaniaClearfield,Pennsylvania,Clearfield,2021-01-05 12:04:05.025439,2020-12-06 00:00:00.000000,12.50683313,17.61722763,26.20349754,9912,13962,20767,4663,7537,10731,5.88376311,9.51030712,13.54012546,0.28255665,0.40556444,0.57994394
42033,0,USPennsylvaniaClearfield,Pennsylvania,Clearfield,2021-01-05 12:04:05.025439,2020-12-07 00:00:00.000000,12.44907032,17.73706752,26.19431734,9866,14057,20760,4692,7657,10851,5.92067247,9.66186513,13.69172381,0.28230486,0.40027130,0.56850079
42033,0,USPennsylvaniaClearfield,Pennsylvania,Clearfield,2021-01-05 12:04:05.025439,2020-12-08 00:00:00.000000,12.35707511,17.85785873,26.12514320,9793,14153,20705,4721,7731,10949,5.95700727,9.75543627,13.81602189,0.28196429,0.39701619,0.55332128
42033,0,USPennsylvaniaClearfield,Pennsylvania,Clearfield,2021-01-05 12:04:05.025439,2020-12-09 00:00:00.000000,12.23845585,17.96100795,26.02407880,9699,14234,20625,4742,7751,11027,5.98426391,9.78019292,13.91332639,0.28149781,0.39586320,0.54849765
42033,0,USPennsylvaniaClearfield,Pennsylvania,Clearfield,2021-01-05 12:04:05.025439,2020-12-10 00:00:00.000000,12.10642128,17.92885957,25.90313322,9594,14209,20529,4742,7812,11082,5.98333388,9.85763354,13.98396593,0.28089951,0.39811837,0.53184093
42033,0,USPennsylvaniaClearfield,Pennsylvania,Clearfield,2021-01-05 12:04:05.025439,2020-12-11 00:00:00.000000,11.97981603,17.91379558,25.77218372,9494,14197,20425,4719,7758,11118,5.95517126,9.78912789,14.02865234,0.28023694,0.39728156,0.54030435
42033,0,USPennsylvaniaClearfield,Pennsylvania,Clearfield,2021-01-05 12:04:05.025439,2020-12-12 00:00:00.000000,11.87405687,17.83991095,25.63631081,9410,14139,20318,4681,7701,11134,5.90728122,9.71706106,14.04935582,0.27928845,0.40309404,0.54887440
42033,0,USPennsylvaniaClearfield,Pennsylvania,Clearfield,2021-01-05 12:04:05.025439,2020-12-13 00:00:00.000000,11.78555043,17.67837613,25.49633994,9340,14010,20207,4632,7633,11135,5.84516163,9.63191985,14.05066234,0.27842916,0.40971306,0.59208951
42033,0,USPennsylvaniaClearfield,Pennsylvania,Clearfield,2021-01-05 12:04:05.025439,2020-12-14 00:00:00.000000,11.70497061,17.58244100,25.34909041,9276,13934,20090,4574,7602,11127,5.77243401,9.59297585,14.03971653,0.27538119,0.41495236,0.59874560
42033,0,USPennsylvaniaClearfield,Pennsylvania,Clearfield,2021-01-05 12:04:05.025439,2020-12-15 00:00:00.000000,11.58925932,17.53715272,25.19286441,9185,13899,19966,4510,7556,10989,5.69136306,9.53501396,13.86609433,0.27196256,0.42541682,0.60687867
42033,0,USPennsylvaniaClearfield,Pennsylvania,Clearfield,2021-01-05 12:04:05.025439,2020-12-16 00:00:00.000000,11.42263650,17.37165437,25.00885091,9053,13767,19820,4441,7477,10837,5.60394075,9.43464606,13.67362395,0.27338511,0.44141351,0.64154324
42033,0,USPennsylvaniaClearfield,Pennsylvania,Clearfield,2021-01-05 12:04:05.025439,2020-12-17 00:00:00.000000,11.36274812,17.16783221,24.68982524,9005,13606,19567,4383,7407,10707,5.53090244,9.34647300,13.51044701,0.27422439,0.45007116,0.66805671
42033,0,USPennsylvaniaClearfield,Pennsylvania,Clearfield,2021-01-05 12:04:05.025439,2020-12-18 00:00:00.000000,11.30850439,16.96603624,24.35018782,8962,13446,19298,4360,7342,10591,5.50186514,9.26423535,13.36428366,0.28356597,0.47101298,0.70140626
42033,0,USPennsylvaniaClearfield,Pennsylvania,Clearfield,2021-01-05 12:04:05.025439,2020-12-19 00:00:00.000000,11.25275490,16.85657314,24.01569302,8918,13359,19033,4338,7285,10483,5.47472895,9.19301358,13.22718721,0.30910597,0.49781880,0.75075392
42033,0,USPennsylvaniaClearfield,Pennsylvania,Clearfield,2021-01-05 12:04:05.025439,2020-12-20 00:00:00.000000,11.20787499,16.72388732,23.71620892,8882,13254,18796,4319,7248,10522,5.45015710,9.14612136,13.27686808,0.32671410,0.52732848,0.79096696
42033,0,USPennsylvaniaClearfield,Pennsylvania,Clearfield,2021-01-05 12:04:05.025439,2020-12-21 00:00:00.000000,11.18023596,16.59253473,23.48631629,8860,13150,18614,4301,7229,10586,5.42779646,9.12136829,13.35786694,0.34344741,0.54930389,0.87226021
42033,0,USPennsylvaniaClearfield,Pennsylvania,Clearfield,2021-01-05 12:04:05.025439,2020-12-22 00:00:00.000000,11.13077788,16.47101979,23.34859885,8821,13054,18504,4284,7175,10655,5.40545694,9.05366163,13.44419780,0.35389388,0.56978471,0.88527244
42033,0,USPennsylvaniaClearfield,Pennsylvania,Clearfield,2021-01-05 12:04:05.025439,2020-12-23 00:00:00.000000,11.07136619,16.37133838,23.28048439,8774,12975,18450,4265,7139,10716,5.38223026,9.00791344,13.52194050,0.36101419,0.59467606,0.88750805
42033,0,USPennsylvaniaClearfield,Pennsylvania,Clearfield,2021-01-05 12:04:05.025439,2020-12-24 00:00:00.000000,11.00573058,16.26103319,23.24118443,8722,12887,18419,4257,7104,10641,5.37187967,8.96368219,13.42683385,0.36479953,0.59966554,0.90036911
42033,0,USPennsylvaniaClearfield,Pennsylvania,Clearfield,2021-01-05 12:04:05.025439,2020-12-25 00:00:00.000000,10.99924715,16.11388302,23.20080367,8717,12771,18387,4268,7069,10524,5.38621196,8.92019663,13.27986262,0.36714843,0.60522879,0.92021217
42033,0,USPennsylvaniaClearfield,Pennsylvania,Clearfield,2021-01-05 12:04:05.025439,2020-12-26 00:00:00.000000,11.00535537,15.99571961,23.14068530,8722,12677,18340,4284,7032,10390,5.40646179,8.87344249,13.10977309,0.36949148,0.63581186,0.96014328
42033,0,USPennsylvaniaClearfield,Pennsylvania,Clearfield,2021-01-05 12:04:05.025439,2020-12-27 00:00:00.000000,10.97163722,15.89916350,23.04763454,8695,12600,18266,4306,6989,10237,5.43370393,8.81958954,12.91771830,0.37296097,0.64700578,0.99610823
42033,0,USPennsylvaniaClearfield,Pennsylvania,Clearfield,2021-01-05 12:04:05.025439,2020-12-28 00:00:00.000000,10.91796799,15.76600383,22.91089062,8653,12495,18158,4333,6924,10217,5.46804795,8.73704908,12.89238323,0.37730660,0.64839699,1.01917539
42033,0,USPennsylvaniaClearfield,Pennsylvania,Clearfield,2021-01-05 12:04:05.025439,2020-12-29 00:00:00.000000,10.90279037,15.68853103,22.72612957,8641,12433,18011,4365,6837,10211,5.50803879,8.62763388,12.88389081,0.36077953,0.66125064,1.04926085
42033,0,USPennsylvaniaClearfield,Pennsylvania,Clearfield,2021-01-05 12:04:05.025439,2020-12-30 00:00:00.000000,10.88624319,15.42884338,22.23445131,8627,12228,17621,4397,6799,10187,5.54911932,8.57970383,12.85441950,0.34570461,0.67529870,1.07078997
42033,0,USPennsylvaniaClearfield,Pennsylvania,Clearfield,2021-01-05 12:04:05.025439,2020-12-31 00:00:00.000000,10.85959445,15.28047908,21.61704625,8606,12110,17132,4409,6771,10148,5.56317123,8.54425876,12.80506259,0.32840259,0.69238215,1.09335282
42033,0,USPennsylvaniaClearfield,Pennsylvania,Clearfield,2021-01-05 12:04:05.025439,2021-01-01 00:00:00.000000,10.83730247,15.03410033,21.13125316,8589,11915,16747,4420,6774,10092,5.57742900,8.54821561,12.73393350,0.32107863,0.69667727,1.11842338
42033,0,USPennsylvaniaClearfield,Pennsylvania,Clearfield,2021-01-05 12:04:05.025439,2021-01-02 00:00:00.000000,10.82124644,14.74451935,20.79683230,8576,11685,16482,4430,6764,9867,5.59012234,8.53481974,12.45078385,0.32670216,0.70706169,1.13508573
42033,0,USPennsylvaniaClearfield,Pennsylvania,Clearfield,2021-01-05 12:04:05.025439,2021-01-03 00:00:00.000000,10.79179719,14.57833366,20.57643950,8553,11554,16307,4438,6668,9623,5.60009431,8.41414108,12.14182144,0.33195755,0.71911351,1.22060812
42033,0,USPennsylvaniaClearfield,Pennsylvania,Clearfield,2021-01-05 12:04:05.025439,2021-01-04 00:00:00.000000,10.74159477,14.27149382,20.42006657,8513,11310,16183,4436,6598,9402,5.59750393,8.32571541,11.86347872,0.33546130,0.72023274,1.23110706
42033,0,USPennsylvaniaClearfield,Pennsylvania,Clearfield,2021-01-05 12:04:05.025439,2021-01-05 00:00:00.000000,10.67264480,14.12677367,20.03413280,8458,11196,15878,4375,6515,9274,5.52069598,8.22070776,11.70202395,0.33732763,0.72012574,1.23344558
42033,0,USPennsylvaniaClearfield,Pennsylvania,Clearfield,2021-01-05 12:04:05.025439,2021-01-06 00:00:00.000000,10.58606169,13.87398681,19.46851193,8389,10995,15429,4322,6357,9140,5.45385697,8.02116781,11.53348124,0.33820653,0.71037671,1.23433353
42033,0,USPennsylvaniaClearfield,Pennsylvania,Clearfield,2021-01-05 12:04:05.025439,2021-01-07 00:00:00.000000,10.35913814,13.59887820,18.85553088,8210,10777,14943,4243,6217,8999,5.35436007,7.84440797,11.35556803,0.33859656,0.71440670,1.23460392
42033,0,USPennsylvaniaClearfield,Pennsylvania,Clearfield,2021-01-05 12:04:05.025439,2021-01-08 00:00:00.000000,10.09276525,13.34048245,18.29409247,7999,10572,14498,4158,6085,8848,5.24654885,7.67816475,11.16402242,0.33876508,0.71513503,1.23470088
42033,0,USPennsylvaniaClearfield,Pennsylvania,Clearfield,2021-01-05 12:04:05.025439,2021-01-09 00:00:00.000000,9.91975533,13.03059309,17.69711956,7861,10327,14025,4069,5974,8683,5.13472050,7.53877865,10.95670591,0.33883704,0.71533996,1.23473800
42033,0,USPennsylvaniaClearfield,Pennsylvania,Clearfield,2021-01-05 12:04:05.025439,2021-01-10 00:00:00.000000,9.73029894,12.68058762,17.18027425,7711,10049,13616,3976,5835,8532,5.01710882,7.36268852,10.76627252,0.33886762,0.71539646,1.23475326
42033,0,USPennsylvaniaClearfield,Pennsylvania,Clearfield,2021-01-05 12:04:05.025439,2021-01-11 00:00:00.000000,9.29920676,12.26164733,16.99861289,7370,9717,13472,3878,5695,8377,4.89357435,7.18569493,10.57013320,0.33888058,0.71537525,1.23475996
42033,0,USPennsylvaniaClearfield,Pennsylvania,Clearfield,2021-01-05 12:04:05.025439,2021-01-12 00:00:00.000000,8.78398994,11.81749965,16.77338499,6961,9365,13293,3822,5522,8125,4.82358046,6.96769795,10.25192875,0.33888607,0.71530698,1.23476306
42033,0,USPennsylvaniaClearfield,Pennsylvania,Clearfield,2021-01-05 12:04:05.025439,2021-01-13 00:00:00.000000,8.28604272,11.43628762,16.57555496,6567,9063,13136,3826,5345,7919,4.82785885,6.74429828,9.99200382,0.33888840,0.71527754,1.23476456
42033,0,USPennsylvaniaClearfield,Pennsylvania,Clearfield,2021-01-05 12:04:05.025439,2021-01-14 00:00:00.000000,7.83752296,11.04980649,16.59644975,6211,8757,13153,3828,5220,7703,4.83085115,6.58672027,9.72036518,0.33888938,0.71526497,1.23476529
42033,0,USPennsylvaniaClearfield,Pennsylvania,Clearfield,2021-01-05 12:04:05.025439,2021-01-15 00:00:00.000000,7.40653147,10.63226447,16.11567926,5870,8426,12772,3669,5059,7750,4.63023108,6.38396618,9.77914712,0.33888980,0.71525965,1.23476566
42033,0,USPennsylvaniaClearfield,Pennsylvania,Clearfield,2021-01-05 12:04:05.025439,2021-01-16 00:00:00.000000,6.97421473,10.24767395,15.58727745,5527,8121,12353,3471,4879,7780,4.37964020,6.15688940,9.81689387,0.33888997,0.71525740,1.23476585
42033,0,USPennsylvaniaClearfield,Pennsylvania,Clearfield,2021-01-05 12:04:05.025439,2021-01-17 00:00:00.000000,6.65319130,9.93132410,15.14505773,5272,7871,12003,3278,4708,7770,4.13710137,5.94096218,9.80397607,0.33889005,0.71525646,1.23476595
