FIPS,HR_UID,nameid,province,region,analysisTime,dates,pointprevalence_025,pointprevalence_50,pointprevalence_975,pointinfections_025,pointinfections_50,pointinfections_975,pointinfectious_025,pointinfectious_50,pointinfectious_975,pointinfectiousprevalence_05,pointinfectiousprevalence_50,pointinfectiousprevalence_95,infectrate_025,infectrate_50,infectrate_975
18171,0,USIndianaWarren,Indiana,Warren,2021-01-05 23:22:59.245920,2020-03-09 00:00:00.000000,0.01247919,0.04567426,0.16361287,1,3,13,0,2,7,0.00683867,0.02510544,0.08851468,0.34067250,0.49275310,0.69500032
18171,0,USIndianaWarren,Indiana,Warren,2021-01-05 23:22:59.245920,2020-03-10 00:00:00.000000,0.01399903,0.05022297,0.17531944,1,4,14,0,2,7,0.00656612,0.02503747,0.08782423,0.34064865,0.49252203,0.69499993
18171,0,USIndianaWarren,Indiana,Warren,2021-01-05 23:22:59.245920,2020-03-11 00:00:00.000000,0.01549653,0.05598536,0.18841564,1,4,15,0,2,7,0.00663392,0.02557552,0.08907329,0.34060329,0.49204104,0.69499914
18171,0,USIndianaWarren,Indiana,Warren,2021-01-05 23:22:59.245920,2020-03-12 00:00:00.000000,0.01701726,0.06099070,0.20294402,1,5,16,0,2,7,0.00692440,0.02698495,0.08681740,0.34051706,0.49139619,0.69499755
18171,0,USIndianaWarren,Indiana,Warren,2021-01-05 23:22:59.245920,2020-03-13 00:00:00.000000,0.01858756,0.06521330,0.21705774,1,5,17,0,2,7,0.00736670,0.02816313,0.08674883,0.34035324,0.49052411,0.69499432
18171,0,USIndianaWarren,Indiana,Warren,2021-01-05 23:22:59.245920,2020-03-14 00:00:00.000000,0.02021921,0.06993036,0.22341036,1,5,18,0,2,7,0.00791795,0.02936046,0.08820737,0.34004257,0.48943292,0.69498776
18171,0,USIndianaWarren,Indiana,Warren,2021-01-05 23:22:59.245920,2020-03-15 00:00:00.000000,0.02191207,0.07434175,0.23654281,1,6,19,0,2,7,0.00855162,0.03116752,0.09299195,0.33945552,0.48803625,0.69497435
18171,0,USIndianaWarren,Indiana,Warren,2021-01-05 23:22:59.245920,2020-03-16 00:00:00.000000,0.04048645,0.09050611,0.26816845,3,7,22,0,2,8,0.00925007,0.03350493,0.10041644,0.33835391,0.48625097,0.69494670
18171,0,USIndianaWarren,Indiana,Warren,2021-01-05 23:22:59.245920,2020-03-17 00:00:00.000000,0.05024952,0.11083862,0.29898593,4,9,24,1,3,9,0.01318625,0.03851901,0.11405315,0.32813686,0.47927280,0.69488738
18171,0,USIndianaWarren,Indiana,Warren,2021-01-05 23:22:59.245920,2020-03-18 00:00:00.000000,0.06518444,0.12905138,0.33065081,5,10,27,1,3,10,0.01774780,0.04448350,0.12863556,0.30794682,0.47322197,0.69473302
18171,0,USIndianaWarren,Indiana,Warren,2021-01-05 23:22:59.245920,2020-03-19 00:00:00.000000,0.07965281,0.14897319,0.36294621,6,12,29,1,4,11,0.02219950,0.05260428,0.14482660,0.29146039,0.46262348,0.69406335
18171,0,USIndianaWarren,Indiana,Warren,2021-01-05 23:22:59.245920,2020-03-20 00:00:00.000000,0.09332505,0.16891524,0.39500556,7,13,32,2,5,13,0.02980427,0.06287481,0.16176408,0.28144578,0.44195308,0.64437230
18171,0,USIndianaWarren,Indiana,Warren,2021-01-05 23:22:59.245920,2020-03-21 00:00:00.000000,0.10763350,0.19193976,0.42836228,8,15,35,2,6,14,0.03437273,0.07318673,0.17976246,0.26766891,0.41975168,0.56694225
18171,0,USIndianaWarren,Indiana,Warren,2021-01-05 23:22:59.245920,2020-03-22 00:00:00.000000,0.11883781,0.21456322,0.46175048,9,17,38,3,6,16,0.03915072,0.08390028,0.20160103,0.25478733,0.40054544,0.55019750
18171,0,USIndianaWarren,Indiana,Warren,2021-01-05 23:22:59.245920,2020-03-23 00:00:00.000000,0.14408646,0.24347033,0.49037474,11,20,40,3,7,18,0.04394206,0.09461056,0.21944344,0.24234530,0.36906311,0.50036739
18171,0,USIndianaWarren,Indiana,Warren,2021-01-05 23:22:59.245920,2020-03-24 00:00:00.000000,0.15672255,0.27113150,0.51480609,12,22,42,4,8,19,0.05081687,0.10609269,0.23659668,0.23603279,0.34516624,0.48474694
18171,0,USIndianaWarren,Indiana,Warren,2021-01-05 23:22:59.245920,2020-03-25 00:00:00.000000,0.18257442,0.29869064,0.53791008,15,24,44,4,9,21,0.06042915,0.11762626,0.25472574,0.22977938,0.32643173,0.44771780
18171,0,USIndianaWarren,Indiana,Warren,2021-01-05 23:22:59.245920,2020-03-26 00:00:00.000000,0.19860972,0.32733969,0.57526855,16,27,47,6,10,22,0.07526644,0.13121605,0.27810175,0.21950728,0.31544949,0.44276296
18171,0,USIndianaWarren,Indiana,Warren,2021-01-05 23:22:59.245920,2020-03-27 00:00:00.000000,0.20932208,0.35540178,0.61451817,17,29,50,6,11,25,0.08226636,0.14331743,0.30456512,0.19839572,0.29713253,0.43197606
18171,0,USIndianaWarren,Indiana,Warren,2021-01-05 23:22:59.245920,2020-03-28 00:00:00.000000,0.21420014,0.38388486,0.65384639,17,31,54,7,12,26,0.08918003,0.15692260,0.32645222,0.17290174,0.28055716,0.42435003
18171,0,USIndianaWarren,Indiana,Warren,2021-01-05 23:22:59.245920,2020-03-29 00:00:00.000000,0.22640733,0.40758891,0.70234728,18,33,58,7,14,28,0.09648630,0.17177228,0.34083995,0.16395390,0.26322589,0.40500578
18171,0,USIndianaWarren,Indiana,Warren,2021-01-05 23:22:59.245920,2020-03-30 00:00:00.000000,0.24102803,0.42068495,0.72981084,19,34,60,8,14,29,0.10331041,0.18135390,0.36017475,0.15649210,0.25502639,0.37428660
18171,0,USIndianaWarren,Indiana,Warren,2021-01-05 23:22:59.245920,2020-03-31 00:00:00.000000,0.25275142,0.43672461,0.78105622,20,36,64,8,15,30,0.10720226,0.18869487,0.37415339,0.15051460,0.24404091,0.36418936
18171,0,USIndianaWarren,Indiana,Warren,2021-01-05 23:22:59.245920,2020-04-01 00:00:00.000000,0.26435465,0.45901241,0.81748648,21,37,67,9,16,32,0.11267137,0.19741509,0.39298434,0.15005275,0.23288996,0.35345045
18171,0,USIndianaWarren,Indiana,Warren,2021-01-05 23:22:59.245920,2020-04-02 00:00:00.000000,0.27589764,0.48385750,0.85125261,22,39,70,9,17,35,0.11920369,0.20888471,0.42583905,0.14942187,0.22078313,0.34802454
18171,0,USIndianaWarren,Indiana,Warren,2021-01-05 23:22:59.245920,2020-04-03 00:00:00.000000,0.28741882,0.50429307,0.88023831,23,41,72,10,17,36,0.12669442,0.21691906,0.44273703,0.14182451,0.21584559,0.34530526
18171,0,USIndianaWarren,Indiana,Warren,2021-01-05 23:22:59.245920,2020-04-04 00:00:00.000000,0.29943727,0.51678452,0.90284230,24,42,74,11,18,37,0.13536914,0.22777258,0.45787981,0.13377117,0.20980195,0.30941011
18171,0,USIndianaWarren,Indiana,Warren,2021-01-05 23:22:59.245920,2020-04-05 00:00:00.000000,0.31284170,0.53262467,0.91081801,25,44,75,11,19,39,0.14126049,0.23780328,0.47206453,0.12715266,0.20217196,0.29973511
18171,0,USIndianaWarren,Indiana,Warren,2021-01-05 23:22:59.245920,2020-04-06 00:00:00.000000,0.32203052,0.56430134,0.92373756,26,46,76,12,20,40,0.14704377,0.25376758,0.48551508,0.12488927,0.19331260,0.30721173
18171,0,USIndianaWarren,Indiana,Warren,2021-01-05 23:22:59.245920,2020-04-07 00:00:00.000000,0.33261504,0.59538104,0.92842977,27,49,76,12,21,40,0.15287955,0.26514521,0.49416381,0.12371042,0.18829094,0.29309154
18171,0,USIndianaWarren,Indiana,Warren,2021-01-05 23:22:59.245920,2020-04-08 00:00:00.000000,0.33702235,0.62439380,0.92612508,27,51,76,13,23,41,0.15860031,0.28206581,0.50147807,0.11529504,0.17912996,0.28170688
18171,0,USIndianaWarren,Indiana,Warren,2021-01-05 23:22:59.245920,2020-04-09 00:00:00.000000,0.32895620,0.64030974,0.92737961,27,52,76,13,24,41,0.16399400,0.29128056,0.50793685,0.10876916,0.17202059,0.25210940
18171,0,USIndianaWarren,Indiana,Warren,2021-01-05 23:22:59.245920,2020-04-10 00:00:00.000000,0.32630144,0.65395649,0.95430701,26,54,78,13,24,42,0.16212395,0.29821932,0.51273185,0.10100811,0.16617808,0.24967698
18171,0,USIndianaWarren,Indiana,Warren,2021-01-05 23:22:59.245920,2020-04-11 00:00:00.000000,0.32880201,0.66097047,0.98122707,27,54,81,13,26,43,0.15876921,0.31558321,0.52658468,0.09728006,0.15782280,0.24689119
18171,0,USIndianaWarren,Indiana,Warren,2021-01-05 23:22:59.245920,2020-04-12 00:00:00.000000,0.32356565,0.67417362,1.03101985,26,55,85,12,27,45,0.15520848,0.32826562,0.55397611,0.09632432,0.15093310,0.24131134
18171,0,USIndianaWarren,Indiana,Warren,2021-01-05 23:22:59.245920,2020-04-13 00:00:00.000000,0.33388278,0.68151431,1.02535082,27,56,84,12,27,48,0.15173164,0.33510494,0.58143113,0.09235175,0.14493250,0.23064355
18171,0,USIndianaWarren,Indiana,Warren,2021-01-05 23:22:59.245920,2020-04-14 00:00:00.000000,0.34411932,0.68277196,1.03451399,28,56,85,12,28,49,0.14956671,0.34294434,0.60338703,0.08914594,0.14290605,0.21591928
18171,0,USIndianaWarren,Indiana,Warren,2021-01-05 23:22:59.245920,2020-04-15 00:00:00.000000,0.35446539,0.68170874,1.04044120,29,56,85,13,29,50,0.16333017,0.35238175,0.60684066,0.08547773,0.14042509,0.20278982
18171,0,USIndianaWarren,Indiana,Warren,2021-01-05 23:22:59.245920,2020-04-16 00:00:00.000000,0.36439462,0.67995138,1.04225729,30,56,86,14,29,50,0.17898394,0.35144383,0.60653879,0.08467059,0.13834742,0.19500995
18171,0,USIndianaWarren,Indiana,Warren,2021-01-05 23:22:59.245920,2020-04-17 00:00:00.000000,0.37375109,0.67752116,1.04907620,30,55,86,16,28,49,0.19472001,0.34950951,0.60294784,0.08328801,0.13402971,0.19127537
18171,0,USIndianaWarren,Indiana,Warren,2021-01-05 23:22:59.245920,2020-04-18 00:00:00.000000,0.37357466,0.66980493,1.09488652,30,55,90,15,29,49,0.19065930,0.35106505,0.59659052,0.07718726,0.12799281,0.19128806
18171,0,USIndianaWarren,Indiana,Warren,2021-01-05 23:22:59.245920,2020-04-19 00:00:00.000000,0.36547371,0.67194301,1.13795939,30,55,94,15,29,48,0.18658357,0.35177775,0.58820171,0.07499906,0.12547899,0.18714832
18171,0,USIndianaWarren,Indiana,Warren,2021-01-05 23:22:59.245920,2020-04-20 00:00:00.000000,0.38701630,0.66816493,1.12621996,31,55,93,15,28,48,0.18259068,0.35042526,0.58745908,0.07405484,0.12425539,0.17470565
18171,0,USIndianaWarren,Indiana,Warren,2021-01-05 23:22:59.245920,2020-04-21 00:00:00.000000,0.38856120,0.65930300,1.11225394,32,54,91,15,28,49,0.19106009,0.35031550,0.60173226,0.06928660,0.12190423,0.17074208
18171,0,USIndianaWarren,Indiana,Warren,2021-01-05 23:22:59.245920,2020-04-22 00:00:00.000000,0.37879554,0.64923768,1.10419352,31,53,91,15,28,50,0.18736578,0.34739122,0.60778709,0.06517884,0.11629261,0.17345664
18171,0,USIndianaWarren,Indiana,Warren,2021-01-05 23:22:59.245920,2020-04-23 00:00:00.000000,0.36370188,0.64602980,1.07823200,30,53,89,15,28,50,0.18152131,0.34331628,0.60821942,0.06504951,0.11167963,0.17420073
18171,0,USIndianaWarren,Indiana,Warren,2021-01-05 23:22:59.245920,2020-04-24 00:00:00.000000,0.34882367,0.63996030,1.06014718,28,52,87,14,27,50,0.17567434,0.33656538,0.60957088,0.06465406,0.10856865,0.17825849
18171,0,USIndianaWarren,Indiana,Warren,2021-01-05 23:22:59.245920,2020-04-25 00:00:00.000000,0.33458451,0.63625761,1.06115645,27,52,87,14,27,51,0.16984560,0.33192893,0.62189231,0.06204705,0.10489205,0.17994898
18171,0,USIndianaWarren,Indiana,Warren,2021-01-05 23:22:59.245920,2020-04-26 00:00:00.000000,0.34323736,0.63127753,1.07851421,28,52,89,13,26,51,0.16397433,0.32404068,0.62254134,0.06098786,0.10250433,0.18079705
18171,0,USIndianaWarren,Indiana,Warren,2021-01-05 23:22:59.245920,2020-04-27 00:00:00.000000,0.33049028,0.63442403,1.06665695,27,52,88,13,26,50,0.15833954,0.31911707,0.60721007,0.06079136,0.10217106,0.18168120
18171,0,USIndianaWarren,Indiana,Warren,2021-01-05 23:22:59.245920,2020-04-28 00:00:00.000000,0.31698798,0.63633601,1.05264350,26,52,87,13,25,49,0.15735497,0.31421967,0.59935371,0.06073392,0.10199309,0.18010160
18171,0,USIndianaWarren,Indiana,Warren,2021-01-05 23:22:59.245920,2020-04-29 00:00:00.000000,0.30244150,0.61806864,1.03614331,24,51,85,12,25,50,0.15538944,0.31031215,0.60823784,0.06066233,0.10076673,0.17704929
18171,0,USIndianaWarren,Indiana,Warren,2021-01-05 23:22:59.245920,2020-04-30 00:00:00.000000,0.28724298,0.60118482,1.01804830,23,49,84,12,25,51,0.15137476,0.30962253,0.61720571,0.05609219,0.09925950,0.17413852
18171,0,USIndianaWarren,Indiana,Warren,2021-01-05 23:22:59.245920,2020-05-01 00:00:00.000000,0.27147867,0.60301808,1.02234312,22,49,84,12,25,51,0.14604038,0.31089843,0.62603457,0.05355170,0.09604283,0.17280236
18171,0,USIndianaWarren,Indiana,Warren,2021-01-05 23:22:59.245920,2020-05-02 00:00:00.000000,0.25534416,0.59561572,1.02660717,21,49,84,11,25,52,0.13979506,0.31253199,0.63461594,0.05114173,0.09377579,0.17201983
18171,0,USIndianaWarren,Indiana,Warren,2021-01-05 23:22:59.245920,2020-05-03 00:00:00.000000,0.23934990,0.58530679,1.03064183,19,48,85,10,25,51,0.13293304,0.31088980,0.62478453,0.04859007,0.08967227,0.17156057
18171,0,USIndianaWarren,Indiana,Warren,2021-01-05 23:22:59.245920,2020-05-04 00:00:00.000000,0.22089040,0.55439441,1.00019294,18,45,82,10,25,50,0.12572911,0.30532547,0.61250959,0.04598767,0.08774904,0.17015302
18171,0,USIndianaWarren,Indiana,Warren,2021-01-05 23:22:59.245920,2020-05-05 00:00:00.000000,0.20325394,0.52462932,0.96938128,16,43,80,9,24,49,0.11786755,0.29754386,0.59671162,0.04418278,0.08681683,0.16596704
18171,0,USIndianaWarren,Indiana,Warren,2021-01-05 23:22:59.245920,2020-05-06 00:00:00.000000,0.18652636,0.50166624,0.93766454,15,41,77,9,23,47,0.10974741,0.28979103,0.57856594,0.04578654,0.08536533,0.16584901
18171,0,USIndianaWarren,Indiana,Warren,2021-01-05 23:22:59.245920,2020-05-07 00:00:00.000000,0.17180739,0.47286003,0.90541688,14,39,74,8,23,46,0.10165252,0.28064566,0.55894356,0.04288091,0.08527963,0.16564148
18171,0,USIndianaWarren,Indiana,Warren,2021-01-05 23:22:59.245920,2020-05-08 00:00:00.000000,0.15793512,0.44567676,0.87837565,13,36,72,7,22,44,0.09377749,0.26767746,0.53848366,0.04292301,0.08522427,0.16499157
18171,0,USIndianaWarren,Indiana,Warren,2021-01-05 23:22:59.245920,2020-05-09 00:00:00.000000,0.14479261,0.42077959,0.84927914,11,34,70,7,21,43,0.08625176,0.25416544,0.52178871,0.04447848,0.08513406,0.16288805
18171,0,USIndianaWarren,Indiana,Warren,2021-01-05 23:22:59.245920,2020-05-10 00:00:00.000000,0.13249598,0.39638437,0.81942029,10,32,67,6,20,42,0.07915797,0.24198515,0.51111294,0.04631218,0.08538922,0.15728905
18171,0,USIndianaWarren,Indiana,Warren,2021-01-05 23:22:59.245920,2020-05-11 00:00:00.000000,0.12107709,0.36962209,0.78946439,10,30,65,5,19,41,0.07254395,0.22990152,0.49843014,0.04511434,0.08508211,0.15195951
18171,0,USIndianaWarren,Indiana,Warren,2021-01-05 23:22:59.245920,2020-05-12 00:00:00.000000,0.11052582,0.34424008,0.75976259,9,28,62,5,17,40,0.06642930,0.21766589,0.48436807,0.04449088,0.08536216,0.14922973
18171,0,USIndianaWarren,Indiana,Warren,2021-01-05 23:22:59.245920,2020-05-13 00:00:00.000000,0.10081116,0.32241743,0.73039811,8,26,60,5,16,38,0.06102321,0.20488492,0.46941492,0.04428063,0.08477937,0.14141419
18171,0,USIndianaWarren,Indiana,Warren,2021-01-05 23:22:59.245920,2020-05-14 00:00:00.000000,0.09189130,0.29872931,0.70118675,7,24,57,4,15,37,0.05631024,0.19253086,0.45391514,0.04628243,0.08501888,0.14100188
18171,0,USIndianaWarren,Indiana,Warren,2021-01-05 23:22:59.245920,2020-05-15 00:00:00.000000,0.08404882,0.27816470,0.67185779,6,22,55,4,14,36,0.05194743,0.18066515,0.43806664,0.04482496,0.08628414,0.13813645
18171,0,USIndianaWarren,Indiana,Warren,2021-01-05 23:22:59.245920,2020-05-16 00:00:00.000000,0.07725814,0.26087477,0.64252443,6,21,53,3,13,34,0.04791585,0.16882772,0.42195048,0.04739460,0.08599365,0.13720860
18171,0,USIndianaWarren,Indiana,Warren,2021-01-05 23:22:59.245920,2020-05-17 00:00:00.000000,0.07112884,0.23871184,0.61361146,5,19,50,3,12,33,0.04419664,0.15715044,0.40562371,0.04677732,0.08548853,0.13778024
18171,0,USIndianaWarren,Indiana,Warren,2021-01-05 23:22:59.245920,2020-05-18 00:00:00.000000,0.07524086,0.24501333,0.60271532,6,20,49,3,12,32,0.04077143,0.14618027,0.38918431,0.04677104,0.08412407,0.13856205
18171,0,USIndianaWarren,Indiana,Warren,2021-01-05 23:22:59.245920,2020-05-19 00:00:00.000000,0.07989982,0.24661955,0.64705830,6,20,53,3,11,30,0.03976396,0.13855501,0.37448027,0.04786529,0.08324428,0.13715159
18171,0,USIndianaWarren,Indiana,Warren,2021-01-05 23:22:59.245920,2020-05-20 00:00:00.000000,0.08723378,0.24999512,0.69261148,7,20,57,3,10,29,0.04044048,0.13247743,0.36113773,0.04675118,0.08307638,0.13122497
18171,0,USIndianaWarren,Indiana,Warren,2021-01-05 23:22:59.245920,2020-05-21 00:00:00.000000,0.09628260,0.26123531,0.73868274,7,21,61,3,10,30,0.04233543,0.12877068,0.36651734,0.04673125,0.08150324,0.12936925
18171,0,USIndianaWarren,Indiana,Warren,2021-01-05 23:22:59.245920,2020-05-22 00:00:00.000000,0.10506078,0.26719937,0.77875326,8,22,64,3,10,31,0.04611849,0.13295417,0.38089142,0.04674573,0.08060947,0.12796163
18171,0,USIndianaWarren,Indiana,Warren,2021-01-05 23:22:59.245920,2020-05-23 00:00:00.000000,0.11337655,0.27468866,0.77569673,9,22,64,3,11,32,0.04816119,0.13581208,0.39833998,0.04678749,0.07964807,0.12776910
18171,0,USIndianaWarren,Indiana,Warren,2021-01-05 23:22:59.245920,2020-05-24 00:00:00.000000,0.12112030,0.28625506,0.75521932,10,23,62,4,11,34,0.05101952,0.13833082,0.41795783,0.04357006,0.07934433,0.12948628
18171,0,USIndianaWarren,Indiana,Warren,2021-01-05 23:22:59.245920,2020-05-25 00:00:00.000000,0.12626808,0.29107017,0.74582463,10,24,61,4,11,34,0.05435250,0.13934653,0.41898313,0.04048019,0.07993240,0.13326924
18171,0,USIndianaWarren,Indiana,Warren,2021-01-05 23:22:59.245920,2020-05-26 00:00:00.000000,0.13887374,0.29932164,0.73740640,11,24,60,4,11,33,0.06022146,0.14133209,0.40962179,0.03859591,0.08016750,0.13852273
18171,0,USIndianaWarren,Indiana,Warren,2021-01-05 23:22:59.245920,2020-05-27 00:00:00.000000,0.15820336,0.30841135,0.73007374,13,25,60,5,11,33,0.06677454,0.14363071,0.40193194,0.03761775,0.07901833,0.14060521
18171,0,USIndianaWarren,Indiana,Warren,2021-01-05 23:22:59.245920,2020-05-28 00:00:00.000000,0.17698730,0.31426544,0.72358778,14,25,59,6,12,32,0.07592351,0.14855836,0.39527530,0.03709348,0.07775295,0.13961453
18171,0,USIndianaWarren,Indiana,Warren,2021-01-05 23:22:59.245920,2020-05-29 00:00:00.000000,0.19491021,0.31786678,0.71773752,16,26,59,7,12,32,0.08475510,0.15232090,0.38967515,0.03516255,0.07809460,0.13592607
18171,0,USIndianaWarren,Indiana,Warren,2021-01-05 23:22:59.245920,2020-05-30 00:00:00.000000,0.20106050,0.33104550,0.71229800,16,27,58,7,12,31,0.08973166,0.15588147,0.38490460,0.03404893,0.07897240,0.13174137
18171,0,USIndianaWarren,Indiana,Warren,2021-01-05 23:22:59.245920,2020-05-31 00:00:00.000000,0.19863221,0.33309325,0.70981096,16,27,58,7,13,31,0.08934053,0.16017934,0.38076156,0.03377094,0.07943721,0.13196309
18171,0,USIndianaWarren,Indiana,Warren,2021-01-05 23:22:59.245920,2020-06-01 00:00:00.000000,0.20666810,0.33054347,0.70211526,17,27,58,7,13,31,0.08843076,0.16528331,0.37705962,0.03374815,0.07886725,0.13214247
18171,0,USIndianaWarren,Indiana,Warren,2021-01-05 23:22:59.245920,2020-06-02 00:00:00.000000,0.21482298,0.33862938,0.69434595,17,27,57,7,13,30,0.08925230,0.16670334,0.37290734,0.03391926,0.07859473,0.13421336
18171,0,USIndianaWarren,Indiana,Warren,2021-01-05 23:22:59.245920,2020-06-03 00:00:00.000000,0.21612196,0.33773518,0.68285313,17,27,56,7,13,31,0.09119530,0.16924164,0.37720717,0.03364927,0.07810354,0.13623499
18171,0,USIndianaWarren,Indiana,Warren,2021-01-05 23:22:59.245920,2020-06-04 00:00:00.000000,0.20944101,0.33975408,0.68648215,17,28,56,7,13,31,0.09386073,0.16892161,0.38692613,0.03448983,0.07749983,0.13745336
18171,0,USIndianaWarren,Indiana,Warren,2021-01-05 23:22:59.245920,2020-06-05 00:00:00.000000,0.20723855,0.33868019,0.70065068,17,27,57,8,13,32,0.09759530,0.16790105,0.39619780,0.03524052,0.07782872,0.13815337
18171,0,USIndianaWarren,Indiana,Warren,2021-01-05 23:22:59.245920,2020-06-06 00:00:00.000000,0.19818561,0.34410441,0.71895824,16,28,59,8,14,33,0.09983667,0.17047746,0.40504336,0.03490860,0.07708303,0.13848028
18171,0,USIndianaWarren,Indiana,Warren,2021-01-05 23:22:59.245920,2020-06-07 00:00:00.000000,0.19042432,0.34907491,0.73554023,15,28,60,8,14,33,0.10276483,0.17325922,0.40438264,0.03455676,0.07611998,0.13863233
18171,0,USIndianaWarren,Indiana,Warren,2021-01-05 23:22:59.245920,2020-06-08 00:00:00.000000,0.19398623,0.34370709,0.71880025,16,28,59,8,14,32,0.10164480,0.17637548,0.39778579,0.03389515,0.07549506,0.13870245
18171,0,USIndianaWarren,Indiana,Warren,2021-01-05 23:22:59.245920,2020-06-09 00:00:00.000000,0.19807469,0.35652260,0.69706870,16,29,57,8,15,32,0.09838800,0.18221709,0.39447471,0.03345566,0.07438081,0.14425477
18171,0,USIndianaWarren,Indiana,Warren,2021-01-05 23:22:59.245920,2020-06-10 00:00:00.000000,0.19783928,0.36781562,0.70643800,16,30,58,7,15,32,0.09614718,0.18212036,0.39338821,0.03320176,0.07373149,0.14362830
18171,0,USIndianaWarren,Indiana,Warren,2021-01-05 23:22:59.245920,2020-06-11 00:00:00.000000,0.20283979,0.37165516,0.70421301,16,30,58,7,15,32,0.09462959,0.18552115,0.39388643,0.03351912,0.07327281,0.14368440
18171,0,USIndianaWarren,Indiana,Warren,2021-01-05 23:22:59.245920,2020-06-12 00:00:00.000000,0.20040741,0.39015437,0.72584740,16,32,59,7,15,32,0.09435477,0.18626410,0.39630619,0.03457910,0.07425340,0.14458892
18171,0,USIndianaWarren,Indiana,Warren,2021-01-05 23:22:59.245920,2020-06-13 00:00:00.000000,0.18901708,0.40362710,0.75985542,15,33,62,7,15,32,0.09657719,0.18806734,0.39847579,0.03454302,0.07465899,0.14672115
18171,0,USIndianaWarren,Indiana,Warren,2021-01-05 23:22:59.245920,2020-06-14 00:00:00.000000,0.18806067,0.40829900,0.79376110,15,33,65,8,16,33,0.09890502,0.19378934,0.40133339,0.03454238,0.07441558,0.14990673
18171,0,USIndianaWarren,Indiana,Warren,2021-01-05 23:22:59.245920,2020-06-15 00:00:00.000000,0.17779539,0.38940629,0.76093538,14,32,62,8,16,33,0.10130124,0.19813821,0.41048919,0.03492220,0.07525926,0.15311904
18171,0,USIndianaWarren,Indiana,Warren,2021-01-05 23:22:59.245920,2020-06-16 00:00:00.000000,0.16640820,0.36855432,0.72610029,13,30,60,7,16,34,0.09602530,0.20015360,0.42031235,0.03561089,0.07557567,0.15306376
18171,0,USIndianaWarren,Indiana,Warren,2021-01-05 23:22:59.245920,2020-06-17 00:00:00.000000,0.15344668,0.34766195,0.68890033,12,28,56,7,16,34,0.08867078,0.19866827,0.41604339,0.03580452,0.07615406,0.15093851
18171,0,USIndianaWarren,Indiana,Warren,2021-01-05 23:22:59.245920,2020-06-18 00:00:00.000000,0.14125162,0.33071056,0.65111809,11,27,53,6,15,33,0.08415103,0.19343054,0.40526445,0.03612566,0.07698904,0.14780492
18171,0,USIndianaWarren,Indiana,Warren,2021-01-05 23:22:59.245920,2020-06-19 00:00:00.000000,0.13028532,0.31050722,0.61411291,10,25,50,6,15,32,0.07994666,0.18602115,0.39039243,0.03681962,0.07678782,0.14359754
18171,0,USIndianaWarren,Indiana,Warren,2021-01-05 23:22:59.245920,2020-06-20 00:00:00.000000,0.12057185,0.28934246,0.57879309,9,23,47,6,14,30,0.07544031,0.17859477,0.37319619,0.03773153,0.07657636,0.14268036
18171,0,USIndianaWarren,Indiana,Warren,2021-01-05 23:22:59.245920,2020-06-21 00:00:00.000000,0.11067025,0.26725038,0.55207275,9,22,45,5,14,29,0.07078657,0.17114363,0.35495282,0.03836649,0.07682453,0.14983543
18171,0,USIndianaWarren,Indiana,Warren,2021-01-05 23:22:59.245920,2020-06-22 00:00:00.000000,0.11694983,0.26699192,0.56238373,9,22,46,5,13,27,0.06610610,0.16280207,0.33651569,0.03865320,0.07604601,0.14981245
18171,0,USIndianaWarren,Indiana,Warren,2021-01-05 23:22:59.245920,2020-06-23 00:00:00.000000,0.11863259,0.28240012,0.58104013,9,23,48,5,13,27,0.06315700,0.15811935,0.32863362,0.03849046,0.07646624,0.14769582
18171,0,USIndianaWarren,Indiana,Warren,2021-01-05 23:22:59.245920,2020-06-24 00:00:00.000000,0.12749515,0.28702454,0.60190415,10,23,49,5,12,27,0.06150193,0.15439772,0.32800228,0.03916279,0.07625264,0.14636353
18171,0,USIndianaWarren,Indiana,Warren,2021-01-05 23:22:59.245920,2020-06-25 00:00:00.000000,0.12556024,0.29062054,0.60961795,10,24,50,5,12,27,0.06080372,0.15043809,0.33225393,0.04087199,0.07616497,0.14514683
18171,0,USIndianaWarren,Indiana,Warren,2021-01-05 23:22:59.245920,2020-06-26 00:00:00.000000,0.12604929,0.29971408,0.59338054,10,24,49,5,12,28,0.06663813,0.15091578,0.33970806,0.04076545,0.07787392,0.14307556
18171,0,USIndianaWarren,Indiana,Warren,2021-01-05 23:22:59.245920,2020-06-27 00:00:00.000000,0.12868290,0.30616682,0.59986224,10,25,49,5,12,28,0.06822631,0.15136024,0.34918161,0.03929334,0.07876516,0.13878300
18171,0,USIndianaWarren,Indiana,Warren,2021-01-05 23:22:59.245920,2020-06-28 00:00:00.000000,0.13133741,0.31002896,0.62002446,10,25,51,5,12,29,0.06857850,0.15577759,0.35144991,0.03857394,0.08040698,0.13445670
18171,0,USIndianaWarren,Indiana,Warren,2021-01-05 23:22:59.245920,2020-06-29 00:00:00.000000,0.15367308,0.32220546,0.60466789,12,26,49,5,12,28,0.06772669,0.15710843,0.34244765,0.03828610,0.07966115,0.14026850
18171,0,USIndianaWarren,Indiana,Warren,2021-01-05 23:22:59.245920,2020-06-30 00:00:00.000000,0.16934539,0.33198011,0.59874559,13,27,49,5,13,27,0.07195423,0.15849807,0.33549200,0.03818530,0.07916184,0.14334433
18171,0,USIndianaWarren,Indiana,Warren,2021-01-05 23:22:59.245920,2020-07-01 00:00:00.000000,0.16881338,0.34452851,0.59245851,13,28,48,6,13,27,0.07626504,0.16429584,0.33010279,0.03816154,0.08051207,0.14504156
18171,0,USIndianaWarren,Indiana,Warren,2021-01-05 23:22:59.245920,2020-07-02 00:00:00.000000,0.18048870,0.35310842,0.58593803,14,29,48,6,14,26,0.08159661,0.16972549,0.32590487,0.03817856,0.08129793,0.14262452
18171,0,USIndianaWarren,Indiana,Warren,2021-01-05 23:22:59.245920,2020-07-03 00:00:00.000000,0.18637991,0.36856476,0.57977021,15,30,47,7,14,26,0.08757472,0.17395507,0.32261558,0.03824469,0.08014225,0.13937314
18171,0,USIndianaWarren,Indiana,Warren,2021-01-05 23:22:59.245920,2020-07-04 00:00:00.000000,0.19609681,0.37707827,0.60118044,16,31,49,7,14,26,0.08912618,0.17859222,0.32001147,0.03867230,0.08006946,0.14493741
18171,0,USIndianaWarren,Indiana,Warren,2021-01-05 23:22:59.245920,2020-07-05 00:00:00.000000,0.20560863,0.39246722,0.65230898,16,32,53,7,15,26,0.08906910,0.18311847,0.31787799,0.04316906,0.08138516,0.15192927
18171,0,USIndianaWarren,Indiana,Warren,2021-01-05 23:22:59.245920,2020-07-06 00:00:00.000000,0.20842408,0.39385559,0.64018027,17,32,52,7,15,26,0.09090052,0.18460754,0.32652550,0.04416428,0.08228641,0.15290605
18171,0,USIndianaWarren,Indiana,Warren,2021-01-05 23:22:59.245920,2020-07-07 00:00:00.000000,0.20001143,0.39913897,0.64762188,16,32,53,8,15,28,0.09689013,0.19027054,0.33966229,0.04449073,0.08245106,0.14728077
18171,0,USIndianaWarren,Indiana,Warren,2021-01-05 23:22:59.245920,2020-07-08 00:00:00.000000,0.19133974,0.39990243,0.66882552,15,33,55,7,16,28,0.09623375,0.19461511,0.34851461,0.04459720,0.08249421,0.14990938
18171,0,USIndianaWarren,Indiana,Warren,2021-01-05 23:22:59.245920,2020-07-09 00:00:00.000000,0.18809652,0.40728953,0.69274855,15,33,57,8,16,29,0.09810047,0.19690710,0.35088180,0.04438751,0.08289401,0.15065980
18171,0,USIndianaWarren,Indiana,Warren,2021-01-05 23:22:59.245920,2020-07-10 00:00:00.000000,0.19249813,0.41658118,0.72505288,15,34,59,8,16,29,0.09907802,0.19709634,0.35999617,0.04441862,0.08335778,0.15363101
18171,0,USIndianaWarren,Indiana,Warren,2021-01-05 23:22:59.245920,2020-07-11 00:00:00.000000,0.19677237,0.40881584,0.75193103,16,33,62,8,16,30,0.09939017,0.20111722,0.37157957,0.04442803,0.08392698,0.15256852
18171,0,USIndianaWarren,Indiana,Warren,2021-01-05 23:22:59.245920,2020-07-12 00:00:00.000000,0.20091668,0.41958788,0.77770656,16,34,64,8,16,31,0.10026217,0.20374395,0.38561526,0.04443597,0.08436746,0.14951810
18171,0,USIndianaWarren,Indiana,Warren,2021-01-05 23:22:59.245920,2020-07-13 00:00:00.000000,0.20209165,0.41961554,0.78032262,16,34,64,8,17,33,0.09864951,0.20759440,0.40724726,0.04448353,0.08637354,0.14940336
18171,0,USIndianaWarren,Indiana,Warren,2021-01-05 23:22:59.245920,2020-07-14 00:00:00.000000,0.20319192,0.42178029,0.78210606,16,34,64,8,17,34,0.09793483,0.21024636,0.41394891,0.04327715,0.08624717,0.15073930
18171,0,USIndianaWarren,Indiana,Warren,2021-01-05 23:22:59.245920,2020-07-15 00:00:00.000000,0.20418447,0.43494722,0.78300756,16,35,64,8,17,34,0.09716250,0.21431892,0.41700174,0.04317535,0.08707343,0.15319998
18171,0,USIndianaWarren,Indiana,Warren,2021-01-05 23:22:59.245920,2020-07-16 00:00:00.000000,0.20517265,0.43534664,0.78369437,16,35,64,7,17,35,0.09636494,0.21488494,0.42910640,0.04394041,0.08740004,0.15686567
18171,0,USIndianaWarren,Indiana,Warren,2021-01-05 23:22:59.245920,2020-07-17 00:00:00.000000,0.20625372,0.43357121,0.78516092,17,35,64,7,18,35,0.09568462,0.21858795,0.43417064,0.04506991,0.08666319,0.15635877
18171,0,USIndianaWarren,Indiana,Warren,2021-01-05 23:22:59.245920,2020-07-18 00:00:00.000000,0.20749669,0.43046562,0.79457497,17,35,65,8,18,35,0.09863154,0.22093510,0.43007420,0.04658153,0.08791260,0.15342165
18171,0,USIndianaWarren,Indiana,Warren,2021-01-05 23:22:59.245920,2020-07-19 00:00:00.000000,0.20876820,0.42119702,0.81738077,17,34,67,8,18,35,0.10278998,0.22162955,0.42478340,0.04800660,0.08925452,0.15453934
18171,0,USIndianaWarren,Indiana,Warren,2021-01-05 23:22:59.245920,2020-07-20 00:00:00.000000,0.21620859,0.43334187,0.78839736,17,35,65,8,18,36,0.10696171,0.22721602,0.43577535,0.04946935,0.08983543,0.15521072
18171,0,USIndianaWarren,Indiana,Warren,2021-01-05 23:22:59.245920,2020-07-21 00:00:00.000000,0.21331104,0.44613456,0.80390780,17,36,66,9,18,36,0.11161351,0.22870233,0.44541729,0.05034229,0.09110422,0.16529042
18171,0,USIndianaWarren,Indiana,Warren,2021-01-05 23:22:59.245920,2020-07-22 00:00:00.000000,0.21098857,0.46239674,0.79550454,17,38,65,9,18,36,0.10994353,0.22900512,0.44500199,0.05133826,0.09143403,0.16527445
18171,0,USIndianaWarren,Indiana,Warren,2021-01-05 23:22:59.245920,2020-07-23 00:00:00.000000,0.21312980,0.46472497,0.80015762,17,38,66,9,19,36,0.11207718,0.23086124,0.44275593,0.05184321,0.09191073,0.16502210
18171,0,USIndianaWarren,Indiana,Warren,2021-01-05 23:22:59.245920,2020-07-24 00:00:00.000000,0.21908635,0.47828812,0.81004323,18,39,66,9,19,36,0.11550752,0.23194965,0.43992706,0.05233968,0.09400136,0.16415445
18171,0,USIndianaWarren,Indiana,Warren,2021-01-05 23:22:59.245920,2020-07-25 00:00:00.000000,0.22475209,0.49029039,0.81905179,18,40,67,9,19,36,0.11891527,0.23608893,0.44079592,0.05227172,0.09638109,0.16252778
18171,0,USIndianaWarren,Indiana,Warren,2021-01-05 23:22:59.245920,2020-07-26 00:00:00.000000,0.22627398,0.48527008,0.82818439,18,40,68,10,19,36,0.12224170,0.23804967,0.44503891,0.05289142,0.09829580,0.15978905
18171,0,USIndianaWarren,Indiana,Warren,2021-01-05 23:22:59.245920,2020-07-27 00:00:00.000000,0.22167257,0.49039879,0.82432547,18,40,68,10,19,36,0.12473809,0.24002768,0.43995722,0.05135007,0.09493802,0.15613845
18171,0,USIndianaWarren,Indiana,Warren,2021-01-05 23:22:59.245920,2020-07-28 00:00:00.000000,0.21742329,0.49042975,0.82236838,17,40,67,10,19,35,0.12678767,0.24114310,0.43276977,0.05003193,0.09360465,0.15561582
18171,0,USIndianaWarren,Indiana,Warren,2021-01-05 23:22:59.245920,2020-07-29 00:00:00.000000,0.21377935,0.50021171,0.85157731,17,41,70,10,20,35,0.13177927,0.24284178,0.43434785,0.04933931,0.09252773,0.15533516
18171,0,USIndianaWarren,Indiana,Warren,2021-01-05 23:22:59.245920,2020-07-30 00:00:00.000000,0.21651902,0.49371941,0.85108204,17,40,70,11,20,36,0.13452790,0.24346729,0.44704638,0.05065578,0.09221447,0.15740211
18171,0,USIndianaWarren,Indiana,Warren,2021-01-05 23:22:59.245920,2020-07-31 00:00:00.000000,0.21928415,0.50593046,0.85163957,18,41,70,10,20,37,0.13171671,0.24854600,0.45870558,0.05388661,0.09354829,0.16053412
18171,0,USIndianaWarren,Indiana,Warren,2021-01-05 23:22:59.245920,2020-08-01 00:00:00.000000,0.22204426,0.51616785,0.85312969,18,42,70,10,20,38,0.12915740,0.25127087,0.46028462,0.05625411,0.09515481,0.16427646
18171,0,USIndianaWarren,Indiana,Warren,2021-01-05 23:22:59.245920,2020-08-02 00:00:00.000000,0.22481546,0.51580565,0.85530017,18,42,70,10,20,37,0.12682490,0.25384013,0.45950996,0.05866432,0.09829710,0.17161685
18171,0,USIndianaWarren,Indiana,Warren,2021-01-05 23:22:59.245920,2020-08-03 00:00:00.000000,0.25547673,0.52310014,0.87979157,21,43,72,10,20,37,0.12474115,0.25324501,0.45838109,0.06035451,0.10183563,0.17715992
18171,0,USIndianaWarren,Indiana,Warren,2021-01-05 23:22:59.245920,2020-08-04 00:00:00.000000,0.28012239,0.52617896,0.90086767,23,43,74,10,21,37,0.12807286,0.25649653,0.45754487,0.06152016,0.10332709,0.17922724
18171,0,USIndianaWarren,Indiana,Warren,2021-01-05 23:22:59.245920,2020-08-05 00:00:00.000000,0.28547163,0.53456630,0.92078884,23,44,76,11,21,37,0.13561710,0.26025169,0.45696586,0.06180363,0.10507758,0.17990529
18171,0,USIndianaWarren,Indiana,Warren,2021-01-05 23:22:59.245920,2020-08-06 00:00:00.000000,0.30826002,0.54567223,0.94051900,25,45,77,12,21,37,0.14641528,0.26249836,0.45663526,0.06493631,0.10550942,0.18011432
18171,0,USIndianaWarren,Indiana,Warren,2021-01-05 23:22:59.245920,2020-08-07 00:00:00.000000,0.33464991,0.54427407,0.95995959,27,44,79,13,21,37,0.15942426,0.26483267,0.45657681,0.06676593,0.10744821,0.18291147
18171,0,USIndianaWarren,Indiana,Warren,2021-01-05 23:22:59.245920,2020-08-08 00:00:00.000000,0.33435078,0.54875975,0.97896235,27,45,80,13,22,37,0.16258531,0.26765735,0.45684851,0.06741485,0.11178481,0.19487344
18171,0,USIndianaWarren,Indiana,Warren,2021-01-05 23:22:59.245920,2020-08-09 00:00:00.000000,0.32436391,0.55807416,0.99189321,26,46,81,13,22,38,0.16531151,0.27511126,0.45982933,0.06904869,0.11420075,0.19156119
18171,0,USIndianaWarren,Indiana,Warren,2021-01-05 23:22:59.245920,2020-08-10 00:00:00.000000,0.35187760,0.56000221,0.96318747,29,46,79,13,23,38,0.16795523,0.28012021,0.46865821,0.06982726,0.11562805,0.19691462
18171,0,USIndianaWarren,Indiana,Warren,2021-01-05 23:22:59.245920,2020-08-11 00:00:00.000000,0.37777321,0.56138604,0.93597191,31,46,77,14,23,38,0.17345403,0.28556428,0.47136900,0.07021865,0.11440979,0.20286174
18171,0,USIndianaWarren,Indiana,Warren,2021-01-05 23:22:59.245920,2020-08-12 00:00:00.000000,0.38144450,0.57802437,0.90988953,31,47,75,14,23,38,0.17995605,0.28585654,0.46529621,0.07051562,0.11568891,0.20333536
18171,0,USIndianaWarren,Indiana,Warren,2021-01-05 23:22:59.245920,2020-08-13 00:00:00.000000,0.38394165,0.59148010,0.89651256,31,48,74,15,24,38,0.18157360,0.29251712,0.46834803,0.07152302,0.11621535,0.20387016
18171,0,USIndianaWarren,Indiana,Warren,2021-01-05 23:22:59.245920,2020-08-14 00:00:00.000000,0.37989143,0.60499286,0.89090270,31,50,73,14,24,38,0.17994677,0.29668430,0.47083521,0.07179931,0.11867634,0.20439581
18171,0,USIndianaWarren,Indiana,Warren,2021-01-05 23:22:59.245920,2020-08-15 00:00:00.000000,0.37147277,0.62230294,0.91930612,30,51,75,14,25,39,0.18088185,0.30280566,0.47237172,0.07189629,0.12082425,0.19679148
18171,0,USIndianaWarren,Indiana,Warren,2021-01-05 23:22:59.245920,2020-08-16 00:00:00.000000,0.36347690,0.62841032,0.99136210,30,51,81,14,25,39,0.17708264,0.31005949,0.47429722,0.07212165,0.12555867,0.20023985
18171,0,USIndianaWarren,Indiana,Warren,2021-01-05 23:22:59.245920,2020-08-17 00:00:00.000000,0.36666566,0.63017943,0.99116689,30,52,81,14,26,40,0.17328985,0.31479964,0.48607540,0.07347377,0.12818370,0.20521870
18171,0,USIndianaWarren,Indiana,Warren,2021-01-05 23:22:59.245920,2020-08-18 00:00:00.000000,0.37011306,0.63119944,0.98951762,30,52,81,14,26,41,0.17128430,0.31977372,0.50379754,0.07653250,0.13044613,0.20874785
18171,0,USIndianaWarren,Indiana,Warren,2021-01-05 23:22:59.245920,2020-08-19 00:00:00.000000,0.37402489,0.63128272,0.98677820,30,52,81,14,26,42,0.17057666,0.32007786,0.51763743,0.08485378,0.13190338,0.22038933
18171,0,USIndianaWarren,Indiana,Warren,2021-01-05 23:22:59.245920,2020-08-20 00:00:00.000000,0.37883356,0.62302139,0.97573799,31,51,80,14,26,43,0.17082328,0.32070032,0.52882917,0.08603094,0.13606193,0.23083401
18171,0,USIndianaWarren,Indiana,Warren,2021-01-05 23:22:59.245920,2020-08-21 00:00:00.000000,0.38460415,0.62669697,0.98373549,31,51,81,14,26,44,0.17183129,0.32113298,0.54374620,0.08957598,0.13741529,0.22743674
18171,0,USIndianaWarren,Indiana,Warren,2021-01-05 23:22:59.245920,2020-08-22 00:00:00.000000,0.39058010,0.62264980,0.99174068,32,51,81,14,26,46,0.17327763,0.32253358,0.56123027,0.08963891,0.13808249,0.21944772
18171,0,USIndianaWarren,Indiana,Warren,2021-01-05 23:22:59.245920,2020-08-23 00:00:00.000000,0.39613284,0.62885287,0.99863850,32,51,82,14,26,46,0.17502872,0.32272798,0.56217044,0.08802354,0.14047608,0.21415963
18171,0,USIndianaWarren,Indiana,Warren,2021-01-05 23:22:59.245920,2020-08-24 00:00:00.000000,0.38309026,0.61461444,0.98118680,31,50,81,14,26,46,0.17707536,0.32060937,0.56280420,0.08753133,0.14069466,0.21216737
18171,0,USIndianaWarren,Indiana,Warren,2021-01-05 23:22:59.245920,2020-08-25 00:00:00.000000,0.36999857,0.59258096,0.95725142,30,48,79,14,26,46,0.17631826,0.31774311,0.55949245,0.09129928,0.14425808,0.21901288
18171,0,USIndianaWarren,Indiana,Warren,2021-01-05 23:22:59.245920,2020-08-26 00:00:00.000000,0.35656455,0.57133469,0.93073378,29,47,76,14,26,45,0.17366148,0.31488273,0.55338638,0.09612108,0.14465427,0.22390395
18171,0,USIndianaWarren,Indiana,Warren,2021-01-05 23:22:59.245920,2020-08-27 00:00:00.000000,0.34308942,0.55166545,0.90267513,28,45,74,14,25,45,0.16974657,0.30747368,0.54528546,0.09916722,0.14476643,0.23368257
18171,0,USIndianaWarren,Indiana,Warren,2021-01-05 23:22:59.245920,2020-08-28 00:00:00.000000,0.32982221,0.53541458,0.88434860,27,44,73,13,24,44,0.16502843,0.30219641,0.53576001,0.09680654,0.14422991,0.24271084
18171,0,USIndianaWarren,Indiana,Warren,2021-01-05 23:22:59.245920,2020-08-29 00:00:00.000000,0.31708020,0.52174367,0.88122636,26,43,72,13,24,43,0.15983541,0.29589175,0.52253311,0.10268219,0.14862446,0.24757253
18171,0,USIndianaWarren,Indiana,Warren,2021-01-05 23:22:59.245920,2020-08-30 00:00:00.000000,0.30374512,0.50149566,0.84988773,25,41,70,12,24,41,0.15442689,0.29090871,0.50571441,0.10507758,0.14951751,0.25356136
18171,0,USIndianaWarren,Indiana,Warren,2021-01-05 23:22:59.245920,2020-08-31 00:00:00.000000,0.30846865,0.50110424,0.87853073,25,41,72,12,23,40,0.14901255,0.28325294,0.49101252,0.10975013,0.15335565,0.25689978
18171,0,USIndianaWarren,Indiana,Warren,2021-01-05 23:22:59.245920,2020-09-01 00:00:00.000000,0.30953974,0.50557847,0.90291086,25,41,74,12,23,39,0.14633969,0.28044975,0.47959031,0.11075098,0.15891081,0.25905909
18171,0,USIndianaWarren,Indiana,Warren,2021-01-05 23:22:59.245920,2020-09-02 00:00:00.000000,0.30332015,0.51394198,0.92803852,25,42,76,12,23,39,0.14558956,0.27935578,0.47383559,0.11093938,0.15937509,0.26662451
18171,0,USIndianaWarren,Indiana,Warren,2021-01-05 23:22:59.245920,2020-09-03 00:00:00.000000,0.29771086,0.52414045,0.95343952,24,43,78,12,22,39,0.14617617,0.27740961,0.47446182,0.11057946,0.16299497,0.29044110
18171,0,USIndianaWarren,Indiana,Warren,2021-01-05 23:22:59.245920,2020-09-04 00:00:00.000000,0.29273367,0.52279033,0.97857464,24,43,80,12,22,39,0.14768848,0.27638799,0.47932696,0.11051780,0.16618942,0.30330326
18171,0,USIndianaWarren,Indiana,Warren,2021-01-05 23:22:59.245920,2020-09-05 00:00:00.000000,0.28871411,0.53043363,1.00292477,23,43,82,12,22,40,0.14997516,0.27769865,0.48634106,0.11108343,0.17295944,0.30876297
18171,0,USIndianaWarren,Indiana,Warren,2021-01-05 23:22:59.245920,2020-09-06 00:00:00.000000,0.28614203,0.54399783,1.02614950,23,44,84,12,22,41,0.15274985,0.27797719,0.49751988,0.11172238,0.18075741,0.31178771
18171,0,USIndianaWarren,Indiana,Warren,2021-01-05 23:22:59.245920,2020-09-07 00:00:00.000000,0.28975278,0.57150185,1.04156643,23,47,86,12,23,42,0.15587092,0.28260539,0.50934539,0.11983648,0.18843647,0.31059131
18171,0,USIndianaWarren,Indiana,Warren,2021-01-05 23:22:59.245920,2020-09-08 00:00:00.000000,0.29610084,0.58365800,1.04921567,24,48,86,13,23,43,0.16216096,0.28796612,0.52087939,0.12541560,0.19515223,0.32520396
18171,0,USIndianaWarren,Indiana,Warren,2021-01-05 23:22:59.245920,2020-09-09 00:00:00.000000,0.31830444,0.60413869,1.05633856,26,49,87,13,24,43,0.16513187,0.29382455,0.53207579,0.12304806,0.20298075,0.33212029
18171,0,USIndianaWarren,Indiana,Warren,2021-01-05 23:22:59.245920,2020-09-10 00:00:00.000000,0.34154019,0.62395976,1.06278407,28,51,87,13,25,45,0.16638521,0.30410140,0.54452569,0.11771291,0.20939535,0.33237698
18171,0,USIndianaWarren,Indiana,Warren,2021-01-05 23:22:59.245920,2020-09-11 00:00:00.000000,0.36119804,0.64301272,1.07843315,29,53,89,13,25,46,0.16816301,0.30910497,0.55920495,0.12590244,0.21684448,0.33261719
18171,0,USIndianaWarren,Indiana,Warren,2021-01-05 23:22:59.245920,2020-09-12 00:00:00.000000,0.36187803,0.66285896,1.11906873,29,54,92,14,26,47,0.17035594,0.31487193,0.57468355,0.13346123,0.22291284,0.34197422
18171,0,USIndianaWarren,Indiana,Warren,2021-01-05 23:22:59.245920,2020-09-13 00:00:00.000000,0.36298713,0.67873777,1.13753926,30,56,94,14,26,48,0.17311478,0.31908778,0.59092033,0.13373599,0.23161794,0.35718401
18171,0,USIndianaWarren,Indiana,Warren,2021-01-05 23:22:59.245920,2020-09-14 00:00:00.000000,0.41113673,0.69754515,1.18280032,33,57,97,14,26,50,0.17339589,0.32591997,0.60788924,0.13474048,0.24119389,0.36155407
18171,0,USIndianaWarren,Indiana,Warren,2021-01-05 23:22:59.245920,2020-09-15 00:00:00.000000,0.44914636,0.72955277,1.22946240,37,60,101,14,28,51,0.18132421,0.34255315,0.62525543,0.14929289,0.24817505,0.36946198
18171,0,USIndianaWarren,Indiana,Warren,2021-01-05 23:22:59.245920,2020-09-16 00:00:00.000000,0.48408832,0.76246885,1.27868816,40,63,105,16,29,53,0.19458075,0.35531737,0.64308477,0.15595809,0.25218929,0.38044630
18171,0,USIndianaWarren,Indiana,Warren,2021-01-05 23:22:59.245920,2020-09-17 00:00:00.000000,0.49879423,0.79251675,1.33193271,41,65,110,17,30,54,0.21153870,0.36574181,0.66108382,0.16825269,0.25466509,0.39419921
18171,0,USIndianaWarren,Indiana,Warren,2021-01-05 23:22:59.245920,2020-09-18 00:00:00.000000,0.51375795,0.82945433,1.39121720,42,68,114,19,31,55,0.23120830,0.37770278,0.67256011,0.17406039,0.26178688,0.41184348
18171,0,USIndianaWarren,Indiana,Warren,2021-01-05 23:22:59.245920,2020-09-19 00:00:00.000000,0.52997789,0.87100558,1.45831748,43,71,120,20,32,58,0.25319861,0.39505496,0.70212475,0.18957454,0.28292821,0.41256806
18171,0,USIndianaWarren,Indiana,Warren,2021-01-05 23:22:59.245920,2020-09-20 00:00:00.000000,0.54929970,0.90676593,1.53456156,45,74,126,22,34,59,0.27236677,0.41419665,0.72581486,0.19209160,0.29451277,0.43211845
18171,0,USIndianaWarren,Indiana,Warren,2021-01-05 23:22:59.245920,2020-09-21 00:00:00.000000,0.58258192,0.95143878,1.65062824,48,78,136,23,35,63,0.28149242,0.43140738,0.76724206,0.19723167,0.30217319,0.45836562
18171,0,USIndianaWarren,Indiana,Warren,2021-01-05 23:22:59.245920,2020-09-22 00:00:00.000000,0.61653064,1.02018671,1.76338729,50,84,145,24,37,66,0.29417210,0.45447776,0.80350202,0.20514438,0.31217599,0.48815624
18171,0,USIndianaWarren,Indiana,Warren,2021-01-05 23:22:59.245920,2020-09-23 00:00:00.000000,0.65276374,1.07478229,1.84820181,53,88,152,25,39,71,0.30919045,0.47649274,0.86633696,0.20635887,0.31812981,0.51009103
18171,0,USIndianaWarren,Indiana,Warren,2021-01-05 23:22:59.245920,2020-09-24 00:00:00.000000,0.69157657,1.13040510,1.95257462,57,93,161,26,41,77,0.32608744,0.50525852,0.94096453,0.21175680,0.32644175,0.50810695
18171,0,USIndianaWarren,Indiana,Warren,2021-01-05 23:22:59.245920,2020-09-25 00:00:00.000000,0.76356073,1.19421565,2.08511169,63,98,172,28,44,83,0.34420249,0.53347543,1.01275581,0.23033404,0.33630928,0.50473738
18171,0,USIndianaWarren,Indiana,Warren,2021-01-05 23:22:59.245920,2020-09-26 00:00:00.000000,0.85326518,1.26544605,2.22342683,70,104,183,30,46,89,0.36321368,0.56532404,1.07993147,0.24320987,0.35401971,0.53071085
18171,0,USIndianaWarren,Indiana,Warren,2021-01-05 23:22:59.245920,2020-09-27 00:00:00.000000,0.89612884,1.34869051,2.36772651,74,111,195,31,49,94,0.38308962,0.59347676,1.14913731,0.25616203,0.36998995,0.54883320
18171,0,USIndianaWarren,Indiana,Warren,2021-01-05 23:22:59.245920,2020-09-28 00:00:00.000000,0.93557602,1.44701884,2.49258508,77,119,206,33,51,100,0.40501947,0.62209395,1.22055849,0.27513407,0.37476925,0.56236871
18171,0,USIndianaWarren,Indiana,Warren,2021-01-05 23:22:59.245920,2020-09-29 00:00:00.000000,1.03437641,1.55507922,2.59892128,85,128,214,36,54,106,0.44263762,0.65473498,1.28808929,0.27721111,0.38921820,0.56524815
18171,0,USIndianaWarren,Indiana,Warren,2021-01-05 23:22:59.245920,2020-09-30 00:00:00.000000,1.10262400,1.67426748,2.71148602,91,138,224,40,57,111,0.49077844,0.69907798,1.35360267,0.28176822,0.39738457,0.57584373
18171,0,USIndianaWarren,Indiana,Warren,2021-01-05 23:22:59.245920,2020-10-01 00:00:00.000000,1.16536007,1.81816863,2.83586223,96,150,234,45,61,117,0.54649188,0.74670173,1.41886583,0.29008554,0.40681689,0.60851914
18171,0,USIndianaWarren,Indiana,Warren,2021-01-05 23:22:59.245920,2020-10-02 00:00:00.000000,1.23486022,1.95984197,2.98009396,102,161,246,49,67,122,0.59920502,0.81113038,1.48608915,0.29554543,0.42025728,0.61700370
18171,0,USIndianaWarren,Indiana,Warren,2021-01-05 23:22:59.245920,2020-10-03 00:00:00.000000,1.32716194,2.07554641,3.14911840,109,171,260,53,72,128,0.64552690,0.87975280,1.55823689,0.30535040,0.42770299,0.61955722
18171,0,USIndianaWarren,Indiana,Warren,2021-01-05 23:22:59.245920,2020-10-04 00:00:00.000000,1.42739907,2.25793260,3.34030296,117,186,276,57,78,135,0.69603172,0.94622785,1.63773152,0.29968294,0.43777911,0.62000853
18171,0,USIndianaWarren,Indiana,Warren,2021-01-05 23:22:59.245920,2020-10-05 00:00:00.000000,1.59506883,2.40865081,3.53582710,131,199,292,61,83,142,0.74563724,1.00866905,1.72645622,0.30882784,0.44358332,0.63105697
18171,0,USIndianaWarren,Indiana,Warren,2021-01-05 23:22:59.245920,2020-10-06 00:00:00.000000,1.67714836,2.54587687,3.74448454,138,210,309,65,89,150,0.79784590,1.08196919,1.82245043,0.29687010,0.44852730,0.63815528
18171,0,USIndianaWarren,Indiana,Warren,2021-01-05 23:22:59.245920,2020-10-07 00:00:00.000000,1.74814765,2.64773604,3.96434443,144,218,327,69,95,159,0.84076753,1.15052621,1.92571992,0.29472100,0.44779130,0.61972238
18171,0,USIndianaWarren,Indiana,Warren,2021-01-05 23:22:59.245920,2020-10-08 00:00:00.000000,1.82447463,2.84609173,4.19495055,150,235,346,73,100,168,0.88633564,1.21430254,2.03599169,0.29483647,0.45272594,0.59957306
18171,0,USIndianaWarren,Indiana,Warren,2021-01-05 23:22:59.245920,2020-10-09 00:00:00.000000,1.92784534,3.05286729,4.43619294,159,252,366,77,106,177,0.93462420,1.28819633,2.15300079,0.29972387,0.45066977,0.58033704
18171,0,USIndianaWarren,Indiana,Warren,2021-01-05 23:22:59.245920,2020-10-10 00:00:00.000000,2.08878545,3.19569743,4.62708145,172,264,382,79,113,188,0.96628138,1.37244118,2.27654830,0.31205365,0.44336640,0.58737800
18171,0,USIndianaWarren,Indiana,Warren,2021-01-05 23:22:59.245920,2020-10-11 00:00:00.000000,2.25769228,3.36690285,4.75003599,186,278,392,82,120,194,1.00260771,1.45418430,2.34971238,0.32470593,0.44260641,0.60015607
18171,0,USIndianaWarren,Indiana,Warren,2021-01-05 23:22:59.245920,2020-10-12 00:00:00.000000,2.41813714,3.54115412,4.87076809,199,292,402,87,128,199,1.05936825,1.55628176,2.41970771,0.32562225,0.44019379,0.60291925
18171,0,USIndianaWarren,Indiana,Warren,2021-01-05 23:22:59.245920,2020-10-13 00:00:00.000000,2.56976527,3.73354038,5.19406771,212,308,429,94,137,206,1.14662343,1.66610134,2.49655073,0.31869781,0.43867893,0.59856152
18171,0,USIndianaWarren,Indiana,Warren,2021-01-05 23:22:59.245920,2020-10-14 00:00:00.000000,2.73460289,3.93451331,5.53432331,226,325,457,101,144,216,1.22231149,1.75127306,2.61775126,0.32578018,0.43886363,0.58252599
18171,0,USIndianaWarren,Indiana,Warren,2021-01-05 23:22:59.245920,2020-10-15 00:00:00.000000,2.88091752,4.13478555,5.83258654,238,341,482,106,153,226,1.28782093,1.85893910,2.74171368,0.32446532,0.43665356,0.58058207
18171,0,USIndianaWarren,Indiana,Warren,2021-01-05 23:22:59.245920,2020-10-16 00:00:00.000000,3.03467884,4.33178039,6.11461065,250,358,505,112,162,236,1.35518768,1.96243401,2.86703731,0.30994289,0.43108142,0.58247981
18171,0,USIndianaWarren,Indiana,Warren,2021-01-05 23:22:59.245920,2020-10-17 00:00:00.000000,3.19783630,4.54134649,6.40200583,264,375,529,117,168,247,1.42535858,2.03845425,2.99157074,0.29933372,0.43049476,0.58351842
18171,0,USIndianaWarren,Indiana,Warren,2021-01-05 23:22:59.245920,2020-10-18 00:00:00.000000,3.37035668,4.78028487,6.64549570,278,395,549,124,176,257,1.50575879,2.14106741,3.11310910,0.29724209,0.42793946,0.56248437
18171,0,USIndianaWarren,Indiana,Warren,2021-01-05 23:22:59.245920,2020-10-19 00:00:00.000000,3.56775054,5.02108058,6.79295892,294,414,561,129,185,267,1.57157791,2.24226511,3.23987031,0.30699101,0.41844994,0.56348710
18171,0,USIndianaWarren,Indiana,Warren,2021-01-05 23:22:59.245920,2020-10-20 00:00:00.000000,3.77221979,5.24788491,6.94296470,311,433,573,134,193,280,1.62659447,2.34163637,3.38787870,0.30951339,0.41474870,0.56391928
18171,0,USIndianaWarren,Indiana,Warren,2021-01-05 23:22:59.245920,2020-10-21 00:00:00.000000,3.97802674,5.50607990,7.11924795,328,455,588,138,201,293,1.67896021,2.43967629,3.54514849,0.31264998,0.41593762,0.56361775
18171,0,USIndianaWarren,Indiana,Warren,2021-01-05 23:22:59.245920,2020-10-22 00:00:00.000000,4.18351928,5.70366195,7.28280846,345,471,601,144,211,306,1.74638896,2.55618918,3.70906571,0.31206646,0.41495120,0.56538134
18171,0,USIndianaWarren,Indiana,Warren,2021-01-05 23:22:59.245920,2020-10-23 00:00:00.000000,4.33704568,5.88879368,7.44395748,358,486,615,150,220,320,1.82475063,2.66975474,3.87795187,0.31174472,0.41265290,0.56669860
18171,0,USIndianaWarren,Indiana,Warren,2021-01-05 23:22:59.245920,2020-10-24 00:00:00.000000,4.49276043,6.07592109,7.63080721,371,502,630,157,232,334,1.91147241,2.81719727,4.05076577,0.30011846,0.40684518,0.55873825
18171,0,USIndianaWarren,Indiana,Warren,2021-01-05 23:22:59.245920,2020-10-25 00:00:00.000000,4.65007357,6.25635008,7.86444088,384,517,649,165,243,343,2.00503602,2.94299141,4.15576014,0.29772482,0.40428132,0.55426547
18171,0,USIndianaWarren,Indiana,Warren,2021-01-05 23:22:59.245920,2020-10-26 00:00:00.000000,4.80690440,6.44737217,8.20821020,397,532,678,172,251,352,2.08479444,3.04088939,4.26019980,0.29246195,0.40313405,0.53244687
18171,0,USIndianaWarren,Indiana,Warren,2021-01-05 23:22:59.245920,2020-10-27 00:00:00.000000,4.96984386,6.63037490,8.56687552,410,548,708,178,260,361,2.15459395,3.15637408,4.37675463,0.28721760,0.39431811,0.54062357
18171,0,USIndianaWarren,Indiana,Warren,2021-01-05 23:22:59.245920,2020-10-28 00:00:00.000000,5.15009159,6.80731271,8.93480120,425,562,738,184,270,373,2.22657361,3.27515967,4.51837661,0.28529115,0.40045446,0.52913514
18171,0,USIndianaWarren,Indiana,Warren,2021-01-05 23:22:59.245920,2020-10-29 00:00:00.000000,5.33424001,7.01874130,9.30981308,440,580,769,190,279,384,2.29952457,3.38559346,4.64730692,0.28608414,0.39751008,0.52046101
18171,0,USIndianaWarren,Indiana,Warren,2021-01-05 23:22:59.245920,2020-10-30 00:00:00.000000,5.53253637,7.19383021,9.67395951,457,594,799,196,287,394,2.37254846,3.47863909,4.77202880,0.28584181,0.39593265,0.52631787
18171,0,USIndianaWarren,Indiana,Warren,2021-01-05 23:22:59.245920,2020-10-31 00:00:00.000000,5.70423268,7.35220043,9.84430935,471,607,813,202,297,408,2.44529671,3.60331509,4.94607770,0.28544391,0.39295818,0.53908420
18171,0,USIndianaWarren,Indiana,Warren,2021-01-05 23:22:59.245920,2020-11-01 00:00:00.000000,5.83353231,7.56922865,10.02163562,482,625,828,208,308,421,2.51715949,3.72702172,5.10425980,0.28516694,0.39415244,0.53248591
18171,0,USIndianaWarren,Indiana,Warren,2021-01-05 23:22:59.245920,2020-11-02 00:00:00.000000,5.93702226,7.75217452,10.30264942,490,640,851,213,315,433,2.58726610,3.81338969,5.24309787,0.28495941,0.39152434,0.54136459
18171,0,USIndianaWarren,Indiana,Warren,2021-01-05 23:22:59.245920,2020-11-03 00:00:00.000000,6.03246715,8.01108275,10.58481328,498,662,874,219,322,444,2.65498694,3.90424649,5.38117385,0.28489539,0.39269201,0.55566490
18171,0,USIndianaWarren,Indiana,Warren,2021-01-05 23:22:59.245920,2020-11-04 00:00:00.000000,6.17906006,8.18327868,10.88256731,510,676,899,224,329,456,2.72041376,3.98664954,5.51724512,0.28517905,0.39397254,0.55386035
18171,0,USIndianaWarren,Indiana,Warren,2021-01-05 23:22:59.245920,2020-11-05 00:00:00.000000,6.22818217,8.40419090,11.15630142,514,694,922,230,339,467,2.78373133,4.10801318,5.65112704,0.28668056,0.39318888,0.54034389
18171,0,USIndianaWarren,Indiana,Warren,2021-01-05 23:22:59.245920,2020-11-06 00:00:00.000000,6.38351255,8.59798213,11.50475962,527,710,950,235,350,480,2.84518000,4.23520284,5.80990807,0.29267374,0.39650823,0.52084860
18171,0,USIndianaWarren,Indiana,Warren,2021-01-05 23:22:59.245920,2020-11-07 00:00:00.000000,6.59344476,8.79065501,11.97314742,544,726,989,240,356,493,2.90507357,4.30797000,5.97309839,0.30743165,0.39674077,0.51587592
18171,0,USIndianaWarren,Indiana,Warren,2021-01-05 23:22:59.245920,2020-11-08 00:00:00.000000,6.83540725,8.97225727,12.44097151,564,741,1028,244,367,506,2.96391081,4.45067287,6.13284807,0.32230366,0.39588474,0.52478230
18171,0,USIndianaWarren,Indiana,Warren,2021-01-05 23:22:59.245920,2020-11-09 00:00:00.000000,7.11611608,9.17919758,12.83909920,588,758,1061,249,376,519,3.02254735,4.55400114,6.28781303,0.31813805,0.40279354,0.51415736
18171,0,USIndianaWarren,Indiana,Warren,2021-01-05 23:22:59.245920,2020-11-10 00:00:00.000000,7.39595090,9.38674642,13.09231741,611,775,1082,254,387,532,3.08018176,4.69018884,6.44677176,0.31383001,0.41034779,0.51325245
18171,0,USIndianaWarren,Indiana,Warren,2021-01-05 23:22:59.245920,2020-11-11 00:00:00.000000,7.62532712,9.56972143,13.32360986,630,790,1101,259,399,546,3.13793265,4.83169659,6.60934851,0.31184691,0.41405815,0.51178484
18171,0,USIndianaWarren,Indiana,Warren,2021-01-05 23:22:59.245920,2020-11-12 00:00:00.000000,7.76107452,9.73402311,13.54381971,641,804,1119,264,409,560,3.19681628,4.95013374,6.77611958,0.31047244,0.41653181,0.51393864
18171,0,USIndianaWarren,Indiana,Warren,2021-01-05 23:22:59.245920,2020-11-13 00:00:00.000000,7.79241170,10.01438516,13.76265311,644,827,1137,269,417,574,3.25837716,5.04897769,6.94847357,0.31038960,0.41889307,0.51540446
18171,0,USIndianaWarren,Indiana,Warren,2021-01-05 23:22:59.245920,2020-11-14 00:00:00.000000,7.89845583,10.27693228,13.98351176,652,849,1155,274,423,589,3.32504712,5.11821933,7.12852762,0.31195425,0.42100813,0.51385656
18171,0,USIndianaWarren,Indiana,Warren,2021-01-05 23:22:59.245920,2020-11-15 00:00:00.000000,8.08843544,10.59377205,14.39862586,668,875,1190,280,430,604,3.39975776,5.20423273,7.31879525,0.31305468,0.42253935,0.53900460
18171,0,USIndianaWarren,Indiana,Warren,2021-01-05 23:22:59.245920,2020-11-16 00:00:00.000000,8.27178938,10.85918410,14.96069896,683,897,1236,288,437,620,3.48463544,5.29906060,7.51005810,0.31316116,0.42817085,0.55799773
18171,0,USIndianaWarren,Indiana,Warren,2021-01-05 23:22:59.245920,2020-11-17 00:00:00.000000,8.44500562,11.09734506,15.28308842,697,917,1263,295,449,635,3.57764221,5.43636190,7.68483501,0.31802377,0.42829182,0.56650225
18171,0,USIndianaWarren,Indiana,Warren,2021-01-05 23:22:59.245920,2020-11-18 00:00:00.000000,8.61417295,11.36347127,15.76051792,711,939,1302,303,462,649,3.67739536,5.59978606,7.85878155,0.32812148,0.43186258,0.56494562
18171,0,USIndianaWarren,Indiana,Warren,2021-01-05 23:22:59.245920,2020-11-19 00:00:00.000000,8.77832561,11.52746164,16.24763182,725,952,1342,312,474,663,3.78077037,5.74657595,8.03000227,0.33390376,0.43611229,0.55578261
18171,0,USIndianaWarren,Indiana,Warren,2021-01-05 23:22:59.245920,2020-11-20 00:00:00.000000,8.93999693,11.72722675,16.73739784,738,969,1383,321,485,677,3.88386497,5.87993040,8.19741920,0.34043760,0.44081745,0.56344969
18171,0,USIndianaWarren,Indiana,Warren,2021-01-05 23:22:59.245920,2020-11-21 00:00:00.000000,9.10156882,11.97352622,17.22339435,752,989,1423,329,493,691,3.98310753,5.97162095,8.36142992,0.34982462,0.44436436,0.57628929
18171,0,USIndianaWarren,Indiana,Warren,2021-01-05 23:22:59.245920,2020-11-22 00:00:00.000000,9.26396775,12.20659493,17.49682797,765,1008,1446,334,499,704,4.05211271,6.04293847,8.52554304,0.35073624,0.45046024,0.58642492
18171,0,USIndianaWarren,Indiana,Warren,2021-01-05 23:22:59.245920,2020-11-23 00:00:00.000000,9.41741509,12.42122632,17.80743762,778,1026,1471,340,505,718,4.12505371,6.11963914,8.69763847,0.35173633,0.45641569,0.59182737
18171,0,USIndianaWarren,Indiana,Warren,2021-01-05 23:22:59.245920,2020-11-24 00:00:00.000000,9.58861835,12.57380290,18.09238116,792,1039,1495,347,514,735,4.20456733,6.22821638,8.89566300,0.35406077,0.46278331,0.59502273
18171,0,USIndianaWarren,Indiana,Warren,2021-01-05 23:22:59.245920,2020-11-25 00:00:00.000000,9.80933956,12.75294332,18.35187756,810,1054,1516,350,526,753,4.24430667,6.37210280,9.11671471,0.35392136,0.47099793,0.61284448
18171,0,USIndianaWarren,Indiana,Warren,2021-01-05 23:22:59.245920,2020-11-26 00:00:00.000000,10.10658427,13.07088045,18.58881791,835,1080,1536,352,539,773,4.26198213,6.52385743,9.35351242,0.35323739,0.48002810,0.62482831
18171,0,USIndianaWarren,Indiana,Warren,2021-01-05 23:22:59.245920,2020-11-27 00:00:00.000000,10.22435174,13.38825435,18.80456513,845,1106,1554,354,542,793,4.28823603,6.56697187,9.59938457,0.35827045,0.50123478,0.65127340
18171,0,USIndianaWarren,Indiana,Warren,2021-01-05 23:22:59.245920,2020-11-28 00:00:00.000000,10.19253827,13.70261873,19.00619641,842,1132,1570,358,555,814,4.33511229,6.71539145,9.84944292,0.36936185,0.51529856,0.66923763
18171,0,USIndianaWarren,Indiana,Warren,2021-01-05 23:22:59.245920,2020-11-29 00:00:00.000000,10.22448278,14.06732019,19.34005613,845,1162,1598,369,567,834,4.47148030,6.86516837,10.09978029,0.37075799,0.53807926,0.70384087
18171,0,USIndianaWarren,Indiana,Warren,2021-01-05 23:22:59.245920,2020-11-30 00:00:00.000000,10.49919234,14.31777265,19.87435001,867,1183,1642,381,578,855,4.61786889,7.00063221,10.34640682,0.38654232,0.55239468,0.73550929
18171,0,USIndianaWarren,Indiana,Warren,2021-01-05 23:22:59.245920,2020-12-01 00:00:00.000000,10.78480967,14.56148415,20.10507487,891,1203,1661,394,590,874,4.77277637,7.14041128,10.57590365,0.41620486,0.57202302,0.76505663
18171,0,USIndianaWarren,Indiana,Warren,2021-01-05 23:22:59.245920,2020-12-02 00:00:00.000000,11.09347624,14.91912200,20.64294413,916,1233,1706,407,602,891,4.93091473,7.29290803,10.78784465,0.42229712,0.58662744,0.82318361
18171,0,USIndianaWarren,Indiana,Warren,2021-01-05 23:22:59.245920,2020-12-03 00:00:00.000000,11.52005024,15.30766908,21.15173592,952,1265,1748,420,616,907,5.08871375,7.45582511,10.98343189,0.43204539,0.60267666,0.83182407
18171,0,USIndianaWarren,Indiana,Warren,2021-01-05 23:22:59.245920,2020-12-04 00:00:00.000000,11.94921389,15.72144861,21.62986800,987,1299,1787,433,634,923,5.24366788,7.67355627,11.17128795,0.44476965,0.61241477,0.86737465
18171,0,USIndianaWarren,Indiana,Warren,2021-01-05 23:22:59.245920,2020-12-05 00:00:00.000000,12.24246135,16.12794722,22.08186743,1011,1332,1825,445,652,934,5.39384460,7.89164910,11.30934335,0.44657546,0.62829037,0.89142666
18171,0,USIndianaWarren,Indiana,Warren,2021-01-05 23:22:59.245920,2020-12-06 00:00:00.000000,12.47995723,16.35936601,22.42997443,1031,1352,1853,457,666,947,5.53755888,8.05994991,11.45929855,0.44725945,0.62660337,0.89313471
18171,0,USIndianaWarren,Indiana,Warren,2021-01-05 23:22:59.245920,2020-12-07 00:00:00.000000,12.76531684,16.65937984,22.59509153,1055,1376,1867,468,680,963,5.67324856,8.23629134,11.65897027,0.44991503,0.62935401,0.94051309
18171,0,USIndianaWarren,Indiana,Warren,2021-01-05 23:22:59.245920,2020-12-08 00:00:00.000000,13.03544191,17.03720082,22.97969026,1077,1408,1899,478,696,989,5.79499654,8.43284137,11.97322149,0.45385931,0.63404760,0.94223328
18171,0,USIndianaWarren,Indiana,Warren,2021-01-05 23:22:59.245920,2020-12-09 00:00:00.000000,13.27413176,17.45412038,23.23995466,1097,1442,1920,487,707,1013,5.90318251,8.55829162,12.26050971,0.45855286,0.64775380,0.94400424
18171,0,USIndianaWarren,Indiana,Warren,2021-01-05 23:22:59.245920,2020-12-10 00:00:00.000000,13.47851629,17.72298368,23.39360021,1113,1464,1933,495,720,1034,5.99749381,8.72275224,12.51661178,0.47086543,0.66110349,0.94750782
18171,0,USIndianaWarren,Indiana,Warren,2021-01-05 23:22:59.245920,2020-12-11 00:00:00.000000,13.64803096,18.00100450,23.65262060,1128,1487,1954,502,740,1053,6.07855417,8.96130822,12.74049331,0.47672385,0.67299512,0.95498288
18171,0,USIndianaWarren,Indiana,Warren,2021-01-05 23:22:59.245920,2020-12-12 00:00:00.000000,13.78356054,18.28434541,23.82294412,1139,1511,1968,512,758,1069,6.20063277,9.18087427,12.94157892,0.48204314,0.67611972,0.97261847
18171,0,USIndianaWarren,Indiana,Warren,2021-01-05 23:22:59.245920,2020-12-13 00:00:00.000000,13.88577726,18.39312061,24.07544268,1147,1520,1989,521,778,1084,6.31118127,9.41743372,13.12141566,0.46017935,0.67798065,1.03684642
18171,0,USIndianaWarren,Indiana,Warren,2021-01-05 23:22:59.245920,2020-12-14 00:00:00.000000,13.95692515,18.47299255,24.24003270,1153,1526,2003,531,793,1096,6.42935022,9.60088605,13.27053801,0.44663652,0.69313648,1.07778482
18171,0,USIndianaWarren,Indiana,Warren,2021-01-05 23:22:59.245920,2020-12-15 00:00:00.000000,13.99699180,18.48871738,24.32687684,1156,1528,2010,534,801,1106,6.46525010,9.69377111,13.38274735,0.44360847,0.70683723,1.10258855
18171,0,USIndianaWarren,Indiana,Warren,2021-01-05 23:22:59.245920,2020-12-16 00:00:00.000000,14.09674801,18.50851850,24.33591259,1165,1529,2011,535,806,1119,6.47459789,9.75239376,13.54746955,0.44300675,0.71245946,1.17319010
18171,0,USIndianaWarren,Indiana,Warren,2021-01-05 23:22:59.245920,2020-12-17 00:00:00.000000,14.00521546,18.51745292,24.28297522,1157,1530,2006,534,809,1133,6.46541182,9.79349375,13.70914016,0.44278581,0.71620920,1.13310165
18171,0,USIndianaWarren,Indiana,Warren,2021-01-05 23:22:59.245920,2020-12-18 00:00:00.000000,13.92890187,18.49659526,24.18067110,1151,1528,1998,532,811,1144,6.44012626,9.82285070,13.85114454,0.44244185,0.71609383,1.15529782
18171,0,USIndianaWarren,Indiana,Warren,2021-01-05 23:22:59.245920,2020-12-19 00:00:00.000000,13.84321115,18.43571813,24.13920335,1144,1523,1995,529,809,1154,6.40075416,9.79445874,13.97394902,0.44161987,0.70563125,1.23809092
18171,0,USIndianaWarren,Indiana,Warren,2021-01-05 23:22:59.245920,2020-12-20 00:00:00.000000,13.73582863,18.25067543,24.01337268,1135,1508,1984,524,810,1149,6.34917576,9.80746389,13.90953699,0.43983381,0.70548319,1.28046269
18171,0,USIndianaWarren,Indiana,Warren,2021-01-05 23:22:59.245920,2020-12-21 00:00:00.000000,13.92689905,18.10347872,23.90800941,1151,1496,1975,519,810,1136,6.28798223,9.80670940,13.75169122,0.43702426,0.72806384,1.29817252
18171,0,USIndianaWarren,Indiana,Warren,2021-01-05 23:22:59.245920,2020-12-22 00:00:00.000000,13.74023995,17.99276862,23.42718659,1135,1487,1936,514,802,1119,6.22137919,9.70862468,13.54707390,0.43417002,0.74422258,1.29104031
18171,0,USIndianaWarren,Indiana,Warren,2021-01-05 23:22:59.245920,2020-12-23 00:00:00.000000,13.49938669,17.88216187,23.03887795,1115,1477,1904,508,797,1100,6.15754520,9.65400889,13.31226736,0.43225439,0.75355217,1.30437199
18171,0,USIndianaWarren,Indiana,Warren,2021-01-05 23:22:59.245920,2020-12-24 00:00:00.000000,13.28217763,17.57338368,22.59399504,1097,1452,1867,504,791,1093,6.09897990,9.57775344,13.23071239,0.43158430,0.75452811,1.35916924
18171,0,USIndianaWarren,Indiana,Warren,2021-01-05 23:22:59.245920,2020-12-25 00:00:00.000000,13.11677143,17.20429358,22.10784702,1084,1421,1827,499,782,1082,6.04393372,9.46738058,13.09813499,0.42001999,0.76424410,1.35952203
18171,0,USIndianaWarren,Indiana,Warren,2021-01-05 23:22:59.245920,2020-12-26 00:00:00.000000,12.96425587,16.97570259,21.63960177,1071,1403,1788,495,774,1067,5.98980695,9.37296042,12.91630141,0.42810673,0.79252421,1.35873865
18171,0,USIndianaWarren,Indiana,Warren,2021-01-05 23:22:59.245920,2020-12-27 00:00:00.000000,12.79615979,16.64803502,21.22555021,1057,1375,1754,491,762,1048,5.94764242,9.22557880,12.68994102,0.43412396,0.79942064,1.35479622
18171,0,USIndianaWarren,Indiana,Warren,2021-01-05 23:22:59.245920,2020-12-28 00:00:00.000000,12.59004528,16.23185987,21.02710927,1040,1341,1737,489,751,1025,5.92224408,9.09297644,12.41276033,0.43843852,0.80955611,1.34003363
18171,0,USIndianaWarren,Indiana,Warren,2021-01-05 23:22:59.245920,2020-12-29 00:00:00.000000,12.35980130,15.71739050,20.77122250,1021,1299,1716,485,737,1001,5.87208580,8.91987850,12.11252503,0.44533036,0.82161293,1.33067679
18171,0,USIndianaWarren,Indiana,Warren,2021-01-05 23:22:59.245920,2020-12-30 00:00:00.000000,12.10535601,15.20650548,20.24704147,1000,1256,1673,479,721,975,5.79585676,8.72612625,11.79807574,0.45274916,0.82326144,1.36253714
18171,0,USIndianaWarren,Indiana,Warren,2021-01-05 23:22:59.245920,2020-12-31 00:00:00.000000,11.82769475,14.57874896,19.60255752,977,1204,1620,470,702,947,5.69201147,8.50307897,11.46711650,0.46061471,0.82323328,1.43082719
18171,0,USIndianaWarren,Indiana,Warren,2021-01-05 23:22:59.245920,2021-01-01 00:00:00.000000,11.30710673,14.05908337,19.21374204,934,1161,1588,460,686,919,5.57708982,8.30077947,11.11969440,0.46884800,0.82037122,1.49049090
18171,0,USIndianaWarren,Indiana,Warren,2021-01-05 23:22:59.245920,2021-01-02 00:00:00.000000,10.72585434,13.53036642,19.00234788,886,1118,1570,454,659,893,5.49446989,7.98000591,10.81218479,0.47441457,0.81688138,1.57010872
18171,0,USIndianaWarren,Indiana,Warren,2021-01-05 23:22:59.245920,2021-01-03 00:00:00.000000,10.44514235,13.01645390,18.74561835,863,1075,1549,435,635,884,5.26666426,7.68811028,10.70703403,0.46658788,0.82580987,1.65212572
18171,0,USIndianaWarren,Indiana,Warren,2021-01-05 23:22:59.245920,2021-01-04 00:00:00.000000,9.68879562,12.52735387,18.28443759,800,1035,1511,418,612,872,5.05974667,7.40698378,10.56059149,0.44629406,0.82233503,1.70418526
18171,0,USIndianaWarren,Indiana,Warren,2021-01-05 23:22:59.245920,2021-01-05 00:00:00.000000,8.96803282,12.04455844,17.74450841,741,995,1466,402,586,857,4.87188370,7.09406250,10.37398284,0.42744267,0.82052242,1.72784330
18171,0,USIndianaWarren,Indiana,Warren,2021-01-05 23:22:59.245920,2021-01-06 00:00:00.000000,8.33242731,11.53044155,17.02257405,688,952,1406,386,564,838,4.68089548,6.82880509,10.15007144,0.41635953,0.81898562,1.73695903
18171,0,USIndianaWarren,Indiana,Warren,2021-01-05 23:22:59.245920,2021-01-07 00:00:00.000000,7.79511504,10.96126467,16.25055757,644,905,1343,371,544,817,4.49198417,6.58706765,9.89324879,0.41156661,0.81767087,1.74024732
18171,0,USIndianaWarren,Indiana,Warren,2021-01-05 23:22:59.245920,2021-01-08 00:00:00.000000,7.28628229,10.42311162,15.48561578,602,861,1279,355,517,794,4.30270031,6.26732404,9.60886317,0.40986589,0.81654806,1.74140607
18171,0,USIndianaWarren,Indiana,Warren,2021-01-05 23:22:59.245920,2021-01-09 00:00:00.000000,6.80391646,9.87524896,14.73162887,562,816,1217,339,487,768,4.11093980,5.89634245,9.30257241,0.40937554,0.81559377,1.74181140
18171,0,USIndianaWarren,Indiana,Warren,2021-01-05 23:22:59.245920,2021-01-10 00:00:00.000000,6.34773843,9.33577860,13.99194267,524,771,1156,318,459,742,3.85792698,5.56286303,8.97983714,0.40929726,0.81478692,1.74195297
18171,0,USIndianaWarren,Indiana,Warren,2021-01-05 23:22:59.245920,2021-01-11 00:00:00.000000,5.91723678,8.84054326,13.32936812,489,730,1101,298,434,714,3.61410934,5.26257849,8.64561948,0.40933674,0.81410801,1.74200245
18171,0,USIndianaWarren,Indiana,Warren,2021-01-05 23:22:59.245920,2021-01-12 00:00:00.000000,5.51172857,8.46060397,12.71233435,455,699,1050,278,411,686,3.37519600,4.97999603,8.30425487,0.40939584,0.81353911,1.74201977
18171,0,USIndianaWarren,Indiana,Warren,2021-01-05 23:22:59.245920,2021-01-13 00:00:00.000000,5.13040559,8.00850086,12.15616491,424,661,1004,260,389,657,3.14916080,4.71324532,7.95943577,0.40944654,0.81306411,1.74202585
18171,0,USIndianaWarren,Indiana,Warren,2021-01-05 23:22:59.245920,2021-01-14 00:00:00.000000,4.77237021,7.51578224,11.78248088,394,621,973,242,367,629,2.93578250,4.44884434,7.62028724,0.40948399,0.81266867,1.74202799
18171,0,USIndianaWarren,Indiana,Warren,2021-01-05 23:22:59.245920,2021-01-15 00:00:00.000000,4.43666373,7.08377197,11.41001412,366,585,943,226,346,604,2.73503223,4.19049188,7.30859590,0.40950996,0.81234029,1.74202874
18171,0,USIndianaWarren,Indiana,Warren,2021-01-05 23:22:59.245920,2021-01-16 00:00:00.000000,4.12228901,6.72949943,11.03978423,340,556,912,210,326,578,2.54672511,3.95612284,6.99787337,0.40952743,0.81206816,1.74202901
18171,0,USIndianaWarren,Indiana,Warren,2021-01-05 23:22:59.245920,2021-01-17 00:00:00.000000,3.80881865,6.41617557,10.65805037,314,530,880,195,308,553,2.36984603,3.72943108,6.69147369,0.40953899,0.81184303,1.74202910
