FIPS,HR_UID,nameid,province,region,analysisTime,dates,pointprevalence_025,pointprevalence_50,pointprevalence_975,pointinfections_025,pointinfections_50,pointinfections_975,pointinfectious_025,pointinfectious_50,pointinfectious_975,pointinfectiousprevalence_05,pointinfectiousprevalence_50,pointinfectiousprevalence_95,infectrate_025,infectrate_50,infectrate_975
20139,0,USKansasOsage,Kansas,Osage,2021-01-05 22:05:41.335699,2020-03-09 00:00:00.000000,0.00672540,0.01953049,0.07109221,1,3,11,0,1,6,0.00376916,0.01049388,0.04141616,0.37908842,0.51042044,0.67454421
20139,0,USKansasOsage,Kansas,Osage,2021-01-05 22:05:41.335699,2020-03-10 00:00:00.000000,0.00721439,0.02187843,0.07835036,1,3,12,0,1,6,0.00371520,0.01014173,0.03931252,0.37908817,0.51028545,0.67454294
20139,0,USKansasOsage,Kansas,Osage,2021-01-05 22:05:41.335699,2020-03-11 00:00:00.000000,0.00774508,0.02372483,0.08542522,1,3,13,0,1,6,0.00387326,0.01046358,0.03939631,0.37908723,0.51005876,0.67453889
20139,0,USKansasOsage,Kansas,Osage,2021-01-05 22:05:41.335699,2020-03-12 00:00:00.000000,0.00831285,0.02587537,0.09252117,1,4,14,0,1,6,0.00413820,0.01117847,0.04177047,0.37908378,0.50967936,0.67452539
20139,0,USKansasOsage,Kansas,Osage,2021-01-05 22:05:41.335699,2020-03-13 00:00:00.000000,0.00891904,0.02793444,0.09978650,1,4,15,0,1,7,0.00445135,0.01207462,0.04482757,0.37907103,0.50904797,0.67447966
20139,0,USKansasOsage,Kansas,Osage,2021-01-05 22:05:41.335699,2020-03-14 00:00:00.000000,0.00956595,0.03004486,0.10890364,1,4,17,0,2,7,0.00478285,0.01310741,0.04846211,0.37902396,0.50822944,0.67432351
20139,0,USKansasOsage,Kansas,Osage,2021-01-05 22:05:41.335699,2020-03-15 00:00:00.000000,0.01025639,0.03271097,0.11881187,1,5,18,0,2,8,0.00511795,0.01426027,0.05260906,0.37605811,0.50585963,0.67378946
20139,0,USKansasOsage,Kansas,Osage,2021-01-05 22:05:41.335699,2020-03-16 00:00:00.000000,0.01594206,0.04382329,0.14101123,2,6,22,0,2,9,0.00545013,0.01538252,0.05724049,0.35809205,0.50135424,0.67197336
20139,0,USKansasOsage,Kansas,Osage,2021-01-05 22:05:41.335699,2020-03-17 00:00:00.000000,0.02258861,0.05383158,0.16413960,3,8,26,1,2,10,0.00717073,0.01762905,0.06422471,0.35265357,0.49714773,0.66594828
20139,0,USKansasOsage,Kansas,Osage,2021-01-05 22:05:41.335699,2020-03-18 00:00:00.000000,0.02978945,0.06291682,0.18858932,4,10,30,1,3,11,0.00922159,0.02111614,0.07310561,0.33558583,0.49172442,0.66494432
20139,0,USKansasOsage,Kansas,Osage,2021-01-05 22:05:41.335699,2020-03-19 00:00:00.000000,0.03648302,0.07428140,0.21376519,5,11,34,1,4,13,0.01168070,0.02550839,0.08355390,0.31967507,0.46990702,0.66376464
20139,0,USKansasOsage,Kansas,Osage,2021-01-05 22:05:41.335699,2020-03-20 00:00:00.000000,0.04280930,0.08524255,0.24613258,6,13,39,2,4,15,0.01466103,0.03032140,0.09479697,0.28921930,0.45238840,0.65471044
20139,0,USKansasOsage,Kansas,Osage,2021-01-05 22:05:41.335699,2020-03-21 00:00:00.000000,0.04919062,0.09627668,0.27259269,7,15,43,2,5,16,0.01782584,0.03599034,0.10589806,0.26670901,0.43066621,0.61346107
20139,0,USKansasOsage,Kansas,Osage,2021-01-05 22:05:41.335699,2020-03-22 00:00:00.000000,0.05517687,0.10669755,0.29527879,8,17,47,3,6,18,0.02091337,0.04171481,0.11678882,0.25093100,0.40643412,0.57741815
20139,0,USKansasOsage,Kansas,Osage,2021-01-05 22:05:41.335699,2020-03-23 00:00:00.000000,0.06601068,0.11962440,0.31536648,10,19,50,3,7,20,0.02413113,0.04778571,0.12758317,0.25001888,0.38127204,0.54933059
20139,0,USKansasOsage,Kansas,Osage,2021-01-05 22:05:41.335699,2020-03-24 00:00:00.000000,0.07080879,0.13244257,0.35152346,11,21,56,4,8,22,0.02766262,0.05330028,0.14159325,0.24347411,0.35170124,0.51611135
20139,0,USKansasOsage,Kansas,Osage,2021-01-05 22:05:41.335699,2020-03-25 00:00:00.000000,0.07433617,0.14542291,0.37935812,11,23,60,4,9,24,0.03129001,0.06019171,0.15476414,0.23066694,0.34132372,0.49104541
20139,0,USKansasOsage,Kansas,Osage,2021-01-05 22:05:41.335699,2020-03-26 00:00:00.000000,0.07733093,0.15752683,0.39536910,12,25,63,5,10,26,0.03640775,0.06651350,0.16645881,0.21879380,0.32087488,0.45160875
20139,0,USKansasOsage,Kansas,Osage,2021-01-05 22:05:41.335699,2020-03-27 00:00:00.000000,0.07996265,0.17239093,0.40882849,12,27,65,6,11,28,0.03870453,0.07295594,0.17680169,0.18571341,0.30084783,0.43516435
20139,0,USKansasOsage,Kansas,Osage,2021-01-05 22:05:41.335699,2020-03-28 00:00:00.000000,0.08236947,0.18679778,0.41870814,13,29,66,6,12,29,0.04120491,0.07864201,0.18703020,0.18107059,0.28963598,0.42620454
20139,0,USKansasOsage,Kansas,Osage,2021-01-05 22:05:41.335699,2020-03-29 00:00:00.000000,0.08462138,0.20005314,0.42500514,13,31,67,6,13,31,0.04356654,0.08605091,0.19574830,0.17999040,0.27409597,0.41523575
20139,0,USKansasOsage,Kansas,Osage,2021-01-05 22:05:41.335699,2020-03-30 00:00:00.000000,0.09490547,0.20967703,0.43569267,15,33,69,7,14,32,0.04542167,0.09245057,0.20300421,0.17169480,0.26228406,0.39718675
20139,0,USKansasOsage,Kansas,Osage,2021-01-05 22:05:41.335699,2020-03-31 00:00:00.000000,0.10523344,0.22148499,0.44534531,16,35,71,7,15,33,0.04817723,0.09957454,0.20956702,0.16196752,0.25275833,0.36678973
20139,0,USKansasOsage,Kansas,Osage,2021-01-05 22:05:41.335699,2020-04-01 00:00:00.000000,0.11562611,0.23225449,0.45442775,18,37,72,8,16,34,0.05341749,0.10574566,0.21547110,0.15635719,0.24350261,0.36492412
20139,0,USKansasOsage,Kansas,Osage,2021-01-05 22:05:41.335699,2020-04-02 00:00:00.000000,0.12595379,0.24303620,0.46292495,20,38,73,9,17,35,0.06022335,0.11075537,0.22063407,0.15412493,0.23909892,0.36389326
20139,0,USKansasOsage,Kansas,Osage,2021-01-05 22:05:41.335699,2020-04-03 00:00:00.000000,0.13662502,0.25323252,0.47070182,21,40,75,10,18,36,0.06576864,0.11607088,0.22706058,0.15325776,0.22889356,0.35362226
20139,0,USKansasOsage,Kansas,Osage,2021-01-05 22:05:41.335699,2020-04-04 00:00:00.000000,0.14838072,0.26710707,0.47868844,23,42,76,10,19,36,0.06752690,0.12324010,0.22900218,0.15172422,0.21984510,0.32199562
20139,0,USKansasOsage,Kansas,Osage,2021-01-05 22:05:41.335699,2020-04-05 00:00:00.000000,0.15883193,0.27584771,0.49858926,25,43,79,11,20,37,0.06899919,0.12801363,0.23221797,0.14619549,0.21016910,0.31717364
20139,0,USKansasOsage,Kansas,Osage,2021-01-05 22:05:41.335699,2020-04-06 00:00:00.000000,0.16693882,0.28460676,0.50450582,26,45,80,11,21,37,0.07024288,0.13409152,0.23470203,0.13829325,0.20278120,0.30505736
20139,0,USKansasOsage,Kansas,Osage,2021-01-05 22:05:41.335699,2020-04-07 00:00:00.000000,0.16999008,0.29116405,0.51037679,27,46,81,11,22,37,0.07355293,0.14023000,0.23816916,0.13568838,0.20024655,0.30333451
20139,0,USKansasOsage,Kansas,Osage,2021-01-05 22:05:41.335699,2020-04-08 00:00:00.000000,0.17278663,0.30000949,0.49865147,27,47,79,12,22,38,0.08019446,0.14420744,0.24165406,0.12366051,0.19355802,0.29652560
20139,0,USKansasOsage,Kansas,Osage,2021-01-05 22:05:41.335699,2020-04-09 00:00:00.000000,0.17476414,0.30390826,0.51435815,27,48,82,13,23,39,0.08731945,0.14809590,0.24482356,0.11961652,0.18481305,0.28062296
20139,0,USKansasOsage,Kansas,Osage,2021-01-05 22:05:41.335699,2020-04-10 00:00:00.000000,0.17628509,0.30721896,0.52781715,28,48,84,14,24,40,0.09248724,0.15067371,0.25393424,0.11376688,0.17757637,0.25933125
20139,0,USKansasOsage,Kansas,Osage,2021-01-05 22:05:41.335699,2020-04-11 00:00:00.000000,0.17757197,0.30828874,0.53185236,28,49,84,14,24,41,0.09384226,0.15389436,0.26225798,0.10370413,0.16974515,0.25180551
20139,0,USKansasOsage,Kansas,Osage,2021-01-05 22:05:41.335699,2020-04-12 00:00:00.000000,0.17872162,0.31293185,0.53272428,28,49,84,15,25,43,0.09493891,0.15873982,0.26997381,0.09897862,0.16507756,0.24489461
20139,0,USKansasOsage,Kansas,Osage,2021-01-05 22:05:41.335699,2020-04-13 00:00:00.000000,0.18568606,0.32021955,0.55014184,29,51,87,15,25,44,0.09585447,0.16145817,0.27721861,0.09944428,0.16036429,0.22423585
20139,0,USKansasOsage,Kansas,Osage,2021-01-05 22:05:41.335699,2020-04-14 00:00:00.000000,0.19259568,0.32224055,0.54069265,30,51,86,15,26,45,0.09513024,0.16341040,0.28639386,0.09562679,0.15642679,0.22614208
20139,0,USKansasOsage,Kansas,Osage,2021-01-05 22:05:41.335699,2020-04-15 00:00:00.000000,0.19969170,0.31806101,0.52932580,31,50,84,14,26,47,0.09169679,0.16485534,0.29684254,0.09138266,0.15312554,0.21766684
20139,0,USKansasOsage,Kansas,Osage,2021-01-05 22:05:41.335699,2020-04-16 00:00:00.000000,0.19345614,0.31776639,0.55082335,30,50,87,14,26,49,0.08888710,0.16615443,0.30788037,0.09047529,0.14854237,0.21676320
20139,0,USKansasOsage,Kansas,Osage,2021-01-05 22:05:41.335699,2020-04-17 00:00:00.000000,0.19935813,0.31297361,0.57910108,31,49,92,14,26,50,0.08965101,0.16529405,0.31859493,0.08219184,0.14503632,0.22257644
20139,0,USKansasOsage,Kansas,Osage,2021-01-05 22:05:41.335699,2020-04-18 00:00:00.000000,0.20522358,0.30786553,0.60699765,32,49,96,14,26,52,0.09024116,0.16375227,0.32862936,0.07769746,0.13910701,0.22933263
20139,0,USKansasOsage,Kansas,Osage,2021-01-05 22:05:41.335699,2020-04-19 00:00:00.000000,0.19951887,0.30629639,0.63448461,31,48,101,14,25,53,0.09067372,0.16249814,0.33794120,0.07598941,0.13249247,0.22931936
20139,0,USKansasOsage,Kansas,Osage,2021-01-05 22:05:41.335699,2020-04-20 00:00:00.000000,0.19084718,0.29262677,0.62970185,30,46,100,14,25,55,0.09099876,0.16175377,0.34660057,0.07423278,0.12897182,0.22834799
20139,0,USKansasOsage,Kansas,Osage,2021-01-05 22:05:41.335699,2020-04-21 00:00:00.000000,0.18220696,0.27830300,0.62451779,29,44,99,14,25,55,0.09098313,0.15928526,0.34954507,0.07342710,0.12780007,0.22516734
20139,0,USKansasOsage,Kansas,Osage,2021-01-05 22:05:41.335699,2020-04-22 00:00:00.000000,0.17368214,0.27103462,0.61847921,27,43,98,14,24,55,0.09071956,0.15566788,0.34842617,0.07311262,0.12524783,0.21980211
20139,0,USKansasOsage,Kansas,Osage,2021-01-05 22:05:41.335699,2020-04-23 00:00:00.000000,0.16540064,0.26021534,0.61174325,26,41,97,14,24,54,0.09024606,0.15160142,0.34445383,0.07221927,0.12376337,0.21858255
20139,0,USKansasOsage,Kansas,Osage,2021-01-05 22:05:41.335699,2020-04-24 00:00:00.000000,0.15746370,0.24683992,0.59797506,25,39,95,14,23,53,0.08957909,0.14621195,0.33852080,0.06993401,0.11989610,0.20772752
20139,0,USKansasOsage,Kansas,Osage,2021-01-05 22:05:41.335699,2020-04-25 00:00:00.000000,0.14999129,0.23756034,0.57486950,23,37,91,14,22,52,0.08873820,0.14158889,0.33129570,0.06793254,0.11988585,0.19748697
20139,0,USKansasOsage,Kansas,Osage,2021-01-05 22:05:41.335699,2020-04-26 00:00:00.000000,0.14303449,0.23075390,0.55162174,22,36,87,13,21,51,0.08774908,0.13771467,0.32327186,0.06533578,0.11854366,0.19063927
20139,0,USKansasOsage,Kansas,Osage,2021-01-05 22:05:41.335699,2020-04-27 00:00:00.000000,0.14180775,0.23363894,0.53750996,22,37,85,13,21,50,0.08458820,0.13247490,0.31478768,0.06482697,0.11810528,0.18928424
20139,0,USKansasOsage,Kansas,Osage,2021-01-05 22:05:41.335699,2020-04-28 00:00:00.000000,0.13919260,0.23440927,0.52385559,22,37,83,12,20,49,0.08090243,0.13019724,0.30803610,0.06475338,0.11871243,0.18837992
20139,0,USKansasOsage,Kansas,Osage,2021-01-05 22:05:41.335699,2020-04-29 00:00:00.000000,0.13711785,0.24077403,0.51079464,21,38,81,12,20,48,0.07669138,0.12979608,0.30256621,0.06488103,0.11795662,0.18761970
20139,0,USKansasOsage,Kansas,Osage,2021-01-05 22:05:41.335699,2020-04-30 00:00:00.000000,0.13553574,0.24587029,0.50491001,21,39,80,11,20,47,0.07315524,0.12946805,0.29804576,0.06133758,0.11506124,0.18636913
20139,0,USKansasOsage,Kansas,Osage,2021-01-05 22:05:41.335699,2020-05-01 00:00:00.000000,0.13441986,0.25353880,0.50343187,21,40,80,11,20,46,0.07015304,0.13002395,0.29423098,0.05914319,0.11304640,0.18332936
20139,0,USKansasOsage,Kansas,Osage,2021-01-05 22:05:41.335699,2020-05-02 00:00:00.000000,0.13365025,0.25657790,0.50193731,21,40,80,10,21,46,0.06757613,0.13248106,0.29094237,0.05843118,0.11266803,0.17721523
20139,0,USKansasOsage,Kansas,Osage,2021-01-05 22:05:41.335699,2020-05-03 00:00:00.000000,0.13308997,0.26193935,0.52596050,21,41,83,10,21,45,0.06533802,0.13375160,0.28804591,0.05768040,0.10943765,0.17531067
20139,0,USKansasOsage,Kansas,Osage,2021-01-05 22:05:41.335699,2020-05-04 00:00:00.000000,0.13197521,0.26445427,0.53687231,21,42,85,10,21,45,0.06337218,0.13638309,0.28543932,0.05689486,0.10782494,0.17500836
20139,0,USKansasOsage,Kansas,Osage,2021-01-05 22:05:41.335699,2020-05-05 00:00:00.000000,0.13094380,0.26405170,0.52705628,20,42,84,9,21,45,0.06161217,0.13765559,0.28329605,0.05613671,0.10384606,0.17422500
20139,0,USKansasOsage,Kansas,Osage,2021-01-05 22:05:41.335699,2020-05-06 00:00:00.000000,0.12996066,0.26069263,0.51670132,20,41,82,9,22,44,0.06002117,0.13944273,0.28148818,0.05550020,0.10415925,0.17259847
20139,0,USKansasOsage,Kansas,Osage,2021-01-05 22:05:41.335699,2020-05-07 00:00:00.000000,0.12902691,0.25854118,0.50617701,20,41,80,9,22,44,0.05857362,0.13946498,0.27992489,0.05512239,0.10438695,0.17272036
20139,0,USKansasOsage,Kansas,Osage,2021-01-05 22:05:41.335699,2020-05-08 00:00:00.000000,0.12814254,0.25571442,0.51109214,20,40,81,9,22,44,0.05725080,0.13924794,0.27853938,0.05529342,0.10727294,0.17351173
20139,0,USKansasOsage,Kansas,Osage,2021-01-05 22:05:41.335699,2020-05-09 00:00:00.000000,0.12730510,0.25323505,0.52693949,20,40,84,9,22,44,0.05737458,0.13809499,0.27727387,0.05374096,0.10702617,0.17479461
20139,0,USKansasOsage,Kansas,Osage,2021-01-05 22:05:41.335699,2020-05-10 00:00:00.000000,0.12660196,0.25123461,0.54390407,20,40,86,9,21,44,0.05897958,0.13689757,0.27673451,0.05333493,0.10644860,0.17439617
20139,0,USKansasOsage,Kansas,Osage,2021-01-05 22:05:41.335699,2020-05-11 00:00:00.000000,0.12845939,0.25369484,0.53722363,20,40,85,9,21,48,0.06055458,0.13645777,0.30164118,0.05284158,0.10586525,0.17645150
20139,0,USKansasOsage,Kansas,Osage,2021-01-05 22:05:41.335699,2020-05-12 00:00:00.000000,0.12781956,0.25792242,0.53078022,20,41,84,9,22,49,0.06182422,0.13818944,0.30838880,0.05089442,0.10489229,0.17788783
20139,0,USKansasOsage,Kansas,Osage,2021-01-05 22:05:41.335699,2020-05-13 00:00:00.000000,0.12731592,0.26321320,0.52370420,20,41,83,10,22,49,0.06288435,0.13826392,0.30863011,0.05056150,0.10333539,0.17869554
20139,0,USKansasOsage,Kansas,Osage,2021-01-05 22:05:41.335699,2020-05-14 00:00:00.000000,0.12698426,0.26069917,0.51609911,20,41,82,10,22,49,0.06378967,0.13872747,0.30768187,0.05014514,0.10087411,0.17875147
20139,0,USKansasOsage,Kansas,Osage,2021-01-05 22:05:41.335699,2020-05-15 00:00:00.000000,0.13098376,0.26347492,0.50813099,20,42,81,10,22,48,0.06457284,0.13818451,0.30586101,0.04759489,0.09871412,0.17515471
20139,0,USKansasOsage,Kansas,Osage,2021-01-05 22:05:41.335699,2020-05-16 00:00:00.000000,0.12687857,0.26230904,0.49995429,20,41,79,10,21,47,0.06527498,0.13725272,0.30080957,0.04438399,0.09695643,0.16885278
20139,0,USKansasOsage,Kansas,Osage,2021-01-05 22:05:41.335699,2020-05-17 00:00:00.000000,0.12642404,0.26398599,0.49169322,20,42,78,10,21,46,0.06594130,0.13619965,0.29037298,0.04379080,0.09678192,0.15552913
20139,0,USKansasOsage,Kansas,Osage,2021-01-05 22:05:41.335699,2020-05-18 00:00:00.000000,0.12696390,0.26699015,0.49592764,20,42,79,10,21,44,0.06653405,0.13597895,0.28068141,0.04373781,0.09177292,0.15332201
20139,0,USKansasOsage,Kansas,Osage,2021-01-05 22:05:41.335699,2020-05-19 00:00:00.000000,0.13058850,0.26348720,0.50024007,20,42,79,11,21,44,0.06924871,0.13499032,0.27906964,0.04373312,0.09231264,0.15451519
20139,0,USKansasOsage,Kansas,Osage,2021-01-05 22:05:41.335699,2020-05-20 00:00:00.000000,0.13874977,0.25703570,0.50481700,22,40,80,11,21,44,0.07322156,0.13435157,0.27887123,0.04373148,0.09174992,0.15456435
20139,0,USKansasOsage,Kansas,Osage,2021-01-05 22:05:41.335699,2020-05-21 00:00:00.000000,0.13985601,0.25544068,0.50392451,22,40,80,12,21,45,0.07751266,0.13349240,0.28397014,0.04372657,0.09100621,0.15129449
20139,0,USKansasOsage,Kansas,Osage,2021-01-05 22:05:41.335699,2020-05-22 00:00:00.000000,0.13851965,0.25472566,0.50688832,22,40,80,12,21,46,0.07668640,0.13333640,0.29246970,0.04370786,0.08749108,0.15608760
20139,0,USKansasOsage,Kansas,Osage,2021-01-05 22:05:41.335699,2020-05-23 00:00:00.000000,0.13612830,0.25442821,0.51332441,21,40,81,12,21,47,0.07567249,0.13287386,0.29633729,0.04364181,0.08535429,0.15576883
20139,0,USKansasOsage,Kansas,Osage,2021-01-05 22:05:41.335699,2020-05-24 00:00:00.000000,0.13454586,0.24983783,0.52252210,21,39,83,11,21,47,0.07454919,0.13314044,0.29773738,0.04346869,0.08458926,0.15564352
20139,0,USKansasOsage,Kansas,Osage,2021-01-05 22:05:41.335699,2020-05-25 00:00:00.000000,0.14561990,0.26051580,0.51889658,23,41,82,11,21,47,0.07337023,0.13293571,0.29943252,0.04349358,0.08435405,0.15596621
20139,0,USKansasOsage,Kansas,Osage,2021-01-05 22:05:41.335699,2020-05-26 00:00:00.000000,0.15090053,0.26033465,0.50797825,24,41,81,11,21,47,0.07517251,0.13439480,0.29986630,0.04428742,0.08430513,0.14784141
20139,0,USKansasOsage,Kansas,Osage,2021-01-05 22:05:41.335699,2020-05-27 00:00:00.000000,0.15186266,0.25989054,0.49648064,24,41,79,12,21,47,0.07888314,0.13502626,0.29933857,0.04456321,0.08633554,0.14396773
20139,0,USKansasOsage,Kansas,Osage,2021-01-05 22:05:41.335699,2020-05-28 00:00:00.000000,0.15281436,0.25944929,0.49072032,24,41,78,13,21,47,0.08256176,0.13716647,0.29807967,0.04495454,0.08536078,0.14028050
20139,0,USKansasOsage,Kansas,Osage,2021-01-05 22:05:41.335699,2020-05-29 00:00:00.000000,0.15377252,0.25852181,0.51306638,24,41,81,12,21,47,0.08129685,0.13711759,0.29626363,0.04646466,0.08520018,0.13987648
20139,0,USKansasOsage,Kansas,Osage,2021-01-05 22:05:41.335699,2020-05-30 00:00:00.000000,0.15471404,0.25937734,0.56202189,24,41,89,12,21,46,0.07883347,0.13746811,0.29401667,0.04542591,0.08570839,0.14428348
20139,0,USKansasOsage,Kansas,Osage,2021-01-05 22:05:41.335699,2020-05-31 00:00:00.000000,0.15327414,0.25914216,0.55783687,24,41,88,12,22,46,0.07655630,0.13951010,0.29142725,0.04336351,0.08485375,0.14818975
20139,0,USKansasOsage,Kansas,Osage,2021-01-05 22:05:41.335699,2020-06-01 00:00:00.000000,0.15523652,0.26268273,0.55269607,24,41,88,11,22,46,0.07443684,0.13832478,0.28927402,0.04294925,0.08650331,0.15779074
20139,0,USKansasOsage,Kansas,Osage,2021-01-05 22:05:41.335699,2020-06-02 00:00:00.000000,0.15422991,0.26232691,0.54925604,24,41,87,11,21,47,0.07394743,0.13774503,0.29661291,0.04383717,0.08276696,0.16147862
20139,0,USKansasOsage,Kansas,Osage,2021-01-05 22:05:41.335699,2020-06-03 00:00:00.000000,0.14787558,0.26304609,0.54708753,23,41,87,11,21,47,0.07461914,0.13718388,0.29800651,0.04523249,0.08278880,0.16416846
20139,0,USKansasOsage,Kansas,Osage,2021-01-05 22:05:41.335699,2020-06-04 00:00:00.000000,0.14182098,0.26259736,0.54545696,22,41,86,11,21,47,0.07384516,0.13651758,0.29749002,0.04502410,0.08508975,0.16904279
20139,0,USKansasOsage,Kansas,Osage,2021-01-05 22:05:41.335699,2020-06-05 00:00:00.000000,0.13491232,0.26306185,0.52983874,21,41,84,11,21,46,0.07131003,0.13593293,0.29338528,0.04343176,0.08607260,0.17336815
20139,0,USKansasOsage,Kansas,Osage,2021-01-05 22:05:41.335699,2020-06-06 00:00:00.000000,0.12807973,0.26250269,0.50951093,20,41,81,10,21,45,0.06790791,0.13524039,0.28692865,0.04284287,0.08380566,0.16812719
20139,0,USKansasOsage,Kansas,Osage,2021-01-05 22:05:41.335699,2020-06-07 00:00:00.000000,0.12163808,0.26205828,0.48804740,19,41,77,10,21,44,0.06459727,0.13477586,0.27889017,0.04277731,0.08040633,0.16023279
20139,0,USKansasOsage,Kansas,Osage,2021-01-05 22:05:41.335699,2020-06-08 00:00:00.000000,0.12018887,0.25895759,0.48733507,19,41,77,9,21,43,0.06142227,0.13258632,0.27447852,0.04277634,0.08131974,0.15162423
20139,0,USKansasOsage,Kansas,Osage,2021-01-05 22:05:41.335699,2020-06-09 00:00:00.000000,0.12227479,0.25817718,0.48573363,19,41,77,9,21,43,0.05907048,0.13270234,0.27342727,0.04290757,0.08089437,0.14998742
20139,0,USKansasOsage,Kansas,Osage,2021-01-05 22:05:41.335699,2020-06-10 00:00:00.000000,0.12255852,0.26694507,0.48518902,19,42,77,9,21,43,0.05735251,0.13548809,0.27214340,0.04376515,0.08153184,0.15220322
20139,0,USKansasOsage,Kansas,Osage,2021-01-05 22:05:41.335699,2020-06-11 00:00:00.000000,0.12639663,0.27114904,0.48792107,20,43,77,8,21,43,0.05614690,0.13611189,0.27296580,0.04567131,0.08169742,0.15458095
20139,0,USKansasOsage,Kansas,Osage,2021-01-05 22:05:41.335699,2020-06-12 00:00:00.000000,0.12854256,0.27059096,0.50026658,20,43,79,8,22,43,0.05533788,0.13971288,0.27517829,0.04648916,0.08249507,0.15545376
20139,0,USKansasOsage,Kansas,Osage,2021-01-05 22:05:41.335699,2020-06-13 00:00:00.000000,0.12199384,0.27561470,0.51247201,19,43,81,8,22,44,0.05483468,0.14139990,0.27827804,0.04651802,0.08250846,0.14966760
20139,0,USKansasOsage,Kansas,Osage,2021-01-05 22:05:41.335699,2020-06-14 00:00:00.000000,0.11845600,0.27507054,0.52443373,18,43,83,8,22,44,0.05455919,0.14107915,0.28191343,0.04636048,0.08257631,0.14469569
20139,0,USKansasOsage,Kansas,Osage,2021-01-05 22:05:41.335699,2020-06-15 00:00:00.000000,0.12827231,0.27749361,0.51765631,20,44,82,8,22,45,0.05540652,0.14371619,0.28554208,0.04620814,0.08402960,0.14747321
20139,0,USKansasOsage,Kansas,Osage,2021-01-05 22:05:41.335699,2020-06-16 00:00:00.000000,0.13070965,0.27766598,0.51054387,20,44,81,8,22,45,0.05637193,0.14031549,0.28231474,0.04589580,0.08472064,0.15037762
20139,0,USKansasOsage,Kansas,Osage,2021-01-05 22:05:41.335699,2020-06-17 00:00:00.000000,0.13320577,0.28470376,0.50296412,21,45,80,9,22,45,0.05882399,0.14228709,0.28284178,0.04594813,0.08499491,0.15100001
20139,0,USKansasOsage,Kansas,Osage,2021-01-05 22:05:41.335699,2020-06-18 00:00:00.000000,0.13490087,0.29117013,0.49109423,21,46,78,9,22,44,0.05936258,0.14319720,0.28057273,0.04580046,0.08440360,0.15174787
20139,0,USKansasOsage,Kansas,Osage,2021-01-05 22:05:41.335699,2020-06-19 00:00:00.000000,0.13392789,0.29625469,0.48883160,21,47,77,9,23,44,0.05811364,0.14886211,0.28002555,0.04565678,0.08458627,0.15258787
20139,0,USKansasOsage,Kansas,Osage,2021-01-05 22:05:41.335699,2020-06-20 00:00:00.000000,0.13295072,0.29706938,0.50121389,21,47,79,9,23,44,0.05692523,0.14997050,0.27751344,0.04821538,0.08573480,0.15343268
20139,0,USKansasOsage,Kansas,Osage,2021-01-05 22:05:41.335699,2020-06-21 00:00:00.000000,0.13199220,0.30156319,0.51101630,21,48,81,8,23,44,0.05581210,0.14824214,0.27954767,0.04909801,0.08664984,0.15373854
20139,0,USKansasOsage,Kansas,Osage,2021-01-05 22:05:41.335699,2020-06-22 00:00:00.000000,0.13700993,0.30394639,0.50793057,21,48,81,8,23,44,0.05544239,0.14679029,0.27869702,0.05033210,0.08737565,0.15206701
20139,0,USKansasOsage,Kansas,Osage,2021-01-05 22:05:41.335699,2020-06-23 00:00:00.000000,0.14207218,0.30160275,0.50344971,22,48,80,8,23,44,0.05607464,0.14931995,0.27979626,0.05273733,0.08699485,0.15509071
20139,0,USKansasOsage,Kansas,Osage,2021-01-05 22:05:41.335699,2020-06-24 00:00:00.000000,0.14727258,0.30069189,0.50800798,23,47,81,9,24,45,0.05734593,0.15431123,0.28222235,0.05149785,0.08739392,0.15485173
20139,0,USKansasOsage,Kansas,Osage,2021-01-05 22:05:41.335699,2020-06-25 00:00:00.000000,0.15244477,0.30132332,0.52244044,24,48,83,9,25,45,0.05900412,0.15750430,0.28549459,0.05092317,0.08771876,0.15276421
20139,0,USKansasOsage,Kansas,Osage,2021-01-05 22:05:41.335699,2020-06-26 00:00:00.000000,0.15745857,0.30034254,0.51557669,25,47,82,9,25,46,0.06087522,0.15804591,0.28921481,0.05097465,0.08978448,0.14755521
20139,0,USKansasOsage,Kansas,Osage,2021-01-05 22:05:41.335699,2020-06-27 00:00:00.000000,0.16187512,0.29903170,0.50810431,25,47,81,10,25,46,0.06284035,0.15899438,0.29022045,0.05191552,0.09082324,0.14633435
20139,0,USKansasOsage,Kansas,Osage,2021-01-05 22:05:41.335699,2020-06-28 00:00:00.000000,0.15871918,0.29887161,0.51371774,25,47,81,10,25,45,0.06481958,0.16047497,0.28669579,0.05322801,0.09105436,0.14913016
20139,0,USKansasOsage,Kansas,Osage,2021-01-05 22:05:41.335699,2020-06-29 00:00:00.000000,0.16169609,0.29703156,0.51259392,25,47,81,10,25,45,0.06676093,0.16086364,0.28614000,0.05362359,0.09223752,0.14534177
20139,0,USKansasOsage,Kansas,Osage,2021-01-05 22:05:41.335699,2020-06-30 00:00:00.000000,0.15650812,0.30069722,0.51112281,24,47,81,10,25,45,0.06705830,0.16224353,0.28217245,0.05377988,0.09300911,0.14665045
20139,0,USKansasOsage,Kansas,Osage,2021-01-05 22:05:41.335699,2020-07-01 00:00:00.000000,0.15119065,0.29928003,0.50918896,24,47,81,10,25,44,0.06630588,0.16063954,0.27984634,0.05399880,0.09440266,0.15006544
20139,0,USKansasOsage,Kansas,Osage,2021-01-05 22:05:41.335699,2020-07-02 00:00:00.000000,0.14571308,0.30401464,0.52065673,23,48,83,10,25,44,0.06492787,0.16082181,0.27985585,0.05436886,0.09472844,0.15791693
20139,0,USKansasOsage,Kansas,Osage,2021-01-05 22:05:41.335699,2020-07-03 00:00:00.000000,0.14012917,0.30434846,0.50495560,22,48,80,10,25,44,0.06318426,0.15934278,0.27851433,0.05318657,0.09600351,0.15775386
20139,0,USKansasOsage,Kansas,Osage,2021-01-05 22:05:41.335699,2020-07-04 00:00:00.000000,0.13520482,0.29704526,0.51133422,21,47,81,9,25,44,0.06219604,0.15750710,0.27619892,0.04742822,0.09753484,0.15564760
20139,0,USKansasOsage,Kansas,Osage,2021-01-05 22:05:41.335699,2020-07-05 00:00:00.000000,0.13013216,0.29530859,0.50142823,20,47,79,9,25,43,0.05972899,0.15693033,0.27316540,0.04572710,0.09985149,0.15474521
20139,0,USKansasOsage,Kansas,Osage,2021-01-05 22:05:41.335699,2020-07-06 00:00:00.000000,0.12787232,0.29503680,0.49295500,20,47,78,9,25,44,0.05741024,0.15817441,0.27787191,0.04545506,0.10126493,0.16093737
20139,0,USKansasOsage,Kansas,Osage,2021-01-05 22:05:41.335699,2020-07-07 00:00:00.000000,0.12641405,0.29428336,0.48543278,20,46,77,8,24,44,0.05560522,0.15514460,0.27858427,0.04552496,0.10258613,0.16547171
20139,0,USKansasOsage,Kansas,Osage,2021-01-05 22:05:41.335699,2020-07-08 00:00:00.000000,0.12534122,0.29584663,0.48955574,19,47,78,8,24,45,0.05420921,0.15320562,0.28656652,0.04582429,0.10196842,0.17045890
20139,0,USKansasOsage,Kansas,Osage,2021-01-05 22:05:41.335699,2020-07-09 00:00:00.000000,0.12455826,0.29135163,0.50741524,19,46,80,8,24,46,0.05313722,0.15412305,0.29068751,0.04657910,0.10242055,0.17476514
20139,0,USKansasOsage,Kansas,Osage,2021-01-05 22:05:41.335699,2020-07-10 00:00:00.000000,0.12376772,0.29046480,0.52533647,19,46,83,8,24,45,0.05238589,0.15389948,0.28692908,0.04827526,0.10164132,0.17735632
20139,0,USKansasOsage,Kansas,Osage,2021-01-05 22:05:41.335699,2020-07-11 00:00:00.000000,0.12238965,0.28871359,0.53738903,19,46,85,8,24,45,0.05184710,0.15597459,0.28276827,0.05281214,0.10232052,0.17598649
20139,0,USKansasOsage,Kansas,Osage,2021-01-05 22:05:41.335699,2020-07-12 00:00:00.000000,0.12192025,0.29038276,0.54090684,19,46,86,8,25,44,0.05144880,0.15680445,0.27861841,0.05553030,0.10355522,0.17526288
20139,0,USKansasOsage,Kansas,Osage,2021-01-05 22:05:41.335699,2020-07-13 00:00:00.000000,0.12020064,0.28650679,0.53301465,19,45,85,8,24,45,0.05116062,0.15648356,0.28380157,0.05608045,0.10338745,0.17969918
20139,0,USKansasOsage,Kansas,Osage,2021-01-05 22:05:41.335699,2020-07-14 00:00:00.000000,0.11872665,0.28337235,0.52467959,18,45,83,8,25,45,0.05126232,0.15740802,0.28544291,0.05707830,0.10399347,0.18001428
20139,0,USKansasOsage,Kansas,Osage,2021-01-05 22:05:41.335699,2020-07-15 00:00:00.000000,0.11732299,0.27833056,0.52260527,18,44,83,8,25,45,0.05210234,0.15705492,0.28757112,0.05817739,0.10568025,0.18022243
20139,0,USKansasOsage,Kansas,Osage,2021-01-05 22:05:41.335699,2020-07-16 00:00:00.000000,0.11666100,0.27521561,0.54042425,18,43,86,8,25,45,0.05330534,0.15730525,0.28708508,0.05817953,0.10927872,0.18034379
20139,0,USKansasOsage,Kansas,Osage,2021-01-05 22:05:41.335699,2020-07-17 00:00:00.000000,0.11444667,0.27260783,0.53839870,18,43,85,8,25,46,0.05476997,0.15728051,0.28969558,0.05820522,0.11060041,0.18041863
20139,0,USKansasOsage,Kansas,Osage,2021-01-05 22:05:41.335699,2020-07-18 00:00:00.000000,0.11253644,0.27406218,0.54440155,17,43,86,8,24,46,0.05641699,0.15615705,0.29162654,0.05829062,0.11319827,0.18382711
20139,0,USKansasOsage,Kansas,Osage,2021-01-05 22:05:41.335699,2020-07-19 00:00:00.000000,0.11072991,0.27189975,0.55272144,17,43,88,9,24,46,0.05818899,0.15399827,0.29123936,0.05846514,0.11426960,0.18643450
20139,0,USKansasOsage,Kansas,Osage,2021-01-05 22:05:41.335699,2020-07-20 00:00:00.000000,0.12236572,0.28608219,0.56616275,19,45,90,9,24,46,0.05901475,0.15140272,0.29046038,0.05750780,0.11638630,0.19196454
20139,0,USKansasOsage,Kansas,Osage,2021-01-05 22:05:41.335699,2020-07-21 00:00:00.000000,0.13415286,0.29662730,0.56340753,21,47,89,9,24,46,0.05927103,0.15337440,0.28885004,0.05748540,0.11947916,0.19751672
20139,0,USKansasOsage,Kansas,Osage,2021-01-05 22:05:41.335699,2020-07-22 00:00:00.000000,0.14207196,0.30388325,0.55716864,22,48,88,9,25,45,0.05990636,0.15713938,0.28746701,0.05825561,0.12352928,0.19773035
20139,0,USKansasOsage,Kansas,Osage,2021-01-05 22:05:41.335699,2020-07-23 00:00:00.000000,0.14890539,0.30895723,0.55097069,23,49,87,9,26,45,0.06082128,0.16306036,0.28829292,0.05796047,0.12490630,0.19739059
20139,0,USKansasOsage,Kansas,Osage,2021-01-05 22:05:41.335699,2020-07-24 00:00:00.000000,0.15575590,0.31076565,0.55144762,24,49,87,9,26,45,0.06193824,0.16896858,0.28805498,0.05891654,0.12460741,0.20317788
20139,0,USKansasOsage,Kansas,Osage,2021-01-05 22:05:41.335699,2020-07-25 00:00:00.000000,0.16251617,0.30883508,0.55902072,25,49,89,10,27,45,0.06320076,0.17105629,0.28483438,0.05919751,0.12489064,0.20385861
20139,0,USKansasOsage,Kansas,Osage,2021-01-05 22:05:41.335699,2020-07-26 00:00:00.000000,0.16911945,0.30577531,0.56574625,26,48,90,10,27,46,0.06456554,0.17247408,0.29041992,0.05974768,0.12746802,0.20377882
20139,0,USKansasOsage,Kansas,Osage,2021-01-05 22:05:41.335699,2020-07-27 00:00:00.000000,0.17016135,0.29923489,0.56207423,27,47,89,10,27,47,0.06599659,0.16998231,0.29682601,0.06008959,0.12650090,0.20783909
20139,0,USKansasOsage,Kansas,Osage,2021-01-05 22:05:41.335699,2020-07-28 00:00:00.000000,0.17109841,0.29088709,0.55820506,27,46,89,11,26,48,0.06930893,0.16656496,0.30158598,0.06048940,0.12605825,0.21029881
20139,0,USKansasOsage,Kansas,Osage,2021-01-05 22:05:41.335699,2020-07-29 00:00:00.000000,0.17199020,0.29579214,0.55426438,27,47,88,11,25,48,0.07391783,0.16249765,0.30125669,0.06148527,0.12608234,0.21106951
20139,0,USKansasOsage,Kansas,Osage,2021-01-05 22:05:41.335699,2020-07-30 00:00:00.000000,0.17640597,0.30648548,0.55075199,28,48,87,12,25,47,0.07938405,0.15996448,0.29989251,0.06438713,0.12982287,0.21169607
20139,0,USKansasOsage,Kansas,Osage,2021-01-05 22:05:41.335699,2020-07-31 00:00:00.000000,0.17262829,0.31214754,0.54799531,27,49,87,13,25,47,0.08344781,0.15992685,0.29776028,0.06657282,0.13463338,0.21303573
20139,0,USKansasOsage,Kansas,Osage,2021-01-05 22:05:41.335699,2020-08-01 00:00:00.000000,0.17259071,0.31796705,0.54607272,27,50,87,13,25,47,0.08338833,0.16224524,0.29507469,0.07040322,0.13643845,0.22318024
20139,0,USKansasOsage,Kansas,Osage,2021-01-05 22:05:41.335699,2020-08-02 00:00:00.000000,0.17239329,0.32545263,0.54677897,27,51,87,13,25,47,0.08346932,0.16287670,0.29605708,0.07408587,0.13551427,0.22544329
20139,0,USKansasOsage,Kansas,Osage,2021-01-05 22:05:41.335699,2020-08-03 00:00:00.000000,0.17773522,0.32233405,0.56915970,28,51,90,13,26,49,0.08365950,0.16701648,0.31008495,0.08072956,0.13598422,0.22635435
20139,0,USKansasOsage,Kansas,Osage,2021-01-05 22:05:41.335699,2020-08-04 00:00:00.000000,0.17171854,0.32330617,0.59397412,27,51,94,13,26,50,0.08530678,0.16547963,0.31898942,0.08041490,0.13656379,0.23142887
20139,0,USKansasOsage,Kansas,Osage,2021-01-05 22:05:41.335699,2020-08-05 00:00:00.000000,0.16673390,0.34418318,0.61927867,26,54,98,14,26,51,0.08788541,0.16374490,0.32515743,0.08284105,0.13962457,0.23381801
20139,0,USKansasOsage,Kansas,Osage,2021-01-05 22:05:41.335699,2020-08-06 00:00:00.000000,0.17317257,0.36590761,0.64469691,27,58,102,14,27,52,0.09104666,0.17140278,0.32992675,0.08646810,0.14153855,0.23287355
20139,0,USKansasOsage,Kansas,Osage,2021-01-05 22:05:41.335699,2020-08-07 00:00:00.000000,0.17972389,0.37797458,0.66987048,28,60,106,14,28,53,0.09320933,0.17657531,0.33381723,0.08860085,0.14627398,0.23175976
20139,0,USKansasOsage,Kansas,Osage,2021-01-05 22:05:41.335699,2020-08-08 00:00:00.000000,0.18647456,0.37936398,0.69446389,29,60,110,14,29,55,0.09250388,0.18746552,0.34881421,0.09154963,0.14951697,0.23924188
20139,0,USKansasOsage,Kansas,Osage,2021-01-05 22:05:41.335699,2020-08-09 00:00:00.000000,0.19329114,0.37824309,0.71831640,30,60,114,14,30,60,0.09149176,0.19307633,0.38111765,0.09556655,0.15042658,0.24518358
20139,0,USKansasOsage,Kansas,Osage,2021-01-05 22:05:41.335699,2020-08-10 00:00:00.000000,0.19544204,0.37858135,0.72871234,31,60,116,14,31,61,0.09080427,0.19456450,0.38590838,0.09590602,0.15041243,0.26106095
20139,0,USKansasOsage,Kansas,Osage,2021-01-05 22:05:41.335699,2020-08-11 00:00:00.000000,0.19745753,0.37997577,0.73851786,31,60,117,14,31,62,0.09348840,0.20054964,0.38960574,0.09588729,0.15263843,0.26690950
20139,0,USKansasOsage,Kansas,Osage,2021-01-05 22:05:41.335699,2020-08-12 00:00:00.000000,0.19919574,0.39207740,0.74757681,31,62,119,15,32,62,0.09851954,0.20596034,0.39416084,0.09663949,0.15945104,0.26938921
20139,0,USKansasOsage,Kansas,Osage,2021-01-05 22:05:41.335699,2020-08-13 00:00:00.000000,0.20534049,0.40120387,0.75601729,32,63,120,16,33,63,0.10518850,0.20779775,0.39970837,0.09896575,0.16215782,0.27869642
20139,0,USKansasOsage,Kansas,Osage,2021-01-05 22:05:41.335699,2020-08-14 00:00:00.000000,0.21799107,0.40560761,0.76914748,34,64,122,18,33,64,0.11300863,0.21095512,0.40621831,0.10040372,0.16237456,0.29959161
20139,0,USKansasOsage,Kansas,Osage,2021-01-05 22:05:41.335699,2020-08-15 00:00:00.000000,0.22915876,0.41341555,0.78561231,36,65,125,19,33,65,0.12163309,0.21179324,0.41360912,0.10025947,0.16188386,0.30283560
20139,0,USKansasOsage,Kansas,Osage,2021-01-05 22:05:41.335699,2020-08-16 00:00:00.000000,0.24229379,0.42084500,0.79038084,38,67,126,20,34,67,0.12561501,0.21544561,0.42177656,0.10026625,0.16878512,0.32026453
20139,0,USKansasOsage,Kansas,Osage,2021-01-05 22:05:41.335699,2020-08-17 00:00:00.000000,0.25618890,0.42280675,0.79859515,40,67,127,20,34,68,0.12751573,0.21841516,0.43061936,0.10054334,0.17427532,0.33453136
20139,0,USKansasOsage,Kansas,Osage,2021-01-05 22:05:41.335699,2020-08-18 00:00:00.000000,0.26752869,0.42684452,0.79545819,42,68,126,20,35,70,0.12733460,0.22183833,0.44235028,0.11757781,0.17794410,0.33870144
20139,0,USKansasOsage,Kansas,Osage,2021-01-05 22:05:41.335699,2020-08-19 00:00:00.000000,0.27867016,0.44137141,0.79967258,44,70,127,20,36,72,0.13025761,0.22649041,0.45630797,0.11824649,0.17879098,0.34580809
20139,0,USKansasOsage,Kansas,Osage,2021-01-05 22:05:41.335699,2020-08-20 00:00:00.000000,0.28406623,0.44685608,0.80684464,45,71,128,21,36,75,0.13224535,0.23045124,0.47200306,0.12435512,0.17996198,0.35479789
20139,0,USKansasOsage,Kansas,Osage,2021-01-05 22:05:41.335699,2020-08-21 00:00:00.000000,0.28278327,0.45239355,0.81380782,45,72,129,21,36,77,0.13375646,0.22945514,0.48901900,0.13095641,0.18448420,0.35084888
20139,0,USKansasOsage,Kansas,Osage,2021-01-05 22:05:41.335699,2020-08-22 00:00:00.000000,0.28194956,0.45364064,0.82058593,44,72,130,21,36,78,0.13517090,0.23019674,0.49432427,0.13078618,0.18587196,0.34732545
20139,0,USKansasOsage,Kansas,Osage,2021-01-05 22:05:41.335699,2020-08-23 00:00:00.000000,0.28153249,0.45870160,0.82731143,44,73,131,21,37,79,0.13661349,0.23246233,0.49949675,0.13078288,0.18807699,0.34399295
20139,0,USKansasOsage,Kansas,Osage,2021-01-05 22:05:41.335699,2020-08-24 00:00:00.000000,0.29019150,0.46252744,0.81993874,46,73,130,22,37,80,0.13809362,0.23441169,0.50419017,0.13120163,0.19155364,0.33994972
20139,0,USKansasOsage,Kansas,Osage,2021-01-05 22:05:41.335699,2020-08-25 00:00:00.000000,0.29971761,0.46729496,0.83604599,47,74,133,22,38,80,0.14212322,0.23913507,0.50719817,0.14644897,0.19713908,0.36131190
20139,0,USKansasOsage,Kansas,Osage,2021-01-05 22:05:41.335699,2020-08-26 00:00:00.000000,0.31120636,0.48525632,0.84129403,49,77,134,23,38,81,0.14582698,0.24414255,0.50903684,0.15709591,0.20026686,0.37029539
20139,0,USKansasOsage,Kansas,Osage,2021-01-05 22:05:41.335699,2020-08-27 00:00:00.000000,0.32418772,0.49948101,0.84062853,51,79,134,24,39,81,0.15075657,0.24950991,0.50999303,0.16083962,0.20285189,0.37214964
20139,0,USKansasOsage,Kansas,Osage,2021-01-05 22:05:41.335699,2020-08-28 00:00:00.000000,0.32678111,0.51554981,0.85399794,52,82,136,24,41,81,0.15460376,0.25979537,0.51037423,0.15778454,0.21034806,0.37252895
20139,0,USKansasOsage,Kansas,Osage,2021-01-05 22:05:41.335699,2020-08-29 00:00:00.000000,0.32925941,0.52447533,0.87673155,52,83,139,25,42,81,0.15816977,0.26505319,0.51083172,0.16328779,0.21655197,0.37193224
20139,0,USKansasOsage,Kansas,Osage,2021-01-05 22:05:41.335699,2020-08-30 00:00:00.000000,0.33633865,0.53087288,0.91666594,53,84,146,25,42,85,0.16190275,0.26792388,0.53381590,0.16415002,0.22639520,0.36456293
20139,0,USKansasOsage,Kansas,Osage,2021-01-05 22:05:41.335699,2020-08-31 00:00:00.000000,0.38073808,0.53671570,0.94666251,60,85,150,26,43,85,0.16572066,0.27468828,0.53724949,0.16682173,0.23936854,0.34724054
20139,0,USKansasOsage,Kansas,Osage,2021-01-05 22:05:41.335699,2020-09-01 00:00:00.000000,0.38350291,0.56214796,0.98748365,61,89,157,26,45,86,0.16883016,0.28294945,0.54337730,0.16585646,0.24745779,0.33837343
20139,0,USKansasOsage,Kansas,Osage,2021-01-05 22:05:41.335699,2020-09-02 00:00:00.000000,0.38598992,0.57952853,1.03697438,61,92,165,27,46,88,0.17142016,0.29101217,0.55239525,0.16735397,0.25085016,0.33502731
20139,0,USKansasOsage,Kansas,Osage,2021-01-05 22:05:41.335699,2020-09-03 00:00:00.000000,0.38990285,0.59179026,1.09581888,62,94,174,27,47,89,0.17365469,0.30005416,0.56315366,0.16955790,0.24877455,0.33851297
20139,0,USKansasOsage,Kansas,Osage,2021-01-05 22:05:41.335699,2020-09-04 00:00:00.000000,0.39511772,0.61100151,1.14830686,63,97,183,28,48,91,0.17569354,0.30631052,0.57494380,0.17140875,0.25012194,0.34610812
20139,0,USKansasOsage,Kansas,Osage,2021-01-05 22:05:41.335699,2020-09-05 00:00:00.000000,0.40112239,0.63325800,1.19989920,63,100,191,28,49,93,0.17770899,0.31206945,0.58732804,0.17788952,0.24998608,0.34633676
20139,0,USKansasOsage,Kansas,Osage,2021-01-05 22:05:41.335699,2020-09-06 00:00:00.000000,0.40752382,0.65012120,1.25055066,64,103,199,28,51,95,0.17986076,0.32092878,0.60003256,0.17702052,0.25300939,0.34692462
20139,0,USKansasOsage,Kansas,Osage,2021-01-05 22:05:41.335699,2020-09-07 00:00:00.000000,0.41707139,0.66959832,1.25981008,66,106,200,29,52,97,0.18223703,0.33162360,0.61287029,0.17238091,0.24838277,0.35072663
20139,0,USKansasOsage,Kansas,Osage,2021-01-05 22:05:41.335699,2020-09-08 00:00:00.000000,0.42611421,0.69001776,1.29297777,67,110,206,29,54,100,0.18661318,0.34352875,0.63064918,0.16767036,0.24717480,0.35212174
20139,0,USKansasOsage,Kansas,Osage,2021-01-05 22:05:41.335699,2020-09-09 00:00:00.000000,0.43576517,0.71976572,1.32648103,69,114,211,30,56,102,0.19245719,0.35621009,0.64356726,0.16657872,0.25077179,0.35748986
20139,0,USKansasOsage,Kansas,Osage,2021-01-05 22:05:41.335699,2020-09-10 00:00:00.000000,0.44645569,0.73650081,1.35426716,71,117,215,31,59,104,0.19948650,0.37080005,0.65240451,0.16660642,0.26140525,0.37577263
20139,0,USKansasOsage,Kansas,Osage,2021-01-05 22:05:41.335699,2020-09-11 00:00:00.000000,0.46296845,0.76498616,1.34721333,73,122,214,32,61,105,0.20619511,0.38684174,0.65893431,0.16739819,0.25915794,0.38667151
20139,0,USKansasOsage,Kansas,Osage,2021-01-05 22:05:41.335699,2020-09-12 00:00:00.000000,0.47547555,0.80001452,1.35289201,75,127,215,33,64,106,0.20824899,0.40289518,0.66976561,0.17275700,0.25953749,0.38936593
20139,0,USKansasOsage,Kansas,Osage,2021-01-05 22:05:41.335699,2020-09-13 00:00:00.000000,0.49464949,0.83119528,1.38874499,78,132,221,33,66,110,0.21104337,0.41477078,0.69275087,0.17775145,0.26319087,0.38953305
20139,0,USKansasOsage,Kansas,Osage,2021-01-05 22:05:41.335699,2020-09-14 00:00:00.000000,0.49950827,0.86183830,1.42041991,79,137,226,34,67,113,0.21455211,0.42620010,0.70931479,0.18408606,0.26943466,0.39431441
20139,0,USKansasOsage,Kansas,Osage,2021-01-05 22:05:41.335699,2020-09-15 00:00:00.000000,0.50501165,0.88417896,1.45124208,80,141,231,34,69,113,0.21757121,0.43850240,0.70857409,0.18991909,0.27228313,0.39592593
20139,0,USKansasOsage,Kansas,Osage,2021-01-05 22:05:41.335699,2020-09-16 00:00:00.000000,0.51054837,0.90944070,1.48109457,81,145,236,35,72,114,0.22523953,0.45372649,0.72049142,0.19104268,0.27194453,0.39738805
20139,0,USKansasOsage,Kansas,Osage,2021-01-05 22:05:41.335699,2020-09-17 00:00:00.000000,0.51636865,0.93936075,1.51026169,82,149,240,37,75,116,0.23578397,0.47144733,0.73198190,0.19846089,0.27872629,0.39941242
20139,0,USKansasOsage,Kansas,Osage,2021-01-05 22:05:41.335699,2020-09-18 00:00:00.000000,0.52316139,0.96546318,1.53910533,83,153,245,39,77,118,0.24640006,0.48618756,0.74327227,0.19881287,0.28725225,0.40239759
20139,0,USKansasOsage,Kansas,Osage,2021-01-05 22:05:41.335699,2020-09-19 00:00:00.000000,0.53247369,0.98637914,1.56794696,84,157,250,40,79,120,0.25100610,0.49699308,0.75453935,0.19632365,0.28923386,0.38385226
20139,0,USKansasOsage,Kansas,Osage,2021-01-05 22:05:41.335699,2020-09-20 00:00:00.000000,0.54659632,1.01992862,1.59700299,87,162,254,40,80,122,0.25519637,0.50276943,0.76601078,0.20026675,0.29270360,0.37203420
20139,0,USKansasOsage,Kansas,Osage,2021-01-05 22:05:41.335699,2020-09-21 00:00:00.000000,0.57425322,1.05276037,1.62462716,91,167,259,42,81,124,0.26559959,0.51369219,0.77807180,0.19857969,0.29811206,0.41143308
20139,0,USKansasOsage,Kansas,Osage,2021-01-05 22:05:41.335699,2020-09-22 00:00:00.000000,0.60632441,1.07673068,1.65143306,96,171,263,44,83,126,0.28059592,0.52634900,0.79153555,0.19787686,0.29876298,0.44060484
20139,0,USKansasOsage,Kansas,Osage,2021-01-05 22:05:41.335699,2020-09-23 00:00:00.000000,0.64140230,1.10316361,1.67611636,102,175,267,47,85,128,0.29484887,0.53878009,0.80694040,0.19641953,0.30093178,0.45465071
20139,0,USKansasOsage,Kansas,Osage,2021-01-05 22:05:41.335699,2020-09-24 00:00:00.000000,0.67864358,1.13585745,1.69778498,108,181,270,49,88,131,0.30890708,0.55776895,0.82348322,0.19625540,0.30271509,0.46052027
20139,0,USKansasOsage,Kansas,Osage,2021-01-05 22:05:41.335699,2020-09-25 00:00:00.000000,0.70414291,1.17023595,1.71636503,112,186,273,51,91,131,0.31998876,0.57493754,0.82701209,0.19737172,0.30551077,0.46312040
20139,0,USKansasOsage,Kansas,Osage,2021-01-05 22:05:41.335699,2020-09-26 00:00:00.000000,0.70208800,1.20574478,1.73242374,111,192,276,51,95,133,0.32374941,0.59697307,0.83973826,0.19787855,0.30761659,0.46580703
20139,0,USKansasOsage,Kansas,Osage,2021-01-05 22:05:41.335699,2020-09-27 00:00:00.000000,0.70131477,1.25089490,1.74668852,111,199,278,54,98,137,0.34128575,0.61739915,0.85901907,0.20038880,0.31077665,0.47106402
20139,0,USKansasOsage,Kansas,Osage,2021-01-05 22:05:41.335699,2020-09-28 00:00:00.000000,0.70862338,1.29143223,1.76153612,113,205,280,56,101,141,0.35570114,0.63442526,0.88603811,0.20948132,0.31187661,0.47333468
20139,0,USKansasOsage,Kansas,Osage,2021-01-05 22:05:41.335699,2020-09-29 00:00:00.000000,0.75093562,1.34443625,1.80242460,119,214,287,57,105,146,0.36212851,0.65899864,0.91957507,0.22564888,0.31485220,0.48639754
20139,0,USKansasOsage,Kansas,Osage,2021-01-05 22:05:41.335699,2020-09-30 00:00:00.000000,0.78832961,1.37485166,1.87318224,125,219,298,58,107,153,0.36783068,0.67609814,0.96034702,0.23816418,0.31800341,0.50479027
20139,0,USKansasOsage,Kansas,Osage,2021-01-05 22:05:41.335699,2020-10-01 00:00:00.000000,0.81584324,1.42865126,1.96965859,130,227,314,59,110,157,0.37304586,0.69444767,0.98553324,0.23808888,0.32058775,0.52841262
20139,0,USKansasOsage,Kansas,Osage,2021-01-05 22:05:41.335699,2020-10-02 00:00:00.000000,0.85361438,1.47411507,2.08112366,136,235,331,59,113,161,0.37312091,0.71094914,1.01169915,0.23885222,0.32443340,0.53083436
20139,0,USKansasOsage,Kansas,Osage,2021-01-05 22:05:41.335699,2020-10-03 00:00:00.000000,0.88111785,1.53560514,2.23318131,140,244,356,59,116,166,0.37557428,0.73145894,1.04194509,0.24574641,0.33042508,0.51454878
20139,0,USKansasOsage,Kansas,Osage,2021-01-05 22:05:41.335699,2020-10-04 00:00:00.000000,0.89007396,1.56734631,2.37999330,141,249,379,61,120,171,0.38677648,0.75684076,1.07712642,0.25731768,0.33980336,0.53179045
20139,0,USKansasOsage,Kansas,Osage,2021-01-05 22:05:41.335699,2020-10-05 00:00:00.000000,0.91567576,1.62731815,2.45475962,146,259,391,63,125,178,0.40119739,0.78765119,1.11806125,0.25958020,0.36274526,0.56402437
20139,0,USKansasOsage,Kansas,Osage,2021-01-05 22:05:41.335699,2020-10-06 00:00:00.000000,0.94761836,1.71037162,2.59196944,151,272,413,66,129,186,0.41714600,0.81179785,1.16867086,0.26463433,0.36913881,0.57003001
20139,0,USKansasOsage,Kansas,Osage,2021-01-05 22:05:41.335699,2020-10-07 00:00:00.000000,0.98559922,1.78043079,2.74218033,157,283,437,69,132,194,0.43466556,0.83115052,1.21688224,0.26391017,0.38707782,0.57009676
20139,0,USKansasOsage,Kansas,Osage,2021-01-05 22:05:41.335699,2020-10-08 00:00:00.000000,1.02867298,1.84459422,2.88926431,164,294,460,72,136,201,0.45291952,0.85673149,1.26363584,0.26479372,0.39345863,0.56874508
20139,0,USKansasOsage,Kansas,Osage,2021-01-05 22:05:41.335699,2020-10-09 00:00:00.000000,1.07746544,1.93440074,3.01417240,171,308,480,75,142,210,0.47171791,0.89257452,1.31850253,0.26793310,0.39992716,0.55465020
20139,0,USKansasOsage,Kansas,Osage,2021-01-05 22:05:41.335699,2020-10-10 00:00:00.000000,1.12575678,1.99880295,3.14920069,179,318,502,78,147,221,0.49300553,0.92281172,1.39022435,0.27547496,0.41008417,0.59038282
20139,0,USKansasOsage,Kansas,Osage,2021-01-05 22:05:41.335699,2020-10-11 00:00:00.000000,1.17525318,2.10233088,3.26303966,187,335,520,82,155,234,0.51442878,0.97672333,1.47203125,0.28524727,0.42319536,0.61080295
20139,0,USKansasOsage,Kansas,Osage,2021-01-05 22:05:41.335699,2020-10-12 00:00:00.000000,1.22792069,2.24272302,3.36033767,195,357,535,85,164,248,0.53597610,1.03266678,1.55608169,0.29796829,0.43449441,0.65491928
20139,0,USKansasOsage,Kansas,Osage,2021-01-05 22:05:41.335699,2020-10-13 00:00:00.000000,1.28832000,2.39462262,3.46045667,205,381,551,89,174,261,0.56028676,1.09122133,1.63911637,0.31355786,0.44038807,0.67461047
20139,0,USKansasOsage,Kansas,Osage,2021-01-05 22:05:41.335699,2020-10-14 00:00:00.000000,1.35613641,2.55327924,3.63106308,216,407,579,93,184,274,0.58575629,1.15685643,1.71996410,0.33629931,0.44028757,0.67761877
20139,0,USKansasOsage,Kansas,Osage,2021-01-05 22:05:41.335699,2020-10-15 00:00:00.000000,1.42067388,2.70053692,3.83632379,226,430,611,97,193,287,0.61347180,1.21194591,1.80204372,0.35173774,0.44541070,0.64854447
20139,0,USKansasOsage,Kansas,Osage,2021-01-05 22:05:41.335699,2020-10-16 00:00:00.000000,1.49882170,2.83546586,4.07722102,239,452,650,102,202,303,0.64519362,1.26741750,1.90541652,0.35832005,0.47440308,0.64925763
20139,0,USKansasOsage,Kansas,Osage,2021-01-05 22:05:41.335699,2020-10-17 00:00:00.000000,1.60055505,2.98291546,4.35440865,255,475,694,108,211,321,0.68062871,1.32838302,2.01282240,0.35729611,0.49163210,0.66296592
20139,0,USKansasOsage,Kansas,Osage,2021-01-05 22:05:41.335699,2020-10-18 00:00:00.000000,1.67927769,3.15470645,4.62667859,267,503,737,114,224,338,0.71921514,1.40714280,2.12395133,0.35619386,0.50872557,0.66788271
20139,0,USKansasOsage,Kansas,Osage,2021-01-05 22:05:41.335699,2020-10-19 00:00:00.000000,1.85137788,3.38313643,4.92916267,295,539,786,121,238,357,0.76260883,1.49591960,2.23862001,0.35538025,0.54329115,0.66931363
20139,0,USKansasOsage,Kansas,Osage,2021-01-05 22:05:41.335699,2020-10-20 00:00:00.000000,2.04450443,3.60917443,5.32381684,326,575,849,130,252,376,0.81715141,1.58518496,2.35874103,0.36708515,0.54800189,0.70040632
20139,0,USKansasOsage,Kansas,Osage,2021-01-05 22:05:41.335699,2020-10-21 00:00:00.000000,2.22939168,3.84147884,5.61091075,355,612,894,141,268,409,0.88621110,1.68643675,2.56752060,0.40037524,0.55911635,0.75506674
20139,0,USKansasOsage,Kansas,Osage,2021-01-05 22:05:41.335699,2020-10-22 00:00:00.000000,2.43747523,4.11624109,5.99503560,388,656,956,157,285,445,0.98618514,1.78748814,2.79075846,0.42170958,0.56867614,0.80411188
20139,0,USKansasOsage,Kansas,Osage,2021-01-05 22:05:41.335699,2020-10-23 00:00:00.000000,2.67695793,4.44806863,6.46364075,426,709,1030,172,304,471,1.08331162,1.90628015,2.95899668,0.42917283,0.59207141,0.81476395
20139,0,USKansasOsage,Kansas,Osage,2021-01-05 22:05:41.335699,2020-10-24 00:00:00.000000,2.95416648,4.81578199,6.98333666,471,768,1113,187,326,500,1.17874559,2.04956666,3.14047535,0.43267882,0.61080719,0.81962701
20139,0,USKansasOsage,Kansas,Osage,2021-01-05 22:05:41.335699,2020-10-25 00:00:00.000000,3.23854893,5.22309445,7.51788787,516,833,1199,204,354,534,1.28378414,2.22100645,3.34854829,0.43551619,0.62908773,0.83189282
20139,0,USKansasOsage,Kansas,Osage,2021-01-05 22:05:41.335699,2020-10-26 00:00:00.000000,3.48432004,5.69222049,8.09327736,555,907,1290,223,380,571,1.40043885,2.38562384,3.58258253,0.44967135,0.63956492,0.84738224
20139,0,USKansasOsage,Kansas,Osage,2021-01-05 22:05:41.335699,2020-10-27 00:00:00.000000,3.82171098,6.20537267,8.84276550,609,989,1410,244,417,612,1.53496417,2.61855222,3.84187652,0.46583515,0.65676838,0.85995878
20139,0,USKansasOsage,Kansas,Osage,2021-01-05 22:05:41.335699,2020-10-28 00:00:00.000000,4.15004804,6.73004810,9.68723081,661,1073,1545,268,451,652,1.68215353,2.83178716,4.09279920,0.47577954,0.66342907,0.87030502
20139,0,USKansasOsage,Kansas,Osage,2021-01-05 22:05:41.335699,2020-10-29 00:00:00.000000,4.51310131,7.30046879,10.62097969,719,1164,1693,296,486,685,1.85696827,3.04826391,4.29880685,0.49144722,0.66899500,0.88973031
20139,0,USKansasOsage,Kansas,Osage,2021-01-05 22:05:41.335699,2020-10-30 00:00:00.000000,4.93460984,7.91191068,11.61703042,787,1261,1852,320,526,719,2.00800957,3.30038659,4.51192060,0.52399636,0.67290903,0.90551359
20139,0,USKansasOsage,Kansas,Osage,2021-01-05 22:05:41.335699,2020-10-31 00:00:00.000000,5.45173079,8.64535831,12.65662104,869,1378,2018,348,569,772,2.18642979,3.57074914,4.84294250,0.53439981,0.68240038,0.91900871
20139,0,USKansasOsage,Kansas,Osage,2021-01-05 22:05:41.335699,2020-11-01 00:00:00.000000,5.98894067,9.36884211,13.69275580,955,1494,2183,382,613,844,2.40050152,3.84633472,5.29327853,0.53706974,0.70092255,0.93689533
20139,0,USKansasOsage,Kansas,Osage,2021-01-05 22:05:41.335699,2020-11-02 00:00:00.000000,6.52072970,10.02471408,14.68271653,1039,1598,2341,422,664,923,2.64871249,4.16712102,5.79270677,0.53758370,0.70558346,0.94547409
20139,0,USKansasOsage,Kansas,Osage,2021-01-05 22:05:41.335699,2020-11-03 00:00:00.000000,7.11336843,10.56595814,15.66695289,1134,1685,2498,467,720,994,2.93008842,4.51930901,6.23760127,0.53723660,0.70716939,0.94028251
20139,0,USKansasOsage,Kansas,Osage,2021-01-05 22:05:41.335699,2020-11-04 00:00:00.000000,7.76786718,11.31177498,16.67188358,1238,1804,2658,517,780,1072,3.24210216,4.89177520,6.72518233,0.53540656,0.70589671,0.93274818
20139,0,USKansasOsage,Kansas,Osage,2021-01-05 22:05:41.335699,2020-11-05 00:00:00.000000,8.43872484,12.28570775,17.70411864,1345,1959,2823,571,836,1153,3.58411737,5.24350960,7.23352957,0.53188866,0.70145756,0.93557897
20139,0,USKansasOsage,Kansas,Osage,2021-01-05 22:05:41.335699,2020-11-06 00:00:00.000000,9.11025652,13.23236206,18.76108724,1452,2110,2992,619,904,1247,3.88356027,5.66821126,7.81981434,0.51883409,0.69256155,0.93742232
20139,0,USKansasOsage,Kansas,Osage,2021-01-05 22:05:41.335699,2020-11-07 00:00:00.000000,9.81547901,13.99762502,19.83738851,1565,2232,3163,657,981,1345,4.12488965,6.15221592,8.43753234,0.51001073,0.68280230,0.96279548
20139,0,USKansasOsage,Kansas,Osage,2021-01-05 22:05:41.335699,2020-11-08 00:00:00.000000,10.41796080,14.89837484,20.92683856,1661,2376,3337,700,1048,1448,4.39358504,6.57684919,9.08270705,0.49779300,0.66126603,0.94823980
20139,0,USKansasOsage,Kansas,Osage,2021-01-05 22:05:41.335699,2020-11-09 00:00:00.000000,10.98726706,15.81522288,22.30404268,1752,2522,3557,758,1119,1555,4.75620409,7.01735268,9.75302435,0.49239287,0.64588185,0.90789839
20139,0,USKansasOsage,Kansas,Osage,2021-01-05 22:05:41.335699,2020-11-10 00:00:00.000000,11.54832938,16.58739798,23.81597706,1841,2645,3798,818,1200,1650,5.13477026,7.52402574,10.34642884,0.48934163,0.63806865,0.85608936
20139,0,USKansasOsage,Kansas,Osage,2021-01-05 22:05:41.335699,2020-11-11 00:00:00.000000,12.18098922,17.31441424,25.34379411,1942,2761,4042,881,1270,1774,5.52816320,7.96581461,11.12836046,0.47318186,0.61231191,0.83716614
20139,0,USKansasOsage,Kansas,Osage,2021-01-05 22:05:41.335699,2020-11-12 00:00:00.000000,12.98887200,17.99322410,26.67416532,2071,2869,4254,945,1335,1894,5.92983390,8.37091442,11.88090663,0.45750910,0.59494452,0.82950579
20139,0,USKansasOsage,Kansas,Osage,2021-01-05 22:05:41.335699,2020-11-13 00:00:00.000000,13.74030069,18.77715467,27.52642837,2191,2994,4390,993,1412,2002,6.22983180,8.85584558,12.55377688,0.44331804,0.56173866,0.78164441
20139,0,USKansasOsage,Kansas,Osage,2021-01-05 22:05:41.335699,2020-11-14 00:00:00.000000,14.37560814,19.46317126,28.27141910,2292,3104,4509,1041,1474,2095,6.52893567,9.24488528,13.13828753,0.42294732,0.53644729,0.77334359
20139,0,USKansasOsage,Kansas,Osage,2021-01-05 22:05:41.335699,2020-11-15 00:00:00.000000,14.93149730,20.03324514,28.96086602,2381,3195,4618,1088,1532,2172,6.82546220,9.60791108,13.62248142,0.39952466,0.50870948,0.75613159
20139,0,USKansasOsage,Kansas,Osage,2021-01-05 22:05:41.335699,2020-11-16 00:00:00.000000,15.71477114,20.24102060,29.58122799,2506,3228,4717,1135,1582,2231,7.11728774,9.91963999,13.98918259,0.38421018,0.49306374,0.74266610
20139,0,USKansasOsage,Kansas,Osage,2021-01-05 22:05:41.335699,2020-11-17 00:00:00.000000,16.18412304,20.46307647,30.02607891,2581,3263,4788,1180,1618,2275,7.40357559,10.14622071,14.26741049,0.37275904,0.47376022,0.72170904
20139,0,USKansasOsage,Kansas,Osage,2021-01-05 22:05:41.335699,2020-11-18 00:00:00.000000,16.58566831,20.85560938,30.19440907,2645,3326,4815,1199,1647,2308,7.52335984,10.32863366,14.47200745,0.36062722,0.46301608,0.71970813
20139,0,USKansasOsage,Kansas,Osage,2021-01-05 22:05:41.335699,2020-11-19 00:00:00.000000,16.58074455,21.08180890,30.12032907,2644,3362,4803,1212,1676,2330,7.60089899,10.51116740,14.61368854,0.35557073,0.46030149,0.69875642
20139,0,USKansasOsage,Kansas,Osage,2021-01-05 22:05:41.335699,2020-11-20 00:00:00.000000,16.51172916,21.12302616,29.91159366,2633,3368,4770,1220,1705,2344,7.65339146,10.69427145,14.69931009,0.34686030,0.45254544,0.69766583
20139,0,USKansasOsage,Kansas,Osage,2021-01-05 22:05:41.335699,2020-11-21 00:00:00.000000,16.42421736,21.20080734,29.72975265,2619,3381,4741,1223,1732,2349,7.67391925,10.86235668,14.73238116,0.34291151,0.45494598,0.69526956
20139,0,USKansasOsage,Kansas,Osage,2021-01-05 22:05:41.335699,2020-11-22 00:00:00.000000,16.12313887,21.01600000,29.87980948,2571,3351,4765,1223,1748,2346,7.67164547,10.96489231,14.71410176,0.32633808,0.44404118,0.69012135
20139,0,USKansasOsage,Kansas,Osage,2021-01-05 22:05:41.335699,2020-11-23 00:00:00.000000,15.86834930,20.87727797,29.96095549,2530,3329,4778,1235,1764,2350,7.74586568,11.06180527,14.73461000,0.31413522,0.44289802,0.67515704
20139,0,USKansasOsage,Kansas,Osage,2021-01-05 22:05:41.335699,2020-11-24 00:00:00.000000,15.59916736,20.75273013,29.97716022,2487,3309,4781,1238,1761,2387,7.76686979,11.04369124,14.96821639,0.29874356,0.44360774,0.67120010
20139,0,USKansasOsage,Kansas,Osage,2021-01-05 22:05:41.335699,2020-11-25 00:00:00.000000,15.43835024,20.75913097,29.93011361,2462,3310,4773,1227,1762,2415,7.69539318,11.05250080,15.14410964,0.29923339,0.44966719,0.67338978
20139,0,USKansasOsage,Kansas,Osage,2021-01-05 22:05:41.335699,2020-11-26 00:00:00.000000,15.25449128,20.52229239,29.82465496,2432,3273,4756,1211,1763,2432,7.59766668,11.05407285,15.25365831,0.30471732,0.45144031,0.68878797
20139,0,USKansasOsage,Kansas,Osage,2021-01-05 22:05:41.335699,2020-11-27 00:00:00.000000,15.10880720,20.29008514,29.68063327,2409,3236,4733,1218,1754,2439,7.63942740,10.99777972,15.29653643,0.32275910,0.44945935,0.70214779
20139,0,USKansasOsage,Kansas,Osage,2021-01-05 22:05:41.335699,2020-11-28 00:00:00.000000,14.83102140,20.13770875,29.51907991,2365,3211,4707,1207,1751,2436,7.56931793,10.98499450,15.27820983,0.33996696,0.46355122,0.70637022
20139,0,USKansasOsage,Kansas,Osage,2021-01-05 22:05:41.335699,2020-11-29 00:00:00.000000,14.50834153,19.77894981,29.31795661,2313,3154,4675,1190,1739,2425,7.46660478,10.90636075,15.20564951,0.34739644,0.47271276,0.70793970
20139,0,USKansasOsage,Kansas,Osage,2021-01-05 22:05:41.335699,2020-11-30 00:00:00.000000,14.29221296,19.65739405,29.10181680,2279,3135,4641,1161,1719,2410,7.28483722,10.77928057,15.11566710,0.34682457,0.48819264,0.70980589
20139,0,USKansasOsage,Kansas,Osage,2021-01-05 22:05:41.335699,2020-12-01 00:00:00.000000,14.09764617,19.24160009,28.82938142,2248,3068,4597,1134,1705,2410,7.11153950,10.69208067,15.11487302,0.35497066,0.49845021,0.71319949
20139,0,USKansasOsage,Kansas,Osage,2021-01-05 22:05:41.335699,2020-12-02 00:00:00.000000,13.91085057,18.85788845,28.50646541,2218,3007,4546,1107,1667,2409,6.94574714,10.45473102,15.10628374,0.34762120,0.50824339,0.76327660
20139,0,USKansasOsage,Kansas,Osage,2021-01-05 22:05:41.335699,2020-12-03 00:00:00.000000,13.72700959,18.64889322,28.14631080,2189,2974,4489,1082,1642,2406,6.78567292,10.29763882,15.08729115,0.34495221,0.52993696,0.85765729
20139,0,USKansasOsage,Kansas,Osage,2021-01-05 22:05:41.335699,2020-12-04 00:00:00.000000,13.53758146,18.51671368,27.78227162,2159,2953,4430,1057,1621,2357,6.62939225,10.16628233,14.78153571,0.36049516,0.53932338,0.93777799
20139,0,USKansasOsage,Kansas,Osage,2021-01-05 22:05:41.335699,2020-12-05 00:00:00.000000,13.51407644,18.38003087,27.45013431,2155,2931,4378,1032,1595,2307,6.47555885,10.00360918,14.46771686,0.38389108,0.56620764,0.98421720
20139,0,USKansasOsage,Kansas,Osage,2021-01-05 22:05:41.335699,2020-12-06 00:00:00.000000,13.52338884,18.10903276,27.11713235,2156,2888,4324,1019,1591,2260,6.39042356,9.97674280,14.17637385,0.40481698,0.58711502,1.01320478
20139,0,USKansasOsage,Kansas,Osage,2021-01-05 22:05:41.335699,2020-12-07 00:00:00.000000,13.33222972,17.93968060,26.72731890,2126,2861,4262,1009,1576,2243,6.32665433,9.88334089,14.06842443,0.41350346,0.61051965,1.02002291
20139,0,USKansasOsage,Kansas,Osage,2021-01-05 22:05:41.335699,2020-12-08 00:00:00.000000,12.87500343,17.78580706,26.29261288,2053,2836,4193,999,1562,2224,6.26832453,9.79424530,13.94853951,0.43019101,0.64535476,1.02079694
20139,0,USKansasOsage,Kansas,Osage,2021-01-05 22:05:41.335699,2020-12-09 00:00:00.000000,12.43439413,17.56564072,25.81499595,1983,2801,4117,991,1552,2201,6.21863996,9.73503933,13.80598443,0.43796634,0.65754208,1.01099744
20139,0,USKansasOsage,Kansas,Osage,2021-01-05 22:05:41.335699,2020-12-10 00:00:00.000000,12.33860842,17.27624988,25.30522928,1967,2755,4035,986,1538,2176,6.18266116,9.64586452,13.64492737,0.44215345,0.66984884,1.04814856
20139,0,USKansasOsage,Kansas,Osage,2021-01-05 22:05:41.335699,2020-12-11 00:00:00.000000,12.44295131,16.94568208,24.69657768,1984,2702,3938,983,1513,2148,6.16864586,9.48880838,13.47142067,0.46153584,0.68507110,1.12249379
20139,0,USKansasOsage,Kansas,Osage,2021-01-05 22:05:41.335699,2020-12-12 00:00:00.000000,12.52241529,16.71463108,23.88548652,1997,2665,3809,979,1490,2120,6.13888622,9.34287626,13.29287048,0.47040702,0.70954558,1.19382712
20139,0,USKansasOsage,Kansas,Osage,2021-01-05 22:05:41.335699,2020-12-13 00:00:00.000000,12.48629645,16.41821178,23.22260253,1991,2618,3703,975,1462,2091,6.11836761,9.16852383,13.11650788,0.47458459,0.73624727,1.23718387
20139,0,USKansasOsage,Kansas,Osage,2021-01-05 22:05:41.335699,2020-12-14 00:00:00.000000,12.44480566,15.97690315,22.94314753,1984,2548,3659,972,1437,2064,6.09800231,9.01326533,12.94699961,0.47914056,0.74497681,1.24240309
20139,0,USKansasOsage,Kansas,Osage,2021-01-05 22:05:41.335699,2020-12-15 00:00:00.000000,12.14671605,15.68887808,22.65082095,1937,2502,3612,968,1417,2039,6.07482120,8.88743764,12.78650998,0.48395431,0.73974810,1.24462517
20139,0,USKansasOsage,Kansas,Osage,2021-01-05 22:05:41.335699,2020-12-16 00:00:00.000000,11.83807436,15.28752046,22.19137045,1888,2438,3539,964,1393,2014,6.04518444,8.73486020,12.63183244,0.48908931,0.74335160,1.25624632
20139,0,USKansasOsage,Kansas,Osage,2021-01-05 22:05:41.335699,2020-12-17 00:00:00.000000,11.64808672,14.75074473,21.60884093,1857,2352,3446,944,1373,1990,5.92322814,8.61426566,12.47829265,0.49615092,0.74747142,1.25994810
20139,0,USKansasOsage,Kansas,Osage,2021-01-05 22:05:41.335699,2020-12-18 00:00:00.000000,11.25928691,14.32928521,21.00400437,1795,2285,3349,930,1345,1965,5.83165576,8.43912082,12.32150868,0.49181228,0.74831956,1.27952557
20139,0,USKansasOsage,Kansas,Osage,2021-01-05 22:05:41.335699,2020-12-19 00:00:00.000000,10.86589984,13.88341354,20.38011561,1733,2214,3250,913,1298,1939,5.72895381,8.13932741,12.15878505,0.48321431,0.75536371,1.37400709
20139,0,USKansasOsage,Kansas,Osage,2021-01-05 22:05:41.335699,2020-12-20 00:00:00.000000,10.46963744,13.56563374,19.73972814,1669,2163,3148,895,1248,1912,5.61682281,7.82999314,11.98887604,0.48015052,0.75993604,1.42452008
20139,0,USKansasOsage,Kansas,Osage,2021-01-05 22:05:41.335699,2020-12-21 00:00:00.000000,10.11780313,13.10819741,19.10530070,1613,2090,3047,863,1217,1884,5.41553169,7.63079172,11.81637329,0.47890518,0.77998011,1.49811609
20139,0,USKansasOsage,Kansas,Osage,2021-01-05 22:05:41.335699,2020-12-22 00:00:00.000000,9.77009163,12.68964917,18.59316625,1558,2023,2965,824,1194,1856,5.16749001,7.48878203,11.64147919,0.46775702,0.78057411,1.55875177
20139,0,USKansasOsage,Kansas,Osage,2021-01-05 22:05:41.335699,2020-12-23 00:00:00.000000,9.41038525,12.26293181,18.24487491,1500,1955,2909,785,1159,1828,4.92381002,7.27072578,11.46214988,0.46247742,0.77651719,1.56759370
20139,0,USKansasOsage,Kansas,Osage,2021-01-05 22:05:41.335699,2020-12-24 00:00:00.000000,9.05920013,11.88693006,17.86409384,1444,1895,2849,747,1123,1798,4.68524126,7.04252161,11.27474175,0.45023664,0.76299247,1.55734227
20139,0,USKansasOsage,Kansas,Osage,2021-01-05 22:05:41.335699,2020-12-25 00:00:00.000000,8.61547304,11.40930766,17.45243921,1374,1819,2783,710,1083,1766,4.45245212,6.79307687,11.07627379,0.41329459,0.76614594,1.59533625
20139,0,USKansasOsage,Kansas,Osage,2021-01-05 22:05:41.335699,2020-12-26 00:00:00.000000,8.10667082,10.92672338,17.01159920,1292,1742,2713,674,1043,1732,4.22602241,6.54117500,10.86491333,0.40940347,0.78140206,1.70082137
20139,0,USKansasOsage,Kansas,Osage,2021-01-05 22:05:41.335699,2020-12-27 00:00:00.000000,7.61264537,10.47001843,16.54251039,1214,1669,2638,639,1009,1696,4.00762472,6.33037226,10.63980368,0.39400351,0.76460467,1.80717856
20139,0,USKansasOsage,Kansas,Osage,2021-01-05 22:05:41.335699,2020-12-28 00:00:00.000000,7.18107026,10.01748634,16.02539050,1145,1597,2555,610,973,1658,3.82939290,6.10392670,10.40036843,0.37601655,0.74949451,1.85067957
20139,0,USKansasOsage,Kansas,Osage,2021-01-05 22:05:41.335699,2020-12-29 00:00:00.000000,6.72661364,9.60573119,15.40369745,1072,1532,2456,582,942,1617,3.65134100,5.90914749,10.14278755,0.37125126,0.73611447,1.86528284
20139,0,USKansasOsage,Kansas,Osage,2021-01-05 22:05:41.335699,2020-12-30 00:00:00.000000,6.24068080,9.26406907,14.72355188,995,1477,2348,552,905,1571,3.46699745,5.67640045,9.85508531,0.37142532,0.73245634,1.87378827
20139,0,USKansasOsage,Kansas,Osage,2021-01-05 22:05:41.335699,2020-12-31 00:00:00.000000,5.83484590,8.87365729,14.03272613,930,1415,2238,517,870,1520,3.24450536,5.45934918,9.53588960,0.37442477,0.72820725,1.88384083
20139,0,USKansasOsage,Kansas,Osage,2021-01-05 22:05:41.335699,2021-01-01 00:00:00.000000,5.46475344,8.49876665,13.34381616,871,1355,2128,483,834,1466,3.02920360,5.22936899,9.19208914,0.35040326,0.73388327,1.91071509
20139,0,USKansasOsage,Kansas,Osage,2021-01-05 22:05:41.335699,2021-01-02 00:00:00.000000,5.11634603,8.09972720,12.66568781,816,1291,2020,450,797,1408,2.82623006,5.00230215,8.83085060,0.32823519,0.72537977,1.88473859
20139,0,USKansasOsage,Kansas,Osage,2021-01-05 22:05:41.335699,2021-01-03 00:00:00.000000,4.79000475,7.71367207,12.00420034,763,1230,1914,423,764,1349,2.65555822,4.79095310,8.45879913,0.32269835,0.72599842,1.85412790
20139,0,USKansasOsage,Kansas,Osage,2021-01-05 22:05:41.335699,2021-01-04 00:00:00.000000,4.47212156,7.34888888,11.36285516,713,1172,1812,399,728,1288,2.50546992,4.56597155,8.08166691,0.32271571,0.71786891,1.86989805
20139,0,USKansasOsage,Kansas,Osage,2021-01-05 22:05:41.335699,2021-01-05 00:00:00.000000,4.11099558,7.00844256,11.00764360,655,1117,1755,377,691,1228,2.36912555,4.33781953,7.70416224,0.32199600,0.72080102,1.88916794
20139,0,USKansasOsage,Kansas,Osage,2021-01-05 22:05:41.335699,2021-01-06 00:00:00.000000,3.77596731,6.66727184,10.70840022,602,1063,1707,356,653,1169,2.23771293,4.09942887,7.33003045,0.32096024,0.71411734,1.90175789
20139,0,USKansasOsage,Kansas,Osage,2021-01-05 22:05:41.335699,2021-01-07 00:00:00.000000,3.46587028,6.26344781,10.40056914,552,998,1658,336,617,1110,2.11142709,3.87003946,6.96218835,0.31987939,0.71411766,1.90911998
20139,0,USKansasOsage,Kansas,Osage,2021-01-05 22:05:41.335699,2021-01-08 00:00:00.000000,3.17937823,5.87930055,10.08584364,507,937,1608,315,582,1053,1.97879496,3.64989489,6.60286654,0.31889049,0.71411767,1.91313585
20139,0,USKansasOsage,Kansas,Osage,2021-01-05 22:05:41.335699,2021-01-09 00:00:00.000000,2.91509535,5.53307901,9.76587449,464,882,1557,291,549,997,1.83078620,3.44790189,6.25373641,0.31804578,0.71411766,1.91524187
20139,0,USKansasOsage,Kansas,Osage,2021-01-05 22:05:41.335699,2021-01-10 00:00:00.000000,2.67161006,5.20836262,9.44225125,426,830,1505,270,519,945,1.69315857,3.25943954,5.92909157,0.31735251,0.71411766,1.91632330
20139,0,USKansasOsage,Kansas,Osage,2021-01-05 22:05:41.335699,2021-01-11 00:00:00.000000,2.44752843,4.92498573,9.11648738,390,785,1453,249,491,917,1.56505785,3.07860077,5.75322753,0.31679743,0.71411766,1.91687258
20139,0,USKansasOsage,Kansas,Osage,2021-01-05 22:05:41.335699,2021-01-12 00:00:00.000000,2.25005926,4.62371276,8.79000883,358,737,1401,230,462,889,1.44568353,2.90033401,5.57434591,0.31636002,0.71411766,1.91715001
20139,0,USKansasOsage,Kansas,Osage,2021-01-05 22:05:41.335699,2021-01-13 00:00:00.000000,2.07522747,4.33639095,8.46414543,330,691,1349,212,434,860,1.33494820,2.72694430,5.39327443,0.31601896,0.71411766,1.91728975
20139,0,USKansasOsage,Kansas,Osage,2021-01-05 22:05:41.335699,2021-01-14 00:00:00.000000,1.91347732,4.07096420,8.14012506,305,649,1298,196,408,831,1.23228847,2.56271940,5.21081867,0.31575492,0.71411766,1.91736003
20139,0,USKansasOsage,Kansas,Osage,2021-01-05 22:05:41.335699,2021-01-15 00:00:00.000000,1.76390102,3.81876926,7.81907003,281,609,1247,181,384,801,1.13716984,2.40800334,5.02775053,0.31555150,0.71411766,1.91739536
20139,0,USKansasOsage,Kansas,Osage,2021-01-05 22:05:41.335699,2021-01-16 00:00:00.000000,1.62564418,3.58075186,7.50199551,259,571,1196,167,362,772,1.04908630,2.26982395,4.84479974,0.31539531,0.71411766,1.91741310
20139,0,USKansasOsage,Kansas,Osage,2021-01-05 22:05:41.335699,2021-01-17 00:00:00.000000,1.49790382,3.35532133,7.18980972,238,535,1146,154,341,743,0.96755958,2.13846504,4.66264781,0.31527568,0.71411766,1.91742202
