FIPS,HR_UID,nameid,province,region,analysisTime,dates,pointprevalence_025,pointprevalence_50,pointprevalence_975,pointinfections_025,pointinfections_50,pointinfections_975,pointinfectious_025,pointinfectious_50,pointinfectious_975,pointinfectiousprevalence_05,pointinfectiousprevalence_50,pointinfectiousprevalence_95,infectrate_025,infectrate_50,infectrate_975
38043,0,USNorthDakotaKidder,North Dakota,Kidder,2021-01-05 13:44:01.791146,2020-03-09 00:00:00.000000,0.00553676,0.04983177,0.21391281,0,1,5,0,0,2,0.00282028,0.03012071,0.11798894,0.38930353,0.52510239,0.66169758
38043,0,USNorthDakotaKidder,North Dakota,Kidder,2021-01-05 13:44:01.791146,2020-03-10 00:00:00.000000,0.00681194,0.05802217,0.23460674,0,1,5,0,0,3,0.00281343,0.02940306,0.12153888,0.38929963,0.52509585,0.66169654
38043,0,USNorthDakotaKidder,North Dakota,Kidder,2021-01-05 13:44:01.791146,2020-03-11 00:00:00.000000,0.00782852,0.06578447,0.25158167,0,1,6,0,0,3,0.00303786,0.03057286,0.12720772,0.38929189,0.52508027,0.66169464
38043,0,USNorthDakotaKidder,North Dakota,Kidder,2021-01-05 13:44:01.791146,2020-03-12 00:00:00.000000,0.00882071,0.07225696,0.26317443,0,1,6,0,0,3,0.00340816,0.03287599,0.13406944,0.38927629,0.52504284,0.66169097
38043,0,USNorthDakotaKidder,North Dakota,Kidder,2021-01-05 13:44:01.791146,2020-03-13 00:00:00.000000,0.00986871,0.07919020,0.28245543,0,1,7,0,0,3,0.00387657,0.03624671,0.14141031,0.38924454,0.52495198,0.66168316
38043,0,USNorthDakotaKidder,North Dakota,Kidder,2021-01-05 13:44:01.791146,2020-03-14 00:00:00.000000,0.01099011,0.08646320,0.30726001,0,2,7,0,0,3,0.00441721,0.04000031,0.14891524,0.38584502,0.52472950,0.66166341
38043,0,USNorthDakotaKidder,North Dakota,Kidder,2021-01-05 13:44:01.791146,2020-03-15 00:00:00.000000,0.01208757,0.09318051,0.33389087,0,2,8,0,1,3,0.00501637,0.04386947,0.15646615,0.37855291,0.51994383,0.66160155
38043,0,USNorthDakotaKidder,North Dakota,Kidder,2021-01-05 13:44:01.791146,2020-03-16 00:00:00.000000,0.01302293,0.09922049,0.36257668,0,2,8,0,1,4,0.00559665,0.04744247,0.16403856,0.36870347,0.50573369,0.66094381
38043,0,USNorthDakotaKidder,North Dakota,Kidder,2021-01-05 13:44:01.791146,2020-03-17 00:00:00.000000,0.01401918,0.10470835,0.39353031,0,2,9,0,1,4,0.00607682,0.05132718,0.17427429,0.36821771,0.50544956,0.66032777
38043,0,USNorthDakotaKidder,North Dakota,Kidder,2021-01-05 13:44:01.791146,2020-03-18 00:00:00.000000,0.01508072,0.10971854,0.42693288,0,2,10,0,1,4,0.00658473,0.05532772,0.18953638,0.34689618,0.50415542,0.65723387
38043,0,USNorthDakotaKidder,North Dakota,Kidder,2021-01-05 13:44:01.791146,2020-03-19 00:00:00.000000,0.01619818,0.11666619,0.46281661,0,2,11,0,1,5,0.00712225,0.05932966,0.20601900,0.33479801,0.49125918,0.64939445
38043,0,USNorthDakotaKidder,North Dakota,Kidder,2021-01-05 13:44:01.791146,2020-03-20 00:00:00.000000,0.01727826,0.12531388,0.50051036,0,3,12,0,1,5,0.00768923,0.06365414,0.22380656,0.31905032,0.46877843,0.64312645
38043,0,USNorthDakotaKidder,North Dakota,Kidder,2021-01-05 13:44:01.791146,2020-03-21 00:00:00.000000,0.01813295,0.13409583,0.53677365,0,3,13,0,1,6,0.00826962,0.06948236,0.24575482,0.30277297,0.43068760,0.62866879
38043,0,USNorthDakotaKidder,North Dakota,Kidder,2021-01-05 13:44:01.791146,2020-03-22 00:00:00.000000,0.01887690,0.14253099,0.56525288,0,3,14,0,1,6,0.00881996,0.07467094,0.26879402,0.29190645,0.40960855,0.61824285
38043,0,USNorthDakotaKidder,North Dakota,Kidder,2021-01-05 13:44:01.791146,2020-03-23 00:00:00.000000,0.01962282,0.14862841,0.58611782,0,3,14,0,1,7,0.00932952,0.07966496,0.29288126,0.28724526,0.38521116,0.61057895
38043,0,USNorthDakotaKidder,North Dakota,Kidder,2021-01-05 13:44:01.791146,2020-03-24 00:00:00.000000,0.02038378,0.15426560,0.60364207,0,3,14,0,2,7,0.00981100,0.08347840,0.31746212,0.27992188,0.36738905,0.59407156
38043,0,USNorthDakotaKidder,North Dakota,Kidder,2021-01-05 13:44:01.791146,2020-03-25 00:00:00.000000,0.02115219,0.15938544,0.61867680,0,3,15,0,2,8,0.01027584,0.08639650,0.34061274,0.27150183,0.35500663,0.58815793
38043,0,USNorthDakotaKidder,North Dakota,Kidder,2021-01-05 13:44:01.791146,2020-03-26 00:00:00.000000,0.02191893,0.16387597,0.63077157,0,4,15,0,2,8,0.01073062,0.08875858,0.35987426,0.25144296,0.34199020,0.55788046
38043,0,USNorthDakotaKidder,North Dakota,Kidder,2021-01-05 13:44:01.791146,2020-03-27 00:00:00.000000,0.02360182,0.17037722,0.64030997,0,4,15,0,2,9,0.01136845,0.09091500,0.37483573,0.23814737,0.32983673,0.51451054
38043,0,USNorthDakotaKidder,North Dakota,Kidder,2021-01-05 13:44:01.791146,2020-03-28 00:00:00.000000,0.02429357,0.17548983,0.64820404,0,4,16,0,2,9,0.01256697,0.09402915,0.38654090,0.22438888,0.32145176,0.49294723
38043,0,USNorthDakotaKidder,North Dakota,Kidder,2021-01-05 13:44:01.791146,2020-03-29 00:00:00.000000,0.02500759,0.18050354,0.65567639,0,4,16,0,2,9,0.01355135,0.09777606,0.39613180,0.21980401,0.31369282,0.50230212
38043,0,USNorthDakotaKidder,North Dakota,Kidder,2021-01-05 13:44:01.791146,2020-03-30 00:00:00.000000,0.02574115,0.18536327,0.67445287,0,4,16,0,2,10,0.01396181,0.10078083,0.40443979,0.21613773,0.30530078,0.48970641
38043,0,USNorthDakotaKidder,North Dakota,Kidder,2021-01-05 13:44:01.791146,2020-03-31 00:00:00.000000,0.02648328,0.19255807,0.69309856,0,4,17,0,2,10,0.01438024,0.10416114,0.41200395,0.21172048,0.29878457,0.47979620
38043,0,USNorthDakotaKidder,North Dakota,Kidder,2021-01-05 13:44:01.791146,2020-04-01 00:00:00.000000,0.02721026,0.19972291,0.70763339,0,4,17,0,2,10,0.01480560,0.10730773,0.41917273,0.20820226,0.28502177,0.48192213
38043,0,USNorthDakotaKidder,North Dakota,Kidder,2021-01-05 13:44:01.791146,2020-04-02 00:00:00.000000,0.02787092,0.20373632,0.70623849,0,5,17,0,2,10,0.01523230,0.11165358,0.42620267,0.20556976,0.27914797,0.48271159
38043,0,USNorthDakotaKidder,North Dakota,Kidder,2021-01-05 13:44:01.791146,2020-04-03 00:00:00.000000,0.02837381,0.20615063,0.70759711,0,5,17,0,2,10,0.01564610,0.11703604,0.43254372,0.20532007,0.27561564,0.48156324
38043,0,USNorthDakotaKidder,North Dakota,Kidder,2021-01-05 13:44:01.791146,2020-04-04 00:00:00.000000,0.02862092,0.20995142,0.72171359,0,5,17,0,2,10,0.01601880,0.12080805,0.43196238,0.18170610,0.27138690,0.47950209
38043,0,USNorthDakotaKidder,North Dakota,Kidder,2021-01-05 13:44:01.791146,2020-04-05 00:00:00.000000,0.02859672,0.21339125,0.73674112,0,5,18,0,3,10,0.01631161,0.12370496,0.43189003,0.15915057,0.26014386,0.47997856
38043,0,USNorthDakotaKidder,North Dakota,Kidder,2021-01-05 13:44:01.791146,2020-04-06 00:00:00.000000,0.02872377,0.21487372,0.75232785,0,5,18,0,3,10,0.01649586,0.12608223,0.44181537,0.15855870,0.25570537,0.46907121
38043,0,USNorthDakotaKidder,North Dakota,Kidder,2021-01-05 13:44:01.791146,2020-04-07 00:00:00.000000,0.02883115,0.21524485,0.76759203,0,5,19,0,3,11,0.01656891,0.12775560,0.45130636,0.15846925,0.25002480,0.45095707
38043,0,USNorthDakotaKidder,North Dakota,Kidder,2021-01-05 13:44:01.791146,2020-04-08 00:00:00.000000,0.02885673,0.21513211,0.77629686,0,5,19,0,3,11,0.01654784,0.12775167,0.46049930,0.15849671,0.23826838,0.45388366
38043,0,USNorthDakotaKidder,North Dakota,Kidder,2021-01-05 13:44:01.791146,2020-04-09 00:00:00.000000,0.02882516,0.21482145,0.77462232,0,5,19,0,3,11,0.01645797,0.12842278,0.46938370,0.14917661,0.22961279,0.45406375
38043,0,USNorthDakotaKidder,North Dakota,Kidder,2021-01-05 13:44:01.791146,2020-04-10 00:00:00.000000,0.02874200,0.21669662,0.77069470,0,5,19,0,3,11,0.01632898,0.12965526,0.47777258,0.14206553,0.22388069,0.43537948
38043,0,USNorthDakotaKidder,North Dakota,Kidder,2021-01-05 13:44:01.791146,2020-04-11 00:00:00.000000,0.02858789,0.21684201,0.77397573,0,5,19,0,3,12,0.01619272,0.12943329,0.48527725,0.13761397,0.21186639,0.42880824
38043,0,USNorthDakotaKidder,North Dakota,Kidder,2021-01-05 13:44:01.791146,2020-04-12 00:00:00.000000,0.02835359,0.21663149,0.79058314,0,5,19,0,3,12,0.01606994,0.12910853,0.48887186,0.12569587,0.20383248,0.41853068
38043,0,USNorthDakotaKidder,North Dakota,Kidder,2021-01-05 13:44:01.791146,2020-04-13 00:00:00.000000,0.02806405,0.21705849,0.80689278,0,5,20,0,3,12,0.01596438,0.12946971,0.48693096,0.12391978,0.20341532,0.39798876
38043,0,USNorthDakotaKidder,North Dakota,Kidder,2021-01-05 13:44:01.791146,2020-04-14 00:00:00.000000,0.02773280,0.21538934,0.82309865,0,5,20,0,3,12,0.01587189,0.12953598,0.48422917,0.12273383,0.20203629,0.37638559
38043,0,USNorthDakotaKidder,North Dakota,Kidder,2021-01-05 13:44:01.791146,2020-04-15 00:00:00.000000,0.02734915,0.21741862,0.82329735,0,5,20,0,3,11,0.01578663,0.13112093,0.48101042,0.12016415,0.19984019,0.35580695
38043,0,USNorthDakotaKidder,North Dakota,Kidder,2021-01-05 13:44:01.791146,2020-04-16 00:00:00.000000,0.02689056,0.21655407,0.81238503,0,5,20,0,3,12,0.01570277,0.13283297,0.48683068,0.11950012,0.19556140,0.33633943
38043,0,USNorthDakotaKidder,North Dakota,Kidder,2021-01-05 13:44:01.791146,2020-04-17 00:00:00.000000,0.02634384,0.21618695,0.80106225,0,5,19,0,3,12,0.01561465,0.13411304,0.48793386,0.11978022,0.19134368,0.33033353
38043,0,USNorthDakotaKidder,North Dakota,Kidder,2021-01-05 13:44:01.791146,2020-04-18 00:00:00.000000,0.02582479,0.21667891,0.78893435,0,5,19,0,3,11,0.01551720,0.13297519,0.48308060,0.11553770,0.19019189,0.32978959
38043,0,USNorthDakotaKidder,North Dakota,Kidder,2021-01-05 13:44:01.791146,2020-04-19 00:00:00.000000,0.02556524,0.21395634,0.77298005,0,5,19,0,3,11,0.01540676,0.13112370,0.47745499,0.11306313,0.18043989,0.31910246
38043,0,USNorthDakotaKidder,North Dakota,Kidder,2021-01-05 13:44:01.791146,2020-04-20 00:00:00.000000,0.02528150,0.21218418,0.75415737,0,5,18,0,3,11,0.01528163,0.13016593,0.47054745,0.11132997,0.17980636,0.30630923
38043,0,USNorthDakotaKidder,North Dakota,Kidder,2021-01-05 13:44:01.791146,2020-04-21 00:00:00.000000,0.02497772,0.21076287,0.73506482,0,5,18,0,3,11,0.01514192,0.13004299,0.46220360,0.10389305,0.17695417,0.30189939
38043,0,USNorthDakotaKidder,North Dakota,Kidder,2021-01-05 13:44:01.791146,2020-04-22 00:00:00.000000,0.02465393,0.20558682,0.71621457,0,5,17,0,3,11,0.01498855,0.12764076,0.45285739,0.10022042,0.17865659,0.30039227
38043,0,USNorthDakotaKidder,North Dakota,Kidder,2021-01-05 13:44:01.791146,2020-04-23 00:00:00.000000,0.02430481,0.20370107,0.69831623,0,5,17,0,3,10,0.01483053,0.12432001,0.44290932,0.09835206,0.17457148,0.29829242
38043,0,USNorthDakotaKidder,North Dakota,Kidder,2021-01-05 13:44:01.791146,2020-04-24 00:00:00.000000,0.02394821,0.20241561,0.68220072,0,5,16,0,3,10,0.01466674,0.12153798,0.43296858,0.09829155,0.17050706,0.30052430
38043,0,USNorthDakotaKidder,North Dakota,Kidder,2021-01-05 13:44:01.791146,2020-04-25 00:00:00.000000,0.02353963,0.19795400,0.66706318,0,4,16,0,3,10,0.01448683,0.12120204,0.42411232,0.09742246,0.16901409,0.31360709
38043,0,USNorthDakotaKidder,North Dakota,Kidder,2021-01-05 13:44:01.791146,2020-04-26 00:00:00.000000,0.02389476,0.19501766,0.65230496,0,4,16,0,2,10,0.01472775,0.12064537,0.41464404,0.09254978,0.16355879,0.32333683
38043,0,USNorthDakotaKidder,North Dakota,Kidder,2021-01-05 13:44:01.791146,2020-04-27 00:00:00.000000,0.02446716,0.19434058,0.63786207,0,4,15,0,3,10,0.01505651,0.12122414,0.40473702,0.09006731,0.15993036,0.31660715
38043,0,USNorthDakotaKidder,North Dakota,Kidder,2021-01-05 13:44:01.791146,2020-04-28 00:00:00.000000,0.02506062,0.19158317,0.62371680,0,4,15,0,3,9,0.01540087,0.12190663,0.39508136,0.08899060,0.15998474,0.30540556
38043,0,USNorthDakotaKidder,North Dakota,Kidder,2021-01-05 13:44:01.791146,2020-04-29 00:00:00.000000,0.02568726,0.18888947,0.60977942,0,4,15,0,2,9,0.01576032,0.11933993,0.38632513,0.08866095,0.15854228,0.27639643
38043,0,USNorthDakotaKidder,North Dakota,Kidder,2021-01-05 13:44:01.791146,2020-04-30 00:00:00.000000,0.02636716,0.18415019,0.59572691,0,4,14,0,2,9,0.01566262,0.11792255,0.37775386,0.08893462,0.15773392,0.26578198
38043,0,USNorthDakotaKidder,North Dakota,Kidder,2021-01-05 13:44:01.791146,2020-05-01 00:00:00.000000,0.02604745,0.17911857,0.58107196,0,4,14,0,2,9,0.01529132,0.11607757,0.36927691,0.08925276,0.15352747,0.26312309
38043,0,USNorthDakotaKidder,North Dakota,Kidder,2021-01-05 13:44:01.791146,2020-05-02 00:00:00.000000,0.02529836,0.17300586,0.56604360,0,4,14,0,2,8,0.01490526,0.11428600,0.36073594,0.08905614,0.15394288,0.24820416
38043,0,USNorthDakotaKidder,North Dakota,Kidder,2021-01-05 13:44:01.791146,2020-05-03 00:00:00.000000,0.02457333,0.16701905,0.55106707,0,4,13,0,2,8,0.01451171,0.11207014,0.35207318,0.08731894,0.15288993,0.24161603
38043,0,USNorthDakotaKidder,North Dakota,Kidder,2021-01-05 13:44:01.791146,2020-05-04 00:00:00.000000,0.02391346,0.16393860,0.53777304,0,4,13,0,2,8,0.01411789,0.10980334,0.34334028,0.08536114,0.15209834,0.24183852
38043,0,USNorthDakotaKidder,North Dakota,Kidder,2021-01-05 13:44:01.791146,2020-05-05 00:00:00.000000,0.02335675,0.16295836,0.52677542,0,4,13,0,2,8,0.01373622,0.10697437,0.33460554,0.08270383,0.15071198,0.24675549
38043,0,USNorthDakotaKidder,North Dakota,Kidder,2021-01-05 13:44:01.791146,2020-05-06 00:00:00.000000,0.02285462,0.16066659,0.51592190,0,3,12,0,2,8,0.01338205,0.10362667,0.32592988,0.08162305,0.14810688,0.25074558
38043,0,USNorthDakotaKidder,North Dakota,Kidder,2021-01-05 13:44:01.791146,2020-05-07 00:00:00.000000,0.02237542,0.15358377,0.50512999,0,3,12,0,2,7,0.01305638,0.10257887,0.31808168,0.07839074,0.14830059,0.24821253
38043,0,USNorthDakotaKidder,North Dakota,Kidder,2021-01-05 13:44:01.791146,2020-05-08 00:00:00.000000,0.02191184,0.14589586,0.50345531,0,3,12,0,2,7,0.01275359,0.10056661,0.31168137,0.07484538,0.14640591,0.24480652
38043,0,USNorthDakotaKidder,North Dakota,Kidder,2021-01-05 13:44:01.791146,2020-05-09 00:00:00.000000,0.02146205,0.13848976,0.50277417,0,3,12,0,2,7,0.01246850,0.09828968,0.30472892,0.07249440,0.14176348,0.24400438
38043,0,USNorthDakotaKidder,North Dakota,Kidder,2021-01-05 13:44:01.791146,2020-05-10 00:00:00.000000,0.02103253,0.13316702,0.50136394,0,3,12,0,2,7,0.01219743,0.09425562,0.30059396,0.07229278,0.13458928,0.23890009
38043,0,USNorthDakotaKidder,North Dakota,Kidder,2021-01-05 13:44:01.791146,2020-05-11 00:00:00.000000,0.02069058,0.12972375,0.49936537,0,3,12,0,2,7,0.01193924,0.09012515,0.30555132,0.06923696,0.13831401,0.23933181
38043,0,USNorthDakotaKidder,North Dakota,Kidder,2021-01-05 13:44:01.791146,2020-05-12 00:00:00.000000,0.02048895,0.12507074,0.49672223,0,3,12,0,2,7,0.01170587,0.08745998,0.31154519,0.06782453,0.13534585,0.23477331
38043,0,USNorthDakotaKidder,North Dakota,Kidder,2021-01-05 13:44:01.791146,2020-05-13 00:00:00.000000,0.01928342,0.12281997,0.50040199,0,3,12,0,2,7,0.01152708,0.08478041,0.31651800,0.06734530,0.13582262,0.24411498
38043,0,USNorthDakotaKidder,North Dakota,Kidder,2021-01-05 13:44:01.791146,2020-05-14 00:00:00.000000,0.01813494,0.12139050,0.48966749,0,3,12,0,2,7,0.01139787,0.08211598,0.32065432,0.06725585,0.13416819,0.23032681
38043,0,USNorthDakotaKidder,North Dakota,Kidder,2021-01-05 13:44:01.791146,2020-05-15 00:00:00.000000,0.01704776,0.11929706,0.48054116,0,2,11,0,1,8,0.01130346,0.08009090,0.32367221,0.06576972,0.13220561,0.21716806
38043,0,USNorthDakotaKidder,North Dakota,Kidder,2021-01-05 13:44:01.791146,2020-05-16 00:00:00.000000,0.01602568,0.11733000,0.47664160,0,2,11,0,1,7,0.01123224,0.07734467,0.31803738,0.06780033,0.12760461,0.21689554
38043,0,USNorthDakotaKidder,North Dakota,Kidder,2021-01-05 13:44:01.791146,2020-05-17 00:00:00.000000,0.01507646,0.11521456,0.47274617,0,2,11,0,1,7,0.01117475,0.07536163,0.30487852,0.06822764,0.12655760,0.21652229
38043,0,USNorthDakotaKidder,North Dakota,Kidder,2021-01-05 13:44:01.791146,2020-05-18 00:00:00.000000,0.01419361,0.11276802,0.46746250,0,2,11,0,1,7,0.01085760,0.07423992,0.29427056,0.06443013,0.12840237,0.21552939
38043,0,USNorthDakotaKidder,North Dakota,Kidder,2021-01-05 13:44:01.791146,2020-05-19 00:00:00.000000,0.01336551,0.11007734,0.46061034,0,2,11,0,1,7,0.01021691,0.07303749,0.29205358,0.06560768,0.12759322,0.20650010
38043,0,USNorthDakotaKidder,North Dakota,Kidder,2021-01-05 13:44:01.791146,2020-05-20 00:00:00.000000,0.01258653,0.10723632,0.45239720,0,2,11,0,1,7,0.00961713,0.07167166,0.28912650,0.06637809,0.12584852,0.20351479
38043,0,USNorthDakotaKidder,North Dakota,Kidder,2021-01-05 13:44:01.791146,2020-05-21 00:00:00.000000,0.01185067,0.10432159,0.44321603,0,2,10,0,1,7,0.00905442,0.07016676,0.28544199,0.06607235,0.12516476,0.19583220
38043,0,USNorthDakotaKidder,North Dakota,Kidder,2021-01-05 13:44:01.791146,2020-05-22 00:00:00.000000,0.01115214,0.10139953,0.43336810,0,2,10,0,1,6,0.00852485,0.06855493,0.28105579,0.06577235,0.12336677,0.18928365
38043,0,USNorthDakotaKidder,North Dakota,Kidder,2021-01-05 13:44:01.791146,2020-05-23 00:00:00.000000,0.01049164,0.09856671,0.42305472,0,2,10,0,1,6,0.00802453,0.06687155,0.27607120,0.06541446,0.12099166,0.18711597
38043,0,USNorthDakotaKidder,North Dakota,Kidder,2021-01-05 13:44:01.791146,2020-05-24 00:00:00.000000,0.00986906,0.09550181,0.41251443,0,2,10,0,1,6,0.00755164,0.06516196,0.27059962,0.06499284,0.11878904,0.19569607
38043,0,USNorthDakotaKidder,North Dakota,Kidder,2021-01-05 13:44:01.791146,2020-05-25 00:00:00.000000,0.04689381,0.15748679,0.48154216,1,3,11,0,1,6,0.00710522,0.06349981,0.26476480,0.06494221,0.12062293,0.20861765
38043,0,USNorthDakotaKidder,North Dakota,Kidder,2021-01-05 13:44:01.791146,2020-05-26 00:00:00.000000,0.07525679,0.20135262,0.55353472,1,4,13,0,1,6,0.01628173,0.07390645,0.27746359,0.06694565,0.11885661,0.20743321
38043,0,USNorthDakotaKidder,North Dakota,Kidder,2021-01-05 13:44:01.791146,2020-05-27 00:00:00.000000,0.09325380,0.25196068,0.65980755,2,6,16,0,2,7,0.02646143,0.09625071,0.30386348,0.06823080,0.11749185,0.21006934
38043,0,USNorthDakotaKidder,North Dakota,Kidder,2021-01-05 13:44:01.791146,2020-05-28 00:00:00.000000,0.11865432,0.31032514,0.75283629,2,7,18,0,2,8,0.03630351,0.11689328,0.33781825,0.07027164,0.11876159,0.22435058
38043,0,USNorthDakotaKidder,North Dakota,Kidder,2021-01-05 13:44:01.791146,2020-05-29 00:00:00.000000,0.14378649,0.37088223,0.85967610,3,9,21,1,3,9,0.04643600,0.14240375,0.36603552,0.07016740,0.11907143,0.21972866
38043,0,USNorthDakotaKidder,North Dakota,Kidder,2021-01-05 13:44:01.791146,2020-05-30 00:00:00.000000,0.15782183,0.42304060,0.98421396,3,10,24,1,4,10,0.05581904,0.16889570,0.41998367,0.06892731,0.11998847,0.21186464
38043,0,USNorthDakotaKidder,North Dakota,Kidder,2021-01-05 13:44:01.791146,2020-05-31 00:00:00.000000,0.17116102,0.47172037,1.05753994,4,11,26,1,4,11,0.06547089,0.18730738,0.46524683,0.06747108,0.11946966,0.20741552
38043,0,USNorthDakotaKidder,North Dakota,Kidder,2021-01-05 13:44:01.791146,2020-06-01 00:00:00.000000,0.19844738,0.52249506,1.09972035,4,12,27,1,5,13,0.07600294,0.20678755,0.54277737,0.06604232,0.11818049,0.20714144
38043,0,USNorthDakotaKidder,North Dakota,Kidder,2021-01-05 13:44:01.791146,2020-06-02 00:00:00.000000,0.23453757,0.56986273,1.15025734,5,14,28,2,5,14,0.08723937,0.23746191,0.59316636,0.06623734,0.11707400,0.20599362
38043,0,USNorthDakotaKidder,North Dakota,Kidder,2021-01-05 13:44:01.791146,2020-06-03 00:00:00.000000,0.27679287,0.60158627,1.22107420,6,14,30,2,7,15,0.10372346,0.28463878,0.61422470,0.06728601,0.11493860,0.20417045
38043,0,USNorthDakotaKidder,North Dakota,Kidder,2021-01-05 13:44:01.791146,2020-06-04 00:00:00.000000,0.30048026,0.63333547,1.29427998,7,15,32,3,7,15,0.12526960,0.32217555,0.64458874,0.06546566,0.11348121,0.20579953
38043,0,USNorthDakotaKidder,North Dakota,Kidder,2021-01-05 13:44:01.791146,2020-06-05 00:00:00.000000,0.32309264,0.68096259,1.39330325,8,16,34,3,8,16,0.14131871,0.35330511,0.65678440,0.06437480,0.11394738,0.20841977
38043,0,USNorthDakotaKidder,North Dakota,Kidder,2021-01-05 13:44:01.791146,2020-06-06 00:00:00.000000,0.34473946,0.73517053,1.46327560,8,18,36,3,9,17,0.16113967,0.37768824,0.70143497,0.06534144,0.11146813,0.20696642
38043,0,USNorthDakotaKidder,North Dakota,Kidder,2021-01-05 13:44:01.791146,2020-06-07 00:00:00.000000,0.36505877,0.79740869,1.58240865,9,19,39,4,10,20,0.18124626,0.40814409,0.81595949,0.06613827,0.10968717,0.19905229
38043,0,USNorthDakotaKidder,North Dakota,Kidder,2021-01-05 13:44:01.791146,2020-06-08 00:00:00.000000,0.35310353,0.79041278,1.53654621,8,19,38,4,10,21,0.20141026,0.42215275,0.86170252,0.06609053,0.10800937,0.19034723
38043,0,USNorthDakotaKidder,North Dakota,Kidder,2021-01-05 13:44:01.791146,2020-06-09 00:00:00.000000,0.34393692,0.77271021,1.47682526,8,19,36,5,10,21,0.21381406,0.42697534,0.88698208,0.06527825,0.10781596,0.18460781
38043,0,USNorthDakotaKidder,North Dakota,Kidder,2021-01-05 13:44:01.791146,2020-06-10 00:00:00.000000,0.33731983,0.73466554,1.41126295,8,18,34,5,10,21,0.22028136,0.42181655,0.88538447,0.06397763,0.10753491,0.18515073
38043,0,USNorthDakotaKidder,North Dakota,Kidder,2021-01-05 13:44:01.791146,2020-06-11 00:00:00.000000,0.33007820,0.69884606,1.35530775,8,17,33,5,10,21,0.21615594,0.42277982,0.87724906,0.06439115,0.10712225,0.18614393
38043,0,USNorthDakotaKidder,North Dakota,Kidder,2021-01-05 13:44:01.791146,2020-06-12 00:00:00.000000,0.32244996,0.66561261,1.31252056,7,16,32,5,10,21,0.21025450,0.42201654,0.87664465,0.06898185,0.10794008,0.18782383
38043,0,USNorthDakotaKidder,North Dakota,Kidder,2021-01-05 13:44:01.791146,2020-06-13 00:00:00.000000,0.31446719,0.63036196,1.26846176,7,15,31,5,10,21,0.20486082,0.40886249,0.86781609,0.06998538,0.10818926,0.18189667
38043,0,USNorthDakotaKidder,North Dakota,Kidder,2021-01-05 13:44:01.791146,2020-06-14 00:00:00.000000,0.30620826,0.60514200,1.22455980,7,15,30,4,9,20,0.19958132,0.39585122,0.84335980,0.07055748,0.10447470,0.17656583
38043,0,USNorthDakotaKidder,North Dakota,Kidder,2021-01-05 13:44:01.791146,2020-06-15 00:00:00.000000,0.29781118,0.57894897,1.18133612,7,14,29,4,9,19,0.19133117,0.38051819,0.79633947,0.06973763,0.10236858,0.18058521
38043,0,USNorthDakotaKidder,North Dakota,Kidder,2021-01-05 13:44:01.791146,2020-06-16 00:00:00.000000,0.28941977,0.55457500,1.13884300,7,13,28,4,9,19,0.18290449,0.36380981,0.76912375,0.06920767,0.10198387,0.19282871
38043,0,USNorthDakotaKidder,North Dakota,Kidder,2021-01-05 13:44:01.791146,2020-06-17 00:00:00.000000,0.28116963,0.53593644,1.09578355,6,13,27,4,8,18,0.17439869,0.34946508,0.75076530,0.06887626,0.10171949,0.19268851
38043,0,USNorthDakotaKidder,North Dakota,Kidder,2021-01-05 13:44:01.791146,2020-06-18 00:00:00.000000,0.27323219,0.50944389,1.05311500,6,12,26,4,8,18,0.16591237,0.33119689,0.73160079,0.06733068,0.09952932,0.20492238
38043,0,USNorthDakotaKidder,North Dakota,Kidder,2021-01-05 13:44:01.791146,2020-06-19 00:00:00.000000,0.26427031,0.48715133,1.01171599,6,12,25,3,7,17,0.15753281,0.31606353,0.71187649,0.06586420,0.10234223,0.20966598
38043,0,USNorthDakotaKidder,North Dakota,Kidder,2021-01-05 13:44:01.791146,2020-06-20 00:00:00.000000,0.24920581,0.46465650,0.97167837,6,11,24,3,7,17,0.14932629,0.30387198,0.69178693,0.06516476,0.10727635,0.21280627
38043,0,USNorthDakotaKidder,North Dakota,Kidder,2021-01-05 13:44:01.791146,2020-06-21 00:00:00.000000,0.23509005,0.44228210,0.94705148,5,10,23,3,7,16,0.14133768,0.29235118,0.67143898,0.06085789,0.10901506,0.21507795
38043,0,USNorthDakotaKidder,North Dakota,Kidder,2021-01-05 13:44:01.791146,2020-06-22 00:00:00.000000,0.22187372,0.42447063,0.92380846,5,10,22,3,6,16,0.13360081,0.27968041,0.65094795,0.05780843,0.10977485,0.22199002
38043,0,USNorthDakotaKidder,North Dakota,Kidder,2021-01-05 13:44:01.791146,2020-06-23 00:00:00.000000,0.20947003,0.40377050,0.90093655,5,10,22,3,6,15,0.12615250,0.26772993,0.63045839,0.05641999,0.11073387,0.22762887
38043,0,USNorthDakotaKidder,North Dakota,Kidder,2021-01-05 13:44:01.791146,2020-06-24 00:00:00.000000,0.19780028,0.38459307,0.87834274,4,9,21,2,6,15,0.11903911,0.25871172,0.61011038,0.05590479,0.11015427,0.22800975
38043,0,USNorthDakotaKidder,North Dakota,Kidder,2021-01-05 13:44:01.791146,2020-06-25 00:00:00.000000,0.18679841,0.36412012,0.85582993,4,9,21,2,6,14,0.11231243,0.25086335,0.59002676,0.05572734,0.11093854,0.22774662
38043,0,USNorthDakotaKidder,North Dakota,Kidder,2021-01-05 13:44:01.791146,2020-06-26 00:00:00.000000,0.17638954,0.35237996,0.83305408,4,8,20,2,5,14,0.10601902,0.24019037,0.57159340,0.05566618,0.10858934,0.22701374
38043,0,USNorthDakotaKidder,North Dakota,Kidder,2021-01-05 13:44:01.791146,2020-06-27 00:00:00.000000,0.16582211,0.33603256,0.80954779,4,8,20,2,5,13,0.10018708,0.23126053,0.55172693,0.05564407,0.10908568,0.22555613
38043,0,USNorthDakotaKidder,North Dakota,Kidder,2021-01-05 13:44:01.791146,2020-06-28 00:00:00.000000,0.15557173,0.31761577,0.78797557,3,7,19,2,5,13,0.09481664,0.22317213,0.53344020,0.05564481,0.10845548,0.22350071
38043,0,USNorthDakotaKidder,North Dakota,Kidder,2021-01-05 13:44:01.791146,2020-06-29 00:00:00.000000,0.20960740,0.36862767,0.82177574,5,9,20,2,5,12,0.08988027,0.21389377,0.51642505,0.05572791,0.10987108,0.22073896
38043,0,USNorthDakotaKidder,North Dakota,Kidder,2021-01-05 13:44:01.791146,2020-06-30 00:00:00.000000,0.23851421,0.41204027,0.89096589,5,10,22,2,5,12,0.10818791,0.21755080,0.52047954,0.05617949,0.10896520,0.21623637
38043,0,USNorthDakotaKidder,North Dakota,Kidder,2021-01-05 13:44:01.791146,2020-07-01 00:00:00.000000,0.26391904,0.44551399,0.97351793,6,11,24,3,5,13,0.12913854,0.23335451,0.53937254,0.05725817,0.10921932,0.20941111
38043,0,USNorthDakotaKidder,North Dakota,Kidder,2021-01-05 13:44:01.791146,2020-07-02 00:00:00.000000,0.28629681,0.50180023,1.05754818,7,12,26,3,6,13,0.13856293,0.25260754,0.56108159,0.05794056,0.11034684,0.20194896
38043,0,USNorthDakotaKidder,North Dakota,Kidder,2021-01-05 13:44:01.791146,2020-07-03 00:00:00.000000,0.30940206,0.54628680,1.17282266,7,13,29,3,6,14,0.15031360,0.27694587,0.58204368,0.05788274,0.11058520,0.21054281
38043,0,USNorthDakotaKidder,North Dakota,Kidder,2021-01-05 13:44:01.791146,2020-07-04 00:00:00.000000,0.33337037,0.59939239,1.26499949,8,14,31,4,7,15,0.16857332,0.30080048,0.62741973,0.05744514,0.11215654,0.21271416
38043,0,USNorthDakotaKidder,North Dakota,Kidder,2021-01-05 13:44:01.791146,2020-07-05 00:00:00.000000,0.34939118,0.64930303,1.34233267,8,16,33,4,8,17,0.18253004,0.32680925,0.69182783,0.05685476,0.11580096,0.21067502
38043,0,USNorthDakotaKidder,North Dakota,Kidder,2021-01-05 13:44:01.791146,2020-07-06 00:00:00.000000,0.40769449,0.72362503,1.41085155,10,17,34,4,8,18,0.19508912,0.34395700,0.73877259,0.05646743,0.11758043,0.21429738
38043,0,USNorthDakotaKidder,North Dakota,Kidder,2021-01-05 13:44:01.791146,2020-07-07 00:00:00.000000,0.43652633,0.82952138,1.44351329,10,20,35,5,9,19,0.21639731,0.37903090,0.77966637,0.05657699,0.11646574,0.21445303
38043,0,USNorthDakotaKidder,North Dakota,Kidder,2021-01-05 13:44:01.791146,2020-07-08 00:00:00.000000,0.45815851,0.89876174,1.52117986,11,22,37,5,10,20,0.23553288,0.42454901,0.81596277,0.05727070,0.11573122,0.21448428
38043,0,USNorthDakotaKidder,North Dakota,Kidder,2021-01-05 13:44:01.791146,2020-07-09 00:00:00.000000,0.47713714,0.97164531,1.65781476,11,24,41,6,11,21,0.25966442,0.47216239,0.84887205,0.05869279,0.11693313,0.21449553
38043,0,USNorthDakotaKidder,North Dakota,Kidder,2021-01-05 13:44:01.791146,2020-07-10 00:00:00.000000,0.48928641,1.01889111,1.81746551,12,25,45,7,12,21,0.28586764,0.52086504,0.87935838,0.06056844,0.11985926,0.21453022
38043,0,USNorthDakotaKidder,North Dakota,Kidder,2021-01-05 13:44:01.791146,2020-07-11 00:00:00.000000,0.50175901,1.06933486,1.99936193,12,26,49,7,14,23,0.30371597,0.57188972,0.93994962,0.06166451,0.11888183,0.21580250
38043,0,USNorthDakotaKidder,North Dakota,Kidder,2021-01-05 13:44:01.791146,2020-07-12 00:00:00.000000,0.51388250,1.11665844,2.13447359,12,27,52,7,14,24,0.32045377,0.59246488,0.98007603,0.05991033,0.11881698,0.22152768
38043,0,USNorthDakotaKidder,North Dakota,Kidder,2021-01-05 13:44:01.791146,2020-07-13 00:00:00.000000,0.63828474,1.20450481,2.25300758,15,29,55,8,15,26,0.33560389,0.62362065,1.06994491,0.05918649,0.11930918,0.22775282
38043,0,USNorthDakotaKidder,North Dakota,Kidder,2021-01-05 13:44:01.791146,2020-07-14 00:00:00.000000,0.70239426,1.27405783,2.49853063,17,31,61,9,15,28,0.36303807,0.63081079,1.14088812,0.05882224,0.11980844,0.23402081
38043,0,USNorthDakotaKidder,North Dakota,Kidder,2021-01-05 13:44:01.791146,2020-07-15 00:00:00.000000,0.73180802,1.34218284,2.55837253,18,33,63,9,16,29,0.36804974,0.67778902,1.20646296,0.06117846,0.12102545,0.23389409
38043,0,USNorthDakotaKidder,North Dakota,Kidder,2021-01-05 13:44:01.791146,2020-07-16 00:00:00.000000,0.75744974,1.38585135,2.56786073,18,34,63,9,18,32,0.37136091,0.74718113,1.32803256,0.06733981,0.12359114,0.23161386
38043,0,USNorthDakotaKidder,North Dakota,Kidder,2021-01-05 13:44:01.791146,2020-07-17 00:00:00.000000,0.74553813,1.42087601,2.65665459,18,35,65,9,20,36,0.37938659,0.80741603,1.46134831,0.06949991,0.12720060,0.23064611
38043,0,USNorthDakotaKidder,North Dakota,Kidder,2021-01-05 13:44:01.791146,2020-07-18 00:00:00.000000,0.72388760,1.50185455,2.81333837,17,37,69,9,21,36,0.39000515,0.85629735,1.47115696,0.06991611,0.12865756,0.23270888
38043,0,USNorthDakotaKidder,North Dakota,Kidder,2021-01-05 13:44:01.791146,2020-07-19 00:00:00.000000,0.70307309,1.55157227,2.99041916,17,38,74,9,21,39,0.37929239,0.88202061,1.59211338,0.06997985,0.12768388,0.24314529
38043,0,USNorthDakotaKidder,North Dakota,Kidder,2021-01-05 13:44:01.791146,2020-07-20 00:00:00.000000,0.82403813,1.64457561,3.00991448,20,40,74,9,22,42,0.37491971,0.91101190,1.71149368,0.06993821,0.12752888,0.24526407
38043,0,USNorthDakotaKidder,North Dakota,Kidder,2021-01-05 13:44:01.791146,2020-07-21 00:00:00.000000,0.88379462,1.70945478,3.03782231,21,42,75,10,23,44,0.42423468,0.95280993,1.79640513,0.06968096,0.12877782,0.24715754
38043,0,USNorthDakotaKidder,North Dakota,Kidder,2021-01-05 13:44:01.791146,2020-07-22 00:00:00.000000,0.94444771,1.79461001,3.15607925,23,44,78,12,24,46,0.49162697,0.99609515,1.85776941,0.06860954,0.13179369,0.24789144
38043,0,USNorthDakotaKidder,North Dakota,Kidder,2021-01-05 13:44:01.791146,2020-07-23 00:00:00.000000,1.00346015,1.89355937,3.26860309,24,46,81,12,25,47,0.49376561,1.03517305,1.90368104,0.06546285,0.13436422,0.24591675
38043,0,USNorthDakotaKidder,North Dakota,Kidder,2021-01-05 13:44:01.791146,2020-07-24 00:00:00.000000,1.01926185,1.96042315,3.37434721,25,48,83,12,26,48,0.49646096,1.06407273,1.93943939,0.06315904,0.13512242,0.24567673
38043,0,USNorthDakotaKidder,North Dakota,Kidder,2021-01-05 13:44:01.791146,2020-07-25 00:00:00.000000,1.02799687,2.02491859,3.47224845,25,50,86,12,26,48,0.49960837,1.08308602,1.96826198,0.06424648,0.13647912,0.23466098
38043,0,USNorthDakotaKidder,North Dakota,Kidder,2021-01-05 13:44:01.791146,2020-07-26 00:00:00.000000,1.04687574,2.09849335,3.57836206,25,52,88,12,28,50,0.50320972,1.15714986,2.03006619,0.06639159,0.13771988,0.23117950
38043,0,USNorthDakotaKidder,North Dakota,Kidder,2021-01-05 13:44:01.791146,2020-07-27 00:00:00.000000,1.03613158,2.19891914,3.67151397,25,54,91,12,28,52,0.51228778,1.16689871,2.13110874,0.07207026,0.13698243,0.23026239
38043,0,USNorthDakotaKidder,North Dakota,Kidder,2021-01-05 13:44:01.791146,2020-07-28 00:00:00.000000,1.03459798,2.23295312,3.74842786,25,55,92,12,29,55,0.51971114,1.20264322,2.22071160,0.07331686,0.13904395,0.23215206
38043,0,USNorthDakotaKidder,North Dakota,Kidder,2021-01-05 13:44:01.791146,2020-07-29 00:00:00.000000,1.10719292,2.26910694,3.81920171,27,56,94,12,30,57,0.51798622,1.23160281,2.29883986,0.07070330,0.14203552,0.23058939
38043,0,USNorthDakotaKidder,North Dakota,Kidder,2021-01-05 13:44:01.791146,2020-07-30 00:00:00.000000,1.10495988,2.31037898,3.88619527,27,57,96,12,32,58,0.51767444,1.30319451,2.36760557,0.07101941,0.14077991,0.22659572
38043,0,USNorthDakotaKidder,North Dakota,Kidder,2021-01-05 13:44:01.791146,2020-07-31 00:00:00.000000,1.10526886,2.38346137,4.09352636,27,59,101,14,33,60,0.59900660,1.34909116,2.42901732,0.07252812,0.14231456,0.22329536
38043,0,USNorthDakotaKidder,North Dakota,Kidder,2021-01-05 13:44:01.791146,2020-08-01 00:00:00.000000,1.10951763,2.45039265,4.34194009,27,60,107,16,35,61,0.67206397,1.42179505,2.48443233,0.07505588,0.14172427,0.21794226
38043,0,USNorthDakotaKidder,North Dakota,Kidder,2021-01-05 13:44:01.791146,2020-08-02 00:00:00.000000,1.11435051,2.49262606,4.35317940,27,61,107,16,36,62,0.67376472,1.46726353,2.53466911,0.07762604,0.14187113,0.22124096
38043,0,USNorthDakotaKidder,North Dakota,Kidder,2021-01-05 13:44:01.791146,2020-08-03 00:00:00.000000,1.37105972,2.55966193,4.41777968,34,63,109,16,37,63,0.67598557,1.49936891,2.58035655,0.07755034,0.14237642,0.22234377
38043,0,USNorthDakotaKidder,North Dakota,Kidder,2021-01-05 13:44:01.791146,2020-08-04 00:00:00.000000,1.61337831,2.64241667,4.49059073,40,65,111,17,37,64,0.70601644,1.52453826,2.61371993,0.07643741,0.14335942,0.22277322
38043,0,USNorthDakotaKidder,North Dakota,Kidder,2021-01-05 13:44:01.791146,2020-08-05 00:00:00.000000,1.70575544,2.75631670,4.57657258,42,68,113,18,38,66,0.75384744,1.54368208,2.66529633,0.07551449,0.14282291,0.22293448
38043,0,USNorthDakotaKidder,North Dakota,Kidder,2021-01-05 13:44:01.791146,2020-08-06 00:00:00.000000,1.79861754,2.95167219,4.66694502,44,73,115,20,38,66,0.81524639,1.57084470,2.69710782,0.07363986,0.14398253,0.22240585
38043,0,USNorthDakotaKidder,North Dakota,Kidder,2021-01-05 13:44:01.791146,2020-08-07 00:00:00.000000,1.82964562,3.06915656,4.76291487,45,76,118,23,40,67,0.96464099,1.62805322,2.71818343,0.07152204,0.14384734,0.20928160
38043,0,USNorthDakotaKidder,North Dakota,Kidder,2021-01-05 13:44:01.791146,2020-08-08 00:00:00.000000,1.83924552,3.17239693,4.85421134,45,78,120,26,43,68,1.08599647,1.76080709,2.76432965,0.07063167,0.14711087,0.21137059
38043,0,USNorthDakotaKidder,North Dakota,Kidder,2021-01-05 13:44:01.791146,2020-08-09 00:00:00.000000,1.93480316,3.28676664,4.86267799,47,81,120,26,45,69,1.07758048,1.85100327,2.81457545,0.07035490,0.15108054,0.21569106
38043,0,USNorthDakotaKidder,North Dakota,Kidder,2021-01-05 13:44:01.791146,2020-08-10 00:00:00.000000,2.01797433,3.28282549,4.94796888,50,81,122,26,47,71,1.06994457,1.91385129,2.86788318,0.07027421,0.15355460,0.22382637
38043,0,USNorthDakotaKidder,North Dakota,Kidder,2021-01-05 13:44:01.791146,2020-08-11 00:00:00.000000,2.02876742,3.32208559,4.97460171,50,82,123,27,48,72,1.09318174,1.94710145,2.90413571,0.07031345,0.15592470,0.22683622
38043,0,USNorthDakotaKidder,North Dakota,Kidder,2021-01-05 13:44:01.791146,2020-08-12 00:00:00.000000,2.13097062,3.28606383,5.06823528,52,81,125,28,48,72,1.14218918,1.96368081,2.92767547,0.07104885,0.15637066,0.22965468
38043,0,USNorthDakotaKidder,North Dakota,Kidder,2021-01-05 13:44:01.791146,2020-08-13 00:00:00.000000,2.15815772,3.28899860,5.16184174,53,81,128,29,49,72,1.18629324,1.97847377,2.94140571,0.07257475,0.15741828,0.23410482
38043,0,USNorthDakotaKidder,North Dakota,Kidder,2021-01-05 13:44:01.791146,2020-08-14 00:00:00.000000,2.07603875,3.31257850,5.25463908,51,82,130,30,49,75,1.21289106,1.99827559,3.03512944,0.07550203,0.15620714,0.23423562
38043,0,USNorthDakotaKidder,North Dakota,Kidder,2021-01-05 13:44:01.791146,2020-08-15 00:00:00.000000,1.99459461,3.32723849,5.32502367,49,82,132,29,49,76,1.18965697,2.01357279,3.09126167,0.08043900,0.15438815,0.22853211
38043,0,USNorthDakotaKidder,North Dakota,Kidder,2021-01-05 13:44:01.791146,2020-08-16 00:00:00.000000,1.91439367,3.34562346,5.39065636,47,82,133,29,49,77,1.17847917,2.00730968,3.13474491,0.08719995,0.15553734,0.22333983
38043,0,USNorthDakotaKidder,North Dakota,Kidder,2021-01-05 13:44:01.791146,2020-08-17 00:00:00.000000,1.94249794,3.34381090,5.33798418,48,82,132,29,50,78,1.16965042,2.02082688,3.17726007,0.09421903,0.15141726,0.22119907
38043,0,USNorthDakotaKidder,North Dakota,Kidder,2021-01-05 13:44:01.791146,2020-08-18 00:00:00.000000,2.09210467,3.36318359,5.40703692,51,83,134,29,49,80,1.17473960,2.00823850,3.22749790,0.09513856,0.15371299,0.22204610
38043,0,USNorthDakotaKidder,North Dakota,Kidder,2021-01-05 13:44:01.791146,2020-08-19 00:00:00.000000,2.17047693,3.39115320,5.39518244,53,84,133,29,49,82,1.20766693,2.01531518,3.33424252,0.09718700,0.15450235,0.22316896
38043,0,USNorthDakotaKidder,North Dakota,Kidder,2021-01-05 13:44:01.791146,2020-08-20 00:00:00.000000,2.20787784,3.41133434,5.38722549,54,84,133,30,50,85,1.23749578,2.02871057,3.43216259,0.10313631,0.15589694,0.22311684
38043,0,USNorthDakotaKidder,North Dakota,Kidder,2021-01-05 13:44:01.791146,2020-08-21 00:00:00.000000,2.21250344,3.48132677,5.38373674,54,86,133,30,50,86,1.24934606,2.05543732,3.48547631,0.10335894,0.15721023,0.21963536
38043,0,USNorthDakotaKidder,North Dakota,Kidder,2021-01-05 13:44:01.791146,2020-08-22 00:00:00.000000,2.21574592,3.54122507,5.44213061,54,87,134,31,50,87,1.27598421,2.05497681,3.52435135,0.10186103,0.15743535,0.22122427
38043,0,USNorthDakotaKidder,North Dakota,Kidder,2021-01-05 13:44:01.791146,2020-08-23 00:00:00.000000,2.21803811,3.56318964,5.51268912,55,88,136,32,51,88,1.29299566,2.06117400,3.55870467,0.09433240,0.16157101,0.22092397
38043,0,USNorthDakotaKidder,North Dakota,Kidder,2021-01-05 13:44:01.791146,2020-08-24 00:00:00.000000,2.32667133,3.54150809,5.51033993,57,87,136,32,51,89,1.30267483,2.06091835,3.58880281,0.09181235,0.16269070,0.21848001
38043,0,USNorthDakotaKidder,North Dakota,Kidder,2021-01-05 13:44:01.791146,2020-08-25 00:00:00.000000,2.41219230,3.58650027,5.50289579,59,88,136,32,51,88,1.30168763,2.07658574,3.58720142,0.09147201,0.16406335,0.23962872
38043,0,USNorthDakotaKidder,North Dakota,Kidder,2021-01-05 13:44:01.791146,2020-08-26 00:00:00.000000,2.42199102,3.60434362,5.49073187,60,89,136,33,51,88,1.34676129,2.09329470,3.58643628,0.09348947,0.16432713,0.24428668
38043,0,USNorthDakotaKidder,North Dakota,Kidder,2021-01-05 13:44:01.791146,2020-08-27 00:00:00.000000,2.47941564,3.58674804,5.47551983,61,88,135,33,52,88,1.36493168,2.10731881,3.58594367,0.09669239,0.16132324,0.24780756
38043,0,USNorthDakotaKidder,North Dakota,Kidder,2021-01-05 13:44:01.791146,2020-08-28 00:00:00.000000,2.52950007,3.62342989,5.45835297,62,89,135,33,51,88,1.37012601,2.08337113,3.58462770,0.10058273,0.16458759,0.25076290
38043,0,USNorthDakotaKidder,North Dakota,Kidder,2021-01-05 13:44:01.791146,2020-08-29 00:00:00.000000,2.46595952,3.69815075,5.41807969,61,91,134,34,53,88,1.37574427,2.14190439,3.58144564,0.10190796,0.16748008,0.23976425
38043,0,USNorthDakotaKidder,North Dakota,Kidder,2021-01-05 13:44:01.791146,2020-08-30 00:00:00.000000,2.45176773,3.72864705,5.43680044,60,92,134,34,53,88,1.38144104,2.16687207,3.57632698,0.10570492,0.17042472,0.23094209
38043,0,USNorthDakotaKidder,North Dakota,Kidder,2021-01-05 13:44:01.791146,2020-08-31 00:00:00.000000,2.40263991,3.70768129,5.46696174,59,91,135,34,53,88,1.38698323,2.17182978,3.56888903,0.11796864,0.17126080,0.23214716
38043,0,USNorthDakotaKidder,North Dakota,Kidder,2021-01-05 13:44:01.791146,2020-09-01 00:00:00.000000,2.35555892,3.73800087,5.49619173,58,92,136,34,53,87,1.39051502,2.16226876,3.51853405,0.11891914,0.17200227,0.23318499
38043,0,USNorthDakotaKidder,North Dakota,Kidder,2021-01-05 13:44:01.791146,2020-09-02 00:00:00.000000,2.31276903,3.78433150,5.52810669,57,93,137,34,53,87,1.39249313,2.16095407,3.51689583,0.11833175,0.17199753,0.23474645
38043,0,USNorthDakotaKidder,North Dakota,Kidder,2021-01-05 13:44:01.791146,2020-09-03 00:00:00.000000,2.27813765,3.85243760,5.56576676,56,95,138,34,54,87,1.39332145,2.18038235,3.53828386,0.13241541,0.17394499,0.23433416
38043,0,USNorthDakotaKidder,North Dakota,Kidder,2021-01-05 13:44:01.791146,2020-09-04 00:00:00.000000,2.25059206,3.89667647,5.58390005,55,96,138,34,54,88,1.39352462,2.20378816,3.55887454,0.13438657,0.17676260,0.23527658
38043,0,USNorthDakotaKidder,North Dakota,Kidder,2021-01-05 13:44:01.791146,2020-09-05 00:00:00.000000,2.22578602,3.92233318,5.66113206,55,97,140,34,55,88,1.39457049,2.23016623,3.57880929,0.13170250,0.17852716,0.23722603
38043,0,USNorthDakotaKidder,North Dakota,Kidder,2021-01-05 13:44:01.791146,2020-09-06 00:00:00.000000,2.20129397,3.97699472,5.70925599,54,98,141,34,56,89,1.39781896,2.27279754,3.59810930,0.13121014,0.18224639,0.23760515
38043,0,USNorthDakotaKidder,North Dakota,Kidder,2021-01-05 13:44:01.791146,2020-09-07 00:00:00.000000,2.26501299,3.98986670,5.96180712,56,98,147,33,56,90,1.35129376,2.28499524,3.63250464,0.13114193,0.18401182,0.23782986
38043,0,USNorthDakotaKidder,North Dakota,Kidder,2021-01-05 13:44:01.791146,2020-09-08 00:00:00.000000,2.28689714,4.02553320,6.05964331,56,99,150,32,57,90,1.32666020,2.32091453,3.65748881,0.13114941,0.18460897,0.23881955
38043,0,USNorthDakotaKidder,North Dakota,Kidder,2021-01-05 13:44:01.791146,2020-09-09 00:00:00.000000,2.33342750,4.05707627,6.10451967,57,100,151,32,57,91,1.31735934,2.32953896,3.68465298,0.13119396,0.18694880,0.24480912
38043,0,USNorthDakotaKidder,North Dakota,Kidder,2021-01-05 13:44:01.791146,2020-09-10 00:00:00.000000,2.36002816,4.09371053,6.14897864,58,101,152,32,58,92,1.31905874,2.33929117,3.72962354,0.13131638,0.19010595,0.25148486
38043,0,USNorthDakotaKidder,North Dakota,Kidder,2021-01-05 13:44:01.791146,2020-09-11 00:00:00.000000,2.36534519,4.16856798,6.20218914,58,103,153,33,58,94,1.36503996,2.37024681,3.79694021,0.13127867,0.19752333,0.26493205
38043,0,USNorthDakotaKidder,North Dakota,Kidder,2021-01-05 13:44:01.791146,2020-09-12 00:00:00.000000,2.33894195,4.17487888,6.35784092,58,103,157,34,59,96,1.39582234,2.40655045,3.87499812,0.13220676,0.20082669,0.27679706
38043,0,USNorthDakotaKidder,North Dakota,Kidder,2021-01-05 13:44:01.791146,2020-09-13 00:00:00.000000,2.32823122,4.23015399,6.51370993,57,104,161,34,60,98,1.38348926,2.43943579,3.96054896,0.12827606,0.20520198,0.29479076
38043,0,USNorthDakotaKidder,North Dakota,Kidder,2021-01-05 13:44:01.791146,2020-09-14 00:00:00.000000,2.48617568,4.35977369,6.81615222,61,108,169,34,61,100,1.38864137,2.46699149,4.05117780,0.12579467,0.21530510,0.31904260
38043,0,USNorthDakotaKidder,North Dakota,Kidder,2021-01-05 13:44:01.791146,2020-09-15 00:00:00.000000,2.64400945,4.45519962,6.90842484,65,110,171,35,62,103,1.42057761,2.51274694,4.17551714,0.13410268,0.22604212,0.32929450
38043,0,USNorthDakotaKidder,North Dakota,Kidder,2021-01-05 13:44:01.791146,2020-09-16 00:00:00.000000,2.80751685,4.53241776,7.08014164,69,112,175,36,63,107,1.47630596,2.54815682,4.32261860,0.13448498,0.23000113,0.33222465
38043,0,USNorthDakotaKidder,North Dakota,Kidder,2021-01-05 13:44:01.791146,2020-09-17 00:00:00.000000,2.90410662,4.60998249,7.40913166,72,114,183,38,65,111,1.54771712,2.62259088,4.48310825,0.13756738,0.23278399,0.33170774
38043,0,USNorthDakotaKidder,North Dakota,Kidder,2021-01-05 13:44:01.791146,2020-09-18 00:00:00.000000,3.05529217,4.74590182,7.73594318,75,117,191,40,66,112,1.63094373,2.69129272,4.54248817,0.16335230,0.23757553,0.33086757
38043,0,USNorthDakotaKidder,North Dakota,Kidder,2021-01-05 13:44:01.791146,2020-09-19 00:00:00.000000,3.16678970,4.89572695,7.98818612,78,121,198,42,68,114,1.72198211,2.74523396,4.59913888,0.16378348,0.24316690,0.32561555
38043,0,USNorthDakotaKidder,North Dakota,Kidder,2021-01-05 13:44:01.791146,2020-09-20 00:00:00.000000,3.35458728,4.97848225,8.03428454,83,123,199,43,69,118,1.77389230,2.79113009,4.79317501,0.16377926,0.24293247,0.33664337
38043,0,USNorthDakotaKidder,North Dakota,Kidder,2021-01-05 13:44:01.791146,2020-09-21 00:00:00.000000,3.45218319,5.20587076,8.07503571,85,129,200,44,70,123,1.80195012,2.86280730,4.99051616,0.16380140,0.24340606,0.34243730
38043,0,USNorthDakotaKidder,North Dakota,Kidder,2021-01-05 13:44:01.791146,2020-09-22 00:00:00.000000,3.61964257,5.33636407,8.11317211,89,132,201,46,72,127,1.87235664,2.92870450,5.15209372,0.16167291,0.24757633,0.34123139
38043,0,USNorthDakotaKidder,North Dakota,Kidder,2021-01-05 13:44:01.791146,2020-09-23 00:00:00.000000,3.78719197,5.48928082,8.14773588,93,136,202,47,74,131,1.91656420,3.02305807,5.28663386,0.16191515,0.25313931,0.34172765
38043,0,USNorthDakotaKidder,North Dakota,Kidder,2021-01-05 13:44:01.791146,2020-09-24 00:00:00.000000,3.98469680,5.57450221,8.18047617,98,138,202,48,77,132,1.96485810,3.13760957,5.33853269,0.16607256,0.25660380,0.33490917
38043,0,USNorthDakotaKidder,North Dakota,Kidder,2021-01-05 13:44:01.791146,2020-09-25 00:00:00.000000,4.07881921,5.75389133,8.21705433,101,142,203,49,79,133,2.01137865,3.21559016,5.36832802,0.16741790,0.26338670,0.35311931
38043,0,USNorthDakotaKidder,North Dakota,Kidder,2021-01-05 13:44:01.791146,2020-09-26 00:00:00.000000,4.16466908,5.88440254,8.36418016,103,145,207,52,80,133,2.11967198,3.26107951,5.39663550,0.17562734,0.26596430,0.35861674
38043,0,USNorthDakotaKidder,North Dakota,Kidder,2021-01-05 13:44:01.791146,2020-09-27 00:00:00.000000,4.26911493,5.99185102,8.72131572,105,148,216,54,83,134,2.20198407,3.35608338,5.42712063,0.17448535,0.27221780,0.35855809
38043,0,USNorthDakotaKidder,North Dakota,Kidder,2021-01-05 13:44:01.791146,2020-09-28 00:00:00.000000,4.37090076,6.21598670,8.85291716,108,154,219,55,85,135,2.25145868,3.45355347,5.46533454,0.17815341,0.27329952,0.36243758
38043,0,USNorthDakotaKidder,North Dakota,Kidder,2021-01-05 13:44:01.791146,2020-09-29 00:00:00.000000,4.47450348,6.35708349,9.06956044,110,157,224,56,88,137,2.28207171,3.58331514,5.52461475,0.19728876,0.27639477,0.39510284
38043,0,USNorthDakotaKidder,North Dakota,Kidder,2021-01-05 13:44:01.791146,2020-09-30 00:00:00.000000,4.58270666,6.51832657,9.20469941,113,161,228,57,92,138,2.30381878,3.71735742,5.60398407,0.20044762,0.27800607,0.39647204
38043,0,USNorthDakotaKidder,North Dakota,Kidder,2021-01-05 13:44:01.791146,2020-10-01 00:00:00.000000,4.68355105,6.64065309,9.46489509,116,164,234,57,94,141,2.32401800,3.82157725,5.70020521,0.21236831,0.27980236,0.39232937
38043,0,USNorthDakotaKidder,North Dakota,Kidder,2021-01-05 13:44:01.791146,2020-10-02 00:00:00.000000,4.66685710,6.81584189,9.55954673,115,169,237,60,97,144,2.44995005,3.93293458,5.80936580,0.21300039,0.27986978,0.38718555
38043,0,USNorthDakotaKidder,North Dakota,Kidder,2021-01-05 13:44:01.791146,2020-10-03 00:00:00.000000,4.63457421,6.92834317,9.80615145,114,171,243,63,99,147,2.54474356,4.01158971,5.92793041,0.20878288,0.27950053,0.39916589
38043,0,USNorthDakotaKidder,North Dakota,Kidder,2021-01-05 13:44:01.791146,2020-10-04 00:00:00.000000,4.60678282,7.13606777,10.10686268,114,176,250,65,101,147,2.62805669,4.08993237,5.95313814,0.20446415,0.28605898,0.39954980
38043,0,USNorthDakotaKidder,North Dakota,Kidder,2021-01-05 13:44:01.791146,2020-10-05 00:00:00.000000,4.90398120,7.39104947,10.34650555,121,183,256,65,102,151,2.65923190,4.15264283,6.12303111,0.21536009,0.29355024,0.40001691
38043,0,USNorthDakotaKidder,North Dakota,Kidder,2021-01-05 13:44:01.791146,2020-10-06 00:00:00.000000,5.24799604,7.63416414,10.63540320,130,189,263,66,104,153,2.67609121,4.21905692,6.19225172,0.21658380,0.29776904,0.40065574
38043,0,USNorthDakotaKidder,North Dakota,Kidder,2021-01-05 13:44:01.791146,2020-10-07 00:00:00.000000,5.33260554,7.77426935,10.92337632,132,192,270,66,106,158,2.68788446,4.31227299,6.38595254,0.22004770,0.29979124,0.40674474
38043,0,USNorthDakotaKidder,North Dakota,Kidder,2021-01-05 13:44:01.791146,2020-10-08 00:00:00.000000,5.59294590,7.92400916,11.18091525,138,196,277,68,108,162,2.74440335,4.38120299,6.56550034,0.22810047,0.31083263,0.41652719
38043,0,USNorthDakotaKidder,North Dakota,Kidder,2021-01-05 13:44:01.791146,2020-10-09 00:00:00.000000,5.71401870,8.04340469,11.40744363,141,199,282,70,111,167,2.82916342,4.48014524,6.73624491,0.23381608,0.31974418,0.41951650
38043,0,USNorthDakotaKidder,North Dakota,Kidder,2021-01-05 13:44:01.791146,2020-10-10 00:00:00.000000,5.78533419,8.25686656,11.63410625,143,204,288,71,113,171,2.88966532,4.59081371,6.90167114,0.24033246,0.32298608,0.42028368
38043,0,USNorthDakotaKidder,North Dakota,Kidder,2021-01-05 13:44:01.791146,2020-10-11 00:00:00.000000,5.86204618,8.45217316,11.88124542,145,209,294,73,117,175,2.96468764,4.73399158,7.06373380,0.25269852,0.33002351,0.43408441
38043,0,USNorthDakotaKidder,North Dakota,Kidder,2021-01-05 13:44:01.791146,2020-10-12 00:00:00.000000,6.14660377,8.73405156,12.19629918,152,216,302,75,121,179,3.05015127,4.89292613,7.22349219,0.25195733,0.33997392,0.43995479
38043,0,USNorthDakotaKidder,North Dakota,Kidder,2021-01-05 13:44:01.791146,2020-10-13 00:00:00.000000,6.38969075,8.98679062,12.57244897,158,222,311,78,125,183,3.14845659,5.05742786,7.40065464,0.26237154,0.35297641,0.44231352
38043,0,USNorthDakotaKidder,North Dakota,Kidder,2021-01-05 13:44:01.791146,2020-10-14 00:00:00.000000,6.81120273,9.28044776,12.88441515,168,230,319,80,130,188,3.25587157,5.26009339,7.59375224,0.28010952,0.36072902,0.44529314
38043,0,USNorthDakotaKidder,North Dakota,Kidder,2021-01-05 13:44:01.791146,2020-10-15 00:00:00.000000,7.16544424,9.61125202,13.27733927,177,238,329,83,135,193,3.37070728,5.46156301,7.80910997,0.27922784,0.36394343,0.47260374
38043,0,USNorthDakotaKidder,North Dakota,Kidder,2021-01-05 13:44:01.791146,2020-10-16 00:00:00.000000,7.48677848,9.95017335,13.80469626,185,246,342,86,139,199,3.50269990,5.63821026,8.05346406,0.26894709,0.36850376,0.48314142
38043,0,USNorthDakotaKidder,North Dakota,Kidder,2021-01-05 13:44:01.791146,2020-10-17 00:00:00.000000,7.77899504,10.29274263,14.33604296,192,255,355,92,143,205,3.71936904,5.80017523,8.28306187,0.28525332,0.38226199,0.48571112
38043,0,USNorthDakotaKidder,North Dakota,Kidder,2021-01-05 13:44:01.791146,2020-10-18 00:00:00.000000,8.06594668,10.60083136,14.64377577,200,262,363,97,149,210,3.94310282,6.00922853,8.47975601,0.28668593,0.38301180,0.48693822
38043,0,USNorthDakotaKidder,North Dakota,Kidder,2021-01-05 13:44:01.791146,2020-10-19 00:00:00.000000,8.32422175,10.83962084,14.94219219,206,268,370,103,154,215,4.17480015,6.23196887,8.69831898,0.28752609,0.39080216,0.49701345
38043,0,USNorthDakotaKidder,North Dakota,Kidder,2021-01-05 13:44:01.791146,2020-10-20 00:00:00.000000,8.50559796,11.15442781,15.76279923,210,276,390,107,159,222,4.33374268,6.43011841,8.98266650,0.29018941,0.39659589,0.49716385
38043,0,USNorthDakotaKidder,North Dakota,Kidder,2021-01-05 13:44:01.791146,2020-10-21 00:00:00.000000,9.04108367,11.58081779,16.21817043,224,287,402,110,164,230,4.45405002,6.61846734,9.31339431,0.29547190,0.39750439,0.49705886
38043,0,USNorthDakotaKidder,North Dakota,Kidder,2021-01-05 13:44:01.791146,2020-10-22 00:00:00.000000,9.23004427,11.89342351,16.66721845,228,294,413,112,168,239,4.55143372,6.81367224,9.67644729,0.30490983,0.39933549,0.49658582
38043,0,USNorthDakotaKidder,North Dakota,Kidder,2021-01-05 13:44:01.791146,2020-10-23 00:00:00.000000,9.32941097,12.21688289,17.20818887,231,302,426,114,173,247,4.63214448,7.00863720,9.98597690,0.29454361,0.40387943,0.50557528
38043,0,USNorthDakotaKidder,North Dakota,Kidder,2021-01-05 13:44:01.791146,2020-10-24 00:00:00.000000,9.39729682,12.54533818,17.85955233,233,311,442,116,177,251,4.69777987,7.17093323,10.13039392,0.30231898,0.40926515,0.51430803
38043,0,USNorthDakotaKidder,North Dakota,Kidder,2021-01-05 13:44:01.791146,2020-10-25 00:00:00.000000,9.49460369,12.86040288,18.50223418,235,318,458,117,180,258,4.74800709,7.27091140,10.41934847,0.31425431,0.41104447,0.51725671
38043,0,USNorthDakotaKidder,North Dakota,Kidder,2021-01-05 13:44:01.791146,2020-10-26 00:00:00.000000,9.81152380,13.23335371,18.88649248,243,328,468,120,184,269,4.86129223,7.43784516,10.84698269,0.30674013,0.41511318,0.53561859
38043,0,USNorthDakotaKidder,North Dakota,Kidder,2021-01-05 13:44:01.791146,2020-10-27 00:00:00.000000,10.12358287,13.56444311,19.26936538,251,336,477,125,191,278,5.04301804,7.70631118,11.24114459,0.31436106,0.41898424,0.54613411
38043,0,USNorthDakotaKidder,North Dakota,Kidder,2021-01-05 13:44:01.791146,2020-10-28 00:00:00.000000,10.29996213,13.78806260,19.66609719,255,341,487,129,197,287,5.23599822,7.96153353,11.58834476,0.32283621,0.42114375,0.54846867
38043,0,USNorthDakotaKidder,North Dakota,Kidder,2021-01-05 13:44:01.791146,2020-10-29 00:00:00.000000,10.47066826,14.15660140,20.09774899,259,351,498,134,201,294,5.42444526,8.11045493,11.88306365,0.32557907,0.41719145,0.56159332
38043,0,USNorthDakotaKidder,North Dakota,Kidder,2021-01-05 13:44:01.791146,2020-10-30 00:00:00.000000,10.63765799,14.54054056,20.56128715,263,360,509,139,204,301,5.61604072,8.22897773,12.17429197,0.33946854,0.41695704,0.56565877
38043,0,USNorthDakotaKidder,North Dakota,Kidder,2021-01-05 13:44:01.791146,2020-10-31 00:00:00.000000,10.80983917,14.89356670,21.02680853,268,369,521,144,207,307,5.80720999,8.35917226,12.41212587,0.34672459,0.42394965,0.57772148
38043,0,USNorthDakotaKidder,North Dakota,Kidder,2021-01-05 13:44:01.791146,2020-11-01 00:00:00.000000,11.02406843,15.14291626,21.72678933,273,375,538,148,210,312,5.99693430,8.47871215,12.61188035,0.35893570,0.43388292,0.61686820
38043,0,USNorthDakotaKidder,North Dakota,Kidder,2021-01-05 13:44:01.791146,2020-11-02 00:00:00.000000,11.33609513,15.48989624,22.25047842,281,384,551,153,212,317,6.18503327,8.56516788,12.78823666,0.36407062,0.44715747,0.64163458
38043,0,USNorthDakotaKidder,North Dakota,Kidder,2021-01-05 13:44:01.791146,2020-11-03 00:00:00.000000,11.53807505,15.91055810,22.76430698,286,394,564,157,215,323,6.35482623,8.68359321,13.04013255,0.36409911,0.45332437,0.65446547
38043,0,USNorthDakotaKidder,North Dakota,Kidder,2021-01-05 13:44:01.791146,2020-11-04 00:00:00.000000,11.78762667,16.31077806,23.27992350,292,404,577,161,221,329,6.51454253,8.92989925,13.28401468,0.36962125,0.47337325,0.66229850
38043,0,USNorthDakotaKidder,North Dakota,Kidder,2021-01-05 13:44:01.791146,2020-11-05 00:00:00.000000,12.03413031,16.69470103,23.81303353,298,414,590,165,228,335,6.66846052,9.21739676,13.51498099,0.38269125,0.48704735,0.67153724
38043,0,USNorthDakotaKidder,North Dakota,Kidder,2021-01-05 13:44:01.791146,2020-11-06 00:00:00.000000,12.28119306,17.10322342,24.39256715,304,424,604,169,235,342,6.81838428,9.51576440,13.79466541,0.38415138,0.52343994,0.68583269
38043,0,USNorthDakotaKidder,North Dakota,Kidder,2021-01-05 13:44:01.791146,2020-11-07 00:00:00.000000,12.54747761,17.48973473,25.03824938,311,433,620,172,243,353,6.96595939,9.80368656,14.27047601,0.39458200,0.53491514,0.71374370
38043,0,USNorthDakotaKidder,North Dakota,Kidder,2021-01-05 13:44:01.791146,2020-11-08 00:00:00.000000,12.87323896,17.89394461,26.36159398,319,443,653,176,249,367,7.11715625,10.06043175,14.83360323,0.40130014,0.55096149,0.75445184
38043,0,USNorthDakotaKidder,North Dakota,Kidder,2021-01-05 13:44:01.791146,2020-11-09 00:00:00.000000,13.28297347,18.33671797,27.35597989,329,454,678,180,255,381,7.27986928,10.30334903,15.39225185,0.41312165,0.57595455,0.79620461
38043,0,USNorthDakotaKidder,North Dakota,Kidder,2021-01-05 13:44:01.791146,2020-11-10 00:00:00.000000,13.73015246,18.82115028,28.31876853,340,466,702,185,260,395,7.48651443,10.49109254,15.93589231,0.42108815,0.60899436,0.82055950
38043,0,USNorthDakotaKidder,North Dakota,Kidder,2021-01-05 13:44:01.791146,2020-11-11 00:00:00.000000,14.18505090,19.25483835,29.21902039,351,477,724,191,266,406,7.71332857,10.74946832,16.40374720,0.45627592,0.62019074,0.84125020
38043,0,USNorthDakotaKidder,North Dakota,Kidder,2021-01-05 13:44:01.791146,2020-11-12 00:00:00.000000,14.76609917,19.78568291,30.04583360,366,490,745,197,273,415,7.95602699,11.01252715,16.73770388,0.45923863,0.64347153,0.89946991
38043,0,USNorthDakotaKidder,North Dakota,Kidder,2021-01-05 13:44:01.791146,2020-11-13 00:00:00.000000,15.41558234,20.43304866,30.78938472,382,506,763,203,280,423,8.21312725,11.31860390,17.09103965,0.46401927,0.66496746,1.02370202
38043,0,USNorthDakotaKidder,North Dakota,Kidder,2021-01-05 13:44:01.791146,2020-11-14 00:00:00.000000,16.07418524,20.89658688,31.43299696,398,518,779,210,287,437,8.50664050,11.58670395,17.62784819,0.48744370,0.68808027,1.05887292
38043,0,USNorthDakotaKidder,North Dakota,Kidder,2021-01-05 13:44:01.791146,2020-11-15 00:00:00.000000,16.68366084,21.46290323,31.94597814,413,532,792,219,294,449,8.86035219,11.88732287,18.12079784,0.48708902,0.71944367,1.08558747
38043,0,USNorthDakotaKidder,North Dakota,Kidder,2021-01-05 13:44:01.791146,2020-11-16 00:00:00.000000,17.03452575,21.91109237,32.81086899,422,543,813,229,303,461,9.24089516,12.21775527,18.61115132,0.49986790,0.74698453,1.10439063
38043,0,USNorthDakotaKidder,North Dakota,Kidder,2021-01-05 13:44:01.791146,2020-11-17 00:00:00.000000,17.20476661,22.64369053,33.64654189,426,561,834,231,310,473,9.33461441,12.50298438,19.10203375,0.50685662,0.76357609,1.11380802
38043,0,USNorthDakotaKidder,North Dakota,Kidder,2021-01-05 13:44:01.791146,2020-11-18 00:00:00.000000,17.32181732,22.81216553,34.38081669,429,565,852,232,318,481,9.36552200,12.84239693,19.40455137,0.51461663,0.78271379,1.11319027
38043,0,USNorthDakotaKidder,North Dakota,Kidder,2021-01-05 13:44:01.791146,2020-11-19 00:00:00.000000,17.40287767,22.94492168,34.34187129,431,569,851,232,327,486,9.37239892,13.20448883,19.63636701,0.52313917,0.79323092,1.09957079
38043,0,USNorthDakotaKidder,North Dakota,Kidder,2021-01-05 13:44:01.791146,2020-11-20 00:00:00.000000,17.45204790,23.25383873,34.06465211,432,576,844,232,333,490,9.36686936,13.46286755,19.79057309,0.53317922,0.80188696,1.10682349
38043,0,USNorthDakotaKidder,North Dakota,Kidder,2021-01-05 13:44:01.791146,2020-11-21 00:00:00.000000,17.47208468,23.76117815,33.96364029,433,589,842,231,342,492,9.35099324,13.79083783,19.86341921,0.54309602,0.82090081,1.17739456
38043,0,USNorthDakotaKidder,North Dakota,Kidder,2021-01-05 13:44:01.791146,2020-11-22 00:00:00.000000,17.45704572,23.77950862,33.92013736,432,589,841,231,346,492,9.32271265,13.97618491,19.85385758,0.55083862,0.83346805,1.18088990
38043,0,USNorthDakotaKidder,North Dakota,Kidder,2021-01-05 13:44:01.791146,2020-11-23 00:00:00.000000,17.66572042,23.81543963,33.59891304,438,590,833,230,352,493,9.27957643,14.21874921,19.90555820,0.54683832,0.84163790,1.19312518
38043,0,USNorthDakotaKidder,North Dakota,Kidder,2021-01-05 13:44:01.791146,2020-11-24 00:00:00.000000,17.83791457,23.73097875,33.02627171,442,588,819,228,355,509,9.22808976,14.34060175,20.56179417,0.52775631,0.84254235,1.19051333
38043,0,USNorthDakotaKidder,North Dakota,Kidder,2021-01-05 13:44:01.791146,2020-11-25 00:00:00.000000,17.97820166,23.34336358,32.30362736,445,578,801,227,353,522,9.16313323,14.26354163,21.07458177,0.52446359,0.84978964,1.21436053
38043,0,USNorthDakotaKidder,North Dakota,Kidder,2021-01-05 13:44:01.791146,2020-11-26 00:00:00.000000,18.07756611,23.05485941,31.79359676,448,571,788,225,351,531,9.08343886,14.17516601,21.44437062,0.52184334,0.84162390,1.26283299
38043,0,USNorthDakotaKidder,North Dakota,Kidder,2021-01-05 13:44:01.791146,2020-11-27 00:00:00.000000,17.64705778,22.28255409,30.97580534,437,552,768,222,345,537,8.98525466,13.91300278,21.67171074,0.50765789,0.83562007,1.27194299
38043,0,USNorthDakotaKidder,North Dakota,Kidder,2021-01-05 13:44:01.791146,2020-11-28 00:00:00.000000,17.01360745,21.91514879,30.07002281,421,543,745,219,338,531,8.86067090,13.66744326,21.42318824,0.47526511,0.79987169,1.32123695
38043,0,USNorthDakotaKidder,North Dakota,Kidder,2021-01-05 13:44:01.791146,2020-11-29 00:00:00.000000,16.35101970,21.34449810,29.09394434,405,529,721,215,331,521,8.69724269,13.36122295,21.01526259,0.38273481,0.78011717,1.35035949
38043,0,USNorthDakotaKidder,North Dakota,Kidder,2021-01-05 13:44:01.791146,2020-11-30 00:00:00.000000,15.82005700,20.63032277,27.97511252,392,511,693,210,322,509,8.49252570,12.99044723,20.53682200,0.35707265,0.76327007,1.35982256
38043,0,USNorthDakotaKidder,North Dakota,Kidder,2021-01-05 13:44:01.791146,2020-12-01 00:00:00.000000,15.27933046,19.82005823,26.81841656,378,491,665,204,315,495,8.25666475,12.72014137,19.98086012,0.35326665,0.73628471,1.36777049
38043,0,USNorthDakotaKidder,North Dakota,Kidder,2021-01-05 13:44:01.791146,2020-12-02 00:00:00.000000,14.73851455,19.02653976,25.63425610,365,471,635,198,309,480,7.99688086,12.45973757,19.36257856,0.35240724,0.71821017,1.37342705
38043,0,USNorthDakotaKidder,North Dakota,Kidder,2021-01-05 13:44:01.791146,2020-12-03 00:00:00.000000,14.19751544,18.29493182,24.43495639,352,453,605,191,299,463,7.71767626,12.08398426,18.69507380,0.34294288,0.71873638,1.53409083
38043,0,USNorthDakotaKidder,North Dakota,Kidder,2021-01-05 13:44:01.791146,2020-12-04 00:00:00.000000,13.58425212,17.54250017,23.30165686,336,435,577,184,289,446,7.42128908,11.66536904,17.98993715,0.32749579,0.71943797,1.57754465
38043,0,USNorthDakotaKidder,North Dakota,Kidder,2021-01-05 13:44:01.791146,2020-12-05 00:00:00.000000,12.82424454,16.51713201,22.24493931,318,409,551,176,276,428,7.10975227,11.16332810,17.25820246,0.29438768,0.71121273,1.58145456
38043,0,USNorthDakotaKidder,North Dakota,Kidder,2021-01-05 13:44:01.791146,2020-12-06 00:00:00.000000,11.89732756,15.62232617,21.18558410,295,387,525,168,263,409,6.78671315,10.62778856,16.51010707,0.26621200,0.70877695,1.58935227
38043,0,USNorthDakotaKidder,North Dakota,Kidder,2021-01-05 13:44:01.791146,2020-12-07 00:00:00.000000,11.03190841,14.92197001,20.08549239,273,370,498,160,251,392,6.45747422,10.13199078,15.80764180,0.24904083,0.68776831,1.63883644
38043,0,USNorthDakotaKidder,North Dakota,Kidder,2021-01-05 13:44:01.791146,2020-12-08 00:00:00.000000,10.23107652,14.13387607,19.12523697,253,350,474,151,241,374,6.11431458,9.73062229,15.11253441,0.23486241,0.66265538,1.66224716
38043,0,USNorthDakotaKidder,North Dakota,Kidder,2021-01-05 13:44:01.791146,2020-12-09 00:00:00.000000,9.48919783,13.34754046,18.16761406,235,331,450,143,231,357,5.76727704,9.34046049,14.40375053,0.22112748,0.64507961,1.65658968
38043,0,USNorthDakotaKidder,North Dakota,Kidder,2021-01-05 13:44:01.791146,2020-12-10 00:00:00.000000,8.79992760,12.58646297,17.29234782,218,312,428,134,218,339,5.42384065,8.82351481,13.69125613,0.21195241,0.61265522,1.67444456
38043,0,USNorthDakotaKidder,North Dakota,Kidder,2021-01-05 13:44:01.791146,2020-12-11 00:00:00.000000,8.15850152,11.88634393,16.54925977,202,294,410,126,206,321,5.08929671,8.33921024,12.98306064,0.20794964,0.58798967,1.79610278
38043,0,USNorthDakotaKidder,North Dakota,Kidder,2021-01-05 13:44:01.791146,2020-12-12 00:00:00.000000,7.56207732,11.25698314,15.82897525,187,279,392,118,196,304,4.76719643,7.92060929,12.28554848,0.20687146,0.57247305,1.90789821
38043,0,USNorthDakotaKidder,North Dakota,Kidder,2021-01-05 13:44:01.791146,2020-12-13 00:00:00.000000,7.00962765,10.62529573,15.13007815,173,263,375,110,185,291,4.45976566,7.49691265,11.74272910,0.20652944,0.56054856,1.95751268
38043,0,USNorthDakotaKidder,North Dakota,Kidder,2021-01-05 13:44:01.791146,2020-12-14 00:00:00.000000,6.46411296,10.00648374,14.43224644,160,248,357,103,175,279,4.16822273,7.07425196,11.25950522,0.20642433,0.53864707,1.93957919
38043,0,USNorthDakotaKidder,North Dakota,Kidder,2021-01-05 13:44:01.791146,2020-12-15 00:00:00.000000,5.95889520,9.44029369,13.74879703,147,234,340,96,165,267,3.90191168,6.66885425,10.78327934,0.20647989,0.53173356,1.90450143
38043,0,USNorthDakotaKidder,North Dakota,Kidder,2021-01-05 13:44:01.791146,2020-12-16 00:00:00.000000,5.49117894,8.89890445,12.92004699,136,220,320,90,156,255,3.65678802,6.31233838,10.31464275,0.20693049,0.52700877,1.98034319
38043,0,USNorthDakotaKidder,North Dakota,Kidder,2021-01-05 13:44:01.791146,2020-12-17 00:00:00.000000,5.07974962,8.36638932,12.08956628,125,207,299,85,148,244,3.42879841,5.98161830,9.85512468,0.20876052,0.52260309,2.04229295
38043,0,USNorthDakotaKidder,North Dakota,Kidder,2021-01-05 13:44:01.791146,2020-12-18 00:00:00.000000,4.76590206,7.87514525,11.30559578,118,195,280,79,140,233,3.21569613,5.66137009,9.40678745,0.21405758,0.52159990,2.21917547
38043,0,USNorthDakotaKidder,North Dakota,Kidder,2021-01-05 13:44:01.791146,2020-12-19 00:00:00.000000,4.47537997,7.32568607,10.70911999,110,181,265,74,132,220,3.01681304,5.33501908,8.90292164,0.21153890,0.52488678,2.12677088
38043,0,USNorthDakotaKidder,North Dakota,Kidder,2021-01-05 13:44:01.791146,2020-12-20 00:00:00.000000,4.17645010,6.86121665,10.28537196,103,170,255,70,124,206,2.83168685,5.01411249,8.33829750,0.21009516,0.53183541,2.06585979
38043,0,USNorthDakotaKidder,North Dakota,Kidder,2021-01-05 13:44:01.791146,2020-12-21 00:00:00.000000,3.87098510,6.42211207,9.78299015,96,159,242,65,117,193,2.65942211,4.73241180,7.80439188,0.20854264,0.52642821,2.06630807
38043,0,USNorthDakotaKidder,North Dakota,Kidder,2021-01-05 13:44:01.791146,2020-12-22 00:00:00.000000,3.65849108,6.01533854,9.30437183,90,149,230,61,109,181,2.49800389,4.42850319,7.33461755,0.19538315,0.53226872,2.10536301
38043,0,USNorthDakotaKidder,North Dakota,Kidder,2021-01-05 13:44:01.791146,2020-12-23 00:00:00.000000,3.49542423,5.63909091,8.84894738,86,139,219,58,102,171,2.34647902,4.13605604,6.91634538,0.19945620,0.53265488,2.12259487
38043,0,USNorthDakotaKidder,North Dakota,Kidder,2021-01-05 13:44:01.791146,2020-12-24 00:00:00.000000,3.29215460,5.31721065,8.41785286,81,131,208,54,96,162,2.20485155,3.89669323,6.54024911,0.18804109,0.52948709,2.09063341
38043,0,USNorthDakotaKidder,North Dakota,Kidder,2021-01-05 13:44:01.791146,2020-12-25 00:00:00.000000,3.10596971,5.02250485,8.01135660,77,124,198,51,91,154,2.07317091,3.67085159,6.22948995,0.17463527,0.52179136,2.09028668
38043,0,USNorthDakotaKidder,North Dakota,Kidder,2021-01-05 13:44:01.791146,2020-12-26 00:00:00.000000,2.93566007,4.72033413,7.62896700,72,117,189,48,85,147,1.95129557,3.45474681,5.93627282,0.17316924,0.51999090,2.11371434
38043,0,USNorthDakotaKidder,North Dakota,Kidder,2021-01-05 13:44:01.791146,2020-12-27 00:00:00.000000,2.76432442,4.44205501,7.26987754,68,110,180,45,80,140,1.83891494,3.23878132,5.65606950,0.17269516,0.50943884,2.13099524
38043,0,USNorthDakotaKidder,North Dakota,Kidder,2021-01-05 13:44:01.791146,2020-12-28 00:00:00.000000,2.51553843,4.10716951,6.80623484,62,101,168,43,75,133,1.73560813,3.04533299,5.38954517,0.17250065,0.51911300,2.20377758
38043,0,USNorthDakotaKidder,North Dakota,Kidder,2021-01-05 13:44:01.791146,2020-12-29 00:00:00.000000,2.28661144,3.79274242,6.36399536,56,94,157,40,71,126,1.62407278,2.86877864,5.11172937,0.17242466,0.52827357,2.22285941
38043,0,USNorthDakotaKidder,North Dakota,Kidder,2021-01-05 13:44:01.791146,2020-12-30 00:00:00.000000,2.08598557,3.49731430,5.94185077,51,86,147,37,66,119,1.50993374,2.68503715,4.83013058,0.17247548,0.51137166,2.18801818
38043,0,USNorthDakotaKidder,North Dakota,Kidder,2021-01-05 13:44:01.791146,2020-12-31 00:00:00.000000,1.91525279,3.23017290,5.58473777,47,80,138,34,61,112,1.39688808,2.49834460,4.55019798,0.17328550,0.51713595,2.29985044
38043,0,USNorthDakotaKidder,North Dakota,Kidder,2021-01-05 13:44:01.791146,2021-01-01 00:00:00.000000,1.75601255,2.97587728,5.24556333,43,73,130,31,57,106,1.28734203,2.32076772,4.27579139,0.17968850,0.53366008,2.44269783
38043,0,USNorthDakotaKidder,North Dakota,Kidder,2021-01-05 13:44:01.791146,2021-01-02 00:00:00.000000,1.58893685,2.73655409,4.92350442,39,67,122,29,53,99,1.16968972,2.13943326,4.00952594,0.19334930,0.54408841,2.52066947
38043,0,USNorthDakotaKidder,North Dakota,Kidder,2021-01-05 13:44:01.791146,2021-01-03 00:00:00.000000,1.42096060,2.51465906,4.61852308,35,62,114,26,48,93,1.04896111,1.97395537,3.75312309,0.19291089,0.54170893,2.68875505
38043,0,USNorthDakotaKidder,North Dakota,Kidder,2021-01-05 13:44:01.791146,2021-01-04 00:00:00.000000,1.27072808,2.30632075,4.33033142,31,57,107,23,45,86,0.93962704,1.82516762,3.50776873,0.19160794,0.53630191,2.78797674
38043,0,USNorthDakotaKidder,North Dakota,Kidder,2021-01-05 13:44:01.791146,2021-01-05 00:00:00.000000,1.14908954,2.12401674,4.05846643,28,52,100,20,41,81,0.84114630,1.68542314,3.27424558,0.19090656,0.52991055,2.69480403
38043,0,USNorthDakotaKidder,North Dakota,Kidder,2021-01-05 13:44:01.791146,2021-01-06 00:00:00.000000,1.04015800,1.95259238,3.80235219,25,48,94,18,38,75,0.75266961,1.55451384,3.05297320,0.19056530,0.52956471,2.66288414
38043,0,USNorthDakotaKidder,North Dakota,Kidder,2021-01-05 13:44:01.791146,2021-01-07 00:00:00.000000,0.94145511,1.79113950,3.56134492,23,44,88,16,35,71,0.67327890,1.43093657,2.86318844,0.19040414,0.52761336,2.65513897
38043,0,USNorthDakotaKidder,North Dakota,Kidder,2021-01-05 13:44:01.791146,2021-01-08 00:00:00.000000,0.85196126,1.64466942,3.33476350,21,40,82,14,32,66,0.60209914,1.31239010,2.68733834,0.19032812,0.52628181,2.65343029
38043,0,USNorthDakotaKidder,North Dakota,Kidder,2021-01-05 13:44:01.791146,2021-01-09 00:00:00.000000,0.77085102,1.51394096,3.12191021,19,37,77,13,29,62,0.53832160,1.19907977,2.52098166,0.19029215,0.52548058,2.65306153
38043,0,USNorthDakotaKidder,North Dakota,Kidder,2021-01-05 13:44:01.791146,2021-01-10 00:00:00.000000,0.69736573,1.39299866,2.92208513,17,34,72,11,27,58,0.48120619,1.09474321,2.36386948,0.19027508,0.52502674,2.65298234
38043,0,USNorthDakotaKidder,North Dakota,Kidder,2021-01-05 13:44:01.791146,2021-01-11 00:00:00.000000,0.63080954,1.28201937,2.73459617,15,31,67,10,24,54,0.43007915,1.00426670,2.21569723,0.19026696,0.52477870,2.65296536
38043,0,USNorthDakotaKidder,North Dakota,Kidder,2021-01-05 13:44:01.791146,2021-01-12 00:00:00.000000,0.57054546,1.17930992,2.55854494,14,29,63,9,22,51,0.38432930,0.92657795,2.07612264,0.19026310,0.52464579,2.65296172
38043,0,USNorthDakotaKidder,North Dakota,Kidder,2021-01-05 13:44:01.791146,2021-01-13 00:00:00.000000,0.51599145,1.08472039,2.39351695,12,26,59,8,21,48,0.34340375,0.85135963,1.94477966,0.19026126,0.52457533,2.65296094
38043,0,USNorthDakotaKidder,North Dakota,Kidder,2021-01-05 13:44:01.791146,2021-01-14 00:00:00.000000,0.46661650,0.99763101,2.23888454,11,24,55,7,19,45,0.30680342,0.78119412,1.82128914,0.19026039,0.52453817,2.65296077
38043,0,USNorthDakotaKidder,North Dakota,Kidder,2021-01-05 13:44:01.791146,2021-01-15 00:00:00.000000,0.42193678,0.91746412,2.09403701,10,22,51,6,17,42,0.27407858,0.72038085,1.70526694,0.19025997,0.52451864,2.65296074
38043,0,USNorthDakotaKidder,North Dakota,Kidder,2021-01-05 13:44:01.791146,2021-01-16 00:00:00.000000,0.38151197,0.84032630,1.95839106,9,20,48,6,16,39,0.24482455,0.66594444,1.59633009,0.19025977,0.52450838,2.65296073
38043,0,USNorthDakotaKidder,North Dakota,Kidder,2021-01-05 13:44:01.791146,2021-01-17 00:00:00.000000,0.34494171,0.76947449,1.83139139,8,19,45,5,15,37,0.21867759,0.61265081,1.49410134,0.19025967,0.52450299,2.65296073
