FIPS,HR_UID,nameid,province,region,analysisTime,dates,pointprevalence_025,pointprevalence_50,pointprevalence_975,pointinfections_025,pointinfections_50,pointinfections_975,pointinfectious_025,pointinfectious_50,pointinfectious_975,pointinfectiousprevalence_05,pointinfectiousprevalence_50,pointinfectiousprevalence_95,infectrate_025,infectrate_50,infectrate_975
12075,0,USFloridaLevy,Florida,Levy,2021-01-06 02:42:01.286294,2020-03-09 00:00:00.000000,0.00126425,0.00702405,0.02220642,0,2,9,0,1,5,0.00076470,0.00406164,0.01249295,0.41769043,0.52923308,0.70166930
12075,0,USFloridaLevy,Florida,Levy,2021-01-06 02:42:01.286294,2020-03-10 00:00:00.000000,0.00145319,0.00793097,0.02421734,0,3,10,0,1,5,0.00071792,0.00392009,0.01217124,0.41765168,0.52921591,0.70159209
12075,0,USFloridaLevy,Florida,Levy,2021-01-06 02:42:01.286294,2020-03-11 00:00:00.000000,0.00163222,0.00878991,0.02632708,0,3,10,0,1,5,0.00071613,0.00407316,0.01258755,0.41757083,0.52917504,0.70137346
12075,0,USFloridaLevy,Florida,Levy,2021-01-06 02:42:01.286294,2020-03-12 00:00:00.000000,0.00180996,0.00963140,0.02855842,0,3,11,0,1,5,0.00074447,0.00440740,0.01363705,0.41740222,0.52907779,0.70075559
12075,0,USFloridaLevy,Florida,Levy,2021-01-06 02:42:01.286294,2020-03-13 00:00:00.000000,0.00199244,0.01058446,0.03093014,0,4,12,0,2,6,0.00079371,0.00485685,0.01464002,0.41705106,0.52901652,0.69902017
12075,0,USFloridaLevy,Florida,Levy,2021-01-06 02:42:01.286294,2020-03-14 00:00:00.000000,0.00218405,0.01161880,0.03345911,0,4,13,0,2,6,0.00085823,0.00532077,0.01574955,0.41632192,0.52895136,0.69422908
12075,0,USFloridaLevy,Florida,Levy,2021-01-06 02:42:01.286294,2020-03-15 00:00:00.000000,0.00238815,0.01273604,0.03616081,0,5,15,0,2,7,0.00093475,0.00583192,0.01693787,0.41594957,0.52871454,0.68160960
12075,0,USFloridaLevy,Florida,Levy,2021-01-06 02:42:01.286294,2020-03-16 00:00:00.000000,0.00495297,0.01663499,0.04280778,2,6,17,0,2,7,0.00102146,0.00627030,0.01818780,0.41517745,0.52790331,0.66324206
12075,0,USFloridaLevy,Florida,Levy,2021-01-06 02:42:01.286294,2020-03-17 00:00:00.000000,0.00703882,0.02175173,0.04971669,2,9,20,0,2,8,0.00194838,0.00714158,0.01980952,0.40944331,0.52176456,0.65800228
12075,0,USFloridaLevy,Florida,Levy,2021-01-06 02:42:01.286294,2020-03-18 00:00:00.000000,0.00856794,0.02725438,0.05527207,3,11,22,1,3,9,0.00268430,0.00888587,0.02170641,0.39648188,0.51164574,0.63955860
12075,0,USFloridaLevy,Florida,Levy,2021-01-06 02:42:01.286294,2020-03-19 00:00:00.000000,0.01020980,0.03269092,0.06081803,4,13,25,1,4,10,0.00335627,0.01103261,0.02568934,0.36422233,0.49650969,0.63443030
12075,0,USFloridaLevy,Florida,Levy,2021-01-06 02:42:01.286294,2020-03-20 00:00:00.000000,0.01197080,0.03678358,0.06770709,4,15,28,1,5,11,0.00413869,0.01342268,0.02890879,0.34063887,0.46693411,0.63341296
12075,0,USFloridaLevy,Florida,Levy,2021-01-06 02:42:01.286294,2020-03-21 00:00:00.000000,0.01384604,0.04090281,0.07566477,5,16,31,2,6,13,0.00530991,0.01541980,0.03212396,0.32221424,0.44993117,0.62796437
12075,0,USFloridaLevy,Florida,Levy,2021-01-06 02:42:01.286294,2020-03-22 00:00:00.000000,0.01580120,0.04640694,0.08261131,6,19,34,2,7,15,0.00657654,0.01792937,0.03745872,0.30477307,0.43082948,0.60287554
12075,0,USFloridaLevy,Florida,Levy,2021-01-06 02:42:01.286294,2020-03-23 00:00:00.000000,0.01888528,0.05133781,0.08972490,7,21,37,3,8,17,0.00746821,0.02083441,0.04284863,0.29594217,0.40320067,0.56820580
12075,0,USFloridaLevy,Florida,Levy,2021-01-06 02:42:01.286294,2020-03-24 00:00:00.000000,0.02146203,0.05679435,0.09707633,8,23,40,3,9,19,0.00872308,0.02374270,0.04597616,0.29207967,0.39319897,0.53648286
12075,0,USFloridaLevy,Florida,Levy,2021-01-06 02:42:01.286294,2020-03-25 00:00:00.000000,0.02411214,0.06281531,0.10458421,10,26,43,4,10,20,0.01031314,0.02649992,0.04954058,0.28737193,0.37647720,0.51308127
12075,0,USFloridaLevy,Florida,Levy,2021-01-06 02:42:01.286294,2020-03-26 00:00:00.000000,0.02676539,0.06901442,0.11246345,11,28,46,4,12,22,0.01176839,0.02919979,0.05457932,0.25663915,0.36366392,0.48502249
12075,0,USFloridaLevy,Florida,Levy,2021-01-06 02:42:01.286294,2020-03-27 00:00:00.000000,0.02982224,0.07366961,0.12010773,12,30,49,5,13,24,0.01324811,0.03237807,0.05966650,0.24102471,0.35277773,0.47984002
12075,0,USFloridaLevy,Florida,Levy,2021-01-06 02:42:01.286294,2020-03-28 00:00:00.000000,0.03292184,0.07714295,0.12928919,13,32,53,6,14,26,0.01474592,0.03540228,0.06455162,0.22709270,0.33208673,0.46835369
12075,0,USFloridaLevy,Florida,Levy,2021-01-06 02:42:01.286294,2020-03-29 00:00:00.000000,0.03601723,0.08232394,0.13704684,14,34,56,6,15,28,0.01649627,0.03839439,0.06903347,0.22484849,0.31319067,0.45398012
12075,0,USFloridaLevy,Florida,Levy,2021-01-06 02:42:01.286294,2020-03-30 00:00:00.000000,0.04146750,0.08796704,0.14088301,17,36,58,7,17,30,0.01829201,0.04102043,0.07305483,0.21572168,0.30749693,0.42956986
12075,0,USFloridaLevy,Florida,Levy,2021-01-06 02:42:01.286294,2020-03-31 00:00:00.000000,0.04530328,0.09385634,0.14966312,18,38,62,8,18,32,0.02059529,0.04404055,0.07754600,0.20122184,0.29848722,0.40831622
12075,0,USFloridaLevy,Florida,Levy,2021-01-06 02:42:01.286294,2020-04-01 00:00:00.000000,0.04771114,0.09925246,0.15570855,19,41,64,9,19,34,0.02325498,0.04668243,0.08233219,0.19326316,0.29642851,0.39057475
12075,0,USFloridaLevy,Florida,Levy,2021-01-06 02:42:01.286294,2020-04-02 00:00:00.000000,0.05004735,0.10495854,0.16152206,20,43,67,10,20,36,0.02527817,0.05005345,0.08729603,0.19154122,0.28648849,0.38020696
12075,0,USFloridaLevy,Florida,Levy,2021-01-06 02:42:01.286294,2020-04-03 00:00:00.000000,0.05491591,0.10997157,0.17271419,22,45,71,11,22,38,0.02723652,0.05311810,0.09209146,0.18783388,0.27598340,0.37246716
12075,0,USFloridaLevy,Florida,Levy,2021-01-06 02:42:01.286294,2020-04-04 00:00:00.000000,0.06014763,0.11464052,0.18412784,24,47,76,12,23,38,0.02921453,0.05606412,0.09390027,0.18642961,0.26424805,0.37185821
12075,0,USFloridaLevy,Florida,Levy,2021-01-06 02:42:01.286294,2020-04-05 00:00:00.000000,0.06210191,0.12033326,0.19464183,25,49,80,12,24,39,0.03119953,0.05835790,0.09626382,0.17101894,0.26059060,0.35913991
12075,0,USFloridaLevy,Florida,Levy,2021-01-06 02:42:01.286294,2020-04-06 00:00:00.000000,0.06736171,0.12534644,0.20528167,27,52,85,13,25,42,0.03295477,0.06081706,0.10324709,0.16522725,0.25471620,0.35085036
12075,0,USFloridaLevy,Florida,Levy,2021-01-06 02:42:01.286294,2020-04-07 00:00:00.000000,0.07275892,0.13017307,0.21619389,30,54,89,14,26,45,0.03490444,0.06437927,0.11044602,0.14712749,0.25268221,0.34746390
12075,0,USFloridaLevy,Florida,Levy,2021-01-06 02:42:01.286294,2020-04-08 00:00:00.000000,0.07693047,0.13489564,0.22692350,31,55,94,15,28,48,0.03723969,0.06752580,0.11601231,0.14030335,0.24806430,0.34037788
12075,0,USFloridaLevy,Florida,Levy,2021-01-06 02:42:01.286294,2020-04-09 00:00:00.000000,0.07893909,0.13941407,0.23641243,32,57,98,16,29,50,0.03892011,0.06995867,0.12256816,0.13884669,0.23896467,0.33152214
12075,0,USFloridaLevy,Florida,Levy,2021-01-06 02:42:01.286294,2020-04-10 00:00:00.000000,0.08077382,0.14270988,0.24586668,33,59,102,16,30,53,0.03970694,0.07257300,0.12901459,0.13921423,0.23752765,0.32788889
12075,0,USFloridaLevy,Florida,Levy,2021-01-06 02:42:01.286294,2020-04-11 00:00:00.000000,0.08240671,0.14521031,0.25935717,34,60,107,16,30,56,0.04048916,0.07449058,0.13542541,0.14054414,0.23132744,0.32338318
12075,0,USFloridaLevy,Florida,Levy,2021-01-06 02:42:01.286294,2020-04-12 00:00:00.000000,0.08395108,0.15079802,0.27079338,34,62,112,17,32,58,0.04147657,0.07727761,0.14177411,0.14409387,0.22844331,0.32088022
12075,0,USFloridaLevy,Florida,Levy,2021-01-06 02:42:01.286294,2020-04-13 00:00:00.000000,0.08682024,0.15609439,0.28117860,36,64,116,17,33,59,0.04248734,0.07997366,0.14379008,0.14615182,0.22776027,0.31864558
12075,0,USFloridaLevy,Florida,Levy,2021-01-06 02:42:01.286294,2020-04-14 00:00:00.000000,0.09152331,0.16040430,0.29195840,37,66,121,18,34,60,0.04423786,0.08407217,0.14564006,0.14798743,0.22774321,0.31186070
12075,0,USFloridaLevy,Florida,Levy,2021-01-06 02:42:01.286294,2020-04-15 00:00:00.000000,0.10241817,0.16604630,0.30289186,42,68,125,20,36,62,0.04932268,0.08712130,0.15113919,0.14131537,0.22484191,0.31573454
12075,0,USFloridaLevy,Florida,Levy,2021-01-06 02:42:01.286294,2020-04-16 00:00:00.000000,0.10276763,0.17190884,0.31335782,42,71,130,22,37,65,0.05525725,0.08979626,0.15667753,0.14169069,0.22554988,0.31506088
12075,0,USFloridaLevy,Florida,Levy,2021-01-06 02:42:01.286294,2020-04-17 00:00:00.000000,0.10314028,0.17634877,0.32238287,42,73,133,25,37,67,0.06158674,0.09087195,0.16196132,0.14745798,0.22685058,0.32045359
12075,0,USFloridaLevy,Florida,Levy,2021-01-06 02:42:01.286294,2020-04-18 00:00:00.000000,0.10362233,0.18046399,0.33084773,43,74,137,26,38,69,0.06360710,0.09370558,0.16711156,0.14357683,0.22553163,0.31915915
12075,0,USFloridaLevy,Florida,Levy,2021-01-06 02:42:01.286294,2020-04-19 00:00:00.000000,0.10417280,0.18500221,0.33874802,43,76,140,26,39,71,0.06469405,0.09622964,0.17154739,0.14092817,0.22255737,0.32116700
12075,0,USFloridaLevy,Florida,Levy,2021-01-06 02:42:01.286294,2020-04-20 00:00:00.000000,0.10560162,0.19088505,0.34894608,43,79,144,27,41,72,0.06571628,0.10012919,0.17385316,0.14124331,0.21938140,0.32165007
12075,0,USFloridaLevy,Florida,Levy,2021-01-06 02:42:01.286294,2020-04-21 00:00:00.000000,0.11155166,0.19552966,0.36371753,46,81,150,27,42,73,0.06657145,0.10298076,0.17719769,0.14139175,0.21734244,0.32169368
12075,0,USFloridaLevy,Florida,Levy,2021-01-06 02:42:01.286294,2020-04-22 00:00:00.000000,0.11938109,0.20162871,0.37941276,49,83,157,27,43,75,0.06720413,0.10384229,0.18297100,0.14165416,0.22240950,0.32177520
12075,0,USFloridaLevy,Florida,Levy,2021-01-06 02:42:01.286294,2020-04-23 00:00:00.000000,0.12153979,0.20716478,0.39169789,50,85,162,28,43,78,0.06758615,0.10521087,0.18885679,0.14262441,0.22017415,0.32348080
12075,0,USFloridaLevy,Florida,Levy,2021-01-06 02:42:01.286294,2020-04-24 00:00:00.000000,0.12052159,0.21198624,0.40229834,50,87,166,29,45,80,0.07058679,0.10915615,0.19484986,0.14311009,0.22190903,0.32948841
12075,0,USFloridaLevy,Florida,Levy,2021-01-06 02:42:01.286294,2020-04-25 00:00:00.000000,0.12121079,0.21984556,0.41394963,50,91,171,31,46,83,0.07471177,0.11244264,0.20094736,0.14088689,0.22324467,0.32776760
12075,0,USFloridaLevy,Florida,Levy,2021-01-06 02:42:01.286294,2020-04-26 00:00:00.000000,0.12441582,0.22580861,0.43279857,51,93,179,31,48,85,0.07517174,0.11791079,0.20714384,0.13919172,0.22383841,0.33151006
12075,0,USFloridaLevy,Florida,Levy,2021-01-06 02:42:01.286294,2020-04-27 00:00:00.000000,0.12714698,0.23066856,0.45170928,52,95,187,31,49,88,0.07562834,0.11939045,0.21336663,0.13655016,0.22409188,0.34780859
12075,0,USFloridaLevy,Florida,Levy,2021-01-06 02:42:01.286294,2020-04-28 00:00:00.000000,0.13540278,0.23777735,0.46670779,56,98,193,31,50,91,0.07664328,0.12170431,0.21982754,0.14608908,0.22560647,0.34792180
12075,0,USFloridaLevy,Florida,Levy,2021-01-06 02:42:01.286294,2020-04-29 00:00:00.000000,0.14160790,0.24216248,0.47750771,58,100,198,32,51,94,0.07797066,0.12513330,0.22651322,0.14629500,0.23087776,0.34785111
12075,0,USFloridaLevy,Florida,Levy,2021-01-06 02:42:01.286294,2020-04-30 00:00:00.000000,0.14418249,0.24878779,0.48830335,59,103,202,32,53,96,0.07948197,0.12934810,0.23337985,0.15212483,0.23402151,0.34783184
12075,0,USFloridaLevy,Florida,Levy,2021-01-06 02:42:01.286294,2020-05-01 00:00:00.000000,0.14716908,0.25481398,0.49898012,61,105,207,33,54,99,0.08111751,0.13158945,0.24039549,0.16098788,0.23713409,0.34782370
12075,0,USFloridaLevy,Florida,Levy,2021-01-06 02:42:01.286294,2020-05-02 00:00:00.000000,0.15037462,0.26126820,0.50946866,62,108,211,34,55,103,0.08270064,0.13358607,0.24824511,0.16560800,0.24008222,0.36007934
12075,0,USFloridaLevy,Florida,Levy,2021-01-06 02:42:01.286294,2020-05-03 00:00:00.000000,0.15368602,0.26492339,0.51976966,63,109,215,35,56,106,0.08463851,0.13647291,0.25618587,0.16800136,0.24094838,0.36311438
12075,0,USFloridaLevy,Florida,Levy,2021-01-06 02:42:01.286294,2020-05-04 00:00:00.000000,0.15881862,0.27340157,0.53279139,65,113,221,35,57,109,0.08662532,0.13945908,0.26420985,0.18555673,0.24605724,0.35616528
12075,0,USFloridaLevy,Florida,Levy,2021-01-06 02:42:01.286294,2020-05-05 00:00:00.000000,0.16404344,0.27771459,0.54588182,68,115,226,36,59,114,0.08876298,0.14273986,0.27481955,0.18777623,0.24752897,0.35687259
12075,0,USFloridaLevy,Florida,Levy,2021-01-06 02:42:01.286294,2020-05-06 00:00:00.000000,0.16944054,0.28935380,0.55912603,70,120,232,37,60,118,0.09111672,0.14685401,0.28582704,0.19249575,0.25468210,0.36815679
12075,0,USFloridaLevy,Florida,Levy,2021-01-06 02:42:01.286294,2020-05-07 00:00:00.000000,0.17850315,0.29828550,0.57260912,74,123,237,38,62,120,0.09370083,0.15084859,0.29084793,0.20209114,0.26036881,0.37432459
12075,0,USFloridaLevy,Florida,Levy,2021-01-06 02:42:01.286294,2020-05-08 00:00:00.000000,0.18294078,0.30831971,0.58654648,75,127,243,40,64,121,0.09657080,0.15497420,0.29368906,0.20589517,0.26256419,0.39057290
12075,0,USFloridaLevy,Florida,Levy,2021-01-06 02:42:01.286294,2020-05-09 00:00:00.000000,0.18750460,0.32331283,0.60320942,77,134,250,41,66,125,0.09988851,0.16139368,0.30210386,0.20831541,0.27332920,0.39702714
12075,0,USFloridaLevy,Florida,Levy,2021-01-06 02:42:01.286294,2020-05-10 00:00:00.000000,0.19322730,0.33353916,0.62527017,80,138,259,43,68,129,0.10383019,0.16568918,0.31098684,0.21257700,0.28398025,0.40443542
12075,0,USFloridaLevy,Florida,Levy,2021-01-06 02:42:01.286294,2020-05-11 00:00:00.000000,0.20988707,0.34941659,0.64836583,87,145,269,44,72,132,0.10840925,0.17388359,0.31962202,0.21710586,0.29143525,0.42378267
12075,0,USFloridaLevy,Florida,Levy,2021-01-06 02:42:01.286294,2020-05-12 00:00:00.000000,0.22675109,0.36257825,0.67239691,94,150,279,47,75,136,0.11493208,0.18310443,0.32846375,0.22333640,0.29890589,0.45462181
12075,0,USFloridaLevy,Florida,Levy,2021-01-06 02:42:01.286294,2020-05-13 00:00:00.000000,0.24287475,0.37964598,0.69723034,100,157,289,50,78,140,0.12118000,0.18991923,0.33754744,0.22871457,0.30311783,0.45595491
12075,0,USFloridaLevy,Florida,Levy,2021-01-06 02:42:01.286294,2020-05-14 00:00:00.000000,0.25107763,0.40053830,0.72277116,104,166,299,52,81,144,0.12546805,0.19745018,0.34912659,0.24070598,0.31076362,0.47797715
12075,0,USFloridaLevy,Florida,Levy,2021-01-06 02:42:01.286294,2020-05-15 00:00:00.000000,0.26003404,0.42352651,0.73600295,107,175,305,53,84,150,0.12973212,0.20464395,0.36143832,0.24081647,0.32181725,0.49487245
12075,0,USFloridaLevy,Florida,Levy,2021-01-06 02:42:01.286294,2020-05-16 00:00:00.000000,0.27049179,0.44875050,0.76112268,112,186,315,55,89,155,0.13422600,0.21641158,0.37437755,0.24114958,0.33115564,0.50477001
12075,0,USFloridaLevy,Florida,Levy,2021-01-06 02:42:01.286294,2020-05-17 00:00:00.000000,0.28346668,0.46902326,0.79345345,117,194,329,57,93,161,0.13908997,0.22638411,0.38809433,0.23395211,0.34826133,0.51577007
12075,0,USFloridaLevy,Florida,Levy,2021-01-06 02:42:01.286294,2020-05-18 00:00:00.000000,0.29742510,0.49688797,0.83373693,123,206,346,59,97,167,0.14432213,0.23546641,0.40282941,0.23672102,0.35978155,0.52788402
12075,0,USFloridaLevy,Florida,Levy,2021-01-06 02:42:01.286294,2020-05-19 00:00:00.000000,0.31451075,0.52804427,0.87551554,130,219,363,62,104,173,0.15038152,0.25217899,0.41855157,0.25016221,0.37081463,0.53524217
12075,0,USFloridaLevy,Florida,Levy,2021-01-06 02:42:01.286294,2020-05-20 00:00:00.000000,0.33125470,0.56018333,0.91828400,137,232,381,65,112,180,0.15710461,0.27135487,0.43532577,0.26869137,0.38812320,0.54126713
12075,0,USFloridaLevy,Florida,Levy,2021-01-06 02:42:01.286294,2020-05-21 00:00:00.000000,0.34835090,0.59461221,0.95804056,144,246,397,68,120,188,0.16502703,0.29015418,0.45313898,0.27430195,0.40087839,0.54542732
12075,0,USFloridaLevy,Florida,Levy,2021-01-06 02:42:01.286294,2020-05-22 00:00:00.000000,0.36666631,0.63769294,1.00261235,152,264,416,74,126,198,0.17912858,0.30508912,0.47711260,0.29843124,0.41415289,0.55931607
12075,0,USFloridaLevy,Florida,Levy,2021-01-06 02:42:01.286294,2020-05-23 00:00:00.000000,0.38837607,0.68315068,1.05809139,161,283,439,80,134,212,0.19446761,0.32513162,0.51191541,0.30721019,0.42080584,0.58078484
12075,0,USFloridaLevy,Florida,Levy,2021-01-06 02:42:01.286294,2020-05-24 00:00:00.000000,0.41577517,0.74223973,1.12206765,172,308,465,87,144,228,0.21088580,0.34713536,0.54998705,0.32066966,0.42939425,0.59675672
12075,0,USFloridaLevy,Florida,Levy,2021-01-06 02:42:01.286294,2020-05-25 00:00:00.000000,0.44432915,0.79277974,1.19192742,184,329,494,94,154,245,0.22789774,0.37158620,0.59152903,0.32173630,0.44188823,0.60085045
12075,0,USFloridaLevy,Florida,Levy,2021-01-06 02:42:01.286294,2020-05-26 00:00:00.000000,0.48482884,0.84835885,1.26568350,201,352,525,100,164,263,0.24181444,0.39544643,0.63501955,0.32905511,0.44677487,0.59353607
12075,0,USFloridaLevy,Florida,Levy,2021-01-06 02:42:01.286294,2020-05-27 00:00:00.000000,0.52163294,0.91092300,1.34357206,216,378,557,107,178,282,0.25795867,0.42932005,0.68104020,0.33475187,0.45206275,0.59382973
12075,0,USFloridaLevy,Florida,Levy,2021-01-06 02:42:01.286294,2020-05-28 00:00:00.000000,0.56194962,0.97695329,1.42594061,233,405,591,114,189,302,0.27588054,0.45716061,0.72975961,0.33433420,0.46122723,0.59353515
12075,0,USFloridaLevy,Florida,Levy,2021-01-06 02:42:01.286294,2020-05-29 00:00:00.000000,0.60581268,1.04707466,1.51324473,251,434,628,122,204,324,0.29530585,0.49232631,0.78099163,0.33625437,0.46394393,0.58609762
12075,0,USFloridaLevy,Florida,Levy,2021-01-06 02:42:01.286294,2020-05-30 00:00:00.000000,0.65314178,1.11628869,1.60580794,271,463,666,131,220,346,0.31608062,0.53095415,0.83418933,0.34261829,0.45641983,0.58292249
12075,0,USFloridaLevy,Florida,Levy,2021-01-06 02:42:01.286294,2020-05-31 00:00:00.000000,0.70371751,1.19270752,1.70368775,292,495,707,140,236,368,0.33955602,0.56981596,0.88854927,0.33936925,0.44538261,0.57959617
12075,0,USFloridaLevy,Florida,Levy,2021-01-06 02:42:01.286294,2020-06-01 00:00:00.000000,0.75403606,1.28420896,1.81058623,312,532,751,151,252,391,0.36451461,0.60918601,0.94334503,0.33013518,0.44243734,0.58225598
12075,0,USFloridaLevy,Florida,Levy,2021-01-06 02:42:01.286294,2020-06-02 00:00:00.000000,0.80634855,1.37300122,1.92301940,334,569,798,162,266,414,0.39192024,0.64208463,0.99818247,0.31855688,0.44139948,0.60111033
12075,0,USFloridaLevy,Florida,Levy,2021-01-06 02:42:01.286294,2020-06-03 00:00:00.000000,0.85943361,1.45994978,2.06320830,356,605,856,175,281,437,0.42209180,0.67785766,1.05323375,0.30959129,0.43217492,0.57996241
12075,0,USFloridaLevy,Florida,Levy,2021-01-06 02:42:01.286294,2020-06-04 00:00:00.000000,0.91286323,1.51678644,2.19394839,378,629,910,188,297,460,0.45440906,0.71584368,1.10890665,0.30444867,0.42028814,0.57400065
12075,0,USFloridaLevy,Florida,Levy,2021-01-06 02:42:01.286294,2020-06-05 00:00:00.000000,0.94128205,1.56647596,2.29638103,390,650,953,197,315,483,0.47469958,0.76102782,1.16564590,0.29238889,0.40746258,0.55840929
12075,0,USFloridaLevy,Florida,Levy,2021-01-06 02:42:01.286294,2020-06-06 00:00:00.000000,0.95838616,1.62008009,2.43335045,397,672,1009,204,334,507,0.49244672,0.80484860,1.22382533,0.27957137,0.39109909,0.52621262
12075,0,USFloridaLevy,Florida,Levy,2021-01-06 02:42:01.286294,2020-06-07 00:00:00.000000,0.97465315,1.67894255,2.57610016,404,696,1069,216,357,532,0.52198235,0.86184105,1.28327496,0.28256345,0.37430372,0.48751283
12075,0,USFloridaLevy,Florida,Levy,2021-01-06 02:42:01.286294,2020-06-08 00:00:00.000000,1.02786377,1.74580590,2.70334049,426,724,1121,230,377,552,0.55600330,0.90854726,1.33003987,0.26356462,0.35252175,0.44351850
12075,0,USFloridaLevy,Florida,Levy,2021-01-06 02:42:01.286294,2020-06-09 00:00:00.000000,1.09288800,1.81487923,2.77647392,453,753,1152,245,392,573,0.59124319,0.94550618,1.38291338,0.25534389,0.33098892,0.42314599
12075,0,USFloridaLevy,Florida,Levy,2021-01-06 02:42:01.286294,2020-06-10 00:00:00.000000,1.16030631,1.88196099,2.82804043,481,781,1173,260,408,608,0.62787604,0.98414348,1.46677507,0.24913536,0.31764345,0.40883840
12075,0,USFloridaLevy,Florida,Levy,2021-01-06 02:42:01.286294,2020-06-11 00:00:00.000000,1.22860489,1.95423175,2.85587678,509,811,1185,276,428,629,0.66599449,1.03260794,1.51756093,0.22927895,0.30966470,0.39995970
12075,0,USFloridaLevy,Florida,Levy,2021-01-06 02:42:01.286294,2020-06-12 00:00:00.000000,1.29497861,2.00707687,2.91000357,537,832,1207,292,441,644,0.70527340,1.06304150,1.55229827,0.20974668,0.29568668,0.38562637
12075,0,USFloridaLevy,Florida,Levy,2021-01-06 02:42:01.286294,2020-06-13 00:00:00.000000,1.35544930,2.05961760,2.98850977,562,854,1240,299,451,671,0.72262297,1.08867901,1.61741731,0.20223584,0.29001445,0.37961086
12075,0,USFloridaLevy,Florida,Levy,2021-01-06 02:42:01.286294,2020-06-14 00:00:00.000000,1.40696444,2.11346690,3.06400150,583,877,1271,302,460,688,0.72962038,1.11008385,1.65789552,0.19945364,0.28392664,0.35790697
12075,0,USFloridaLevy,Florida,Levy,2021-01-06 02:42:01.286294,2020-06-15 00:00:00.000000,1.43681954,2.15692498,3.13762492,596,895,1302,304,467,699,0.73370974,1.12726302,1.68476031,0.19109379,0.27731240,0.33381148
12075,0,USFloridaLevy,Florida,Levy,2021-01-06 02:42:01.286294,2020-06-16 00:00:00.000000,1.43748268,2.20361318,3.21082871,596,914,1332,305,476,716,0.73558325,1.14931217,1.72593691,0.19053380,0.26807895,0.32589248
12075,0,USFloridaLevy,Florida,Levy,2021-01-06 02:42:01.286294,2020-06-17 00:00:00.000000,1.43782890,2.24075917,3.28411609,596,929,1363,305,488,722,0.73583636,1.17784872,1.74191674,0.19074274,0.26452143,0.32525041
12075,0,USFloridaLevy,Florida,Levy,2021-01-06 02:42:01.286294,2020-06-18 00:00:00.000000,1.43813283,2.26227667,3.35559582,596,938,1392,305,500,727,0.73491158,1.20668244,1.75400379,0.19138788,0.25939193,0.32504467
12075,0,USFloridaLevy,Florida,Levy,2021-01-06 02:42:01.286294,2020-06-19 00:00:00.000000,1.43887800,2.28108768,3.40585564,597,946,1413,304,510,731,0.73314503,1.23021184,1.76199290,0.19205083,0.25835776,0.32456446
12075,0,USFloridaLevy,Florida,Levy,2021-01-06 02:42:01.286294,2020-06-20 00:00:00.000000,1.43961927,2.29870183,3.45899731,597,954,1435,303,517,743,0.73081520,1.24768365,1.79031108,0.19451458,0.25485862,0.32477639
12075,0,USFloridaLevy,Florida,Levy,2021-01-06 02:42:01.286294,2020-06-21 00:00:00.000000,1.44026005,2.32314566,3.51637251,597,964,1459,302,526,754,0.72823442,1.26775446,1.81879081,0.20205496,0.25613911,0.32508799
12075,0,USFloridaLevy,Florida,Levy,2021-01-06 02:42:01.286294,2020-06-22 00:00:00.000000,1.44465880,2.34122522,3.57829723,599,971,1485,301,533,766,0.72589552,1.28626995,1.84699088,0.20042353,0.25873108,0.32748921
12075,0,USFloridaLevy,Florida,Levy,2021-01-06 02:42:01.286294,2020-06-23 00:00:00.000000,1.44894560,2.35670970,3.64825543,601,978,1514,300,540,778,0.72381186,1.30313913,1.87677463,0.20042264,0.26053792,0.33820580
12075,0,USFloridaLevy,Florida,Levy,2021-01-06 02:42:01.286294,2020-06-24 00:00:00.000000,1.45325712,2.38413932,3.72700863,603,989,1546,299,547,794,0.72248122,1.31963425,1.91545024,0.20140184,0.26392171,0.34346949
12075,0,USFloridaLevy,Florida,Levy,2021-01-06 02:42:01.286294,2020-06-25 00:00:00.000000,1.45757946,2.43473584,3.81331464,604,1010,1582,299,556,809,0.72246562,1.34066777,1.95004860,0.20105946,0.26895505,0.35433875
12075,0,USFloridaLevy,Florida,Levy,2021-01-06 02:42:01.286294,2020-06-26 00:00:00.000000,1.46202729,2.47550230,3.90531111,606,1027,1620,303,565,813,0.73020065,1.36337806,1.95964763,0.20117636,0.27376874,0.36786595
12075,0,USFloridaLevy,Florida,Levy,2021-01-06 02:42:01.286294,2020-06-27 00:00:00.000000,1.47434911,2.51538911,4.00184300,611,1043,1660,311,572,818,0.75165740,1.37974167,1.97325205,0.20121411,0.28615292,0.38020566
12075,0,USFloridaLevy,Florida,Levy,2021-01-06 02:42:01.286294,2020-06-28 00:00:00.000000,1.51753519,2.57302694,4.10270856,629,1067,1702,321,577,832,0.77513800,1.39076552,2.00531493,0.21799522,0.30097145,0.39976205
12075,0,USFloridaLevy,Florida,Levy,2021-01-06 02:42:01.286294,2020-06-29 00:00:00.000000,1.54752695,2.62043156,4.18617735,642,1087,1737,332,586,845,0.80122421,1.41213944,2.03740989,0.23071786,0.30842690,0.41377110
12075,0,USFloridaLevy,Florida,Levy,2021-01-06 02:42:01.286294,2020-06-30 00:00:00.000000,1.59096557,2.66662194,4.24590812,660,1106,1762,344,593,858,0.82970481,1.43076003,2.06895788,0.24002355,0.31350555,0.41970033
12075,0,USFloridaLevy,Florida,Levy,2021-01-06 02:42:01.286294,2020-07-01 00:00:00.000000,1.64011427,2.74623148,4.30723429,680,1139,1787,357,604,872,0.86087990,1.45595537,2.10220810,0.24301070,0.31614405,0.44095495
12075,0,USFloridaLevy,Florida,Levy,2021-01-06 02:42:01.286294,2020-07-02 00:00:00.000000,1.67265806,2.83740745,4.39235258,694,1177,1822,371,617,887,0.89480735,1.48799176,2.13848795,0.24458684,0.32980973,0.45479633
12075,0,USFloridaLevy,Florida,Levy,2021-01-06 02:42:01.286294,2020-07-03 00:00:00.000000,1.72024360,2.93489010,4.51292885,713,1218,1873,383,630,903,0.92416957,1.51857332,2.17738311,0.24973831,0.34954709,0.46985613
12075,0,USFloridaLevy,Florida,Levy,2021-01-06 02:42:01.286294,2020-07-04 00:00:00.000000,1.78539963,3.03547857,4.65515819,740,1259,1932,390,646,924,0.94157817,1.55814150,2.22779898,0.25507444,0.35656818,0.47828189
12075,0,USFloridaLevy,Florida,Levy,2021-01-06 02:42:01.286294,2020-07-05 00:00:00.000000,1.86261611,3.15611149,4.87255107,773,1309,2022,401,664,954,0.96650150,1.60142348,2.29899533,0.27072306,0.36671045,0.49531852
12075,0,USFloridaLevy,Florida,Levy,2021-01-06 02:42:01.286294,2020-07-06 00:00:00.000000,1.92648782,3.25106699,5.09136466,799,1349,2113,414,681,986,0.99902821,1.64205272,2.37601246,0.27612175,0.37747129,0.50008280
12075,0,USFloridaLevy,Florida,Levy,2021-01-06 02:42:01.286294,2020-07-07 00:00:00.000000,1.99220111,3.36724768,5.31833301,826,1397,2207,430,701,1019,1.03739130,1.69070642,2.45765187,0.28372315,0.38459932,0.52029273
12075,0,USFloridaLevy,Florida,Levy,2021-01-06 02:42:01.286294,2020-07-08 00:00:00.000000,2.06014727,3.51163743,5.55293212,855,1457,2304,448,723,1055,1.08059082,1.74291296,2.54358579,0.29250502,0.38678322,0.52992000
12075,0,USFloridaLevy,Florida,Levy,2021-01-06 02:42:01.286294,2020-07-09 00:00:00.000000,2.15795736,3.65166543,5.79448774,895,1515,2404,468,746,1092,1.12766104,1.79918065,2.63338284,0.29377413,0.38368212,0.52162915
12075,0,USFloridaLevy,Florida,Levy,2021-01-06 02:42:01.286294,2020-07-10 00:00:00.000000,2.27119108,3.79988510,6.04076853,942,1577,2507,488,777,1131,1.17777732,1.87411768,2.72659645,0.29432574,0.39384028,0.50920202
12075,0,USFloridaLevy,Florida,Levy,2021-01-06 02:42:01.286294,2020-07-11 00:00:00.000000,2.39621609,3.93535290,6.28503970,994,1633,2608,510,809,1171,1.23021161,1.94965720,2.82268379,0.29181984,0.39620032,0.49974646
12075,0,USFloridaLevy,Florida,Levy,2021-01-06 02:42:01.286294,2020-07-12 00:00:00.000000,2.53023577,4.10635062,6.47881539,1050,1704,2688,533,846,1212,1.28427133,2.03845312,2.92033879,0.29124124,0.39368168,0.49885516
12075,0,USFloridaLevy,Florida,Levy,2021-01-06 02:42:01.286294,2020-07-13 00:00:00.000000,2.63372419,4.24425733,6.65534184,1093,1761,2762,555,887,1251,1.33929145,2.13857819,3.01657664,0.29049640,0.38736761,0.50489851
12075,0,USFloridaLevy,Florida,Levy,2021-01-06 02:42:01.286294,2020-07-14 00:00:00.000000,2.77597048,4.38480974,6.82449881,1152,1819,2832,579,922,1310,1.39615600,2.22317273,3.15642450,0.28979644,0.38320040,0.50738748
12075,0,USFloridaLevy,Florida,Levy,2021-01-06 02:42:01.286294,2020-07-15 00:00:00.000000,2.86926538,4.54984295,6.97889076,1190,1888,2896,607,960,1374,1.46439066,2.31337001,3.31081359,0.28935623,0.37619845,0.50757470
12075,0,USFloridaLevy,Florida,Levy,2021-01-06 02:42:01.286294,2020-07-16 00:00:00.000000,2.94841336,4.72027880,7.10463035,1223,1959,2948,637,997,1438,1.53637760,2.40239772,3.46600793,0.27170531,0.36943081,0.50554049
12075,0,USFloridaLevy,Florida,Levy,2021-01-06 02:42:01.286294,2020-07-17 00:00:00.000000,3.02936581,4.88506011,7.19891123,1257,2027,2987,668,1029,1499,1.61186182,2.48059265,3.61282203,0.26536267,0.35494434,0.49694248
12075,0,USFloridaLevy,Florida,Levy,2021-01-06 02:42:01.286294,2020-07-18 00:00:00.000000,3.12806269,5.01922932,7.27674144,1298,2083,3020,701,1066,1532,1.69015648,2.56903936,3.69246686,0.26378354,0.34869660,0.47989832
12075,0,USFloridaLevy,Florida,Levy,2021-01-06 02:42:01.286294,2020-07-19 00:00:00.000000,3.22920753,5.14044747,7.47430560,1340,2133,3102,733,1098,1574,1.76790906,2.64790294,3.79375092,0.24417616,0.34076732,0.45071470
12075,0,USFloridaLevy,Florida,Levy,2021-01-06 02:42:01.286294,2020-07-20 00:00:00.000000,3.33709876,5.29105239,7.51490011,1384,2195,3118,762,1133,1616,1.83669642,2.73174348,3.89403680,0.22880607,0.33345322,0.45511867
12075,0,USFloridaLevy,Florida,Levy,2021-01-06 02:42:01.286294,2020-07-21 00:00:00.000000,3.40653898,5.41680263,7.58726387,1413,2248,3148,785,1166,1663,1.89312757,2.80970133,4.00754451,0.22461444,0.31937526,0.44811530
12075,0,USFloridaLevy,Florida,Levy,2021-01-06 02:42:01.286294,2020-07-22 00:00:00.000000,3.49383175,5.56907279,7.70738082,1450,2311,3198,804,1197,1705,1.93813940,2.88442916,4.10814668,0.22333085,0.30730225,0.44742561
12075,0,USFloridaLevy,Florida,Levy,2021-01-06 02:42:01.286294,2020-07-23 00:00:00.000000,3.59525221,5.66425711,7.80996384,1492,2350,3241,820,1232,1742,1.97648055,2.96850123,4.19839859,0.22227048,0.29863842,0.43565833
12075,0,USFloridaLevy,Florida,Levy,2021-01-06 02:42:01.286294,2020-07-24 00:00:00.000000,3.60532246,5.73024130,7.83903685,1496,2378,3253,832,1274,1776,2.00668758,3.06979346,4.28050489,0.21261992,0.29208694,0.43205245
12075,0,USFloridaLevy,Florida,Levy,2021-01-06 02:42:01.286294,2020-07-25 00:00:00.000000,3.66118715,5.78710756,7.85889399,1519,2401,3261,848,1305,1807,2.04491912,3.14582905,4.35554618,0.19841148,0.28714364,0.42464378
12075,0,USFloridaLevy,Florida,Levy,2021-01-06 02:42:01.286294,2020-07-26 00:00:00.000000,3.71133572,5.77563408,7.86557689,1540,2397,3264,857,1322,1835,2.06704991,3.18544627,4.42193997,0.18915626,0.27515775,0.40074060
12075,0,USFloridaLevy,Florida,Levy,2021-01-06 02:42:01.286294,2020-07-27 00:00:00.000000,3.76641262,5.75983085,7.84952980,1563,2390,3257,861,1328,1856,2.07603829,3.19978913,4.47225837,0.18427568,0.25929455,0.37112932
12075,0,USFloridaLevy,Florida,Levy,2021-01-06 02:42:01.286294,2020-07-28 00:00:00.000000,3.81976063,5.73329344,7.82077782,1585,2379,3245,863,1331,1866,2.08055506,3.20764956,4.49656316,0.18154154,0.25065748,0.36785664
12075,0,USFloridaLevy,Florida,Levy,2021-01-06 02:42:01.286294,2020-07-29 00:00:00.000000,3.86492284,5.69314701,7.75175259,1604,2362,3217,863,1328,1864,2.08029948,3.20091076,4.49251506,0.17959744,0.24243002,0.36717925
12075,0,USFloridaLevy,Florida,Levy,2021-01-06 02:42:01.286294,2020-07-30 00:00:00.000000,3.83174911,5.64117221,7.66953765,1590,2341,3183,861,1327,1856,2.07524626,3.19872635,4.47262643,0.17561329,0.23273704,0.32573324
12075,0,USFloridaLevy,Florida,Levy,2021-01-06 02:42:01.286294,2020-07-31 00:00:00.000000,3.79245480,5.58358481,7.56106930,1573,2317,3138,857,1319,1843,2.06566732,3.17822460,4.44107413,0.17486314,0.22217818,0.30396387
12075,0,USFloridaLevy,Florida,Levy,2021-01-06 02:42:01.286294,2020-08-01 00:00:00.000000,3.69142198,5.52035947,7.42901317,1532,2291,3083,851,1310,1825,2.05204886,3.15825475,4.39932123,0.16845383,0.21189565,0.29901291
12075,0,USFloridaLevy,Florida,Levy,2021-01-06 02:42:01.286294,2020-08-02 00:00:00.000000,3.57327779,5.45327027,7.27703905,1483,2263,3020,838,1302,1805,2.02003809,3.13764309,4.34939964,0.16178379,0.20961700,0.29351834
12075,0,USFloridaLevy,Florida,Levy,2021-01-06 02:42:01.286294,2020-08-03 00:00:00.000000,3.45388364,5.36910975,7.11650499,1433,2228,2953,825,1283,1781,1.98971788,3.09261847,4.29234642,0.15798380,0.20631012,0.27465638
12075,0,USFloridaLevy,Florida,Levy,2021-01-06 02:42:01.286294,2020-08-04 00:00:00.000000,3.33365504,5.25408240,6.94992300,1383,2180,2884,816,1266,1757,1.96713540,3.05262768,4.23579144,0.15575795,0.20480065,0.27421825
12075,0,USFloridaLevy,Florida,Levy,2021-01-06 02:42:01.286294,2020-08-05 00:00:00.000000,3.21454378,5.19461491,6.78101954,1334,2155,2814,806,1251,1735,1.94245072,3.01629982,4.18094213,0.15382038,0.20233550,0.26778345
12075,0,USFloridaLevy,Florida,Levy,2021-01-06 02:42:01.286294,2020-08-06 00:00:00.000000,3.09779163,5.08764815,6.61261913,1285,2111,2744,795,1233,1707,1.91591680,2.97230814,4.11357383,0.14966931,0.19753216,0.26784193
12075,0,USFloridaLevy,Florida,Levy,2021-01-06 02:42:01.286294,2020-08-07 00:00:00.000000,2.98528415,4.97003619,6.46181187,1238,2062,2681,769,1215,1674,1.85358352,2.92959973,4.03455568,0.14277747,0.19084702,0.26661051
12075,0,USFloridaLevy,Florida,Levy,2021-01-06 02:42:01.286294,2020-08-08 00:00:00.000000,2.88243025,4.82953822,6.35031145,1196,2004,2635,742,1197,1643,1.78941247,2.88594700,3.95933086,0.13564206,0.18542160,0.24133147
12075,0,USFloridaLevy,Florida,Levy,2021-01-06 02:42:01.286294,2020-08-09 00:00:00.000000,2.78707549,4.67347600,6.23442286,1156,1939,2587,724,1169,1614,1.74523620,2.81794223,3.89006661,0.12949168,0.18260776,0.24683462
12075,0,USFloridaLevy,Florida,Levy,2021-01-06 02:42:01.286294,2020-08-10 00:00:00.000000,2.69293399,4.54607106,6.12252887,1117,1886,2541,708,1140,1585,1.70652133,2.74805132,3.82037491,0.12500987,0.18184761,0.24490656
12075,0,USFloridaLevy,Florida,Levy,2021-01-06 02:42:01.286294,2020-08-11 00:00:00.000000,2.62146293,4.39229915,6.00990852,1087,1822,2494,695,1108,1556,1.67550557,2.67064890,3.75011283,0.12218112,0.18144896,0.24932932
12075,0,USFloridaLevy,Florida,Levy,2021-01-06 02:42:01.286294,2020-08-12 00:00:00.000000,2.56500102,4.29234704,5.89472191,1064,1781,2446,683,1077,1523,1.64677151,2.59589401,3.67174228,0.12100006,0.17758512,0.23610371
12075,0,USFloridaLevy,Florida,Levy,2021-01-06 02:42:01.286294,2020-08-13 00:00:00.000000,2.50912069,4.21000794,5.77492160,1041,1747,2396,663,1045,1489,1.59765147,2.51917651,3.58943404,0.11930542,0.17595063,0.23585336
12075,0,USFloridaLevy,Florida,Levy,2021-01-06 02:42:01.286294,2020-08-14 00:00:00.000000,2.45329291,4.12813470,5.64021572,1018,1713,2340,648,1020,1462,1.56244000,2.45815683,3.52396517,0.11402968,0.17392267,0.24301471
12075,0,USFloridaLevy,Florida,Levy,2021-01-06 02:42:01.286294,2020-08-15 00:00:00.000000,2.39760208,4.01298472,5.48064132,995,1665,2274,634,989,1434,1.52765762,2.38472663,3.45752373,0.10988663,0.17192033,0.25015827
12075,0,USFloridaLevy,Florida,Levy,2021-01-06 02:42:01.286294,2020-08-16 00:00:00.000000,2.34253531,3.89234415,5.33897606,972,1615,2215,619,963,1404,1.49318674,2.32110797,3.38428576,0.09106153,0.17150355,0.25544716
12075,0,USFloridaLevy,Florida,Levy,2021-01-06 02:42:01.286294,2020-08-17 00:00:00.000000,2.28321944,3.77681010,5.17226986,947,1567,2146,605,936,1371,1.45908381,2.25764391,3.30343130,0.08664714,0.16824061,0.25843262
12075,0,USFloridaLevy,Florida,Levy,2021-01-06 02:42:01.286294,2020-08-18 00:00:00.000000,2.22312542,3.66525718,4.94108507,922,1521,2050,591,911,1337,1.42414233,2.19619309,3.22341683,0.08613417,0.16488579,0.25938477
12075,0,USFloridaLevy,Florida,Levy,2021-01-06 02:42:01.286294,2020-08-19 00:00:00.000000,2.13949878,3.54554444,4.78731015,887,1471,1986,576,887,1307,1.38890629,2.13782310,3.14986416,0.08607910,0.16441238,0.25764629
12075,0,USFloridaLevy,Florida,Levy,2021-01-06 02:42:01.286294,2020-08-20 00:00:00.000000,2.07932266,3.42333291,4.68259220,862,1420,1943,561,861,1275,1.35365259,2.07614142,3.07325442,0.08607439,0.16327690,0.24688102
12075,0,USFloridaLevy,Florida,Levy,2021-01-06 02:42:01.286294,2020-08-21 00:00:00.000000,1.99047645,3.27344213,4.57629224,826,1358,1899,547,830,1244,1.31833073,2.00200317,2.99939393,0.08607783,0.16240344,0.23411767
12075,0,USFloridaLevy,Florida,Levy,2021-01-06 02:42:01.286294,2020-08-22 00:00:00.000000,1.91097707,3.15133651,4.46869937,793,1307,1854,532,803,1209,1.28233159,1.93582448,2.91490166,0.08609900,0.15949146,0.22701644
12075,0,USFloridaLevy,Florida,Levy,2021-01-06 02:42:01.286294,2020-08-23 00:00:00.000000,1.84028727,3.07005653,4.36090125,763,1274,1809,516,779,1177,1.24437022,1.87928689,2.83622468,0.08715242,0.15899525,0.22525110
12075,0,USFloridaLevy,Florida,Levy,2021-01-06 02:42:01.286294,2020-08-24 00:00:00.000000,1.77115443,2.97674035,4.24830956,735,1235,1763,496,759,1144,1.19517324,1.82885717,2.75812228,0.09147509,0.15921510,0.22638516
12075,0,USFloridaLevy,Florida,Levy,2021-01-06 02:42:01.286294,2020-08-25 00:00:00.000000,1.69201961,2.87988522,4.13246106,702,1195,1715,477,736,1112,1.15054481,1.77382624,2.68097388,0.09603760,0.15573001,0.24786423
12075,0,USFloridaLevy,Florida,Levy,2021-01-06 02:42:01.286294,2020-08-26 00:00:00.000000,1.62271082,2.77191115,4.03510310,673,1150,1674,460,709,1081,1.10970597,1.71046451,2.60505823,0.09596211,0.15533695,0.24966666
12075,0,USFloridaLevy,Florida,Levy,2021-01-06 02:42:01.286294,2020-08-27 00:00:00.000000,1.56157542,2.66736616,3.93819553,648,1107,1634,442,680,1050,1.06689546,1.64083384,2.53057528,0.09596708,0.15512856,0.24675651
12075,0,USFloridaLevy,Florida,Levy,2021-01-06 02:42:01.286294,2020-08-28 00:00:00.000000,1.50786404,2.58150736,3.83055636,625,1071,1589,423,654,1020,1.02061061,1.57621809,2.45767775,0.09906460,0.15555821,0.23959277
12075,0,USFloridaLevy,Florida,Levy,2021-01-06 02:42:01.286294,2020-08-29 00:00:00.000000,1.44967053,2.49400504,3.71296115,601,1035,1540,404,630,990,0.97544020,1.52017833,2.38646941,0.09881371,0.15272867,0.24600276
12075,0,USFloridaLevy,Florida,Levy,2021-01-06 02:42:01.286294,2020-08-30 00:00:00.000000,1.38834820,2.40345010,3.58971195,576,997,1489,386,608,961,0.93228250,1.46663293,2.31700477,0.10016055,0.15260145,0.25425101
12075,0,USFloridaLevy,Florida,Levy,2021-01-06 02:42:01.286294,2020-08-31 00:00:00.000000,1.33420323,2.30793090,3.46200636,553,957,1436,370,589,933,0.89171466,1.42028937,2.24938993,0.10489558,0.15560715,0.24992569
12075,0,USFloridaLevy,Florida,Levy,2021-01-06 02:42:01.286294,2020-09-01 00:00:00.000000,1.28343301,2.23172284,3.33544723,532,926,1384,354,571,906,0.85446619,1.37613760,2.18437462,0.10413729,0.16252415,0.28416910
12075,0,USFloridaLevy,Florida,Levy,2021-01-06 02:42:01.286294,2020-09-02 00:00:00.000000,1.24396328,2.17005637,3.21142958,516,900,1332,340,553,881,0.82003648,1.33265833,2.12506204,0.10382705,0.16416437,0.30441178
12075,0,USFloridaLevy,Florida,Levy,2021-01-06 02:42:01.286294,2020-09-03 00:00:00.000000,1.20833954,2.08337655,3.10348886,501,864,1288,327,535,859,0.78813651,1.29133609,2.07164775,0.10456201,0.16918964,0.26612616
12075,0,USFloridaLevy,Florida,Levy,2021-01-06 02:42:01.286294,2020-09-04 00:00:00.000000,1.17435295,2.02744966,3.01475877,487,841,1251,314,521,839,0.75869980,1.25647722,2.02275185,0.10372590,0.17193086,0.28709498
12075,0,USFloridaLevy,Florida,Levy,2021-01-06 02:42:01.286294,2020-09-05 00:00:00.000000,1.14219836,1.96775679,2.92558974,474,816,1214,303,503,820,0.73176820,1.21260903,1.97716470,0.10856967,0.17499554,0.31724676
12075,0,USFloridaLevy,Florida,Levy,2021-01-06 02:42:01.286294,2020-09-06 00:00:00.000000,1.11173112,1.89905385,2.86297084,461,788,1188,292,484,802,0.70528113,1.16833733,1.93392040,0.11321936,0.17568212,0.31777490
12075,0,USFloridaLevy,Florida,Levy,2021-01-06 02:42:01.286294,2020-09-07 00:00:00.000000,1.09065513,1.83579676,2.80034474,452,761,1162,281,469,785,0.67835815,1.13205826,1.89222882,0.11320213,0.17695541,0.31794689
12075,0,USFloridaLevy,Florida,Levy,2021-01-06 02:42:01.286294,2020-09-08 00:00:00.000000,1.07057002,1.77079527,2.80005951,444,734,1162,271,457,757,0.65366316,1.10266546,1.82548292,0.11889789,0.17768323,0.31931264
12075,0,USFloridaLevy,Florida,Levy,2021-01-06 02:42:01.286294,2020-09-09 00:00:00.000000,1.03708904,1.70825951,2.79857669,430,708,1161,259,443,727,0.62623927,1.06766033,1.75360698,0.12647815,0.17950602,0.31904953
12075,0,USFloridaLevy,Florida,Levy,2021-01-06 02:42:01.286294,2020-09-10 00:00:00.000000,1.00683224,1.65744222,2.72040216,417,687,1129,249,430,705,0.60194661,1.03776121,1.70088459,0.12481892,0.18200943,0.31708678
12075,0,USFloridaLevy,Florida,Levy,2021-01-06 02:42:01.286294,2020-09-11 00:00:00.000000,0.99773378,1.63719540,2.64522442,414,679,1097,241,422,691,0.58143351,1.01826599,1.66717288,0.12624763,0.18487440,0.31381116
12075,0,USFloridaLevy,Florida,Levy,2021-01-06 02:42:01.286294,2020-09-12 00:00:00.000000,0.96939970,1.60278155,2.57409711,402,665,1068,236,410,677,0.56901737,0.98823258,1.63356067,0.12779802,0.19026880,0.31004440
12075,0,USFloridaLevy,Florida,Levy,2021-01-06 02:42:01.286294,2020-09-13 00:00:00.000000,0.94445381,1.56193808,2.50793652,391,648,1040,231,398,665,0.55746924,0.96093342,1.60301003,0.12703438,0.19722316,0.31163133
12075,0,USFloridaLevy,Florida,Levy,2021-01-06 02:42:01.286294,2020-09-14 00:00:00.000000,0.92951350,1.54417178,2.44392143,385,640,1014,226,389,650,0.54690240,0.93779368,1.56665206,0.12553584,0.19784899,0.32255286
12075,0,USFloridaLevy,Florida,Levy,2021-01-06 02:42:01.286294,2020-09-15 00:00:00.000000,0.92570761,1.52549505,2.40463279,384,633,997,225,383,636,0.54298338,0.92325900,1.53275081,0.12324190,0.20286055,0.32754771
12075,0,USFloridaLevy,Florida,Levy,2021-01-06 02:42:01.286294,2020-09-16 00:00:00.000000,0.93030810,1.50905839,2.36635365,386,626,982,224,374,622,0.54138233,0.90269448,1.49905514,0.12258052,0.20630424,0.33698273
12075,0,USFloridaLevy,Florida,Levy,2021-01-06 02:42:01.286294,2020-09-17 00:00:00.000000,0.93818750,1.48661715,2.32643784,389,616,965,219,366,605,0.52788721,0.88207444,1.45806947,0.12306514,0.19903297,0.33144810
12075,0,USFloridaLevy,Florida,Levy,2021-01-06 02:42:01.286294,2020-09-18 00:00:00.000000,0.92084766,1.45525834,2.28423288,382,603,948,213,356,585,0.51470482,0.85887308,1.40973166,0.12306982,0.20282424,0.33011508
12075,0,USFloridaLevy,Florida,Levy,2021-01-06 02:42:01.286294,2020-09-19 00:00:00.000000,0.90117944,1.42402321,2.23924676,374,591,929,210,346,572,0.50765101,0.83418240,1.37971525,0.12346001,0.20270300,0.32205883
12075,0,USFloridaLevy,Florida,Levy,2021-01-06 02:42:01.286294,2020-09-20 00:00:00.000000,0.87572495,1.39263390,2.19154833,363,577,909,208,339,569,0.50243429,0.81792906,1.37286324,0.11821513,0.20387350,0.31583861
12075,0,USFloridaLevy,Florida,Levy,2021-01-06 02:42:01.286294,2020-09-21 00:00:00.000000,0.85030849,1.36399524,2.14057789,352,566,888,206,334,561,0.49748412,0.80545875,1.35171751,0.11472478,0.20458982,0.30567548
12075,0,USFloridaLevy,Florida,Levy,2021-01-06 02:42:01.286294,2020-09-22 00:00:00.000000,0.82660466,1.34077676,2.08869181,343,556,866,203,329,551,0.49146352,0.79441587,1.32848910,0.11509830,0.20470566,0.30521780
12075,0,USFloridaLevy,Florida,Levy,2021-01-06 02:42:01.286294,2020-09-23 00:00:00.000000,0.80424087,1.31747594,2.03845760,333,546,846,201,322,542,0.48438517,0.77756005,1.30666496,0.11444154,0.20614398,0.30316694
12075,0,USFloridaLevy,Florida,Levy,2021-01-06 02:42:01.286294,2020-09-24 00:00:00.000000,0.78086114,1.29898249,1.99233957,324,539,826,197,317,533,0.47637427,0.76457105,1.28598515,0.11438389,0.20765826,0.30926276
12075,0,USFloridaLevy,Florida,Levy,2021-01-06 02:42:01.286294,2020-09-25 00:00:00.000000,0.75433307,1.28425265,1.97623142,313,533,820,192,310,525,0.46336549,0.74725297,1.26621760,0.11458891,0.21264388,0.31218556
12075,0,USFloridaLevy,Florida,Levy,2021-01-06 02:42:01.286294,2020-09-26 00:00:00.000000,0.75053846,1.25748315,1.97651791,311,521,820,189,304,517,0.45543713,0.73341119,1.24714687,0.11618633,0.21980227,0.31939051
12075,0,USFloridaLevy,Florida,Levy,2021-01-06 02:42:01.286294,2020-09-27 00:00:00.000000,0.74009452,1.24546361,1.98073589,307,516,822,186,297,509,0.44986815,0.71683688,1.22779562,0.11860527,0.22550283,0.33317804
12075,0,USFloridaLevy,Florida,Levy,2021-01-06 02:42:01.286294,2020-09-28 00:00:00.000000,0.72313789,1.22502114,1.98134046,300,508,822,181,290,501,0.43812329,0.70060975,1.20852649,0.12084491,0.22691517,0.34582026
12075,0,USFloridaLevy,Florida,Levy,2021-01-06 02:42:01.286294,2020-09-29 00:00:00.000000,0.70478769,1.21512562,1.93302861,292,504,802,179,286,493,0.43159781,0.68912712,1.19001454,0.12288528,0.22623072,0.32978866
12075,0,USFloridaLevy,Florida,Levy,2021-01-06 02:42:01.286294,2020-09-30 00:00:00.000000,0.68706325,1.19355317,1.88055540,285,495,780,178,284,486,0.42892711,0.68527949,1.17175059,0.12574486,0.22617113,0.33005343
12075,0,USFloridaLevy,Florida,Levy,2021-01-06 02:42:01.286294,2020-10-01 00:00:00.000000,0.67978965,1.17778428,1.85401215,282,488,769,176,284,478,0.42602213,0.68642696,1.15342577,0.13197259,0.22785209,0.35566717
12075,0,USFloridaLevy,Florida,Levy,2021-01-06 02:42:01.286294,2020-10-02 00:00:00.000000,0.66591729,1.15309036,1.83026116,276,478,759,172,282,468,0.41548528,0.68166911,1.12772019,0.14337295,0.22868408,0.35569038
12075,0,USFloridaLevy,Florida,Levy,2021-01-06 02:42:01.286294,2020-10-03 00:00:00.000000,0.65855316,1.13167199,1.81432822,273,469,753,167,278,455,0.40447280,0.67163823,1.09678127,0.14853791,0.23495094,0.36109551
12075,0,USFloridaLevy,Florida,Levy,2021-01-06 02:42:01.286294,2020-10-04 00:00:00.000000,0.65727745,1.11550243,1.80949321,272,462,750,164,277,449,0.39526860,0.66850043,1.08248141,0.15479200,0.24240322,0.36770282
12075,0,USFloridaLevy,Florida,Levy,2021-01-06 02:42:01.286294,2020-10-05 00:00:00.000000,0.65055086,1.10776031,1.80421155,269,459,748,160,274,447,0.38771090,0.66236939,1.07778614,0.15223264,0.25075787,0.36849510
12075,0,USFloridaLevy,Florida,Levy,2021-01-06 02:42:01.286294,2020-10-06 00:00:00.000000,0.63767137,1.09908390,1.79818651,264,456,746,158,270,440,0.38128758,0.65091634,1.06207608,0.15126278,0.25650290,0.38565548
12075,0,USFloridaLevy,Florida,Levy,2021-01-06 02:42:01.286294,2020-10-07 00:00:00.000000,0.61864533,1.09623313,1.79932965,256,454,746,155,269,439,0.37565723,0.64822109,1.05782067,0.15277644,0.26689560,0.38730650
12075,0,USFloridaLevy,Florida,Levy,2021-01-06 02:42:01.286294,2020-10-08 00:00:00.000000,0.60367140,1.09272860,1.81310588,250,453,752,153,266,437,0.37056347,0.64129444,1.05383925,0.15272200,0.27375593,0.39027321
12075,0,USFloridaLevy,Florida,Levy,2021-01-06 02:42:01.286294,2020-10-09 00:00:00.000000,0.60101375,1.08325245,1.82425533,249,449,757,151,264,435,0.36583847,0.63681792,1.04980129,0.16519390,0.27456043,0.39732534
12075,0,USFloridaLevy,Florida,Levy,2021-01-06 02:42:01.286294,2020-10-10 00:00:00.000000,0.59844806,1.08016737,1.82825210,248,448,758,149,260,434,0.36137997,0.62782311,1.04606157,0.17930871,0.28150825,0.43094816
12075,0,USFloridaLevy,Florida,Levy,2021-01-06 02:42:01.286294,2020-10-11 00:00:00.000000,0.59599157,1.08145393,1.83025365,247,448,759,148,257,432,0.35712501,0.62149385,1.04197501,0.18346703,0.29187402,0.44496347
12075,0,USFloridaLevy,Florida,Levy,2021-01-06 02:42:01.286294,2020-10-12 00:00:00.000000,0.60678959,1.09145433,1.82939040,251,452,759,147,257,430,0.35421079,0.62017240,1.03640711,0.19089983,0.29432216,0.45209242
12075,0,USFloridaLevy,Florida,Levy,2021-01-06 02:42:01.286294,2020-10-13 00:00:00.000000,0.62093672,1.08733654,1.84583992,257,451,766,147,256,428,0.35511508,0.61804510,1.03195978,0.19297851,0.29921281,0.45824748
12075,0,USFloridaLevy,Florida,Levy,2021-01-06 02:42:01.286294,2020-10-14 00:00:00.000000,0.63693870,1.08970274,1.85359904,264,452,769,148,255,426,0.35702543,0.61593123,1.02836522,0.19720554,0.30722341,0.46868213
12075,0,USFloridaLevy,Florida,Levy,2021-01-06 02:42:01.286294,2020-10-15 00:00:00.000000,0.65407407,1.10169766,1.85302842,271,457,769,149,254,427,0.35966466,0.61440018,1.03024641,0.21931633,0.31624080,0.47675247
12075,0,USFloridaLevy,Florida,Levy,2021-01-06 02:42:01.286294,2020-10-16 00:00:00.000000,0.66983584,1.12578695,1.86999324,278,467,776,148,252,434,0.35804366,0.60946473,1.04616719,0.22588724,0.34665602,0.48705192
12075,0,USFloridaLevy,Florida,Levy,2021-01-06 02:42:01.286294,2020-10-17 00:00:00.000000,0.67821417,1.15127058,1.92900670,281,477,800,147,254,441,0.35482503,0.61215971,1.06283412,0.23338023,0.34471989,0.50114945
12075,0,USFloridaLevy,Florida,Levy,2021-01-06 02:42:01.286294,2020-10-18 00:00:00.000000,0.68755533,1.17224881,1.95144233,285,486,809,146,254,448,0.35330631,0.61405689,1.08104031,0.23566237,0.35263830,0.51734340
12075,0,USFloridaLevy,Florida,Levy,2021-01-06 02:42:01.286294,2020-10-19 00:00:00.000000,0.69958102,1.19951817,2.00383575,290,497,831,148,257,460,0.35689378,0.61999655,1.10840823,0.25465915,0.35670944,0.54399762
12075,0,USFloridaLevy,Florida,Levy,2021-01-06 02:42:01.286294,2020-10-20 00:00:00.000000,0.71498351,1.22006603,2.06176283,296,506,855,150,263,466,0.36194045,0.63403453,1.12421555,0.26001378,0.37570093,0.56430082
12075,0,USFloridaLevy,Florida,Levy,2021-01-06 02:42:01.286294,2020-10-21 00:00:00.000000,0.73426812,1.23654888,2.12358622,304,513,881,152,266,477,0.36824048,0.64182615,1.14932149,0.26389534,0.39960226,0.60451629
12075,0,USFloridaLevy,Florida,Levy,2021-01-06 02:42:01.286294,2020-10-22 00:00:00.000000,0.75649630,1.25351842,2.19166577,313,520,909,155,270,488,0.37573326,0.65275533,1.17611075,0.27560009,0.40821787,0.64667652
12075,0,USFloridaLevy,Florida,Levy,2021-01-06 02:42:01.286294,2020-10-23 00:00:00.000000,0.78047557,1.29451361,2.26722618,323,537,940,159,274,499,0.38463654,0.66234583,1.20426212,0.28651122,0.41712898,0.65681293
12075,0,USFloridaLevy,Florida,Levy,2021-01-06 02:42:01.286294,2020-10-24 00:00:00.000000,0.80557506,1.31714504,2.34963194,334,546,975,164,284,512,0.39559780,0.68482982,1.23382292,0.29981627,0.43388095,0.65875972
12075,0,USFloridaLevy,Florida,Levy,2021-01-06 02:42:01.286294,2020-10-25 00:00:00.000000,0.83154892,1.36846907,2.43703131,345,567,1011,169,294,525,0.40933889,0.71003590,1.26550632,0.31208563,0.44754340,0.67648213
12075,0,USFloridaLevy,Florida,Levy,2021-01-06 02:42:01.286294,2020-10-26 00:00:00.000000,0.86010505,1.41727136,2.52907061,356,588,1049,176,308,539,0.42623476,0.74261308,1.29935442,0.31931069,0.45634278,0.72598959
12075,0,USFloridaLevy,Florida,Levy,2021-01-06 02:42:01.286294,2020-10-27 00:00:00.000000,0.88943686,1.46667209,2.57531623,369,608,1068,184,317,554,0.44523278,0.76511682,1.33600440,0.32219268,0.45780588,0.73678466
12075,0,USFloridaLevy,Florida,Levy,2021-01-06 02:42:01.286294,2020-10-28 00:00:00.000000,0.93359751,1.52433736,2.62145191,387,632,1087,193,333,570,0.46633319,0.80441465,1.37504983,0.32704769,0.46221536,0.73707786
12075,0,USFloridaLevy,Florida,Levy,2021-01-06 02:42:01.286294,2020-10-29 00:00:00.000000,0.98035358,1.57774358,2.66735543,406,654,1107,200,343,587,0.48328402,0.82804413,1.41613659,0.32957468,0.47158255,0.74071580
12075,0,USFloridaLevy,Florida,Levy,2021-01-06 02:42:01.286294,2020-10-30 00:00:00.000000,1.02785701,1.65027660,2.71418519,426,684,1126,210,354,605,0.50762282,0.85339584,1.45897823,0.32610832,0.47521441,0.74802574
12075,0,USFloridaLevy,Florida,Levy,2021-01-06 02:42:01.286294,2020-10-31 00:00:00.000000,1.07572977,1.72960281,2.79809609,446,717,1161,222,370,619,0.53667664,0.89352617,1.49335906,0.32482654,0.48615801,0.73954128
12075,0,USFloridaLevy,Florida,Levy,2021-01-06 02:42:01.286294,2020-11-01 00:00:00.000000,1.12366791,1.79947149,2.88380524,466,746,1196,234,386,633,0.56432162,0.93191171,1.52700257,0.33115270,0.49642364,0.72964828
12075,0,USFloridaLevy,Florida,Levy,2021-01-06 02:42:01.286294,2020-11-02 00:00:00.000000,1.16849183,1.86581237,2.96363176,484,774,1229,245,399,656,0.59050608,0.96212132,1.58214281,0.32869449,0.49199534,0.71786757
12075,0,USFloridaLevy,Florida,Levy,2021-01-06 02:42:01.286294,2020-11-03 00:00:00.000000,1.21304987,1.97393482,3.07667938,503,819,1276,255,411,672,0.61627513,0.99104277,1.61968720,0.33147449,0.49135337,0.72402170
12075,0,USFloridaLevy,Florida,Levy,2021-01-06 02:42:01.286294,2020-11-04 00:00:00.000000,1.25760658,2.04950890,3.26596244,521,850,1355,266,428,685,0.64173932,1.03238036,1.65088976,0.33727524,0.49514496,0.72198327
12075,0,USFloridaLevy,Florida,Levy,2021-01-06 02:42:01.286294,2020-11-05 00:00:00.000000,1.30380208,2.14514771,3.45863685,541,890,1435,276,446,698,0.66706452,1.07534511,1.68219705,0.33730447,0.50134047,0.72370943
12075,0,USFloridaLevy,Florida,Levy,2021-01-06 02:42:01.286294,2020-11-06 00:00:00.000000,1.35204533,2.23538360,3.64220962,561,927,1511,287,463,710,0.69255697,1.11788443,1.71271647,0.32018560,0.50002179,0.73203032
12075,0,USFloridaLevy,Florida,Levy,2021-01-06 02:42:01.286294,2020-11-07 00:00:00.000000,1.39667313,2.30865493,3.72625095,579,958,1546,298,485,722,0.71819869,1.17000201,1.74132926,0.32039470,0.49101348,0.75587519
12075,0,USFloridaLevy,Florida,Levy,2021-01-06 02:42:01.286294,2020-11-08 00:00:00.000000,1.44109061,2.41440171,3.80214470,598,1002,1578,308,510,749,0.74412793,1.22978894,1.80575662,0.31501142,0.48463222,0.71925923
12075,0,USFloridaLevy,Florida,Levy,2021-01-06 02:42:01.286294,2020-11-09 00:00:00.000000,1.48627360,2.49183219,3.86381384,616,1034,1603,321,530,780,0.77556836,1.27787751,1.87974730,0.31492389,0.48050098,0.69142204
12075,0,USFloridaLevy,Florida,Levy,2021-01-06 02:42:01.286294,2020-11-10 00:00:00.000000,1.53263294,2.55866945,3.91716697,636,1061,1625,339,549,798,0.81770967,1.32353259,1.92438851,0.31474893,0.48475529,0.68358312
12075,0,USFloridaLevy,Florida,Levy,2021-01-06 02:42:01.286294,2020-11-11 00:00:00.000000,1.57755466,2.64752354,3.97469224,654,1098,1649,357,574,814,0.86181955,1.38314847,1.96159614,0.31444335,0.47996093,0.68305370
12075,0,USFloridaLevy,Florida,Levy,2021-01-06 02:42:01.286294,2020-11-12 00:00:00.000000,1.61828791,2.76388214,4.13727811,671,1147,1717,376,601,858,0.90696684,1.44865907,2.06836764,0.31381812,0.47654332,0.66763592
12075,0,USFloridaLevy,Florida,Levy,2021-01-06 02:42:01.286294,2020-11-13 00:00:00.000000,1.66228728,2.87429795,4.29565045,689,1192,1782,387,622,871,0.93447804,1.49996343,2.10057018,0.31187088,0.47441037,0.66529393
12075,0,USFloridaLevy,Florida,Levy,2021-01-06 02:42:01.286294,2020-11-14 00:00:00.000000,1.70880301,2.99668684,4.43503462,709,1243,1840,398,638,883,0.95999835,1.53841348,2.12939401,0.30727614,0.47122787,0.66441187
12075,0,USFloridaLevy,Florida,Levy,2021-01-06 02:42:01.286294,2020-11-15 00:00:00.000000,1.75668800,3.06170756,4.57956190,729,1270,1900,407,662,912,0.98298884,1.59672126,2.19886318,0.30169028,0.47073353,0.66314919
12075,0,USFloridaLevy,Florida,Levy,2021-01-06 02:42:01.286294,2020-11-16 00:00:00.000000,1.80790702,3.13481070,4.71816000,750,1301,1958,416,690,961,1.00359690,1.66341374,2.31758327,0.29842944,0.46371853,0.66001645
12075,0,USFloridaLevy,Florida,Levy,2021-01-06 02:42:01.286294,2020-11-17 00:00:00.000000,1.85910301,3.24873688,4.83742248,771,1348,2007,430,705,1010,1.03751169,1.69870397,2.43456215,0.29727777,0.45732120,0.62914682
12075,0,USFloridaLevy,Florida,Levy,2021-01-06 02:42:01.286294,2020-11-18 00:00:00.000000,1.88678281,3.35296898,4.94925159,783,1391,2054,443,728,1054,1.06929936,1.75636351,2.54157190,0.29687685,0.45438115,0.59112895
12075,0,USFloridaLevy,Florida,Levy,2021-01-06 02:42:01.286294,2020-11-19 00:00:00.000000,1.91244238,3.48254162,5.04539315,793,1445,2093,450,745,1081,1.08657706,1.79597850,2.60576227,0.29582693,0.44503607,0.58494470
12075,0,USFloridaLevy,Florida,Levy,2021-01-06 02:42:01.286294,2020-11-20 00:00:00.000000,1.93953443,3.56388643,5.13855136,804,1479,2132,457,765,1099,1.10316442,1.84371730,2.64976972,0.28838986,0.43497290,0.57646975
12075,0,USFloridaLevy,Florida,Levy,2021-01-06 02:42:01.286294,2020-11-21 00:00:00.000000,1.96962907,3.62476501,5.22584806,817,1504,2168,464,787,1116,1.11960165,1.89688663,2.68904251,0.27745444,0.42107814,0.56609628
12075,0,USFloridaLevy,Florida,Levy,2021-01-06 02:42:01.286294,2020-11-22 00:00:00.000000,2.00488027,3.70124398,5.30851173,832,1536,2203,471,804,1130,1.13655447,1.93940682,2.72328691,0.27644805,0.42123472,0.53712834
12075,0,USFloridaLevy,Florida,Levy,2021-01-06 02:42:01.286294,2020-11-23 00:00:00.000000,2.04269592,3.73452282,5.39578631,847,1549,2239,479,819,1141,1.15489049,1.97513757,2.75104485,0.26708109,0.41954859,0.53444113
12075,0,USFloridaLevy,Florida,Levy,2021-01-06 02:42:01.286294,2020-11-24 00:00:00.000000,2.08759772,3.78079357,5.48051530,866,1569,2274,487,829,1150,1.17461091,1.99868048,2.77283320,0.26002042,0.41754767,0.53152228
12075,0,USFloridaLevy,Florida,Levy,2021-01-06 02:42:01.286294,2020-11-25 00:00:00.000000,2.13795570,3.83957947,5.57117487,887,1593,2312,496,850,1157,1.19665575,2.04858636,2.78973128,0.26054177,0.41934187,0.53221789
12075,0,USFloridaLevy,Florida,Levy,2021-01-06 02:42:01.286294,2020-11-26 00:00:00.000000,2.19189405,3.90739672,5.65781038,909,1621,2348,506,875,1163,1.22133982,2.10917729,2.80267769,0.26562562,0.42021750,0.53929063
12075,0,USFloridaLevy,Florida,Levy,2021-01-06 02:42:01.286294,2020-11-27 00:00:00.000000,2.24771535,3.97487116,5.78157796,932,1649,2399,518,895,1167,1.24847473,2.15872262,2.81240733,0.27872202,0.42149657,0.54132209
12075,0,USFloridaLevy,Florida,Levy,2021-01-06 02:42:01.286294,2020-11-28 00:00:00.000000,2.30341784,4.01973419,5.93739406,955,1668,2464,530,900,1171,1.27757291,2.16943832,2.82201595,0.29038590,0.41900699,0.56479321
12075,0,USFloridaLevy,Florida,Levy,2021-01-06 02:42:01.286294,2020-11-29 00:00:00.000000,2.35511016,4.09521655,5.98575902,977,1699,2484,542,902,1205,1.30789441,2.17521645,2.90452797,0.29552271,0.42227736,0.57460944
12075,0,USFloridaLevy,Florida,Levy,2021-01-06 02:42:01.286294,2020-11-30 00:00:00.000000,2.38464223,4.16030010,6.01724423,989,1726,2497,555,910,1241,1.33840466,2.19483351,2.99040070,0.29090585,0.42572553,0.58743254
12075,0,USFloridaLevy,Florida,Levy,2021-01-06 02:42:01.286294,2020-12-01 00:00:00.000000,2.41415618,4.21542397,6.03836222,1001,1749,2506,568,925,1278,1.36944928,2.22936017,3.08039098,0.28884097,0.42594964,0.59986682
12075,0,USFloridaLevy,Florida,Levy,2021-01-06 02:42:01.286294,2020-12-02 00:00:00.000000,2.44379488,4.29624774,6.05401229,1014,1783,2512,580,945,1317,1.39751833,2.27698568,3.17342800,0.28860321,0.43387297,0.60266188
12075,0,USFloridaLevy,Florida,Levy,2021-01-06 02:42:01.286294,2020-12-03 00:00:00.000000,2.47433971,4.35319778,6.16045657,1026,1806,2556,576,954,1356,1.38986297,2.29905110,3.26856595,0.29088576,0.44007031,0.60557613
12075,0,USFloridaLevy,Florida,Levy,2021-01-06 02:42:01.286294,2020-12-04 00:00:00.000000,2.50785708,4.39930053,6.38507546,1040,1825,2649,573,973,1396,1.38206074,2.34469496,3.36444181,0.29779524,0.43103223,0.60472999
12075,0,USFloridaLevy,Florida,Levy,2021-01-06 02:42:01.286294,2020-12-05 00:00:00.000000,2.54640140,4.43870569,6.56257432,1056,1842,2723,570,990,1435,1.37562116,2.38657383,3.45822900,0.29923181,0.43851302,0.60321154
12075,0,USFloridaLevy,Florida,Levy,2021-01-06 02:42:01.286294,2020-12-06 00:00:00.000000,2.59223340,4.51057112,6.60321513,1075,1872,2740,570,1003,1444,1.37433062,2.41770501,3.47986897,0.28999987,0.43735472,0.61993829
12075,0,USFloridaLevy,Florida,Levy,2021-01-06 02:42:01.286294,2020-12-07 00:00:00.000000,2.64617148,4.60973811,6.62626305,1098,1913,2750,575,1022,1445,1.38748859,2.46379590,3.48180629,0.28581432,0.43652877,0.63525800
12075,0,USFloridaLevy,Florida,Levy,2021-01-06 02:42:01.286294,2020-12-08 00:00:00.000000,2.70077643,4.71693306,6.65153468,1120,1957,2760,587,1050,1475,1.41667014,2.53187098,3.55468038,0.28399740,0.43725853,0.66004709
12075,0,USFloridaLevy,Florida,Levy,2021-01-06 02:42:01.286294,2020-12-09 00:00:00.000000,2.75749159,4.83297022,6.74019430,1144,2005,2797,600,1070,1513,1.44619931,2.57979087,3.64554902,0.28340874,0.44348471,0.67251163
12075,0,USFloridaLevy,Florida,Levy,2021-01-06 02:42:01.286294,2020-12-10 00:00:00.000000,2.81752610,4.89822549,6.94592623,1169,2032,2882,612,1084,1550,1.47636143,2.61356610,3.73652147,0.28469367,0.45845800,0.68058151
12075,0,USFloridaLevy,Florida,Levy,2021-01-06 02:42:01.286294,2020-12-11 00:00:00.000000,2.87469549,4.97549774,7.15295943,1193,2064,2968,625,1099,1588,1.50757730,2.64832320,3.82753551,0.30523026,0.46954554,0.68721851
12075,0,USFloridaLevy,Florida,Levy,2021-01-06 02:42:01.286294,2020-12-12 00:00:00.000000,2.94854711,5.09545384,7.35898980,1223,2114,3054,639,1114,1626,1.54025804,2.68511874,3.91838041,0.32116057,0.48021233,0.70175343
12075,0,USFloridaLevy,Florida,Levy,2021-01-06 02:42:01.286294,2020-12-13 00:00:00.000000,3.01825593,5.24669173,7.55548099,1252,2177,3135,653,1142,1663,1.57464040,2.75170850,4.00902775,0.33454527,0.48595654,0.76326135
12075,0,USFloridaLevy,Florida,Levy,2021-01-06 02:42:01.286294,2020-12-14 00:00:00.000000,3.09120359,5.34995203,7.78553553,1282,2220,3231,668,1175,1697,1.61073015,2.83203463,4.09097589,0.34323550,0.51010824,0.83136917
12075,0,USFloridaLevy,Florida,Levy,2021-01-06 02:42:01.286294,2020-12-15 00:00:00.000000,3.16607958,5.48683435,8.02745177,1314,2277,3331,684,1205,1725,1.64852915,2.90458273,4.15791719,0.34336295,0.52559182,0.84307599
12075,0,USFloridaLevy,Florida,Levy,2021-01-06 02:42:01.286294,2020-12-16 00:00:00.000000,3.24263993,5.63285744,8.26867092,1345,2337,3431,700,1220,1752,1.68778369,2.94022705,4.22290191,0.34355424,0.54404073,0.84556349
12075,0,USFloridaLevy,Florida,Levy,2021-01-06 02:42:01.286294,2020-12-17 00:00:00.000000,3.32155177,5.77607027,8.50891906,1378,2397,3531,717,1244,1778,1.72830731,2.99758768,4.28570089,0.34388559,0.55493249,0.86966089
12075,0,USFloridaLevy,Florida,Levy,2021-01-06 02:42:01.286294,2020-12-18 00:00:00.000000,3.40683090,5.93243550,8.74557301,1413,2462,3629,734,1281,1812,1.77014608,3.08723793,4.36708199,0.34453033,0.56889829,0.88562034
12075,0,USFloridaLevy,Florida,Levy,2021-01-06 02:42:01.286294,2020-12-19 00:00:00.000000,3.51104405,6.10167607,9.00844028,1457,2532,3738,752,1321,1888,1.81413659,3.18491358,4.55016313,0.34604697,0.59831270,0.90639188
12075,0,USFloridaLevy,Florida,Levy,2021-01-06 02:42:01.286294,2020-12-20 00:00:00.000000,3.64716886,6.28694260,9.40233110,1513,2609,3902,773,1365,1962,1.86327325,3.29010200,4.72843401,0.35921096,0.62174422,0.95360029
12075,0,USFloridaLevy,Florida,Levy,2021-01-06 02:42:01.286294,2020-12-21 00:00:00.000000,3.80402929,6.52233203,9.79590724,1578,2706,4065,797,1411,2032,1.92202510,3.40093773,4.89669886,0.40459917,0.63471601,0.97051517
12075,0,USFloridaLevy,Florida,Levy,2021-01-06 02:42:01.286294,2020-12-22 00:00:00.000000,3.97296056,6.82891973,10.18925399,1648,2834,4228,826,1455,2098,1.99103329,3.50768629,5.05744479,0.45206785,0.65110378,1.00293193
12075,0,USFloridaLevy,Florida,Levy,2021-01-06 02:42:01.286294,2020-12-23 00:00:00.000000,4.14941411,7.07133403,10.58928464,1722,2934,4394,858,1490,2162,2.06875738,3.59222041,5.21158383,0.48680587,0.66128996,1.02783539
12075,0,USFloridaLevy,Florida,Levy,2021-01-06 02:42:01.286294,2020-12-24 00:00:00.000000,4.33253352,7.35627429,11.02585560,1798,3053,4576,893,1526,2224,2.15334107,3.67756199,5.35965207,0.49554904,0.70674416,1.04273013
12075,0,USFloridaLevy,Florida,Levy,2021-01-06 02:42:01.286294,2020-12-25 00:00:00.000000,4.56331640,7.65104853,11.48633461,1893,3175,4767,931,1564,2283,2.24340022,3.76960037,5.50189983,0.49853673,0.72791537,1.04860612
12075,0,USFloridaLevy,Florida,Levy,2021-01-06 02:42:01.286294,2020-12-26 00:00:00.000000,4.87679255,7.92338148,11.79008589,2024,3288,4893,970,1632,2369,2.33810607,3.93352343,5.70806053,0.49233426,0.77539956,1.04711482
12075,0,USFloridaLevy,Florida,Levy,2021-01-06 02:42:01.286294,2020-12-27 00:00:00.000000,5.12268228,8.35802151,12.21576911,2126,3468,5069,1011,1723,2465,2.43758999,4.15173091,5.94106280,0.49903658,0.79128051,1.05456435
12075,0,USFloridaLevy,Florida,Levy,2021-01-06 02:42:01.286294,2020-12-28 00:00:00.000000,5.37436625,8.67361221,12.63301085,2230,3599,5243,1056,1811,2563,2.54473090,4.36545779,6.17631034,0.49770894,0.81681420,1.05833112
12075,0,USFloridaLevy,Florida,Levy,2021-01-06 02:42:01.286294,2020-12-29 00:00:00.000000,5.63381991,9.06923952,12.99742273,2338,3764,5394,1105,1879,2660,2.66309907,4.52769272,6.41052020,0.49721908,0.82009123,1.06405603
12075,0,USFloridaLevy,Florida,Levy,2021-01-06 02:42:01.286294,2020-12-30 00:00:00.000000,5.90046597,9.39930741,13.29957863,2448,3900,5519,1158,1961,2756,2.79253437,4.72667455,6.64122380,0.50301743,0.82683664,1.08643685
12075,0,USFloridaLevy,Florida,Levy,2021-01-06 02:42:01.286294,2020-12-31 00:00:00.000000,6.17404876,9.74853493,13.55128331,2562,4045,5624,1216,2044,2831,2.93105142,4.92570477,6.82341100,0.51527724,0.83343492,1.11487055
12075,0,USFloridaLevy,Florida,Levy,2021-01-06 02:42:01.286294,2021-01-01 00:00:00.000000,6.45448992,10.13780256,13.96337590,2678,4207,5795,1276,2148,2899,3.07684497,5.17634753,6.98585965,0.51142577,0.83147594,1.19380129
12075,0,USFloridaLevy,Florida,Levy,2021-01-06 02:42:01.286294,2021-01-02 00:00:00.000000,6.74198525,10.64341133,14.36659793,2798,4417,5962,1339,2227,2964,3.22833346,5.36627007,7.14169118,0.50525305,0.86922510,1.23119203
12075,0,USFloridaLevy,Florida,Levy,2021-01-06 02:42:01.286294,2021-01-03 00:00:00.000000,7.03686314,11.07416311,14.74400779,2920,4596,6119,1405,2319,3050,3.38592595,5.58837600,7.34923440,0.51765437,0.88170135,1.24568169
12075,0,USFloridaLevy,Florida,Levy,2021-01-06 02:42:01.286294,2021-01-04 00:00:00.000000,7.33890904,11.37858217,15.09206348,3045,4722,6263,1472,2434,3185,3.54825976,5.86698767,7.67613623,0.52692798,0.87896661,1.25070977
12075,0,USFloridaLevy,Florida,Levy,2021-01-06 02:42:01.286294,2021-01-05 00:00:00.000000,7.64690007,11.80049785,15.41255808,3173,4897,6396,1541,2551,3257,3.71355932,6.14776268,7.84919119,0.51028148,0.87592668,1.25397118
12075,0,USFloridaLevy,Florida,Levy,2021-01-06 02:42:01.286294,2021-01-06 00:00:00.000000,7.92763664,12.09434919,15.66638457,3290,5019,6502,1610,2650,3354,3.88160526,6.38709630,8.08196137,0.48426967,0.87254182,1.25578526
12075,0,USFloridaLevy,Florida,Levy,2021-01-06 02:42:01.286294,2021-01-07 00:00:00.000000,8.15913188,12.42110344,16.04971915,3386,5155,6661,1685,2716,3460,4.06016265,6.54463335,8.33805964,0.47786635,0.87080157,1.25813771
12075,0,USFloridaLevy,Florida,Levy,2021-01-06 02:42:01.286294,2021-01-08 00:00:00.000000,8.53962110,12.63705335,16.69725260,3544,5244,6929,1766,2778,3560,4.25530044,6.69536072,8.57860186,0.47763297,0.87005811,1.26906100
12075,0,USFloridaLevy,Florida,Levy,2021-01-06 02:42:01.286294,2021-01-09 00:00:00.000000,8.78373242,12.88226913,17.30520781,3645,5346,7182,1822,2859,3652,4.39078343,6.88931099,8.80125548,0.47751672,0.86976599,1.27723681
12075,0,USFloridaLevy,Florida,Levy,2021-01-06 02:42:01.286294,2021-01-10 00:00:00.000000,9.09219695,13.03756376,17.86437963,3773,5410,7414,1892,2951,3836,4.55945011,7.11198430,9.24324157,0.47746145,0.86965505,1.28326023
12075,0,USFloridaLevy,Florida,Levy,2021-01-06 02:42:01.286294,2021-01-11 00:00:00.000000,8.98327250,13.20264310,18.29840665,3728,5479,7594,1962,3016,4102,4.72857660,7.26751616,9.88549219,0.47743574,0.86961349,1.28765187
12075,0,USFloridaLevy,Florida,Levy,2021-01-06 02:42:01.286294,2021-01-12 00:00:00.000000,8.87013242,13.31007941,18.67398422,3681,5524,7750,2032,3026,4369,4.89758306,7.29282124,10.52935491,0.47742391,0.86959802,1.29083136
12075,0,USFloridaLevy,Florida,Levy,2021-01-06 02:42:01.286294,2021-01-13 00:00:00.000000,9.00128817,13.42511333,18.98658665,3735,5571,7880,2101,3046,4597,5.06465842,7.34051861,11.07680016,0.47741849,0.86959228,1.29312217
12075,0,USFloridaLevy,Florida,Levy,2021-01-06 02:42:01.286294,2021-01-14 00:00:00.000000,9.12589701,13.55681262,19.32584385,3787,5626,8020,2083,3126,4709,5.02130480,7.53426170,11.34710365,0.47741601,0.86959016,1.29476719
12075,0,USFloridaLevy,Florida,Levy,2021-01-06 02:42:01.286294,2021-01-15 00:00:00.000000,9.24354120,13.69758490,19.71395580,3836,5684,8181,2047,3183,4804,4.93253733,7.66976678,11.57674684,0.47741488,0.86958938,1.29594571
12075,0,USFloridaLevy,Florida,Levy,2021-01-06 02:42:01.286294,2021-01-16 00:00:00.000000,9.33476046,13.95184181,20.17897120,3874,5790,8374,2007,3177,4884,4.83757603,7.65654176,11.76878097,0.47741436,0.86958910,1.29678867
12075,0,USFloridaLevy,Florida,Levy,2021-01-06 02:42:01.286294,2021-01-17 00:00:00.000000,9.21253107,14.08525841,20.54353513,3823,5845,8526,1966,3175,4947,4.73706373,7.65183600,11.92110968,0.47741413,0.86958900,1.29739095
