FIPS,HR_UID,nameid,province,region,analysisTime,dates,pointprevalence_025,pointprevalence_50,pointprevalence_975,pointinfections_025,pointinfections_50,pointinfections_975,pointinfectious_025,pointinfectious_50,pointinfectious_975,pointinfectiousprevalence_05,pointinfectiousprevalence_50,pointinfectiousprevalence_95,infectrate_025,infectrate_50,infectrate_975
51035,0,USVirginiaCarroll,Virginia,Carroll,2021-01-05 07:23:38.180429,2020-03-09 00:00:00.000000,0.00094062,0.00778848,0.03208837,0,2,9,0,1,5,0.00045521,0.00410521,0.01731142,0.41556449,0.62339093,0.92902037
51035,0,USVirginiaCarroll,Virginia,Carroll,2021-01-05 07:23:38.180429,2020-03-10 00:00:00.000000,0.00105636,0.00918111,0.03601998,0,2,10,0,1,5,0.00048082,0.00402449,0.01776815,0.41556340,0.62334585,0.92901276
51035,0,USVirginiaCarroll,Virginia,Carroll,2021-01-05 07:23:38.180429,2020-03-11 00:00:00.000000,0.00117005,0.01056983,0.04013168,0,3,11,0,1,5,0.00051366,0.00432824,0.01878967,0.41555964,0.62325209,0.92899908
51035,0,USVirginiaCarroll,Virginia,Carroll,2021-01-05 07:23:38.180429,2020-03-12 00:00:00.000000,0.00128552,0.01200715,0.04452914,0,3,13,0,1,6,0.00056078,0.00469891,0.02023429,0.41554653,0.62294438,0.92897390
51035,0,USVirginiaCarroll,Virginia,Carroll,2021-01-05 07:23:38.180429,2020-03-13 00:00:00.000000,0.00140557,0.01352179,0.04929534,0,4,14,0,1,6,0.00061970,0.00508803,0.02202320,0.41550079,0.62094335,0.92892420
51035,0,USVirginiaCarroll,Virginia,Carroll,2021-01-05 07:23:38.180429,2020-03-14 00:00:00.000000,0.00153226,0.01498730,0.05450105,0,4,16,0,1,7,0.00068915,0.00566919,0.02411686,0.41534125,0.61885817,0.92880847
51035,0,USVirginiaCarroll,Virginia,Carroll,2021-01-05 07:23:38.180429,2020-03-15 00:00:00.000000,0.00166661,0.01655075,0.06021131,0,4,17,0,1,7,0.00073439,0.00631333,0.02650067,0.41478972,0.61352848,0.92845367
51035,0,USVirginiaCarroll,Virginia,Carroll,2021-01-05 07:23:38.180429,2020-03-16 00:00:00.000000,0.00512790,0.02143894,0.06857100,1,6,20,0,2,8,0.00077186,0.00693738,0.02917623,0.41294751,0.60893286,0.92702548
51035,0,USVirginiaCarroll,Virginia,Carroll,2021-01-05 07:23:38.180429,2020-03-17 00:00:00.000000,0.00720138,0.02620981,0.07649197,2,7,22,0,2,9,0.00128942,0.00800674,0.03256316,0.40745181,0.60340452,0.91793133
51035,0,USVirginiaCarroll,Virginia,Carroll,2021-01-05 07:23:38.180429,2020-03-18 00:00:00.000000,0.00977081,0.03134588,0.08487544,2,9,25,0,2,10,0.00212760,0.00974450,0.03656776,0.37440500,0.59852953,0.89678184
51035,0,USVirginiaCarroll,Virginia,Carroll,2021-01-05 07:23:38.180429,2020-03-19 00:00:00.000000,0.01236357,0.03709768,0.09370145,3,11,27,0,3,12,0.00287476,0.01202217,0.04088588,0.34111266,0.58734286,0.86775651
51035,0,USVirginiaCarroll,Virginia,Carroll,2021-01-05 07:23:38.180429,2020-03-20 00:00:00.000000,0.01504518,0.04369811,0.10269006,4,13,30,1,4,13,0.00377148,0.01480062,0.04527754,0.32910294,0.57975423,0.83119866
51035,0,USVirginiaCarroll,Virginia,Carroll,2021-01-05 07:23:38.180429,2020-03-21 00:00:00.000000,0.01770581,0.05208882,0.11237882,5,15,33,1,5,14,0.00481635,0.01832154,0.04993291,0.32603191,0.56113709,0.79134379
51035,0,USVirginiaCarroll,Virginia,Carroll,2021-01-05 07:23:38.180429,2020-03-22 00:00:00.000000,0.02045606,0.05986035,0.12213186,6,17,36,1,6,16,0.00600256,0.02182732,0.05473393,0.32526349,0.52567226,0.76482149
51035,0,USVirginiaCarroll,Virginia,Carroll,2021-01-05 07:23:38.180429,2020-03-23 00:00:00.000000,0.02421772,0.06808012,0.13366038,7,20,39,2,7,17,0.00732923,0.02562155,0.05954334,0.32196240,0.50762066,0.75198376
51035,0,USVirginiaCarroll,Virginia,Carroll,2021-01-05 07:23:38.180429,2020-03-24 00:00:00.000000,0.02940174,0.07681143,0.14552693,8,22,43,2,8,19,0.00901708,0.02881775,0.06522560,0.32191874,0.49324101,0.75754773
51035,0,USVirginiaCarroll,Virginia,Carroll,2021-01-05 07:23:38.180429,2020-03-25 00:00:00.000000,0.03516832,0.08518125,0.15829552,10,25,47,3,9,21,0.01102279,0.03234532,0.07197841,0.32317132,0.48628671,0.76314915
51035,0,USVirginiaCarroll,Virginia,Carroll,2021-01-05 07:23:38.180429,2020-03-26 00:00:00.000000,0.03943762,0.09606485,0.17102215,11,28,50,3,10,23,0.01333267,0.03642093,0.07870405,0.31959720,0.48043254,0.75609267
51035,0,USVirginiaCarroll,Virginia,Carroll,2021-01-05 07:23:38.180429,2020-03-27 00:00:00.000000,0.04356885,0.10714836,0.18542615,12,31,55,4,12,25,0.01564702,0.04087508,0.08525539,0.31363600,0.45242274,0.73852330
51035,0,USVirginiaCarroll,Virginia,Carroll,2021-01-05 07:23:38.180429,2020-03-28 00:00:00.000000,0.04781001,0.11806981,0.20118285,14,35,59,5,13,27,0.01839696,0.04540864,0.09170266,0.30735355,0.43393772,0.72671170
51035,0,USVirginiaCarroll,Virginia,Carroll,2021-01-05 07:23:38.180429,2020-03-29 00:00:00.000000,0.05430261,0.13183619,0.21801305,16,39,64,6,15,29,0.02102593,0.05048336,0.09888293,0.29996106,0.43311759,0.70902859
51035,0,USVirginiaCarroll,Virginia,Carroll,2021-01-05 07:23:38.180429,2020-03-30 00:00:00.000000,0.06272058,0.14262127,0.23285415,18,42,69,7,16,31,0.02365729,0.05648342,0.10662998,0.29171373,0.42154984,0.68893009
51035,0,USVirginiaCarroll,Virginia,Carroll,2021-01-05 07:23:38.180429,2020-03-31 00:00:00.000000,0.07155958,0.15326412,0.26147068,21,45,77,7,18,34,0.02651729,0.06281504,0.11449003,0.27061497,0.42185196,0.67096033
51035,0,USVirginiaCarroll,Virginia,Carroll,2021-01-05 07:23:38.180429,2020-04-01 00:00:00.000000,0.07948576,0.16662779,0.28141226,23,49,83,8,20,37,0.02984371,0.06890887,0.12452679,0.26325740,0.41975793,0.66206528
51035,0,USVirginiaCarroll,Virginia,Carroll,2021-01-05 07:23:38.180429,2020-04-02 00:00:00.000000,0.08854462,0.17844510,0.30186424,26,53,89,9,22,40,0.03352886,0.07460266,0.13505500,0.26227260,0.40789977,0.66217738
51035,0,USVirginiaCarroll,Virginia,Carroll,2021-01-05 07:23:38.180429,2020-04-03 00:00:00.000000,0.09814256,0.19357609,0.32387237,29,57,96,11,23,43,0.03752293,0.08034589,0.14495687,0.26902639,0.39385325,0.66229635
51035,0,USVirginiaCarroll,Virginia,Carroll,2021-01-05 07:23:38.180429,2020-04-04 00:00:00.000000,0.10830468,0.20782033,0.34717603,32,61,103,12,26,46,0.04182853,0.08833069,0.15552061,0.26868759,0.39066340,0.66191308
51035,0,USVirginiaCarroll,Virginia,Carroll,2021-01-05 07:23:38.180429,2020-04-05 00:00:00.000000,0.11903637,0.22206578,0.37175120,35,66,110,13,28,49,0.04644114,0.09432118,0.16694837,0.27384161,0.38600883,0.65788413
51035,0,USVirginiaCarroll,Virginia,Carroll,2021-01-05 07:23:38.180429,2020-04-06 00:00:00.000000,0.12451534,0.23230734,0.39213260,37,69,116,15,30,53,0.05137296,0.10206523,0.17935611,0.25907039,0.38475227,0.64718032
51035,0,USVirginiaCarroll,Virginia,Carroll,2021-01-05 07:23:38.180429,2020-04-07 00:00:00.000000,0.12971963,0.24170253,0.41394947,38,72,123,16,32,57,0.05580211,0.10974053,0.19220558,0.25782654,0.38888672,0.63566001
51035,0,USVirginiaCarroll,Virginia,Carroll,2021-01-05 07:23:38.180429,2020-04-08 00:00:00.000000,0.13510604,0.25120254,0.43736082,40,74,130,17,34,61,0.05998144,0.11435953,0.20564257,0.25592325,0.38959341,0.60980123
51035,0,USVirginiaCarroll,Virginia,Carroll,2021-01-05 07:23:38.180429,2020-04-09 00:00:00.000000,0.14082240,0.26108460,0.46274810,41,77,137,18,35,65,0.06352528,0.11936857,0.21958308,0.25489689,0.39080830,0.61509701
51035,0,USVirginiaCarroll,Virginia,Carroll,2021-01-05 07:23:38.180429,2020-04-10 00:00:00.000000,0.14699560,0.27483732,0.48967198,43,81,145,19,37,69,0.06678058,0.12523789,0.23406090,0.25496521,0.39729908,0.61242733
51035,0,USVirginiaCarroll,Virginia,Carroll,2021-01-05 07:23:38.180429,2020-04-11 00:00:00.000000,0.15365744,0.28865091,0.51818191,45,85,154,20,39,73,0.07004931,0.13187998,0.24833564,0.25523230,0.40134301,0.59307045
51035,0,USVirginiaCarroll,Virginia,Carroll,2021-01-05 07:23:38.180429,2020-04-12 00:00:00.000000,0.16078025,0.30209714,0.54820352,47,89,163,21,41,74,0.07340278,0.13842015,0.25145146,0.25780918,0.40265892,0.57772368
51035,0,USVirginiaCarroll,Virginia,Carroll,2021-01-05 07:23:38.180429,2020-04-13 00:00:00.000000,0.17710505,0.32685150,0.59186222,52,97,176,22,43,77,0.07688763,0.14524475,0.26016235,0.25984086,0.39819912,0.57410595
51035,0,USVirginiaCarroll,Virginia,Carroll,2021-01-05 07:23:38.180429,2020-04-14 00:00:00.000000,0.18940812,0.35609971,0.63548553,56,106,189,24,46,81,0.08137463,0.15471884,0.27303186,0.26654316,0.39557038,0.56381502
51035,0,USVirginiaCarroll,Virginia,Carroll,2021-01-05 07:23:38.180429,2020-04-15 00:00:00.000000,0.20224026,0.38209321,0.67887746,60,113,202,25,48,85,0.08674730,0.16204451,0.28694156,0.26995246,0.39676058,0.55715448
51035,0,USVirginiaCarroll,Virginia,Carroll,2021-01-05 07:23:38.180429,2020-04-16 00:00:00.000000,0.21569192,0.40319484,0.72297132,64,120,215,27,51,89,0.09328311,0.17148093,0.30207329,0.27234440,0.39630954,0.57556607
51035,0,USVirginiaCarroll,Virginia,Carroll,2021-01-05 07:23:38.180429,2020-04-17 00:00:00.000000,0.22951758,0.43303046,0.76889141,68,129,229,30,54,95,0.10086956,0.18209414,0.32115999,0.27574247,0.39124873,0.57559555
51035,0,USVirginiaCarroll,Virginia,Carroll,2021-01-05 07:23:38.180429,2020-04-18 00:00:00.000000,0.24363789,0.46171286,0.81716026,72,137,243,32,57,105,0.10933596,0.19276102,0.35465894,0.27497057,0.38807202,0.57857715
51035,0,USVirginiaCarroll,Virginia,Carroll,2021-01-05 07:23:38.180429,2020-04-19 00:00:00.000000,0.25800959,0.48204912,0.86734913,76,143,258,35,61,114,0.11849850,0.20582372,0.38496447,0.26907314,0.37975708,0.58703471
51035,0,USVirginiaCarroll,Virginia,Carroll,2021-01-05 07:23:38.180429,2020-04-20 00:00:00.000000,0.28085676,0.51815987,0.91607386,83,154,272,37,65,119,0.12421151,0.22026843,0.40241160,0.26571566,0.36927813,0.58915106
51035,0,USVirginiaCarroll,Virginia,Carroll,2021-01-05 07:23:38.180429,2020-04-21 00:00:00.000000,0.29740963,0.55890552,0.96753247,88,166,288,39,70,127,0.13364058,0.23676888,0.42742121,0.26451476,0.36299074,0.58785890
51035,0,USVirginiaCarroll,Virginia,Carroll,2021-01-05 07:23:38.180429,2020-04-22 00:00:00.000000,0.32146515,0.58928523,1.02177886,95,175,304,42,76,137,0.14408699,0.25577624,0.46088316,0.26695716,0.36933704,0.57881025
51035,0,USVirginiaCarroll,Virginia,Carroll,2021-01-05 07:23:38.180429,2020-04-23 00:00:00.000000,0.34735248,0.62272453,1.10044519,103,185,327,46,82,148,0.15549137,0.27547548,0.49703038,0.27639366,0.36987406,0.56437487
51035,0,USVirginiaCarroll,Virginia,Carroll,2021-01-05 07:23:38.180429,2020-04-24 00:00:00.000000,0.37576291,0.66208965,1.19640311,111,197,356,50,87,159,0.16787898,0.29281814,0.53464024,0.26763116,0.37211495,0.54875550
51035,0,USVirginiaCarroll,Virginia,Carroll,2021-01-05 07:23:38.180429,2020-04-25 00:00:00.000000,0.40767072,0.70328612,1.26949824,121,209,378,53,92,166,0.18121592,0.30998080,0.55959529,0.26908434,0.37997387,0.60966618
51035,0,USVirginiaCarroll,Virginia,Carroll,2021-01-05 07:23:38.180429,2020-04-26 00:00:00.000000,0.42126361,0.75316325,1.33268466,125,224,397,56,97,174,0.19052595,0.32875360,0.58582341,0.26935037,0.38461249,0.61560418
51035,0,USVirginiaCarroll,Virginia,Carroll,2021-01-05 07:23:38.180429,2020-04-27 00:00:00.000000,0.43915321,0.79404000,1.39983115,130,236,417,59,103,187,0.20045951,0.34605896,0.62798356,0.26330388,0.38426675,0.56566577
51035,0,USVirginiaCarroll,Virginia,Carroll,2021-01-05 07:23:38.180429,2020-04-28 00:00:00.000000,0.45671177,0.83040276,1.48501335,136,247,442,63,107,202,0.21246677,0.36117810,0.67965214,0.25736896,0.38406822,0.57590548
51035,0,USVirginiaCarroll,Virginia,Carroll,2021-01-05 07:23:38.180429,2020-04-29 00:00:00.000000,0.47430374,0.87658120,1.60926457,141,261,479,67,112,218,0.22604801,0.37803143,0.73470250,0.25884278,0.38364221,0.58119698
51035,0,USVirginiaCarroll,Virginia,Carroll,2021-01-05 07:23:38.180429,2020-04-30 00:00:00.000000,0.49207126,0.92632851,1.74008124,146,275,518,70,119,230,0.23767043,0.40028003,0.77494716,0.25212388,0.38680738,0.58366022
51035,0,USVirginiaCarroll,Virginia,Carroll,2021-01-05 07:23:38.180429,2020-05-01 00:00:00.000000,0.51015825,0.97321149,1.87785413,151,289,559,73,127,241,0.24738183,0.42882962,0.80971179,0.24932207,0.38488736,0.58466302
51035,0,USVirginiaCarroll,Virginia,Carroll,2021-01-05 07:23:38.180429,2020-05-02 00:00:00.000000,0.52909018,1.01643639,2.01196241,157,302,599,76,137,251,0.25784036,0.46150555,0.84378627,0.24371915,0.37719048,0.58501306
51035,0,USVirginiaCarroll,Virginia,Carroll,2021-01-05 07:23:38.180429,2020-05-03 00:00:00.000000,0.56084038,1.06016017,2.08251142,167,315,620,80,145,261,0.26946301,0.48901100,0.87758981,0.24009972,0.38103870,0.58504892
51035,0,USVirginiaCarroll,Virginia,Carroll,2021-01-05 07:23:38.180429,2020-05-04 00:00:00.000000,0.59952794,1.08186173,2.15461644,178,322,641,84,154,272,0.28284076,0.51880758,0.91607761,0.23984802,0.37172857,0.58404559
51035,0,USVirginiaCarroll,Virginia,Carroll,2021-01-05 07:23:38.180429,2020-05-05 00:00:00.000000,0.61791048,1.12824842,2.22849894,184,336,663,88,161,287,0.29802839,0.54257096,0.96587117,0.23916794,0.36682894,0.57788230
51035,0,USVirginiaCarroll,Virginia,Carroll,2021-01-05 07:23:38.180429,2020-05-06 00:00:00.000000,0.63613484,1.20106548,2.30421853,189,357,686,93,166,301,0.31362005,0.55898570,1.01353121,0.23841081,0.36205922,0.55140776
51035,0,USVirginiaCarroll,Virginia,Carroll,2021-01-05 07:23:38.180429,2020-05-07 00:00:00.000000,0.66039243,1.26252102,2.38190191,196,376,709,97,175,315,0.32880393,0.58847990,1.05992971,0.24008331,0.35615034,0.54886908
51035,0,USVirginiaCarroll,Virginia,Carroll,2021-01-05 07:23:38.180429,2020-05-08 00:00:00.000000,0.69087695,1.32371316,2.46151766,205,394,733,102,184,329,0.34399779,0.61999523,1.10577551,0.23995388,0.35088375,0.54877325
51035,0,USVirginiaCarroll,Virginia,Carroll,2021-01-05 07:23:38.180429,2020-05-09 00:00:00.000000,0.72157773,1.41563454,2.54270961,214,421,757,106,193,344,0.35873948,0.65092575,1.15598836,0.24048203,0.34058968,0.54874144
51035,0,USVirginiaCarroll,Virginia,Carroll,2021-01-05 07:23:38.180429,2020-05-10 00:00:00.000000,0.75293831,1.49170329,2.64399479,224,444,787,109,202,361,0.36814311,0.68055520,1.21432318,0.24009522,0.34622233,0.54078104
51035,0,USVirginiaCarroll,Virginia,Carroll,2021-01-05 07:23:38.180429,2020-05-11 00:00:00.000000,0.77729545,1.55975762,2.74033051,231,464,816,112,213,378,0.37904366,0.71799528,1.27108077,0.22768330,0.34943596,0.53730863
51035,0,USVirginiaCarroll,Virginia,Carroll,2021-01-05 07:23:38.180429,2020-05-12 00:00:00.000000,0.80321913,1.62951155,2.83822179,239,485,845,116,226,395,0.39070304,0.75872995,1.32721111,0.22020959,0.34305590,0.51523799
51035,0,USVirginiaCarroll,Virginia,Carroll,2021-01-05 07:23:38.180429,2020-05-13 00:00:00.000000,0.83083652,1.69782273,2.94022149,247,505,875,120,238,412,0.40397773,0.80042625,1.38338017,0.21911710,0.33691302,0.51742999
51035,0,USVirginiaCarroll,Virginia,Carroll,2021-01-05 07:23:38.180429,2020-05-14 00:00:00.000000,0.85991744,1.76432222,3.03878684,256,525,905,125,250,429,0.42005065,0.84234496,1.44020549,0.22189028,0.33439798,0.51759279
51035,0,USVirginiaCarroll,Virginia,Carroll,2021-01-05 07:23:38.180429,2020-05-15 00:00:00.000000,0.89009217,1.83747166,3.13098683,265,547,932,130,263,440,0.43898618,0.88371541,1.47822760,0.21808011,0.33423215,0.51208007
51035,0,USVirginiaCarroll,Virginia,Carroll,2021-01-05 07:23:38.180429,2020-05-16 00:00:00.000000,0.93176648,1.90512447,3.19987245,277,567,953,137,273,449,0.46014717,0.91909990,1.50871061,0.20343345,0.32911212,0.49260807
51035,0,USVirginiaCarroll,Virginia,Carroll,2021-01-05 07:23:38.180429,2020-05-17 00:00:00.000000,0.97941245,1.97287679,3.25855832,291,587,970,143,287,462,0.48310877,0.96382106,1.55242772,0.20095333,0.32442620,0.46042550
51035,0,USVirginiaCarroll,Virginia,Carroll,2021-01-05 07:23:38.180429,2020-05-18 00:00:00.000000,1.02844064,2.03813040,3.34749478,306,607,997,150,299,478,0.50473842,1.00577769,1.60743831,0.20084488,0.31869406,0.45279916
51035,0,USVirginiaCarroll,Virginia,Carroll,2021-01-05 07:23:38.180429,2020-05-19 00:00:00.000000,1.07923178,2.11273407,3.43258510,321,629,1022,156,312,494,0.52699508,1.04837527,1.66148957,0.19973542,0.31320586,0.43950668
51035,0,USVirginiaCarroll,Virginia,Carroll,2021-01-05 07:23:38.180429,2020-05-20 00:00:00.000000,1.11891483,2.17814962,3.48224071,333,648,1037,161,325,510,0.54255397,1.09169721,1.71255681,0.19867697,0.30184406,0.42217651
51035,0,USVirginiaCarroll,Virginia,Carroll,2021-01-05 07:23:38.180429,2020-05-21 00:00:00.000000,1.15039008,2.22759541,3.53208696,342,663,1052,166,334,523,0.56045447,1.12328442,1.75888443,0.19371594,0.29607019,0.41839354
51035,0,USVirginiaCarroll,Virginia,Carroll,2021-01-05 07:23:38.180429,2020-05-22 00:00:00.000000,1.18177828,2.28100977,3.58182934,352,679,1067,172,343,536,0.58032268,1.15439112,1.79974904,0.18595065,0.29353504,0.40477915
51035,0,USVirginiaCarroll,Virginia,Carroll,2021-01-05 07:23:38.180429,2020-05-23 00:00:00.000000,1.21275189,2.33242815,3.63029259,361,694,1081,178,352,546,0.60084663,1.18447410,1.83539765,0.18184255,0.28434707,0.40098739
51035,0,USVirginiaCarroll,Virginia,Carroll,2021-01-05 07:23:38.180429,2020-05-24 00:00:00.000000,1.24278422,2.37700746,3.68230528,370,708,1096,185,363,555,0.62202631,1.21891236,1.86495854,0.17325875,0.27453404,0.39834504
51035,0,USVirginiaCarroll,Virginia,Carroll,2021-01-05 07:23:38.180429,2020-05-25 00:00:00.000000,1.28254479,2.43111167,3.73896018,382,724,1113,191,370,563,0.64386807,1.24226906,1.89012404,0.16703597,0.26150025,0.39363148
51035,0,USVirginiaCarroll,Virginia,Carroll,2021-01-05 07:23:38.180429,2020-05-26 00:00:00.000000,1.31992989,2.49145278,3.79342439,393,742,1130,198,378,568,0.66598614,1.26924768,1.90994098,0.16527757,0.25478066,0.39316469
51035,0,USVirginiaCarroll,Virginia,Carroll,2021-01-05 07:23:38.180429,2020-05-27 00:00:00.000000,1.35484887,2.52431262,3.79685059,403,752,1131,205,389,573,0.68835097,1.30708964,1.92571053,0.16213727,0.24929935,0.38778706
51035,0,USVirginiaCarroll,Virginia,Carroll,2021-01-05 07:23:38.180429,2020-05-28 00:00:00.000000,1.37663821,2.54303622,3.84939004,410,757,1146,211,397,582,0.71060277,1.33560425,1.95501330,0.15451539,0.24454146,0.38251744
51035,0,USVirginiaCarroll,Virginia,Carroll,2021-01-05 07:23:38.180429,2020-05-29 00:00:00.000000,1.38925660,2.58067154,3.87697036,413,768,1154,213,406,581,0.71821951,1.36310192,1.95035480,0.15104866,0.24006142,0.37148893
51035,0,USVirginiaCarroll,Virginia,Carroll,2021-01-05 07:23:38.180429,2020-05-30 00:00:00.000000,1.40095282,2.62556699,3.88041059,417,782,1156,215,412,589,0.72386277,1.38376427,1.97765578,0.14496260,0.23103022,0.36160489
51035,0,USVirginiaCarroll,Virginia,Carroll,2021-01-05 07:23:38.180429,2020-05-31 00:00:00.000000,1.41045782,2.64132529,3.91277042,420,786,1165,217,414,599,0.72875762,1.39109492,2.01236679,0.14401895,0.22397693,0.34945898
51035,0,USVirginiaCarroll,Virginia,Carroll,2021-01-05 07:23:38.180429,2020-06-01 00:00:00.000000,1.42029592,2.63278174,3.93615495,423,784,1172,218,415,609,0.73307879,1.39574842,2.04601944,0.14043659,0.22182167,0.32979918
51035,0,USVirginiaCarroll,Virginia,Carroll,2021-01-05 07:23:38.180429,2020-06-02 00:00:00.000000,1.42748654,2.61971517,3.94284683,425,780,1174,219,418,618,0.73740655,1.40565842,2.07763740,0.13395802,0.21203412,0.31224008
51035,0,USVirginiaCarroll,Virginia,Carroll,2021-01-05 07:23:38.180429,2020-06-03 00:00:00.000000,1.43342855,2.60601397,3.93402996,427,776,1171,220,421,627,0.74150781,1.41637485,2.10488500,0.13272983,0.20215314,0.29329262
51035,0,USVirginiaCarroll,Virginia,Carroll,2021-01-05 07:23:38.180429,2020-06-04 00:00:00.000000,1.43833129,2.58940435,3.94740686,428,771,1175,221,423,633,0.74464802,1.42167929,2.12597589,0.13203052,0.19634646,0.28628341
51035,0,USVirginiaCarroll,Virginia,Carroll,2021-01-05 07:23:38.180429,2020-06-05 00:00:00.000000,1.44227498,2.57313942,3.96004128,429,766,1179,222,417,637,0.74693808,1.40207289,2.13965867,0.12795865,0.19351090,0.28435272
51035,0,USVirginiaCarroll,Virginia,Carroll,2021-01-05 07:23:38.180429,2020-06-06 00:00:00.000000,1.44575147,2.53317631,3.94181834,430,754,1174,223,416,639,0.74900266,1.39927047,2.14594440,0.12338678,0.18678486,0.27612752
51035,0,USVirginiaCarroll,Virginia,Carroll,2021-01-05 07:23:38.180429,2020-06-07 00:00:00.000000,1.42846587,2.51519198,3.89908078,425,749,1161,223,416,639,0.75115402,1.39713240,2.14578341,0.11610115,0.18335271,0.26342586
51035,0,USVirginiaCarroll,Virginia,Carroll,2021-01-05 07:23:38.180429,2020-06-08 00:00:00.000000,1.42136235,2.49005418,3.84847089,423,741,1146,222,414,637,0.74543139,1.39210457,2.14030823,0.11262658,0.18173526,0.26092520
51035,0,USVirginiaCarroll,Virginia,Carroll,2021-01-05 07:23:38.180429,2020-06-09 00:00:00.000000,1.40564955,2.48784316,3.79767706,418,741,1131,218,415,636,0.73370371,1.39455366,2.13808993,0.11143557,0.18023924,0.23826260
51035,0,USVirginiaCarroll,Virginia,Carroll,2021-01-05 07:23:38.180429,2020-06-10 00:00:00.000000,1.38504714,2.47694555,3.74987625,412,737,1117,215,414,642,0.72244656,1.39282439,2.15713313,0.11130689,0.17689263,0.24136095
51035,0,USVirginiaCarroll,Virginia,Carroll,2021-01-05 07:23:38.180429,2020-06-11 00:00:00.000000,1.36513501,2.46013300,3.70590144,406,732,1104,211,411,647,0.71158677,1.38026341,2.17348957,0.10929745,0.17688246,0.24284133
51035,0,USVirginiaCarroll,Virginia,Carroll,2021-01-05 07:23:38.180429,2020-06-12 00:00:00.000000,1.35042908,2.42601829,3.69302040,402,722,1100,210,406,651,0.70552159,1.36317817,2.18744654,0.10456805,0.17330983,0.24063725
51035,0,USVirginiaCarroll,Virginia,Carroll,2021-01-05 07:23:38.180429,2020-06-13 00:00:00.000000,1.34355345,2.38904470,3.65423310,400,711,1088,209,400,649,0.70189339,1.34344084,2.17920837,0.10309425,0.16648062,0.23794415
51035,0,USVirginiaCarroll,Virginia,Carroll,2021-01-05 07:23:38.180429,2020-06-14 00:00:00.000000,1.33060267,2.36420955,3.60175225,396,704,1072,207,394,642,0.69637603,1.32458025,2.15800444,0.10460246,0.16437720,0.24124848
51035,0,USVirginiaCarroll,Virginia,Carroll,2021-01-05 07:23:38.180429,2020-06-15 00:00:00.000000,1.31211850,2.33539641,3.55396389,390,695,1058,205,390,637,0.68924054,1.30951912,2.14145977,0.10686474,0.16286642,0.24236900
51035,0,USVirginiaCarroll,Virginia,Carroll,2021-01-05 07:23:38.180429,2020-06-16 00:00:00.000000,1.29375158,2.29918076,3.52293520,385,684,1049,202,383,638,0.68105355,1.28680120,2.14272824,0.10810493,0.15991619,0.24312243
51035,0,USVirginiaCarroll,Virginia,Carroll,2021-01-05 07:23:38.180429,2020-06-17 00:00:00.000000,1.27551011,2.26840617,3.48945040,379,675,1039,200,377,637,0.67214930,1.26736171,2.14019343,0.10715059,0.16381346,0.24501333
51035,0,USVirginiaCarroll,Virginia,Carroll,2021-01-05 07:23:38.180429,2020-06-18 00:00:00.000000,1.26089001,2.24051533,3.45324819,375,667,1028,197,372,635,0.66278957,1.24958159,2.13207531,0.10604257,0.16713725,0.24268406
51035,0,USVirginiaCarroll,Virginia,Carroll,2021-01-05 07:23:38.180429,2020-06-19 00:00:00.000000,1.24678566,2.20790388,3.41439613,371,657,1017,194,368,629,0.65317645,1.23735472,2.11388242,0.10508585,0.16758967,0.24295694
51035,0,USVirginiaCarroll,Virginia,Carroll,2021-01-05 07:23:38.180429,2020-06-20 00:00:00.000000,1.23253831,2.18779105,3.37506062,367,651,1005,191,365,620,0.64346820,1.22578278,2.08297486,0.10449074,0.16760646,0.24327133
51035,0,USVirginiaCarroll,Virginia,Carroll,2021-01-05 07:23:38.180429,2020-06-21 00:00:00.000000,1.21788390,2.15378744,3.33425867,362,641,993,188,359,609,0.63379192,1.20779740,2.04750997,0.10519867,0.16704602,0.24339617
51035,0,USVirginiaCarroll,Virginia,Carroll,2021-01-05 07:23:38.180429,2020-06-22 00:00:00.000000,1.20785321,2.12083682,3.29001209,359,631,980,185,350,605,0.62425256,1.17819794,2.03127848,0.10471110,0.16906368,0.24284005
51035,0,USVirginiaCarroll,Virginia,Carroll,2021-01-05 07:23:38.180429,2020-06-23 00:00:00.000000,1.17867733,2.08870989,3.25982991,351,622,971,183,344,596,0.61542825,1.15721987,2.00104292,0.10408494,0.16875894,0.24357368
51035,0,USVirginiaCarroll,Virginia,Carroll,2021-01-05 07:23:38.180429,2020-06-24 00:00:00.000000,1.16413703,2.06300769,3.24609466,346,614,967,181,341,586,0.60894841,1.14589088,1.96980748,0.10439294,0.16859329,0.24682982
51035,0,USVirginiaCarroll,Virginia,Carroll,2021-01-05 07:23:38.180429,2020-06-25 00:00:00.000000,1.14892160,2.04955372,3.23284043,342,610,963,179,338,576,0.60341632,1.13695153,1.93646867,0.10459782,0.17237927,0.25226978
51035,0,USVirginiaCarroll,Virginia,Carroll,2021-01-05 07:23:38.180429,2020-06-26 00:00:00.000000,1.13185542,2.02685469,3.22014424,337,603,959,178,336,566,0.59811170,1.12789059,1.90103359,0.10442607,0.17239929,0.25062107
51035,0,USVirginiaCarroll,Virginia,Carroll,2021-01-05 07:23:38.180429,2020-06-27 00:00:00.000000,1.10523508,2.00186797,3.20812846,329,596,955,176,331,562,0.59334119,1.11213612,1.88807080,0.10430608,0.17277352,0.26325322
51035,0,USVirginiaCarroll,Virginia,Carroll,2021-01-05 07:23:38.180429,2020-06-28 00:00:00.000000,1.07374010,1.97553649,3.19626570,319,588,952,175,325,558,0.58957435,1.09277194,1.87414126,0.10428022,0.17085478,0.27064839
51035,0,USVirginiaCarroll,Virginia,Carroll,2021-01-05 07:23:38.180429,2020-06-29 00:00:00.000000,1.04538826,1.94756256,3.15770815,311,580,940,172,320,553,0.57789597,1.07529003,1.85940560,0.10432296,0.17597590,0.28148670
51035,0,USVirginiaCarroll,Virginia,Carroll,2021-01-05 07:23:38.180429,2020-06-30 00:00:00.000000,1.01789278,1.92312185,3.12702740,303,572,931,168,317,549,0.56575006,1.06538081,1.84404339,0.10454302,0.17795414,0.28299364
51035,0,USVirginiaCarroll,Virginia,Carroll,2021-01-05 07:23:38.180429,2020-07-01 00:00:00.000000,0.99587066,1.88603245,3.09596480,296,561,922,165,314,550,0.55408208,1.05527060,1.84722650,0.10546647,0.17676455,0.28243141
51035,0,USVirginiaCarroll,Virginia,Carroll,2021-01-05 07:23:38.180429,2020-07-02 00:00:00.000000,0.97874944,1.88420380,3.06278537,291,561,912,161,310,552,0.54306549,1.04260458,1.85401289,0.10774255,0.17816642,0.28297885
51035,0,USVirginiaCarroll,Virginia,Carroll,2021-01-05 07:23:38.180429,2020-07-03 00:00:00.000000,0.96340491,1.88390164,3.03448399,287,561,904,158,306,554,0.53271388,1.03005440,1.86236226,0.10945150,0.17968672,0.28223769
51035,0,USVirginiaCarroll,Virginia,Carroll,2021-01-05 07:23:38.180429,2020-07-04 00:00:00.000000,0.94486585,1.88803911,3.03009008,281,562,902,155,303,557,0.52310384,1.01778609,1.87199237,0.11000630,0.18706602,0.30026779
51035,0,USVirginiaCarroll,Virginia,Carroll,2021-01-05 07:23:38.180429,2020-07-05 00:00:00.000000,0.92218060,1.87613551,3.02839717,274,558,902,153,299,560,0.51458046,1.00609802,1.88272711,0.11169249,0.19372973,0.30308376
51035,0,USVirginiaCarroll,Virginia,Carroll,2021-01-05 07:23:38.180429,2020-07-06 00:00:00.000000,0.90908680,1.85652062,3.02969995,270,553,902,151,296,564,0.50749919,0.99532430,1.89447747,0.11771914,0.19720106,0.30474260
51035,0,USVirginiaCarroll,Virginia,Carroll,2021-01-05 07:23:38.180429,2020-07-07 00:00:00.000000,0.91115766,1.83635471,3.03100734,271,547,902,149,293,568,0.50231956,0.98603453,1.90683327,0.12615827,0.19982501,0.30559119
51035,0,USVirginiaCarroll,Virginia,Carroll,2021-01-05 07:23:38.180429,2020-07-08 00:00:00.000000,0.91533790,1.82398292,3.03175304,272,543,903,148,292,570,0.49859000,0.98049475,1.91412275,0.12576295,0.19822282,0.31041110
51035,0,USVirginiaCarroll,Virginia,Carroll,2021-01-05 07:23:38.180429,2020-07-09 00:00:00.000000,0.92042100,1.83058765,3.04572817,274,545,907,146,292,569,0.49235118,0.98042289,1.91058708,0.12559942,0.19600082,0.31217424
51035,0,USVirginiaCarroll,Virginia,Carroll,2021-01-05 07:23:38.180429,2020-07-10 00:00:00.000000,0.92557092,1.83843123,3.06764269,275,547,913,144,292,568,0.48376281,0.98098483,1.90854137,0.12605700,0.19744983,0.31311416
51035,0,USVirginiaCarroll,Virginia,Carroll,2021-01-05 07:23:38.180429,2020-07-11 00:00:00.000000,0.92998598,1.84316068,3.08861996,277,549,920,141,292,568,0.47581633,0.98216681,1.90766553,0.12646982,0.19737759,0.32055094
51035,0,USVirginiaCarroll,Virginia,Carroll,2021-01-05 07:23:38.180429,2020-07-12 00:00:00.000000,0.93372747,1.82742625,3.09624138,278,544,922,141,293,568,0.47422193,0.98458670,1.90770916,0.12816545,0.19826226,0.34504755
51035,0,USVirginiaCarroll,Virginia,Carroll,2021-01-05 07:23:38.180429,2020-07-13 00:00:00.000000,0.93824744,1.81326014,3.12243364,279,540,930,141,294,568,0.47468714,0.98955226,1.90847880,0.12899321,0.20196303,0.36536657
51035,0,USVirginiaCarroll,Virginia,Carroll,2021-01-05 07:23:38.180429,2020-07-14 00:00:00.000000,0.94276525,1.78955699,3.13606423,280,533,934,141,297,568,0.47565157,0.99848449,1.90900027,0.12941413,0.20301344,0.36898306
51035,0,USVirginiaCarroll,Virginia,Carroll,2021-01-05 07:23:38.180429,2020-07-15 00:00:00.000000,0.94731924,1.77082985,3.14976882,282,527,938,142,297,568,0.47696723,0.99794518,1.90934987,0.13038971,0.20376672,0.36922546
51035,0,USVirginiaCarroll,Virginia,Carroll,2021-01-05 07:23:38.180429,2020-07-16 00:00:00.000000,0.95193360,1.76816178,3.16428678,283,526,942,142,296,568,0.47854452,0.99566738,1.90965428,0.12998338,0.21027301,0.36877232
51035,0,USVirginiaCarroll,Virginia,Carroll,2021-01-05 07:23:38.180429,2020-07-17 00:00:00.000000,0.95672153,1.78231635,3.18086363,285,530,947,143,295,569,0.48030798,0.99205975,1.91017875,0.12906375,0.21107487,0.36790156
51035,0,USVirginiaCarroll,Virginia,Carroll,2021-01-05 07:23:38.180429,2020-07-18 00:00:00.000000,0.96200888,1.79322192,3.20177410,286,534,953,143,290,569,0.48219343,0.97663493,1.91124968,0.12868434,0.21079814,0.36648137
51035,0,USVirginiaCarroll,Virginia,Carroll,2021-01-05 07:23:38.180429,2020-07-19 00:00:00.000000,0.96838530,1.79547662,3.22785118,288,534,961,144,292,569,0.48414914,0.98118018,1.91298939,0.13897853,0.21142039,0.36404366
51035,0,USVirginiaCarroll,Virginia,Carroll,2021-01-05 07:23:38.180429,2020-07-20 00:00:00.000000,0.97027967,1.78847769,3.25707534,289,532,970,144,293,570,0.48613393,0.98382887,1.91534551,0.14976283,0.21687976,0.35081208
51035,0,USVirginiaCarroll,Virginia,Carroll,2021-01-05 07:23:38.180429,2020-07-21 00:00:00.000000,0.96330714,1.80653008,3.28759808,286,538,979,145,291,570,0.48770754,0.97849608,1.91532126,0.15204830,0.22205512,0.35426402
51035,0,USVirginiaCarroll,Virginia,Carroll,2021-01-05 07:23:38.180429,2020-07-22 00:00:00.000000,0.95864011,1.80789111,3.30462330,285,538,984,145,290,570,0.48882382,0.97642569,1.91342593,0.15132575,0.22809162,0.35280221
51035,0,USVirginiaCarroll,Virginia,Carroll,2021-01-05 07:23:38.180429,2020-07-23 00:00:00.000000,0.95571311,1.80515748,3.30313872,284,537,984,145,291,569,0.48942156,0.97911929,1.91006478,0.14998419,0.23211900,0.35245482
51035,0,USVirginiaCarroll,Virginia,Carroll,2021-01-05 07:23:38.180429,2020-07-24 00:00:00.000000,0.95489864,1.80994965,3.30633895,284,539,984,145,294,567,0.48956951,0.98773953,1.90556608,0.14823249,0.23555158,0.36298346
51035,0,USVirginiaCarroll,Virginia,Carroll,2021-01-05 07:23:38.180429,2020-07-25 00:00:00.000000,0.95811010,1.81887488,3.31746024,285,541,988,145,293,566,0.48938365,0.98669289,1.90019855,0.14305780,0.23618560,0.37534215
51035,0,USVirginiaCarroll,Virginia,Carroll,2021-01-05 07:23:38.180429,2020-07-26 00:00:00.000000,0.96809681,1.83192800,3.33464662,288,545,993,145,292,564,0.48897937,0.98227562,1.89419341,0.14280631,0.23866272,0.38456134
51035,0,USVirginiaCarroll,Virginia,Carroll,2021-01-05 07:23:38.180429,2020-07-27 00:00:00.000000,0.99206157,1.85819114,3.35078178,295,553,998,145,292,562,0.48846425,0.98023114,1.88779175,0.14425858,0.23955725,0.39046171
51035,0,USVirginiaCarroll,Virginia,Carroll,2021-01-05 07:23:38.180429,2020-07-28 00:00:00.000000,1.01992219,1.89556857,3.32816796,303,564,991,145,291,560,0.48862811,0.98006831,1.88194141,0.14427594,0.23952297,0.39202215
51035,0,USVirginiaCarroll,Virginia,Carroll,2021-01-05 07:23:38.180429,2020-07-29 00:00:00.000000,1.03560117,1.92058618,3.30991211,308,572,986,145,290,559,0.48934472,0.97546821,1.87692227,0.14658099,0.24028830,0.39260105
51035,0,USVirginiaCarroll,Virginia,Carroll,2021-01-05 07:23:38.180429,2020-07-30 00:00:00.000000,1.03666246,1.93898641,3.29358693,308,577,981,146,289,557,0.49051677,0.97162079,1.87292159,0.14554261,0.23819314,0.39247741
51035,0,USVirginiaCarroll,Virginia,Carroll,2021-01-05 07:23:38.180429,2020-07-31 00:00:00.000000,1.03854045,1.93213383,3.27770796,309,575,976,146,288,556,0.49208498,0.96853397,1.86916876,0.14596782,0.24529484,0.38928407
51035,0,USVirginiaCarroll,Virginia,Carroll,2021-01-05 07:23:38.180429,2020-08-01 00:00:00.000000,1.04358413,1.92739917,3.28766621,310,574,979,147,287,555,0.49400992,0.96643555,1.86631332,0.14610404,0.24532766,0.38273613
51035,0,USVirginiaCarroll,Virginia,Carroll,2021-01-05 07:23:38.180429,2020-08-02 00:00:00.000000,1.05335599,1.92817951,3.32403501,313,574,990,147,290,555,0.49639349,0.97614110,1.86418186,0.14612186,0.24591503,0.38077776
51035,0,USVirginiaCarroll,Virginia,Carroll,2021-01-05 07:23:38.180429,2020-08-03 00:00:00.000000,1.06430000,1.93506401,3.37562674,317,576,1005,148,291,554,0.49904265,0.97812204,1.86261181,0.14611865,0.25072544,0.37947492
51035,0,USVirginiaCarroll,Virginia,Carroll,2021-01-05 07:23:38.180429,2020-08-04 00:00:00.000000,1.07598749,1.95383656,3.42828128,320,582,1021,149,292,554,0.50138057,0.98262544,1.86129449,0.14612440,0.25202622,0.37446569
51035,0,USVirginiaCarroll,Virginia,Carroll,2021-01-05 07:23:38.180429,2020-08-05 00:00:00.000000,1.08048219,1.98977798,3.48176705,321,592,1037,150,294,554,0.50351916,0.98912203,1.86015460,0.14768169,0.25310339,0.37229090
51035,0,USVirginiaCarroll,Virginia,Carroll,2021-01-05 07:23:38.180429,2020-08-06 00:00:00.000000,1.08450064,2.02650691,3.53549755,323,603,1053,150,297,553,0.50554965,0.99714261,1.85913146,0.15421254,0.25541187,0.37275956
51035,0,USVirginiaCarroll,Virginia,Carroll,2021-01-05 07:23:38.180429,2020-08-07 00:00:00.000000,1.08891635,2.06382664,3.58851730,324,614,1069,151,301,553,0.50754986,1.01078734,1.85817764,0.15616547,0.25883207,0.38498097
51035,0,USVirginiaCarroll,Virginia,Carroll,2021-01-05 07:23:38.180429,2020-08-08 00:00:00.000000,1.09371480,2.07496393,3.62526200,325,618,1080,151,305,553,0.50958498,1.02678305,1.85726015,0.15629810,0.25782348,0.37727986
51035,0,USVirginiaCarroll,Virginia,Carroll,2021-01-05 07:23:38.180429,2020-08-09 00:00:00.000000,1.09882065,2.07712823,3.63240862,327,618,1082,152,307,553,0.51169950,1.03345702,1.85636748,0.16188444,0.25838592,0.36948622
51035,0,USVirginiaCarroll,Virginia,Carroll,2021-01-05 07:23:38.180429,2020-08-10 00:00:00.000000,1.10447623,2.08926515,3.61949439,329,622,1078,153,309,555,0.51391423,1.03987219,1.86457397,0.16507396,0.26183451,0.37346062
51035,0,USVirginiaCarroll,Virginia,Carroll,2021-01-05 07:23:38.180429,2020-08-11 00:00:00.000000,1.11030202,2.11215548,3.59764291,330,629,1071,153,313,564,0.51647913,1.05295392,1.89588206,0.15886980,0.26069566,0.37356981
51035,0,USVirginiaCarroll,Virginia,Carroll,2021-01-05 07:23:38.180429,2020-08-12 00:00:00.000000,1.12036380,2.13714372,3.57027946,333,636,1063,158,317,574,0.53339265,1.06578857,1.92785188,0.15846374,0.26042789,0.36863417
51035,0,USVirginiaCarroll,Virginia,Carroll,2021-01-05 07:23:38.180429,2020-08-13 00:00:00.000000,1.15554646,2.16324720,3.54027767,344,644,1054,164,321,584,0.55094384,1.07960266,1.96034936,0.15885535,0.26091044,0.36633562
51035,0,USVirginiaCarroll,Virginia,Carroll,2021-01-05 07:23:38.180429,2020-08-14 00:00:00.000000,1.18703781,2.18580627,3.50903138,353,651,1045,169,325,593,0.56882452,1.09243274,1.99314745,0.16002308,0.26239602,0.37515510
51035,0,USVirginiaCarroll,Virginia,Carroll,2021-01-05 07:23:38.180429,2020-08-15 00:00:00.000000,1.20569605,2.19967157,3.47628036,359,655,1035,174,329,603,0.58645993,1.10442093,2.02582810,0.15886467,0.25811851,0.39298462
51035,0,USVirginiaCarroll,Virginia,Carroll,2021-01-05 07:23:38.180429,2020-08-16 00:00:00.000000,1.21546572,2.21415954,3.44241502,362,659,1025,179,332,612,0.60316888,1.11538258,2.05756515,0.16051907,0.25631029,0.39215253
51035,0,USVirginiaCarroll,Virginia,Carroll,2021-01-05 07:23:38.180429,2020-08-17 00:00:00.000000,1.22144585,2.23122234,3.41527989,363,664,1017,184,334,621,0.61819103,1.12224734,2.08692245,0.15870273,0.25642448,0.40286631
51035,0,USVirginiaCarroll,Virginia,Carroll,2021-01-05 07:23:38.180429,2020-08-18 00:00:00.000000,1.22599312,2.24882649,3.40260456,365,669,1013,186,335,627,0.62681654,1.12500069,2.10475843,0.15800868,0.25581108,0.40545594
51035,0,USVirginiaCarroll,Virginia,Carroll,2021-01-05 07:23:38.180429,2020-08-19 00:00:00.000000,1.22918407,2.26679165,3.41730388,366,675,1018,188,338,627,0.63328009,1.13723701,2.10544840,0.15784921,0.25352714,0.39971947
51035,0,USVirginiaCarroll,Virginia,Carroll,2021-01-05 07:23:38.180429,2020-08-20 00:00:00.000000,1.23066036,2.28449494,3.43265227,366,680,1022,190,342,627,0.64034677,1.14899843,2.10539396,0.15716978,0.25263093,0.40043795
51035,0,USVirginiaCarroll,Virginia,Carroll,2021-01-05 07:23:38.180429,2020-08-21 00:00:00.000000,1.22756419,2.28946576,3.44711687,365,682,1026,192,345,626,0.64782527,1.15827764,2.10430508,0.15558249,0.24453132,0.40060342
51035,0,USVirginiaCarroll,Virginia,Carroll,2021-01-05 07:23:38.180429,2020-08-22 00:00:00.000000,1.21910049,2.29619184,3.46181138,363,684,1031,195,347,626,0.65556933,1.16686993,2.10203021,0.15364513,0.23800249,0.37958089
51035,0,USVirginiaCarroll,Virginia,Carroll,2021-01-05 07:23:38.180429,2020-08-23 00:00:00.000000,1.20896643,2.31044190,3.47739816,360,688,1035,197,350,625,0.66273675,1.17767855,2.09853836,0.15224732,0.23580362,0.35906049
51035,0,USVirginiaCarroll,Virginia,Carroll,2021-01-05 07:23:38.180429,2020-08-24 00:00:00.000000,1.21029909,2.30937687,3.47465247,360,687,1035,198,353,623,0.66725244,1.18663807,2.09388804,0.15125602,0.23031357,0.35562302
51035,0,USVirginiaCarroll,Virginia,Carroll,2021-01-05 07:23:38.180429,2020-08-25 00:00:00.000000,1.21146648,2.32562195,3.48279383,360,692,1037,199,355,625,0.67005704,1.19298494,2.09905208,0.14748311,0.22727568,0.35521946
51035,0,USVirginiaCarroll,Virginia,Carroll,2021-01-05 07:23:38.180429,2020-08-26 00:00:00.000000,1.22367350,2.30934382,3.50243483,364,687,1043,200,357,629,0.67152725,1.20117595,2.11176726,0.14448710,0.22379956,0.35462303
51035,0,USVirginiaCarroll,Virginia,Carroll,2021-01-05 07:23:38.180429,2020-08-27 00:00:00.000000,1.23655738,2.31516950,3.47402300,368,689,1034,200,358,631,0.67200300,1.20399657,2.12143660,0.14324173,0.21822858,0.35313193
51035,0,USVirginiaCarroll,Virginia,Carroll,2021-01-05 07:23:38.180429,2020-08-28 00:00:00.000000,1.24930300,2.30654923,3.46947398,372,687,1033,200,358,634,0.67175118,1.20321590,2.12841895,0.14323071,0.21697487,0.34508745
51035,0,USVirginiaCarroll,Virginia,Carroll,2021-01-05 07:23:38.180429,2020-08-29 00:00:00.000000,1.26176872,2.29465339,3.45807962,375,683,1030,199,358,635,0.67096107,1.20386804,2.13309390,0.14182466,0.21849413,0.33732100
51035,0,USVirginiaCarroll,Virginia,Carroll,2021-01-05 07:23:38.180429,2020-08-30 00:00:00.000000,1.27372446,2.28179562,3.46907488,379,679,1033,199,358,636,0.66977269,1.20473992,2.13576390,0.13789648,0.21877459,0.32812903
51035,0,USVirginiaCarroll,Virginia,Carroll,2021-01-05 07:23:38.180429,2020-08-31 00:00:00.000000,1.27449678,2.27061323,3.50837119,379,676,1045,198,359,636,0.66470434,1.20538776,2.13657456,0.13275524,0.21952283,0.32458295
51035,0,USVirginiaCarroll,Virginia,Carroll,2021-01-05 07:23:38.180429,2020-09-01 00:00:00.000000,1.27342480,2.25939932,3.54380202,379,673,1055,195,358,636,0.65672774,1.20472223,2.13628553,0.13079109,0.21610243,0.32546719
51035,0,USVirginiaCarroll,Virginia,Carroll,2021-01-05 07:23:38.180429,2020-09-02 00:00:00.000000,1.26673479,2.24842745,3.53355519,377,669,1052,193,358,636,0.64872318,1.20411030,2.13605162,0.13038101,0.21326037,0.32427850
51035,0,USVirginiaCarroll,Virginia,Carroll,2021-01-05 07:23:38.180429,2020-09-03 00:00:00.000000,1.26041792,2.24003099,3.51929923,375,667,1048,190,355,636,0.64068607,1.19444756,2.13656812,0.13347079,0.20915463,0.32644223
51035,0,USVirginiaCarroll,Virginia,Carroll,2021-01-05 07:23:38.180429,2020-09-04 00:00:00.000000,1.24826489,2.21723135,3.50181350,371,660,1043,188,353,635,0.63261294,1.18526233,2.13453453,0.13453038,0.20198616,0.28892505
51035,0,USVirginiaCarroll,Virginia,Carroll,2021-01-05 07:23:38.180429,2020-09-05 00:00:00.000000,1.23364523,2.19262900,3.48126657,367,653,1037,186,352,630,0.62450170,1.18450893,2.11787851,0.12808097,0.19682855,0.28075991
51035,0,USVirginiaCarroll,Virginia,Carroll,2021-01-05 07:23:38.180429,2020-09-06 00:00:00.000000,1.21746840,2.15847990,3.45707920,362,643,1029,183,354,623,0.61634085,1.18911529,2.09201754,0.12541034,0.19592158,0.28263334
51035,0,USVirginiaCarroll,Virginia,Carroll,2021-01-05 07:23:38.180429,2020-09-07 00:00:00.000000,1.20673423,2.13673518,3.42310633,359,636,1019,181,351,617,0.60807087,1.18137035,2.07361582,0.12317818,0.19194581,0.28369330
51035,0,USVirginiaCarroll,Virginia,Carroll,2021-01-05 07:23:38.180429,2020-09-08 00:00:00.000000,1.19548777,2.11171672,3.38679718,356,629,1008,179,349,611,0.60130203,1.17377039,2.05305378,0.12261508,0.19142578,0.28198612
51035,0,USVirginiaCarroll,Virginia,Carroll,2021-01-05 07:23:38.180429,2020-09-09 00:00:00.000000,1.18407292,2.06887156,3.35062403,352,616,998,177,347,605,0.59522632,1.16700485,2.03119228,0.12164379,0.19103254,0.27828826
51035,0,USVirginiaCarroll,Virginia,Carroll,2021-01-05 07:23:38.180429,2020-09-10 00:00:00.000000,1.17262044,2.03887902,3.31650077,349,607,988,175,344,599,0.58935573,1.15563793,2.01355118,0.12089658,0.18979682,0.27278400
51035,0,USVirginiaCarroll,Virginia,Carroll,2021-01-05 07:23:38.180429,2020-09-11 00:00:00.000000,1.15381546,2.01811958,3.28499743,343,601,978,173,340,597,0.58355484,1.14224755,2.00701048,0.12034122,0.18991788,0.26659756
51035,0,USVirginiaCarroll,Virginia,Carroll,2021-01-05 07:23:38.180429,2020-09-12 00:00:00.000000,1.14384134,2.00021475,3.25569805,340,595,969,172,334,591,0.57798941,1.12437912,1.98467769,0.12118647,0.18970181,0.27049859
51035,0,USVirginiaCarroll,Virginia,Carroll,2021-01-05 07:23:38.180429,2020-09-13 00:00:00.000000,1.13777480,1.96968811,3.22788332,338,586,961,170,330,584,0.57316572,1.10836448,1.96238112,0.12225056,0.19250613,0.27380054
51035,0,USVirginiaCarroll,Virginia,Carroll,2021-01-05 07:23:38.180429,2020-09-14 00:00:00.000000,1.12398118,1.95343124,3.20509696,334,581,954,169,326,577,0.56979244,1.09469207,1.93969865,0.12282513,0.19579222,0.28098918
51035,0,USVirginiaCarroll,Virginia,Carroll,2021-01-05 07:23:38.180429,2020-09-15 00:00:00.000000,1.10711671,1.94042457,3.18227589,329,578,948,168,321,571,0.56566636,1.08079888,1.91704663,0.12088891,0.19761938,0.28559282
51035,0,USVirginiaCarroll,Virginia,Carroll,2021-01-05 07:23:38.180429,2020-09-16 00:00:00.000000,1.08566135,1.93127604,3.15975373,323,575,941,167,318,564,0.56134017,1.07024666,1.89410844,0.12223104,0.19841450,0.30011196
51035,0,USVirginiaCarroll,Virginia,Carroll,2021-01-05 07:23:38.180429,2020-09-17 00:00:00.000000,1.06657061,1.92702105,3.13743228,317,574,934,165,316,557,0.55697205,1.06341165,1.87089952,0.12267748,0.20302332,0.32952589
51035,0,USVirginiaCarroll,Virginia,Carroll,2021-01-05 07:23:38.180429,2020-09-18 00:00:00.000000,1.04705556,1.91055869,3.11524177,311,569,928,164,313,550,0.55258368,1.05392722,1.84766067,0.12277261,0.20547836,0.34820991
51035,0,USVirginiaCarroll,Virginia,Carroll,2021-01-05 07:23:38.180429,2020-09-19 00:00:00.000000,1.02419629,1.90878962,3.09316425,305,568,921,162,310,543,0.54670603,1.04177063,1.82462876,0.12404400,0.20757364,0.35298921
51035,0,USVirginiaCarroll,Virginia,Carroll,2021-01-05 07:23:38.180429,2020-09-20 00:00:00.000000,1.00283900,1.90328885,3.07127266,298,567,914,159,307,536,0.53453222,1.03332587,1.80219436,0.12438000,0.21283966,0.35381907
51035,0,USVirginiaCarroll,Virginia,Carroll,2021-01-05 07:23:38.180429,2020-09-21 00:00:00.000000,0.98284800,1.89657008,3.05099785,292,565,908,155,306,530,0.52288551,1.02808188,1.78082384,0.12551789,0.21670039,0.35395480
51035,0,USVirginiaCarroll,Virginia,Carroll,2021-01-05 07:23:38.180429,2020-09-22 00:00:00.000000,0.96423031,1.88585918,3.03248491,287,561,903,152,303,524,0.51179130,1.01904292,1.75952854,0.12868817,0.21839374,0.35397697
51035,0,USVirginiaCarroll,Virginia,Carroll,2021-01-05 07:23:38.180429,2020-09-23 00:00:00.000000,0.94692903,1.85897761,3.01878359,282,553,899,149,302,518,0.50129079,1.01551096,1.74134934,0.13454322,0.22228794,0.35397870
51035,0,USVirginiaCarroll,Virginia,Carroll,2021-01-05 07:23:38.180429,2020-09-24 00:00:00.000000,0.93091820,1.85474147,3.01473721,277,552,898,146,303,515,0.49140424,1.01839891,1.72951983,0.13520870,0.22365767,0.37578602
51035,0,USVirginiaCarroll,Virginia,Carroll,2021-01-05 07:23:38.180429,2020-09-25 00:00:00.000000,0.92130620,1.84688448,3.02339605,274,550,900,143,302,512,0.48231017,1.01491147,1.72175917,0.13531483,0.22718046,0.38218941
51035,0,USVirginiaCarroll,Virginia,Carroll,2021-01-05 07:23:38.180429,2020-09-26 00:00:00.000000,0.91328207,1.83060662,3.04543788,272,545,907,141,300,511,0.47636300,1.00716445,1.71790660,0.13551097,0.23049827,0.38066348
51035,0,USVirginiaCarroll,Virginia,Carroll,2021-01-05 07:23:38.180429,2020-09-27 00:00:00.000000,0.90391438,1.82931791,3.07528685,269,544,916,140,299,511,0.47133092,1.00392426,1.71778346,0.14725033,0.23625723,0.37776846
51035,0,USVirginiaCarroll,Virginia,Carroll,2021-01-05 07:23:38.180429,2020-09-28 00:00:00.000000,0.89785796,1.83530615,3.10136950,267,546,923,139,298,512,0.46749548,1.00286013,1.72118845,0.15110342,0.23960822,0.37774431
51035,0,USVirginiaCarroll,Virginia,Carroll,2021-01-05 07:23:38.180429,2020-09-29 00:00:00.000000,0.89410563,1.84697936,3.12908830,266,550,932,138,299,514,0.46592205,1.00634324,1.72849797,0.16251284,0.24809380,0.37905637
51035,0,USVirginiaCarroll,Virginia,Carroll,2021-01-05 07:23:38.180429,2020-09-30 00:00:00.000000,0.89963623,1.86948263,3.15826700,268,556,940,138,301,518,0.46598943,1.01134963,1.73958836,0.16633264,0.25694327,0.38216251
51035,0,USVirginiaCarroll,Virginia,Carroll,2021-01-05 07:23:38.180429,2020-10-01 00:00:00.000000,0.90914573,1.89171463,3.18911640,270,563,950,139,303,522,0.46782215,1.01843537,1.75410007,0.17309307,0.26354365,0.39155988
51035,0,USVirginiaCarroll,Virginia,Carroll,2021-01-05 07:23:38.180429,2020-10-02 00:00:00.000000,0.92444418,1.91405375,3.22179462,275,570,959,140,306,527,0.47113590,1.02806244,1.77165133,0.18420387,0.27639306,0.41373551
51035,0,USVirginiaCarroll,Virginia,Carroll,2021-01-05 07:23:38.180429,2020-10-03 00:00:00.000000,0.94690010,1.93349532,3.25626721,282,576,970,141,309,533,0.47503208,1.03924196,1.79186987,0.18878526,0.28229486,0.43717893
51035,0,USVirginiaCarroll,Virginia,Carroll,2021-01-05 07:23:38.180429,2020-10-04 00:00:00.000000,0.97720937,1.94511402,3.29227649,291,579,980,143,311,540,0.48119281,1.04653592,1.81438980,0.19415463,0.29684745,0.47455918
51035,0,USVirginiaCarroll,Virginia,Carroll,2021-01-05 07:23:38.180429,2020-10-05 00:00:00.000000,1.01087239,1.97037253,3.33706169,301,586,994,145,314,547,0.48996486,1.05451093,1.83884637,0.20491888,0.30965078,0.49359966
51035,0,USVirginiaCarroll,Virginia,Carroll,2021-01-05 07:23:38.180429,2020-10-06 00:00:00.000000,1.05050678,2.00178591,3.38243813,312,596,1007,149,316,555,0.50058094,1.06168928,1.86406856,0.21135500,0.32079371,0.49558305
51035,0,USVirginiaCarroll,Virginia,Carroll,2021-01-05 07:23:38.180429,2020-10-07 00:00:00.000000,1.06764770,2.02446671,3.42803782,318,603,1021,152,319,562,0.51270699,1.07157564,1.88959343,0.21364198,0.32453821,0.49632875
51035,0,USVirginiaCarroll,Virginia,Carroll,2021-01-05 07:23:38.180429,2020-10-08 00:00:00.000000,1.08379694,2.05670571,3.47363824,322,612,1034,156,322,570,0.52604036,1.08410757,1.91470491,0.21741932,0.33121959,0.49696459
51035,0,USVirginiaCarroll,Virginia,Carroll,2021-01-05 07:23:38.180429,2020-10-09 00:00:00.000000,1.11498079,2.11752962,3.51920185,332,630,1048,162,325,577,0.54544273,1.09208702,1.93932965,0.22668906,0.34032330,0.51464007
51035,0,USVirginiaCarroll,Virginia,Carroll,2021-01-05 07:23:38.180429,2020-10-10 00:00:00.000000,1.13865854,2.18820208,3.56505796,339,651,1062,169,327,585,0.56734479,1.09801533,1.96425286,0.23408992,0.34721643,0.53692744
51035,0,USVirginiaCarroll,Virginia,Carroll,2021-01-05 07:23:38.180429,2020-10-11 00:00:00.000000,1.16384585,2.26834876,3.69459166,346,675,1100,176,329,593,0.59114161,1.10545950,1.99129404,0.23431125,0.35310107,0.54626667
51035,0,USVirginiaCarroll,Virginia,Carroll,2021-01-05 07:23:38.180429,2020-10-12 00:00:00.000000,1.19104148,2.36252191,3.82518171,354,703,1139,180,332,602,0.60641070,1.11520588,2.02304672,0.23446767,0.36482897,0.56708894
51035,0,USVirginiaCarroll,Virginia,Carroll,2021-01-05 07:23:38.180429,2020-10-13 00:00:00.000000,1.22113321,2.43524538,3.95534162,363,725,1178,188,338,614,0.63213504,1.13466779,2.06110799,0.23483674,0.36714202,0.57427380
51035,0,USVirginiaCarroll,Virginia,Carroll,2021-01-05 07:23:38.180429,2020-10-14 00:00:00.000000,1.25461434,2.50250762,4.08546745,373,745,1217,196,348,627,0.66105241,1.17078731,2.10533368,0.23567197,0.36771740,0.58326823
51035,0,USVirginiaCarroll,Virginia,Carroll,2021-01-05 07:23:38.180429,2020-10-15 00:00:00.000000,1.29126126,2.57017645,4.21750756,384,765,1256,203,360,642,0.68223588,1.21126123,2.15529077,0.23750307,0.37082046,0.59048154
51035,0,USVirginiaCarroll,Virginia,Carroll,2021-01-05 07:23:38.180429,2020-10-16 00:00:00.000000,1.33179080,2.63843510,4.35222421,396,786,1296,209,371,657,0.70340536,1.24560365,2.20681919,0.24129479,0.37477595,0.57972426
51035,0,USVirginiaCarroll,Virginia,Carroll,2021-01-05 07:23:38.180429,2020-10-17 00:00:00.000000,1.38475368,2.71966610,4.48982183,412,810,1337,216,382,665,0.72518235,1.28366893,2.23377712,0.24845185,0.38183901,0.55061188
51035,0,USVirginiaCarroll,Virginia,Carroll,2021-01-05 07:23:38.180429,2020-10-18 00:00:00.000000,1.43859282,2.79941382,4.63035784,428,833,1379,225,396,673,0.75761276,1.33171668,2.26073360,0.26288652,0.39224412,0.57641457
51035,0,USVirginiaCarroll,Virginia,Carroll,2021-01-05 07:23:38.180429,2020-10-19 00:00:00.000000,1.47898047,2.85982240,4.77593897,440,851,1422,234,412,681,0.78703690,1.38502866,2.28768920,0.27143857,0.39539563,0.58021247
51035,0,USVirginiaCarroll,Virginia,Carroll,2021-01-05 07:23:38.180429,2020-10-20 00:00:00.000000,1.53882830,2.93874751,4.92476365,458,875,1467,241,430,703,0.81123769,1.44353537,2.36105834,0.28154409,0.39926625,0.57948952
51035,0,USVirginiaCarroll,Virginia,Carroll,2021-01-05 07:23:38.180429,2020-10-21 00:00:00.000000,1.60437857,3.03548489,5.07778877,477,904,1512,249,442,729,0.83651994,1.48681482,2.44958687,0.28674749,0.40277789,0.58619841
51035,0,USVirginiaCarroll,Virginia,Carroll,2021-01-05 07:23:38.180429,2020-10-22 00:00:00.000000,1.67270982,3.14966898,5.23428704,498,938,1559,257,453,757,0.86275879,1.52386866,2.54117226,0.29099992,0.40618118,0.59192560
51035,0,USVirginiaCarroll,Virginia,Carroll,2021-01-05 07:23:38.180429,2020-10-23 00:00:00.000000,1.72503625,3.25026208,5.39312981,513,968,1606,265,465,785,0.88984731,1.56265260,2.63571977,0.29630039,0.41482993,0.59462071
51035,0,USVirginiaCarroll,Virginia,Carroll,2021-01-05 07:23:38.180429,2020-10-24 00:00:00.000000,1.78415668,3.38155755,5.55300761,531,1007,1654,273,479,814,0.91697483,1.60871622,2.73280464,0.29875320,0.42320729,0.59352464
51035,0,USVirginiaCarroll,Virginia,Carroll,2021-01-05 07:23:38.180429,2020-10-25 00:00:00.000000,1.85112493,3.51640684,5.71080769,551,1047,1701,281,495,843,0.94429347,1.66317579,2.83086879,0.29906529,0.43294441,0.60123810
51035,0,USVirginiaCarroll,Virginia,Carroll,2021-01-05 07:23:38.180429,2020-10-26 00:00:00.000000,1.91964578,3.64275910,5.86015877,571,1085,1745,290,508,871,0.97520482,1.70842955,2.92582743,0.30004153,0.43466366,0.61524355
51035,0,USVirginiaCarroll,Virginia,Carroll,2021-01-05 07:23:38.180429,2020-10-27 00:00:00.000000,1.99038280,3.80165952,6.00351243,592,1132,1788,299,527,897,1.00595357,1.77174784,3.01400057,0.30204866,0.43968350,0.63645832
51035,0,USVirginiaCarroll,Virginia,Carroll,2021-01-05 07:23:38.180429,2020-10-28 00:00:00.000000,2.06349837,3.97691201,6.15586424,614,1184,1833,308,550,922,1.03675281,1.84782479,3.09640758,0.30840209,0.44381075,0.66292964
51035,0,USVirginiaCarroll,Virginia,Carroll,2021-01-05 07:23:38.180429,2020-10-29 00:00:00.000000,2.14013609,4.14064117,6.34505182,637,1233,1890,318,577,946,1.06865257,1.93762668,3.17651567,0.31418253,0.45115712,0.67120861
51035,0,USVirginiaCarroll,Virginia,Carroll,2021-01-05 07:23:38.180429,2020-10-30 00:00:00.000000,2.22579138,4.29265858,6.58109529,663,1278,1960,329,602,970,1.10575985,2.02120187,3.25841843,0.31999382,0.45599015,0.67361712
51035,0,USVirginiaCarroll,Virginia,Carroll,2021-01-05 07:23:38.180429,2020-10-31 00:00:00.000000,2.31900573,4.44214259,6.84810931,690,1323,2040,342,625,996,1.14979690,2.10129729,3.34491097,0.32728613,0.46161151,0.66322423
51035,0,USVirginiaCarroll,Virginia,Carroll,2021-01-05 07:23:38.180429,2020-11-01 00:00:00.000000,2.41998013,4.56488609,7.13515421,720,1359,2125,357,647,1023,1.19952800,2.17406589,3.43721935,0.31975909,0.46773197,0.64479955
51035,0,USVirginiaCarroll,Virginia,Carroll,2021-01-05 07:23:38.180429,2020-11-02 00:00:00.000000,2.51753441,4.78226081,7.48185561,749,1424,2228,373,667,1067,1.25365705,2.24081354,3.58223243,0.31505606,0.47655658,0.65861423
51035,0,USVirginiaCarroll,Virginia,Carroll,2021-01-05 07:23:38.180429,2020-11-03 00:00:00.000000,2.61905913,4.98784833,7.85673281,780,1485,2340,390,688,1112,1.31240834,2.30981283,3.73340787,0.32074738,0.48183902,0.67170407
51035,0,USVirginiaCarroll,Virginia,Carroll,2021-01-05 07:23:38.180429,2020-11-04 00:00:00.000000,2.72397149,5.19457312,8.26280772,811,1547,2461,409,709,1158,1.37458798,2.38162914,3.89032791,0.33138723,0.48447533,0.67993506
51035,0,USVirginiaCarroll,Virginia,Carroll,2021-01-05 07:23:38.180429,2020-11-05 00:00:00.000000,2.83337372,5.40970788,8.70008437,844,1611,2591,426,740,1207,1.43038149,2.48685081,4.05266073,0.33488419,0.48157982,0.70976808
51035,0,USVirginiaCarroll,Virginia,Carroll,2021-01-05 07:23:38.180429,2020-11-06 00:00:00.000000,2.95196993,5.64423610,9.16339207,879,1681,2729,443,767,1257,1.48825372,2.57788888,4.21976931,0.33667546,0.49014518,0.72465598
51035,0,USVirginiaCarroll,Virginia,Carroll,2021-01-05 07:23:38.180429,2020-11-07 00:00:00.000000,3.09174299,5.85749617,9.64190749,921,1745,2872,461,792,1308,1.54936637,2.66049699,4.39181235,0.34467760,0.49943695,0.75563799
51035,0,USVirginiaCarroll,Virginia,Carroll,2021-01-05 07:23:38.180429,2020-11-08 00:00:00.000000,3.26089787,6.06964909,10.05019147,971,1808,2994,481,820,1361,1.61699107,2.75385515,4.56946805,0.35365936,0.51305309,0.77392150
51035,0,USVirginiaCarroll,Virginia,Carroll,2021-01-05 07:23:38.180429,2020-11-09 00:00:00.000000,3.44590663,6.27219133,10.38715641,1026,1868,3094,504,852,1416,1.69496493,2.86241741,4.75559428,0.35497475,0.52050615,0.78104754
51035,0,USVirginiaCarroll,Virginia,Carroll,2021-01-05 07:23:38.180429,2020-11-10 00:00:00.000000,3.63212806,6.48503767,10.81587034,1082,1931,3222,528,887,1476,1.77342117,2.97809508,4.95507377,0.36782295,0.53044278,0.78072220
51035,0,USVirginiaCarroll,Virginia,Carroll,2021-01-05 07:23:38.180429,2020-11-11 00:00:00.000000,3.74479878,6.73221571,11.35772958,1115,2005,3383,547,920,1539,1.83785591,3.09133748,5.16877150,0.37435146,0.52853059,0.78929672
51035,0,USVirginiaCarroll,Virginia,Carroll,2021-01-05 07:23:38.180429,2020-11-12 00:00:00.000000,3.85964123,6.99140619,11.95439855,1149,2082,3561,571,961,1607,1.91675702,3.22652510,5.39525695,0.38484053,0.52744712,0.79587919
51035,0,USVirginiaCarroll,Virginia,Carroll,2021-01-05 07:23:38.180429,2020-11-13 00:00:00.000000,3.97625881,7.29086990,12.55223689,1184,2172,3739,598,1009,1678,2.00860182,3.38706662,5.63300664,0.38743159,0.51876122,0.80765811
51035,0,USVirginiaCarroll,Virginia,Carroll,2021-01-05 07:23:38.180429,2020-11-14 00:00:00.000000,4.09410692,7.63819307,13.15197993,1219,2275,3918,625,1054,1752,2.09957263,3.53879486,5.88114196,0.37944282,0.51658567,0.81495137
51035,0,USVirginiaCarroll,Virginia,Carroll,2021-01-05 07:23:38.180429,2020-11-15 00:00:00.000000,4.21299509,7.94516253,13.75253607,1255,2366,4097,652,1104,1829,2.18944025,3.70847573,6.13998398,0.37780852,0.53105903,0.81510661
51035,0,USVirginiaCarroll,Virginia,Carroll,2021-01-05 07:23:38.180429,2020-11-16 00:00:00.000000,4.39353409,8.28958342,14.22418252,1308,2469,4237,672,1167,1910,2.25694827,3.91942425,6.41149383,0.37769947,0.52846646,0.81311076
51035,0,USVirginiaCarroll,Virginia,Carroll,2021-01-05 07:23:38.180429,2020-11-17 00:00:00.000000,4.61619507,8.68391164,14.63250103,1375,2587,4359,691,1221,1994,2.32240782,4.09887240,6.69371378,0.37764895,0.52415654,0.80812526
51035,0,USVirginiaCarroll,Virginia,Carroll,2021-01-05 07:23:38.180429,2020-11-18 00:00:00.000000,4.85781652,8.97006146,14.99979705,1447,2672,4468,711,1261,2077,2.38926323,4.23615851,6.97409033,0.37744918,0.52024848,0.83471390
51035,0,USVirginiaCarroll,Virginia,Carroll,2021-01-05 07:23:38.180429,2020-11-19 00:00:00.000000,5.11570409,9.32355724,15.34303643,1524,2777,4570,731,1315,2153,2.45612129,4.41629260,7.22794443,0.36872905,0.52004873,0.80829076
51035,0,USVirginiaCarroll,Virginia,Carroll,2021-01-05 07:23:38.180429,2020-11-20 00:00:00.000000,5.38729166,9.62909126,15.69801848,1604,2868,4676,749,1371,2228,2.51527595,4.60476663,7.48210148,0.36372987,0.52206484,0.80247848
51035,0,USVirginiaCarroll,Virginia,Carroll,2021-01-05 07:23:38.180429,2020-11-21 00:00:00.000000,5.66869133,9.88917109,16.36580940,1688,2946,4875,764,1420,2304,2.56612948,4.76968636,7.73522947,0.35180352,0.52614588,0.78218947
51035,0,USVirginiaCarroll,Virginia,Carroll,2021-01-05 07:23:38.180429,2020-11-22 00:00:00.000000,5.78536643,10.17964413,17.03342319,1723,3032,5074,801,1469,2379,2.68939522,4.93229685,7.98604336,0.34113172,0.53192346,0.79659548
51035,0,USVirginiaCarroll,Virginia,Carroll,2021-01-05 07:23:38.180429,2020-11-23 00:00:00.000000,5.83303368,10.51919119,17.69676386,1737,3133,5272,841,1518,2452,2.82467455,5.09629093,8.23329918,0.33566547,0.53181135,0.82684786
51035,0,USVirginiaCarroll,Virginia,Carroll,2021-01-05 07:23:38.180429,2020-11-24 00:00:00.000000,5.87967679,10.88966980,18.28982767,1751,3244,5448,882,1567,2542,2.96219370,5.26331421,8.53488242,0.33313717,0.53027621,0.83855768
51035,0,USVirginiaCarroll,Virginia,Carroll,2021-01-05 07:23:38.180429,2020-11-25 00:00:00.000000,5.92596933,11.22184992,18.64367012,1765,3343,5554,923,1624,2627,3.09883962,5.45276827,8.81902173,0.32971342,0.51577449,0.83619891
51035,0,USVirginiaCarroll,Virginia,Carroll,2021-01-05 07:23:38.180429,2020-11-26 00:00:00.000000,5.99614161,11.55152619,19.03740601,1786,3441,5671,959,1684,2704,3.22118777,5.65500396,9.07660964,0.32988333,0.50604974,0.83359874
51035,0,USVirginiaCarroll,Virginia,Carroll,2021-01-05 07:23:38.180429,2020-11-27 00:00:00.000000,6.15513497,11.85040399,19.43004126,1833,3530,5788,989,1745,2773,3.32061834,5.85749372,9.30837856,0.33041875,0.49999051,0.82595687
51035,0,USVirginiaCarroll,Virginia,Carroll,2021-01-05 07:23:38.180429,2020-11-28 00:00:00.000000,6.27471274,12.16315576,19.78648222,1869,3623,5894,1018,1805,2830,3.41851733,6.05919008,9.50198562,0.32054411,0.49318825,0.81626911
51035,0,USVirginiaCarroll,Virginia,Carroll,2021-01-05 07:23:38.180429,2020-11-29 00:00:00.000000,6.34496057,12.47181467,20.10479405,1890,3715,5989,1045,1852,2883,3.50787190,6.21897227,9.67868727,0.30902312,0.47983651,0.80552110
51035,0,USVirginiaCarroll,Virginia,Carroll,2021-01-05 07:23:38.180429,2020-11-30 00:00:00.000000,6.40020596,12.59735012,20.38426644,1906,3752,6072,1067,1883,2930,3.58195080,6.32110318,9.83815881,0.30800476,0.46652238,0.82565266
51035,0,USVirginiaCarroll,Virginia,Carroll,2021-01-05 07:23:38.180429,2020-12-01 00:00:00.000000,6.45087285,12.84443672,20.62157154,1921,3826,6143,1085,1919,2977,3.64265515,6.44303827,9.99315907,0.30486960,0.45412861,0.87544016
51035,0,USVirginiaCarroll,Virginia,Carroll,2021-01-05 07:23:38.180429,2020-12-02 00:00:00.000000,6.50147463,12.96668115,20.81520774,1936,3862,6201,1100,1948,3019,3.69342579,6.54018683,10.13444524,0.29874982,0.44696287,0.90308110
51035,0,USVirginiaCarroll,Virginia,Carroll,2021-01-05 07:23:38.180429,2020-12-03 00:00:00.000000,6.55382936,13.05934735,20.96399047,1952,3890,6245,1113,1979,3050,3.73748879,6.64544972,10.23938792,0.30146025,0.44687323,0.92853008
51035,0,USVirginiaCarroll,Virginia,Carroll,2021-01-05 07:23:38.180429,2020-12-04 00:00:00.000000,6.60824873,13.16450431,21.06595296,1968,3921,6275,1125,2007,3086,3.77728021,6.73968910,10.35894718,0.30232566,0.44399378,0.94997984
51035,0,USVirginiaCarroll,Virginia,Carroll,2021-01-05 07:23:38.180429,2020-12-05 00:00:00.000000,6.66399236,13.26053826,21.12025605,1985,3950,6291,1136,2019,3148,3.81450848,6.77777977,10.56979729,0.29268291,0.43746868,0.96086074
51035,0,USVirginiaCarroll,Virginia,Carroll,2021-01-05 07:23:38.180429,2020-12-06 00:00:00.000000,6.72033676,13.36767964,21.12768907,2002,3982,6294,1147,2045,3208,3.85028226,6.86544569,10.77042284,0.28645356,0.43774666,0.96465215
51035,0,USVirginiaCarroll,Virginia,Carroll,2021-01-05 07:23:38.180429,2020-12-07 00:00:00.000000,6.78842701,13.45926454,21.08684299,2022,4009,6281,1157,2074,3256,3.88521735,6.96499904,10.93111290,0.28188924,0.43335328,0.96564346
51035,0,USVirginiaCarroll,Virginia,Carroll,2021-01-05 07:23:38.180429,2020-12-08 00:00:00.000000,6.85863802,13.46547872,21.00146167,2043,4011,6256,1163,2099,3284,3.90480252,7.04691601,11.02591537,0.27776156,0.42457000,0.96561486
51035,0,USVirginiaCarroll,Virginia,Carroll,2021-01-05 07:23:38.180429,2020-12-09 00:00:00.000000,6.93255735,13.42610789,20.87303686,2065,3999,6218,1156,2117,3306,3.88144728,7.10944472,11.09791922,0.27367788,0.42142951,0.96499538
51035,0,USVirginiaCarroll,Virginia,Carroll,2021-01-05 07:23:38.180429,2020-12-10 00:00:00.000000,7.01191308,13.34889218,20.70308607,2088,3976,6167,1148,2126,3321,3.85484633,7.13749361,11.14771674,0.26724061,0.41717231,0.96353541
51035,0,USVirginiaCarroll,Virginia,Carroll,2021-01-05 07:23:38.180429,2020-12-11 00:00:00.000000,7.09392433,13.19730346,20.49323301,2113,3931,6105,1139,2129,3329,3.82541235,7.14805701,11.17565458,0.26797425,0.41083304,0.96015791
51035,0,USVirginiaCarroll,Virginia,Carroll,2021-01-05 07:23:38.180429,2020-12-12 00:00:00.000000,7.12542534,13.13188000,20.24536906,2122,3912,6031,1130,2125,3331,3.79334603,7.13440569,11.18142066,0.26792682,0.41050335,0.95205094
51035,0,USVirginiaCarroll,Virginia,Carroll,2021-01-05 07:23:38.180429,2020-12-13 00:00:00.000000,7.04092215,13.10201455,19.96169551,2097,3903,5946,1119,2116,3325,3.75858117,7.10397815,11.16346890,0.26918023,0.40963910,0.98402651
51035,0,USVirginiaCarroll,Virginia,Carroll,2021-01-05 07:23:38.180429,2020-12-14 00:00:00.000000,6.98373506,12.90806094,19.64319333,2080,3845,5851,1108,2097,3312,3.72066926,7.03923846,11.11898739,0.25585416,0.40287562,0.99224577
51035,0,USVirginiaCarroll,Virginia,Carroll,2021-01-05 07:23:38.180429,2020-12-15 00:00:00.000000,6.94366682,12.85627124,19.29119491,2068,3830,5747,1095,2087,3290,3.67733242,7.00610739,11.04530924,0.25009661,0.40016612,0.95528326
51035,0,USVirginiaCarroll,Virginia,Carroll,2021-01-05 07:23:38.180429,2020-12-16 00:00:00.000000,6.90831379,12.72246811,18.90861565,2058,3790,5633,1083,2085,3260,3.63797937,7.00207784,10.94313975,0.24398257,0.40120718,0.96198403
51035,0,USVirginiaCarroll,Virginia,Carroll,2021-01-05 07:23:38.180429,2020-12-17 00:00:00.000000,6.75820028,12.49188192,18.69367203,2013,3721,5569,1086,2069,3222,3.64708005,6.94669431,10.81547732,0.23892415,0.40375275,1.01921338
51035,0,USVirginiaCarroll,Virginia,Carroll,2021-01-05 07:23:38.180429,2020-12-18 00:00:00.000000,6.71015435,12.21134771,18.53405690,1999,3637,5521,1083,2047,3177,3.63745139,6.87223121,10.66632453,0.23536455,0.40254514,0.98751558
51035,0,USVirginiaCarroll,Virginia,Carroll,2021-01-05 07:23:38.180429,2020-12-19 00:00:00.000000,6.66811154,11.96121968,18.31997135,1986,3563,5457,1074,2021,3145,3.60563341,6.78579044,10.55933415,0.23349883,0.39548879,0.98058850
51035,0,USVirginiaCarroll,Virginia,Carroll,2021-01-05 07:23:38.180429,2020-12-20 00:00:00.000000,6.61725686,11.78056356,18.03578320,1971,3509,5373,1060,1997,3118,3.55963001,6.70469896,10.46925168,0.23239261,0.39851899,0.98001197
51035,0,USVirginiaCarroll,Virginia,Carroll,2021-01-05 07:23:38.180429,2020-12-21 00:00:00.000000,6.51834169,11.53133640,17.62460208,1941,3435,5250,1035,1975,3086,3.47710076,6.62991839,10.36089065,0.23072650,0.39676190,0.97822303
51035,0,USVirginiaCarroll,Virginia,Carroll,2021-01-05 07:23:38.180429,2020-12-22 00:00:00.000000,6.41297822,11.28094329,17.21906854,1910,3360,5129,1012,1948,3049,3.39714392,6.54165755,10.23584114,0.21551834,0.39752046,0.97586480
51035,0,USVirginiaCarroll,Virginia,Carroll,2021-01-05 07:23:38.180429,2020-12-23 00:00:00.000000,6.31723819,11.06067697,16.81403953,1881,3295,5009,989,1919,3007,3.32131914,6.44177665,10.09547635,0.21503123,0.39815759,0.97320625
51035,0,USVirginiaCarroll,Virginia,Carroll,2021-01-05 07:23:38.180429,2020-12-24 00:00:00.000000,6.23320239,10.81502804,16.40640812,1856,3221,4887,967,1877,2961,3.24787875,6.30288713,9.94149754,0.21521176,0.40404167,0.97031970
51035,0,USVirginiaCarroll,Virginia,Carroll,2021-01-05 07:23:38.180429,2020-12-25 00:00:00.000000,6.14696373,10.56099646,15.99503907,1831,3146,4765,946,1825,2923,3.17637501,6.12795298,9.81451138,0.20973073,0.40521114,0.96724228
51035,0,USVirginiaCarroll,Virginia,Carroll,2021-01-05 07:23:38.180429,2020-12-26 00:00:00.000000,6.05881152,10.31112382,15.58027333,1804,3071,4641,925,1781,2916,3.10678117,5.97863732,9.78860596,0.19800353,0.41121737,0.96544492
51035,0,USVirginiaCarroll,Virginia,Carroll,2021-01-05 07:23:38.180429,2020-12-27 00:00:00.000000,5.96891251,10.22935991,15.35135508,1778,3047,4573,905,1742,2906,3.03921073,5.84818240,9.75706336,0.19296289,0.41253232,0.93101720
51035,0,USVirginiaCarroll,Virginia,Carroll,2021-01-05 07:23:38.180429,2020-12-28 00:00:00.000000,5.87428537,10.08521724,15.25813559,1750,3004,4545,888,1713,2895,2.98356837,5.75329776,9.72065414,0.19342038,0.41535242,0.89432931
51035,0,USVirginiaCarroll,Virginia,Carroll,2021-01-05 07:23:38.180429,2020-12-29 00:00:00.000000,5.77791610,9.88777634,15.15561899,1721,2945,4515,877,1678,2883,2.94551356,5.63368762,9.67870266,0.19406946,0.41424613,0.90689221
51035,0,USVirginiaCarroll,Virginia,Carroll,2021-01-05 07:23:38.180429,2020-12-30 00:00:00.000000,5.67972558,9.61891476,15.00855186,1692,2865,4471,865,1658,2869,2.90502019,5.56567168,9.63112850,0.19453110,0.41439633,0.90609305
51035,0,USVirginiaCarroll,Virginia,Carroll,2021-01-05 07:23:38.180429,2020-12-31 00:00:00.000000,5.57984986,9.38692269,14.79851219,1662,2796,4408,852,1612,2853,2.86258704,5.41329117,9.57749690,0.19445286,0.41738256,0.92744412
51035,0,USVirginiaCarroll,Virginia,Carroll,2021-01-05 07:23:38.180429,2021-01-01 00:00:00.000000,5.47864475,9.03162750,14.44642677,1632,2690,4303,839,1556,2835,2.81860289,5.22628589,9.51726467,0.19342884,0.41964461,0.93361722
51035,0,USVirginiaCarroll,Virginia,Carroll,2021-01-05 07:23:38.180429,2021-01-02 00:00:00.000000,5.37661709,8.84240815,14.02776874,1601,2634,4179,826,1516,2815,2.77338362,5.08995764,9.44993186,0.19096381,0.42675397,0.90326568
51035,0,USVirginiaCarroll,Virginia,Carroll,2021-01-05 07:23:38.180429,2021-01-03 00:00:00.000000,5.27429212,8.72684894,13.65454201,1571,2599,4067,812,1480,2792,2.72719721,4.96993798,9.37508269,0.18492602,0.43202045,0.91694613
51035,0,USVirginiaCarroll,Virginia,Carroll,2021-01-05 07:23:38.180429,2021-01-04 00:00:00.000000,5.17214418,8.52976071,13.30877615,1540,2541,3964,798,1444,2760,2.68027971,4.84888537,9.26783221,0.18158853,0.43538605,0.95517920
51035,0,USVirginiaCarroll,Virginia,Carroll,2021-01-05 07:23:38.180429,2021-01-05 00:00:00.000000,5.07058240,8.28141125,12.96228830,1510,2467,3861,784,1402,2686,2.63284679,4.70613772,9.01933530,0.18031831,0.43549908,0.96228852
51035,0,USVirginiaCarroll,Virginia,Carroll,2021-01-05 07:23:38.180429,2021-01-06 00:00:00.000000,4.91260597,8.09086348,12.61615701,1463,2410,3758,770,1356,2612,2.58510067,4.55331299,8.76962065,0.17988808,0.43489870,0.96430142
51035,0,USVirginiaCarroll,Virginia,Carroll,2021-01-05 07:23:38.180429,2021-01-07 00:00:00.000000,4.69775998,7.89762320,12.27130021,1399,2352,3655,755,1300,2552,2.53721914,4.36385098,8.56763074,0.17974791,0.43452616,0.96485254
51035,0,USVirginiaCarroll,Virginia,Carroll,2021-01-05 07:23:38.180429,2021-01-08 00:00:00.000000,4.49114153,7.63498553,12.06926432,1337,2274,3595,741,1266,2516,2.48933716,4.25191701,8.44774482,0.17970282,0.43432651,0.96500517
51035,0,USVirginiaCarroll,Virginia,Carroll,2021-01-05 07:23:38.180429,2021-01-09 00:00:00.000000,4.35092856,7.35844846,11.99763117,1296,2192,3574,727,1238,2477,2.44155310,4.15748120,8.31742741,0.17968837,0.43422805,0.96504884
51035,0,USVirginiaCarroll,Virginia,Carroll,2021-01-05 07:23:38.180429,2021-01-10 00:00:00.000000,4.27411084,7.08491785,11.91364898,1273,2110,3549,713,1205,2436,2.39394415,4.04808205,8.17764772,0.17968375,0.43418161,0.96506197
51035,0,USVirginiaCarroll,Virginia,Carroll,2021-01-05 07:23:38.180429,2021-01-11 00:00:00.000000,4.08780918,6.81517183,11.81769536,1217,2030,3520,696,1171,2388,2.33795851,3.93272108,8.01683145,0.17968227,0.43416021,0.96506618
51035,0,USVirginiaCarroll,Virginia,Carroll,2021-01-05 07:23:38.180429,2021-01-12 00:00:00.000000,3.82516999,6.55552654,11.71019629,1139,1952,3488,665,1147,2322,2.23526972,3.85147857,7.79677869,0.17968180,0.43415049,0.96506764
51035,0,USVirginiaCarroll,Virginia,Carroll,2021-01-05 07:23:38.180429,2021-01-13 00:00:00.000000,3.57682017,6.31390727,11.59162146,1065,1880,3453,636,1115,2257,2.13651464,3.74419078,7.57819299,0.17968164,0.43414612,0.96506818
51035,0,USVirginiaCarroll,Virginia,Carroll,2021-01-05 07:23:38.180429,2021-01-14 00:00:00.000000,3.39724312,6.00335479,11.44392198,1012,1788,3409,607,1073,2193,2.03997658,3.60483853,7.36147078,0.17968160,0.43414417,0.96506839
51035,0,USVirginiaCarroll,Virginia,Carroll,2021-01-05 07:23:38.180429,2021-01-15 00:00:00.000000,3.23889139,5.70055550,11.13436411,964,1698,3317,579,1033,2129,1.94654626,3.47023645,7.14696856,0.17968158,0.43414331,0.96506846
51035,0,USVirginiaCarroll,Virginia,Carroll,2021-01-05 07:23:38.180429,2021-01-16 00:00:00.000000,3.08232111,5.51323194,10.82199266,918,1642,3223,553,1004,2066,1.85696606,3.37080485,6.93500584,0.17968158,0.43414293,0.96506849
51035,0,USVirginiaCarroll,Virginia,Carroll,2021-01-05 07:23:38.180429,2021-01-17 00:00:00.000000,2.89886571,5.36057445,10.50789383,863,1596,3130,525,974,2003,1.76559961,3.27229880,6.72586783,0.17968157,0.43414277,0.96506850
