FIPS,HR_UID,nameid,province,region,analysisTime,dates,pointprevalence_025,pointprevalence_50,pointprevalence_975,pointinfections_025,pointinfections_50,pointinfections_975,pointinfectious_025,pointinfectious_50,pointinfectious_975,pointinfectiousprevalence_05,pointinfectiousprevalence_50,pointinfectiousprevalence_95,infectrate_025,infectrate_50,infectrate_975
1081,0,USAlabamaLee,Alabama,Lee,2021-01-06 05:26:08.324573,2020-03-09 00:00:00.000000,0.00449419,0.01137424,0.02523833,7,18,41,1,8,19,0.00072090,0.00494678,0.01180080,0.56396512,0.74061897,0.90983162
1081,0,USAlabamaLee,Alabama,Lee,2021-01-06 05:26:08.324573,2020-03-10 00:00:00.000000,0.00708467,0.01457081,0.03005662,11,23,49,3,9,24,0.00195591,0.00591866,0.01462949,0.56396523,0.74060438,0.90983162
1081,0,USAlabamaLee,Alabama,Lee,2021-01-06 05:26:08.324573,2020-03-11 00:00:00.000000,0.00942828,0.01827183,0.03605932,15,30,59,5,12,28,0.00313791,0.00776696,0.01751039,0.56396551,0.74057682,0.90983161
1081,0,USAlabamaLee,Alabama,Lee,2021-01-06 05:26:08.324573,2020-03-12 00:00:00.000000,0.01246473,0.02263434,0.04278812,20,37,70,7,16,32,0.00463035,0.00990458,0.01984670,0.56396549,0.74052475,0.90983158
1081,0,USAlabamaLee,Alabama,Lee,2021-01-06 05:26:08.324573,2020-03-13 00:00:00.000000,0.01556716,0.02771924,0.05031844,25,45,82,10,20,38,0.00657223,0.01237898,0.02360131,0.56395999,0.74042642,0.90983151
1081,0,USAlabamaLee,Alabama,Lee,2021-01-06 05:26:08.324573,2020-03-14 00:00:00.000000,0.01905760,0.03316627,0.05873919,31,54,96,14,25,48,0.00891749,0.01523646,0.02954743,0.56391184,0.74024090,0.90983127
1081,0,USAlabamaLee,Alabama,Lee,2021-01-06 05:26:08.324573,2020-03-15 00:00:00.000000,0.02221968,0.03918512,0.06913236,36,64,113,17,31,59,0.01076212,0.01886784,0.03617917,0.56358405,0.73925286,0.90983040
1081,0,USAlabamaLee,Alabama,Lee,2021-01-06 05:26:08.324573,2020-03-16 00:00:00.000000,0.02823219,0.04578731,0.07944329,46,75,130,21,37,69,0.01305707,0.02261174,0.04197973,0.56164308,0.73839120,0.90982697
1081,0,USAlabamaLee,Alabama,Lee,2021-01-06 05:26:08.324573,2020-03-17 00:00:00.000000,0.03343216,0.05326586,0.09008801,55,87,148,26,43,79,0.01608513,0.02637934,0.04813237,0.56628032,0.73583465,0.90981286
1081,0,USAlabamaLee,Alabama,Lee,2021-01-06 05:26:08.324573,2020-03-18 00:00:00.000000,0.03949540,0.06286703,0.10562016,64,103,173,31,50,92,0.01928109,0.03056524,0.05635887,0.57197367,0.73182747,0.90975360
1081,0,USAlabamaLee,Alabama,Lee,2021-01-06 05:26:08.324573,2020-03-19 00:00:00.000000,0.04624207,0.07244123,0.12309382,76,119,202,37,58,109,0.02291624,0.03551210,0.06658686,0.55682764,0.71935070,0.90950349
1081,0,USAlabamaLee,Alabama,Lee,2021-01-06 05:26:08.324573,2020-03-20 00:00:00.000000,0.05369880,0.08338136,0.14308485,88,137,235,44,67,128,0.02711709,0.04120899,0.07793359,0.55044217,0.70465641,0.90847593
1081,0,USAlabamaLee,Alabama,Lee,2021-01-06 05:26:08.324573,2020-03-21 00:00:00.000000,0.05943207,0.09509697,0.16568100,97,156,272,51,77,148,0.03140926,0.04716365,0.08995293,0.53220717,0.68514355,0.91066851
1081,0,USAlabamaLee,Alabama,Lee,2021-01-06 05:26:08.324573,2020-03-22 00:00:00.000000,0.06781359,0.10757703,0.18991531,111,177,312,59,89,167,0.03625518,0.05442071,0.10199835,0.52146051,0.67517543,0.92091197
1081,0,USAlabamaLee,Alabama,Lee,2021-01-06 05:26:08.324573,2020-03-23 00:00:00.000000,0.07839179,0.12123733,0.21259993,128,199,349,68,102,187,0.04155556,0.06213688,0.11373162,0.50312384,0.65049850,0.90340088
1081,0,USAlabamaLee,Alabama,Lee,2021-01-06 05:26:08.324573,2020-03-24 00:00:00.000000,0.08693700,0.13606025,0.23742304,143,223,390,76,115,205,0.04656889,0.07043807,0.12477415,0.51021678,0.63123314,0.87966101
1081,0,USAlabamaLee,Alabama,Lee,2021-01-06 05:26:08.324573,2020-03-25 00:00:00.000000,0.09618268,0.15000248,0.26447234,158,246,435,85,129,223,0.05177370,0.07867241,0.13577311,0.48641295,0.61950242,0.86380860
1081,0,USAlabamaLee,Alabama,Lee,2021-01-06 05:26:08.324573,2020-03-26 00:00:00.000000,0.10396702,0.16706665,0.29345011,171,274,482,94,142,242,0.05736992,0.08678302,0.14716469,0.48111714,0.60660118,0.85996035
1081,0,USAlabamaLee,Alabama,Lee,2021-01-06 05:26:08.324573,2020-03-27 00:00:00.000000,0.11066547,0.18799366,0.32344701,182,309,532,103,159,271,0.06300754,0.09675757,0.16490351,0.47546014,0.59703407,0.85498588
1081,0,USAlabamaLee,Alabama,Lee,2021-01-06 05:26:08.324573,2020-03-28 00:00:00.000000,0.12264586,0.20618397,0.36218444,201,339,595,108,177,309,0.06616042,0.10800016,0.18804632,0.47109876,0.57902498,0.75636063
1081,0,USAlabamaLee,Alabama,Lee,2021-01-06 05:26:08.324573,2020-03-29 00:00:00.000000,0.13525801,0.22059671,0.39649717,222,362,652,113,195,351,0.06921084,0.11870600,0.21385880,0.44697193,0.54951664,0.70520530
1081,0,USAlabamaLee,Alabama,Lee,2021-01-06 05:26:08.324573,2020-03-30 00:00:00.000000,0.14750039,0.23897183,0.43663144,242,393,718,125,216,400,0.07645653,0.13164236,0.24331992,0.42769679,0.51866496,0.66895257
1081,0,USAlabamaLee,Alabama,Lee,2021-01-06 05:26:08.324573,2020-03-31 00:00:00.000000,0.15924041,0.25503839,0.47658594,262,419,784,137,234,432,0.08373008,0.14267637,0.26304516,0.40135567,0.50164652,0.63983456
1081,0,USAlabamaLee,Alabama,Lee,2021-01-06 05:26:08.324573,2020-04-01 00:00:00.000000,0.17023222,0.27416703,0.50771726,280,451,835,149,252,476,0.09078436,0.15352357,0.28989549,0.37971995,0.48270446,0.63738381
1081,0,USAlabamaLee,Alabama,Lee,2021-01-06 05:26:08.324573,2020-04-02 00:00:00.000000,0.18054894,0.29051765,0.53997038,297,478,888,160,269,507,0.09746073,0.16375155,0.30837660,0.36305459,0.45716975,0.63503688
1081,0,USAlabamaLee,Alabama,Lee,2021-01-06 05:26:08.324573,2020-04-03 00:00:00.000000,0.19038944,0.30918832,0.57323186,313,508,943,170,286,535,0.10373975,0.17436386,0.32520115,0.34780569,0.44465274,0.59270381
1081,0,USAlabamaLee,Alabama,Lee,2021-01-06 05:26:08.324573,2020-04-04 00:00:00.000000,0.19995437,0.32475932,0.60490470,329,534,995,180,303,560,0.10969965,0.18431822,0.34081862,0.33215936,0.41875558,0.55218263
1081,0,USAlabamaLee,Alabama,Lee,2021-01-06 05:26:08.324573,2020-04-05 00:00:00.000000,0.20939175,0.33736844,0.62444743,344,555,1027,189,318,591,0.11544892,0.19380835,0.35937962,0.30578244,0.39145722,0.51572930
1081,0,USAlabamaLee,Alabama,Lee,2021-01-06 05:26:08.324573,2020-04-06 00:00:00.000000,0.21812834,0.34550632,0.63980823,358,568,1052,199,336,618,0.12107258,0.20461136,0.37591276,0.25524728,0.36182688,0.48618703
1081,0,USAlabamaLee,Alabama,Lee,2021-01-06 05:26:08.324573,2020-04-07 00:00:00.000000,0.22239030,0.35299432,0.65697816,365,580,1081,207,346,639,0.12640118,0.21044537,0.38859750,0.22984463,0.33849079,0.45277779
1081,0,USAlabamaLee,Alabama,Lee,2021-01-06 05:26:08.324573,2020-04-08 00:00:00.000000,0.23006820,0.36143559,0.67071443,378,594,1103,216,351,661,0.13162616,0.21367459,0.40202035,0.22316436,0.31905408,0.43849422
1081,0,USAlabamaLee,Alabama,Lee,2021-01-06 05:26:08.324573,2020-04-09 00:00:00.000000,0.23890746,0.36117288,0.68247173,393,594,1122,225,358,679,0.13680832,0.21796205,0.41307599,0.20247279,0.29888731,0.42232986
1081,0,USAlabamaLee,Alabama,Lee,2021-01-06 05:26:08.324573,2020-04-10 00:00:00.000000,0.23421801,0.35619736,0.68828317,385,586,1132,225,363,694,0.13719770,0.22063703,0.42224827,0.18897847,0.27398064,0.39040329
1081,0,USAlabamaLee,Alabama,Lee,2021-01-06 05:26:08.324573,2020-04-11 00:00:00.000000,0.22953955,0.35016184,0.66244106,377,576,1089,229,360,707,0.13920130,0.21894694,0.43005145,0.17976333,0.26192330,0.35276416
1081,0,USAlabamaLee,Alabama,Lee,2021-01-06 05:26:08.324573,2020-04-12 00:00:00.000000,0.22803444,0.34382120,0.63529337,375,565,1045,227,359,719,0.13844504,0.21848763,0.43714326,0.17379003,0.24646716,0.33688203
1081,0,USAlabamaLee,Alabama,Lee,2021-01-06 05:26:08.324573,2020-04-13 00:00:00.000000,0.22607780,0.33801317,0.60828284,371,556,1000,224,355,703,0.13638544,0.21604100,0.42782632,0.17000270,0.23919828,0.32127320
1081,0,USAlabamaLee,Alabama,Lee,2021-01-06 05:26:08.324573,2020-04-14 00:00:00.000000,0.22384820,0.33283761,0.58172494,368,547,957,220,351,675,0.13415051,0.21392666,0.41036100,0.16693077,0.23493457,0.32083758
1081,0,USAlabamaLee,Alabama,Lee,2021-01-06 05:26:08.324573,2020-04-15 00:00:00.000000,0.22012700,0.32535918,0.55790529,362,535,917,216,343,646,0.13188091,0.20878996,0.39293803,0.16581921,0.22476354,0.31999574
1081,0,USAlabamaLee,Alabama,Lee,2021-01-06 05:26:08.324573,2020-04-16 00:00:00.000000,0.21019327,0.31426199,0.54429608,345,517,895,213,334,621,0.12972311,0.20357734,0.37762507,0.16542734,0.21537961,0.31357421
1081,0,USAlabamaLee,Alabama,Lee,2021-01-06 05:26:08.324573,2020-04-17 00:00:00.000000,0.20066660,0.30339052,0.52819887,330,499,869,210,324,605,0.12765982,0.19750112,0.36781264,0.15311500,0.21152613,0.29963411
1081,0,USAlabamaLee,Alabama,Lee,2021-01-06 05:26:08.324573,2020-04-18 00:00:00.000000,0.19147743,0.29648187,0.51075741,315,487,840,200,316,585,0.12194618,0.19240760,0.35606486,0.15154510,0.20925401,0.29133524
1081,0,USAlabamaLee,Alabama,Lee,2021-01-06 05:26:08.324573,2020-04-19 00:00:00.000000,0.18266988,0.28439814,0.49516823,300,467,814,191,306,565,0.11640819,0.18641559,0.34358792,0.14995642,0.20554040,0.28039967
1081,0,USAlabamaLee,Alabama,Lee,2021-01-06 05:26:08.324573,2020-04-20 00:00:00.000000,0.17449430,0.27279075,0.48347497,287,448,795,182,299,547,0.11107756,0.18220340,0.33247622,0.14762075,0.20138972,0.27935663
1081,0,USAlabamaLee,Alabama,Lee,2021-01-06 05:26:08.324573,2020-04-21 00:00:00.000000,0.16678398,0.26178290,0.47178797,274,430,776,174,289,529,0.10606603,0.17571815,0.32150614,0.14611671,0.19924250,0.27403939
1081,0,USAlabamaLee,Alabama,Lee,2021-01-06 05:26:08.324573,2020-04-22 00:00:00.000000,0.15959511,0.24959887,0.46029726,262,410,757,166,276,509,0.10135348,0.16815131,0.30982644,0.14643041,0.19874083,0.27326081
1081,0,USAlabamaLee,Alabama,Lee,2021-01-06 05:26:08.324573,2020-04-23 00:00:00.000000,0.15298378,0.24065669,0.44897700,251,395,738,159,262,493,0.09694406,0.15929792,0.29965858,0.14509071,0.19985653,0.27461991
1081,0,USAlabamaLee,Alabama,Lee,2021-01-06 05:26:08.324573,2020-04-24 00:00:00.000000,0.14702738,0.23152155,0.43777222,241,380,720,152,248,483,0.09286228,0.15074380,0.29356314,0.14525813,0.19969387,0.27388941
1081,0,USAlabamaLee,Alabama,Lee,2021-01-06 05:26:08.324573,2020-04-25 00:00:00.000000,0.14182080,0.22182649,0.42658108,233,364,701,146,234,474,0.08914784,0.14257979,0.28828676,0.14686764,0.19876699,0.27390533
1081,0,USAlabamaLee,Alabama,Lee,2021-01-06 05:26:08.324573,2020-04-26 00:00:00.000000,0.13458587,0.21285980,0.41534273,221,350,683,141,225,465,0.08569533,0.13676734,0.28293125,0.14881221,0.19905131,0.27386261
1081,0,USAlabamaLee,Alabama,Lee,2021-01-06 05:26:08.324573,2020-04-27 00:00:00.000000,0.12761852,0.20447389,0.40495138,209,336,666,135,219,456,0.08253177,0.13313902,0.27731417,0.15166985,0.19990493,0.27391742
1081,0,USAlabamaLee,Alabama,Lee,2021-01-06 05:26:08.324573,2020-04-28 00:00:00.000000,0.12130856,0.19708179,0.39472929,199,324,649,130,212,444,0.07943178,0.12941648,0.27042603,0.15054723,0.20079552,0.27482412
1081,0,USAlabamaLee,Alabama,Lee,2021-01-06 05:26:08.324573,2020-04-29 00:00:00.000000,0.11574171,0.19145036,0.38478109,190,315,633,124,205,432,0.07589174,0.12489285,0.26263440,0.14971665,0.20128165,0.28108350
1081,0,USAlabamaLee,Alabama,Lee,2021-01-06 05:26:08.324573,2020-04-30 00:00:00.000000,0.11109507,0.18614138,0.37513663,182,306,617,117,197,418,0.07144201,0.11992643,0.25413385,0.14942005,0.20581875,0.29543720
1081,0,USAlabamaLee,Alabama,Lee,2021-01-06 05:26:08.324573,2020-05-01 00:00:00.000000,0.10665874,0.18120786,0.36584513,175,298,601,110,190,402,0.06738335,0.11569720,0.24484297,0.15079437,0.20747768,0.30233141
1081,0,USAlabamaLee,Alabama,Lee,2021-01-06 05:26:08.324573,2020-05-02 00:00:00.000000,0.10106653,0.17375976,0.35703763,166,285,587,104,184,392,0.06368029,0.11191999,0.23844978,0.15495438,0.20985748,0.30741805
1081,0,USAlabamaLee,Alabama,Lee,2021-01-06 05:26:08.324573,2020-05-03 00:00:00.000000,0.09594690,0.16870867,0.34904616,157,277,574,99,177,382,0.06029492,0.10809641,0.23259591,0.15927034,0.21543775,0.33215843
1081,0,USAlabamaLee,Alabama,Lee,2021-01-06 05:26:08.324573,2020-05-04 00:00:00.000000,0.09382394,0.16563356,0.34171833,154,272,562,94,172,373,0.05719500,0.10490904,0.22711824,0.15905627,0.22016340,0.33896722
1081,0,USAlabamaLee,Alabama,Lee,2021-01-06 05:26:08.324573,2020-05-05 00:00:00.000000,0.09215072,0.16159369,0.33620621,151,265,553,90,169,365,0.05527161,0.10312360,0.22204107,0.15942309,0.22710216,0.33904471
1081,0,USAlabamaLee,Alabama,Lee,2021-01-06 05:26:08.324573,2020-05-06 00:00:00.000000,0.09107102,0.15870312,0.33209949,149,261,546,88,166,358,0.05400667,0.10121218,0.21770969,0.16373881,0.22997553,0.33607417
1081,0,USAlabamaLee,Alabama,Lee,2021-01-06 05:26:08.324573,2020-05-07 00:00:00.000000,0.09051365,0.15779611,0.32877832,148,259,540,87,164,352,0.05316171,0.09968604,0.21420010,0.17571502,0.23337006,0.33130676
1081,0,USAlabamaLee,Alabama,Lee,2021-01-06 05:26:08.324573,2020-05-08 00:00:00.000000,0.09048558,0.15804894,0.32586235,148,260,536,86,160,347,0.05264576,0.09756428,0.21136114,0.17944333,0.24058860,0.33164972
1081,0,USAlabamaLee,Alabama,Lee,2021-01-06 05:26:08.324573,2020-05-09 00:00:00.000000,0.09098611,0.15627842,0.32316673,149,257,531,86,156,343,0.05246028,0.09524463,0.20899280,0.18452939,0.24892634,0.35499415
1081,0,USAlabamaLee,Alabama,Lee,2021-01-06 05:26:08.324573,2020-05-10 00:00:00.000000,0.09091603,0.15437239,0.32062407,149,254,527,86,155,340,0.05258486,0.09421989,0.20693309,0.19660212,0.25860197,0.35868995
1081,0,USAlabamaLee,Alabama,Lee,2021-01-06 05:26:08.324573,2020-05-11 00:00:00.000000,0.08962135,0.15481380,0.31838138,147,254,523,87,154,337,0.05299550,0.09411512,0.20507807,0.19757144,0.27185550,0.36797542
1081,0,USAlabamaLee,Alabama,Lee,2021-01-06 05:26:08.324573,2020-05-12 00:00:00.000000,0.08904963,0.15375706,0.31730477,146,252,522,86,154,334,0.05284338,0.09386603,0.20341734,0.20232698,0.28312332,0.37696363
1081,0,USAlabamaLee,Alabama,Lee,2021-01-06 05:26:08.324573,2020-05-13 00:00:00.000000,0.08985990,0.15306454,0.31960395,147,251,525,86,153,335,0.05252299,0.09317050,0.20368486,0.20752268,0.29622970,0.38086431
1081,0,USAlabamaLee,Alabama,Lee,2021-01-06 05:26:08.324573,2020-05-14 00:00:00.000000,0.09032531,0.15400643,0.32480118,148,253,534,85,154,336,0.05219533,0.09373429,0.20434125,0.21258716,0.29858191,0.40033432
1081,0,USAlabamaLee,Alabama,Lee,2021-01-06 05:26:08.324573,2020-05-15 00:00:00.000000,0.09255061,0.15712461,0.33103346,152,258,544,85,155,339,0.05194128,0.09463873,0.20630569,0.21751183,0.30812789,0.40305061
1081,0,USAlabamaLee,Alabama,Lee,2021-01-06 05:26:08.324573,2020-05-16 00:00:00.000000,0.09425153,0.15869704,0.33839311,155,261,556,85,161,345,0.05186053,0.09803069,0.20977696,0.22388728,0.32035587,0.40353392
1081,0,USAlabamaLee,Alabama,Lee,2021-01-06 05:26:08.324573,2020-05-17 00:00:00.000000,0.09319856,0.16183632,0.34550072,153,266,568,86,162,352,0.05260554,0.09904698,0.21406248,0.23326810,0.33554842,0.43274599
1081,0,USAlabamaLee,Alabama,Lee,2021-01-06 05:26:08.324573,2020-05-18 00:00:00.000000,0.09348832,0.16530344,0.34703361,153,271,571,88,164,360,0.05372671,0.10001754,0.21880902,0.24656857,0.34178741,0.43650905
1081,0,USAlabamaLee,Alabama,Lee,2021-01-06 05:26:08.324573,2020-05-19 00:00:00.000000,0.09536950,0.16956389,0.34904985,156,279,574,90,168,368,0.05478107,0.10252776,0.22377352,0.26227797,0.34639411,0.45457129
1081,0,USAlabamaLee,Alabama,Lee,2021-01-06 05:26:08.324573,2020-05-20 00:00:00.000000,0.09749853,0.17460718,0.35183139,160,287,578,92,171,372,0.05627011,0.10439301,0.22619484,0.27319807,0.35469365,0.46712170
1081,0,USAlabamaLee,Alabama,Lee,2021-01-06 05:26:08.324573,2020-05-21 00:00:00.000000,0.09995047,0.17944526,0.36803699,164,295,605,92,173,382,0.05621008,0.10564049,0.23275801,0.27948494,0.36122297,0.49682519
1081,0,USAlabamaLee,Alabama,Lee,2021-01-06 05:26:08.324573,2020-05-22 00:00:00.000000,0.10295643,0.18446481,0.38562952,169,303,634,94,176,395,0.05727835,0.10733522,0.24056128,0.28477329,0.36843931,0.52182774
1081,0,USAlabamaLee,Alabama,Lee,2021-01-06 05:26:08.324573,2020-05-23 00:00:00.000000,0.10693437,0.19108568,0.40322580,175,314,663,97,178,406,0.05906500,0.10832410,0.24690900,0.29064161,0.37705222,0.53683894
1081,0,USAlabamaLee,Alabama,Lee,2021-01-06 05:26:08.324573,2020-05-24 00:00:00.000000,0.11231377,0.20195098,0.41709793,184,332,686,102,184,416,0.06211324,0.11195319,0.25326756,0.29945654,0.38582407,0.53648754
1081,0,USAlabamaLee,Alabama,Lee,2021-01-06 05:26:08.324573,2020-05-25 00:00:00.000000,0.11896498,0.20886764,0.43275177,195,343,712,108,191,428,0.06578588,0.11653309,0.26047807,0.30381799,0.39396964,0.55102667
1081,0,USAlabamaLee,Alabama,Lee,2021-01-06 05:26:08.324573,2020-05-26 00:00:00.000000,0.12691334,0.21549350,0.45069758,208,354,741,114,200,441,0.06953026,0.12161942,0.26838326,0.30439377,0.40223673,0.54965139
1081,0,USAlabamaLee,Alabama,Lee,2021-01-06 05:26:08.324573,2020-05-27 00:00:00.000000,0.13616137,0.22313144,0.47090714,224,367,774,120,207,455,0.07329079,0.12617392,0.27694113,0.30891344,0.41462084,0.56804881
1081,0,USAlabamaLee,Alabama,Lee,2021-01-06 05:26:08.324573,2020-05-28 00:00:00.000000,0.14693209,0.23144589,0.49282452,241,380,810,127,215,472,0.07750431,0.13074707,0.28699226,0.32126718,0.42560845,0.58859533
1081,0,USAlabamaLee,Alabama,Lee,2021-01-06 05:26:08.324573,2020-05-29 00:00:00.000000,0.15519643,0.24357448,0.51258567,255,400,843,135,225,493,0.08223500,0.13674994,0.29966767,0.32899791,0.43779931,0.59260416
1081,0,USAlabamaLee,Alabama,Lee,2021-01-06 05:26:08.324573,2020-05-30 00:00:00.000000,0.15600260,0.25866867,0.53353480,256,425,877,145,236,516,0.08847729,0.14362964,0.31360313,0.33286711,0.44762404,0.60282928
1081,0,USAlabamaLee,Alabama,Lee,2021-01-06 05:26:08.324573,2020-05-31 00:00:00.000000,0.16393898,0.27630220,0.55619789,269,454,915,153,246,539,0.09357802,0.14974782,0.32814398,0.33661277,0.45828636,0.59880726
1081,0,USAlabamaLee,Alabama,Lee,2021-01-06 05:26:08.324573,2020-06-01 00:00:00.000000,0.17517669,0.29158566,0.58285993,288,479,959,163,256,566,0.09915724,0.15608088,0.34403768,0.33809558,0.47367923,0.61822228
1081,0,USAlabamaLee,Alabama,Lee,2021-01-06 05:26:08.324573,2020-06-02 00:00:00.000000,0.18786880,0.31549044,0.61202261,309,519,1007,173,275,594,0.10564694,0.16771379,0.36129484,0.35702235,0.48064778,0.63952101
1081,0,USAlabamaLee,Alabama,Lee,2021-01-06 05:26:08.324573,2020-06-03 00:00:00.000000,0.20238110,0.33784236,0.64361519,333,555,1059,184,298,624,0.11201062,0.18139838,0.37974127,0.37701544,0.49639564,0.64283613
1081,0,USAlabamaLee,Alabama,Lee,2021-01-06 05:26:08.324573,2020-06-04 00:00:00.000000,0.21636634,0.35932843,0.67738021,356,591,1114,194,324,657,0.11820192,0.19733265,0.39941915,0.39091665,0.50121923,0.65086099
1081,0,USAlabamaLee,Alabama,Lee,2021-01-06 05:26:08.324573,2020-06-05 00:00:00.000000,0.23481850,0.38128466,0.71334880,386,627,1173,206,352,691,0.12539855,0.21447329,0.42022562,0.39250802,0.51117223,0.66369452
1081,0,USAlabamaLee,Alabama,Lee,2021-01-06 05:26:08.324573,2020-06-06 00:00:00.000000,0.25413019,0.41169674,0.75211349,418,677,1237,219,380,727,0.13358826,0.23129610,0.44232138,0.39606570,0.51794828,0.68503069
1081,0,USAlabamaLee,Alabama,Lee,2021-01-06 05:26:08.324573,2020-06-07 00:00:00.000000,0.27414470,0.44474559,0.79676510,451,731,1311,234,407,766,0.14275703,0.24786500,0.46599246,0.40549303,0.52087266,0.71064609
1081,0,USAlabamaLee,Alabama,Lee,2021-01-06 05:26:08.324573,2020-06-08 00:00:00.000000,0.29589055,0.48865886,0.85814541,486,804,1412,251,441,808,0.15289286,0.26816244,0.49157864,0.42757795,0.52947415,0.73435738
1081,0,USAlabamaLee,Alabama,Lee,2021-01-06 05:26:08.324573,2020-06-09 00:00:00.000000,0.31923993,0.52833520,0.92546334,525,869,1522,270,478,867,0.16468445,0.29097371,0.52746612,0.43447523,0.53563664,0.73290487
1081,0,USAlabamaLee,Alabama,Lee,2021-01-06 05:26:08.324573,2020-06-10 00:00:00.000000,0.34433959,0.57055735,0.98277448,566,938,1617,292,511,935,0.17775533,0.31069564,0.56868402,0.42745015,0.54124815,0.73027532
1081,0,USAlabamaLee,Alabama,Lee,2021-01-06 05:26:08.324573,2020-06-11 00:00:00.000000,0.37132297,0.61703854,1.04544950,610,1015,1720,316,542,1010,0.19211156,0.32978118,0.61439504,0.42500257,0.54135250,0.72116526
1081,0,USAlabamaLee,Alabama,Lee,2021-01-06 05:26:08.324573,2020-06-12 00:00:00.000000,0.40037357,0.66765394,1.11469418,658,1098,1834,347,581,1092,0.21108774,0.35324593,0.66399607,0.42398512,0.54348769,0.71122352
1081,0,USAlabamaLee,Alabama,Lee,2021-01-06 05:26:08.324573,2020-06-13 00:00:00.000000,0.43420175,0.71413775,1.19107212,714,1175,1959,381,618,1154,0.23183472,0.37584357,0.70190518,0.42422984,0.54050422,0.69631481
1081,0,USAlabamaLee,Alabama,Lee,2021-01-06 05:26:08.324573,2020-06-14 00:00:00.000000,0.47610900,0.76244980,1.27441419,783,1254,2096,416,672,1207,0.25332466,0.40858352,0.73384096,0.42179167,0.53281981,0.68585651
1081,0,USAlabamaLee,Alabama,Lee,2021-01-06 05:26:08.324573,2020-06-15 00:00:00.000000,0.50852460,0.83640825,1.36481095,836,1376,2245,444,722,1258,0.26992574,0.43917348,0.76487974,0.40695198,0.52456122,0.67670319
1081,0,USAlabamaLee,Alabama,Lee,2021-01-06 05:26:08.324573,2020-06-16 00:00:00.000000,0.54211801,0.88793525,1.46143800,892,1461,2404,472,784,1322,0.28734561,0.47664646,0.80347263,0.42173814,0.51970992,0.67272662
1081,0,USAlabamaLee,Alabama,Lee,2021-01-06 05:26:08.324573,2020-06-17 00:00:00.000000,0.58563274,0.94298725,1.56367175,963,1551,2572,513,850,1414,0.31210890,0.51704932,0.85981348,0.40636386,0.51664904,0.67299336
1081,0,USAlabamaLee,Alabama,Lee,2021-01-06 05:26:08.324573,2020-06-18 00:00:00.000000,0.63284942,0.99693007,1.65761312,1041,1640,2727,556,912,1513,0.33851170,0.55442599,0.92000673,0.40766442,0.51246765,0.66646818
1081,0,USAlabamaLee,Alabama,Lee,2021-01-06 05:26:08.324573,2020-06-19 00:00:00.000000,0.67005557,1.04431871,1.74856116,1102,1718,2877,595,978,1618,0.36184841,0.59459147,0.98343251,0.41742001,0.50435111,0.64397695
1081,0,USAlabamaLee,Alabama,Lee,2021-01-06 05:26:08.324573,2020-06-20 00:00:00.000000,0.69253183,1.09767221,1.83932605,1139,1806,3026,635,1032,1725,0.38651567,0.62724419,1.04870079,0.40430429,0.50050774,0.62359608
1081,0,USAlabamaLee,Alabama,Lee,2021-01-06 05:26:08.324573,2020-06-21 00:00:00.000000,0.72887263,1.16670319,1.91482908,1199,1919,3150,661,1096,1831,0.40214829,0.66658851,1.11337894,0.37760095,0.49434135,0.59613139
1081,0,USAlabamaLee,Alabama,Lee,2021-01-06 05:26:08.324573,2020-06-22 00:00:00.000000,0.77365116,1.24564361,1.97137742,1272,2049,3243,683,1143,1933,0.41553204,0.69501002,1.17479827,0.37314853,0.48172954,0.57597738
1081,0,USAlabamaLee,Alabama,Lee,2021-01-06 05:26:08.324573,2020-06-23 00:00:00.000000,0.82055339,1.30417778,2.05982724,1350,2145,3389,719,1209,2026,0.43751452,0.73528886,1.23147838,0.36669114,0.47409755,0.55771705
1081,0,USAlabamaLee,Alabama,Lee,2021-01-06 05:26:08.324573,2020-06-24 00:00:00.000000,0.86992967,1.36686008,2.13922428,1431,2249,3519,763,1273,2108,0.46409659,0.77370856,1.28154032,0.36534635,0.46371196,0.55288174
1081,0,USAlabamaLee,Alabama,Lee,2021-01-06 05:26:08.324573,2020-06-25 00:00:00.000000,0.92036350,1.43489490,2.19254976,1514,2361,3607,809,1335,2175,0.49209806,0.81190272,1.32187377,0.36632827,0.45539644,0.54621977
1081,0,USAlabamaLee,Alabama,Lee,2021-01-06 05:26:08.324573,2020-06-26 00:00:00.000000,0.94907115,1.48881139,2.26931655,1561,2449,3733,858,1388,2292,0.52147718,0.84374952,1.39343855,0.35484293,0.44199675,0.53100296
1081,0,USAlabamaLee,Alabama,Lee,2021-01-06 05:26:08.324573,2020-06-27 00:00:00.000000,0.97165550,1.54615723,2.39857851,1598,2544,3946,893,1450,2432,0.54276075,0.88177562,1.47838810,0.34723477,0.42771717,0.52325935
1081,0,USAlabamaLee,Alabama,Lee,2021-01-06 05:26:08.324573,2020-06-28 00:00:00.000000,0.99301984,1.59177037,2.51053542,1633,2619,4130,926,1496,2565,0.56300723,0.90919475,1.55895666,0.33254967,0.41876619,0.51424595
1081,0,USAlabamaLee,Alabama,Lee,2021-01-06 05:26:08.324573,2020-06-29 00:00:00.000000,1.01383217,1.62856059,2.59326528,1668,2679,4267,956,1534,2688,0.58155344,0.93263036,1.63408304,0.32895908,0.41079060,0.51725768
1081,0,USAlabamaLee,Alabama,Lee,2021-01-06 05:26:08.324573,2020-06-30 00:00:00.000000,1.03378367,1.66661167,2.64762302,1701,2742,4356,981,1608,2803,0.59658694,0.97735516,1.70370765,0.32994669,0.40136718,0.51495342
1081,0,USAlabamaLee,Alabama,Lee,2021-01-06 05:26:08.324573,2020-07-01 00:00:00.000000,1.05312514,1.71692453,2.73623611,1732,2825,4502,1000,1693,2909,0.60797655,1.02919501,1.76794265,0.31799148,0.39074320,0.51074798
1081,0,USAlabamaLee,Alabama,Lee,2021-01-06 05:26:08.324573,2020-07-02 00:00:00.000000,1.07204357,1.78091434,2.81265932,1763,2930,4628,1014,1745,2975,0.61631736,1.06053881,1.80812343,0.31082078,0.38283957,0.50641922
1081,0,USAlabamaLee,Alabama,Lee,2021-01-06 05:26:08.324573,2020-07-03 00:00:00.000000,1.09077892,1.84494921,2.89676831,1794,3035,4766,1024,1781,3088,0.62291862,1.08282467,1.87729613,0.31480613,0.38014791,0.49785947
1081,0,USAlabamaLee,Alabama,Lee,2021-01-06 05:26:08.324573,2020-07-04 00:00:00.000000,1.10960737,1.88952178,2.95168777,1825,3109,4856,1035,1834,3186,0.62957276,1.11513114,1.93652214,0.30504194,0.37555829,0.48919493
1081,0,USAlabamaLee,Alabama,Lee,2021-01-06 05:26:08.324573,2020-07-05 00:00:00.000000,1.12898604,1.94435060,3.01535844,1857,3199,4961,1056,1885,3266,0.64192639,1.14582764,1.98517655,0.29287026,0.37008538,0.48728145
1081,0,USAlabamaLee,Alabama,Lee,2021-01-06 05:26:08.324573,2020-07-06 00:00:00.000000,1.14882579,1.99777635,3.07515914,1890,3287,5059,1071,1928,3338,0.65106718,1.17221327,2.02925932,0.28821196,0.36868667,0.48474981
1081,0,USAlabamaLee,Alabama,Lee,2021-01-06 05:26:08.324573,2020-07-07 00:00:00.000000,1.17137354,2.04416485,3.12969296,1927,3363,5149,1097,1969,3360,0.66678862,1.19708186,2.04258188,0.27709468,0.36658672,0.45866288
1081,0,USAlabamaLee,Alabama,Lee,2021-01-06 05:26:08.324573,2020-07-08 00:00:00.000000,1.19238077,2.05594446,3.15450027,1961,3382,5190,1128,2002,3370,0.68578293,1.21671453,2.04831835,0.26966240,0.36275404,0.45359991
1081,0,USAlabamaLee,Alabama,Lee,2021-01-06 05:26:08.324573,2020-07-09 00:00:00.000000,1.21070509,2.06623484,3.17742097,1992,3399,5228,1149,2038,3376,0.69863198,1.23908839,2.05211191,0.26495548,0.35774439,0.45063465
1081,0,USAlabamaLee,Alabama,Lee,2021-01-06 05:26:08.324573,2020-07-10 00:00:00.000000,1.22631940,2.10367597,3.19866147,2017,3461,5263,1168,2087,3379,0.71020412,1.26867663,2.05411707,0.26267893,0.35607993,0.45808946
1081,0,USAlabamaLee,Alabama,Lee,2021-01-06 05:26:08.324573,2020-07-11 00:00:00.000000,1.23920368,2.12452641,3.21780195,2039,3495,5294,1185,2105,3386,0.72028318,1.27937083,2.05827751,0.25866182,0.34992087,0.44190453
1081,0,USAlabamaLee,Alabama,Lee,2021-01-06 05:26:08.324573,2020-07-12 00:00:00.000000,1.23923658,2.11437779,3.21880073,2039,3479,5296,1199,2124,3438,0.72878006,1.29114440,2.08958421,0.25246371,0.33834240,0.43462304
1081,0,USAlabamaLee,Alabama,Lee,2021-01-06 05:26:08.324573,2020-07-13 00:00:00.000000,1.21520176,2.09892726,3.20177408,1999,3453,5268,1210,2139,3484,0.73575391,1.30039566,2.11771603,0.24161607,0.33194140,0.42971223
1081,0,USAlabamaLee,Alabama,Lee,2021-01-06 05:26:08.324573,2020-07-14 00:00:00.000000,1.21612849,2.09969330,3.21157588,2001,3454,5284,1222,2129,3522,0.74267914,1.29436633,2.14071201,0.23841369,0.32083813,0.42729450
1081,0,USAlabamaLee,Alabama,Lee,2021-01-06 05:26:08.324573,2020-07-15 00:00:00.000000,1.22965776,2.08715583,3.21212324,2023,3434,5285,1230,2129,3511,0.74801502,1.29410621,2.13437135,0.22313080,0.31504618,0.41286539
1081,0,USAlabamaLee,Alabama,Lee,2021-01-06 05:26:08.324573,2020-07-16 00:00:00.000000,1.23586867,2.06450762,3.18996452,2033,3396,5248,1202,2109,3447,0.73102266,1.28207908,2.09515586,0.21628326,0.30832830,0.39362752
1081,0,USAlabamaLee,Alabama,Lee,2021-01-06 05:26:08.324573,2020-07-17 00:00:00.000000,1.23170185,2.00962115,3.15569312,2026,3306,5192,1174,2093,3379,0.71357304,1.27235721,2.05417337,0.21409566,0.29690481,0.37852521
1081,0,USAlabamaLee,Alabama,Lee,2021-01-06 05:26:08.324573,2020-07-18 00:00:00.000000,1.21602311,1.98740581,3.11865632,2000,3270,5131,1169,2063,3311,0.71105744,1.25403590,2.01244882,0.20734409,0.28739743,0.37613043
1081,0,USAlabamaLee,Alabama,Lee,2021-01-06 05:26:08.324573,2020-07-19 00:00:00.000000,1.18820653,1.95202794,3.07912937,1955,3211,5066,1159,2028,3242,0.70449217,1.23281789,1.97055089,0.20389805,0.28173665,0.37004609
1081,0,USAlabamaLee,Alabama,Lee,2021-01-06 05:26:08.324573,2020-07-20 00:00:00.000000,1.15583265,1.89218157,3.03727896,1901,3113,4997,1140,2002,3212,0.69306117,1.21722503,1.95213939,0.20414124,0.27656176,0.36084194
1081,0,USAlabamaLee,Alabama,Lee,2021-01-06 05:26:08.324573,2020-07-21 00:00:00.000000,1.12352499,1.83074213,2.99266518,1848,3012,4924,1117,1961,3187,0.67923612,1.19184085,1.93732121,0.20535885,0.27166935,0.36053911
1081,0,USAlabamaLee,Alabama,Lee,2021-01-06 05:26:08.324573,2020-07-22 00:00:00.000000,1.09135589,1.78464886,2.94184489,1795,2936,4840,1097,1913,3152,0.66689755,1.16270991,1.91605785,0.20500314,0.26667816,0.35879482
1081,0,USAlabamaLee,Alabama,Lee,2021-01-06 05:26:08.324573,2020-07-23 00:00:00.000000,1.05961534,1.74012035,2.88764518,1743,2863,4751,1080,1867,3109,0.65694348,1.13466997,1.88957659,0.20324391,0.26480835,0.35514865
1081,0,USAlabamaLee,Alabama,Lee,2021-01-06 05:26:08.324573,2020-07-24 00:00:00.000000,1.04650560,1.69173182,2.83193601,1721,2783,4659,1049,1814,3059,0.63782725,1.10255924,1.85937773,0.20210483,0.26466508,0.35650588
1081,0,USAlabamaLee,Alabama,Lee,2021-01-06 05:26:08.324573,2020-07-25 00:00:00.000000,1.02920689,1.66935660,2.77621249,1693,2746,4568,1019,1759,3005,0.61935992,1.06913551,1.82681247,0.20466585,0.27073079,0.35785279
1081,0,USAlabamaLee,Alabama,Lee,2021-01-06 05:26:08.324573,2020-07-26 00:00:00.000000,1.00813448,1.62680896,2.72394686,1658,2676,4482,998,1705,2950,0.60700856,1.03641798,1.79305557,0.21846651,0.26999417,0.35928728
1081,0,USAlabamaLee,Alabama,Lee,2021-01-06 05:26:08.324573,2020-07-27 00:00:00.000000,0.98564693,1.56980113,2.68145475,1621,2582,4412,981,1671,2895,0.59656472,1.01599922,1.75972883,0.22509907,0.27392323,0.36719432
1081,0,USAlabamaLee,Alabama,Lee,2021-01-06 05:26:08.324573,2020-07-28 00:00:00.000000,0.95326036,1.52966770,2.62437957,1568,2516,4318,965,1643,2841,0.58706019,0.99891200,1.72699930,0.22581658,0.27610867,0.37348627
1081,0,USAlabamaLee,Alabama,Lee,2021-01-06 05:26:08.324573,2020-07-29 00:00:00.000000,0.92605714,1.49104497,2.56767703,1523,2453,4224,942,1618,2781,0.57308794,0.98347000,1.69068323,0.22765947,0.28002881,0.37972183
1081,0,USAlabamaLee,Alabama,Lee,2021-01-06 05:26:08.324573,2020-07-30 00:00:00.000000,0.91249460,1.46426328,2.51198772,1501,2409,4133,913,1579,2723,0.55511267,0.95966098,1.65498855,0.23206311,0.29231915,0.38296012
1081,0,USAlabamaLee,Alabama,Lee,2021-01-06 05:26:08.324573,2020-07-31 00:00:00.000000,0.90136400,1.43842235,2.45782466,1483,2366,4044,893,1541,2665,0.54290153,0.93694634,1.61995762,0.23245676,0.30178946,0.39821826
1081,0,USAlabamaLee,Alabama,Lee,2021-01-06 05:26:08.324573,2020-08-01 00:00:00.000000,0.88780311,1.42063220,2.40653179,1460,2337,3959,882,1506,2609,0.53639154,0.91543940,1.58576289,0.23293653,0.30911514,0.40930529
1081,0,USAlabamaLee,Alabama,Lee,2021-01-06 05:26:08.324573,2020-08-02 00:00:00.000000,0.89271264,1.40025474,2.36143138,1468,2304,3885,878,1474,2555,0.53378033,0.89629752,1.55293098,0.23341841,0.32102786,0.42375802
1081,0,USAlabamaLee,Alabama,Lee,2021-01-06 05:26:08.324573,2020-08-03 00:00:00.000000,0.90651609,1.38733154,2.33036292,1491,2282,3834,870,1439,2526,0.52918685,0.87455382,1.53527560,0.24024756,0.33892498,0.45488888
1081,0,USAlabamaLee,Alabama,Lee,2021-01-06 05:26:08.324573,2020-08-04 00:00:00.000000,0.91059447,1.38865017,2.31762792,1498,2284,3813,877,1403,2506,0.53350229,0.85272685,1.52360889,0.25006612,0.35266273,0.47749590
1081,0,USAlabamaLee,Alabama,Lee,2021-01-06 05:26:08.324573,2020-08-05 00:00:00.000000,0.91573838,1.38879458,2.32184136,1506,2285,3820,881,1388,2511,0.53595080,0.84395929,1.52661307,0.25060869,0.36881748,0.50606007
1081,0,USAlabamaLee,Alabama,Lee,2021-01-06 05:26:08.324573,2020-08-06 00:00:00.000000,0.93271620,1.38781181,2.32953107,1534,2283,3833,885,1404,2532,0.53831970,0.85347280,1.53922146,0.25164531,0.37874369,0.57050278
1081,0,USAlabamaLee,Alabama,Lee,2021-01-06 05:26:08.324573,2020-08-07 00:00:00.000000,0.95843330,1.40122567,2.35676806,1577,2305,3877,892,1411,2571,0.54267960,0.85797438,1.56256704,0.25505247,0.40066485,0.60046908
1081,0,USAlabamaLee,Alabama,Lee,2021-01-06 05:26:08.324573,2020-08-08 00:00:00.000000,0.97694289,1.45278187,2.38055365,1607,2390,3917,911,1455,2628,0.55375951,0.88461520,1.59720059,0.30591630,0.42093878,0.61774069
1081,0,USAlabamaLee,Alabama,Lee,2021-01-06 05:26:08.324573,2020-08-09 00:00:00.000000,1.01092653,1.52279790,2.41248682,1663,2505,3969,948,1501,2678,0.57617220,0.91224507,1.62813777,0.31673706,0.45280755,0.63748887
1081,0,USAlabamaLee,Alabama,Lee,2021-01-06 05:26:08.324573,2020-08-10 00:00:00.000000,1.05010462,1.61073000,2.53576230,1727,2650,4172,974,1533,2689,0.59235180,0.93186851,1.63433565,0.35851426,0.48302864,0.71960176
1081,0,USAlabamaLee,Alabama,Lee,2021-01-06 05:26:08.324573,2020-08-11 00:00:00.000000,1.13540932,1.69175261,2.69049982,1868,2783,4427,995,1606,2725,0.60493912,0.97608808,1.65644029,0.37878352,0.53611474,0.75199925
1081,0,USAlabamaLee,Alabama,Lee,2021-01-06 05:26:08.324573,2020-08-12 00:00:00.000000,1.18293114,1.80572023,2.87145945,1946,2971,4724,1030,1713,2811,0.62606829,1.04166610,1.70849452,0.43040798,0.57227919,0.80937637
1081,0,USAlabamaLee,Alabama,Lee,2021-01-06 05:26:08.324573,2020-08-13 00:00:00.000000,1.22924552,1.96073158,3.07742628,2022,3226,5063,1123,1825,2958,0.68260915,1.10934245,1.79830027,0.45715294,0.63401498,0.83450749
1081,0,USAlabamaLee,Alabama,Lee,2021-01-06 05:26:08.324573,2020-08-14 00:00:00.000000,1.31756380,2.15359190,3.31359749,2167,3543,5452,1202,2005,3147,0.73062527,1.21862853,1.91305287,0.49309014,0.68161890,0.86211595
1081,0,USAlabamaLee,Alabama,Lee,2021-01-06 05:26:08.324573,2020-08-15 00:00:00.000000,1.46691446,2.36733579,3.61417275,2413,3895,5946,1263,2193,3376,0.76815383,1.33297693,2.05210532,0.55507053,0.73064197,0.91835745
1081,0,USAlabamaLee,Alabama,Lee,2021-01-06 05:26:08.324573,2020-08-16 00:00:00.000000,1.62099689,2.61586325,4.00835393,2667,4304,6595,1379,2355,3654,0.83835813,1.43150229,2.22093086,0.59003063,0.77707755,0.94302286
1081,0,USAlabamaLee,Alabama,Lee,2021-01-06 05:26:08.324573,2020-08-17 00:00:00.000000,1.79755905,2.93978801,4.47334283,2957,4837,7360,1570,2591,4056,0.95466233,1.57473903,2.46553808,0.65659201,0.80838625,0.96908839
1081,0,USAlabamaLee,Alabama,Lee,2021-01-06 05:26:08.324573,2020-08-18 00:00:00.000000,1.99536177,3.30142040,5.04866978,3283,5432,8307,1773,2906,4567,1.07755255,1.76661932,2.77590154,0.67189549,0.82119274,0.97645194
1081,0,USAlabamaLee,Alabama,Lee,2021-01-06 05:26:08.324573,2020-08-19 00:00:00.000000,2.21474132,3.72743594,5.69950953,3644,6133,9378,1965,3242,5149,1.19480156,1.97074847,3.12934698,0.67569642,0.82902041,0.98738147
1081,0,USAlabamaLee,Alabama,Lee,2021-01-06 05:26:08.324573,2020-08-20 00:00:00.000000,2.45681373,4.20082606,6.42190892,4042,6912,10566,2180,3640,5799,1.32536124,2.21223800,3.52454533,0.67706533,0.83299574,0.98304193
1081,0,USAlabamaLee,Alabama,Lee,2021-01-06 05:26:08.324573,2020-08-21 00:00:00.000000,2.72312789,4.71890788,7.21941621,4480,7764,11878,2418,4110,6521,1.46979147,2.49824620,3.96333549,0.67719155,0.82963823,0.96664795
1081,0,USAlabamaLee,Alabama,Lee,2021-01-06 05:26:08.324573,2020-08-22 00:00:00.000000,3.01516174,5.28193831,8.08792474,4961,8691,13308,2680,4598,7318,1.62900237,2.79444849,4.44775766,0.67583302,0.82283541,0.95621485
1081,0,USAlabamaLee,Alabama,Lee,2021-01-06 05:26:08.324573,2020-08-23 00:00:00.000000,3.33272587,5.84030090,8.96674951,5483,9609,14754,2968,5069,8192,1.80392010,3.08086604,4.97927454,0.64354772,0.79473021,0.95290568
1081,0,USAlabamaLee,Alabama,Lee,2021-01-06 05:26:08.324573,2020-08-24 00:00:00.000000,3.66768657,6.27181905,9.58653201,6034,10319,15773,3282,5507,9142,1.99474627,3.34741227,5.55624630,0.45142266,0.70814105,0.92198095
1081,0,USAlabamaLee,Alabama,Lee,2021-01-06 05:26:08.324573,2020-08-25 00:00:00.000000,3.96632567,6.43788372,10.16022820,6526,10593,16717,3617,5900,10184,2.19838205,3.58586495,6.18934410,0.34830632,0.59271224,0.80361193
1081,0,USAlabamaLee,Alabama,Lee,2021-01-06 05:26:08.324573,2020-08-26 00:00:00.000000,4.19698677,6.56252437,10.26530282,6905,10798,16890,3930,6360,11008,2.38852405,3.86559162,6.69055002,0.26853021,0.42652998,0.60945907
1081,0,USAlabamaLee,Alabama,Lee,2021-01-06 05:26:08.324573,2020-08-27 00:00:00.000000,4.22597697,6.43851467,10.17132361,6953,10594,16736,4154,6504,11474,2.52475701,3.95303146,6.97372573,0.22963066,0.31888002,0.48884532
1081,0,USAlabamaLee,Alabama,Lee,2021-01-06 05:26:08.324573,2020-08-28 00:00:00.000000,4.14120800,6.23000340,9.89013412,6814,10250,16273,4167,6582,11567,2.53273646,4.00055773,7.03003300,0.20192274,0.26581841,0.37850628
1081,0,USAlabamaLee,Alabama,Lee,2021-01-06 05:26:08.324573,2020-08-29 00:00:00.000000,3.97288880,6.00093749,9.43484100,6537,9874,15524,4144,6439,11353,2.51862256,3.91358792,6.89981869,0.19192993,0.24580229,0.33141611
1081,0,USAlabamaLee,Alabama,Lee,2021-01-06 05:26:08.324573,2020-08-30 00:00:00.000000,3.78121344,5.76706266,9.20824426,6221,9489,15151,4060,6243,10897,2.46785839,3.79446138,6.62302456,0.18971715,0.23432601,0.32036977
1081,0,USAlabamaLee,Alabama,Lee,2021-01-06 05:26:08.324573,2020-08-31 00:00:00.000000,3.58271297,5.48114105,8.92774273,5895,9018,14689,3895,5870,10688,2.36755715,3.56760339,6.49570854,0.18020600,0.23044162,0.29763203
1081,0,USAlabamaLee,Alabama,Lee,2021-01-06 05:26:08.324573,2020-09-01 00:00:00.000000,3.38816557,5.13220891,8.61147617,5574,8444,14169,3706,5517,10256,2.25241206,3.35327280,6.23356026,0.17514084,0.22333740,0.29635938
1081,0,USAlabamaLee,Alabama,Lee,2021-01-06 05:26:08.324573,2020-09-02 00:00:00.000000,3.20288820,4.79738920,8.25709448,5270,7893,13586,3506,5235,9739,2.13078801,3.18156392,5.91895675,0.17532780,0.22246253,0.29320017
1081,0,USAlabamaLee,Alabama,Lee,2021-01-06 05:26:08.324573,2020-09-03 00:00:00.000000,3.03046042,4.50430915,7.83695684,4986,7411,12895,3304,4980,9224,2.00830491,3.02676174,5.60626790,0.16708689,0.22387896,0.29304598
1081,0,USAlabamaLee,Alabama,Lee,2021-01-06 05:26:08.324573,2020-09-04 00:00:00.000000,2.87145996,4.25124435,7.40475039,4724,6995,12183,3107,4715,8727,1.88855276,2.86596021,5.30401937,0.16760575,0.22328402,0.29263000
1081,0,USAlabamaLee,Alabama,Lee,2021-01-06 05:26:08.324573,2020-09-05 00:00:00.000000,2.71907925,3.96777302,6.99361276,4474,6528,11507,2919,4453,8252,1.77410924,2.70636627,5.01543989,0.16833050,0.22297979,0.28810086
1081,0,USAlabamaLee,Alabama,Lee,2021-01-06 05:26:08.324573,2020-09-06 00:00:00.000000,2.55880501,3.72537212,6.60533126,4210,6129,10868,2741,4174,7801,1.66632022,2.53712704,4.74133154,0.16756387,0.22328660,0.28941866
1081,0,USAlabamaLee,Alabama,Lee,2021-01-06 05:26:08.324573,2020-09-07 00:00:00.000000,2.38038950,3.51796401,6.23858179,3916,5788,10265,2577,3910,7373,1.56670271,2.37674433,4.48137427,0.16655841,0.22364764,0.29385560
1081,0,USAlabamaLee,Alabama,Lee,2021-01-06 05:26:08.324573,2020-09-08 00:00:00.000000,2.20383168,3.30391667,5.89154260,3626,5436,9694,2412,3672,6968,1.46634726,2.23186467,4.23503582,0.16380255,0.22543475,0.29781493
1081,0,USAlabamaLee,Alabama,Lee,2021-01-06 05:26:08.324573,2020-09-09 00:00:00.000000,2.04076144,3.12258709,5.56356701,3357,5137,9154,2239,3467,6584,1.36081718,2.10754187,4.00157245,0.16217543,0.23025494,0.30049479
1081,0,USAlabamaLee,Alabama,Lee,2021-01-06 05:26:08.324573,2020-09-10 00:00:00.000000,1.89104702,2.96330660,5.25545467,3111,4875,8647,2073,3268,6220,1.26041261,1.98627669,3.78043849,0.16167854,0.23970844,0.30346573
1081,0,USAlabamaLee,Alabama,Lee,2021-01-06 05:26:08.324573,2020-09-11 00:00:00.000000,1.75470078,2.81317597,4.97194535,2887,4628,8180,1921,3081,5876,1.16788449,1.87263011,3.57161944,0.16797099,0.24531710,0.31341345
1081,0,USAlabamaLee,Alabama,Lee,2021-01-06 05:26:08.324573,2020-09-12 00:00:00.000000,1.63209927,2.67269643,4.72534096,2685,4397,7775,1782,2906,5555,1.08323024,1.76656934,3.37653506,0.17132996,0.24853470,0.32437473
1081,0,USAlabamaLee,Alabama,Lee,2021-01-06 05:26:08.324573,2020-09-13 00:00:00.000000,1.52403231,2.54206336,4.51360623,2507,4182,7426,1656,2726,5263,1.00659898,1.65683379,3.19890660,0.17781033,0.25239562,0.33099077
1081,0,USAlabamaLee,Alabama,Lee,2021-01-06 05:26:08.324573,2020-09-14 00:00:00.000000,1.43007388,2.40786024,4.33135970,2353,3961,7126,1543,2578,5004,0.93836021,1.56723964,3.04132345,0.18612177,0.25330250,0.33488246
1081,0,USAlabamaLee,Alabama,Lee,2021-01-06 05:26:08.324573,2020-09-15 00:00:00.000000,1.34480460,2.26547452,4.16271863,2212,3727,6849,1445,2452,4776,0.87850751,1.49078892,2.90275146,0.18653818,0.26246122,0.34318991
1081,0,USAlabamaLee,Alabama,Lee,2021-01-06 05:26:08.324573,2020-09-16 00:00:00.000000,1.27318760,2.16110537,4.00338820,2094,3555,6587,1350,2331,4556,0.82056889,1.41719427,2.76939260,0.18932755,0.26457635,0.35653535
1081,0,USAlabamaLee,Alabama,Lee,2021-01-06 05:26:08.324573,2020-09-17 00:00:00.000000,1.22459081,2.05543939,3.85096797,2014,3382,6336,1257,2217,4372,0.76403669,1.34747097,2.65713534,0.19381268,0.27346909,0.36505466
1081,0,USAlabamaLee,Alabama,Lee,2021-01-06 05:26:08.324573,2020-09-18 00:00:00.000000,1.17687917,1.96718567,3.70393906,1936,3236,6094,1171,2109,4194,0.71182625,1.28232374,2.54943786,0.19728862,0.27669244,0.37267812
1081,0,USAlabamaLee,Alabama,Lee,2021-01-06 05:26:08.324573,2020-09-19 00:00:00.000000,1.09814450,1.89068907,3.56161167,1806,3110,5860,1092,2023,4024,0.66423876,1.22997859,2.44581435,0.19877166,0.28211918,0.38174860
1081,0,USAlabamaLee,Alabama,Lee,2021-01-06 05:26:08.324573,2020-09-20 00:00:00.000000,1.03522720,1.80097576,3.41734758,1703,2963,5622,1063,1957,3860,0.64643456,1.18970246,2.34591236,0.21226561,0.28764571,0.38431603
1081,0,USAlabamaLee,Alabama,Lee,2021-01-06 05:26:08.324573,2020-09-21 00:00:00.000000,1.00832558,1.71259779,3.27192178,1659,2817,5383,1036,1875,3701,0.62962928,1.14012402,2.24933712,0.21434200,0.29012152,0.38497752
1081,0,USAlabamaLee,Alabama,Lee,2021-01-06 05:26:08.324573,2020-09-22 00:00:00.000000,0.98247887,1.64491495,3.12609379,1616,2706,5143,1009,1783,3546,0.61327015,1.08419035,2.15515144,0.21452614,0.29107241,0.39510123
1081,0,USAlabamaLee,Alabama,Lee,2021-01-06 05:26:08.324573,2020-09-23 00:00:00.000000,0.95739562,1.56714924,2.97903065,1575,2578,4901,983,1706,3392,0.59747301,1.03721109,2.06198029,0.21549597,0.29533091,0.42773198
1081,0,USAlabamaLee,Alabama,Lee,2021-01-06 05:26:08.324573,2020-09-24 00:00:00.000000,0.93293619,1.49428223,2.83510225,1535,2458,4664,957,1628,3239,0.58215808,0.98949045,1.96887224,0.21917733,0.30169898,0.43671552
1081,0,USAlabamaLee,Alabama,Lee,2021-01-06 05:26:08.324573,2020-09-25 00:00:00.000000,0.90906559,1.43764197,2.70049296,1495,2365,4443,933,1547,3088,0.56724796,0.94048769,1.87680591,0.21543417,0.31142959,0.41190270
1081,0,USAlabamaLee,Alabama,Lee,2021-01-06 05:26:08.324573,2020-09-26 00:00:00.000000,0.88580271,1.38015858,2.58219943,1457,2270,4248,896,1489,2942,0.54456638,0.90553628,1.78833561,0.22036288,0.31820509,0.42797297
1081,0,USAlabamaLee,Alabama,Lee,2021-01-06 05:26:08.324573,2020-09-27 00:00:00.000000,0.86303555,1.32626687,2.47981929,1420,2182,4080,853,1437,2808,0.51900024,0.87349580,1.70701285,0.23028946,0.32295154,0.43806581
1081,0,USAlabamaLee,Alabama,Lee,2021-01-06 05:26:08.324573,2020-09-28 00:00:00.000000,0.84055965,1.27819475,2.38750977,1383,2103,3928,819,1391,2689,0.49790022,0.84587501,1.63444392,0.23470137,0.32205651,0.44162711
1081,0,USAlabamaLee,Alabama,Lee,2021-01-06 05:26:08.324573,2020-09-29 00:00:00.000000,0.81853434,1.23189933,2.30096051,1346,2026,3786,792,1346,2582,0.48151020,0.81847967,1.56941468,0.23886332,0.32331087,0.44781472
1081,0,USAlabamaLee,Alabama,Lee,2021-01-06 05:26:08.324573,2020-09-30 00:00:00.000000,0.79693928,1.18767476,2.22056466,1311,1954,3653,770,1296,2484,0.46857240,0.78814353,1.50982490,0.24173397,0.32201947,0.44289717
1081,0,USAlabamaLee,Alabama,Lee,2021-01-06 05:26:08.324573,2020-10-01 00:00:00.000000,0.77568783,1.15474151,2.16530173,1276,1900,3562,753,1248,2393,0.45780293,0.75862942,1.45476344,0.24500912,0.32762187,0.43106784
1081,0,USAlabamaLee,Alabama,Lee,2021-01-06 05:26:08.324573,2020-10-02 00:00:00.000000,0.75178837,1.12064393,2.12293224,1237,1843,3493,737,1209,2320,0.44838253,0.73513236,1.41003481,0.25014075,0.32677035,0.43429420
1081,0,USAlabamaLee,Alabama,Lee,2021-01-06 05:26:08.324573,2020-10-03 00:00:00.000000,0.72792684,1.09377607,2.08307053,1197,1799,3427,712,1173,2262,0.43307178,0.71289615,1.37474719,0.25979460,0.33386277,0.43533496
1081,0,USAlabamaLee,Alabama,Lee,2021-01-06 05:26:08.324573,2020-10-04 00:00:00.000000,0.70363031,1.06787963,2.04497177,1157,1757,3364,694,1136,2212,0.42228632,0.69093169,1.34478296,0.26521625,0.33660384,0.43557532
1081,0,USAlabamaLee,Alabama,Lee,2021-01-06 05:26:08.324573,2020-10-05 00:00:00.000000,0.68502262,1.03504316,2.00726046,1127,1703,3302,683,1105,2168,0.41556377,0.67194900,1.31779867,0.26763969,0.34072264,0.44024158
1081,0,USAlabamaLee,Alabama,Lee,2021-01-06 05:26:08.324573,2020-10-06 00:00:00.000000,0.66573617,1.01697454,1.97017628,1095,1673,3241,673,1069,2126,0.40936946,0.65004094,1.29243482,0.26540192,0.34552346,0.45338867
1081,0,USAlabamaLee,Alabama,Lee,2021-01-06 05:26:08.324573,2020-10-07 00:00:00.000000,0.64918021,1.00098067,1.93354548,1068,1647,3181,661,1038,2086,0.40200985,0.63097151,1.26805928,0.26484336,0.35072649,0.45872232
1081,0,USAlabamaLee,Alabama,Lee,2021-01-06 05:26:08.324573,2020-10-08 00:00:00.000000,0.63548403,0.97351148,1.89729431,1045,1601,3121,646,1011,2047,0.39292710,0.61482655,1.24434780,0.26630034,0.35390636,0.46809338
1081,0,USAlabamaLee,Alabama,Lee,2021-01-06 05:26:08.324573,2020-10-09 00:00:00.000000,0.62897565,0.95452467,1.86154958,1034,1570,3063,626,980,2009,0.38050831,0.59618691,1.22113440,0.27212056,0.36070634,0.48384175
1081,0,USAlabamaLee,Alabama,Lee,2021-01-06 05:26:08.324573,2020-10-10 00:00:00.000000,0.62525449,0.93561559,1.82650434,1028,1539,3005,620,955,1971,0.37686395,0.58040739,1.19831336,0.27682987,0.36750646,0.50754700
1081,0,USAlabamaLee,Alabama,Lee,2021-01-06 05:26:08.324573,2020-10-11 00:00:00.000000,0.61969782,0.91656988,1.79189461,1019,1508,2948,612,937,1934,0.37200859,0.57000858,1.17581653,0.28917016,0.37373794,0.52187095
1081,0,USAlabamaLee,Alabama,Lee,2021-01-06 05:26:08.324573,2020-10-12 00:00:00.000000,0.61193024,0.89885651,1.75734444,1006,1478,2891,606,908,1898,0.36841385,0.55185393,1.15361032,0.29090300,0.38450821,0.52866267
1081,0,USAlabamaLee,Alabama,Lee,2021-01-06 05:26:08.324573,2020-10-13 00:00:00.000000,0.59998708,0.89373946,1.72295609,987,1470,2834,596,899,1861,0.36240258,0.54648877,1.13155580,0.29443542,0.39353364,0.53736475
1081,0,USAlabamaLee,Alabama,Lee,2021-01-06 05:26:08.324573,2020-10-14 00:00:00.000000,0.59164999,0.89567735,1.68401094,973,1473,2770,586,898,1825,0.35666144,0.54590906,1.10962871,0.29799888,0.39904462,0.54454657
1081,0,USAlabamaLee,Alabama,Lee,2021-01-06 05:26:08.324573,2020-10-15 00:00:00.000000,0.58464974,0.88582060,1.64440904,961,1457,2705,577,899,1787,0.35110342,0.54646742,1.08629049,0.29845378,0.40341463,0.54927750
1081,0,USAlabamaLee,Alabama,Lee,2021-01-06 05:26:08.324573,2020-10-16 00:00:00.000000,0.58114201,0.88968114,1.60648316,956,1463,2643,569,890,1747,0.34589304,0.54125226,1.06200847,0.29905232,0.41722737,0.56175664
1081,0,USAlabamaLee,Alabama,Lee,2021-01-06 05:26:08.324573,2020-10-17 00:00:00.000000,0.58082196,0.87823890,1.57142446,955,1445,2585,562,881,1707,0.34165929,0.53569340,1.03787750,0.30353607,0.42778358,0.56741692
1081,0,USAlabamaLee,Alabama,Lee,2021-01-06 05:26:08.324573,2020-10-18 00:00:00.000000,0.58061078,0.86510936,1.56494780,955,1423,2574,558,874,1682,0.33935034,0.53129860,1.02280577,0.31174643,0.44666448,0.57277291
1081,0,USAlabamaLee,Alabama,Lee,2021-01-06 05:26:08.324573,2020-10-19 00:00:00.000000,0.58228020,0.87015385,1.56308578,958,1431,2571,557,871,1682,0.33877996,0.52990684,1.02265389,0.31566103,0.45445032,0.60874045
1081,0,USAlabamaLee,Alabama,Lee,2021-01-06 05:26:08.324573,2020-10-20 00:00:00.000000,0.57588666,0.87458571,1.56023327,947,1439,2567,558,877,1681,0.33948428,0.53300909,1.02213357,0.32026389,0.46208849,0.60845929
1081,0,USAlabamaLee,Alabama,Lee,2021-01-06 05:26:08.324573,2020-10-21 00:00:00.000000,0.57153756,0.87846206,1.55832544,940,1445,2564,556,878,1680,0.33838877,0.53417343,1.02105897,0.35117365,0.47692848,0.60749836
1081,0,USAlabamaLee,Alabama,Lee,2021-01-06 05:26:08.324573,2020-10-22 00:00:00.000000,0.56967284,0.88309441,1.55962050,937,1453,2566,554,883,1678,0.33705938,0.53719393,1.01990967,0.38059520,0.48812804,0.63033293
1081,0,USAlabamaLee,Alabama,Lee,2021-01-06 05:26:08.324573,2020-10-23 00:00:00.000000,0.57098601,0.89124627,1.56471129,939,1466,2574,552,893,1677,0.33556759,0.54304704,1.01957366,0.39197230,0.50285246,0.64128271
1081,0,USAlabamaLee,Alabama,Lee,2021-01-06 05:26:08.324573,2020-10-24 00:00:00.000000,0.57359777,0.90548417,1.58724025,943,1489,2611,548,907,1679,0.33318973,0.55131853,1.02073328,0.38798510,0.51271348,0.66927405
1081,0,USAlabamaLee,Alabama,Lee,2021-01-06 05:26:08.324573,2020-10-25 00:00:00.000000,0.58206702,0.92607604,1.64113614,957,1523,2700,547,920,1684,0.33267457,0.55951357,1.02360946,0.39009340,0.52692586,0.67538849
1081,0,USAlabamaLee,Alabama,Lee,2021-01-06 05:26:08.324573,2020-10-26 00:00:00.000000,0.59313030,0.94735149,1.69937963,975,1558,2796,552,932,1700,0.33572411,0.56698545,1.03353486,0.38959365,0.54647885,0.71517566
1081,0,USAlabamaLee,Alabama,Lee,2021-01-06 05:26:08.324573,2020-10-27 00:00:00.000000,0.60537903,0.97206393,1.75970988,996,1599,2895,561,947,1759,0.34107092,0.57578288,1.06923702,0.38970704,0.55636474,0.75533608
1081,0,USAlabamaLee,Alabama,Lee,2021-01-06 05:26:08.324573,2020-10-28 00:00:00.000000,0.61834561,0.99448288,1.82178029,1017,1636,2997,572,968,1821,0.34764015,0.58847003,1.10677767,0.39025287,0.56094643,0.76688762
1081,0,USAlabamaLee,Alabama,Lee,2021-01-06 05:26:08.324573,2020-10-29 00:00:00.000000,0.63185318,1.01455574,1.86539836,1039,1669,3069,583,984,1885,0.35484851,0.59809748,1.14575056,0.39255163,0.56673971,0.75733677
1081,0,USAlabamaLee,Alabama,Lee,2021-01-06 05:26:08.324573,2020-10-30 00:00:00.000000,0.64594954,1.04112127,1.83620239,1062,1713,3021,596,1003,1950,0.36245471,0.60989449,1.18569612,0.40316581,0.57459866,0.75712405
1081,0,USAlabamaLee,Alabama,Lee,2021-01-06 05:26:08.324573,2020-10-31 00:00:00.000000,0.66099430,1.07093154,1.80886718,1087,1762,2976,609,1028,1947,0.37041233,0.62527559,1.18330336,0.41867286,0.57410362,0.73500117
1081,0,USAlabamaLee,Alabama,Lee,2021-01-06 05:26:08.324573,2020-11-01 00:00:00.000000,0.67792312,1.10636390,1.85411684,1115,1820,3050,623,1064,1955,0.37884997,0.64695682,1.18859388,0.44401136,0.58550609,0.73759592
1081,0,USAlabamaLee,Alabama,Lee,2021-01-06 05:26:08.324573,2020-11-02 00:00:00.000000,0.69831544,1.14396449,1.92560038,1149,1882,3168,638,1089,2066,0.38817043,0.66222611,1.25599487,0.46949819,0.58982570,0.74050756
1081,0,USAlabamaLee,Alabama,Lee,2021-01-06 05:26:08.324573,2020-11-03 00:00:00.000000,0.72426923,1.18822431,1.98657076,1191,1955,3268,656,1118,2156,0.39911342,0.67964684,1.31081977,0.46528087,0.59782854,0.74207535
1081,0,USAlabamaLee,Alabama,Lee,2021-01-06 05:26:08.324573,2020-11-04 00:00:00.000000,0.75401768,1.22229062,2.04441620,1240,2011,3363,679,1152,2231,0.41272988,0.70026939,1.35609244,0.47127029,0.60378481,0.74655016
1081,0,USAlabamaLee,Alabama,Lee,2021-01-06 05:26:08.324573,2020-11-05 00:00:00.000000,0.77840483,1.26049935,2.10068185,1280,2074,3456,706,1191,2298,0.42960807,0.72403192,1.39708577,0.47094254,0.60422917,0.76406447
1081,0,USAlabamaLee,Alabama,Lee,2021-01-06 05:26:08.324573,2020-11-06 00:00:00.000000,0.80698089,1.30559056,2.15568792,1327,2148,3547,739,1234,2363,0.44949699,0.75020044,1.43633794,0.47069362,0.60617717,0.77786046
1081,0,USAlabamaLee,Alabama,Lee,2021-01-06 05:26:08.324573,2020-11-07 00:00:00.000000,0.83868923,1.35546320,2.20988467,1379,2230,3636,769,1274,2426,0.46794426,0.77428347,1.47461265,0.47076781,0.61197662,0.78915573
1081,0,USAlabamaLee,Alabama,Lee,2021-01-06 05:26:08.324573,2020-11-08 00:00:00.000000,0.85641221,1.39810551,2.26361725,1409,2300,3724,799,1309,2488,0.48604186,0.79558554,1.51224511,0.48583174,0.61505656,0.79451475
1081,0,USAlabamaLee,Alabama,Lee,2021-01-06 05:26:08.324573,2020-11-09 00:00:00.000000,0.87837333,1.44890846,2.31832339,1445,2384,3814,826,1339,2549,0.50217761,0.81377934,1.54947712,0.48373007,0.62644340,0.80049445
1081,0,USAlabamaLee,Alabama,Lee,2021-01-06 05:26:08.324573,2020-11-10 00:00:00.000000,0.89928908,1.50656985,2.37230861,1479,2478,3903,846,1380,2611,0.51419993,0.83920533,1.58706091,0.48303968,0.62675257,0.80037592
1081,0,USAlabamaLee,Alabama,Lee,2021-01-06 05:26:08.324573,2020-11-11 00:00:00.000000,0.93491973,1.56692570,2.42528431,1538,2578,3990,883,1450,2672,0.53671967,0.88139761,1.62446416,0.48252521,0.62740666,0.79874259
1081,0,USAlabamaLee,Alabama,Lee,2021-01-06 05:26:08.324573,2020-11-12 00:00:00.000000,0.96796259,1.62265773,2.47658156,1592,2669,4075,903,1501,2733,0.54918083,0.91248752,1.66129553,0.46699302,0.62037325,0.79463027
1081,0,USAlabamaLee,Alabama,Lee,2021-01-06 05:26:08.324573,2020-11-13 00:00:00.000000,1.00205713,1.67084721,2.52539879,1648,2749,4155,927,1544,2792,0.56342927,0.93883246,1.69712372,0.46638486,0.61219071,0.79180892
1081,0,USAlabamaLee,Alabama,Lee,2021-01-06 05:26:08.324573,2020-11-14 00:00:00.000000,1.03662275,1.71249082,2.57274708,1705,2817,4233,959,1601,2848,0.58310002,0.97301654,1.73142262,0.44993549,0.60329144,0.78982933
1081,0,USAlabamaLee,Alabama,Lee,2021-01-06 05:26:08.324573,2020-11-15 00:00:00.000000,1.06130762,1.74630148,2.67907619,1746,2873,4408,992,1658,2901,0.60330571,1.00779273,1.76356621,0.44912342,0.58612771,0.78198012
1081,0,USAlabamaLee,Alabama,Lee,2021-01-06 05:26:08.324573,2020-11-16 00:00:00.000000,1.08338982,1.78018664,2.78586919,1782,2929,4583,1026,1732,2950,0.62366803,1.05306905,1.79291195,0.44892483,0.58258924,0.78527834
1081,0,USAlabamaLee,Alabama,Lee,2021-01-06 05:26:08.324573,2020-11-17 00:00:00.000000,1.10406900,1.80403534,2.89441962,1816,2968,4762,1057,1773,2991,0.64284180,1.07789816,1.81829553,0.43969770,0.57970337,0.78685874
1081,0,USAlabamaLee,Alabama,Lee,2021-01-06 05:26:08.324573,2020-11-18 00:00:00.000000,1.12351124,1.84679992,3.00410506,1848,3038,4943,1087,1792,3053,0.66101492,1.08916804,1.85567201,0.42720300,0.57523148,0.77808825
1081,0,USAlabamaLee,Alabama,Lee,2021-01-06 05:26:08.324573,2020-11-19 00:00:00.000000,1.14191048,1.88455170,3.11377130,1878,3100,5123,1115,1815,3105,0.67811436,1.10357379,1.88754356,0.42387700,0.57362866,0.77125615
1081,0,USAlabamaLee,Alabama,Lee,2021-01-06 05:26:08.324573,2020-11-20 00:00:00.000000,1.15954800,1.90456900,3.22208269,1907,3133,5301,1142,1858,3136,0.69410320,1.12953492,1.90604771,0.42818264,0.57654874,0.76812637
1081,0,USAlabamaLee,Alabama,Lee,2021-01-06 05:26:08.324573,2020-11-21 00:00:00.000000,1.17678382,1.96075211,3.32779695,1936,3226,5475,1159,1928,3223,0.70483848,1.17196886,1.95910962,0.43710142,0.56914655,0.77007357
1081,0,USAlabamaLee,Alabama,Lee,2021-01-06 05:26:08.324573,2020-11-22 00:00:00.000000,1.20597402,1.99170835,3.40571857,1984,3277,5603,1176,1921,3335,0.71531174,1.16784686,2.02725079,0.43915419,0.57242265,0.77945008
1081,0,USAlabamaLee,Alabama,Lee,2021-01-06 05:26:08.324573,2020-11-23 00:00:00.000000,1.23992190,2.02772696,3.44486932,2040,3336,5668,1194,1949,3444,0.72579189,1.18489915,2.09322915,0.43375016,0.57302199,0.78310572
1081,0,USAlabamaLee,Alabama,Lee,2021-01-06 05:26:08.324573,2020-11-24 00:00:00.000000,1.27596173,2.07393779,3.48340045,2099,3412,5731,1216,2024,3546,0.73943314,1.23031504,2.15542922,0.42943078,0.58205589,0.78406124
1081,0,USAlabamaLee,Alabama,Lee,2021-01-06 05:26:08.324573,2020-11-25 00:00:00.000000,1.31436611,2.11117264,3.52110520,2162,3473,5793,1251,2060,3640,0.76075429,1.25253311,2.21225177,0.42882617,0.59780881,0.79037780
1081,0,USAlabamaLee,Alabama,Lee,2021-01-06 05:26:08.324573,2020-11-26 00:00:00.000000,1.34679089,2.14069481,3.56835494,2216,3522,5871,1276,2097,3723,0.77597823,1.27468606,2.26284526,0.44411434,0.60694996,0.78501246
1081,0,USAlabamaLee,Alabama,Lee,2021-01-06 05:26:08.324573,2020-11-27 00:00:00.000000,1.37906188,2.17778556,3.65837253,2269,3583,6019,1300,2156,3796,0.79032074,1.31061275,2.30738929,0.47552557,0.61085321,0.78370793
1081,0,USAlabamaLee,Alabama,Lee,2021-01-06 05:26:08.324573,2020-11-28 00:00:00.000000,1.42457879,2.23399835,3.74540338,2344,3675,6162,1329,2196,3863,0.80772268,1.33484341,2.34774501,0.47842209,0.61289125,0.82593739
1081,0,USAlabamaLee,Alabama,Lee,2021-01-06 05:26:08.324573,2020-11-29 00:00:00.000000,1.47104103,2.30899035,3.82913690,2420,3799,6300,1367,2266,3937,0.83125334,1.37760551,2.39318233,0.48307970,0.62571242,0.86391823
1081,0,USAlabamaLee,Alabama,Lee,2021-01-06 05:26:08.324573,2020-11-30 00:00:00.000000,1.50297752,2.36916661,3.90690807,2473,3898,6428,1421,2346,4051,0.86416885,1.42602472,2.46244173,0.49057461,0.63140073,0.89341748
1081,0,USAlabamaLee,Alabama,Lee,2021-01-06 05:26:08.324573,2020-12-01 00:00:00.000000,1.53434168,2.44568742,3.98185120,2524,4024,6551,1477,2424,4184,0.89770892,1.47355195,2.54331037,0.50055503,0.64341656,0.90197708
1081,0,USAlabamaLee,Alabama,Lee,2021-01-06 05:26:08.324573,2020-12-02 00:00:00.000000,1.56553569,2.53700106,4.05454943,2575,4174,6671,1508,2483,4264,0.91658175,1.50904192,2.59200936,0.51450514,0.65334528,0.91214398
1081,0,USAlabamaLee,Alabama,Lee,2021-01-06 05:26:08.324573,2020-12-03 00:00:00.000000,1.59676570,2.65090084,4.13107664,2627,4361,6797,1538,2525,4343,0.93531539,1.53469225,2.63981669,0.53818679,0.66107836,0.91571740
1081,0,USAlabamaLee,Alabama,Lee,2021-01-06 05:26:08.324573,2020-12-04 00:00:00.000000,1.62804610,2.74984924,4.24050671,2678,4524,6977,1560,2599,4420,0.94808836,1.57976176,2.68659669,0.54014097,0.66301639,0.95626754
1081,0,USAlabamaLee,Alabama,Lee,2021-01-06 05:26:08.324573,2020-12-05 00:00:00.000000,1.64837938,2.83993843,4.34557089,2712,4672,7150,1577,2707,4495,0.95880768,1.64575002,2.73223259,0.54776620,0.66061928,0.96986971
1081,0,USAlabamaLee,Alabama,Lee,2021-01-06 05:26:08.324573,2020-12-06 00:00:00.000000,1.68249383,2.92547044,4.49235370,2768,4813,7391,1618,2777,4677,0.98352205,1.68778148,2.84260325,0.54879694,0.66731113,1.00558096
1081,0,USAlabamaLee,Alabama,Lee,2021-01-06 05:26:08.324573,2020-12-07 00:00:00.000000,1.72134455,3.00806798,4.64374918,2832,4949,7640,1662,2890,4873,1.01050908,1.75644543,2.96204548,0.53447806,0.66949040,1.01766082
1081,0,USAlabamaLee,Alabama,Lee,2021-01-06 05:26:08.324573,2020-12-08 00:00:00.000000,1.79087639,3.09341416,4.79668974,2946,5089,7892,1710,2985,5070,1.03945286,1.81424247,3.08163802,0.52589105,0.67500814,1.02178523
1081,0,USAlabamaLee,Alabama,Lee,2021-01-06 05:26:08.324573,2020-12-09 00:00:00.000000,1.89093083,3.17965206,4.97075410,3111,5231,8178,1765,3069,5201,1.07322924,1.86525100,3.16148134,0.52000314,0.67546858,1.02338924
1081,0,USAlabamaLee,Alabama,Lee,2021-01-06 05:26:08.324573,2020-12-10 00:00:00.000000,1.93820709,3.25940303,5.14165403,3189,5363,8460,1823,3147,5321,1.10839344,1.91318241,3.23407338,0.52475523,0.67385959,1.02567540
1081,0,USAlabamaLee,Alabama,Lee,2021-01-06 05:26:08.324573,2020-12-11 00:00:00.000000,1.96922896,3.32286256,5.30832131,3240,5467,8734,1917,3232,5443,1.16537197,1.96459702,3.30807780,0.50952981,0.66165804,1.02865938
1081,0,USAlabamaLee,Alabama,Lee,2021-01-06 05:26:08.324573,2020-12-12 00:00:00.000000,2.00119020,3.38491597,5.46966286,3292,5569,8999,2005,3346,5574,1.21867905,2.03353504,3.38761476,0.50511585,0.67384103,1.08712816
1081,0,USAlabamaLee,Alabama,Lee,2021-01-06 05:26:08.324573,2020-12-13 00:00:00.000000,2.06161653,3.46220525,5.62457247,3392,5696,9254,2032,3450,5733,1.23498010,2.09692022,3.48437045,0.50262475,0.67278325,1.15038664
1081,0,USAlabamaLee,Alabama,Lee,2021-01-06 05:26:08.324573,2020-12-14 00:00:00.000000,2.12309923,3.53220106,5.77180362,3493,5811,9497,2062,3543,5886,1.25348545,2.15357736,3.57752785,0.48531119,0.66296282,1.18106205
1081,0,USAlabamaLee,Alabama,Lee,2021-01-06 05:26:08.324573,2020-12-15 00:00:00.000000,2.18562282,3.58762520,5.89730589,3596,5903,9703,2122,3616,6033,1.28973628,2.19790764,3.66669331,0.48009862,0.66406041,1.14934773
1081,0,USAlabamaLee,Alabama,Lee,2021-01-06 05:26:08.324573,2020-12-16 00:00:00.000000,2.24924402,3.64928986,5.99974614,3700,6004,9872,2154,3664,6172,1.30960235,2.22698927,3.75113578,0.49003575,0.65406036,1.13078514
1081,0,USAlabamaLee,Alabama,Lee,2021-01-06 05:26:08.324573,2020-12-17 00:00:00.000000,2.31350316,3.70600258,6.06913491,3806,6097,9986,2184,3717,6293,1.32740377,2.25899864,3.82514718,0.50130099,0.65107612,1.14110009
1081,0,USAlabamaLee,Alabama,Lee,2021-01-06 05:26:08.324573,2020-12-18 00:00:00.000000,2.37038662,3.76632030,6.11655428,3900,6197,10064,2211,3732,6388,1.34403364,2.26865522,3.88232874,0.49336305,0.65029709,1.15305077
1081,0,USAlabamaLee,Alabama,Lee,2021-01-06 05:26:08.324573,2020-12-19 00:00:00.000000,2.39986065,3.80722906,6.14816564,3948,6264,10116,2238,3796,6459,1.36039996,2.30744031,3.92554617,0.49838623,0.64309827,1.17944557
1081,0,USAlabamaLee,Alabama,Lee,2021-01-06 05:26:08.324573,2020-12-20 00:00:00.000000,2.43119411,3.84964255,6.19071590,4000,6334,10186,2266,3841,6590,1.37729913,2.33436285,4.00516516,0.48358404,0.63987716,1.17842035
1081,0,USAlabamaLee,Alabama,Lee,2021-01-06 05:26:08.324573,2020-12-21 00:00:00.000000,2.46304922,3.89936219,6.24987159,4052,6416,10283,2295,3893,6722,1.39503975,2.36639863,4.08543371,0.47315850,0.63638442,1.19518489
1081,0,USAlabamaLee,Alabama,Lee,2021-01-06 05:26:08.324573,2020-12-22 00:00:00.000000,2.50071566,3.95248893,6.29772505,4114,6503,10362,2355,3954,6853,1.43132896,2.40334835,4.16519435,0.46806303,0.64314444,1.22916483
1081,0,USAlabamaLee,Alabama,Lee,2021-01-06 05:26:08.324573,2020-12-23 00:00:00.000000,2.56020769,4.01067756,6.33388357,4212,6599,10421,2403,4018,6981,1.46096299,2.44219627,4.24315654,0.46708948,0.64569713,1.24051273
1081,0,USAlabamaLee,Alabama,Lee,2021-01-06 05:26:08.324573,2020-12-24 00:00:00.000000,2.60114877,4.07420540,6.37633743,4279,6703,10491,2428,4024,7105,1.47571967,2.44582873,4.31813861,0.47135562,0.64576275,1.23514339
1081,0,USAlabamaLee,Alabama,Lee,2021-01-06 05:26:08.324573,2020-12-25 00:00:00.000000,2.65019999,4.09654906,6.46521799,4360,6740,10637,2460,4083,7222,1.49548153,2.48193038,4.38917364,0.47223086,0.65967698,1.21863687
1081,0,USAlabamaLee,Alabama,Lee,2021-01-06 05:26:08.324573,2020-12-26 00:00:00.000000,2.71583099,4.13456551,6.54500901,4468,6803,10769,2516,4114,7331,1.52941283,2.50041130,4.45539984,0.47017383,0.65593823,1.20988349
1081,0,USAlabamaLee,Alabama,Lee,2021-01-06 05:26:08.324573,2020-12-27 00:00:00.000000,2.80438750,4.15408342,6.50341486,4614,6835,10700,2560,4168,7381,1.55596490,2.53309393,4.48623920,0.46022458,0.66731320,1.29715630
1081,0,USAlabamaLee,Alabama,Lee,2021-01-06 05:26:08.324573,2020-12-28 00:00:00.000000,2.84679573,4.24406619,6.47500964,4684,6983,10654,2643,4178,7321,1.60675692,2.53969936,4.44945587,0.45347996,0.67607448,1.43673650
1081,0,USAlabamaLee,Alabama,Lee,2021-01-06 05:26:08.324573,2020-12-29 00:00:00.000000,2.82818588,4.26409849,6.55905189,4653,7016,10792,2735,4188,7234,1.66243950,2.54534109,4.39665146,0.45389521,0.67970692,1.50596606
1081,0,USAlabamaLee,Alabama,Lee,2021-01-06 05:26:08.324573,2020-12-30 00:00:00.000000,2.85480770,4.30159615,6.63467441,4697,7077,10916,2758,4157,7128,1.67670621,2.52690075,4.33231410,0.45407860,0.68522920,1.52239737
1081,0,USAlabamaLee,Alabama,Lee,2021-01-06 05:26:08.324573,2020-12-31 00:00:00.000000,2.78427361,4.30445400,6.70384056,4581,7082,11030,2738,4149,7169,1.66430679,2.52209266,4.35722897,0.45419205,0.71116861,1.52528960
1081,0,USAlabamaLee,Alabama,Lee,2021-01-06 05:26:08.324573,2021-01-01 00:00:00.000000,2.72336166,4.29780569,6.75899803,4481,7071,11121,2668,4201,7248,1.62206284,2.55336674,4.40510459,0.45429234,0.67930615,1.52468397
1081,0,USAlabamaLee,Alabama,Lee,2021-01-06 05:26:08.324573,2021-01-02 00:00:00.000000,2.62695932,4.34884351,6.79930883,4322,7155,11187,2582,4224,7312,1.56961852,2.56740374,4.44413435,0.44306121,0.69935555,1.52025334
1081,0,USAlabamaLee,Alabama,Lee,2021-01-06 05:26:08.324573,2021-01-03 00:00:00.000000,2.52351222,4.35397170,6.82457531,4152,7164,11229,2511,4237,7361,1.52653993,2.57510858,4.47398812,0.45016109,0.70328709,1.51408214
1081,0,USAlabamaLee,Alabama,Lee,2021-01-06 05:26:08.324573,2021-01-04 00:00:00.000000,2.43113247,4.31984644,6.83424647,4000,7107,11245,2436,4247,7394,1.48091566,2.58136013,4.49388148,0.42374441,0.70450320,1.51195155
1081,0,USAlabamaLee,Alabama,Lee,2021-01-06 05:26:08.324573,2021-01-05 00:00:00.000000,2.34243535,4.35523105,6.78988568,3854,7166,11172,2356,4230,7347,1.43233816,2.57132454,4.46525269,0.40910822,0.70715463,1.50874914
1081,0,USAlabamaLee,Alabama,Lee,2021-01-06 05:26:08.324573,2021-01-06 00:00:00.000000,2.25697219,4.35795895,6.64438503,3713,7170,10932,2277,4229,7217,1.38417851,2.57026768,4.38666144,0.40517689,0.70720264,1.50676897
1081,0,USAlabamaLee,Alabama,Lee,2021-01-06 05:26:08.324573,2021-01-07 00:00:00.000000,2.17436058,4.35796687,6.49288509,3577,7170,10683,2199,4220,7078,1.33672195,2.56487773,4.30188367,0.40415821,0.70726747,1.50591964
1081,0,USAlabamaLee,Alabama,Lee,2021-01-06 05:26:08.324573,2021-01-08 00:00:00.000000,2.09433749,4.32511385,6.55417186,3446,7116,10784,2122,4192,6929,1.29013710,2.54826590,4.21151243,0.40389582,0.70725314,1.50558758
1081,0,USAlabamaLee,Alabama,Lee,2021-01-06 05:26:08.324573,2021-01-09 00:00:00.000000,2.01673745,4.33773708,6.60309468,3318,7137,10864,2033,4284,6977,1.23581038,2.60377312,4.24039799,0.40310264,0.70724032,1.50546195
1081,0,USAlabamaLee,Alabama,Lee,2021-01-06 05:26:08.324573,2021-01-10 00:00:00.000000,1.94145913,4.25061575,6.60406241,3194,6994,10866,1939,4282,7039,1.17845906,2.60248008,4.27816773,0.40123014,0.70723386,1.50541497
1081,0,USAlabamaLee,Alabama,Lee,2021-01-06 05:26:08.324573,2021-01-11 00:00:00.000000,1.86843875,4.18451449,6.66981593,3074,6885,10974,1852,4300,7088,1.12577065,2.61346497,4.30805769,0.40003849,0.70723105,1.50539748
1081,0,USAlabamaLee,Alabama,Lee,2021-01-06 05:26:08.324573,2021-01-12 00:00:00.000000,1.79763246,4.13252321,6.68600046,2957,6799,11001,1783,4237,7072,1.08365710,2.57524178,4.29843559,0.39928814,0.70722993,1.50539098
1081,0,USAlabamaLee,Alabama,Lee,2021-01-06 05:26:08.324573,2021-01-13 00:00:00.000000,1.72900573,4.07416673,6.70880377,2844,6703,11038,1715,4163,7150,1.04281349,2.53015152,4.34599747,0.39881883,0.70722953,1.50538856
1081,0,USAlabamaLee,Alabama,Lee,2021-01-06 05:26:08.324573,2021-01-14 00:00:00.000000,1.66252739,4.02439661,6.77862377,2735,6621,11153,1650,4173,7165,1.00321648,2.53618429,4.35492456,0.39852652,0.70722942,1.50538767
1081,0,USAlabamaLee,Alabama,Lee,2021-01-06 05:26:08.324573,2021-01-15 00:00:00.000000,1.59816647,3.95945783,6.96959194,2629,6514,11467,1587,4171,7166,0.96484645,2.53548309,4.35557150,0.39834493,0.70722941,1.50538733
1081,0,USAlabamaLee,Alabama,Lee,2021-01-06 05:26:08.324573,2021-01-16 00:00:00.000000,1.53589070,3.89369228,6.95067011,2527,6406,11436,1526,4113,7216,0.92768508,2.49967639,4.38586369,0.39823231,0.70722942,1.50538721
1081,0,USAlabamaLee,Alabama,Lee,2021-01-06 05:26:08.324573,2021-01-17 00:00:00.000000,1.47566583,3.83751062,6.94876449,2428,6314,11433,1467,4007,7251,0.89171398,2.43552330,4.40731311,0.39816252,0.70722945,1.50538716
