FIPS,HR_UID,nameid,province,region,analysisTime,dates,pointprevalence_025,pointprevalence_50,pointprevalence_975,pointinfections_025,pointinfections_50,pointinfections_975,pointinfectious_025,pointinfectious_50,pointinfectious_975,pointinfectiousprevalence_05,pointinfectiousprevalence_50,pointinfectiousprevalence_95,infectrate_025,infectrate_50,infectrate_975
13031,0,USGeorgiaBulloch,Georgia,Bulloch,2021-01-06 02:18:01.170040,2020-03-09 00:00:00.000000,0.00122022,0.00434107,0.01397090,0,3,11,0,1,6,0.00067788,0.00243682,0.00783044,0.34925541,0.48365655,0.61465352
13031,0,USGeorgiaBulloch,Georgia,Bulloch,2021-01-06 02:18:01.170040,2020-03-10 00:00:00.000000,0.00127298,0.00433286,0.01524350,1,3,12,0,1,6,0.00069311,0.00238943,0.00856115,0.34848453,0.48359926,0.61465233
13031,0,USGeorgiaBulloch,Georgia,Bulloch,2021-01-06 02:18:01.170040,2020-03-11 00:00:00.000000,0.00140352,0.00444939,0.01648234,1,3,13,0,2,7,0.00075300,0.00257264,0.00932379,0.34713260,0.48347419,0.61464845
13031,0,USGeorgiaBulloch,Georgia,Bulloch,2021-01-06 02:18:01.170040,2020-03-12 00:00:00.000000,0.00150402,0.00472349,0.01778185,1,3,14,0,2,8,0.00086248,0.00274145,0.01008699,0.34479355,0.48201311,0.61463467
13031,0,USGeorgiaBulloch,Georgia,Bulloch,2021-01-06 02:18:01.170040,2020-03-13 00:00:00.000000,0.00159888,0.00502544,0.01916928,1,4,15,0,2,8,0.00095795,0.00283939,0.01089036,0.34083997,0.47878824,0.61458341
13031,0,USGeorgiaBulloch,Georgia,Bulloch,2021-01-06 02:18:01.170040,2020-03-14 00:00:00.000000,0.00169961,0.00528214,0.02064666,1,4,16,0,2,9,0.00101878,0.00304030,0.01174676,0.33441416,0.47768024,0.61438874
13031,0,USGeorgiaBulloch,Georgia,Bulloch,2021-01-06 02:18:01.170040,2020-03-15 00:00:00.000000,0.00180665,0.00554429,0.02217717,1,4,17,0,2,10,0.00108326,0.00333900,0.01265874,0.33042252,0.47474652,0.61364459
13031,0,USGeorgiaBulloch,Georgia,Bulloch,2021-01-06 02:18:01.170040,2020-03-16 00:00:00.000000,0.00292572,0.00783998,0.02614072,2,6,20,0,2,10,0.00115167,0.00368949,0.01361019,0.32517741,0.46371058,0.61079228
13031,0,USGeorgiaBulloch,Georgia,Bulloch,2021-01-06 02:18:01.170040,2020-03-17 00:00:00.000000,0.00385175,0.01031690,0.02967579,3,8,23,1,3,12,0.00185040,0.00473638,0.01590094,0.29970063,0.45944400,0.61023495
13031,0,USGeorgiaBulloch,Georgia,Bulloch,2021-01-06 02:18:01.170040,2020-03-18 00:00:00.000000,0.00501015,0.01282203,0.03473908,3,10,27,2,5,15,0.00259058,0.00632600,0.01901535,0.27425859,0.44831539,0.60946092
13031,0,USGeorgiaBulloch,Georgia,Bulloch,2021-01-06 02:18:01.170040,2020-03-19 00:00:00.000000,0.00592427,0.01437674,0.03973381,4,11,31,2,6,17,0.00315270,0.00803236,0.02233327,0.24512108,0.43605029,0.59104155
13031,0,USGeorgiaBulloch,Georgia,Bulloch,2021-01-06 02:18:01.170040,2020-03-20 00:00:00.000000,0.00685911,0.01623454,0.04416117,5,12,35,3,7,20,0.00377439,0.00947717,0.02563175,0.22750715,0.40258058,0.56788310
13031,0,USGeorgiaBulloch,Georgia,Bulloch,2021-01-06 02:18:01.170040,2020-03-21 00:00:00.000000,0.00781207,0.01932840,0.04775158,6,15,38,3,8,22,0.00433520,0.01087108,0.02841636,0.21499857,0.38691131,0.56291168
13031,0,USGeorgiaBulloch,Georgia,Bulloch,2021-01-06 02:18:01.170040,2020-03-22 00:00:00.000000,0.00877608,0.02184356,0.05061946,6,17,40,3,9,24,0.00494781,0.01225167,0.03072053,0.20859127,0.37329782,0.55091945
13031,0,USGeorgiaBulloch,Georgia,Bulloch,2021-01-06 02:18:01.170040,2020-03-23 00:00:00.000000,0.01069218,0.02428966,0.05339016,8,19,42,4,11,26,0.00557062,0.01421478,0.03274646,0.20534659,0.34939675,0.49046282
13031,0,USGeorgiaBulloch,Georgia,Bulloch,2021-01-06 02:18:01.170040,2020-03-24 00:00:00.000000,0.01207815,0.02556825,0.05609672,9,20,44,5,12,26,0.00638050,0.01549178,0.03379116,0.20360661,0.32617442,0.47808611
13031,0,USGeorgiaBulloch,Georgia,Bulloch,2021-01-06 02:18:01.170040,2020-03-25 00:00:00.000000,0.01276680,0.02637672,0.05837655,10,20,46,6,13,27,0.00755041,0.01644758,0.03416732,0.20262046,0.31481620,0.45531543
13031,0,USGeorgiaBulloch,Georgia,Bulloch,2021-01-06 02:18:01.170040,2020-03-26 00:00:00.000000,0.01338873,0.02793615,0.06039610,10,22,48,6,13,28,0.00814319,0.01699222,0.03581694,0.19006290,0.29988763,0.43621632
13031,0,USGeorgiaBulloch,Georgia,Bulloch,2021-01-06 02:18:01.170040,2020-03-27 00:00:00.000000,0.01389876,0.02939874,0.06180588,11,23,49,6,14,29,0.00854190,0.01836577,0.03711075,0.18828695,0.29419170,0.41722037
13031,0,USGeorgiaBulloch,Georgia,Bulloch,2021-01-06 02:18:01.170040,2020-03-28 00:00:00.000000,0.01424985,0.03048192,0.06160628,11,24,49,7,15,30,0.00887010,0.01920124,0.03811110,0.18164273,0.28073711,0.39507936
13031,0,USGeorgiaBulloch,Georgia,Bulloch,2021-01-06 02:18:01.170040,2020-03-29 00:00:00.000000,0.01445206,0.03175754,0.06093736,11,25,48,7,16,30,0.00909566,0.02014315,0.03888492,0.17911276,0.27510236,0.39033015
13031,0,USGeorgiaBulloch,Georgia,Bulloch,2021-01-06 02:18:01.170040,2020-03-30 00:00:00.000000,0.01830922,0.03357131,0.06065027,14,26,48,7,16,31,0.00947289,0.02063723,0.03947626,0.17761930,0.26911350,0.36883111
13031,0,USGeorgiaBulloch,Georgia,Bulloch,2021-01-06 02:18:01.170040,2020-03-31 00:00:00.000000,0.01860886,0.03493665,0.06319528,14,27,50,8,17,32,0.01106998,0.02160736,0.04082961,0.17612763,0.26050045,0.36746258
13031,0,USGeorgiaBulloch,Georgia,Bulloch,2021-01-06 02:18:01.170040,2020-04-01 00:00:00.000000,0.01889260,0.03619550,0.06668920,15,28,53,9,17,32,0.01167057,0.02255384,0.04098726,0.17554742,0.25341557,0.36634299
13031,0,USGeorgiaBulloch,Georgia,Bulloch,2021-01-06 02:18:01.170040,2020-04-02 00:00:00.000000,0.01979572,0.03762913,0.06741517,15,29,53,9,18,33,0.01211043,0.02297724,0.04161021,0.16482314,0.24773806,0.35236709
13031,0,USGeorgiaBulloch,Georgia,Bulloch,2021-01-06 02:18:01.170040,2020-04-03 00:00:00.000000,0.02103788,0.03822042,0.06771506,16,30,53,10,18,35,0.01295352,0.02379415,0.04403684,0.14923504,0.24066375,0.34046015
13031,0,USGeorgiaBulloch,Georgia,Bulloch,2021-01-06 02:18:01.170040,2020-04-04 00:00:00.000000,0.02225941,0.03878119,0.06750231,17,30,53,10,19,35,0.01377016,0.02460881,0.04432348,0.13659100,0.23607641,0.32986632
13031,0,USGeorgiaBulloch,Georgia,Bulloch,2021-01-06 02:18:01.170040,2020-04-05 00:00:00.000000,0.02188843,0.03905616,0.06695622,17,31,53,11,19,35,0.01456952,0.02479201,0.04430977,0.12846400,0.22795010,0.32956843
13031,0,USGeorgiaBulloch,Georgia,Bulloch,2021-01-06 02:18:01.170040,2020-04-06 00:00:00.000000,0.02407781,0.03990487,0.06871004,19,31,54,11,19,36,0.01464946,0.02479775,0.04573502,0.12435078,0.21859504,0.32068383
13031,0,USGeorgiaBulloch,Georgia,Bulloch,2021-01-06 02:18:01.170040,2020-04-07 00:00:00.000000,0.02491214,0.03892543,0.07041383,19,30,56,11,20,37,0.01499076,0.02533625,0.04682589,0.12291674,0.21887217,0.31020168
13031,0,USGeorgiaBulloch,Georgia,Bulloch,2021-01-06 02:18:01.170040,2020-04-08 00:00:00.000000,0.02449961,0.04007649,0.07257612,19,31,57,12,20,37,0.01539243,0.02566223,0.04769885,0.12310753,0.21229923,0.31160693
13031,0,USGeorgiaBulloch,Georgia,Bulloch,2021-01-06 02:18:01.170040,2020-04-09 00:00:00.000000,0.02404169,0.04025008,0.07572295,19,32,60,12,20,38,0.01527366,0.02593312,0.04853036,0.12422078,0.20742943,0.31208922
13031,0,USGeorgiaBulloch,Georgia,Bulloch,2021-01-06 02:18:01.170040,2020-04-10 00:00:00.000000,0.02357042,0.04051754,0.07877516,18,32,62,11,21,39,0.01502707,0.02641832,0.04934208,0.11860199,0.20215707,0.30070345
13031,0,USGeorgiaBulloch,Georgia,Bulloch,2021-01-06 02:18:01.170040,2020-04-11 00:00:00.000000,0.02297699,0.04056639,0.08086315,18,32,64,11,21,40,0.01475818,0.02664246,0.05051217,0.11705878,0.20119586,0.28619824
13031,0,USGeorgiaBulloch,Georgia,Bulloch,2021-01-06 02:18:01.170040,2020-04-12 00:00:00.000000,0.02148809,0.04041386,0.08082481,17,32,64,11,21,40,0.01448473,0.02646821,0.05057480,0.11721904,0.19746372,0.27007936
13031,0,USGeorgiaBulloch,Georgia,Bulloch,2021-01-06 02:18:01.170040,2020-04-13 00:00:00.000000,0.02163048,0.04034793,0.07911712,17,32,62,11,21,41,0.01422220,0.02705193,0.05157863,0.11741051,0.19211802,0.26623965
13031,0,USGeorgiaBulloch,Georgia,Bulloch,2021-01-06 02:18:01.170040,2020-04-14 00:00:00.000000,0.02114986,0.04198387,0.07910457,16,33,62,11,21,41,0.01390465,0.02687384,0.05191361,0.11282835,0.18700336,0.26005840
13031,0,USGeorgiaBulloch,Georgia,Bulloch,2021-01-06 02:18:01.170040,2020-04-15 00:00:00.000000,0.02077053,0.04312014,0.07897799,16,34,62,10,21,41,0.01362563,0.02762261,0.05240689,0.10975290,0.18424779,0.26318821
13031,0,USGeorgiaBulloch,Georgia,Bulloch,2021-01-06 02:18:01.170040,2020-04-16 00:00:00.000000,0.02043948,0.04243284,0.07875346,16,33,62,10,22,42,0.01337973,0.02820613,0.05345690,0.10900399,0.18270730,0.26294520
13031,0,USGeorgiaBulloch,Georgia,Bulloch,2021-01-06 02:18:01.170040,2020-04-17 00:00:00.000000,0.02013722,0.04169331,0.07904189,16,33,62,10,22,43,0.01316162,0.02802007,0.05437474,0.10783442,0.18328488,0.26613614
13031,0,USGeorgiaBulloch,Georgia,Bulloch,2021-01-06 02:18:01.170040,2020-04-18 00:00:00.000000,0.01985278,0.04109936,0.07927704,15,32,63,10,22,42,0.01296209,0.02792010,0.05291886,0.10993450,0.18051485,0.27008739
13031,0,USGeorgiaBulloch,Georgia,Bulloch,2021-01-06 02:18:01.170040,2020-04-19 00:00:00.000000,0.01939629,0.04075727,0.08021142,15,32,63,10,21,43,0.01277515,0.02749099,0.05427081,0.10347301,0.18216365,0.27477529
13031,0,USGeorgiaBulloch,Georgia,Bulloch,2021-01-06 02:18:01.170040,2020-04-20 00:00:00.000000,0.01915803,0.04079053,0.07901141,15,32,62,10,21,42,0.01259366,0.02680497,0.05382523,0.09898942,0.17921386,0.27813662
13031,0,USGeorgiaBulloch,Georgia,Bulloch,2021-01-06 02:18:01.170040,2020-04-21 00:00:00.000000,0.01897456,0.04073090,0.07767306,15,32,61,9,21,42,0.01240893,0.02658116,0.05359515,0.09895735,0.17737032,0.27321331
13031,0,USGeorgiaBulloch,Georgia,Bulloch,2021-01-06 02:18:01.170040,2020-04-22 00:00:00.000000,0.01881387,0.04010684,0.07709098,14,31,61,9,20,42,0.01227733,0.02606258,0.05342112,0.10118506,0.17581040,0.27384967
13031,0,USGeorgiaBulloch,Georgia,Bulloch,2021-01-06 02:18:01.170040,2020-04-23 00:00:00.000000,0.01848183,0.03973698,0.07690559,14,31,61,9,21,42,0.01223851,0.02638347,0.05324442,0.10247432,0.17535116,0.27444231
13031,0,USGeorgiaBulloch,Georgia,Bulloch,2021-01-06 02:18:01.170040,2020-04-24 00:00:00.000000,0.01830312,0.03972438,0.07665787,14,31,61,9,20,42,0.01202723,0.02597675,0.05304848,0.10227778,0.17703217,0.27320972
13031,0,USGeorgiaBulloch,Georgia,Bulloch,2021-01-06 02:18:01.170040,2020-04-25 00:00:00.000000,0.01792987,0.03912752,0.07755998,14,31,61,9,20,41,0.01184001,0.02573295,0.05206205,0.10064684,0.17793463,0.26471137
13031,0,USGeorgiaBulloch,Georgia,Bulloch,2021-01-06 02:18:01.170040,2020-04-26 00:00:00.000000,0.01754181,0.03835467,0.07914646,13,30,63,9,20,40,0.01160668,0.02577448,0.05100822,0.10344674,0.17884253,0.26058031
13031,0,USGeorgiaBulloch,Georgia,Bulloch,2021-01-06 02:18:01.170040,2020-04-27 00:00:00.000000,0.01739416,0.03864861,0.07801887,13,30,62,9,20,40,0.01135264,0.02557376,0.05148702,0.10607922,0.17922380,0.25765544
13031,0,USGeorgiaBulloch,Georgia,Bulloch,2021-01-06 02:18:01.170040,2020-04-28 00:00:00.000000,0.01827964,0.03864423,0.07655705,14,30,60,8,19,40,0.01117896,0.02509728,0.05103644,0.10723485,0.17890815,0.26102399
13031,0,USGeorgiaBulloch,Georgia,Bulloch,2021-01-06 02:18:01.170040,2020-04-29 00:00:00.000000,0.01826760,0.03939066,0.07481130,14,31,59,9,20,39,0.01152085,0.02514547,0.05001965,0.10735352,0.17874372,0.26042606
13031,0,USGeorgiaBulloch,Georgia,Bulloch,2021-01-06 02:18:01.170040,2020-04-30 00:00:00.000000,0.01820672,0.04008525,0.07308181,14,31,58,9,19,39,0.01146861,0.02500702,0.04909435,0.11127635,0.17501046,0.26041377
13031,0,USGeorgiaBulloch,Georgia,Bulloch,2021-01-06 02:18:01.170040,2020-05-01 00:00:00.000000,0.01849818,0.03949883,0.07168774,14,31,57,9,20,38,0.01142581,0.02529864,0.04892634,0.11160040,0.17627395,0.26137122
13031,0,USGeorgiaBulloch,Georgia,Bulloch,2021-01-06 02:18:01.170040,2020-05-02 00:00:00.000000,0.01878973,0.03917436,0.07398338,14,31,58,9,20,38,0.01156194,0.02620495,0.04879541,0.11196427,0.17859221,0.26330618
13031,0,USGeorgiaBulloch,Georgia,Bulloch,2021-01-06 02:18:01.170040,2020-05-03 00:00:00.000000,0.01902735,0.03890678,0.07616599,15,30,60,9,20,38,0.01174624,0.02588479,0.04887407,0.11451315,0.17929448,0.26377236
13031,0,USGeorgiaBulloch,Georgia,Bulloch,2021-01-06 02:18:01.170040,2020-05-04 00:00:00.000000,0.01911132,0.03810604,0.07360955,15,30,58,9,20,40,0.01190113,0.02540353,0.05034467,0.11689836,0.17815735,0.26446764
13031,0,USGeorgiaBulloch,Georgia,Bulloch,2021-01-06 02:18:01.170040,2020-05-05 00:00:00.000000,0.01896545,0.03753018,0.07323155,15,29,58,9,19,39,0.01243484,0.02484050,0.04953912,0.11589290,0.18118051,0.26506328
13031,0,USGeorgiaBulloch,Georgia,Bulloch,2021-01-06 02:18:01.170040,2020-05-06 00:00:00.000000,0.01879939,0.03826120,0.07608739,14,30,60,9,19,38,0.01253530,0.02479986,0.04787422,0.11633647,0.18307844,0.26645976
13031,0,USGeorgiaBulloch,Georgia,Bulloch,2021-01-06 02:18:01.170040,2020-05-07 00:00:00.000000,0.01863963,0.03839186,0.07894384,14,30,62,9,19,39,0.01242535,0.02431545,0.04922182,0.11780634,0.18384579,0.26993067
13031,0,USGeorgiaBulloch,Georgia,Bulloch,2021-01-06 02:18:01.170040,2020-05-08 00:00:00.000000,0.01849985,0.03748894,0.07843329,14,29,62,9,19,40,0.01232035,0.02451423,0.05110011,0.11960756,0.18438308,0.27838694
13031,0,USGeorgiaBulloch,Georgia,Bulloch,2021-01-06 02:18:01.170040,2020-05-09 00:00:00.000000,0.01830605,0.03679927,0.08275877,14,29,65,9,19,41,0.01168546,0.02459021,0.05205118,0.12255374,0.18795410,0.28490121
13031,0,USGeorgiaBulloch,Georgia,Bulloch,2021-01-06 02:18:01.170040,2020-05-10 00:00:00.000000,0.01752606,0.03725747,0.08722083,13,29,69,8,19,41,0.01111093,0.02459333,0.05227342,0.12495504,0.19193811,0.28776933
13031,0,USGeorgiaBulloch,Georgia,Bulloch,2021-01-06 02:18:01.170040,2020-05-11 00:00:00.000000,0.01824406,0.03720120,0.08692395,14,29,69,8,19,44,0.01062399,0.02417083,0.05642994,0.13229085,0.19951278,0.28976619
13031,0,USGeorgiaBulloch,Georgia,Bulloch,2021-01-06 02:18:01.170040,2020-05-12 00:00:00.000000,0.01905884,0.03760846,0.08647561,15,29,68,8,19,45,0.01081024,0.02432113,0.05664490,0.13690213,0.20658221,0.29072698
13031,0,USGeorgiaBulloch,Georgia,Bulloch,2021-01-06 02:18:01.170040,2020-05-13 00:00:00.000000,0.02000338,0.03734993,0.08575988,15,29,68,8,19,44,0.01127564,0.02473507,0.05633917,0.14104391,0.20889569,0.29089019
13031,0,USGeorgiaBulloch,Georgia,Bulloch,2021-01-06 02:18:01.170040,2020-05-14 00:00:00.000000,0.02095398,0.03724938,0.08512708,16,29,67,10,19,44,0.01256984,0.02488786,0.05590855,0.14240498,0.21427243,0.30095694
13031,0,USGeorgiaBulloch,Georgia,Bulloch,2021-01-06 02:18:01.170040,2020-05-15 00:00:00.000000,0.02125736,0.03762239,0.08469097,16,29,67,10,20,44,0.01364746,0.02515044,0.05549484,0.13993954,0.22326754,0.30676886
13031,0,USGeorgiaBulloch,Georgia,Bulloch,2021-01-06 02:18:01.170040,2020-05-16 00:00:00.000000,0.02082098,0.03816175,0.08448233,16,30,67,11,20,43,0.01386798,0.02531170,0.05518978,0.13953755,0.23130636,0.31217702
13031,0,USGeorgiaBulloch,Georgia,Bulloch,2021-01-06 02:18:01.170040,2020-05-17 00:00:00.000000,0.02125969,0.03939029,0.08593097,16,31,68,10,20,44,0.01369209,0.02582448,0.05550753,0.14267576,0.23512959,0.31323441
13031,0,USGeorgiaBulloch,Georgia,Bulloch,2021-01-06 02:18:01.170040,2020-05-18 00:00:00.000000,0.02191904,0.04055794,0.08883406,17,32,70,11,20,47,0.01409345,0.02624298,0.05915805,0.15355314,0.24174921,0.32260149
13031,0,USGeorgiaBulloch,Georgia,Bulloch,2021-01-06 02:18:01.170040,2020-05-19 00:00:00.000000,0.02261023,0.04148621,0.09185165,17,33,73,11,21,48,0.01443829,0.02669649,0.06081639,0.16854820,0.24518164,0.33443399
13031,0,USGeorgiaBulloch,Georgia,Bulloch,2021-01-06 02:18:01.170040,2020-05-20 00:00:00.000000,0.02333329,0.04219641,0.09476399,18,33,75,11,21,49,0.01470502,0.02727443,0.06264276,0.18308066,0.25369807,0.34252761
13031,0,USGeorgiaBulloch,Georgia,Bulloch,2021-01-06 02:18:01.170040,2020-05-21 00:00:00.000000,0.02409455,0.04407083,0.09741340,19,35,77,11,22,51,0.01494354,0.02772579,0.06408508,0.19611972,0.25926932,0.35093382
13031,0,USGeorgiaBulloch,Georgia,Bulloch,2021-01-06 02:18:01.170040,2020-05-22 00:00:00.000000,0.02494549,0.04562659,0.09654572,19,36,76,12,22,50,0.01518480,0.02842579,0.06359804,0.19811834,0.27360431,0.37834867
13031,0,USGeorgiaBulloch,Georgia,Bulloch,2021-01-06 02:18:01.170040,2020-05-23 00:00:00.000000,0.02581542,0.04838148,0.09573529,20,38,76,12,23,50,0.01545592,0.02958307,0.06305420,0.19855458,0.28432708,0.41217277
13031,0,USGeorgiaBulloch,Georgia,Bulloch,2021-01-06 02:18:01.170040,2020-05-24 00:00:00.000000,0.02668673,0.05060243,0.09665812,21,40,76,12,24,49,0.01598746,0.03102356,0.06252693,0.20611259,0.29127623,0.42090952
13031,0,USGeorgiaBulloch,Georgia,Bulloch,2021-01-06 02:18:01.170040,2020-05-25 00:00:00.000000,0.02931517,0.05468790,0.09767902,23,43,77,13,26,49,0.01655134,0.03269673,0.06208297,0.21589294,0.29844859,0.42269618
13031,0,USGeorgiaBulloch,Georgia,Bulloch,2021-01-06 02:18:01.170040,2020-05-26 00:00:00.000000,0.03203462,0.05896804,0.10112241,25,46,80,14,28,51,0.01802416,0.03535605,0.06483082,0.23006946,0.30737300,0.43532302
13031,0,USGeorgiaBulloch,Georgia,Bulloch,2021-01-06 02:18:01.170040,2020-05-27 00:00:00.000000,0.03445634,0.06154325,0.10637644,27,48,84,15,30,54,0.01970109,0.03824444,0.06800871,0.23432707,0.31774479,0.45598841
13031,0,USGeorgiaBulloch,Georgia,Bulloch,2021-01-06 02:18:01.170040,2020-05-28 00:00:00.000000,0.03572195,0.06430060,0.11267612,28,51,89,17,31,56,0.02174930,0.03943413,0.07136320,0.24001665,0.33130078,0.45712047
13031,0,USGeorgiaBulloch,Georgia,Bulloch,2021-01-06 02:18:01.170040,2020-05-29 00:00:00.000000,0.03699687,0.06945799,0.11951324,29,55,95,19,33,59,0.02406871,0.04213483,0.07486680,0.24410237,0.34082534,0.45598422
13031,0,USGeorgiaBulloch,Georgia,Bulloch,2021-01-06 02:18:01.170040,2020-05-30 00:00:00.000000,0.03948904,0.07469218,0.12660265,31,59,100,19,35,62,0.02491351,0.04472367,0.07850566,0.25110764,0.35827041,0.46910165
13031,0,USGeorgiaBulloch,Georgia,Bulloch,2021-01-06 02:18:01.170040,2020-05-31 00:00:00.000000,0.04032584,0.08003801,0.13399463,32,63,106,20,38,65,0.02589920,0.04876352,0.08227696,0.27337570,0.38111072,0.50396663
13031,0,USGeorgiaBulloch,Georgia,Bulloch,2021-01-06 02:18:01.170040,2020-06-01 00:00:00.000000,0.04657591,0.08482556,0.13957868,37,67,111,21,41,67,0.02705171,0.05228392,0.08538218,0.27456971,0.39373293,0.53619878
13031,0,USGeorgiaBulloch,Georgia,Bulloch,2021-01-06 02:18:01.170040,2020-06-02 00:00:00.000000,0.05013643,0.09106325,0.14532994,39,72,115,23,44,71,0.02936503,0.05607965,0.09013307,0.27452543,0.41621978,0.55586111
13031,0,USGeorgiaBulloch,Georgia,Bulloch,2021-01-06 02:18:01.170040,2020-06-03 00:00:00.000000,0.05519769,0.09720071,0.15105439,43,77,120,25,47,77,0.03155270,0.05967271,0.09691480,0.27825076,0.43309170,0.57352799
13031,0,USGeorgiaBulloch,Georgia,Bulloch,2021-01-06 02:18:01.170040,2020-06-04 00:00:00.000000,0.06237698,0.10408750,0.16322272,49,82,129,26,50,82,0.03389591,0.06400566,0.10419199,0.29479007,0.44192402,0.60787342
13031,0,USGeorgiaBulloch,Georgia,Bulloch,2021-01-06 02:18:01.170040,2020-06-05 00:00:00.000000,0.06889696,0.11089726,0.17887662,54,88,142,29,54,89,0.03663375,0.06873672,0.11198525,0.31755634,0.45555223,0.65276726
13031,0,USGeorgiaBulloch,Georgia,Bulloch,2021-01-06 02:18:01.170040,2020-06-06 00:00:00.000000,0.07672262,0.11972001,0.19845141,61,95,157,33,58,95,0.04213341,0.07374685,0.12034690,0.33260326,0.47391630,0.67917574
13031,0,USGeorgiaBulloch,Georgia,Bulloch,2021-01-06 02:18:01.170040,2020-06-07 00:00:00.000000,0.08179935,0.13005252,0.22207502,65,103,176,38,63,103,0.04782512,0.07945542,0.12948343,0.34657387,0.50841271,0.68830555
13031,0,USGeorgiaBulloch,Georgia,Bulloch,2021-01-06 02:18:01.170040,2020-06-08 00:00:00.000000,0.08777913,0.14232707,0.24994432,69,113,198,40,70,111,0.05036105,0.08798715,0.14023515,0.35521368,0.52575553,0.69074090
13031,0,USGeorgiaBulloch,Georgia,Bulloch,2021-01-06 02:18:01.170040,2020-06-09 00:00:00.000000,0.09678867,0.15769481,0.28065782,77,125,223,43,76,122,0.05505202,0.09633756,0.15346452,0.37253029,0.53504772,0.69139056
13031,0,USGeorgiaBulloch,Georgia,Bulloch,2021-01-06 02:18:01.170040,2020-06-10 00:00:00.000000,0.10875920,0.17412538,0.30920117,86,138,246,49,82,134,0.06271577,0.10364962,0.16875600,0.38436818,0.54528205,0.69448880
13031,0,USGeorgiaBulloch,Georgia,Bulloch,2021-01-06 02:18:01.170040,2020-06-11 00:00:00.000000,0.12402352,0.19484473,0.34062599,98,155,271,54,90,147,0.06789169,0.11368438,0.18583566,0.41061968,0.55462769,0.73722879
13031,0,USGeorgiaBulloch,Georgia,Bulloch,2021-01-06 02:18:01.170040,2020-06-12 00:00:00.000000,0.14076251,0.21886496,0.37578909,112,174,299,61,100,162,0.07715860,0.12603292,0.20471400,0.44145779,0.56931945,0.75263897
13031,0,USGeorgiaBulloch,Georgia,Bulloch,2021-01-06 02:18:01.170040,2020-06-13 00:00:00.000000,0.15586682,0.24395851,0.41669362,124,194,331,69,112,179,0.08775245,0.14155770,0.22572939,0.46306716,0.58966886,0.74689477
13031,0,USGeorgiaBulloch,Georgia,Bulloch,2021-01-06 02:18:01.170040,2020-06-14 00:00:00.000000,0.17319771,0.27170719,0.46522551,137,216,370,79,125,198,0.09938297,0.15732022,0.24978413,0.48221793,0.60053936,0.73445317
13031,0,USGeorgiaBulloch,Georgia,Bulloch,2021-01-06 02:18:01.170040,2020-06-15 00:00:00.000000,0.19349494,0.30606779,0.51889100,154,243,413,88,138,221,0.11123885,0.17360677,0.27798949,0.49563664,0.61563080,0.73757318
13031,0,USGeorgiaBulloch,Georgia,Bulloch,2021-01-06 02:18:01.170040,2020-06-16 00:00:00.000000,0.21376936,0.33507381,0.57843856,170,266,460,99,154,246,0.12455218,0.19359311,0.30979852,0.50995721,0.61874546,0.73397106
13031,0,USGeorgiaBulloch,Georgia,Bulloch,2021-01-06 02:18:01.170040,2020-06-17 00:00:00.000000,0.23598234,0.36807670,0.64280559,187,293,511,111,170,274,0.13948040,0.21450038,0.34525579,0.51548890,0.62413665,0.75523322
13031,0,USGeorgiaBulloch,Georgia,Bulloch,2021-01-06 02:18:01.170040,2020-06-18 00:00:00.000000,0.26062339,0.41125543,0.71089313,207,327,565,124,189,305,0.15623921,0.23783800,0.38399183,0.51963023,0.63155131,0.75959845
13031,0,USGeorgiaBulloch,Georgia,Bulloch,2021-01-06 02:18:01.170040,2020-06-19 00:00:00.000000,0.29320131,0.46380719,0.78174218,233,369,622,139,211,338,0.17519067,0.26575379,0.42548416,0.51751850,0.62976022,0.77143167
13031,0,USGeorgiaBulloch,Georgia,Bulloch,2021-01-06 02:18:01.170040,2020-06-20 00:00:00.000000,0.33169861,0.50831635,0.85507249,264,404,680,156,236,373,0.19704478,0.29705407,0.46914730,0.50615084,0.63045137,0.78000102
13031,0,USGeorgiaBulloch,Georgia,Bulloch,2021-01-06 02:18:01.170040,2020-06-21 00:00:00.000000,0.37252212,0.56301996,0.93138945,296,448,741,172,263,409,0.21702802,0.33140970,0.51457380,0.49345345,0.62449441,0.78862326
13031,0,USGeorgiaBulloch,Georgia,Bulloch,2021-01-06 02:18:01.170040,2020-06-22 00:00:00.000000,0.40697003,0.62881126,1.01360032,323,500,806,188,293,453,0.23731442,0.36867594,0.56911287,0.48398164,0.61659664,0.77010876
13031,0,USGeorgiaBulloch,Georgia,Bulloch,2021-01-06 02:18:01.170040,2020-06-23 00:00:00.000000,0.44846895,0.69449744,1.10065266,357,552,876,210,325,509,0.26491168,0.40889675,0.63965834,0.47767216,0.60419552,0.73109745
13031,0,USGeorgiaBulloch,Georgia,Bulloch,2021-01-06 02:18:01.170040,2020-06-24 00:00:00.000000,0.49085296,0.76462944,1.16261165,390,608,925,226,360,568,0.28496436,0.45313372,0.71456411,0.47379034,0.58980500,0.70935764
13031,0,USGeorgiaBulloch,Georgia,Bulloch,2021-01-06 02:18:01.170040,2020-06-25 00:00:00.000000,0.53667074,0.82817455,1.25936969,427,659,1002,248,397,630,0.31190639,0.49888814,0.79216959,0.44227841,0.57495279,0.69714407
13031,0,USGeorgiaBulloch,Georgia,Bulloch,2021-01-06 02:18:01.170040,2020-06-26 00:00:00.000000,0.58596575,0.91614138,1.38630707,466,729,1103,271,431,672,0.34137166,0.54175130,0.84443127,0.41761200,0.55160240,0.68877573
13031,0,USGeorgiaBulloch,Georgia,Bulloch,2021-01-06 02:18:01.170040,2020-06-27 00:00:00.000000,0.63877361,1.00092327,1.51858727,508,796,1208,296,472,738,0.37281743,0.59412953,0.92785539,0.41403785,0.53875265,0.65293787
13031,0,USGeorgiaBulloch,Georgia,Bulloch,2021-01-06 02:18:01.170040,2020-06-28 00:00:00.000000,0.69512648,1.07239139,1.63339220,553,853,1300,323,507,811,0.40645824,0.63783495,1.01954916,0.40246639,0.50679701,0.62344730
13031,0,USGeorgiaBulloch,Georgia,Bulloch,2021-01-06 02:18:01.170040,2020-06-29 00:00:00.000000,0.75679381,1.14272330,1.72292164,602,909,1371,352,536,865,0.44236541,0.67367347,1.08711872,0.37620276,0.47351732,0.59515732
13031,0,USGeorgiaBulloch,Georgia,Bulloch,2021-01-06 02:18:01.170040,2020-06-30 00:00:00.000000,0.79447911,1.20135554,1.83061783,632,956,1457,373,573,914,0.46895376,0.72007606,1.14845294,0.37572986,0.45109121,0.56108942
13031,0,USGeorgiaBulloch,Georgia,Bulloch,2021-01-06 02:18:01.170040,2020-07-01 00:00:00.000000,0.81983590,1.27124335,1.93702324,652,1012,1542,387,605,966,0.48652364,0.76122391,1.21436535,0.35904206,0.43724591,0.55368050
13031,0,USGeorgiaBulloch,Georgia,Bulloch,2021-01-06 02:18:01.170040,2020-07-02 00:00:00.000000,0.84422768,1.31590186,2.02355981,672,1047,1610,403,634,1024,0.50726604,0.79642787,1.28694738,0.33146135,0.42034888,0.54257540
13031,0,USGeorgiaBulloch,Georgia,Bulloch,2021-01-06 02:18:01.170040,2020-07-03 00:00:00.000000,0.86774008,1.36013938,2.12732037,690,1082,1693,419,663,1079,0.52675064,0.83396945,1.35655996,0.31681349,0.39979734,0.51676866
13031,0,USGeorgiaBulloch,Georgia,Bulloch,2021-01-06 02:18:01.170040,2020-07-04 00:00:00.000000,0.89041123,1.39828958,2.20026517,708,1113,1751,427,686,1129,0.53712282,0.86280868,1.41928213,0.29711251,0.38096742,0.48772656
13031,0,USGeorgiaBulloch,Georgia,Bulloch,2021-01-06 02:18:01.170040,2020-07-05 00:00:00.000000,0.91224276,1.39088725,2.25783150,726,1107,1797,436,707,1171,0.54785786,0.88870116,1.47216587,0.27392162,0.36694036,0.46599101
13031,0,USGeorgiaBulloch,Georgia,Bulloch,2021-01-06 02:18:01.170040,2020-07-06 00:00:00.000000,0.92907759,1.42971265,2.31149955,739,1138,1840,447,719,1206,0.56173430,0.90341582,1.51520812,0.27046245,0.35628496,0.44983648
13031,0,USGeorgiaBulloch,Georgia,Bulloch,2021-01-06 02:18:01.170040,2020-07-07 00:00:00.000000,0.90853698,1.47780637,2.39022098,723,1176,1902,439,739,1234,0.55226926,0.92916287,1.55067492,0.26764412,0.34231789,0.44776043
13031,0,USGeorgiaBulloch,Georgia,Bulloch,2021-01-06 02:18:01.170040,2020-07-08 00:00:00.000000,0.88734457,1.48184583,2.44518359,706,1179,1946,430,757,1258,0.54031017,0.95157568,1.58132467,0.26521798,0.33735236,0.44127175
13031,0,USGeorgiaBulloch,Georgia,Bulloch,2021-01-06 02:18:01.170040,2020-07-09 00:00:00.000000,0.86609770,1.49965309,2.44967045,689,1193,1950,429,758,1280,0.53939658,0.95309558,1.60882458,0.26450239,0.33662344,0.41902648
13031,0,USGeorgiaBulloch,Georgia,Bulloch,2021-01-06 02:18:01.170040,2020-07-10 00:00:00.000000,0.84526985,1.47856370,2.45689424,672,1177,1955,429,761,1300,0.53892307,0.95684081,1.63338755,0.26150687,0.33572162,0.39861345
13031,0,USGeorgiaBulloch,Georgia,Bulloch,2021-01-06 02:18:01.170040,2020-07-11 00:00:00.000000,0.82535011,1.47035563,2.49534351,657,1170,1986,429,767,1319,0.53899171,0.96418598,1.65780701,0.25631029,0.32491068,0.38993718
13031,0,USGeorgiaBulloch,Georgia,Bulloch,2021-01-06 02:18:01.170040,2020-07-12 00:00:00.000000,0.80927119,1.45434199,2.53351066,644,1157,2016,429,767,1339,0.53967195,0.96408932,1.68280671,0.25230933,0.32083633,0.38416075
13031,0,USGeorgiaBulloch,Georgia,Bulloch,2021-01-06 02:18:01.170040,2020-07-13 00:00:00.000000,0.81112736,1.43538615,2.56985691,645,1142,2045,430,759,1359,0.54119855,0.95404290,1.70804794,0.24867417,0.31873218,0.38982393
13031,0,USGeorgiaBulloch,Georgia,Bulloch,2021-01-06 02:18:01.170040,2020-07-14 00:00:00.000000,0.81386457,1.42196683,2.60513157,647,1131,2073,432,754,1380,0.54274503,0.94830995,1.73379817,0.24521409,0.31738173,0.38434599
13031,0,USGeorgiaBulloch,Georgia,Bulloch,2021-01-06 02:18:01.170040,2020-07-15 00:00:00.000000,0.81727719,1.41839771,2.63883728,650,1129,2100,433,743,1398,0.54470271,0.93392135,1.75668184,0.24234693,0.31698096,0.38425352
13031,0,USGeorgiaBulloch,Georgia,Bulloch,2021-01-06 02:18:01.170040,2020-07-16 00:00:00.000000,0.82133782,1.38178270,2.66358991,653,1100,2120,435,732,1417,0.54707337,0.91975856,1.78058419,0.24021321,0.31643032,0.38401216
13031,0,USGeorgiaBulloch,Georgia,Bulloch,2021-01-06 02:18:01.170040,2020-07-17 00:00:00.000000,0.82590563,1.36133782,2.61353960,657,1083,2080,437,724,1426,0.54979213,0.90996732,1.79200344,0.23891785,0.31451692,0.38757252
13031,0,USGeorgiaBulloch,Georgia,Bulloch,2021-01-06 02:18:01.170040,2020-07-18 00:00:00.000000,0.83077598,1.34253235,2.56389313,661,1068,2041,440,716,1426,0.55276878,0.89996608,1.79246906,0.23878592,0.31129638,0.39288898
13031,0,USGeorgiaBulloch,Georgia,Bulloch,2021-01-06 02:18:01.170040,2020-07-19 00:00:00.000000,0.81450411,1.33645537,2.51474373,648,1063,2001,428,702,1426,0.53785905,0.88300877,1.79210778,0.24078718,0.31008048,0.39136172
13031,0,USGeorgiaBulloch,Georgia,Bulloch,2021-01-06 02:18:01.170040,2020-07-20 00:00:00.000000,0.78891972,1.33347184,2.46688859,628,1061,1963,412,690,1425,0.51817432,0.86687311,1.79108834,0.24319497,0.31016296,0.39190302
13031,0,USGeorgiaBulloch,Georgia,Bulloch,2021-01-06 02:18:01.170040,2020-07-21 00:00:00.000000,0.77055734,1.32216260,2.45633303,613,1052,1955,399,676,1423,0.50155043,0.85010477,1.78768269,0.24296591,0.31204218,0.39494931
13031,0,USGeorgiaBulloch,Georgia,Bulloch,2021-01-06 02:18:01.170040,2020-07-22 00:00:00.000000,0.77602549,1.29718390,2.45219492,617,1032,1952,387,677,1419,0.48705878,0.85063035,1.78367724,0.24888904,0.31238267,0.39691245
13031,0,USGeorgiaBulloch,Georgia,Bulloch,2021-01-06 02:18:01.170040,2020-07-23 00:00:00.000000,0.78218128,1.26437781,2.45288333,622,1006,1952,380,672,1417,0.47823034,0.84470799,1.78049256,0.25173029,0.31469547,0.39835506
13031,0,USGeorgiaBulloch,Georgia,Bulloch,2021-01-06 02:18:01.170040,2020-07-24 00:00:00.000000,0.78880106,1.25290121,2.46205240,627,997,1959,379,663,1417,0.47642489,0.83396902,1.78020119,0.25920556,0.32126523,0.40912223
13031,0,USGeorgiaBulloch,Georgia,Bulloch,2021-01-06 02:18:01.170040,2020-07-25 00:00:00.000000,0.79597914,1.25926334,2.48051811,633,1002,1974,380,660,1414,0.47753620,0.82994016,1.77719810,0.26999569,0.32153711,0.41133634
13031,0,USGeorgiaBulloch,Georgia,Bulloch,2021-01-06 02:18:01.170040,2020-07-26 00:00:00.000000,0.80394315,1.25850679,2.50534839,640,1001,1994,382,659,1406,0.48011966,0.82860116,1.76668021,0.26761071,0.32649745,0.41244665
13031,0,USGeorgiaBulloch,Georgia,Bulloch,2021-01-06 02:18:01.170040,2020-07-27 00:00:00.000000,0.81418252,1.26075672,2.53664318,648,1003,2019,385,656,1403,0.48410431,0.82472616,1.76323208,0.27812628,0.33209745,0.41287570
13031,0,USGeorgiaBulloch,Georgia,Bulloch,2021-01-06 02:18:01.170040,2020-07-28 00:00:00.000000,0.82541844,1.24888474,2.56788180,657,994,2044,388,659,1405,0.48833168,0.82843051,1.76520046,0.27843384,0.33644426,0.41302445
13031,0,USGeorgiaBulloch,Georgia,Bulloch,2021-01-06 02:18:01.170040,2020-07-29 00:00:00.000000,0.83411629,1.24822456,2.59749866,664,993,2067,392,658,1408,0.49311847,0.82774097,1.76987411,0.27953503,0.34120391,0.41514072
13031,0,USGeorgiaBulloch,Georgia,Bulloch,2021-01-06 02:18:01.170040,2020-07-30 00:00:00.000000,0.83188327,1.26222097,2.62395786,662,1004,2088,396,658,1413,0.49823591,0.82677781,1.77591194,0.28264597,0.34213262,0.41898623
13031,0,USGeorgiaBulloch,Georgia,Bulloch,2021-01-06 02:18:01.170040,2020-07-31 00:00:00.000000,0.82554933,1.28876598,2.64639677,657,1025,2106,400,667,1419,0.50352582,0.83868253,1.78327064,0.28406098,0.34901981,0.42231861
13031,0,USGeorgiaBulloch,Georgia,Bulloch,2021-01-06 02:18:01.170040,2020-08-01 00:00:00.000000,0.82067620,1.31412288,2.66462222,653,1046,2121,406,673,1426,0.51120658,0.84642327,1.79203231,0.28635389,0.35317180,0.42982659
13031,0,USGeorgiaBulloch,Georgia,Bulloch,2021-01-06 02:18:01.170040,2020-08-02 00:00:00.000000,0.81801611,1.32924931,2.67904936,651,1058,2132,409,681,1434,0.51427053,0.85555553,1.80158175,0.28405407,0.35288321,0.44196157
13031,0,USGeorgiaBulloch,Georgia,Bulloch,2021-01-06 02:18:01.170040,2020-08-03 00:00:00.000000,0.82536293,1.35123942,2.68732979,657,1075,2139,409,683,1441,0.51501154,0.85883481,1.81127319,0.28205895,0.35756690,0.44869026
13031,0,USGeorgiaBulloch,Georgia,Bulloch,2021-01-06 02:18:01.170040,2020-08-04 00:00:00.000000,0.83578822,1.36126005,2.69322270,665,1083,2144,410,693,1449,0.51506629,0.87058641,1.82069807,0.28063944,0.35856761,0.45093863
13031,0,USGeorgiaBulloch,Georgia,Bulloch,2021-01-06 02:18:01.170040,2020-08-05 00:00:00.000000,0.84700389,1.37655903,2.69705919,674,1095,2147,410,712,1456,0.51593427,0.89559046,1.82966567,0.27977006,0.36076761,0.44970882
13031,0,USGeorgiaBulloch,Georgia,Bulloch,2021-01-06 02:18:01.170040,2020-08-06 00:00:00.000000,0.85976307,1.39733498,2.69940639,684,1112,2148,417,728,1463,0.52425094,0.91448436,1.83808381,0.29425022,0.36423268,0.44927378
13031,0,USGeorgiaBulloch,Georgia,Bulloch,2021-01-06 02:18:01.170040,2020-08-07 00:00:00.000000,0.86543219,1.39830526,2.70060098,688,1113,2149,426,734,1469,0.53517689,0.92233224,1.84596324,0.29421648,0.36959083,0.46272268
13031,0,USGeorgiaBulloch,Georgia,Bulloch,2021-01-06 02:18:01.170040,2020-08-08 00:00:00.000000,0.88173844,1.40194762,2.70097086,701,1116,2150,439,738,1475,0.55183338,0.92719585,1.85371845,0.28655042,0.37757063,0.48844292
13031,0,USGeorgiaBulloch,Georgia,Bulloch,2021-01-06 02:18:01.170040,2020-08-09 00:00:00.000000,0.87783148,1.42634784,2.70094776,698,1135,2150,451,743,1483,0.56713991,0.93422074,1.86388348,0.28647421,0.38156680,0.49485859
13031,0,USGeorgiaBulloch,Georgia,Bulloch,2021-01-06 02:18:01.170040,2020-08-10 00:00:00.000000,0.88956564,1.45967135,2.70077303,708,1162,2150,448,757,1498,0.56385102,0.95109489,1.88280353,0.29142713,0.39445252,0.50037971
13031,0,USGeorgiaBulloch,Georgia,Bulloch,2021-01-06 02:18:01.170040,2020-08-11 00:00:00.000000,0.91139956,1.47621851,2.70118751,725,1175,2150,454,770,1521,0.57092831,0.96769516,1.91123819,0.29516657,0.40071356,0.52173256
13031,0,USGeorgiaBulloch,Georgia,Bulloch,2021-01-06 02:18:01.170040,2020-08-12 00:00:00.000000,0.94100032,1.51733369,2.70486536,749,1207,2153,465,783,1548,0.58498597,0.98421265,1.94519948,0.29729393,0.40344938,0.54726426
13031,0,USGeorgiaBulloch,Georgia,Bulloch,2021-01-06 02:18:01.170040,2020-08-13 00:00:00.000000,0.98120189,1.53837784,2.71806746,781,1224,2163,480,793,1561,0.60383807,0.99628794,1.96173155,0.30481392,0.41009986,0.56035142
13031,0,USGeorgiaBulloch,Georgia,Bulloch,2021-01-06 02:18:01.170040,2020-08-14 00:00:00.000000,1.03061819,1.59228458,2.75142972,820,1267,2190,501,801,1567,0.62951424,1.00722504,1.96939307,0.32230738,0.42768070,0.57370583
13031,0,USGeorgiaBulloch,Georgia,Bulloch,2021-01-06 02:18:01.170040,2020-08-15 00:00:00.000000,1.06384153,1.64080005,2.81260178,846,1306,2239,526,820,1583,0.66196411,1.03067416,1.98961212,0.34359275,0.44173420,0.58099075
13031,0,USGeorgiaBulloch,Georgia,Bulloch,2021-01-06 02:18:01.170040,2020-08-16 00:00:00.000000,1.08498495,1.71143180,2.89784137,863,1362,2306,555,861,1614,0.69819771,1.08251861,2.02838757,0.36415614,0.46396154,0.58140303
13031,0,USGeorgiaBulloch,Georgia,Bulloch,2021-01-06 02:18:01.170040,2020-08-17 00:00:00.000000,1.11722945,1.78783152,3.00349974,889,1423,2391,580,893,1659,0.72929385,1.12246953,2.08502784,0.38168892,0.48317041,0.58455319
13031,0,USGeorgiaBulloch,Georgia,Bulloch,2021-01-06 02:18:01.170040,2020-08-18 00:00:00.000000,1.17055149,1.88860752,3.18494239,931,1503,2535,596,930,1716,0.74981971,1.16840014,2.15679444,0.40079187,0.49670176,0.60207173
13031,0,USGeorgiaBulloch,Georgia,Bulloch,2021-01-06 02:18:01.170040,2020-08-19 00:00:00.000000,1.25799677,1.99403826,3.41551674,1001,1587,2719,624,977,1798,0.78385812,1.22756001,2.25973832,0.40590714,0.52568888,0.62527332
13031,0,USGeorgiaBulloch,Georgia,Bulloch,2021-01-06 02:18:01.170040,2020-08-20 00:00:00.000000,1.37741631,2.11811574,3.69596069,1096,1686,2942,668,1032,1930,0.83984409,1.29713877,2.42450580,0.44366206,0.55257756,0.64540165
13031,0,USGeorgiaBulloch,Georgia,Bulloch,2021-01-06 02:18:01.170040,2020-08-21 00:00:00.000000,1.48093771,2.24807004,4.00076691,1178,1789,3184,713,1097,2086,0.89594285,1.37916468,2.62057829,0.45355823,0.56551284,0.68420747
13031,0,USGeorgiaBulloch,Georgia,Bulloch,2021-01-06 02:18:01.170040,2020-08-22 00:00:00.000000,1.58862636,2.39534568,4.32670068,1264,1906,3444,761,1175,2257,0.95627695,1.47704598,2.83552306,0.46221389,0.58016871,0.69782479
13031,0,USGeorgiaBulloch,Georgia,Bulloch,2021-01-06 02:18:01.170040,2020-08-23 00:00:00.000000,1.70861563,2.55664169,4.67222739,1360,2035,3719,816,1250,2440,1.02568938,1.57061241,3.06614190,0.47676724,0.59245157,0.72264167
13031,0,USGeorgiaBulloch,Georgia,Bulloch,2021-01-06 02:18:01.170040,2020-08-24 00:00:00.000000,1.85009515,2.73651643,5.03490940,1472,2178,4008,878,1343,2636,1.10313523,1.68737950,3.31154044,0.47339459,0.59577630,0.75182697
13031,0,USGeorgiaBulloch,Georgia,Bulloch,2021-01-06 02:18:01.170040,2020-08-25 00:00:00.000000,2.00195497,2.92132484,5.40397597,1593,2325,4301,960,1442,2842,1.20595213,1.81176227,3.57022851,0.46614756,0.59504911,0.76410184
13031,0,USGeorgiaBulloch,Georgia,Bulloch,2021-01-06 02:18:01.170040,2020-08-26 00:00:00.000000,2.16464383,3.09308644,5.69594588,1723,2462,4534,1027,1546,3008,1.29128792,1.94324855,3.77944715,0.46616028,0.59098424,0.75725033
13031,0,USGeorgiaBulloch,Georgia,Bulloch,2021-01-06 02:18:01.170040,2020-08-27 00:00:00.000000,2.38497727,3.33702730,5.92709022,1898,2656,4718,1110,1661,3130,1.39501993,2.08743604,3.93249480,0.43832702,0.58400815,0.70981257
13031,0,USGeorgiaBulloch,Georgia,Bulloch,2021-01-06 02:18:01.170040,2020-08-28 00:00:00.000000,2.58485638,3.54521732,6.10129116,2057,2822,4857,1195,1765,3237,1.50171336,2.21830102,4.06621640,0.38713888,0.56083634,0.69448922
13031,0,USGeorgiaBulloch,Georgia,Bulloch,2021-01-06 02:18:01.170040,2020-08-29 00:00:00.000000,2.70944212,3.73492223,6.25672776,2156,2973,4980,1272,1857,3343,1.59851154,2.33324626,4.19960360,0.34827681,0.53479305,0.68017601
13031,0,USGeorgiaBulloch,Georgia,Bulloch,2021-01-06 02:18:01.170040,2020-08-30 00:00:00.000000,2.79734777,3.91013963,6.30851079,2226,3112,5022,1338,1943,3445,1.68092354,2.44163160,4.32785343,0.31568567,0.49646171,0.62563712
13031,0,USGeorgiaBulloch,Georgia,Bulloch,2021-01-06 02:18:01.170040,2020-08-31 00:00:00.000000,2.80686689,3.96079910,6.46792973,2234,3153,5148,1386,2019,3521,1.74109353,2.53728062,4.42302319,0.30780825,0.42815377,0.59621110
13031,0,USGeorgiaBulloch,Georgia,Bulloch,2021-01-06 02:18:01.170040,2020-09-01 00:00:00.000000,2.81626603,3.99683454,6.56486370,2241,3181,5226,1413,2072,3534,1.77593181,2.60350075,4.43938087,0.27264702,0.37880897,0.55921882
13031,0,USGeorgiaBulloch,Georgia,Bulloch,2021-01-06 02:18:01.170040,2020-09-02 00:00:00.000000,2.75234857,3.93676985,6.54150004,2191,3133,5207,1418,2108,3477,1.78184618,2.64839388,4.36842606,0.25231279,0.35020708,0.48249974
13031,0,USGeorgiaBulloch,Georgia,Bulloch,2021-01-06 02:18:01.170040,2020-09-03 00:00:00.000000,2.65502102,3.83649896,6.44522815,2113,3054,5130,1386,2088,3409,1.74110761,2.62305001,4.28297783,0.23152902,0.31582351,0.43450901
13031,0,USGeorgiaBulloch,Georgia,Bulloch,2021-01-06 02:18:01.170040,2020-09-04 00:00:00.000000,2.52937317,3.72079755,6.41981859,2013,2962,5110,1297,2034,3400,1.63008686,2.55578868,4.27149187,0.21080632,0.28785429,0.40410979
13031,0,USGeorgiaBulloch,Georgia,Bulloch,2021-01-06 02:18:01.170040,2020-09-05 00:00:00.000000,2.39288762,3.54452014,6.22142918,1904,2821,4952,1205,1969,3350,1.51490830,2.47435461,4.20895191,0.19214609,0.25985516,0.37177226
13031,0,USGeorgiaBulloch,Georgia,Bulloch,2021-01-06 02:18:01.170040,2020-09-06 00:00:00.000000,2.20230582,3.39734493,5.97286050,1753,2704,4754,1140,1894,3261,1.43317149,2.37949584,4.09737513,0.18707480,0.24352383,0.34086717
13031,0,USGeorgiaBulloch,Georgia,Bulloch,2021-01-06 02:18:01.170040,2020-09-07 00:00:00.000000,2.02119415,3.20558554,5.69104912,1609,2551,4530,1071,1793,3143,1.34548308,2.25256108,3.94815223,0.17749599,0.23455930,0.31833528
13031,0,USGeorgiaBulloch,Georgia,Bulloch,2021-01-06 02:18:01.170040,2020-09-08 00:00:00.000000,1.85618153,3.01932134,5.37540633,1477,2403,4279,1017,1704,3003,1.27787550,2.14141800,3.77288950,0.16922349,0.23059371,0.31215703
13031,0,USGeorgiaBulloch,Georgia,Bulloch,2021-01-06 02:18:01.170040,2020-09-09 00:00:00.000000,1.78043315,2.85671190,5.03396108,1417,2274,4007,971,1618,2845,1.22061245,2.03263933,3.57485978,0.16767612,0.22579348,0.30693037
13031,0,USGeorgiaBulloch,Georgia,Bulloch,2021-01-06 02:18:01.170040,2020-09-10 00:00:00.000000,1.63788901,2.69615170,4.68909017,1303,2146,3732,890,1515,2673,1.11851065,1.90310448,3.35859214,0.16416305,0.22338763,0.30372191
13031,0,USGeorgiaBulloch,Georgia,Bulloch,2021-01-06 02:18:01.170040,2020-09-11 00:00:00.000000,1.50406019,2.52313394,4.35585947,1197,2008,3467,815,1408,2496,1.02479285,1.76935901,3.13610604,0.16101164,0.22246639,0.29147760
13031,0,USGeorgiaBulloch,Georgia,Bulloch,2021-01-06 02:18:01.170040,2020-09-12 00:00:00.000000,1.37955395,2.36351605,4.04011832,1098,1881,3216,747,1326,2322,0.93892419,1.66640424,2.91770779,0.15755664,0.21597379,0.28108863
13031,0,USGeorgiaBulloch,Georgia,Bulloch,2021-01-06 02:18:01.170040,2020-09-13 00:00:00.000000,1.26465548,2.21806707,3.76683060,1006,1765,2998,684,1238,2228,0.86045765,1.55529687,2.79970334,0.15597085,0.21165810,0.27833960
13031,0,USGeorgiaBulloch,Georgia,Bulloch,2021-01-06 02:18:01.170040,2020-09-14 00:00:00.000000,1.16211140,2.08701294,3.57551796,925,1661,2846,628,1158,2138,0.78913900,1.45466427,2.68631958,0.15429564,0.20956481,0.26961669
13031,0,USGeorgiaBulloch,Georgia,Bulloch,2021-01-06 02:18:01.170040,2020-09-15 00:00:00.000000,1.06912869,1.94309488,3.39263904,851,1546,2700,577,1092,2040,0.72504011,1.37252707,2.56267967,0.15427886,0.20169171,0.27316882
13031,0,USGeorgiaBulloch,Georgia,Bulloch,2021-01-06 02:18:01.170040,2020-09-16 00:00:00.000000,0.98580101,1.80492138,3.21765707,784,1436,2561,532,1030,1935,0.66857469,1.29451471,2.43129898,0.15359015,0.20173851,0.27816017
13031,0,USGeorgiaBulloch,Georgia,Bulloch,2021-01-06 02:18:01.170040,2020-09-17 00:00:00.000000,0.91178988,1.69196392,3.04956607,725,1346,2427,493,960,1827,0.61986697,1.20667889,2.29575947,0.15146567,0.20207276,0.27923622
13031,0,USGeorgiaBulloch,Georgia,Bulloch,2021-01-06 02:18:01.170040,2020-09-18 00:00:00.000000,0.84656463,1.57902215,2.88834753,673,1257,2299,460,886,1710,0.57787010,1.11356064,2.14879722,0.14903465,0.20203785,0.27896364
13031,0,USGeorgiaBulloch,Georgia,Bulloch,2021-01-06 02:18:01.170040,2020-09-19 00:00:00.000000,0.78913138,1.47306230,2.73430175,628,1172,2176,430,823,1590,0.54072341,1.03503661,1.99772124,0.14691693,0.20491805,0.27823807
13031,0,USGeorgiaBulloch,Georgia,Bulloch,2021-01-06 02:18:01.170040,2020-09-20 00:00:00.000000,0.72414837,1.36898787,2.58717911,576,1089,2059,401,771,1486,0.50426939,0.96858248,1.86741741,0.14568980,0.20664908,0.27617695
13031,0,USGeorgiaBulloch,Georgia,Bulloch,2021-01-06 02:18:01.170040,2020-09-21 00:00:00.000000,0.67084453,1.27637061,2.45192540,534,1016,1951,367,723,1406,0.46108841,0.90826962,1.76733969,0.14485658,0.20836893,0.27589935
13031,0,USGeorgiaBulloch,Georgia,Bulloch,2021-01-06 02:18:01.170040,2020-09-22 00:00:00.000000,0.62643480,1.18740895,2.32262094,498,945,1848,335,672,1332,0.42109463,0.84514893,1.67424449,0.14424860,0.21111223,0.27242051
13031,0,USGeorgiaBulloch,Georgia,Bulloch,2021-01-06 02:18:01.170040,2020-09-23 00:00:00.000000,0.58458969,1.10759861,2.17456650,465,881,1731,308,630,1262,0.38716866,0.79250100,1.58614075,0.14381204,0.21327165,0.27935288
13031,0,USGeorgiaBulloch,Georgia,Bulloch,2021-01-06 02:18:01.170040,2020-09-24 00:00:00.000000,0.54544535,1.03493261,2.02503922,434,823,1612,289,589,1195,0.36348768,0.74037608,1.50208355,0.14352303,0.21737616,0.29664504
13031,0,USGeorgiaBulloch,Georgia,Bulloch,2021-01-06 02:18:01.170040,2020-09-25 00:00:00.000000,0.50897827,0.97170128,1.88599114,405,773,1501,272,548,1131,0.34185956,0.68870399,1.42168739,0.14343711,0.22154345,0.30950742
13031,0,USGeorgiaBulloch,Georgia,Bulloch,2021-01-06 02:18:01.170040,2020-09-26 00:00:00.000000,0.47508494,0.91089655,1.75718019,378,725,1398,256,513,1070,0.32211153,0.64533273,1.34488747,0.14400310,0.22751843,0.31750821
13031,0,USGeorgiaBulloch,Georgia,Bulloch,2021-01-06 02:18:01.170040,2020-09-27 00:00:00.000000,0.44389705,0.84737230,1.63889011,353,674,1304,242,475,1012,0.30407690,0.59707570,1.27175107,0.14426244,0.22856700,0.32448950
13031,0,USGeorgiaBulloch,Georgia,Bulloch,2021-01-06 02:18:01.170040,2020-09-28 00:00:00.000000,0.41576508,0.79757090,1.53498137,330,634,1221,228,439,944,0.28761162,0.55220697,1.18680835,0.14514250,0.23683879,0.33347691
13031,0,USGeorgiaBulloch,Georgia,Bulloch,2021-01-06 02:18:01.170040,2020-09-29 00:00:00.000000,0.38998328,0.75465666,1.50276608,310,600,1196,217,413,883,0.27305212,0.51956325,1.10981723,0.14997637,0.24150805,0.34083049
13031,0,USGeorgiaBulloch,Georgia,Bulloch,2021-01-06 02:18:01.170040,2020-09-30 00:00:00.000000,0.36689420,0.71551017,1.48305068,292,569,1180,205,391,829,0.25800669,0.49208851,1.04138742,0.16140673,0.24760950,0.35841398
13031,0,USGeorgiaBulloch,Georgia,Bulloch,2021-01-06 02:18:01.170040,2020-10-01 00:00:00.000000,0.34695360,0.68117281,1.40298946,276,542,1116,193,373,806,0.24281740,0.46862206,1.01274220,0.17460611,0.25501988,0.38546354
13031,0,USGeorgiaBulloch,Georgia,Bulloch,2021-01-06 02:18:01.170040,2020-10-02 00:00:00.000000,0.33027469,0.65717410,1.32893555,262,523,1057,182,357,762,0.22978327,0.44936896,0.95785359,0.18751575,0.27676040,0.41085230
13031,0,USGeorgiaBulloch,Georgia,Bulloch,2021-01-06 02:18:01.170040,2020-10-03 00:00:00.000000,0.31833297,0.64097685,1.26695742,253,510,1008,174,346,722,0.21898962,0.43580364,0.90779658,0.18891715,0.29799705,0.45295375
13031,0,USGeorgiaBulloch,Georgia,Bulloch,2021-01-06 02:18:01.170040,2020-10-04 00:00:00.000000,0.31222976,0.62687167,1.22269156,248,499,973,167,336,690,0.20992859,0.42300915,0.86727140,0.19467517,0.31606959,0.46445700
13031,0,USGeorgiaBulloch,Georgia,Bulloch,2021-01-06 02:18:01.170040,2020-10-05 00:00:00.000000,0.30772253,0.61710883,1.18118248,244,491,940,160,326,674,0.20207799,0.41000917,0.84665608,0.21520712,0.33397602,0.49467424
13031,0,USGeorgiaBulloch,Georgia,Bulloch,2021-01-06 02:18:01.170040,2020-10-06 00:00:00.000000,0.30535426,0.60749476,1.17137305,243,483,932,157,320,660,0.19816687,0.40304883,0.82987120,0.24767136,0.34814077,0.51341382
13031,0,USGeorgiaBulloch,Georgia,Bulloch,2021-01-06 02:18:01.170040,2020-10-07 00:00:00.000000,0.29843333,0.59955178,1.15700391,237,477,921,154,316,648,0.19401821,0.39724918,0.81493154,0.25246445,0.36468349,0.55527582
13031,0,USGeorgiaBulloch,Georgia,Bulloch,2021-01-06 02:18:01.170040,2020-10-08 00:00:00.000000,0.29616828,0.60240914,1.14590180,235,479,912,152,309,637,0.19157414,0.38931841,0.80115170,0.26136536,0.39581867,0.62061645
13031,0,USGeorgiaBulloch,Georgia,Bulloch,2021-01-06 02:18:01.170040,2020-10-09 00:00:00.000000,0.29804287,0.60819190,1.13759278,237,484,905,151,312,633,0.19059410,0.39226231,0.79556333,0.26747076,0.41890612,0.67720005
13031,0,USGeorgiaBulloch,Georgia,Bulloch,2021-01-06 02:18:01.170040,2020-10-10 00:00:00.000000,0.28528928,0.61351520,1.15651606,227,488,920,152,319,645,0.19134507,0.40183001,0.81090864,0.30047198,0.47475191,0.76511782
13031,0,USGeorgiaBulloch,Georgia,Bulloch,2021-01-06 02:18:01.170040,2020-10-11 00:00:00.000000,0.28475460,0.61844605,1.20050274,226,492,955,152,319,660,0.19187151,0.40076613,0.82964287,0.31256473,0.50337900,0.78014886
13031,0,USGeorgiaBulloch,Georgia,Bulloch,2021-01-06 02:18:01.170040,2020-10-12 00:00:00.000000,0.29494806,0.62843511,1.26418262,234,500,1006,151,317,686,0.19025112,0.39885281,0.86204287,0.33293804,0.52461568,0.79212246
13031,0,USGeorgiaBulloch,Georgia,Bulloch,2021-01-06 02:18:01.170040,2020-10-13 00:00:00.000000,0.30670405,0.65436124,1.34047750,244,520,1067,152,328,720,0.19118318,0.41261529,0.90470853,0.36852457,0.55601814,0.84163385
13031,0,USGeorgiaBulloch,Georgia,Bulloch,2021-01-06 02:18:01.170040,2020-10-14 00:00:00.000000,0.34194598,0.70294499,1.46251387,272,559,1164,156,345,761,0.19618353,0.43454159,0.95596054,0.42040586,0.59435742,0.86636613
13031,0,USGeorgiaBulloch,Georgia,Bulloch,2021-01-06 02:18:01.170040,2020-10-15 00:00:00.000000,0.37981726,0.76113095,1.58991089,302,605,1265,174,367,808,0.21911616,0.46158892,1.01498813,0.43232198,0.64172136,0.86937394
13031,0,USGeorgiaBulloch,Georgia,Bulloch,2021-01-06 02:18:01.170040,2020-10-16 00:00:00.000000,0.43239501,0.82111585,1.72222757,344,653,1371,195,394,863,0.24514495,0.49600760,1.08448453,0.47553648,0.70474956,0.90695762
13031,0,USGeorgiaBulloch,Georgia,Bulloch,2021-01-06 02:18:01.170040,2020-10-17 00:00:00.000000,0.49323713,0.88571630,1.86188593,392,705,1482,219,418,932,0.27587436,0.52557409,1.17188566,0.49856274,0.73975186,0.92975682
13031,0,USGeorgiaBulloch,Georgia,Bulloch,2021-01-06 02:18:01.170040,2020-10-18 00:00:00.000000,0.56784231,0.95706547,2.01111440,452,761,1601,250,450,1018,0.31446784,0.56590848,1.27967590,0.53629069,0.77863350,0.95406446
13031,0,USGeorgiaBulloch,Georgia,Bulloch,2021-01-06 02:18:01.170040,2020-10-19 00:00:00.000000,0.62203007,1.04905014,2.18598797,495,835,1740,289,490,1118,0.36400331,0.61624128,1.40500897,0.60047409,0.81637010,0.97475480
13031,0,USGeorgiaBulloch,Georgia,Bulloch,2021-01-06 02:18:01.170040,2020-10-20 00:00:00.000000,0.69062534,1.17711152,2.40547992,549,937,1914,316,555,1230,0.39817306,0.69803626,1.54522348,0.62079992,0.84815379,0.98789317
13031,0,USGeorgiaBulloch,Georgia,Bulloch,2021-01-06 02:18:01.170040,2020-10-21 00:00:00.000000,0.78018069,1.32150775,2.64652317,621,1052,2106,352,612,1353,0.44222441,0.76976766,1.69984296,0.65298798,0.85770128,0.99816050
13031,0,USGeorgiaBulloch,Georgia,Bulloch,2021-01-06 02:18:01.170040,2020-10-22 00:00:00.000000,0.89728155,1.45935709,2.91394811,714,1161,2319,397,673,1488,0.49923129,0.84567802,1.86980700,0.69122583,0.87257900,1.02656289
13031,0,USGeorgiaBulloch,Georgia,Bulloch,2021-01-06 02:18:01.170040,2020-10-23 00:00:00.000000,1.02959008,1.62025754,3.21601128,819,1289,2560,456,750,1638,0.57370683,0.94328629,2.05803848,0.73956006,0.87862849,1.08345004
13031,0,USGeorgiaBulloch,Georgia,Bulloch,2021-01-06 02:18:01.170040,2020-10-24 00:00:00.000000,1.16024986,1.81617893,3.55830151,923,1445,2832,524,825,1806,0.65939587,1.03747404,2.26985144,0.78809132,0.88814906,1.12156710
13031,0,USGeorgiaBulloch,Georgia,Bulloch,2021-01-06 02:18:01.170040,2020-10-25 00:00:00.000000,1.30415328,2.03427619,3.93966586,1038,1619,3136,602,927,1997,0.75697369,1.16499668,2.50974086,0.80727232,0.89717597,1.08606866
13031,0,USGeorgiaBulloch,Georgia,Bulloch,2021-01-06 02:18:01.170040,2020-10-26 00:00:00.000000,1.47347782,2.27714963,4.36132162,1173,1812,3471,686,1039,2211,0.86279833,1.30550643,2.77812606,0.81417842,0.90844207,1.10200070
13031,0,USGeorgiaBulloch,Georgia,Bulloch,2021-01-06 02:18:01.170040,2020-10-27 00:00:00.000000,1.68613198,2.55664570,4.81989192,1342,2035,3837,775,1170,2448,0.97358695,1.47060931,3.07547667,0.81286675,0.91167709,1.11581331
13031,0,USGeorgiaBulloch,Georgia,Bulloch,2021-01-06 02:18:01.170040,2020-10-28 00:00:00.000000,1.92729033,2.85311877,5.31586969,1534,2271,4231,876,1308,2706,1.10143878,1.64320589,3.40015630,0.80654673,0.91677529,1.12741469
13031,0,USGeorgiaBulloch,Georgia,Bulloch,2021-01-06 02:18:01.170040,2020-10-29 00:00:00.000000,2.20065075,3.16974908,5.84907045,1751,2523,4656,992,1438,2986,1.24641031,1.80706710,3.75190310,0.80067384,0.91703351,1.13470925
13031,0,USGeorgiaBulloch,Georgia,Bulloch,2021-01-06 02:18:01.170040,2020-10-30 00:00:00.000000,2.50987620,3.51723628,6.41850313,1998,2800,5109,1124,1604,3287,1.41291979,2.01492734,4.13016961,0.78137715,0.91108897,1.13482405
13031,0,USGeorgiaBulloch,Georgia,Bulloch,2021-01-06 02:18:01.170040,2020-10-31 00:00:00.000000,2.85877961,3.90422111,7.01509857,2275,3108,5584,1282,1791,3492,1.61159914,2.25054356,4.38734524,0.74337583,0.89836435,1.11112445
13031,0,USGeorgiaBulloch,Georgia,Bulloch,2021-01-06 02:18:01.170040,2020-11-01 00:00:00.000000,3.23353916,4.28599914,7.09479106,2574,3411,5648,1437,1999,3585,1.80591957,2.51108383,4.50427847,0.70845762,0.87427655,1.05016481
13031,0,USGeorgiaBulloch,Georgia,Bulloch,2021-01-06 02:18:01.170040,2020-11-02 00:00:00.000000,3.38462515,4.60475416,7.29041979,2694,3665,5803,1594,2198,3838,2.00303625,2.76134991,4.82116664,0.38658593,0.74689634,0.91400440
13031,0,USGeorgiaBulloch,Georgia,Bulloch,2021-01-06 02:18:01.170040,2020-11-03 00:00:00.000000,3.48459901,4.57147655,7.30774957,2774,3639,5817,1706,2355,4028,2.14366594,2.95898433,5.06102136,0.26491451,0.48737780,0.74820744
13031,0,USGeorgiaBulloch,Georgia,Bulloch,2021-01-06 02:18:01.170040,2020-11-04 00:00:00.000000,3.32509381,4.46396345,7.02347568,2647,3553,5591,1710,2427,4056,2.14872361,3.04927952,5.09546247,0.20483874,0.31840601,0.52266700
13031,0,USGeorgiaBulloch,Georgia,Bulloch,2021-01-06 02:18:01.170040,2020-11-05 00:00:00.000000,3.10170145,4.22861066,6.58496380,2469,3366,5242,1626,2349,3911,2.04267817,2.95074355,4.91329487,0.18084408,0.25044997,0.38628524
13031,0,USGeorgiaBulloch,Georgia,Bulloch,2021-01-06 02:18:01.170040,2020-11-06 00:00:00.000000,2.87521093,3.95804117,6.31079057,2288,3150,5023,1508,2233,3656,1.89505207,2.80561833,4.59288780,0.16719336,0.23234947,0.34235176
13031,0,USGeorgiaBulloch,Georgia,Bulloch,2021-01-06 02:18:01.170040,2020-11-07 00:00:00.000000,2.65583830,3.65820276,5.96524172,2114,2912,4748,1400,2082,3474,1.75918283,2.61623058,4.36428818,0.15883406,0.22620410,0.33469284
13031,0,USGeorgiaBulloch,Georgia,Bulloch,2021-01-06 02:18:01.170040,2020-11-08 00:00:00.000000,2.44842749,3.36758473,5.58461416,1949,2680,4445,1294,1952,3333,1.62647886,2.45202248,4.18697882,0.15920797,0.22009324,0.33379843
13031,0,USGeorgiaBulloch,Georgia,Bulloch,2021-01-06 02:18:01.170040,2020-11-09 00:00:00.000000,2.25072954,3.11357802,5.19644229,1791,2478,4136,1194,1796,3173,1.50040041,2.25688928,3.98680407,0.16032483,0.21639975,0.33357945
13031,0,USGeorgiaBulloch,Georgia,Bulloch,2021-01-06 02:18:01.170040,2020-11-10 00:00:00.000000,2.04734547,2.88319815,4.87982728,1629,2295,3884,1099,1662,3002,1.38144750,2.08816630,3.77119878,0.16229032,0.21498890,0.33348100
13031,0,USGeorgiaBulloch,Georgia,Bulloch,2021-01-06 02:18:01.170040,2020-11-11 00:00:00.000000,1.86281204,2.63436739,4.57256992,1482,2097,3640,1011,1549,2826,1.27066838,1.94691557,3.55012859,0.16441199,0.21582965,0.32506502
13031,0,USGeorgiaBulloch,Georgia,Bulloch,2021-01-06 02:18:01.170040,2020-11-12 00:00:00.000000,1.69727080,2.42956014,4.27997948,1351,1934,3407,925,1433,2652,1.16254425,1.80009493,3.33245482,0.16440286,0.21487575,0.32038432
13031,0,USGeorgiaBulloch,Georgia,Bulloch,2021-01-06 02:18:01.170040,2020-11-13 00:00:00.000000,1.55076891,2.24164793,4.00404779,1234,1784,3187,844,1328,2486,1.06023530,1.66836467,3.12331074,0.15507983,0.21770690,0.30503468
13031,0,USGeorgiaBulloch,Georgia,Bulloch,2021-01-06 02:18:01.170040,2020-11-14 00:00:00.000000,1.42263760,2.06384900,3.74505323,1132,1642,2981,769,1225,2325,0.96705330,1.53905389,2.92082147,0.14886958,0.21965060,0.30197300
13031,0,USGeorgiaBulloch,Georgia,Bulloch,2021-01-06 02:18:01.170040,2020-11-15 00:00:00.000000,1.30683977,1.90427576,3.50248195,1040,1515,2788,702,1124,2147,0.88209968,1.41298960,2.69781147,0.14919710,0.22256924,0.29848310
13031,0,USGeorgiaBulloch,Georgia,Bulloch,2021-01-06 02:18:01.170040,2020-11-16 00:00:00.000000,1.19702418,1.75652267,3.27256777,952,1398,2605,640,1031,1983,0.80489923,1.29604699,2.49138207,0.15105443,0.22664970,0.30544289
13031,0,USGeorgiaBulloch,Georgia,Bulloch,2021-01-06 02:18:01.170040,2020-11-17 00:00:00.000000,1.08998564,1.62101799,3.02005014,867,1290,2404,586,951,1831,0.73684718,1.19573785,2.30088043,0.15752227,0.22833207,0.31605572
13031,0,USGeorgiaBulloch,Georgia,Bulloch,2021-01-06 02:18:01.170040,2020-11-18 00:00:00.000000,0.98904751,1.50193484,2.78227071,787,1195,2214,538,884,1691,0.67634168,1.11045024,2.12420320,0.16285282,0.23231511,0.33018300
13031,0,USGeorgiaBulloch,Georgia,Bulloch,2021-01-06 02:18:01.170040,2020-11-19 00:00:00.000000,0.90041998,1.40639108,2.55898398,716,1119,2037,495,820,1559,0.62273728,1.03063611,1.95855451,0.16975711,0.24039692,0.33979547
13031,0,USGeorgiaBulloch,Georgia,Bulloch,2021-01-06 02:18:01.170040,2020-11-20 00:00:00.000000,0.82213621,1.32798946,2.35897990,654,1057,1877,458,757,1435,0.57605813,0.95125470,1.80298031,0.17445830,0.24724535,0.33805307
13031,0,USGeorgiaBulloch,Georgia,Bulloch,2021-01-06 02:18:01.170040,2020-11-21 00:00:00.000000,0.76290735,1.24029276,2.22932900,607,987,1774,421,708,1353,0.52932716,0.89050636,1.70050366,0.18841859,0.26025860,0.37416217
13031,0,USGeorgiaBulloch,Georgia,Bulloch,2021-01-06 02:18:01.170040,2020-11-22 00:00:00.000000,0.70157318,1.16496022,2.11087835,558,927,1680,387,667,1278,0.48678541,0.83889846,1.60592122,0.19521957,0.28734691,0.40803168
13031,0,USGeorgiaBulloch,Georgia,Bulloch,2021-01-06 02:18:01.170040,2020-11-23 00:00:00.000000,0.65347950,1.10317514,2.00246579,520,878,1594,361,625,1209,0.45430829,0.78561604,1.51921299,0.20174952,0.29403139,0.41794932
13031,0,USGeorgiaBulloch,Georgia,Bulloch,2021-01-06 02:18:01.170040,2020-11-24 00:00:00.000000,0.62798812,1.03664449,1.91215642,499,825,1522,335,591,1146,0.42147711,0.74332003,1.43982706,0.20821045,0.30459408,0.42416589
13031,0,USGeorgiaBulloch,Georgia,Bulloch,2021-01-06 02:18:01.170040,2020-11-25 00:00:00.000000,0.59704248,0.97305629,1.83529667,475,774,1461,315,555,1088,0.39643719,0.69816937,1.36691042,0.21356143,0.31675391,0.43105334
13031,0,USGeorgiaBulloch,Georgia,Bulloch,2021-01-06 02:18:01.170040,2020-11-26 00:00:00.000000,0.57179061,0.91708145,1.73505565,455,730,1381,297,523,1034,0.37412747,0.65716751,1.29939644,0.21848067,0.32862112,0.43410980
13031,0,USGeorgiaBulloch,Georgia,Bulloch,2021-01-06 02:18:01.170040,2020-11-27 00:00:00.000000,0.55162273,0.87480088,1.67755759,439,696,1335,281,494,984,0.35371308,0.62073560,1.23637454,0.22304846,0.34102102,0.47021334
13031,0,USGeorgiaBulloch,Georgia,Bulloch,2021-01-06 02:18:01.170040,2020-11-28 00:00:00.000000,0.53236765,0.83695667,1.64532861,423,666,1309,266,469,937,0.33491447,0.59008182,1.17729428,0.24576896,0.35438587,0.50770542
13031,0,USGeorgiaBulloch,Georgia,Bulloch,2021-01-06 02:18:01.170040,2020-11-29 00:00:00.000000,0.50722414,0.80863832,1.61536160,403,643,1285,252,450,913,0.31775866,0.56579787,1.14703098,0.27369238,0.37270644,0.54414995
13031,0,USGeorgiaBulloch,Georgia,Bulloch,2021-01-06 02:18:01.170040,2020-11-30 00:00:00.000000,0.49520597,0.78991163,1.58718085,394,628,1263,240,436,885,0.30252576,0.54819816,1.11194717,0.28482912,0.39518387,0.55633053
13031,0,USGeorgiaBulloch,Georgia,Bulloch,2021-01-06 02:18:01.170040,2020-12-01 00:00:00.000000,0.47903205,0.77598473,1.59548515,381,617,1270,233,426,864,0.29370991,0.53621192,1.08562633,0.30393120,0.41808708,0.56405722
13031,0,USGeorgiaBulloch,Georgia,Bulloch,2021-01-06 02:18:01.170040,2020-12-02 00:00:00.000000,0.46581202,0.76574111,1.61622203,370,609,1286,230,421,847,0.28967797,0.53001812,1.06490707,0.30851608,0.44782718,0.60103530
13031,0,USGeorgiaBulloch,Georgia,Bulloch,2021-01-06 02:18:01.170040,2020-12-03 00:00:00.000000,0.45490694,0.77647011,1.64238585,362,618,1307,224,419,833,0.28152953,0.52731711,1.04674997,0.31690448,0.46187428,0.64522639
13031,0,USGeorgiaBulloch,Georgia,Bulloch,2021-01-06 02:18:01.170040,2020-12-04 00:00:00.000000,0.44596762,0.78833269,1.63749794,355,627,1303,218,419,821,0.27466454,0.52714566,1.03175642,0.33868617,0.47464030,0.75682067
13031,0,USGeorgiaBulloch,Georgia,Bulloch,2021-01-06 02:18:01.170040,2020-12-05 00:00:00.000000,0.43924521,0.78951720,1.62982194,349,628,1297,214,420,835,0.26902401,0.52844054,1.04937240,0.35288608,0.49840579,0.78852324
13031,0,USGeorgiaBulloch,Georgia,Bulloch,2021-01-06 02:18:01.170040,2020-12-06 00:00:00.000000,0.45271294,0.78480251,1.62307677,360,624,1292,214,419,845,0.26942889,0.52669186,1.06248601,0.38073603,0.51906148,0.79062460
13031,0,USGeorgiaBulloch,Georgia,Bulloch,2021-01-06 02:18:01.170040,2020-12-07 00:00:00.000000,0.48837170,0.79606669,1.61858081,388,633,1288,229,418,842,0.28882222,0.52556438,1.05792860,0.41470850,0.54107403,0.79718601
13031,0,USGeorgiaBulloch,Georgia,Bulloch,2021-01-06 02:18:01.170040,2020-12-08 00:00:00.000000,0.52774808,0.81610317,1.61434922,420,649,1285,248,415,839,0.31184668,0.52185823,1.05486089,0.41501006,0.55328534,0.82668869
13031,0,USGeorgiaBulloch,Georgia,Bulloch,2021-01-06 02:18:01.170040,2020-12-09 00:00:00.000000,0.57054572,0.83868650,1.61028171,454,667,1281,268,426,837,0.33706053,0.53635313,1.05240515,0.42319693,0.56842862,0.86754871
13031,0,USGeorgiaBulloch,Georgia,Bulloch,2021-01-06 02:18:01.170040,2020-12-10 00:00:00.000000,0.59511652,0.86023644,1.60618799,473,684,1278,282,441,835,0.35440738,0.55472666,1.05012163,0.42382287,0.58143443,0.87686092
13031,0,USGeorgiaBulloch,Georgia,Bulloch,2021-01-06 02:18:01.170040,2020-12-11 00:00:00.000000,0.61051501,0.88510659,1.60195404,486,704,1275,290,455,835,0.36530476,0.57265300,1.04980798,0.42512705,0.58723667,0.87023008
13031,0,USGeorgiaBulloch,Georgia,Bulloch,2021-01-06 02:18:01.170040,2020-12-12 00:00:00.000000,0.62754467,0.91404485,1.61576545,499,727,1286,303,471,852,0.38116859,0.59176258,1.07049201,0.43009615,0.59428513,0.88815749
13031,0,USGeorgiaBulloch,Georgia,Bulloch,2021-01-06 02:18:01.170040,2020-12-13 00:00:00.000000,0.64652948,0.94147603,1.66130488,514,749,1322,313,487,869,0.39369527,0.61233775,1.09179902,0.45076593,0.60038717,0.94645476
13031,0,USGeorgiaBulloch,Georgia,Bulloch,2021-01-06 02:18:01.170040,2020-12-14 00:00:00.000000,0.67229566,0.96328974,1.71854982,535,766,1368,320,502,888,0.40231208,0.63152825,1.11580392,0.49798125,0.62455630,0.93010997
13031,0,USGeorgiaBulloch,Georgia,Bulloch,2021-01-06 02:18:01.170040,2020-12-15 00:00:00.000000,0.69907600,1.00391437,1.78794479,556,799,1423,331,520,918,0.41673345,0.65340566,1.15396632,0.50585636,0.63484742,0.94663618
13031,0,USGeorgiaBulloch,Georgia,Bulloch,2021-01-06 02:18:01.170040,2020-12-16 00:00:00.000000,0.73079059,1.05377770,1.85940837,581,838,1480,345,536,954,0.43369226,0.67361207,1.19864445,0.50635648,0.64329696,1.01581875
13031,0,USGeorgiaBulloch,Georgia,Bulloch,2021-01-06 02:18:01.170040,2020-12-17 00:00:00.000000,0.76844285,1.11307721,1.93347118,611,886,1539,360,557,992,0.45299002,0.70030042,1.24632537,0.50715907,0.64791888,1.03338094
13031,0,USGeorgiaBulloch,Georgia,Bulloch,2021-01-06 02:18:01.170040,2020-12-18 00:00:00.000000,0.78642655,1.15906875,2.00992086,626,922,1600,377,583,1037,0.47470400,0.73288263,1.30359568,0.51191423,0.65495051,1.06406732
13031,0,USGeorgiaBulloch,Georgia,Bulloch,2021-01-06 02:18:01.170040,2020-12-19 00:00:00.000000,0.79343782,1.20059157,2.08774074,631,955,1662,396,603,1090,0.49815755,0.75805770,1.37009956,0.51661246,0.65909508,1.12055416
13031,0,USGeorgiaBulloch,Georgia,Bulloch,2021-01-06 02:18:01.170040,2020-12-20 00:00:00.000000,0.81345135,1.24631711,2.18654286,647,992,1740,414,626,1148,0.52102236,0.78740184,1.44219156,0.49882919,0.66129835,1.14581635
13031,0,USGeorgiaBulloch,Georgia,Bulloch,2021-01-06 02:18:01.170040,2020-12-21 00:00:00.000000,0.86555976,1.29700088,2.28992427,689,1032,1822,427,655,1207,0.53711708,0.82392183,1.51728920,0.49165576,0.68452063,1.14931024
13031,0,USGeorgiaBulloch,Georgia,Bulloch,2021-01-06 02:18:01.170040,2020-12-22 00:00:00.000000,0.91027597,1.34322973,2.38064451,724,1069,1895,437,678,1265,0.54925239,0.85239840,1.59023017,0.48940957,0.69814588,1.15068353
13031,0,USGeorgiaBulloch,Georgia,Bulloch,2021-01-06 02:18:01.170040,2020-12-23 00:00:00.000000,0.93938690,1.40880377,2.48677902,747,1121,1979,450,714,1318,0.56601592,0.89804963,1.65641042,0.48881841,0.70369851,1.15158867
13031,0,USGeorgiaBulloch,Georgia,Bulloch,2021-01-06 02:18:01.170040,2020-12-24 00:00:00.000000,0.96845158,1.49138686,2.64940759,770,1187,2109,463,745,1365,0.58195106,0.93593572,1.71468701,0.49503521,0.71024163,1.17453312
13031,0,USGeorgiaBulloch,Georgia,Bulloch,2021-01-06 02:18:01.170040,2020-12-25 00:00:00.000000,1.00289856,1.57338356,2.81962970,798,1252,2244,478,781,1430,0.60070363,0.98124790,1.79744259,0.48983176,0.72267801,1.23653546
13031,0,USGeorgiaBulloch,Georgia,Bulloch,2021-01-06 02:18:01.170040,2020-12-26 00:00:00.000000,1.04885903,1.66415982,2.99722254,834,1324,2386,496,821,1522,0.62352559,1.03172866,1.91248884,0.49055325,0.71824136,1.24945504
13031,0,USGeorgiaBulloch,Georgia,Bulloch,2021-01-06 02:18:01.170040,2020-12-27 00:00:00.000000,1.08202335,1.76087955,3.18197175,861,1401,2533,518,858,1598,0.65093925,1.07849833,2.00838535,0.49270106,0.72826980,1.25256220
13031,0,USGeorgiaBulloch,Georgia,Bulloch,2021-01-06 02:18:01.170040,2020-12-28 00:00:00.000000,1.10991747,1.85734370,3.36880139,883,1478,2681,544,914,1640,0.68375024,1.14852755,2.06106501,0.49488389,0.74688442,1.25357197
13031,0,USGeorgiaBulloch,Georgia,Bulloch,2021-01-06 02:18:01.170040,2020-12-29 00:00:00.000000,1.13819223,1.93955385,3.44596692,906,1544,2743,571,968,1680,0.71828533,1.21627205,2.11097231,0.49629943,0.75388666,1.32430886
13031,0,USGeorgiaBulloch,Georgia,Bulloch,2021-01-06 02:18:01.170040,2020-12-30 00:00:00.000000,1.16758927,2.04920332,3.51463978,929,1631,2797,592,1010,1718,0.74440345,1.26934363,2.15883632,0.49689643,0.75835793,1.32900681
13031,0,USGeorgiaBulloch,Georgia,Bulloch,2021-01-06 02:18:01.170040,2020-12-31 00:00:00.000000,1.19870530,2.16354575,3.58019432,954,1722,2850,607,1067,1755,0.76262122,1.34142687,2.20487146,0.49676494,0.76084709,1.36702365
13031,0,USGeorgiaBulloch,Georgia,Bulloch,2021-01-06 02:18:01.170040,2021-01-01 00:00:00.000000,1.23113287,2.26814046,3.64238739,980,1805,2899,622,1114,1790,0.78248139,1.39984605,2.24906667,0.49611629,0.76855086,1.42000059
13031,0,USGeorgiaBulloch,Georgia,Bulloch,2021-01-06 02:18:01.170040,2021-01-02 00:00:00.000000,1.26475509,2.36952075,3.70095519,1006,1886,2946,641,1172,1823,0.80539178,1.47223949,2.29028544,0.46342819,0.78286700,1.43455107
13031,0,USGeorgiaBulloch,Georgia,Bulloch,2021-01-06 02:18:01.170040,2021-01-03 00:00:00.000000,1.28797666,2.46384852,3.75563165,1025,1961,2989,660,1223,1879,0.82953531,1.53687909,2.36156640,0.42842524,0.79773284,1.48928774
13031,0,USGeorgiaBulloch,Georgia,Bulloch,2021-01-06 02:18:01.170040,2021-01-04 00:00:00.000000,1.30551605,2.58162149,3.87523640,1039,2055,3084,665,1264,1984,0.83568795,1.58839441,2.49311032,0.42331336,0.81869754,1.53556002
13031,0,USGeorgiaBulloch,Georgia,Bulloch,2021-01-06 02:18:01.170040,2021-01-05 00:00:00.000000,1.30757816,2.70612122,4.14940194,1040,2154,3303,668,1326,2131,0.83941266,1.66685739,2.67751477,0.42328959,0.82387693,1.55575965
13031,0,USGeorgiaBulloch,Georgia,Bulloch,2021-01-06 02:18:01.170040,2021-01-06 00:00:00.000000,1.30838905,2.85615147,4.44585565,1041,2273,3539,666,1377,2285,0.83741666,1.73042629,2.87040892,0.42330144,0.80983189,1.56284700
13031,0,USGeorgiaBulloch,Georgia,Bulloch,2021-01-06 02:18:01.170040,2021-01-07 00:00:00.000000,1.30839412,3.02724227,4.73745150,1041,2409,3771,670,1454,2444,0.84256572,1.82688318,3.07123138,0.42331351,0.80768056,1.56514062
13031,0,USGeorgiaBulloch,Georgia,Bulloch,2021-01-06 02:18:01.170040,2021-01-08 00:00:00.000000,1.30779113,3.17877094,5.05153489,1041,2530,4021,670,1521,2610,0.84252810,1.91098382,3.27924204,0.42332206,0.80823152,1.56586471
13031,0,USGeorgiaBulloch,Georgia,Bulloch,2021-01-06 02:18:01.170040,2021-01-09 00:00:00.000000,1.29429042,3.27766037,5.37316214,1030,2609,4277,670,1595,2750,0.84211995,2.00457048,3.45564727,0.42332767,0.80845505,1.56609228
13031,0,USGeorgiaBulloch,Georgia,Bulloch,2021-01-06 02:18:01.170040,2021-01-10 00:00:00.000000,1.26588380,3.40702101,5.70031639,1007,2712,4537,669,1678,2939,0.84137616,2.10841336,3.69214617,0.42333124,0.80854453,1.56616413
13031,0,USGeorgiaBulloch,Georgia,Bulloch,2021-01-06 02:18:01.170040,2021-01-11 00:00:00.000000,1.23784374,3.54385066,6.03065412,985,2821,4800,669,1756,3133,0.84051495,2.20678555,3.93607102,0.42333349,0.80858173,1.56618709
13031,0,USGeorgiaBulloch,Georgia,Bulloch,2021-01-06 02:18:01.170040,2021-01-12 00:00:00.000000,1.21016766,3.65082770,6.36151392,963,2906,5064,667,1843,3324,0.83885775,2.31537661,4.17554303,0.42333489,0.80859811,1.56619460
13031,0,USGeorgiaBulloch,Georgia,Bulloch,2021-01-06 02:18:01.170040,2021-01-13 00:00:00.000000,1.18286274,3.73438636,6.68986257,941,2972,5325,652,1901,3507,0.82015921,2.38899420,4.40615324,0.42333575,0.80860587,1.56619715
13031,0,USGeorgiaBulloch,Georgia,Bulloch,2021-01-06 02:18:01.170040,2021-01-14 00:00:00.000000,1.19250931,3.86535307,7.01140930,949,3077,5581,638,1932,3669,0.80170095,2.42804352,4.60919178,0.42333629,0.80860986,1.56619808
13031,0,USGeorgiaBulloch,Georgia,Bulloch,2021-01-06 02:18:01.170040,2021-01-15 00:00:00.000000,1.20248033,3.98790614,7.32583596,957,3174,5831,637,1990,3854,0.80115415,2.50066296,4.84130443,0.42333662,0.80861208,1.56619846
13031,0,USGeorgiaBulloch,Georgia,Bulloch,2021-01-06 02:18:01.170040,2021-01-16 00:00:00.000000,1.21204434,4.04284363,7.72225388,964,3218,6147,643,2026,4041,0.80779058,2.54601717,5.07731626,0.42333683,0.80861340,1.56619863
13031,0,USGeorgiaBulloch,Georgia,Bulloch,2021-01-06 02:18:01.170040,2021-01-17 00:00:00.000000,1.22118477,4.12092564,8.08897156,972,3280,6439,648,2063,4213,0.81415195,2.59178261,5.29302583,0.42333695,0.80861422,1.56619871
