FIPS,HR_UID,nameid,province,region,analysisTime,dates,pointprevalence_025,pointprevalence_50,pointprevalence_975,pointinfections_025,pointinfections_50,pointinfections_975,pointinfectious_025,pointinfectious_50,pointinfectious_975,pointinfectiousprevalence_05,pointinfectiousprevalence_50,pointinfectiousprevalence_95,infectrate_025,infectrate_50,infectrate_975
48369,0,USTexasParmer,Texas,Parmer,2021-01-05 09:13:10.664901,2020-03-09 00:00:00.000000,0.00136919,0.00986004,0.03025250,0,0,2,0,0,1,0.00070772,0.00543427,0.01722340,0.43667308,0.58901437,0.83161284
48369,0,USTexasParmer,Texas,Parmer,2021-01-05 09:13:10.664901,2020-03-10 00:00:00.000000,0.00156511,0.01146508,0.03364745,0,1,3,0,0,1,0.00073536,0.00540514,0.01732835,0.43667308,0.58901242,0.83160815
48369,0,USTexasParmer,Texas,Parmer,2021-01-05 09:13:10.664901,2020-03-11 00:00:00.000000,0.00177803,0.01312776,0.03693100,0,1,3,0,0,1,0.00079266,0.00576401,0.01851982,0.43667308,0.58900814,0.83159592
48369,0,USTexasParmer,Texas,Parmer,2021-01-05 09:13:10.664901,2020-03-12 00:00:00.000000,0.00201526,0.01467405,0.04021561,0,1,3,0,0,1,0.00087260,0.00622663,0.02029975,0.43667307,0.58899870,0.83156293
48369,0,USTexasParmer,Texas,Parmer,2021-01-05 09:13:10.664901,2020-03-13 00:00:00.000000,0.00228277,0.01588985,0.04395622,0,1,4,0,0,2,0.00097213,0.00645937,0.02244314,0.43667302,0.58897765,0.83147130
48369,0,USTexasParmer,Texas,Parmer,2021-01-05 09:13:10.664901,2020-03-14 00:00:00.000000,0.00250086,0.01717706,0.04853215,0,1,4,0,0,2,0.00108578,0.00709325,0.02485539,0.43667285,0.58892970,0.83121079
48369,0,USTexasParmer,Texas,Parmer,2021-01-05 09:13:10.664901,2020-03-15 00:00:00.000000,0.00269583,0.01878198,0.05348916,0,1,5,0,0,2,0.00118660,0.00803288,0.02750454,0.43667221,0.58895851,0.83045929
48369,0,USTexasParmer,Texas,Parmer,2021-01-05 09:13:10.664901,2020-03-16 00:00:00.000000,0.00290692,0.02035408,0.05887136,0,1,5,0,0,2,0.00130255,0.00906168,0.03036780,0.43666986,0.58469660,0.82829650
48369,0,USTexasParmer,Texas,Parmer,2021-01-05 09:13:10.664901,2020-03-17 00:00:00.000000,0.00313428,0.02271366,0.06471449,0,2,6,0,0,3,0.00143416,0.01017841,0.03335225,0.42824526,0.58153675,0.82232914
48369,0,USTexasParmer,Texas,Parmer,2021-01-05 09:13:10.664901,2020-03-18 00:00:00.000000,0.00337735,0.02494653,0.07100133,0,2,6,0,1,3,0.00154433,0.01113713,0.03670332,0.40141037,0.57101380,0.80798209
48369,0,USTexasParmer,Texas,Parmer,2021-01-05 09:13:10.664901,2020-03-19 00:00:00.000000,0.00374566,0.02712850,0.07747612,0,2,7,0,1,3,0.00166101,0.01208609,0.04041814,0.38365460,0.56023854,0.81437592
48369,0,USTexasParmer,Texas,Parmer,2021-01-05 09:13:10.664901,2020-03-20 00:00:00.000000,0.00419662,0.02933453,0.08350744,0,2,8,0,1,4,0.00178677,0.01313402,0.04445524,0.37368152,0.53564312,0.82456251
48369,0,USTexasParmer,Texas,Parmer,2021-01-05 09:13:10.664901,2020-03-21 00:00:00.000000,0.00470348,0.03170144,0.08909141,0,3,8,0,1,4,0.00199920,0.01437915,0.04831617,0.36342312,0.52428280,0.81162321
48369,0,USTexasParmer,Texas,Parmer,2021-01-05 09:13:10.664901,2020-03-22 00:00:00.000000,0.00527275,0.03422572,0.09525801,0,3,9,0,1,4,0.00224110,0.01567214,0.05201094,0.36237950,0.51094776,0.77836609
48369,0,USTexasParmer,Texas,Parmer,2021-01-05 09:13:10.664901,2020-03-23 00:00:00.000000,0.00591173,0.03672003,0.10515456,0,3,10,0,1,5,0.00250779,0.01706428,0.05563544,0.36298482,0.49961767,0.74035491
48369,0,USTexasParmer,Texas,Parmer,2021-01-05 09:13:10.664901,2020-03-24 00:00:00.000000,0.00649874,0.03921115,0.11551055,0,3,11,0,1,5,0.00271905,0.01856634,0.05930174,0.36265067,0.48814314,0.74554396
48369,0,USTexasParmer,Texas,Parmer,2021-01-05 09:13:10.664901,2020-03-25 00:00:00.000000,0.00702565,0.04177369,0.12651949,0,4,12,0,1,6,0.00294452,0.01999040,0.06308826,0.34152757,0.47527394,0.72735120
48369,0,USTexasParmer,Texas,Parmer,2021-01-05 09:13:10.664901,2020-03-26 00:00:00.000000,0.00759989,0.04404836,0.13810495,0,4,13,0,2,6,0.00318663,0.02150375,0.06801768,0.32706327,0.46051623,0.73128953
48369,0,USTexasParmer,Texas,Parmer,2021-01-05 09:13:10.664901,2020-03-27 00:00:00.000000,0.00823097,0.04708297,0.14987361,0,4,14,0,2,7,0.00344798,0.02287511,0.07466845,0.31209746,0.44093291,0.72050022
48369,0,USTexasParmer,Texas,Parmer,2021-01-05 09:13:10.664901,2020-03-28 00:00:00.000000,0.00893076,0.05030838,0.16110753,0,4,15,0,2,7,0.00373189,0.02411549,0.08156655,0.30587432,0.43259966,0.71699907
48369,0,USTexasParmer,Texas,Parmer,2021-01-05 09:13:10.664901,2020-03-29 00:00:00.000000,0.00970508,0.05338232,0.17118785,0,5,16,0,2,8,0.00404260,0.02530587,0.08655920,0.29930490,0.41832726,0.70035913
48369,0,USTexasParmer,Texas,Parmer,2021-01-05 09:13:10.664901,2020-03-30 00:00:00.000000,0.01036489,0.05709515,0.18185449,0,5,17,0,2,8,0.00438399,0.02664444,0.09091756,0.29700061,0.41485292,0.68080891
48369,0,USTexasParmer,Texas,Parmer,2021-01-05 09:13:10.664901,2020-03-31 00:00:00.000000,0.01094278,0.06158547,0.19475062,1,5,18,0,2,9,0.00475834,0.02802802,0.09819702,0.28547429,0.41070710,0.64704509
48369,0,USTexasParmer,Texas,Parmer,2021-01-05 09:13:10.664901,2020-04-01 00:00:00.000000,0.01152816,0.06464581,0.20777019,1,6,19,0,2,10,0.00516645,0.02945852,0.10588723,0.28504104,0.40623980,0.60212762
48369,0,USTexasParmer,Texas,Parmer,2021-01-05 09:13:10.664901,2020-04-02 00:00:00.000000,0.01213758,0.06805298,0.21491427,1,6,20,0,2,10,0.00556693,0.03093194,0.11313197,0.28013208,0.39225739,0.57944480
48369,0,USTexasParmer,Texas,Parmer,2021-01-05 09:13:10.664901,2020-04-03 00:00:00.000000,0.01277775,0.07128785,0.22068748,1,6,21,0,3,11,0.00587517,0.03263978,0.11882338,0.26471695,0.38257782,0.57182680
48369,0,USTexasParmer,Texas,Parmer,2021-01-05 09:13:10.664901,2020-04-04 00:00:00.000000,0.01345152,0.07511938,0.22670347,1,7,21,0,3,11,0.00619443,0.03444749,0.12466742,0.25483883,0.36678498,0.56041325
48369,0,USTexasParmer,Texas,Parmer,2021-01-05 09:13:10.664901,2020-04-05 00:00:00.000000,0.01416147,0.07810180,0.23775695,1,7,22,0,3,12,0.00652717,0.03635708,0.13075917,0.25473164,0.36223257,0.55526336
48369,0,USTexasParmer,Texas,Parmer,2021-01-05 09:13:10.664901,2020-04-06 00:00:00.000000,0.02188467,0.10080178,0.27320130,2,9,26,0,3,13,0.00687543,0.03837186,0.13713687,0.25470929,0.35984645,0.55066707
48369,0,USTexasParmer,Texas,Parmer,2021-01-05 09:13:10.664901,2020-04-07 00:00:00.000000,0.03170038,0.11814134,0.30002074,3,11,28,0,4,14,0.00816817,0.04376286,0.14828420,0.25470510,0.35472369,0.51148231
48369,0,USTexasParmer,Texas,Parmer,2021-01-05 09:13:10.664901,2020-04-08 00:00:00.000000,0.04195663,0.13556494,0.33630831,4,13,32,1,4,15,0.01152844,0.05201636,0.16149530,0.25470697,0.35387227,0.54247678
48369,0,USTexasParmer,Texas,Parmer,2021-01-05 09:13:10.664901,2020-04-09 00:00:00.000000,0.05063562,0.15226250,0.39622692,4,14,38,1,5,17,0.01447932,0.05843725,0.17843156,0.25476762,0.35019627,0.54478374
48369,0,USTexasParmer,Texas,Parmer,2021-01-05 09:13:10.664901,2020-04-10 00:00:00.000000,0.05976253,0.16914879,0.45333088,5,16,43,1,6,19,0.01776410,0.06499576,0.19824598,0.25473428,0.34269928,0.54443829
48369,0,USTexasParmer,Texas,Parmer,2021-01-05 09:13:10.664901,2020-04-11 00:00:00.000000,0.06810804,0.18501971,0.49904732,6,17,47,2,6,20,0.02337458,0.07270731,0.21818312,0.25499877,0.34156296,0.54415107
48369,0,USTexasParmer,Texas,Parmer,2021-01-05 09:13:10.664901,2020-04-12 00:00:00.000000,0.07640649,0.20479411,0.54414003,7,19,52,2,7,22,0.02966448,0.07948022,0.23824625,0.24825791,0.33195867,0.54414942
48369,0,USTexasParmer,Texas,Parmer,2021-01-05 09:13:10.664901,2020-04-13 00:00:00.000000,0.09766469,0.23073381,0.55617694,9,22,53,3,8,24,0.03578941,0.08788673,0.25797196,0.24238812,0.32339631,0.54408788
48369,0,USTexasParmer,Texas,Parmer,2021-01-05 09:13:10.664901,2020-04-14 00:00:00.000000,0.11726847,0.25994510,0.56817224,11,24,54,4,9,26,0.04283579,0.09937317,0.27323313,0.24179166,0.32142343,0.54304994
48369,0,USTexasParmer,Texas,Parmer,2021-01-05 09:13:10.664901,2020-04-15 00:00:00.000000,0.13984548,0.28420371,0.60030234,13,27,57,4,10,27,0.05129134,0.11263519,0.28562534,0.24122179,0.31951549,0.54329553
48369,0,USTexasParmer,Texas,Parmer,2021-01-05 09:13:10.664901,2020-04-16 00:00:00.000000,0.15689524,0.31385860,0.64091380,15,30,61,5,12,28,0.06130867,0.12894360,0.29613510,0.23853648,0.31718333,0.54813013
48369,0,USTexasParmer,Texas,Parmer,2021-01-05 09:13:10.664901,2020-04-17 00:00:00.000000,0.16715056,0.33458040,0.68171880,16,32,65,6,13,30,0.07280616,0.13924343,0.31796216,0.23182334,0.31140020,0.55315840
48369,0,USTexasParmer,Texas,Parmer,2021-01-05 09:13:10.664901,2020-04-18 00:00:00.000000,0.17803296,0.35643424,0.69269723,17,34,66,7,14,33,0.08083536,0.15250807,0.34973087,0.22893483,0.30903368,0.54880747
48369,0,USTexasParmer,Texas,Parmer,2021-01-05 09:13:10.664901,2020-04-19 00:00:00.000000,0.18985264,0.38370698,0.73418145,18,36,70,8,15,35,0.08582974,0.16267885,0.36706648,0.22442034,0.30839601,0.55180393
48369,0,USTexasParmer,Texas,Parmer,2021-01-05 09:13:10.664901,2020-04-20 00:00:00.000000,0.20872193,0.41780425,0.77984612,20,40,74,8,16,35,0.09074347,0.17140359,0.37461125,0.21490769,0.30499834,0.55642036
48369,0,USTexasParmer,Texas,Parmer,2021-01-05 09:13:10.664901,2020-04-21 00:00:00.000000,0.22865501,0.45843072,0.82634904,21,44,79,9,18,37,0.09888366,0.19157165,0.38756807,0.21054896,0.30311682,0.55841919
48369,0,USTexasParmer,Texas,Parmer,2021-01-05 09:13:10.664901,2020-04-22 00:00:00.000000,0.24977368,0.50966722,0.87361330,23,48,83,10,20,39,0.10943297,0.21288811,0.41489674,0.20842498,0.29974350,0.55542810
48369,0,USTexasParmer,Texas,Parmer,2021-01-05 09:13:10.664901,2020-04-23 00:00:00.000000,0.27199803,0.55381783,0.93039385,26,53,89,11,21,42,0.12185465,0.22756762,0.44445656,0.20640011,0.30220462,0.54658178
48369,0,USTexasParmer,Texas,Parmer,2021-01-05 09:13:10.664901,2020-04-24 00:00:00.000000,0.29527892,0.59446823,0.99349649,28,57,95,13,23,45,0.13582986,0.24446625,0.47557632,0.20580423,0.29986339,0.55535596
48369,0,USTexasParmer,Texas,Parmer,2021-01-05 09:13:10.664901,2020-04-25 00:00:00.000000,0.31765474,0.63477971,1.02968187,30,60,98,14,25,48,0.15066258,0.26734633,0.50801243,0.20561821,0.29209275,0.55115799
48369,0,USTexasParmer,Texas,Parmer,2021-01-05 09:13:10.664901,2020-04-26 00:00:00.000000,0.33631588,0.66674470,1.07838239,32,64,103,15,28,51,0.16355405,0.29189239,0.54097314,0.20633096,0.28872636,0.54900346
48369,0,USTexasParmer,Texas,Parmer,2021-01-05 09:13:10.664901,2020-04-27 00:00:00.000000,0.36131065,0.71819425,1.16121753,34,68,111,17,29,55,0.17715061,0.31133893,0.57364258,0.20103194,0.28535216,0.54656293
48369,0,USTexasParmer,Texas,Parmer,2021-01-05 09:13:10.664901,2020-04-28 00:00:00.000000,0.39301607,0.77190659,1.21041638,37,74,116,18,33,58,0.19284636,0.34438576,0.60438517,0.19723279,0.28964117,0.54186370
48369,0,USTexasParmer,Texas,Parmer,2021-01-05 09:13:10.664901,2020-04-29 00:00:00.000000,0.42452786,0.84006014,1.29389119,40,80,124,19,36,61,0.20639065,0.37491261,0.63538800,0.19593499,0.28394496,0.53260482
48369,0,USTexasParmer,Texas,Parmer,2021-01-05 09:13:10.664901,2020-04-30 00:00:00.000000,0.44602651,0.90819874,1.36369461,42,87,130,20,39,63,0.21745786,0.41404188,0.66424142,0.19605047,0.28084562,0.51657848
48369,0,USTexasParmer,Texas,Parmer,2021-01-05 09:13:10.664901,2020-05-01 00:00:00.000000,0.46832481,0.95903184,1.46769035,44,92,140,21,42,65,0.22875368,0.44763221,0.68321024,0.19539342,0.27716147,0.50414060
48369,0,USTexasParmer,Texas,Parmer,2021-01-05 09:13:10.664901,2020-05-02 00:00:00.000000,0.49117676,1.02839243,1.57930111,47,98,151,23,45,68,0.24023919,0.47564858,0.71147664,0.19353643,0.27774979,0.47284068
48369,0,USTexasParmer,Texas,Parmer,2021-01-05 09:13:10.664901,2020-05-03 00:00:00.000000,0.52521806,1.09360405,1.66472717,50,105,159,24,47,70,0.25701779,0.49779402,0.73306568,0.17757181,0.27515835,0.46747674
48369,0,USTexasParmer,Texas,Parmer,2021-01-05 09:13:10.664901,2020-05-04 00:00:00.000000,0.58064350,1.15057478,1.69916238,55,110,163,26,50,75,0.27867907,0.52318289,0.78638914,0.17290685,0.27557949,0.47120439
48369,0,USTexasParmer,Texas,Parmer,2021-01-05 09:13:10.664901,2020-05-05 00:00:00.000000,0.63923750,1.22007870,1.73456334,61,117,166,29,53,77,0.30320113,0.55489928,0.80459039,0.17251603,0.27592435,0.46840193
48369,0,USTexasParmer,Texas,Parmer,2021-01-05 09:13:10.664901,2020-05-06 00:00:00.000000,0.70185847,1.29310194,1.78307383,67,124,171,30,56,81,0.32010817,0.58998143,0.85253065,0.17324317,0.27598236,0.47151769
48369,0,USTexasParmer,Texas,Parmer,2021-01-05 09:13:10.664901,2020-05-07 00:00:00.000000,0.76461692,1.36479880,1.87199619,73,131,179,32,60,86,0.33815727,0.62599228,0.89541035,0.17663756,0.27853759,0.47570320
48369,0,USTexasParmer,Texas,Parmer,2021-01-05 09:13:10.664901,2020-05-08 00:00:00.000000,0.77195411,1.41884395,1.96157246,74,136,188,34,63,90,0.35518668,0.66063509,0.93897634,0.18845733,0.27873894,0.46979559
48369,0,USTexasParmer,Texas,Parmer,2021-01-05 09:13:10.664901,2020-05-09 00:00:00.000000,0.77938846,1.48203674,2.08629141,74,142,200,36,65,94,0.37595536,0.68289820,0.98783588,0.19559241,0.27904089,0.47578949
48369,0,USTexasParmer,Texas,Parmer,2021-01-05 09:13:10.664901,2020-05-10 00:00:00.000000,0.78675509,1.55088400,2.23141126,75,148,214,37,68,99,0.39212414,0.71558933,1.03923267,0.19569213,0.27941006,0.47894564
48369,0,USTexasParmer,Texas,Parmer,2021-01-05 09:13:10.664901,2020-05-11 00:00:00.000000,0.84976297,1.63502428,2.26657615,81,157,217,39,72,103,0.41342866,0.75901909,1.07771745,0.19617154,0.27504497,0.47793454
48369,0,USTexasParmer,Texas,Parmer,2021-01-05 09:13:10.664901,2020-05-12 00:00:00.000000,0.93748099,1.70024012,2.31147207,90,163,222,42,76,106,0.43868090,0.79361363,1.10685173,0.19860225,0.27998905,0.47458234
48369,0,USTexasParmer,Texas,Parmer,2021-01-05 09:13:10.664901,2020-05-13 00:00:00.000000,0.97126285,1.73905778,2.40294505,93,167,230,44,78,109,0.45888472,0.81489141,1.13906053,0.20355977,0.28033489,0.46956939
48369,0,USTexasParmer,Texas,Parmer,2021-01-05 09:13:10.664901,2020-05-14 00:00:00.000000,1.02450027,1.80588336,2.49571198,98,173,239,46,82,114,0.48216553,0.85985332,1.18850136,0.20639500,0.28216502,0.46503147
48369,0,USTexasParmer,Texas,Parmer,2021-01-05 09:13:10.664901,2020-05-15 00:00:00.000000,1.09627513,1.87782167,2.59004426,105,180,248,48,87,120,0.50771786,0.90878924,1.25088268,0.20686669,0.28725244,0.46047612
48369,0,USTexasParmer,Texas,Parmer,2021-01-05 09:13:10.664901,2020-05-16 00:00:00.000000,1.15995025,1.94767278,2.69128457,111,187,258,51,89,126,0.53500890,0.93430425,1.31338968,0.20344329,0.28588963,0.45630587
48369,0,USTexasParmer,Texas,Parmer,2021-01-05 09:13:10.664901,2020-05-17 00:00:00.000000,1.21912655,2.01451991,2.86314273,117,193,275,54,94,131,0.56373824,0.98552264,1.36458777,0.20283071,0.28596129,0.45284083
48369,0,USTexasParmer,Texas,Parmer,2021-01-05 09:13:10.664901,2020-05-18 00:00:00.000000,1.29653876,2.08622128,2.98977766,124,200,287,57,99,134,0.59379959,1.03697758,1.39773746,0.20157039,0.28994889,0.44742949
48369,0,USTexasParmer,Texas,Parmer,2021-01-05 09:13:10.664901,2020-05-19 00:00:00.000000,1.36297259,2.16395045,3.14619533,130,207,302,59,103,139,0.61763238,1.08179803,1.45405452,0.19924549,0.29368602,0.44032098
48369,0,USTexasParmer,Texas,Parmer,2021-01-05 09:13:10.664901,2020-05-20 00:00:00.000000,1.42090433,2.25417435,3.30934815,136,216,317,61,107,146,0.63741806,1.11856966,1.52318109,0.19401817,0.29581063,0.43731484
48369,0,USTexasParmer,Texas,Parmer,2021-01-05 09:13:10.664901,2020-05-21 00:00:00.000000,1.45433445,2.33667301,3.47943195,139,224,334,62,111,152,0.65471275,1.16069534,1.58791870,0.19282521,0.28847727,0.43066011
48369,0,USTexasParmer,Texas,Parmer,2021-01-05 09:13:10.664901,2020-05-22 00:00:00.000000,1.49431743,2.41260352,3.64128587,143,231,349,64,115,159,0.67053566,1.20635181,1.66230319,0.18593027,0.28871889,0.41014386
48369,0,USTexasParmer,Texas,Parmer,2021-01-05 09:13:10.664901,2020-05-23 00:00:00.000000,1.54573531,2.50869520,3.75408961,148,240,360,66,120,166,0.68995033,1.25660868,1.73339371,0.18503998,0.28710548,0.40318328
48369,0,USTexasParmer,Texas,Parmer,2021-01-05 09:13:10.664901,2020-05-24 00:00:00.000000,1.56425115,2.61280568,3.86971432,150,250,371,67,124,172,0.70455446,1.29779702,1.79137577,0.17988593,0.28381890,0.40238102
48369,0,USTexasParmer,Texas,Parmer,2021-01-05 09:13:10.664901,2020-05-25 00:00:00.000000,1.59321823,2.72975401,4.04546172,153,262,388,69,129,177,0.71937032,1.34897263,1.84992551,0.17617743,0.28564199,0.40153063
48369,0,USTexasParmer,Texas,Parmer,2021-01-05 09:13:10.664901,2020-05-26 00:00:00.000000,1.63251501,2.84192777,4.21158790,156,272,404,70,135,184,0.73530518,1.40589864,1.91739544,0.17375824,0.28438001,0.42933681
48369,0,USTexasParmer,Texas,Parmer,2021-01-05 09:13:10.664901,2020-05-27 00:00:00.000000,1.67270536,2.91641315,4.39358342,160,280,422,72,139,192,0.75770392,1.45019261,2.00548025,0.17231712,0.28397182,0.42832046
48369,0,USTexasParmer,Texas,Parmer,2021-01-05 09:13:10.664901,2020-05-28 00:00:00.000000,1.71390270,3.00104472,4.57700999,164,288,439,76,142,200,0.79884075,1.48021837,2.09233549,0.17181583,0.28266266,0.40146678
48369,0,USTexasParmer,Texas,Parmer,2021-01-05 09:13:10.664901,2020-05-29 00:00:00.000000,1.75604284,3.10231177,4.76232174,168,297,457,80,145,207,0.84201886,1.51486708,2.15813505,0.17286652,0.28310354,0.40491549
48369,0,USTexasParmer,Texas,Parmer,2021-01-05 09:13:10.664901,2020-05-30 00:00:00.000000,1.79958188,3.18205015,4.94638157,172,305,475,85,148,213,0.88736069,1.54626101,2.22209520,0.18618371,0.28099939,0.39339475
48369,0,USTexasParmer,Texas,Parmer,2021-01-05 09:13:10.664901,2020-05-31 00:00:00.000000,1.84533265,3.29839304,5.12591020,177,316,492,88,151,219,0.92607812,1.58160600,2.28252666,0.19127334,0.28024312,0.40595660
48369,0,USTexasParmer,Texas,Parmer,2021-01-05 09:13:10.664901,2020-06-01 00:00:00.000000,1.90506587,3.41390775,5.28414491,182,327,507,91,157,224,0.95079280,1.63773634,2.33700222,0.20024404,0.28022576,0.39842050
48369,0,USTexasParmer,Texas,Parmer,2021-01-05 09:13:10.664901,2020-06-02 00:00:00.000000,1.96814904,3.48230964,5.43921577,189,334,522,93,163,229,0.97799988,1.69790064,2.38712771,0.19935482,0.27789922,0.39198580
48369,0,USTexasParmer,Texas,Parmer,2021-01-05 09:13:10.664901,2020-06-03 00:00:00.000000,2.03427045,3.57578194,5.58845792,195,343,536,96,168,234,1.00750616,1.75238851,2.44632754,0.19438085,0.27485408,0.38360090
48369,0,USTexasParmer,Texas,Parmer,2021-01-05 09:13:10.664901,2020-06-04 00:00:00.000000,2.10267368,3.66541642,5.72183877,201,352,549,99,172,241,1.03907684,1.79215201,2.51458111,0.19312761,0.26991021,0.36642609
48369,0,USTexasParmer,Texas,Parmer,2021-01-05 09:13:10.664901,2020-06-05 00:00:00.000000,2.17285528,3.75374025,5.82019610,208,360,559,103,174,247,1.07243470,1.82036498,2.57849975,0.19465115,0.27037155,0.35593976
48369,0,USTexasParmer,Texas,Parmer,2021-01-05 09:13:10.664901,2020-06-06 00:00:00.000000,2.24454570,3.82938028,5.84651536,215,367,561,106,178,253,1.10731907,1.86132706,2.63823491,0.19378098,0.26242538,0.35412053
48369,0,USTexasParmer,Texas,Parmer,2021-01-05 09:13:10.664901,2020-06-07 00:00:00.000000,2.31756892,3.90876940,5.87593040,222,375,564,109,182,258,1.14351598,1.89991318,2.69375235,0.19605897,0.25831615,0.33258240
48369,0,USTexasParmer,Texas,Parmer,2021-01-05 09:13:10.664901,2020-06-08 00:00:00.000000,2.39971851,3.98381215,5.93293459,230,382,569,113,185,264,1.18085793,1.93582638,2.75521391,0.19330077,0.25702239,0.33183038
48369,0,USTexasParmer,Texas,Parmer,2021-01-05 09:13:10.664901,2020-06-09 00:00:00.000000,2.48214686,3.99827768,5.93284786,238,384,569,117,189,272,1.22064655,1.97792801,2.83275625,0.19022953,0.25649835,0.33959931
48369,0,USTexasParmer,Texas,Parmer,2021-01-05 09:13:10.664901,2020-06-10 00:00:00.000000,2.56278513,4.10336176,5.91235408,246,394,567,121,194,279,1.26231323,2.02104483,2.90625888,0.18742658,0.25068915,0.34143189
48369,0,USTexasParmer,Texas,Parmer,2021-01-05 09:13:10.664901,2020-06-11 00:00:00.000000,2.63748687,4.13866255,5.88766012,253,397,565,125,198,285,1.30523359,2.06467342,2.97591461,0.18520064,0.24591297,0.33235614
48369,0,USTexasParmer,Texas,Parmer,2021-01-05 09:13:10.664901,2020-06-12 00:00:00.000000,2.70435609,4.19915905,5.85987275,259,403,562,129,202,292,1.34845194,2.10732905,3.04045092,0.17194120,0.24304843,0.31692844
48369,0,USTexasParmer,Texas,Parmer,2021-01-05 09:13:10.664901,2020-06-13 00:00:00.000000,2.74613786,4.21432845,5.82972707,263,404,559,132,206,291,1.37513320,2.15232664,3.03814947,0.16512443,0.23706154,0.29290617
48369,0,USTexasParmer,Texas,Parmer,2021-01-05 09:13:10.664901,2020-06-14 00:00:00.000000,2.76064241,4.21228783,5.80284618,265,404,557,133,210,291,1.38614725,2.19570085,3.03164872,0.17536989,0.23004068,0.27978810
48369,0,USTexasParmer,Texas,Parmer,2021-01-05 09:13:10.664901,2020-06-15 00:00:00.000000,2.80172378,4.19396601,5.84437472,269,402,561,133,212,293,1.39484622,2.20722802,3.05691159,0.17225076,0.22440093,0.27590672
48369,0,USTexasParmer,Texas,Parmer,2021-01-05 09:13:10.664901,2020-06-16 00:00:00.000000,2.83760566,4.19465179,5.79969676,272,402,557,134,215,296,1.39916084,2.24059605,3.08960448,0.16842453,0.22076835,0.27155435
48369,0,USTexasParmer,Texas,Parmer,2021-01-05 09:13:10.664901,2020-06-17 00:00:00.000000,2.86897064,4.27018476,5.76820314,275,410,554,134,217,299,1.40032734,2.26940276,3.11372680,0.16611061,0.21975846,0.27019320
48369,0,USTexasParmer,Texas,Parmer,2021-01-05 09:13:10.664901,2020-06-18 00:00:00.000000,2.89787112,4.29247861,5.78456495,278,412,555,134,221,301,1.39927013,2.30330451,3.13389063,0.16701437,0.21910811,0.26366084
48369,0,USTexasParmer,Texas,Parmer,2021-01-05 09:13:10.664901,2020-06-19 00:00:00.000000,2.91038319,4.27725715,5.80025727,279,410,557,134,224,304,1.39671592,2.33601054,3.17435791,0.16309442,0.21165966,0.25777383
48369,0,USTexasParmer,Texas,Parmer,2021-01-05 09:13:10.664901,2020-06-20 00:00:00.000000,2.90008574,4.30645656,5.81457480,278,413,558,135,226,308,1.41130964,2.35357522,3.21010682,0.15669291,0.20623015,0.25623616
48369,0,USTexasParmer,Texas,Parmer,2021-01-05 09:13:10.664901,2020-06-21 00:00:00.000000,2.89243525,4.26110877,5.82743144,277,409,559,137,225,311,1.42869516,2.34589137,3.23898242,0.14780798,0.19803799,0.23998375
48369,0,USTexasParmer,Texas,Parmer,2021-01-05 09:13:10.664901,2020-06-22 00:00:00.000000,2.90377387,4.23980595,5.77635772,278,407,554,138,226,312,1.44506373,2.35583392,3.25161943,0.14412317,0.19708773,0.23969621
48369,0,USTexasParmer,Texas,Parmer,2021-01-05 09:13:10.664901,2020-06-23 00:00:00.000000,2.91574698,4.19628961,5.67010245,280,403,544,140,224,311,1.45941532,2.33884834,3.24356190,0.14072421,0.19521730,0.24079625
48369,0,USTexasParmer,Texas,Parmer,2021-01-05 09:13:10.664901,2020-06-24 00:00:00.000000,2.91529703,4.12880648,5.67798321,280,396,545,140,222,313,1.45925564,2.31659721,3.25922393,0.14027228,0.18857667,0.24109256
48369,0,USTexasParmer,Texas,Parmer,2021-01-05 09:13:10.664901,2020-06-25 00:00:00.000000,2.88376011,4.07010064,5.62166483,276,390,539,139,221,315,1.45339115,2.30359581,3.28459148,0.14051681,0.18440391,0.23707219
48369,0,USTexasParmer,Texas,Parmer,2021-01-05 09:13:10.664901,2020-06-26 00:00:00.000000,2.85054746,4.05490413,5.56219025,273,389,534,139,221,316,1.44948910,2.30299370,3.29395885,0.14459254,0.18017544,0.23512260
48369,0,USTexasParmer,Texas,Parmer,2021-01-05 09:13:10.664901,2020-06-27 00:00:00.000000,2.81587041,4.02055526,5.50525563,270,386,528,138,219,315,1.44609982,2.28590386,3.28441484,0.13832511,0.17918354,0.23102240
48369,0,USTexasParmer,Texas,Parmer,2021-01-05 09:13:10.664901,2020-06-28 00:00:00.000000,2.77955226,3.96625312,5.52520178,266,380,530,138,217,311,1.44193907,2.26714094,3.23927833,0.13594718,0.17880957,0.23054906
48369,0,USTexasParmer,Texas,Parmer,2021-01-05 09:13:10.664901,2020-06-29 00:00:00.000000,2.81732794,3.91019098,5.52162313,270,375,530,137,215,306,1.43363394,2.24138238,3.19112152,0.13233962,0.17415909,0.22937172
48369,0,USTexasParmer,Texas,Parmer,2021-01-05 09:13:10.664901,2020-06-30 00:00:00.000000,2.80559550,3.86540884,5.50531431,269,371,528,137,212,301,1.42660755,2.21001842,3.13737196,0.12855078,0.17293726,0.22924196
48369,0,USTexasParmer,Texas,Parmer,2021-01-05 09:13:10.664901,2020-07-01 00:00:00.000000,2.76500646,3.82946667,5.48070864,265,367,526,135,211,295,1.41543498,2.19776011,3.08024302,0.12607943,0.17169705,0.22900428
48369,0,USTexasParmer,Texas,Parmer,2021-01-05 09:13:10.664901,2020-07-02 00:00:00.000000,2.71132418,3.76421047,5.45190808,260,361,523,134,208,292,1.40244322,2.17262067,3.04144897,0.12978703,0.17206740,0.22540258
48369,0,USTexasParmer,Texas,Parmer,2021-01-05 09:13:10.664901,2020-07-03 00:00:00.000000,2.65678854,3.70824181,5.42076111,255,356,520,133,207,288,1.38777706,2.15696929,3.00716062,0.12583099,0.17202029,0.22183552
48369,0,USTexasParmer,Texas,Parmer,2021-01-05 09:13:10.664901,2020-07-04 00:00:00.000000,2.60898008,3.63988609,5.39646778,250,349,518,131,204,285,1.37140218,2.13009375,2.97326560,0.12349353,0.16791391,0.22024635
48369,0,USTexasParmer,Texas,Parmer,2021-01-05 09:13:10.664901,2020-07-05 00:00:00.000000,2.60254920,3.58040822,5.40701709,249,343,519,129,202,282,1.35249445,2.10803740,2.93895266,0.12143379,0.16374586,0.21874063
48369,0,USTexasParmer,Texas,Parmer,2021-01-05 09:13:10.664901,2020-07-06 00:00:00.000000,2.56273620,3.51870941,5.37795306,246,337,516,127,200,279,1.32946838,2.08994315,2.90859627,0.12002293,0.16245470,0.22029413
48369,0,USTexasParmer,Texas,Parmer,2021-01-05 09:13:10.664901,2020-07-07 00:00:00.000000,2.46795571,3.43634302,5.34143317,237,330,513,124,198,279,1.30040783,2.07098403,2.90804260,0.11518724,0.16171455,0.22646559
48369,0,USTexasParmer,Texas,Parmer,2021-01-05 09:13:10.664901,2020-07-08 00:00:00.000000,2.41877845,3.38950714,5.30371808,232,325,509,121,195,278,1.26625307,2.03423547,2.90347607,0.11473588,0.16061190,0.22569990
48369,0,USTexasParmer,Texas,Parmer,2021-01-05 09:13:10.664901,2020-07-09 00:00:00.000000,2.37523196,3.36609053,5.27162144,228,323,506,118,191,273,1.23112233,1.99079793,2.84951331,0.11209445,0.16037488,0.22476490
48369,0,USTexasParmer,Texas,Parmer,2021-01-05 09:13:10.664901,2020-07-10 00:00:00.000000,2.33286465,3.33866553,5.23344033,224,320,502,115,189,271,1.19831101,1.97110563,2.83116501,0.10583590,0.16050007,0.22250339
48369,0,USTexasParmer,Texas,Parmer,2021-01-05 09:13:10.664901,2020-07-11 00:00:00.000000,2.29170455,3.27170588,5.18323620,220,314,497,112,184,270,1.16782787,1.91830632,2.81799682,0.10041682,0.15793823,0.21940589
48369,0,USTexasParmer,Texas,Parmer,2021-01-05 09:13:10.664901,2020-07-12 00:00:00.000000,2.25187285,3.17830279,5.12497195,216,305,492,110,179,269,1.14569564,1.86412348,2.80267315,0.09929891,0.15722018,0.22052449
48369,0,USTexasParmer,Texas,Parmer,2021-01-05 09:13:10.664901,2020-07-13 00:00:00.000000,2.22287326,3.12758916,5.02293930,213,300,482,108,176,267,1.12766710,1.83337816,2.78544946,0.09942543,0.15756197,0.21931010
48369,0,USTexasParmer,Texas,Parmer,2021-01-05 09:13:10.664901,2020-07-14 00:00:00.000000,2.13257950,3.09667174,4.91979155,204,297,472,106,175,265,1.11183125,1.82368867,2.76221326,0.09988289,0.15554152,0.21741979
48369,0,USTexasParmer,Texas,Parmer,2021-01-05 09:13:10.664901,2020-07-15 00:00:00.000000,2.03873088,3.05354305,4.81401885,195,293,462,105,172,262,1.09820478,1.79953723,2.73428873,0.10046360,0.15415615,0.21528646
48369,0,USTexasParmer,Texas,Parmer,2021-01-05 09:13:10.664901,2020-07-16 00:00:00.000000,1.94948358,3.03259775,4.70186058,187,291,451,103,169,259,1.07436591,1.76301073,2.70224265,0.09686308,0.15283816,0.21109897
48369,0,USTexasParmer,Texas,Parmer,2021-01-05 09:13:10.664901,2020-07-17 00:00:00.000000,1.86482261,2.99454473,4.57687225,179,287,439,102,167,256,1.06645242,1.74204060,2.66546541,0.09309240,0.14976410,0.20610803
48369,0,USTexasParmer,Texas,Parmer,2021-01-05 09:13:10.664901,2020-07-18 00:00:00.000000,1.78431762,2.93698792,4.43883388,171,282,426,101,166,251,1.06109329,1.72902281,2.61955442,0.09102410,0.14487829,0.20185349
48369,0,USTexasParmer,Texas,Parmer,2021-01-05 09:13:10.664901,2020-07-19 00:00:00.000000,1.70725268,2.87875101,4.29508691,163,276,412,100,162,245,1.04855454,1.69688318,2.55959952,0.07993332,0.14214514,0.20085057
48369,0,USTexasParmer,Texas,Parmer,2021-01-05 09:13:10.664901,2020-07-20 00:00:00.000000,1.64682422,2.84135155,4.16923798,158,272,400,98,161,239,1.02865369,1.67860788,2.49448868,0.07816762,0.14165345,0.19871718
48369,0,USTexasParmer,Texas,Parmer,2021-01-05 09:13:10.664901,2020-07-21 00:00:00.000000,1.58405784,2.76188619,4.06902213,152,265,390,95,157,233,0.99493740,1.64123026,2.42840082,0.07865394,0.14199368,0.19513166
48369,0,USTexasParmer,Texas,Parmer,2021-01-05 09:13:10.664901,2020-07-22 00:00:00.000000,1.51316363,2.67889515,3.98513517,145,257,382,92,153,226,0.96398986,1.59676042,2.36189316,0.08268584,0.14185413,0.19362183
48369,0,USTexasParmer,Texas,Parmer,2021-01-05 09:13:10.664901,2020-07-23 00:00:00.000000,1.44624384,2.62041173,3.89328062,138,251,373,89,149,221,0.93533277,1.55338747,2.30883765,0.08633528,0.14136657,0.19262274
48369,0,USTexasParmer,Texas,Parmer,2021-01-05 09:13:10.664901,2020-07-24 00:00:00.000000,1.38329421,2.55305687,3.78120399,132,245,363,87,145,216,0.91318889,1.51497758,2.24952140,0.09411512,0.14081837,0.19122654
48369,0,USTexasParmer,Texas,Parmer,2021-01-05 09:13:10.664901,2020-07-25 00:00:00.000000,1.32421002,2.48325754,3.64917604,127,238,350,86,141,209,0.90317601,1.47664107,2.18125551,0.09285045,0.14012334,0.18899785
48369,0,USTexasParmer,Texas,Parmer,2021-01-05 09:13:10.664901,2020-07-26 00:00:00.000000,1.26910402,2.40455922,3.51874116,121,230,337,83,138,202,0.87112377,1.43888852,2.11246511,0.09242325,0.13903841,0.18919709
48369,0,USTexasParmer,Texas,Parmer,2021-01-05 09:13:10.664901,2020-07-27 00:00:00.000000,1.23721099,2.34278557,3.37898833,118,225,324,80,134,197,0.84092173,1.39926677,2.05205626,0.09236183,0.13559054,0.19135638
48369,0,USTexasParmer,Texas,Parmer,2021-01-05 09:13:10.664901,2020-07-28 00:00:00.000000,1.20986092,2.28089738,3.24294027,116,219,311,78,131,193,0.81481350,1.36499290,2.01246604,0.09248481,0.13476865,0.19198813
48369,0,USTexasParmer,Texas,Parmer,2021-01-05 09:13:10.664901,2020-07-29 00:00:00.000000,1.18225907,2.22630088,3.17735270,113,213,305,75,127,189,0.78495158,1.32993362,1.96875583,0.09237333,0.13346619,0.20078294
48369,0,USTexasParmer,Texas,Parmer,2021-01-05 09:13:10.664901,2020-07-30 00:00:00.000000,1.15385388,2.18454372,3.14354351,110,209,301,73,124,184,0.76786642,1.29762920,1.92108977,0.09230144,0.13381605,0.20162567
48369,0,USTexasParmer,Texas,Parmer,2021-01-05 09:13:10.664901,2020-07-31 00:00:00.000000,1.12462697,2.12409702,3.10456015,108,204,298,71,121,179,0.74693045,1.26586728,1.87055263,0.09182213,0.13540661,0.19925947
48369,0,USTexasParmer,Texas,Parmer,2021-01-05 09:13:10.664901,2020-08-01 00:00:00.000000,1.09549497,2.06642487,3.06391274,105,198,294,69,118,176,0.72670201,1.23431982,1.84038276,0.09131935,0.13400300,0.19447448
48369,0,USTexasParmer,Texas,Parmer,2021-01-05 09:13:10.664901,2020-08-02 00:00:00.000000,1.06717690,1.99834319,3.02288748,102,191,290,68,115,175,0.70903462,1.20403641,1.82331911,0.09107027,0.13666275,0.18716345
48369,0,USTexasParmer,Texas,Parmer,2021-01-05 09:13:10.664901,2020-08-03 00:00:00.000000,1.07045883,1.96106377,2.97724413,102,188,285,66,112,173,0.69424953,1.17565425,1.80606815,0.09099231,0.13743654,0.18095833
48369,0,USTexasParmer,Texas,Parmer,2021-01-05 09:13:10.664901,2020-08-04 00:00:00.000000,1.07837926,1.93694075,2.92660427,103,186,281,64,110,171,0.67622003,1.15095489,1.78038047,0.09098675,0.13762448,0.18110870
48369,0,USTexasParmer,Texas,Parmer,2021-01-05 09:13:10.664901,2020-08-05 00:00:00.000000,1.08864219,1.91483409,2.84005028,104,183,272,63,108,168,0.65666194,1.13013339,1.74918052,0.09262184,0.13718177,0.18095742
48369,0,USTexasParmer,Texas,Parmer,2021-01-05 09:13:10.664901,2020-08-06 00:00:00.000000,1.10035881,1.89481745,2.75690142,105,181,264,61,106,164,0.63745106,1.11218105,1.71473862,0.09541805,0.13704884,0.18060099
48369,0,USTexasParmer,Texas,Parmer,2021-01-05 09:13:10.664901,2020-08-07 00:00:00.000000,1.11257965,1.86201008,2.68446801,106,178,257,61,103,161,0.63836731,1.08138649,1.67648965,0.09535216,0.13820731,0.17996803
48369,0,USTexasParmer,Texas,Parmer,2021-01-05 09:13:10.664901,2020-08-08 00:00:00.000000,1.12541281,1.82750174,2.69589662,108,175,258,61,102,157,0.63933505,1.06849678,1.63823449,0.09485062,0.13813919,0.17889288
48369,0,USTexasParmer,Texas,Parmer,2021-01-05 09:13:10.664901,2020-08-09 00:00:00.000000,1.13910316,1.81813979,2.69827905,109,174,259,60,101,153,0.63052274,1.05980095,1.59985735,0.09415679,0.13998160,0.18173562
48369,0,USTexasParmer,Texas,Parmer,2021-01-05 09:13:10.664901,2020-08-10 00:00:00.000000,1.14038124,1.78500944,2.63542102,109,171,253,59,100,150,0.62262134,1.04134340,1.56177250,0.09516997,0.14075954,0.18427977
48369,0,USTexasParmer,Texas,Parmer,2021-01-05 09:13:10.664901,2020-08-11 00:00:00.000000,1.12734757,1.75901482,2.56303407,108,168,246,58,98,146,0.61335007,1.02419003,1.52380500,0.09453201,0.14276327,0.18753422
48369,0,USTexasParmer,Texas,Parmer,2021-01-05 09:13:10.664901,2020-08-12 00:00:00.000000,1.10984961,1.71603527,2.48889097,106,164,239,57,95,142,0.60322692,0.99883889,1.48485593,0.09867530,0.14247454,0.19134366
48369,0,USTexasParmer,Texas,Parmer,2021-01-05 09:13:10.664901,2020-08-13 00:00:00.000000,1.08320614,1.67516518,2.41351292,104,160,231,56,94,138,0.59263665,0.98289334,1.44432650,0.10032431,0.14453773,0.19365621
48369,0,USTexasParmer,Texas,Parmer,2021-01-05 09:13:10.664901,2020-08-14 00:00:00.000000,1.06960405,1.64058134,2.35707156,102,157,226,55,91,134,0.58188816,0.95429027,1.40241278,0.10017624,0.15008712,0.19886264
48369,0,USTexasParmer,Texas,Parmer,2021-01-05 09:13:10.664901,2020-08-15 00:00:00.000000,1.05580134,1.60842021,2.35639003,101,154,226,54,89,131,0.57119096,0.92851368,1.36468225,0.09628321,0.15265690,0.20040041
48369,0,USTexasParmer,Texas,Parmer,2021-01-05 09:13:10.664901,2020-08-16 00:00:00.000000,1.04208341,1.58728816,2.31078792,100,152,221,53,87,128,0.56065107,0.90806136,1.33417573,0.09614554,0.15589041,0.20204157
48369,0,USTexasParmer,Texas,Parmer,2021-01-05 09:13:10.664901,2020-08-17 00:00:00.000000,1.01834941,1.56990592,2.22435506,97,150,213,52,85,125,0.54718926,0.89294477,1.30450255,0.09625795,0.15944994,0.20586468
48369,0,USTexasParmer,Texas,Parmer,2021-01-05 09:13:10.664901,2020-08-18 00:00:00.000000,0.99492866,1.54388169,2.13947766,95,148,205,51,84,122,0.54001289,0.87689793,1.27851056,0.10490179,0.16138691,0.20925258
48369,0,USTexasParmer,Texas,Parmer,2021-01-05 09:13:10.664901,2020-08-19 00:00:00.000000,0.97168854,1.50748447,2.11151044,93,144,202,50,83,120,0.52980562,0.86736273,1.25691087,0.10758327,0.16365802,0.21331762
48369,0,USTexasParmer,Texas,Parmer,2021-01-05 09:13:10.664901,2020-08-20 00:00:00.000000,0.94888734,1.49188512,2.10231821,91,143,201,49,82,119,0.51974625,0.85725572,1.23992996,0.10892933,0.16686691,0.21722874
48369,0,USTexasParmer,Texas,Parmer,2021-01-05 09:13:10.664901,2020-08-21 00:00:00.000000,0.92678603,1.47962955,2.09038500,89,142,200,48,81,117,0.50987338,0.85134367,1.22632231,0.10967714,0.16631366,0.22367220
48369,0,USTexasParmer,Texas,Parmer,2021-01-05 09:13:10.664901,2020-08-22 00:00:00.000000,0.90613152,1.46251881,2.08277692,87,140,200,48,80,115,0.50022564,0.83738074,1.20543378,0.10854036,0.17298699,0.22562133
48369,0,USTexasParmer,Texas,Parmer,2021-01-05 09:13:10.664901,2020-08-23 00:00:00.000000,0.88949471,1.44670741,2.06644351,85,138,198,47,79,114,0.49088963,0.82532780,1.18868877,0.11066367,0.17613748,0.23219745
48369,0,USTexasParmer,Texas,Parmer,2021-01-05 09:13:10.664901,2020-08-24 00:00:00.000000,0.91427423,1.43323359,2.05083153,87,137,196,46,78,113,0.48207999,0.81346421,1.18205966,0.11284787,0.17724820,0.23499500
48369,0,USTexasParmer,Texas,Parmer,2021-01-05 09:13:10.664901,2020-08-25 00:00:00.000000,0.91089189,1.42744000,2.03562978,87,137,195,45,77,113,0.47406101,0.80363262,1.17783107,0.11557736,0.17992403,0.23980462
48369,0,USTexasParmer,Texas,Parmer,2021-01-05 09:13:10.664901,2020-08-26 00:00:00.000000,0.89856419,1.41174491,2.02089601,86,135,194,44,76,112,0.46682998,0.79491627,1.17582750,0.11989001,0.18233627,0.24536214
48369,0,USTexasParmer,Texas,Parmer,2021-01-05 09:13:10.664901,2020-08-27 00:00:00.000000,0.90489820,1.39557485,2.00719191,86,134,192,44,75,112,0.46060637,0.78276074,1.16979655,0.12409449,0.18422805,0.25967357
48369,0,USTexasParmer,Texas,Parmer,2021-01-05 09:13:10.664901,2020-08-28 00:00:00.000000,0.90220068,1.39465861,1.99575728,86,133,191,43,74,112,0.45528959,0.77585926,1.17229353,0.13205295,0.18566284,0.26752256
48369,0,USTexasParmer,Texas,Parmer,2021-01-05 09:13:10.664901,2020-08-29 00:00:00.000000,0.92570430,1.40208618,2.01084663,88,134,193,43,73,113,0.45077797,0.76924660,1.18016300,0.14046970,0.18970889,0.27381362
48369,0,USTexasParmer,Texas,Parmer,2021-01-05 09:13:10.664901,2020-08-30 00:00:00.000000,0.94108462,1.40551491,2.05839843,90,134,197,42,73,113,0.44697046,0.76576749,1.18329078,0.14689003,0.19261329,0.27564077
48369,0,USTexasParmer,Texas,Parmer,2021-01-05 09:13:10.664901,2020-08-31 00:00:00.000000,0.93952594,1.39569073,2.04283781,90,134,196,42,73,113,0.44377767,0.76318066,1.18645362,0.16080428,0.20084789,0.28747602
48369,0,USTexasParmer,Texas,Parmer,2021-01-05 09:13:10.664901,2020-09-01 00:00:00.000000,0.93200872,1.40862186,2.03527262,89,135,195,42,72,114,0.44574927,0.75975961,1.18898320,0.16653601,0.21015068,0.28876746
48369,0,USTexasParmer,Texas,Parmer,2021-01-05 09:13:10.664901,2020-09-02 00:00:00.000000,0.92441665,1.41308741,2.03594189,88,135,195,43,72,114,0.45160321,0.75946997,1.19113306,0.16850837,0.21587295,0.29471007
48369,0,USTexasParmer,Texas,Parmer,2021-01-05 09:13:10.664901,2020-09-03 00:00:00.000000,0.90682522,1.42371393,2.08074644,87,136,199,44,72,114,0.46037697,0.75326620,1.19271762,0.17265624,0.22448993,0.30640587
48369,0,USTexasParmer,Texas,Parmer,2021-01-05 09:13:10.664901,2020-09-04 00:00:00.000000,0.90497986,1.43122049,2.11861458,86,137,203,45,71,114,0.47137297,0.74610179,1.19439045,0.17600516,0.23526182,0.31312701
48369,0,USTexasParmer,Texas,Parmer,2021-01-05 09:13:10.664901,2020-09-05 00:00:00.000000,0.89687664,1.45922317,2.14676770,86,140,206,46,73,114,0.48062238,0.76301600,1.19625017,0.17802705,0.25140001,0.31570162
48369,0,USTexasParmer,Texas,Parmer,2021-01-05 09:13:10.664901,2020-09-06 00:00:00.000000,0.88829008,1.46936609,2.17584983,85,141,208,46,76,115,0.47955836,0.79202454,1.19839067,0.18002758,0.25275757,0.31836401
48369,0,USTexasParmer,Texas,Parmer,2021-01-05 09:13:10.664901,2020-09-07 00:00:00.000000,0.90965955,1.49191672,2.18326531,87,143,209,46,77,115,0.48060521,0.80203720,1.20399539,0.18616455,0.25574344,0.33637457
48369,0,USTexasParmer,Texas,Parmer,2021-01-05 09:13:10.664901,2020-09-08 00:00:00.000000,0.92250731,1.51125853,2.19184724,88,145,210,45,78,116,0.47762978,0.81602484,1.21274146,0.20176235,0.26000521,0.36420871
48369,0,USTexasParmer,Texas,Parmer,2021-01-05 09:13:10.664901,2020-09-09 00:00:00.000000,0.93941598,1.55189624,2.20577901,90,149,211,45,79,116,0.47533269,0.82432147,1.21296757,0.21052072,0.26380343,0.41202346
48369,0,USTexasParmer,Texas,Parmer,2021-01-05 09:13:10.664901,2020-09-10 00:00:00.000000,0.96056283,1.57330777,2.24767814,92,151,215,45,81,116,0.47543913,0.84866733,1.21681329,0.21078311,0.26804746,0.41643750
48369,0,USTexasParmer,Texas,Parmer,2021-01-05 09:13:10.664901,2020-09-11 00:00:00.000000,0.98580510,1.60579110,2.30842007,94,154,221,46,84,117,0.48428859,0.87890924,1.22406617,0.21624726,0.28121515,0.42423159
48369,0,USTexasParmer,Texas,Parmer,2021-01-05 09:13:10.664901,2020-09-12 00:00:00.000000,1.01469804,1.64980319,2.37133623,97,158,227,48,86,117,0.49974388,0.90484375,1.22174331,0.21925813,0.29775740,0.42826244
48369,0,USTexasParmer,Texas,Parmer,2021-01-05 09:13:10.664901,2020-09-13 00:00:00.000000,1.04622452,1.68750135,2.47202633,100,162,237,47,88,118,0.49918282,0.92543374,1.23821096,0.22774705,0.30885744,0.43216744
48369,0,USTexasParmer,Texas,Parmer,2021-01-05 09:13:10.664901,2020-09-14 00:00:00.000000,1.06684486,1.80161386,2.55526398,102,173,245,49,90,121,0.51848129,0.94727764,1.26057651,0.24842480,0.31548519,0.44348594
48369,0,USTexasParmer,Texas,Parmer,2021-01-05 09:13:10.664901,2020-09-15 00:00:00.000000,1.08921265,1.87243130,2.64666269,104,179,254,52,92,123,0.55088079,0.96632712,1.28653327,0.25106881,0.33064044,0.46212810
48369,0,USTexasParmer,Texas,Parmer,2021-01-05 09:13:10.664901,2020-09-16 00:00:00.000000,1.11278910,1.94357704,2.74985402,106,186,264,56,94,126,0.58858916,0.98774711,1.31514143,0.25138692,0.34679137,0.47111969
48369,0,USTexasParmer,Texas,Parmer,2021-01-05 09:13:10.664901,2020-09-17 00:00:00.000000,1.14471048,2.00268892,2.83725446,109,192,272,57,97,129,0.60222453,1.01714992,1.34930949,0.25161193,0.36102366,0.48272384
48369,0,USTexasParmer,Texas,Parmer,2021-01-05 09:13:10.664901,2020-09-18 00:00:00.000000,1.17320649,2.04232109,2.97209896,112,196,285,59,101,133,0.61641541,1.05192842,1.39027101,0.25216587,0.37898767,0.49878478
48369,0,USTexasParmer,Texas,Parmer,2021-01-05 09:13:10.664901,2020-09-19 00:00:00.000000,1.20397909,2.13697959,3.12066550,115,205,299,60,104,139,0.63132194,1.09051806,1.45623681,0.25442601,0.40481356,0.54909202
48369,0,USTexasParmer,Texas,Parmer,2021-01-05 09:13:10.664901,2020-09-20 00:00:00.000000,1.23805592,2.24719691,3.27503493,118,215,314,62,109,146,0.64725175,1.13639701,1.52752854,0.26465898,0.41825122,0.56140756
48369,0,USTexasParmer,Texas,Parmer,2021-01-05 09:13:10.664901,2020-09-21 00:00:00.000000,1.33021052,2.35346817,3.43876712,127,226,330,64,112,154,0.66838824,1.17186896,1.60366713,0.29226461,0.42701100,0.57470886
48369,0,USTexasParmer,Texas,Parmer,2021-01-05 09:13:10.664901,2020-09-22 00:00:00.000000,1.43244818,2.53770720,3.57808976,137,243,343,67,116,161,0.70602546,1.21712930,1.68542703,0.29847597,0.43481810,0.58995393
48369,0,USTexasParmer,Texas,Parmer,2021-01-05 09:13:10.664901,2020-09-23 00:00:00.000000,1.54726565,2.69561035,3.76777607,148,258,361,72,121,170,0.75020977,1.26841592,1.77210269,0.30111392,0.43964829,0.59483675
48369,0,USTexasParmer,Texas,Parmer,2021-01-05 09:13:10.664901,2020-09-24 00:00:00.000000,1.67417403,2.82072541,3.98779348,160,270,383,76,127,178,0.79617496,1.32991822,1.86297666,0.30534725,0.45065731,0.60113121
48369,0,USTexasParmer,Texas,Parmer,2021-01-05 09:13:10.664901,2020-09-25 00:00:00.000000,1.74051839,2.96692763,4.21941455,167,284,405,81,134,187,0.84653341,1.40308970,1.95659249,0.31433623,0.46839644,0.60143227
48369,0,USTexasParmer,Texas,Parmer,2021-01-05 09:13:10.664901,2020-09-26 00:00:00.000000,1.76972143,3.11727758,4.46001968,169,299,428,86,139,195,0.90516121,1.45727603,2.03046036,0.34668693,0.48417317,0.60450672
48369,0,USTexasParmer,Texas,Parmer,2021-01-05 09:13:10.664901,2020-09-27 00:00:00.000000,1.84737260,3.29560066,4.71113560,177,316,452,93,146,204,0.97276485,1.52869153,2.12581042,0.35952970,0.50877224,0.64084966
48369,0,USTexasParmer,Texas,Parmer,2021-01-05 09:13:10.664901,2020-09-28 00:00:00.000000,1.96225094,3.47957131,5.01015421,188,334,481,100,153,218,1.04621049,1.60255362,2.27760175,0.36536283,0.52345488,0.65452345
48369,0,USTexasParmer,Texas,Parmer,2021-01-05 09:13:10.664901,2020-09-29 00:00:00.000000,2.12093653,3.68994639,5.33557722,203,354,512,108,161,232,1.12708919,1.68586374,2.42320549,0.37395286,0.53789355,0.67534635
48369,0,USTexasParmer,Texas,Parmer,2021-01-05 09:13:10.664901,2020-09-30 00:00:00.000000,2.30187285,3.95237349,5.68183435,221,379,545,116,170,247,1.21299284,1.77020001,2.57670107,0.39154351,0.55030890,0.70088217
48369,0,USTexasParmer,Texas,Parmer,2021-01-05 09:13:10.664901,2020-10-01 00:00:00.000000,2.52325970,4.21921504,6.04755784,242,405,580,123,179,263,1.28635486,1.86877453,2.74764751,0.41849670,0.57490150,0.75636036
48369,0,USTexasParmer,Texas,Parmer,2021-01-05 09:13:10.664901,2020-10-02 00:00:00.000000,2.79546969,4.48949530,6.43203555,268,431,617,132,190,281,1.37844795,1.98343972,2.93435311,0.44981615,0.60566256,0.80514589
48369,0,USTexasParmer,Texas,Parmer,2021-01-05 09:13:10.664901,2020-10-03 00:00:00.000000,3.10674593,4.78840540,6.84106423,298,459,657,141,202,301,1.47717359,2.10463897,3.13522616,0.46260109,0.62811064,0.83019686
48369,0,USTexasParmer,Texas,Parmer,2021-01-05 09:13:10.664901,2020-10-04 00:00:00.000000,3.44976053,5.09980348,7.45810908,331,489,716,151,214,322,1.58215405,2.23782914,3.35336185,0.47325186,0.65428947,0.84206124
48369,0,USTexasParmer,Texas,Parmer,2021-01-05 09:13:10.664901,2020-10-05 00:00:00.000000,3.72791614,5.48920558,7.94572194,358,527,763,163,230,343,1.70143515,2.40185910,3.57664245,0.47212986,0.66762175,0.84707495
48369,0,USTexasParmer,Texas,Parmer,2021-01-05 09:13:10.664901,2020-10-06 00:00:00.000000,4.10779462,6.01258824,8.68079242,394,577,833,177,251,371,1.85084634,2.61556672,3.86514988,0.46943433,0.68535701,0.86012133
48369,0,USTexasParmer,Texas,Parmer,2021-01-05 09:13:10.664901,2020-10-07 00:00:00.000000,4.61382886,6.57454030,9.44632468,443,631,907,195,270,399,2.04034766,2.81349766,4.15680000,0.46350485,0.69353285,0.86337928
48369,0,USTexasParmer,Texas,Parmer,2021-01-05 09:13:10.664901,2020-10-08 00:00:00.000000,4.97115308,7.07474351,10.22494724,477,679,982,218,289,428,2.27493856,3.01018028,4.46174721,0.45285780,0.70323874,0.85623902
48369,0,USTexasParmer,Texas,Parmer,2021-01-05 09:13:10.664901,2020-10-09 00:00:00.000000,5.22454268,7.58842542,10.87240673,501,728,1044,238,310,459,2.47969750,3.23416208,4.77928269,0.45200107,0.70542485,0.85102847
48369,0,USTexasParmer,Texas,Parmer,2021-01-05 09:13:10.664901,2020-10-10 00:00:00.000000,5.54084433,8.18906069,11.53482462,532,786,1107,257,334,490,2.68003186,3.48256195,5.10860112,0.45666838,0.70672142,0.84387534
48369,0,USTexasParmer,Texas,Parmer,2021-01-05 09:13:10.664901,2020-10-11 00:00:00.000000,5.98608637,8.82593006,12.29602663,574,847,1181,277,360,523,2.89347561,3.75445063,5.44908745,0.46512800,0.70955570,0.84383721
48369,0,USTexasParmer,Texas,Parmer,2021-01-05 09:13:10.664901,2020-10-12 00:00:00.000000,6.54399956,9.36235435,13.14554291,628,899,1262,299,390,557,3.12271831,4.06333678,5.80029076,0.47019977,0.70978267,0.83283152
48369,0,USTexasParmer,Texas,Parmer,2021-01-05 09:13:10.664901,2020-10-13 00:00:00.000000,7.15959077,10.04277266,13.78554030,687,964,1324,323,422,591,3.36311195,4.40304005,6.16302993,0.47380327,0.70903314,0.83258808
48369,0,USTexasParmer,Texas,Parmer,2021-01-05 09:13:10.664901,2020-10-14 00:00:00.000000,7.76457334,10.77488987,14.54630490,745,1034,1397,347,453,632,3.61725705,4.72180912,6.58581664,0.48097445,0.70935886,0.83347059
48369,0,USTexasParmer,Texas,Parmer,2021-01-05 09:13:10.664901,2020-10-15 00:00:00.000000,8.21233286,11.49871172,15.35466012,788,1104,1474,373,488,676,3.88740670,5.08926933,7.04297768,0.50468191,0.70576743,0.84564916
48369,0,USTexasParmer,Texas,Parmer,2021-01-05 09:13:10.664901,2020-10-16 00:00:00.000000,8.71367521,12.33981287,16.24505907,836,1185,1560,400,522,721,4.17448128,5.43770817,7.51231159,0.50609731,0.69983725,0.87222488
48369,0,USTexasParmer,Texas,Parmer,2021-01-05 09:13:10.664901,2020-10-17 00:00:00.000000,9.27538899,13.11526481,17.12440334,890,1259,1644,428,559,766,4.45707238,5.82233290,7.98024517,0.50555390,0.69086095,0.88530174
48369,0,USTexasParmer,Texas,Parmer,2021-01-05 09:13:10.664901,2020-10-18 00:00:00.000000,9.88451531,13.86676262,18.00711973,949,1331,1729,455,600,810,4.74458277,6.25249715,8.43630057,0.50770840,0.68371846,0.90140481
48369,0,USTexasParmer,Texas,Parmer,2021-01-05 09:13:10.664901,2020-10-19 00:00:00.000000,10.56262556,14.57188124,18.88833736,1014,1399,1814,484,638,853,5.04381204,6.64981104,8.88175597,0.51135588,0.66907909,0.92778384
48369,0,USTexasParmer,Texas,Parmer,2021-01-05 09:13:10.664901,2020-10-20 00:00:00.000000,11.33800396,15.53824423,19.68814815,1089,1492,1891,514,677,884,5.35778079,7.05178006,9.20463383,0.51401932,0.66503027,0.94797341
48369,0,USTexasParmer,Texas,Parmer,2021-01-05 09:13:10.664901,2020-10-21 00:00:00.000000,11.93185649,16.23976828,20.63424867,1146,1559,1981,545,712,935,5.68441254,7.41526973,9.73921869,0.51465944,0.66247144,0.95915819
48369,0,USTexasParmer,Texas,Parmer,2021-01-05 09:13:10.664901,2020-10-22 00:00:00.000000,12.50517590,16.86260865,21.48182723,1201,1619,2063,578,746,975,6.01993020,7.77196901,10.15259743,0.49329944,0.66283916,0.95676769
48369,0,USTexasParmer,Texas,Parmer,2021-01-05 09:13:10.664901,2020-10-23 00:00:00.000000,13.04422670,17.49524131,22.28526268,1252,1680,2140,612,782,1015,6.37506952,8.14628769,10.56803127,0.47925976,0.66460041,0.93014440
48369,0,USTexasParmer,Texas,Parmer,2021-01-05 09:13:10.664901,2020-10-24 00:00:00.000000,13.54526271,18.24811810,23.17085375,1301,1752,2225,643,826,1050,6.69551680,8.60560836,10.93710781,0.47221601,0.65405761,0.89110899
48369,0,USTexasParmer,Texas,Parmer,2021-01-05 09:13:10.664901,2020-10-25 00:00:00.000000,14.00135711,18.91580804,24.05164619,1344,1816,2310,675,871,1097,7.02943470,9.07553637,11.42453982,0.47049530,0.63213570,0.89007476
48369,0,USTexasParmer,Texas,Parmer,2021-01-05 09:13:10.664901,2020-10-26 00:00:00.000000,14.45917766,19.50618794,24.83204715,1388,1873,2385,706,913,1142,7.35775037,9.50813258,11.89327250,0.45185796,0.61592562,0.83627488
48369,0,USTexasParmer,Texas,Parmer,2021-01-05 09:13:10.664901,2020-10-27 00:00:00.000000,14.82988037,20.13089654,25.49759180,1424,1933,2449,737,951,1184,7.67409836,9.90223004,12.33525039,0.39997081,0.60473682,0.82312180
48369,0,USTexasParmer,Texas,Parmer,2021-01-05 09:13:10.664901,2020-10-28 00:00:00.000000,15.03405111,20.67998532,25.73646521,1444,1986,2471,761,977,1225,7.92824192,10.17293677,12.76290078,0.37571036,0.59166490,0.79320753
48369,0,USTexasParmer,Texas,Parmer,2021-01-05 09:13:10.664901,2020-10-29 00:00:00.000000,15.00747652,21.01061524,25.80731329,1441,2018,2478,782,1000,1260,8.14389627,10.41629632,13.11942363,0.37302343,0.57844949,0.77790409
48369,0,USTexasParmer,Texas,Parmer,2021-01-05 09:13:10.664901,2020-10-30 00:00:00.000000,15.15177249,21.25775175,25.85870248,1455,2041,2483,799,1021,1310,8.32637526,10.63517083,13.64525704,0.37789056,0.55701979,0.77652455
48369,0,USTexasParmer,Texas,Parmer,2021-01-05 09:13:10.664901,2020-10-31 00:00:00.000000,14.94410318,21.33294559,25.71141197,1435,2049,2469,820,1039,1330,8.53772908,10.82460869,13.84980716,0.36610155,0.54457332,0.74548945
48369,0,USTexasParmer,Texas,Parmer,2021-01-05 09:13:10.664901,2020-11-01 00:00:00.000000,14.96887017,21.25347241,25.78456850,1437,2041,2476,826,1053,1343,8.60326907,10.96640389,13.98239619,0.35968951,0.52835969,0.72467042
48369,0,USTexasParmer,Texas,Parmer,2021-01-05 09:13:10.664901,2020-11-02 00:00:00.000000,14.96054451,21.00742487,25.67655296,1436,2017,2466,824,1063,1354,8.58233785,11.07742970,14.10641781,0.35659643,0.51618628,0.71826413
48369,0,USTexasParmer,Texas,Parmer,2021-01-05 09:13:10.664901,2020-11-03 00:00:00.000000,14.89633288,20.72795297,25.43818390,1430,1990,2443,824,1063,1365,8.58610063,11.07537459,14.21724349,0.34455857,0.51069851,0.73305202
48369,0,USTexasParmer,Texas,Parmer,2021-01-05 09:13:10.664901,2020-11-04 00:00:00.000000,14.76287986,20.66557003,25.21947349,1417,1984,2422,820,1072,1371,8.54648896,11.16523268,14.27445048,0.32479142,0.49338396,0.71966081
48369,0,USTexasParmer,Texas,Parmer,2021-01-05 09:13:10.664901,2020-11-05 00:00:00.000000,14.56862484,20.49150743,24.88621313,1399,1968,2390,808,1071,1368,8.41403444,11.16029885,14.24669611,0.32490241,0.48313232,0.70329305
48369,0,USTexasParmer,Texas,Parmer,2021-01-05 09:13:10.664901,2020-11-06 00:00:00.000000,14.25730697,20.18751856,24.49674584,1369,1939,2352,793,1064,1358,8.26594379,11.07774999,14.14853364,0.31660526,0.47983036,0.68990420
48369,0,USTexasParmer,Texas,Parmer,2021-01-05 09:13:10.664901,2020-11-07 00:00:00.000000,13.80666181,19.89265475,24.25933815,1326,1910,2330,778,1053,1345,8.10546559,10.97096289,14.01177518,0.32201249,0.48095008,0.69164648
48369,0,USTexasParmer,Texas,Parmer,2021-01-05 09:13:10.664901,2020-11-08 00:00:00.000000,13.33973510,19.60386762,24.00305713,1281,1882,2305,773,1043,1336,8.05344809,10.86285359,13.91646704,0.31514209,0.48528828,0.68236537
48369,0,USTexasParmer,Texas,Parmer,2021-01-05 09:13:10.664901,2020-11-09 00:00:00.000000,12.89021973,19.31114347,23.74917097,1238,1854,2281,769,1034,1325,8.01154706,10.77065464,13.79779244,0.30307451,0.49193390,0.69136231
48369,0,USTexasParmer,Texas,Parmer,2021-01-05 09:13:10.664901,2020-11-10 00:00:00.000000,12.44121107,18.95060453,23.45398951,1194,1820,2252,754,1016,1311,7.85153608,10.57906295,13.65543590,0.29884869,0.49861066,0.68855479
48369,0,USTexasParmer,Texas,Parmer,2021-01-05 09:13:10.664901,2020-11-11 00:00:00.000000,11.99745580,18.49719585,23.00761957,1152,1776,2209,735,999,1295,7.65339295,10.40191975,13.49013021,0.29763793,0.50554498,0.67962686
48369,0,USTexasParmer,Texas,Parmer,2021-01-05 09:13:10.664901,2020-11-12 00:00:00.000000,11.56464059,18.12319584,22.52132353,1110,1740,2163,708,990,1263,7.38095051,10.30737649,13.15159270,0.30011873,0.50794899,0.68101962
48369,0,USTexasParmer,Texas,Parmer,2021-01-05 09:13:10.664901,2020-11-13 00:00:00.000000,11.16179559,17.61794141,21.99447558,1072,1692,2112,682,968,1226,7.10552004,10.08746681,12.76447357,0.30920745,0.52054178,0.69044128
48369,0,USTexasParmer,Texas,Parmer,2021-01-05 09:13:10.664901,2020-11-14 00:00:00.000000,10.82357781,17.12126129,21.43403538,1039,1644,2058,663,954,1183,6.90476239,9.93616115,12.31674814,0.34405091,0.52841036,0.71151577
48369,0,USTexasParmer,Texas,Parmer,2021-01-05 09:13:10.664901,2020-11-15 00:00:00.000000,10.53344954,16.57969573,20.83438785,1011,1592,2001,653,934,1167,6.79896039,9.73087745,12.15361019,0.35320465,0.54426042,0.73196341
48369,0,USTexasParmer,Texas,Parmer,2021-01-05 09:13:10.664901,2020-11-16 00:00:00.000000,10.28250049,16.11034485,20.26662047,987,1547,1946,645,913,1139,6.72308650,9.51042570,11.86208437,0.35399975,0.55055065,0.74875069
48369,0,USTexasParmer,Texas,Parmer,2021-01-05 09:13:10.664901,2020-11-17 00:00:00.000000,10.15761687,15.79222891,19.64223509,975,1516,1886,635,899,1112,6.61889272,9.35992404,11.57914153,0.35879010,0.56414333,0.79527661
48369,0,USTexasParmer,Texas,Parmer,2021-01-05 09:13:10.664901,2020-11-18 00:00:00.000000,9.78626763,15.30245169,18.98967498,939,1469,1823,627,872,1094,6.53282428,9.08338745,11.39556370,0.36552421,0.59321935,0.84384913
48369,0,USTexasParmer,Texas,Parmer,2021-01-05 09:13:10.664901,2020-11-19 00:00:00.000000,9.53687260,14.96754104,18.32931213,916,1437,1760,616,845,1085,6.42078460,8.79820859,11.30045011,0.37239797,0.60167147,0.86787377
48369,0,USTexasParmer,Texas,Parmer,2021-01-05 09:13:10.664901,2020-11-20 00:00:00.000000,9.29067708,14.54993644,17.67020037,892,1397,1697,600,820,1069,6.25510982,8.54377975,11.13610209,0.38046783,0.61389601,0.87683326
48369,0,USTexasParmer,Texas,Parmer,2021-01-05 09:13:10.664901,2020-11-21 00:00:00.000000,9.04828702,14.13437842,17.01682583,869,1357,1634,585,796,1037,6.09386555,8.28949809,10.80151892,0.38129424,0.63343104,0.88764814
48369,0,USTexasParmer,Texas,Parmer,2021-01-05 09:13:10.664901,2020-11-22 00:00:00.000000,8.81670480,13.74981326,16.37207598,846,1320,1572,562,766,1004,5.85939619,7.98535552,10.45923281,0.38324217,0.65938616,0.92756807
48369,0,USTexasParmer,Texas,Parmer,2021-01-05 09:13:10.664901,2020-11-23 00:00:00.000000,8.60235430,13.26385999,15.69340898,826,1273,1507,536,739,971,5.58412896,7.69895542,10.11288423,0.38235052,0.67854603,0.97247619
48369,0,USTexasParmer,Texas,Parmer,2021-01-05 09:13:10.664901,2020-11-24 00:00:00.000000,8.41026852,12.78649266,15.15835285,807,1228,1455,510,715,937,5.31749075,7.45236202,9.75906680,0.38147024,0.69085542,0.99857377
48369,0,USTexasParmer,Texas,Parmer,2021-01-05 09:13:10.664901,2020-11-25 00:00:00.000000,8.21554680,12.28124723,14.75869223,789,1179,1417,485,695,909,5.05875847,7.24219885,9.46405110,0.38096575,0.69700995,1.01618338
48369,0,USTexasParmer,Texas,Parmer,2021-01-05 09:13:10.664901,2020-11-26 00:00:00.000000,8.00692060,11.82549194,14.36967991,769,1135,1380,461,674,890,4.80763096,7.02408419,9.27579028,0.38086439,0.69489254,1.02777615
48369,0,USTexasParmer,Texas,Parmer,2021-01-05 09:13:10.664901,2020-11-27 00:00:00.000000,7.78035801,11.49167713,14.17960835,747,1103,1361,438,656,877,4.56495395,6.83932356,9.13278151,0.38115071,0.69498122,1.04053733
48369,0,USTexasParmer,Texas,Parmer,2021-01-05 09:13:10.664901,2020-11-28 00:00:00.000000,7.54347018,11.19785423,13.98966956,724,1075,1343,416,636,862,4.33259594,6.63044021,8.97727382,0.38183162,0.73490667,1.04849248
48369,0,USTexasParmer,Texas,Parmer,2021-01-05 09:13:10.664901,2020-11-29 00:00:00.000000,7.30422462,10.84667940,13.46620641,701,1041,1293,395,618,845,4.11355186,6.43801563,8.79924717,0.37828316,0.75283249,1.02781683
48369,0,USTexasParmer,Texas,Parmer,2021-01-05 09:13:10.664901,2020-11-30 00:00:00.000000,7.03531654,10.52068556,13.12814099,675,1010,1260,375,598,819,3.91202166,6.23366095,8.53383233,0.36570640,0.77666428,1.08396789
48369,0,USTexasParmer,Texas,Parmer,2021-01-05 09:13:10.664901,2020-12-01 00:00:00.000000,6.76970727,10.19242160,12.76900790,650,978,1226,358,576,805,3.73018260,6.00660690,8.39015044,0.36368220,0.76854973,1.05778487
48369,0,USTexasParmer,Texas,Parmer,2021-01-05 09:13:10.664901,2020-12-02 00:00:00.000000,6.50786008,9.74390629,12.46765469,625,935,1197,342,561,790,3.56946211,5.84817111,8.22900529,0.37336386,0.75015405,1.03374384
48369,0,USTexasParmer,Texas,Parmer,2021-01-05 09:13:10.664901,2020-12-03 00:00:00.000000,6.25109932,9.39213194,12.18134489,600,902,1170,329,548,777,3.42738255,5.71250437,8.09334961,0.36756271,0.73366675,1.04427397
48369,0,USTexasParmer,Texas,Parmer,2021-01-05 09:13:10.664901,2020-12-04 00:00:00.000000,6.00034062,8.95943995,11.88100048,576,860,1141,316,526,763,3.29880863,5.47971192,7.95296285,0.36218135,0.73619198,1.06557078
48369,0,USTexasParmer,Texas,Parmer,2021-01-05 09:13:10.664901,2020-12-05 00:00:00.000000,5.75629276,8.59970398,11.56776810,552,826,1111,305,505,749,3.18056981,5.26207413,7.80447262,0.35946876,0.72394362,1.12389095
48369,0,USTexasParmer,Texas,Parmer,2021-01-05 09:13:10.664901,2020-12-06 00:00:00.000000,5.51987434,8.23003253,11.23227746,530,790,1078,295,487,732,3.08021338,5.07443338,7.63041786,0.35832519,0.72738964,1.12193593
48369,0,USTexasParmer,Texas,Parmer,2021-01-05 09:13:10.664901,2020-12-07 00:00:00.000000,5.29361672,7.90778825,10.87974085,508,759,1044,287,469,715,2.98852935,4.88665214,7.44666306,0.35214916,0.72820282,1.08700956
48369,0,USTexasParmer,Texas,Parmer,2021-01-05 09:13:10.664901,2020-12-08 00:00:00.000000,5.07704548,7.49350505,10.50375827,487,719,1008,277,451,694,2.89117589,4.69738546,7.23281347,0.34137788,0.73547765,1.10408913
48369,0,USTexasParmer,Texas,Parmer,2021-01-05 09:13:10.664901,2020-12-09 00:00:00.000000,4.86843499,7.16002861,10.12192584,467,687,972,268,431,672,2.79028135,4.49286067,7.00314844,0.34132153,0.74142468,1.11828925
48369,0,USTexasParmer,Texas,Parmer,2021-01-05 09:13:10.664901,2020-12-10 00:00:00.000000,4.66796340,6.87975377,9.79380228,448,660,940,258,410,650,2.68803453,4.27837209,6.77005683,0.34734489,0.76016670,1.13392415
48369,0,USTexasParmer,Texas,Parmer,2021-01-05 09:13:10.664901,2020-12-11 00:00:00.000000,4.41842929,6.56160266,9.57157990,424,630,919,249,390,627,2.59738312,4.06716436,6.53820017,0.34896260,0.78297578,1.13409093
48369,0,USTexasParmer,Texas,Parmer,2021-01-05 09:13:10.664901,2020-12-12 00:00:00.000000,4.14096964,6.25168523,9.25807626,397,600,889,241,372,605,2.51504002,3.87321894,6.30917492,0.34628524,0.81587155,1.12277029
48369,0,USTexasParmer,Texas,Parmer,2021-01-05 09:13:10.664901,2020-12-13 00:00:00.000000,3.88387906,5.91534356,8.95500360,373,568,860,233,355,584,2.43536673,3.70106971,6.08217139,0.34517095,0.82308426,1.14452162
48369,0,USTexasParmer,Texas,Parmer,2021-01-05 09:13:10.664901,2020-12-14 00:00:00.000000,3.68594562,5.63415187,8.63217937,354,541,829,223,339,562,2.32519042,3.53166021,5.85682898,0.34496833,0.82054765,1.18138844
48369,0,USTexasParmer,Texas,Parmer,2021-01-05 09:13:10.664901,2020-12-15 00:00:00.000000,3.50463518,5.37375966,8.31634907,336,516,798,213,323,541,2.22037363,3.36585247,5.63491055,0.34501716,0.82961580,1.21465468
48369,0,USTexasParmer,Texas,Parmer,2021-01-05 09:13:10.664901,2020-12-16 00:00:00.000000,3.35285640,5.13143105,8.00530282,322,492,768,204,308,520,2.12557994,3.20829711,5.41630073,0.33426243,0.84520176,1.21447446
48369,0,USTexasParmer,Texas,Parmer,2021-01-05 09:13:10.664901,2020-12-17 00:00:00.000000,3.17762863,4.87177500,7.69749266,305,467,739,193,295,499,2.01028647,3.07806689,5.20119267,0.32568587,0.85794997,1.21017240
48369,0,USTexasParmer,Texas,Parmer,2021-01-05 09:13:10.664901,2020-12-18 00:00:00.000000,3.03331252,4.62739248,7.39357359,291,444,710,182,283,484,1.89831013,2.95410005,5.04248215,0.30955049,0.86861425,1.26265225
48369,0,USTexasParmer,Texas,Parmer,2021-01-05 09:13:10.664901,2020-12-19 00:00:00.000000,2.90483075,4.40690371,7.09132567,279,423,681,171,272,471,1.78532688,2.83570075,4.90715298,0.29144923,0.87075269,1.33694470
48369,0,USTexasParmer,Texas,Parmer,2021-01-05 09:13:10.664901,2020-12-20 00:00:00.000000,2.74375137,4.20295916,6.79297883,263,403,652,161,261,453,1.67933698,2.72203522,4.72192370,0.28118385,0.87719169,1.39141318
48369,0,USTexasParmer,Texas,Parmer,2021-01-05 09:13:10.664901,2020-12-21 00:00:00.000000,2.61272845,3.99926023,6.52398345,250,384,626,151,251,435,1.58032977,2.61327943,4.53226374,0.27686077,0.88631994,1.39959820
48369,0,USTexasParmer,Texas,Parmer,2021-01-05 09:13:10.664901,2020-12-22 00:00:00.000000,2.45835195,3.82014176,6.26098019,236,366,601,143,239,418,1.49560760,2.48967446,4.35244062,0.27546541,0.89568023,1.40507395
48369,0,USTexasParmer,Texas,Parmer,2021-01-05 09:13:10.664901,2020-12-23 00:00:00.000000,2.37301712,3.65539118,6.00393563,227,351,576,136,229,401,1.42230155,2.38809904,4.18040298,0.27739493,0.89373664,1.40514527
48369,0,USTexasParmer,Texas,Parmer,2021-01-05 09:13:10.664901,2020-12-24 00:00:00.000000,2.30131186,3.47133681,5.75208360,221,333,552,130,219,385,1.35858917,2.28944628,4.01486987,0.27785953,0.89751182,1.36280095
48369,0,USTexasParmer,Texas,Parmer,2021-01-05 09:13:10.664901,2020-12-25 00:00:00.000000,2.23721955,3.29002796,5.50468901,214,316,528,124,210,370,1.30078638,2.19374688,3.85598684,0.27728640,0.90915482,1.38972572
48369,0,USTexasParmer,Texas,Parmer,2021-01-05 09:13:10.664901,2020-12-26 00:00:00.000000,2.10039355,3.12351349,5.26135099,201,300,505,119,202,355,1.24458363,2.11278030,3.70327130,0.27663862,0.90314075,1.34934897
48369,0,USTexasParmer,Texas,Parmer,2021-01-05 09:13:10.664901,2020-12-27 00:00:00.000000,1.96814924,2.97979814,5.02229618,189,286,482,114,192,341,1.18688864,2.00813702,3.55638161,0.27698434,0.91061180,1.34957333
48369,0,USTexasParmer,Texas,Parmer,2021-01-05 09:13:10.664901,2020-12-28 00:00:00.000000,1.83625313,2.80879725,4.75412544,176,269,456,108,183,328,1.13042345,1.91436972,3.41507143,0.27761152,0.91383156,1.32450714
48369,0,USTexasParmer,Texas,Parmer,2021-01-05 09:13:10.664901,2020-12-29 00:00:00.000000,1.71498019,2.64843728,4.54409379,164,254,436,102,174,314,1.07176073,1.81749597,3.26998607,0.27789301,0.91933229,1.37247510
48369,0,USTexasParmer,Texas,Parmer,2021-01-05 09:13:10.664901,2020-12-30 00:00:00.000000,1.60076514,2.49535778,4.29960960,153,239,412,97,164,300,1.01291653,1.71477191,3.12388742,0.27617863,0.92961308,1.43754440
48369,0,USTexasParmer,Texas,Parmer,2021-01-05 09:13:10.664901,2020-12-31 00:00:00.000000,1.49341486,2.35088458,4.05170270,143,225,389,91,155,286,0.95488042,1.61848628,2.97874840,0.26729717,0.93530616,1.45924792
48369,0,USTexasParmer,Texas,Parmer,2021-01-05 09:13:10.664901,2021-01-01 00:00:00.000000,1.39263722,2.22781001,3.81323269,133,213,366,86,147,272,0.89830182,1.53319926,2.83296537,0.23293719,0.93411006,1.52546925
48369,0,USTexasParmer,Texas,Parmer,2021-01-05 09:13:10.664901,2021-01-02 00:00:00.000000,1.29813274,2.10964243,3.58583510,124,202,344,81,140,257,0.84364464,1.46225178,2.68013951,0.21241261,0.94093823,1.54892373
48369,0,USTexasParmer,Texas,Parmer,2021-01-05 09:13:10.664901,2021-01-03 00:00:00.000000,1.20959853,1.99334220,3.39384586,116,191,325,75,133,243,0.79124143,1.38693123,2.53196868,0.20919618,0.95402556,1.56385079
48369,0,USTexasParmer,Texas,Parmer,2021-01-05 09:13:10.664901,2021-01-04 00:00:00.000000,1.12673068,1.91550528,3.21055809,108,183,308,71,125,229,0.74133951,1.31115805,2.38883391,0.20888504,0.98697208,1.57314892
48369,0,USTexasParmer,Texas,Parmer,2021-01-05 09:13:10.664901,2021-01-05 00:00:00.000000,1.04922729,1.82648268,3.03583503,100,175,291,66,119,216,0.69413663,1.24917603,2.25106635,0.20889311,1.00163392,1.57884342
48369,0,USTexasParmer,Texas,Parmer,2021-01-05 09:13:10.664901,2021-01-06 00:00:00.000000,0.97679151,1.72076115,2.86948326,93,165,275,62,113,203,0.64965008,1.17964367,2.11892866,0.20891854,1.00767160,1.58228880
48369,0,USTexasParmer,Texas,Parmer,2021-01-05 09:13:10.664901,2021-01-07 00:00:00.000000,0.90913395,1.62146656,2.71127003,87,155,260,58,106,191,0.60777310,1.11215296,1.99260254,0.20893506,1.02120317,1.58435731
48369,0,USTexasParmer,Texas,Parmer,2021-01-05 09:13:10.664901,2021-01-08 00:00:00.000000,0.84597443,1.52443865,2.57567464,81,146,247,53,100,179,0.56219540,1.04356249,1.87218690,0.20894449,1.02053372,1.61034539
48369,0,USTexasParmer,Texas,Parmer,2021-01-05 09:13:10.664901,2021-01-09 00:00:00.000000,0.78207915,1.43064580,2.44645061,75,137,234,49,94,168,0.51891016,0.97905019,1.75770403,0.20894975,1.02166754,1.62071150
48369,0,USTexasParmer,Texas,Parmer,2021-01-05 09:13:10.664901,2021-01-10 00:00:00.000000,0.71716584,1.34226230,2.32267296,68,128,223,45,88,158,0.47828388,0.91823834,1.64911021,0.20895266,1.02204602,1.62105248
48369,0,USTexasParmer,Texas,Parmer,2021-01-05 09:13:10.664901,2021-01-11 00:00:00.000000,0.65723344,1.26744507,2.20422472,63,121,211,42,82,148,0.44029538,0.86204117,1.54630759,0.20895427,1.02217500,1.62127824
48369,0,USTexasParmer,Texas,Parmer,2021-01-05 09:13:10.664901,2021-01-12 00:00:00.000000,0.60197944,1.19667249,2.09097783,57,114,200,38,78,139,0.40488596,0.81442586,1.44915577,0.20895516,1.02092938,1.62142599
48369,0,USTexasParmer,Texas,Parmer,2021-01-05 09:13:10.664901,2021-01-13 00:00:00.000000,0.55110286,1.12424309,1.98279515,52,107,190,35,74,131,0.37197005,0.77346183,1.37114837,0.20895566,1.01912879,1.62152194
48369,0,USTexasParmer,Texas,Parmer,2021-01-05 09:13:10.664901,2021-01-14 00:00:00.000000,0.50688047,1.05509018,1.87953230,48,101,180,32,69,124,0.34144350,0.72627888,1.30115306,0.20895593,1.01794171,1.62158391
48369,0,USTexasParmer,Texas,Parmer,2021-01-05 09:13:10.664901,2021-01-15 00:00:00.000000,0.47154720,0.99401473,1.78103937,45,95,171,30,65,118,0.31602810,0.67989131,1.23421753,0.20895608,1.01716500,1.62162380
48369,0,USTexasParmer,Texas,Parmer,2021-01-05 09:13:10.664901,2021-01-16 00:00:00.000000,0.43265858,0.94167744,1.68716234,41,90,162,28,61,112,0.29341712,0.63632903,1.17026380,0.20895617,1.01665917,1.62164943
48369,0,USTexasParmer,Texas,Parmer,2021-01-05 09:13:10.664901,2021-01-17 00:00:00.000000,0.39528500,0.89083346,1.59774448,37,85,153,26,57,107,0.27222775,0.59544103,1.12033734,0.20895621,1.01633070,1.62166586
