FIPS,HR_UID,nameid,province,region,analysisTime,dates,pointprevalence_025,pointprevalence_50,pointprevalence_975,pointinfections_025,pointinfections_50,pointinfections_975,pointinfectious_025,pointinfectious_50,pointinfectious_975,pointinfectiousprevalence_05,pointinfectiousprevalence_50,pointinfectiousprevalence_95,infectrate_025,infectrate_50,infectrate_975
17111,0,USIllinoisMcHenry,Illinois,McHenry,2021-01-06 00:51:19.615925,2020-03-09 00:00:00.000000,0.00277231,0.00520205,0.01126011,8,16,34,2,6,13,0.00080945,0.00203472,0.00450906,0.61209955,0.77677177,0.97226060
17111,0,USIllinoisMcHenry,Illinois,McHenry,2021-01-06 00:51:19.615925,2020-03-10 00:00:00.000000,0.00383326,0.00679427,0.01374230,11,20,42,3,7,16,0.00128552,0.00240982,0.00532220,0.60973408,0.77677172,0.97225556
17111,0,USIllinoisMcHenry,Illinois,McHenry,2021-01-06 00:51:19.615925,2020-03-11 00:00:00.000000,0.00488164,0.00855454,0.01700919,15,26,52,5,9,19,0.00172002,0.00316879,0.00642745,0.60698786,0.77677162,0.97224052
17111,0,USIllinoisMcHenry,Illinois,McHenry,2021-01-06 00:51:19.615925,2020-03-12 00:00:00.000000,0.00615309,0.01076484,0.02108265,18,33,64,6,12,24,0.00220351,0.00412653,0.00790290,0.60382283,0.77677140,0.97219574
17111,0,USIllinoisMcHenry,Illinois,McHenry,2021-01-06 00:51:19.615925,2020-03-13 00:00:00.000000,0.00763671,0.01314884,0.02439745,23,40,75,9,15,30,0.00295045,0.00516963,0.00978134,0.60020572,0.77677091,0.97206263
17111,0,USIllinoisMcHenry,Illinois,McHenry,2021-01-06 00:51:19.615925,2020-03-14 00:00:00.000000,0.00932846,0.01567721,0.03057776,28,48,94,11,19,35,0.00374011,0.00641407,0.01139891,0.59611156,0.77676963,0.97166801
17111,0,USIllinoisMcHenry,Illinois,McHenry,2021-01-06 00:51:19.615925,2020-03-15 00:00:00.000000,0.01130761,0.01857987,0.03738806,34,57,115,14,23,42,0.00465558,0.00771004,0.01383544,0.59152763,0.77676575,0.97050762
17111,0,USIllinoisMcHenry,Illinois,McHenry,2021-01-06 00:51:19.615925,2020-03-16 00:00:00.000000,0.01432146,0.02376833,0.04229002,44,73,130,17,28,51,0.00571705,0.00924346,0.01670619,0.59084209,0.77675270,0.96717724
17111,0,USIllinoisMcHenry,Illinois,McHenry,2021-01-06 00:51:19.615925,2020-03-17 00:00:00.000000,0.01667133,0.02867424,0.04864941,51,88,149,22,34,61,0.00719317,0.01109676,0.02008161,0.59084214,0.77670544,0.95825208
17111,0,USIllinoisMcHenry,Illinois,McHenry,2021-01-06 00:51:19.615925,2020-03-18 00:00:00.000000,0.01935173,0.03424245,0.05680876,59,105,174,26,41,73,0.00867253,0.01357780,0.02402483,0.59084244,0.77507376,0.93588288
17111,0,USIllinoisMcHenry,Illinois,McHenry,2021-01-06 00:51:19.615925,2020-03-19 00:00:00.000000,0.02240726,0.04037481,0.06672595,68,124,205,32,50,88,0.01040599,0.01655104,0.02860813,0.58641996,0.76136212,0.92261703
17111,0,USIllinoisMcHenry,Illinois,McHenry,2021-01-06 00:51:19.615925,2020-03-20 00:00:00.000000,0.02588901,0.04607884,0.07828035,79,141,240,37,59,104,0.01216948,0.01947359,0.03392950,0.58642771,0.74461023,0.88580617
17111,0,USIllinoisMcHenry,Illinois,McHenry,2021-01-06 00:51:19.615925,2020-03-21 00:00:00.000000,0.03004253,0.05307672,0.09137948,92,163,281,43,71,122,0.01411213,0.02309188,0.03972240,0.56971302,0.72008282,0.86798201
17111,0,USIllinoisMcHenry,Illinois,McHenry,2021-01-06 00:51:19.615925,2020-03-22 00:00:00.000000,0.03506581,0.06057006,0.10576329,107,186,325,50,83,143,0.01633505,0.02721846,0.04650455,0.55146896,0.70625091,0.84476766
17111,0,USIllinoisMcHenry,Illinois,McHenry,2021-01-06 00:51:19.615925,2020-03-23 00:00:00.000000,0.04293349,0.06891210,0.11736940,132,212,361,58,97,164,0.01886957,0.03162933,0.05336283,0.53687998,0.69000810,0.85284422
17111,0,USIllinoisMcHenry,Illinois,McHenry,2021-01-06 00:51:19.615925,2020-03-24 00:00:00.000000,0.04865513,0.07780993,0.13277711,149,239,408,67,112,186,0.02178079,0.03670545,0.06055547,0.50865620,0.66062148,0.85148710
17111,0,USIllinoisMcHenry,Illinois,McHenry,2021-01-06 00:51:19.615925,2020-03-25 00:00:00.000000,0.05654830,0.08746213,0.14412744,174,269,443,77,128,214,0.02506410,0.04176930,0.06981787,0.49036086,0.63887137,0.85036684
17111,0,USIllinoisMcHenry,Illinois,McHenry,2021-01-06 00:51:19.615925,2020-03-26 00:00:00.000000,0.06294896,0.09849107,0.16795475,193,303,516,87,144,252,0.02831151,0.04708684,0.08204433,0.48951531,0.61686646,0.84450432
17111,0,USIllinoisMcHenry,Illinois,McHenry,2021-01-06 00:51:19.615925,2020-03-27 00:00:00.000000,0.06931140,0.11177701,0.19349219,213,344,595,97,162,296,0.03182681,0.05283119,0.09628139,0.47792638,0.60503737,0.80703271
17111,0,USIllinoisMcHenry,Illinois,McHenry,2021-01-06 00:51:19.615925,2020-03-28 00:00:00.000000,0.07671028,0.12564758,0.22254611,236,386,684,109,183,346,0.03568577,0.05967006,0.11269445,0.45057860,0.58731831,0.80508215
17111,0,USIllinoisMcHenry,Illinois,McHenry,2021-01-06 00:51:19.615925,2020-03-29 00:00:00.000000,0.08580239,0.14049148,0.24881748,264,432,765,126,207,402,0.04100365,0.06749154,0.13082712,0.43741036,0.56398987,0.79156053
17111,0,USIllinoisMcHenry,Illinois,McHenry,2021-01-06 00:51:19.615925,2020-03-30 00:00:00.000000,0.09588502,0.15673497,0.27392448,295,482,843,146,233,459,0.04751010,0.07582370,0.14925769,0.42920560,0.54620398,0.78818320
17111,0,USIllinoisMcHenry,Illinois,McHenry,2021-01-06 00:51:19.615925,2020-03-31 00:00:00.000000,0.10618739,0.17476730,0.30015057,326,537,923,161,257,515,0.05256937,0.08378674,0.16753917,0.39870814,0.52822840,0.77459567
17111,0,USIllinoisMcHenry,Illinois,McHenry,2021-01-06 00:51:19.615925,2020-04-01 00:00:00.000000,0.11503316,0.18986748,0.32813475,354,584,1009,177,287,572,0.05764008,0.09326521,0.18603703,0.37775049,0.50814511,0.70328254
17111,0,USIllinoisMcHenry,Illinois,McHenry,2021-01-06 00:51:19.615925,2020-04-02 00:00:00.000000,0.12538743,0.20353648,0.35723212,385,626,1099,193,319,631,0.06282267,0.10386354,0.20516534,0.34321316,0.49388961,0.63165135
17111,0,USIllinoisMcHenry,Illinois,McHenry,2021-01-06 00:51:19.615925,2020-04-03 00:00:00.000000,0.13653973,0.22219838,0.38625479,420,683,1188,208,347,692,0.06787583,0.11278291,0.22500239,0.34126878,0.48366281,0.59613604
17111,0,USIllinoisMcHenry,Illinois,McHenry,2021-01-06 00:51:19.615925,2020-04-04 00:00:00.000000,0.14893097,0.24256098,0.41480712,458,746,1276,225,372,754,0.07311063,0.12113178,0.24526534,0.34150506,0.46940252,0.58444519
17111,0,USIllinoisMcHenry,Illinois,McHenry,2021-01-06 00:51:19.615925,2020-04-05 00:00:00.000000,0.15998914,0.26180874,0.44365711,492,805,1365,244,403,817,0.07954597,0.13117564,0.26561999,0.33320070,0.45199417,0.57760754
17111,0,USIllinoisMcHenry,Illinois,McHenry,2021-01-06 00:51:19.615925,2020-04-06 00:00:00.000000,0.17188879,0.28097148,0.47300286,529,864,1455,263,437,879,0.08560063,0.14205233,0.28592282,0.32234955,0.43011274,0.57966877
17111,0,USIllinoisMcHenry,Illinois,McHenry,2021-01-06 00:51:19.615925,2020-04-07 00:00:00.000000,0.18456377,0.30236613,0.50982686,568,930,1569,283,472,943,0.09216228,0.15358603,0.30641860,0.32046682,0.42503512,0.58687786
17111,0,USIllinoisMcHenry,Illinois,McHenry,2021-01-06 00:51:19.615925,2020-04-08 00:00:00.000000,0.19780769,0.32380200,0.54787590,608,996,1686,305,511,1007,0.09911998,0.16622759,0.32747903,0.31866005,0.41855308,0.57908052
17111,0,USIllinoisMcHenry,Illinois,McHenry,2021-01-06 00:51:19.615925,2020-04-09 00:00:00.000000,0.21044177,0.34574159,0.58710803,647,1064,1806,327,546,1075,0.10641319,0.17752266,0.34938788,0.31716079,0.41131369,0.55897711
17111,0,USIllinoisMcHenry,Illinois,McHenry,2021-01-06 00:51:19.615925,2020-04-10 00:00:00.000000,0.22462343,0.37124292,0.62713444,691,1142,1930,350,586,1145,0.11404333,0.19064106,0.37232618,0.31615573,0.40402657,0.53308059
17111,0,USIllinoisMcHenry,Illinois,McHenry,2021-01-06 00:51:19.615925,2020-04-11 00:00:00.000000,0.23940586,0.39667322,0.66752104,736,1220,2054,375,627,1219,0.12204365,0.20400058,0.39636078,0.31472857,0.39678882,0.55122267
17111,0,USIllinoisMcHenry,Illinois,McHenry,2021-01-06 00:51:19.615925,2020-04-12 00:00:00.000000,0.25470675,0.42378585,0.70800828,783,1304,2179,400,665,1297,0.13027175,0.21636310,0.42147727,0.29921429,0.38309791,0.53417825
17111,0,USIllinoisMcHenry,Illinois,McHenry,2021-01-06 00:51:19.615925,2020-04-13 00:00:00.000000,0.26981551,0.45011924,0.74969508,830,1385,2307,425,706,1377,0.13838555,0.22970452,0.44760887,0.29244340,0.37261415,0.52601917
17111,0,USIllinoisMcHenry,Illinois,McHenry,2021-01-06 00:51:19.615925,2020-04-14 00:00:00.000000,0.28483111,0.47786219,0.77390043,876,1470,2381,447,748,1460,0.14554300,0.24314845,0.47464548,0.28892408,0.36836621,0.52054382
17111,0,USIllinoisMcHenry,Illinois,McHenry,2021-01-06 00:51:19.615925,2020-04-15 00:00:00.000000,0.29727590,0.50529006,0.83662637,914,1555,2574,465,792,1530,0.15138466,0.25747563,0.49737034,0.28750493,0.36457698,0.51195940
17111,0,USIllinoisMcHenry,Illinois,McHenry,2021-01-06 00:51:19.615925,2020-04-16 00:00:00.000000,0.30735468,0.52343847,0.87824342,945,1611,2703,487,845,1570,0.15845861,0.27482278,0.51017551,0.28659662,0.36109368,0.48911423
17111,0,USIllinoisMcHenry,Illinois,McHenry,2021-01-06 00:51:19.615925,2020-04-17 00:00:00.000000,0.32437398,0.54834561,0.90946143,998,1687,2799,515,894,1609,0.16750978,0.29050899,0.52289395,0.28418590,0.35338771,0.46496176
17111,0,USIllinoisMcHenry,Illinois,McHenry,2021-01-06 00:51:19.615925,2020-04-18 00:00:00.000000,0.34146294,0.56866819,0.93996364,1050,1750,2892,544,930,1649,0.17700109,0.30233465,0.53581787,0.28244769,0.34793310,0.44362338
17111,0,USIllinoisMcHenry,Illinois,McHenry,2021-01-06 00:51:19.615925,2020-04-19 00:00:00.000000,0.35871846,0.58835684,0.97928969,1104,1810,3013,575,976,1712,0.18700552,0.31711959,0.55643629,0.27249837,0.34290054,0.43521857
17111,0,USIllinoisMcHenry,Illinois,McHenry,2021-01-06 00:51:19.615925,2020-04-20 00:00:00.000000,0.37631413,0.61373642,1.02181605,1158,1888,3144,608,1022,1775,0.19757231,0.33234845,0.57691430,0.26678901,0.33550635,0.43559878
17111,0,USIllinoisMcHenry,Illinois,McHenry,2021-01-06 00:51:19.615925,2020-04-21 00:00:00.000000,0.39202904,0.64303834,1.06587179,1206,1979,3280,642,1070,1837,0.20865518,0.34769337,0.59688412,0.26226445,0.33096924,0.42330246
17111,0,USIllinoisMcHenry,Illinois,McHenry,2021-01-06 00:51:19.615925,2020-04-22 00:00:00.000000,0.39372803,0.66819023,1.11143253,1211,2056,3420,678,1117,1898,0.22033957,0.36298271,0.61676678,0.25935158,0.32661698,0.42318859
17111,0,USIllinoisMcHenry,Illinois,McHenry,2021-01-06 00:51:19.615925,2020-04-23 00:00:00.000000,0.39566608,0.69131860,1.15823381,1217,2127,3564,703,1168,1974,0.22866709,0.37958949,0.64139080,0.25404460,0.32267559,0.41749999
17111,0,USIllinoisMcHenry,Illinois,McHenry,2021-01-06 00:51:19.615925,2020-04-24 00:00:00.000000,0.40567729,0.71203703,1.20548574,1248,2191,3710,726,1209,2056,0.23597958,0.39303160,0.66808618,0.25330155,0.31373670,0.41465415
17111,0,USIllinoisMcHenry,Illinois,McHenry,2021-01-06 00:51:19.615925,2020-04-25 00:00:00.000000,0.42888659,0.73283831,1.25090293,1320,2255,3849,747,1254,2140,0.24286646,0.40745645,0.69544076,0.24615469,0.30867570,0.42227821
17111,0,USIllinoisMcHenry,Illinois,McHenry,2021-01-06 00:51:19.615925,2020-04-26 00:00:00.000000,0.45727633,0.75518407,1.28342453,1407,2324,3950,766,1291,2254,0.24915136,0.41952188,0.73263281,0.23877371,0.30229036,0.43362471
17111,0,USIllinoisMcHenry,Illinois,McHenry,2021-01-06 00:51:19.615925,2020-04-27 00:00:00.000000,0.46917827,0.77220968,1.31130021,1444,2376,4035,784,1334,2377,0.25481218,0.43360967,0.77259727,0.23149808,0.28905217,0.42867647
17111,0,USIllinoisMcHenry,Illinois,McHenry,2021-01-06 00:51:19.615925,2020-04-28 00:00:00.000000,0.48881510,0.78733259,1.35875980,1504,2423,4181,801,1380,2507,0.26044045,0.44843508,0.81479810,0.21901716,0.28131664,0.39003538
17111,0,USIllinoisMcHenry,Illinois,McHenry,2021-01-06 00:51:19.615925,2020-04-29 00:00:00.000000,0.51310334,0.80468528,1.38306657,1579,2476,4256,818,1424,2643,0.26593429,0.46268523,0.85895643,0.21646144,0.27446251,0.37616534
17111,0,USIllinoisMcHenry,Illinois,McHenry,2021-01-06 00:51:19.615925,2020-04-30 00:00:00.000000,0.52204591,0.82112361,1.39205015,1606,2527,4284,851,1453,2785,0.27663655,0.47232950,0.90512116,0.21044199,0.26921825,0.36202370
17111,0,USIllinoisMcHenry,Illinois,McHenry,2021-01-06 00:51:19.615925,2020-05-01 00:00:00.000000,0.53103016,0.83820818,1.43075885,1634,2579,4403,876,1492,2921,0.28481423,0.48492493,0.94928209,0.19424103,0.26065745,0.35305443
17111,0,USIllinoisMcHenry,Illinois,McHenry,2021-01-06 00:51:19.615925,2020-05-02 00:00:00.000000,0.54005241,0.84202514,1.45760885,1662,2591,4486,907,1529,2956,0.29477301,0.49692552,0.96052407,0.18467111,0.25603624,0.34033619
17111,0,USIllinoisMcHenry,Illinois,McHenry,2021-01-06 00:51:19.615925,2020-05-03 00:00:00.000000,0.54882048,0.83861984,1.47343921,1689,2581,4534,947,1547,2987,0.30789998,0.50288115,0.97058179,0.18414181,0.24928383,0.32373476
17111,0,USIllinoisMcHenry,Illinois,McHenry,2021-01-06 00:51:19.615925,2020-05-04 00:00:00.000000,0.55185716,0.84114032,1.48598536,1698,2588,4573,975,1564,3015,0.31709651,0.50838855,0.97976941,0.17004447,0.24258806,0.31193644
17111,0,USIllinoisMcHenry,Illinois,McHenry,2021-01-06 00:51:19.615925,2020-05-05 00:00:00.000000,0.54503508,0.85048121,1.49559939,1677,2617,4603,987,1567,3040,0.32070957,0.50941229,0.98776122,0.16772405,0.23856248,0.30129961
17111,0,USIllinoisMcHenry,Illinois,McHenry,2021-01-06 00:51:19.615925,2020-05-06 00:00:00.000000,0.53625364,0.85942174,1.50273393,1650,2645,4625,986,1582,3059,0.32065717,0.51421975,0.99417939,0.16605254,0.23460197,0.29218163
17111,0,USIllinoisMcHenry,Illinois,McHenry,2021-01-06 00:51:19.615925,2020-05-07 00:00:00.000000,0.52682933,0.86367474,1.50778903,1621,2658,4640,978,1592,3087,0.31804042,0.51741319,1.00313675,0.16449398,0.22718634,0.28871058
17111,0,USIllinoisMcHenry,Illinois,McHenry,2021-01-06 00:51:19.615925,2020-05-08 00:00:00.000000,0.52351652,0.85661236,1.51118776,1611,2636,4651,966,1588,3116,0.31393460,0.51601954,1.01257148,0.16124658,0.22321571,0.28362441
17111,0,USIllinoisMcHenry,Illinois,McHenry,2021-01-06 00:51:19.615925,2020-05-09 00:00:00.000000,0.52711989,0.85312285,1.51336424,1622,2625,4657,964,1598,3133,0.31341418,0.51925156,1.01825125,0.15082707,0.21252789,0.28078617
17111,0,USIllinoisMcHenry,Illinois,McHenry,2021-01-06 00:51:19.615925,2020-05-10 00:00:00.000000,0.53176962,0.84931675,1.51469507,1636,2613,4661,965,1597,3141,0.31377859,0.51912008,1.02057029,0.14423556,0.20324002,0.28077416
17111,0,USIllinoisMcHenry,Illinois,McHenry,2021-01-06 00:51:19.615925,2020-05-11 00:00:00.000000,0.53679696,0.84361297,1.51583723,1652,2596,4665,965,1598,3139,0.31365919,0.51928834,1.02018501,0.14351909,0.19677163,0.27050670
17111,0,USIllinoisMcHenry,Illinois,McHenry,2021-01-06 00:51:19.615925,2020-05-12 00:00:00.000000,0.54231485,0.83623848,1.51661477,1669,2573,4667,963,1595,3132,0.31303635,0.51855039,1.01792395,0.13845175,0.19354018,0.26527820
17111,0,USIllinoisMcHenry,Illinois,McHenry,2021-01-06 00:51:19.615925,2020-05-13 00:00:00.000000,0.54790777,0.81999557,1.51720093,1686,2523,4669,959,1590,3121,0.31170682,0.51687793,1.01428002,0.13637105,0.18717238,0.26538954
17111,0,USIllinoisMcHenry,Illinois,McHenry,2021-01-06 00:51:19.615925,2020-05-14 00:00:00.000000,0.54039819,0.82276921,1.51676470,1663,2532,4668,958,1571,3107,0.31131284,0.51059246,1.00961790,0.13049843,0.18466791,0.26292615
17111,0,USIllinoisMcHenry,Illinois,McHenry,2021-01-06 00:51:19.615925,2020-05-15 00:00:00.000000,0.52959373,0.81043738,1.50554367,1629,2494,4633,967,1544,3090,0.31432665,0.50180497,1.00415008,0.13038349,0.18304736,0.26118901
17111,0,USIllinoisMcHenry,Illinois,McHenry,2021-01-06 00:51:19.615925,2020-05-16 00:00:00.000000,0.51789030,0.79537520,1.49202642,1593,2447,4592,976,1528,3071,0.31727557,0.49656441,0.99787966,0.12974805,0.17656638,0.24457676
17111,0,USIllinoisMcHenry,Illinois,McHenry,2021-01-06 00:51:19.615925,2020-05-17 00:00:00.000000,0.50533185,0.78019990,1.47480069,1555,2401,4539,974,1541,3048,0.31666869,0.50097869,0.99048662,0.12872895,0.17130973,0.23705722
17111,0,USIllinoisMcHenry,Illinois,McHenry,2021-01-06 00:51:19.615925,2020-05-18 00:00:00.000000,0.49172954,0.76521836,1.45375671,1513,2355,4474,952,1530,3020,0.30951651,0.49722020,0.98137526,0.12795281,0.16993029,0.23361264
17111,0,USIllinoisMcHenry,Illinois,McHenry,2021-01-06 00:51:19.615925,2020-05-19 00:00:00.000000,0.47775881,0.75017931,1.43047331,1470,2308,4402,928,1513,2985,0.30177591,0.49169699,0.97017756,0.12716585,0.16828824,0.23656394
17111,0,USIllinoisMcHenry,Illinois,McHenry,2021-01-06 00:51:19.615925,2020-05-20 00:00:00.000000,0.46363742,0.73485341,1.40609790,1426,2261,4327,903,1492,2945,0.29364784,0.48507077,0.95715770,0.12680166,0.16563513,0.23525868
17111,0,USIllinoisMcHenry,Illinois,McHenry,2021-01-06 00:51:19.615925,2020-05-21 00:00:00.000000,0.44918499,0.71839461,1.38100479,1382,2211,4250,878,1464,2901,0.28530749,0.47585717,0.94281649,0.12662272,0.16236743,0.23630393
17111,0,USIllinoisMcHenry,Illinois,McHenry,2021-01-06 00:51:19.615925,2020-05-22 00:00:00.000000,0.43409013,0.70191151,1.35495379,1336,2160,4170,851,1433,2861,0.27676988,0.46588880,0.92962618,0.12459966,0.15870734,0.22785055
17111,0,USIllinoisMcHenry,Illinois,McHenry,2021-01-06 00:51:19.615925,2020-05-23 00:00:00.000000,0.41900680,0.68624541,1.32707963,1289,2112,4084,824,1404,2834,0.26791473,0.45632742,0.92081558,0.11812107,0.15685829,0.21269154
17111,0,USIllinoisMcHenry,Illinois,McHenry,2021-01-06 00:51:19.615925,2020-05-24 00:00:00.000000,0.40394427,0.67186650,1.29772628,1243,2067,3994,796,1377,2805,0.25887393,0.44740984,0.91150876,0.11440037,0.15580550,0.20892194
17111,0,USIllinoisMcHenry,Illinois,McHenry,2021-01-06 00:51:19.615925,2020-05-25 00:00:00.000000,0.38901334,0.66264340,1.26665131,1197,2039,3898,768,1340,2775,0.24977043,0.43548155,0.90166604,0.11025251,0.15466906,0.20697285
17111,0,USIllinoisMcHenry,Illinois,McHenry,2021-01-06 00:51:19.615925,2020-05-26 00:00:00.000000,0.37396076,0.65320938,1.23306083,1150,2010,3795,740,1303,2742,0.24069734,0.42350339,0.89101025,0.10665761,0.15335963,0.20430995
17111,0,USIllinoisMcHenry,Illinois,McHenry,2021-01-06 00:51:19.615925,2020-05-27 00:00:00.000000,0.35895470,0.63652857,1.19553496,1104,1959,3679,712,1271,2707,0.23161306,0.41305209,0.87961953,0.10414681,0.15250355,0.20080255
17111,0,USIllinoisMcHenry,Illinois,McHenry,2021-01-06 00:51:19.615925,2020-05-28 00:00:00.000000,0.34421439,0.61673628,1.15571933,1059,1898,3557,684,1240,2670,0.22254348,0.40310723,0.86760246,0.10326018,0.15205820,0.20072755
17111,0,USIllinoisMcHenry,Illinois,McHenry,2021-01-06 00:51:19.615925,2020-05-29 00:00:00.000000,0.32990205,0.59425913,1.13601681,1015,1828,3496,657,1218,2631,0.21358334,0.39602444,0.85509343,0.10310879,0.15033327,0.20471020
17111,0,USIllinoisMcHenry,Illinois,McHenry,2021-01-06 00:51:19.615925,2020-05-30 00:00:00.000000,0.31610480,0.57410826,1.11721969,972,1766,3438,630,1191,2592,0.20485315,0.38699190,0.84222475,0.10309817,0.14842841,0.20326856
17111,0,USIllinoisMcHenry,Illinois,McHenry,2021-01-06 00:51:19.615925,2020-05-31 00:00:00.000000,0.30804834,0.55960078,1.09827417,948,1722,3380,604,1160,2551,0.19638132,0.37698266,0.82909850,0.10502189,0.14843255,0.20202355
17111,0,USIllinoisMcHenry,Illinois,McHenry,2021-01-06 00:51:19.615925,2020-06-01 00:00:00.000000,0.29958241,0.54646074,1.07867566,922,1681,3319,579,1128,2510,0.18821031,0.36652796,0.81577195,0.10581137,0.14824307,0.20086592
17111,0,USIllinoisMcHenry,Illinois,McHenry,2021-01-06 00:51:19.615925,2020-06-02 00:00:00.000000,0.29066423,0.53303519,1.05886052,894,1640,3258,556,1091,2468,0.18089656,0.35453740,0.80213028,0.10586289,0.14954650,0.19983114
17111,0,USIllinoisMcHenry,Illinois,McHenry,2021-01-06 00:51:19.615925,2020-06-03 00:00:00.000000,0.28120944,0.51870752,1.03940867,865,1596,3199,541,1066,2425,0.17590618,0.34662876,0.78822895,0.10611777,0.15100684,0.19880560
17111,0,USIllinoisMcHenry,Illinois,McHenry,2021-01-06 00:51:19.615925,2020-06-04 00:00:00.000000,0.27135648,0.50538868,1.02220725,835,1555,3146,525,1038,2380,0.17063998,0.33729594,0.77343307,0.10714192,0.15275504,0.19690654
17111,0,USIllinoisMcHenry,Illinois,McHenry,2021-01-06 00:51:19.615925,2020-06-05 00:00:00.000000,0.26134822,0.49377320,1.00879200,804,1519,3104,508,1008,2326,0.16511594,0.32756430,0.75574993,0.10753063,0.15345695,0.19918092
17111,0,USIllinoisMcHenry,Illinois,McHenry,2021-01-06 00:51:19.615925,2020-06-06 00:00:00.000000,0.25142026,0.48334737,0.99760061,773,1487,3070,490,977,2278,0.15942425,0.31765648,0.74035331,0.10858172,0.15359931,0.20398410
17111,0,USIllinoisMcHenry,Illinois,McHenry,2021-01-06 00:51:19.615925,2020-06-07 00:00:00.000000,0.24182555,0.47135189,0.98700433,744,1450,3037,472,948,2236,0.15368255,0.30809197,0.72666792,0.11499062,0.15406246,0.19705603
17111,0,USIllinoisMcHenry,Illinois,McHenry,2021-01-06 00:51:19.615925,2020-06-08 00:00:00.000000,0.23560484,0.46277505,0.97673571,725,1424,3006,455,922,2198,0.14799749,0.29973840,0.71418428,0.12021022,0.15524277,0.20953001
17111,0,USIllinoisMcHenry,Illinois,McHenry,2021-01-06 00:51:19.615925,2020-06-09 00:00:00.000000,0.23134252,0.45436505,0.96648519,712,1398,2974,440,895,2162,0.14328273,0.29084571,0.70276695,0.11665900,0.15946426,0.21142760
17111,0,USIllinoisMcHenry,Illinois,McHenry,2021-01-06 00:51:19.615925,2020-06-10 00:00:00.000000,0.22883380,0.44603341,0.95620537,704,1372,2942,429,871,2130,0.13965446,0.28320207,0.69208905,0.11880772,0.16123190,0.21153649
17111,0,USIllinoisMcHenry,Illinois,McHenry,2021-01-06 00:51:19.615925,2020-06-11 00:00:00.000000,0.22711368,0.43671921,0.94555419,698,1344,2910,421,850,2098,0.13708301,0.27640830,0.68194461,0.12257231,0.16517882,0.21607618
17111,0,USIllinoisMcHenry,Illinois,McHenry,2021-01-06 00:51:19.615925,2020-06-12 00:00:00.000000,0.22590758,0.42633542,0.93431433,695,1312,2875,416,829,2068,0.13528086,0.26946158,0.67221206,0.12392105,0.16808962,0.23323771
17111,0,USIllinoisMcHenry,Illinois,McHenry,2021-01-06 00:51:19.615925,2020-06-13 00:00:00.000000,0.22518935,0.41631859,0.92228537,693,1281,2838,412,805,2040,0.13400966,0.26185912,0.66283181,0.12392454,0.17194285,0.25217435
17111,0,USIllinoisMcHenry,Illinois,McHenry,2021-01-06 00:51:19.615925,2020-06-14 00:00:00.000000,0.22495793,0.40564404,0.90857490,692,1248,2796,409,782,2012,0.13313857,0.25439807,0.65379369,0.12402131,0.17821813,0.26253494
17111,0,USIllinoisMcHenry,Illinois,McHenry,2021-01-06 00:51:19.615925,2020-06-15 00:00:00.000000,0.22274857,0.39830959,0.89031174,685,1225,2740,408,763,1985,0.13265791,0.24807283,0.64512414,0.12421577,0.18287525,0.26744334
17111,0,USIllinoisMcHenry,Illinois,McHenry,2021-01-06 00:51:19.615925,2020-06-16 00:00:00.000000,0.22089753,0.39333221,0.87364458,679,1210,2688,405,754,1959,0.13180838,0.24511976,0.63675774,0.12469941,0.18583976,0.26878314
17111,0,USIllinoisMcHenry,Illinois,McHenry,2021-01-06 00:51:19.615925,2020-06-17 00:00:00.000000,0.21923411,0.38915811,0.85932018,674,1197,2644,402,753,1935,0.13083211,0.24470309,0.62876456,0.12777071,0.19278253,0.27297626
17111,0,USIllinoisMcHenry,Illinois,McHenry,2021-01-06 00:51:19.615925,2020-06-18 00:00:00.000000,0.21775743,0.38436388,0.84542779,670,1182,2602,399,745,1911,0.12985066,0.24222266,0.62121105,0.13132615,0.19956400,0.28025423
17111,0,USIllinoisMcHenry,Illinois,McHenry,2021-01-06 00:51:19.615925,2020-06-19 00:00:00.000000,0.21647734,0.38246513,0.83190028,666,1177,2560,396,744,1890,0.12892311,0.24183375,0.61428250,0.13532693,0.20996707,0.28074434
17111,0,USIllinoisMcHenry,Illinois,McHenry,2021-01-06 00:51:19.615925,2020-06-20 00:00:00.000000,0.21840187,0.38003499,0.81868893,672,1169,2519,397,737,1871,0.12923676,0.23974454,0.60816261,0.13806105,0.21793562,0.28141210
17111,0,USIllinoisMcHenry,Illinois,McHenry,2021-01-06 00:51:19.615925,2020-06-21 00:00:00.000000,0.22051529,0.37905218,0.80575870,678,1166,2479,401,740,1855,0.13046041,0.24073525,0.60273230,0.14079628,0.22314821,0.29306584
17111,0,USIllinoisMcHenry,Illinois,McHenry,2021-01-06 00:51:19.615925,2020-06-22 00:00:00.000000,0.22450481,0.37745755,0.79302021,690,1161,2440,405,745,1839,0.13169758,0.24224668,0.59779843,0.14480540,0.23420811,0.30187904
17111,0,USIllinoisMcHenry,Illinois,McHenry,2021-01-06 00:51:19.615925,2020-06-23 00:00:00.000000,0.22866857,0.37581705,0.78051566,703,1156,2402,411,744,1822,0.13356821,0.24196552,0.59224587,0.14618533,0.23989259,0.30421917
17111,0,USIllinoisMcHenry,Illinois,McHenry,2021-01-06 00:51:19.615925,2020-06-24 00:00:00.000000,0.23319751,0.37740889,0.76823592,717,1161,2364,417,747,1793,0.13581221,0.24280866,0.58272950,0.14905569,0.24291679,0.30345141
17111,0,USIllinoisMcHenry,Illinois,McHenry,2021-01-06 00:51:19.615925,2020-06-25 00:00:00.000000,0.23813034,0.38372808,0.75620731,732,1181,2327,425,749,1764,0.13832910,0.24347649,0.57344739,0.15298943,0.24384473,0.31307615
17111,0,USIllinoisMcHenry,Illinois,McHenry,2021-01-06 00:51:19.615925,2020-06-26 00:00:00.000000,0.24351529,0.39417216,0.74467688,749,1213,2291,433,742,1737,0.14091097,0.24134818,0.56441585,0.15337015,0.24869159,0.33055846
17111,0,USIllinoisMcHenry,Illinois,McHenry,2021-01-06 00:51:19.615925,2020-06-27 00:00:00.000000,0.24938403,0.40113730,0.73537667,767,1234,2263,442,741,1710,0.14384545,0.24104878,0.55568828,0.16157970,0.25393655,0.33899355
17111,0,USIllinoisMcHenry,Illinois,McHenry,2021-01-06 00:51:19.615925,2020-06-28 00:00:00.000000,0.25503909,0.40812144,0.73218029,784,1256,2253,453,747,1685,0.14739190,0.24288768,0.54766751,0.18273658,0.25738185,0.35244867
17111,0,USIllinoisMcHenry,Illinois,McHenry,2021-01-06 00:51:19.615925,2020-06-29 00:00:00.000000,0.25847519,0.41532730,0.73244150,795,1278,2254,465,758,1667,0.15116359,0.24629206,0.54174162,0.18168340,0.26901997,0.35727108
17111,0,USIllinoisMcHenry,Illinois,McHenry,2021-01-06 00:51:19.615925,2020-06-30 00:00:00.000000,0.26261200,0.42541625,0.73392340,808,1309,2258,475,773,1656,0.15465789,0.25118112,0.53812120,0.18676251,0.27517946,0.35829294
17111,0,USIllinoisMcHenry,Illinois,McHenry,2021-01-06 00:51:19.615925,2020-07-01 00:00:00.000000,0.26712466,0.43332141,0.73645418,822,1333,2266,487,790,1650,0.15829163,0.25689378,0.53625971,0.18729350,0.28225427,0.35841328
17111,0,USIllinoisMcHenry,Illinois,McHenry,2021-01-06 00:51:19.615925,2020-07-02 00:00:00.000000,0.27197870,0.44349946,0.75639838,837,1364,2327,499,807,1648,0.16232373,0.26221592,0.53575915,0.18948224,0.28665387,0.35850919
17111,0,USIllinoisMcHenry,Illinois,McHenry,2021-01-06 00:51:19.615925,2020-07-03 00:00:00.000000,0.27726232,0.46034569,0.78156941,853,1416,2405,510,818,1651,0.16597981,0.26584106,0.53650235,0.19641042,0.29148571,0.37150264
17111,0,USIllinoisMcHenry,Illinois,McHenry,2021-01-06 00:51:19.615925,2020-07-04 00:00:00.000000,0.28305813,0.47483921,0.80740697,871,1461,2484,519,835,1659,0.16878348,0.27140013,0.53909553,0.20784797,0.29426306,0.38337612
17111,0,USIllinoisMcHenry,Illinois,McHenry,2021-01-06 00:51:19.615925,2020-07-05 00:00:00.000000,0.29538343,0.48709115,0.83401263,909,1499,2566,529,853,1706,0.17196950,0.27731655,0.55462444,0.21690298,0.29972574,0.39127886
17111,0,USIllinoisMcHenry,Illinois,McHenry,2021-01-06 00:51:19.615925,2020-07-06 00:00:00.000000,0.31489488,0.49561444,0.86014843,969,1525,2647,540,875,1755,0.17556139,0.28441385,0.57027379,0.21688511,0.30248281,0.39233758
17111,0,USIllinoisMcHenry,Illinois,McHenry,2021-01-06 00:51:19.615925,2020-07-07 00:00:00.000000,0.33572723,0.50673092,0.88704891,1033,1559,2730,553,901,1802,0.17973264,0.29280823,0.58569868,0.21729095,0.30493353,0.39750037
17111,0,USIllinoisMcHenry,Illinois,McHenry,2021-01-06 00:51:19.615925,2020-07-08 00:00:00.000000,0.35787718,0.51496099,0.91466223,1101,1584,2815,571,929,1849,0.18568104,0.30212515,0.60095361,0.21796823,0.30487398,0.40730730
17111,0,USIllinoisMcHenry,Illinois,McHenry,2021-01-06 00:51:19.615925,2020-07-09 00:00:00.000000,0.36515885,0.53230493,0.94425157,1123,1638,2906,608,953,1897,0.19784528,0.30991341,0.61650282,0.22172505,0.30654168,0.41033421
17111,0,USIllinoisMcHenry,Illinois,McHenry,2021-01-06 00:51:19.615925,2020-07-10 00:00:00.000000,0.37070157,0.54631025,0.97865814,1140,1681,3012,638,983,1948,0.20736968,0.31939377,0.63299391,0.23808495,0.30535541,0.40940522
17111,0,USIllinoisMcHenry,Illinois,McHenry,2021-01-06 00:51:19.615925,2020-07-11 00:00:00.000000,0.37659187,0.56475838,1.01410594,1159,1738,3121,651,1015,2003,0.21178927,0.32992024,0.65100176,0.24017633,0.30695206,0.41700893
17111,0,USIllinoisMcHenry,Illinois,McHenry,2021-01-06 00:51:19.615925,2020-07-12 00:00:00.000000,0.38927247,0.58621054,1.05072680,1198,1804,3233,671,1047,2063,0.21802231,0.34042134,0.67056535,0.24025434,0.30632851,0.40828283
17111,0,USIllinoisMcHenry,Illinois,McHenry,2021-01-06 00:51:19.615925,2020-07-13 00:00:00.000000,0.40827433,0.60586947,1.09287066,1256,1864,3363,692,1070,2150,0.22506438,0.34797388,0.69859601,0.24095851,0.30592158,0.39459985
17111,0,USIllinoisMcHenry,Illinois,McHenry,2021-01-06 00:51:19.615925,2020-07-14 00:00:00.000000,0.42071824,0.62351758,1.12795782,1294,1919,3471,709,1094,2259,0.23049983,0.35552680,0.73406648,0.23189670,0.30494241,0.40191198
17111,0,USIllinoisMcHenry,Illinois,McHenry,2021-01-06 00:51:19.615925,2020-07-15 00:00:00.000000,0.43522008,0.64118706,1.16751594,1339,1973,3593,728,1129,2376,0.23664267,0.36700491,0.77222191,0.22849616,0.30330269,0.40593615
17111,0,USIllinoisMcHenry,Illinois,McHenry,2021-01-06 00:51:19.615925,2020-07-16 00:00:00.000000,0.45069598,0.65352329,1.20884582,1387,2011,3720,749,1156,2473,0.24362059,0.37577672,0.80376437,0.23383728,0.30176274,0.39342673
17111,0,USIllinoisMcHenry,Illinois,McHenry,2021-01-06 00:51:19.615925,2020-07-17 00:00:00.000000,0.45857933,0.66282455,1.24269913,1411,2040,3824,773,1182,2546,0.25132664,0.38431047,0.82736177,0.22754103,0.29834649,0.38310348
17111,0,USIllinoisMcHenry,Illinois,McHenry,2021-01-06 00:51:19.615925,2020-07-18 00:00:00.000000,0.46267961,0.67837713,1.27956413,1424,2087,3938,798,1213,2619,0.25955265,0.39433163,0.85095199,0.22069319,0.29272753,0.37720513
17111,0,USIllinoisMcHenry,Illinois,McHenry,2021-01-06 00:51:19.615925,2020-07-19 00:00:00.000000,0.46805222,0.69560305,1.31378021,1440,2140,4043,818,1241,2687,0.26607496,0.40324513,0.87330001,0.22044235,0.28845295,0.36670648
17111,0,USIllinoisMcHenry,Illinois,McHenry,2021-01-06 00:51:19.615925,2020-07-20 00:00:00.000000,0.47402828,0.70821408,1.34536701,1458,2179,4140,836,1273,2748,0.27194851,0.41384196,0.89300581,0.22105939,0.28529423,0.36646922
17111,0,USIllinoisMcHenry,Illinois,McHenry,2021-01-06 00:51:19.615925,2020-07-21 00:00:00.000000,0.48031479,0.71865586,1.37336231,1478,2211,4226,856,1307,2800,0.27844517,0.42492863,0.90982836,0.21876504,0.28107428,0.36632395
17111,0,USIllinoisMcHenry,Illinois,McHenry,2021-01-06 00:51:19.615925,2020-07-22 00:00:00.000000,0.48678099,0.73021338,1.39854447,1498,2247,4304,875,1327,2845,0.28430089,0.43146188,0.92441389,0.21812805,0.27438106,0.36624742
17111,0,USIllinoisMcHenry,Illinois,McHenry,2021-01-06 00:51:19.615925,2020-07-23 00:00:00.000000,0.49337730,0.74054891,1.42214947,1518,2279,4377,893,1344,2885,0.29023906,0.43683666,0.93746812,0.21779930,0.27261729,0.36280113
17111,0,USIllinoisMcHenry,Illinois,McHenry,2021-01-06 00:51:19.615925,2020-07-24 00:00:00.000000,0.50007797,0.75828126,1.44545507,1539,2333,4448,911,1351,2922,0.29618939,0.43919550,0.94950146,0.20820256,0.27071674,0.35608687
17111,0,USIllinoisMcHenry,Illinois,McHenry,2021-01-06 00:51:19.615925,2020-07-25 00:00:00.000000,0.50685975,0.77338895,1.46948397,1559,2380,4522,929,1363,2957,0.30206954,0.44299233,0.96078142,0.20751390,0.26515217,0.34365439
17111,0,USIllinoisMcHenry,Illinois,McHenry,2021-01-06 00:51:19.615925,2020-07-26 00:00:00.000000,0.51367896,0.78477120,1.48650653,1580,2415,4575,947,1379,2989,0.30779089,0.44818817,0.97129642,0.20255264,0.25716858,0.33119702
17111,0,USIllinoisMcHenry,Illinois,McHenry,2021-01-06 00:51:19.615925,2020-07-27 00:00:00.000000,0.52001954,0.78922141,1.49818385,1600,2429,4611,958,1393,3018,0.31148528,0.45288116,0.98089670,0.19754472,0.25166641,0.32468611
17111,0,USIllinoisMcHenry,Illinois,McHenry,2021-01-06 00:51:19.615925,2020-07-28 00:00:00.000000,0.51716300,0.79400691,1.50933685,1591,2443,4645,961,1415,3046,0.31243708,0.45979121,0.98979980,0.19341916,0.24812987,0.32284631
17111,0,USIllinoisMcHenry,Illinois,McHenry,2021-01-06 00:51:19.615925,2020-07-29 00:00:00.000000,0.52580960,0.79668837,1.52023202,1618,2451,4678,978,1437,3072,0.31780010,0.46704548,0.99814929,0.19342492,0.24622423,0.31209083
17111,0,USIllinoisMcHenry,Illinois,McHenry,2021-01-06 00:51:19.615925,2020-07-30 00:00:00.000000,0.53414780,0.79738074,1.53009165,1643,2454,4709,994,1460,3096,0.32319640,0.47438595,1.00609947,0.18929666,0.24481301,0.30971879
17111,0,USIllinoisMcHenry,Illinois,McHenry,2021-01-06 00:51:19.615925,2020-07-31 00:00:00.000000,0.53673282,0.79644171,1.53819779,1651,2451,4734,1011,1478,3119,0.32857956,0.48030520,1.01370188,0.18349312,0.24301258,0.30711015
17111,0,USIllinoisMcHenry,Illinois,McHenry,2021-01-06 00:51:19.615925,2020-08-01 00:00:00.000000,0.53844988,0.79957776,1.54427886,1657,2460,4752,1014,1492,3140,0.32968477,0.48508532,1.02042350,0.17997698,0.23793250,0.29998091
17111,0,USIllinoisMcHenry,Illinois,McHenry,2021-01-06 00:51:19.615925,2020-08-02 00:00:00.000000,0.53951846,0.80411968,1.54958448,1660,2474,4769,1012,1502,3157,0.32906498,0.48829400,1.02590846,0.17286827,0.23760036,0.29467915
17111,0,USIllinoisMcHenry,Illinois,McHenry,2021-01-06 00:51:19.615925,2020-08-03 00:00:00.000000,0.54032873,0.81568637,1.54772871,1662,2510,4763,1011,1507,3171,0.32861179,0.48965383,1.03061801,0.16984071,0.23069989,0.28858873
17111,0,USIllinoisMcHenry,Illinois,McHenry,2021-01-06 00:51:19.615925,2020-08-04 00:00:00.000000,0.54126199,0.81869649,1.53649936,1665,2519,4728,1011,1507,3184,0.32861317,0.48996917,1.03459097,0.16965694,0.22811827,0.29009611
17111,0,USIllinoisMcHenry,Illinois,McHenry,2021-01-06 00:51:19.615925,2020-08-05 00:00:00.000000,0.54257079,0.82357099,1.52686332,1669,2534,4699,1012,1514,3195,0.32901493,0.49210732,1.03811219,0.17020380,0.22768686,0.28907920
17111,0,USIllinoisMcHenry,Illinois,McHenry,2021-01-06 00:51:19.615925,2020-08-06 00:00:00.000000,0.54438777,0.82266079,1.52560921,1675,2531,4695,1014,1526,3205,0.32972332,0.49596085,1.04143790,0.17134927,0.22699646,0.28459667
17111,0,USIllinoisMcHenry,Illinois,McHenry,2021-01-06 00:51:19.615925,2020-08-07 00:00:00.000000,0.54665498,0.81788608,1.53482024,1682,2517,4723,1017,1541,3215,0.33065753,0.50085450,1.04489345,0.17282517,0.22530635,0.27890511
17111,0,USIllinoisMcHenry,Illinois,McHenry,2021-01-06 00:51:19.615925,2020-08-08 00:00:00.000000,0.54924431,0.81324395,1.54681929,1690,2502,4760,1021,1549,3228,0.33179261,0.50335624,1.04882658,0.17218906,0.22450075,0.28393903
17111,0,USIllinoisMcHenry,Illinois,McHenry,2021-01-06 00:51:19.615925,2020-08-09 00:00:00.000000,0.55206260,0.81270554,1.55945011,1699,2501,4799,1017,1550,3242,0.33058727,0.50382875,1.05342204,0.17296189,0.22372605,0.28615008
17111,0,USIllinoisMcHenry,Illinois,McHenry,2021-01-06 00:51:19.615925,2020-08-10 00:00:00.000000,0.55565697,0.81487119,1.57222233,1710,2507,4838,1015,1550,3258,0.32995762,0.50369486,1.05866754,0.17440013,0.22183508,0.28560034
17111,0,USIllinoisMcHenry,Illinois,McHenry,2021-01-06 00:51:19.615925,2020-08-11 00:00:00.000000,0.55944432,0.80992833,1.58502992,1721,2492,4878,1015,1547,3278,0.33009669,0.50289654,1.06516729,0.17385238,0.22351467,0.28538893
17111,0,USIllinoisMcHenry,Illinois,McHenry,2021-01-06 00:51:19.615925,2020-08-12 00:00:00.000000,0.56347234,0.81024637,1.59752635,1734,2493,4916,1017,1545,3300,0.33071196,0.50202298,1.07247354,0.17374085,0.22592321,0.28623583
17111,0,USIllinoisMcHenry,Illinois,McHenry,2021-01-06 00:51:19.615925,2020-08-13 00:00:00.000000,0.56780271,0.81309531,1.60880020,1747,2502,4951,1020,1553,3324,0.33160696,0.50463746,1.08024063,0.17260062,0.22656715,0.28513411
17111,0,USIllinoisMcHenry,Illinois,McHenry,2021-01-06 00:51:19.615925,2020-08-14 00:00:00.000000,0.57262554,0.81060332,1.61717212,1762,2494,4977,1015,1560,3348,0.32981451,0.50713365,1.08810164,0.17058877,0.22731285,0.28448081
17111,0,USIllinoisMcHenry,Illinois,McHenry,2021-01-06 00:51:19.615925,2020-08-15 00:00:00.000000,0.57016623,0.80911615,1.62208334,1754,2490,4992,1005,1568,3371,0.32675235,0.50950080,1.09554814,0.16924752,0.22980590,0.28513407
17111,0,USIllinoisMcHenry,Illinois,McHenry,2021-01-06 00:51:19.615925,2020-08-16 00:00:00.000000,0.56753129,0.80693490,1.62532420,1746,2483,5002,996,1574,3392,0.32382409,0.51156126,1.10233959,0.16671655,0.23217775,0.29377714
17111,0,USIllinoisMcHenry,Illinois,McHenry,2021-01-06 00:51:19.615925,2020-08-17 00:00:00.000000,0.56327071,0.81125738,1.62245283,1733,2496,4993,989,1567,3411,0.32145003,0.50917405,1.10851247,0.16816949,0.23161489,0.29665908
17111,0,USIllinoisMcHenry,Illinois,McHenry,2021-01-06 00:51:19.615925,2020-08-18 00:00:00.000000,0.55792767,0.81448798,1.61593438,1717,2506,4973,985,1558,3427,0.32011452,0.50639741,1.11367596,0.16875938,0.23258698,0.29665062
17111,0,USIllinoisMcHenry,Illinois,McHenry,2021-01-06 00:51:19.615925,2020-08-19 00:00:00.000000,0.55223862,0.81800009,1.60970412,1699,2517,4954,984,1549,3440,0.31996250,0.50332620,1.11792224,0.16808205,0.23304888,0.29455969
17111,0,USIllinoisMcHenry,Illinois,McHenry,2021-01-06 00:51:19.615925,2020-08-20 00:00:00.000000,0.54638710,0.82335087,1.60355064,1681,2534,4935,987,1539,3450,0.32077026,0.50023880,1.12117800,0.16769279,0.23194167,0.28910289
17111,0,USIllinoisMcHenry,Illinois,McHenry,2021-01-06 00:51:19.615925,2020-08-21 00:00:00.000000,0.54051872,0.82926396,1.59733085,1663,2552,4916,991,1531,3457,0.32225431,0.49746561,1.12326448,0.16775393,0.23192046,0.28764379
17111,0,USIllinoisMcHenry,Illinois,McHenry,2021-01-06 00:51:19.615925,2020-08-22 00:00:00.000000,0.53462472,0.83454773,1.58756089,1645,2568,4886,997,1528,3459,0.32418669,0.49673756,1.12398504,0.16739126,0.22615800,0.28310723
17111,0,USIllinoisMcHenry,Illinois,McHenry,2021-01-06 00:51:19.615925,2020-08-23 00:00:00.000000,0.52869274,0.83168825,1.57588178,1627,2559,4850,1004,1521,3456,0.32637140,0.49425493,1.12303493,0.16352116,0.22583566,0.28298703
17111,0,USIllinoisMcHenry,Illinois,McHenry,2021-01-06 00:51:19.615925,2020-08-24 00:00:00.000000,0.52396769,0.83633476,1.56350550,1612,2574,4812,1010,1519,3447,0.32844987,0.49355744,1.12017050,0.16408369,0.22602935,0.28290540
17111,0,USIllinoisMcHenry,Illinois,McHenry,2021-01-06 00:51:19.615925,2020-08-25 00:00:00.000000,0.51922875,0.84278112,1.55106641,1598,2593,4773,1015,1520,3432,0.32987243,0.49406966,1.11516815,0.16645558,0.22245738,0.28279392
17111,0,USIllinoisMcHenry,Illinois,McHenry,2021-01-06 00:51:19.615925,2020-08-26 00:00:00.000000,0.51467634,0.83411522,1.53859784,1584,2567,4735,1017,1521,3410,0.33063344,0.49419562,1.10809591,0.16582944,0.22273462,0.28247512
17111,0,USIllinoisMcHenry,Illinois,McHenry,2021-01-06 00:51:19.615925,2020-08-27 00:00:00.000000,0.51051433,0.82759556,1.52614978,1571,2547,4697,1018,1519,3382,0.33091696,0.49382722,1.09914759,0.16696617,0.22164105,0.27516953
17111,0,USIllinoisMcHenry,Illinois,McHenry,2021-01-06 00:51:19.615925,2020-08-28 00:00:00.000000,0.50690605,0.82313401,1.51375527,1560,2533,4658,1018,1512,3350,0.33085384,0.49149333,1.08859580,0.16744052,0.22056931,0.27313003
17111,0,USIllinoisMcHenry,Illinois,McHenry,2021-01-06 00:51:19.615925,2020-08-29 00:00:00.000000,0.50390035,0.81840871,1.50143610,1550,2518,4621,1017,1506,3313,0.33049227,0.48953424,1.07673614,0.16295867,0.21561456,0.26183656
17111,0,USIllinoisMcHenry,Illinois,McHenry,2021-01-06 00:51:19.615925,2020-08-30 00:00:00.000000,0.50143317,0.81068180,1.48936499,1543,2495,4583,1015,1498,3274,0.32980161,0.48674978,1.06384490,0.16025653,0.21367226,0.26136885
17111,0,USIllinoisMcHenry,Illinois,McHenry,2021-01-06 00:51:19.615925,2020-08-31 00:00:00.000000,0.49778147,0.79997311,1.48110508,1532,2462,4558,1011,1495,3232,0.32871911,0.48579479,1.05015899,0.15744546,0.21099105,0.26127178
17111,0,USIllinoisMcHenry,Illinois,McHenry,2021-01-06 00:51:19.615925,2020-09-01 00:00:00.000000,0.49437991,0.78956708,1.48234586,1521,2430,4562,1007,1489,3187,0.32740811,0.48404272,1.03571460,0.15565538,0.20756029,0.26002823
17111,0,USIllinoisMcHenry,Illinois,McHenry,2021-01-06 00:51:19.615925,2020-09-02 00:00:00.000000,0.49101190,0.78098034,1.46772002,1511,2403,4517,1002,1479,3141,0.32586106,0.48081509,1.02081722,0.15533952,0.20602887,0.25731286
17111,0,USIllinoisMcHenry,Illinois,McHenry,2021-01-06 00:51:19.615925,2020-09-03 00:00:00.000000,0.48753404,0.77651470,1.44696936,1500,2389,4453,994,1463,3095,0.32324841,0.47543321,1.00576819,0.15324680,0.20331863,0.25661850
17111,0,USIllinoisMcHenry,Illinois,McHenry,2021-01-06 00:51:19.615925,2020-09-04 00:00:00.000000,0.48378083,0.76715141,1.42993289,1488,2361,4400,984,1445,3050,0.31999448,0.46978523,0.99120304,0.15169254,0.19977584,0.26022219
17111,0,USIllinoisMcHenry,Illinois,McHenry,2021-01-06 00:51:19.615925,2020-09-05 00:00:00.000000,0.47959439,0.75846970,1.41491159,1476,2334,4354,974,1440,3009,0.31656523,0.46811616,0.97792431,0.15064170,0.19910063,0.26113202
17111,0,USIllinoisMcHenry,Illinois,McHenry,2021-01-06 00:51:19.615925,2020-09-06 00:00:00.000000,0.47488592,0.75348533,1.40048921,1461,2319,4310,962,1441,2973,0.31288435,0.46825850,0.96596915,0.14999992,0.20036355,0.25965775
17111,0,USIllinoisMcHenry,Illinois,McHenry,2021-01-06 00:51:19.615925,2020-09-07 00:00:00.000000,0.47009254,0.74649969,1.38695240,1446,2297,4268,951,1434,2939,0.30906681,0.46605627,0.95496532,0.15147232,0.19955954,0.26395760
17111,0,USIllinoisMcHenry,Illinois,McHenry,2021-01-06 00:51:19.615925,2020-09-08 00:00:00.000000,0.46492329,0.73668126,1.37355592,1430,2267,4227,941,1414,2907,0.30582367,0.45971410,0.94475481,0.14979852,0.19936587,0.25902384
17111,0,USIllinoisMcHenry,Illinois,McHenry,2021-01-06 00:51:19.615925,2020-09-09 00:00:00.000000,0.45953194,0.72674936,1.36034642,1414,2236,4186,920,1389,2877,0.29912708,0.45160214,0.93505286,0.14974943,0.19932626,0.26206261
17111,0,USIllinoisMcHenry,Illinois,McHenry,2021-01-06 00:51:19.615925,2020-09-10 00:00:00.000000,0.45399491,0.71651698,1.34747957,1397,2205,4147,898,1369,2849,0.29206244,0.44485640,0.92569792,0.14883426,0.19950802,0.27174735
17111,0,USIllinoisMcHenry,Illinois,McHenry,2021-01-06 00:51:19.615925,2020-09-11 00:00:00.000000,0.44822731,0.70407210,1.33532995,1379,2166,4109,877,1358,2821,0.28499480,0.44135615,0.91663805,0.14880636,0.19914361,0.27327752
17111,0,USIllinoisMcHenry,Illinois,McHenry,2021-01-06 00:51:19.615925,2020-09-12 00:00:00.000000,0.44209670,0.69787351,1.32431839,1360,2147,4075,855,1349,2794,0.27798361,0.43851696,0.90794433,0.14882068,0.20082352,0.27865441
17111,0,USIllinoisMcHenry,Illinois,McHenry,2021-01-06 00:51:19.615925,2020-09-13 00:00:00.000000,0.43594648,0.69781304,1.31436273,1341,2147,4045,834,1339,2769,0.27109955,0.43530546,0.89977422,0.14934535,0.20627537,0.29219037
17111,0,USIllinoisMcHenry,Illinois,McHenry,2021-01-06 00:51:19.615925,2020-09-14 00:00:00.000000,0.43134910,0.69216247,1.30402535,1327,2130,4013,814,1340,2745,0.26474569,0.43558473,0.89220299,0.14955333,0.21022973,0.29454533
17111,0,USIllinoisMcHenry,Illinois,McHenry,2021-01-06 00:51:19.615925,2020-09-15 00:00:00.000000,0.42762878,0.69513603,1.29409296,1316,2139,3982,801,1334,2723,0.26027634,0.43372440,0.88492075,0.15236598,0.21295791,0.29458225
17111,0,USIllinoisMcHenry,Illinois,McHenry,2021-01-06 00:51:19.615925,2020-09-16 00:00:00.000000,0.42529522,0.70052869,1.28503281,1308,2156,3954,793,1327,2701,0.25783037,0.43127478,0.87788060,0.15579782,0.22095937,0.29458913
17111,0,USIllinoisMcHenry,Illinois,McHenry,2021-01-06 00:51:19.615925,2020-09-17 00:00:00.000000,0.42481537,0.70094731,1.27928204,1307,2157,3937,790,1323,2681,0.25673695,0.43010837,0.87118938,0.15884086,0.22486821,0.29657391
17111,0,USIllinoisMcHenry,Illinois,McHenry,2021-01-06 00:51:19.615925,2020-09-18 00:00:00.000000,0.42650192,0.70448536,1.27839964,1312,2168,3934,791,1311,2664,0.25723850,0.42619674,0.86564698,0.15982034,0.23295520,0.29674678
17111,0,USIllinoisMcHenry,Illinois,McHenry,2021-01-06 00:51:19.615925,2020-09-19 00:00:00.000000,0.43035677,0.71016780,1.27940912,1324,2185,3937,804,1303,2653,0.26125059,0.42361246,0.86205655,0.16282645,0.23720085,0.30692556
17111,0,USIllinoisMcHenry,Illinois,McHenry,2021-01-06 00:51:19.615925,2020-09-20 00:00:00.000000,0.43608780,0.70747333,1.28112621,1342,2177,3942,817,1306,2647,0.26559767,0.42439014,0.86017923,0.16925124,0.24307170,0.32834254
17111,0,USIllinoisMcHenry,Illinois,McHenry,2021-01-06 00:51:19.615925,2020-09-21 00:00:00.000000,0.44158806,0.71320933,1.28321889,1359,2195,3949,831,1315,2645,0.27020464,0.42756064,0.85951700,0.17632122,0.24877892,0.34383707
17111,0,USIllinoisMcHenry,Illinois,McHenry,2021-01-06 00:51:19.615925,2020-09-22 00:00:00.000000,0.44815171,0.71728066,1.28884195,1379,2207,3966,831,1330,2646,0.27009324,0.43227370,0.85997508,0.18670124,0.25570603,0.36625606
17111,0,USIllinoisMcHenry,Illinois,McHenry,2021-01-06 00:51:19.615925,2020-09-23 00:00:00.000000,0.45545017,0.73521952,1.29530465,1401,2262,3986,836,1335,2651,0.27187168,0.43408313,0.86144237,0.19921179,0.26649792,0.37375073
17111,0,USIllinoisMcHenry,Illinois,McHenry,2021-01-06 00:51:19.615925,2020-09-24 00:00:00.000000,0.46349624,0.74742421,1.30429360,1426,2300,4014,853,1349,2659,0.27739023,0.43859559,0.86404501,0.20907032,0.27330334,0.37643100
17111,0,USIllinoisMcHenry,Illinois,McHenry,2021-01-06 00:51:19.615925,2020-09-25 00:00:00.000000,0.47279875,0.75548937,1.30564112,1455,2325,4018,855,1364,2671,0.27798555,0.44323667,0.86815183,0.21892026,0.28627776,0.38222063
17111,0,USIllinoisMcHenry,Illinois,McHenry,2021-01-06 00:51:19.615925,2020-09-26 00:00:00.000000,0.48365992,0.76653232,1.30953270,1488,2359,4030,859,1372,2689,0.27925964,0.44597791,0.87401557,0.23790184,0.29864047,0.39588040
17111,0,USIllinoisMcHenry,Illinois,McHenry,2021-01-06 00:51:19.615925,2020-09-27 00:00:00.000000,0.49477456,0.78462653,1.31584833,1522,2414,4049,884,1384,2715,0.28723057,0.44988036,0.88245954,0.24671103,0.31583763,0.41719194
17111,0,USIllinoisMcHenry,Illinois,McHenry,2021-01-06 00:51:19.615925,2020-09-28 00:00:00.000000,0.50644578,0.80103552,1.32350693,1558,2465,4073,917,1419,2750,0.29801645,0.46123543,0.89378275,0.25242167,0.32433508,0.42851920
17111,0,USIllinoisMcHenry,Illinois,McHenry,2021-01-06 00:51:19.615925,2020-09-29 00:00:00.000000,0.51896711,0.81947408,1.33289616,1597,2522,4102,952,1434,2794,0.30956703,0.46623099,0.90787311,0.25619066,0.33260589,0.43025575
17111,0,USIllinoisMcHenry,Illinois,McHenry,2021-01-06 00:51:19.615925,2020-09-30 00:00:00.000000,0.53256678,0.84281964,1.34506938,1639,2593,4139,976,1458,2845,0.31734069,0.47379221,0.92440455,0.25774879,0.33759505,0.44265854
17111,0,USIllinoisMcHenry,Illinois,McHenry,2021-01-06 00:51:19.615925,2020-10-01 00:00:00.000000,0.55032555,0.86907184,1.36389689,1693,2674,4197,1000,1486,2902,0.32499873,0.48302681,0.94302357,0.25999122,0.34254627,0.46232312
17111,0,USIllinoisMcHenry,Illinois,McHenry,2021-01-06 00:51:19.615925,2020-10-02 00:00:00.000000,0.57136798,0.90179376,1.39576022,1758,2775,4295,1027,1536,2965,0.33379505,0.49917085,0.96359641,0.27472010,0.35926573,0.47432208
17111,0,USIllinoisMcHenry,Illinois,McHenry,2021-01-06 00:51:19.615925,2020-10-03 00:00:00.000000,0.59837334,0.94680227,1.44201848,1841,2914,4438,1061,1603,3036,0.34500059,0.52115593,0.98652249,0.28943214,0.37029926,0.48085483
17111,0,USIllinoisMcHenry,Illinois,McHenry,2021-01-06 00:51:19.615925,2020-10-04 00:00:00.000000,0.62756322,0.99831134,1.49756156,1931,3072,4609,1104,1656,3113,0.35882824,0.53817917,1.01163321,0.29983246,0.38290619,0.50250255
17111,0,USIllinoisMcHenry,Illinois,McHenry,2021-01-06 00:51:19.615925,2020-10-05 00:00:00.000000,0.65973159,1.04623330,1.58920046,2030,3220,4891,1153,1702,3204,0.37474014,0.55313997,1.04122564,0.30739980,0.39592948,0.50445392
17111,0,USIllinoisMcHenry,Illinois,McHenry,2021-01-06 00:51:19.615925,2020-10-06 00:00:00.000000,0.69601240,1.09422869,1.69030299,2142,3367,5202,1208,1773,3313,0.39260749,0.57630529,1.07666932,0.31793316,0.40580300,0.50247000
17111,0,USIllinoisMcHenry,Illinois,McHenry,2021-01-06 00:51:19.615925,2020-10-07 00:00:00.000000,0.73956994,1.14774555,1.79464464,2276,3532,5523,1266,1862,3438,0.41135284,0.60525640,1.11707236,0.32371751,0.41175223,0.51165371
17111,0,USIllinoisMcHenry,Illinois,McHenry,2021-01-06 00:51:19.615925,2020-10-08 00:00:00.000000,0.79291714,1.20968078,1.90210317,2440,3723,5854,1314,1968,3577,0.42693946,0.63958155,1.16240619,0.33301650,0.41977704,0.52517212
17111,0,USIllinoisMcHenry,Illinois,McHenry,2021-01-06 00:51:19.615925,2020-10-09 00:00:00.000000,0.85458260,1.27313207,2.01456637,2630,3918,6200,1381,2087,3734,0.44892075,0.67836178,1.21337068,0.34225607,0.42572441,0.54222748
17111,0,USIllinoisMcHenry,Illinois,McHenry,2021-01-06 00:51:19.615925,2020-10-10 00:00:00.000000,0.91243485,1.35208135,2.13300651,2808,4161,6564,1454,2213,3910,0.47242664,0.71935331,1.27065496,0.34996034,0.43247193,0.54792642
17111,0,USIllinoisMcHenry,Illinois,McHenry,2021-01-06 00:51:19.615925,2020-10-11 00:00:00.000000,0.95489650,1.44015242,2.25786839,2938,4432,6949,1527,2336,4106,0.49615798,0.75927096,1.33434239,0.36141559,0.43982786,0.55875117
17111,0,USIllinoisMcHenry,Illinois,McHenry,2021-01-06 00:51:19.615925,2020-10-12 00:00:00.000000,0.99880092,1.51767807,2.39760217,3074,4671,7379,1601,2455,4321,0.52025691,0.79795134,1.40406303,0.36293140,0.44499204,0.57707471
17111,0,USIllinoisMcHenry,Illinois,McHenry,2021-01-06 00:51:19.615925,2020-10-13 00:00:00.000000,1.04496116,1.59726356,2.57979339,3216,4915,7939,1677,2585,4553,0.54498544,0.84013663,1.47952025,0.36365828,0.45326974,0.58913171
17111,0,USIllinoisMcHenry,Illinois,McHenry,2021-01-06 00:51:19.615925,2020-10-14 00:00:00.000000,1.11363862,1.69093560,2.77514917,3427,5204,8541,1757,2759,4815,0.57094359,0.89649927,1.56468776,0.37104646,0.45838590,0.59044917
17111,0,USIllinoisMcHenry,Illinois,McHenry,2021-01-06 00:51:19.615925,2020-10-15 00:00:00.000000,1.19826256,1.79823894,2.98384144,3687,5534,9183,1882,2898,5202,0.61149799,0.94162556,1.69029977,0.37489704,0.46328181,0.59045372
17111,0,USIllinoisMcHenry,Illinois,McHenry,2021-01-06 00:51:19.615925,2020-10-16 00:00:00.000000,1.29045037,1.91890449,3.20469900,3971,5905,9863,2020,3055,5622,0.65653881,0.99277141,1.82680300,0.38095677,0.47502666,0.59268443
17111,0,USIllinoisMcHenry,Illinois,McHenry,2021-01-06 00:51:19.615925,2020-10-17 00:00:00.000000,1.38999335,2.05132813,3.43750603,4278,6313,10579,2173,3263,6072,0.70603926,1.06024777,1.97298275,0.38100884,0.47629569,0.59235741
17111,0,USIllinoisMcHenry,Illinois,McHenry,2021-01-06 00:51:19.615925,2020-10-18 00:00:00.000000,1.47940646,2.19308103,3.68146741,4553,6749,11330,2327,3488,6547,0.75621401,1.13345777,2.12739753,0.38133305,0.48554369,0.59497409
17111,0,USIllinoisMcHenry,Illinois,McHenry,2021-01-06 00:51:19.615925,2020-10-19 00:00:00.000000,1.57514769,2.36071459,3.93785157,4847,7265,12119,2482,3708,7045,0.80658529,1.20507857,2.28930890,0.38531059,0.48656242,0.59607814
17111,0,USIllinoisMcHenry,Illinois,McHenry,2021-01-06 00:51:19.615925,2020-10-20 00:00:00.000000,1.67722757,2.53426486,4.16905860,5162,7799,12831,2655,3954,7567,0.86283332,1.28492386,2.45894083,0.38837265,0.49643978,0.59652584
17111,0,USIllinoisMcHenry,Illinois,McHenry,2021-01-06 00:51:19.615925,2020-10-21 00:00:00.000000,1.78625695,2.70603884,4.39722492,5497,8328,13533,2845,4206,8116,0.92442562,1.36688510,2.63718549,0.39507349,0.50318163,0.60327141
17111,0,USIllinoisMcHenry,Illinois,McHenry,2021-01-06 00:51:19.615925,2020-10-22 00:00:00.000000,1.90363134,2.91788140,4.63503269,5858,8980,14265,3050,4551,8694,0.99112076,1.47897762,2.82501170,0.40131234,0.50685657,0.61263968
17111,0,USIllinoisMcHenry,Illinois,McHenry,2021-01-06 00:51:19.615925,2020-10-23 00:00:00.000000,2.03431799,3.12159150,4.88994760,6261,9607,15049,3271,4881,9304,1.06288987,1.58620235,3.02325889,0.40648547,0.50951346,0.61879951
17111,0,USIllinoisMcHenry,Illinois,McHenry,2021-01-06 00:51:19.615925,2020-10-24 00:00:00.000000,2.19470572,3.38789149,5.18511010,6754,10427,15958,3508,5253,9940,1.13981697,1.70685726,3.22988094,0.41707915,0.52145370,0.63751956
17111,0,USIllinoisMcHenry,Illinois,McHenry,2021-01-06 00:51:19.615925,2020-10-25 00:00:00.000000,2.39298654,3.65233203,5.55103989,7364,11240,17084,3791,5666,10566,1.23183522,1.84116045,3.43322438,0.43462448,0.53349301,0.64493043
17111,0,USIllinoisMcHenry,Illinois,McHenry,2021-01-06 00:51:19.615925,2020-10-26 00:00:00.000000,2.58906221,3.91781688,5.98049883,7968,12058,18406,4096,6107,11233,1.33090825,1.98425491,3.64993268,0.43223943,0.54184648,0.64899495
17111,0,USIllinoisMcHenry,Illinois,McHenry,2021-01-06 00:51:19.615925,2020-10-27 00:00:00.000000,2.78069553,4.24060356,6.44970739,8558,13051,19850,4423,6559,12008,1.43717231,2.13127937,3.90165390,0.43083645,0.54814369,0.66653418
17111,0,USIllinoisMcHenry,Illinois,McHenry,2021-01-06 00:51:19.615925,2020-10-28 00:00:00.000000,2.98626360,4.59369620,6.87659913,9190,14138,21164,4774,7040,12863,1.55115891,2.28748979,4.17954619,0.43080510,0.55075055,0.65588772
17111,0,USIllinoisMcHenry,Illinois,McHenry,2021-01-06 00:51:19.615925,2020-10-29 00:00:00.000000,3.23527722,4.96233020,7.32021769,9957,15272,22529,5150,7529,13761,1.67353343,2.44654268,4.47137962,0.43144844,0.55173877,0.65375810
17111,0,USIllinoisMcHenry,Illinois,McHenry,2021-01-06 00:51:19.615925,2020-10-30 00:00:00.000000,3.50706681,5.33406241,7.83224248,10793,16416,24105,5555,7985,14753,1.80502492,2.59444316,4.79372808,0.43307391,0.54995156,0.65989635
17111,0,USIllinoisMcHenry,Illinois,McHenry,2021-01-06 00:51:19.615925,2020-10-31 00:00:00.000000,3.78007069,5.71752934,8.50850498,11634,17597,26186,5990,8471,15924,1.94631315,2.75259820,5.17420193,0.43676720,0.54524560,0.67192170
17111,0,USIllinoisMcHenry,Illinois,McHenry,2021-01-06 00:51:19.615925,2020-11-01 00:00:00.000000,4.05001933,6.10048343,9.23253755,12464,18775,28415,6456,9076,17124,2.09766674,2.94923568,5.56398894,0.44164177,0.53706094,0.65825699
17111,0,USIllinoisMcHenry,Illinois,McHenry,2021-01-06 00:51:19.615925,2020-11-02 00:00:00.000000,4.34333780,6.52422776,9.82321513,13367,20079,30233,6911,9732,18400,2.24556654,3.16232053,5.97842172,0.42307189,0.52819762,0.64597096
17111,0,USIllinoisMcHenry,Illinois,McHenry,2021-01-06 00:51:19.615925,2020-11-03 00:00:00.000000,4.62242287,6.91045820,10.38883222,14226,21268,31974,7385,10440,19728,2.39981078,3.39235987,6.41006523,0.40062901,0.51999962,0.64107038
17111,0,USIllinoisMcHenry,Illinois,McHenry,2021-01-06 00:51:19.615925,2020-11-04 00:00:00.000000,4.97810625,7.15053058,10.93754650,15321,22007,33662,7859,11136,20990,2.55357318,3.61836081,6.82009108,0.37149051,0.49324230,0.62698206
17111,0,USIllinoisMcHenry,Illinois,McHenry,2021-01-06 00:51:19.615925,2020-11-05 00:00:00.000000,5.26944323,7.39927384,11.38234449,16217,22773,35031,8286,11759,22239,2.69253869,3.82075387,7.22591486,0.32200772,0.47513995,0.61409901
17111,0,USIllinoisMcHenry,Illinois,McHenry,2021-01-06 00:51:19.615925,2020-11-06 00:00:00.000000,5.39299846,7.68193039,11.93404305,16598,23642,36729,8696,12398,23479,2.82550373,4.02841473,7.62879404,0.27526713,0.42437021,0.58084997
17111,0,USIllinoisMcHenry,Illinois,McHenry,2021-01-06 00:51:19.615925,2020-11-07 00:00:00.000000,5.40796514,7.73386111,12.11269798,16644,23802,37279,9327,12995,24612,3.03049520,4.22253694,7.99699419,0.21958387,0.35468166,0.53910991
17111,0,USIllinoisMcHenry,Illinois,McHenry,2021-01-06 00:51:19.615925,2020-11-08 00:00:00.000000,5.38109130,7.84921990,12.26926454,16561,24157,37761,9692,13476,24806,3.14913155,4.37870773,8.05992822,0.20823654,0.30074756,0.46596672
17111,0,USIllinoisMcHenry,Illinois,McHenry,2021-01-06 00:51:19.615925,2020-11-09 00:00:00.000000,5.33416438,7.81410997,12.43629130,16417,24049,38275,9918,13801,24808,3.22275705,4.48434094,8.06077785,0.19885421,0.27263093,0.42125766
17111,0,USIllinoisMcHenry,Illinois,McHenry,2021-01-06 00:51:19.615925,2020-11-10 00:00:00.000000,5.27669774,7.72793864,12.49837390,16240,23784,38466,10094,14011,25374,3.27977538,4.55248807,8.24443099,0.19624843,0.26011289,0.38566156
17111,0,USIllinoisMcHenry,Illinois,McHenry,2021-01-06 00:51:19.615925,2020-11-11 00:00:00.000000,5.21319419,7.63671545,12.45997041,16044,23503,38348,10174,14073,25944,3.30589977,4.57256657,8.42957127,0.18096650,0.25231576,0.35317674
17111,0,USIllinoisMcHenry,Illinois,McHenry,2021-01-06 00:51:19.615925,2020-11-12 00:00:00.000000,5.13937950,7.53495045,12.34939621,15817,23190,38008,10076,14040,26419,3.27398520,4.56182637,8.58392818,0.17577674,0.24406892,0.33570061
17111,0,USIllinoisMcHenry,Illinois,McHenry,2021-01-06 00:51:19.615925,2020-11-13 00:00:00.000000,5.01857124,7.45248574,12.42531855,15445,22936,38241,9918,13909,26823,3.22271975,4.51937146,8.71521841,0.17287318,0.23435929,0.32199068
17111,0,USIllinoisMcHenry,Illinois,McHenry,2021-01-06 00:51:19.615925,2020-11-14 00:00:00.000000,4.84048874,7.32406254,12.50928622,14897,22541,38500,9655,13733,27167,3.13710343,4.46217887,8.82715915,0.16638971,0.23079229,0.31033475
17111,0,USIllinoisMcHenry,Illinois,McHenry,2021-01-06 00:51:19.615925,2020-11-15 00:00:00.000000,4.62779313,7.20654051,12.55052710,14243,22179,38627,9243,13549,27451,3.00340772,4.40238995,8.91950795,0.16450798,0.22716889,0.30568442
17111,0,USIllinoisMcHenry,Illinois,McHenry,2021-01-06 00:51:19.615925,2020-11-16 00:00:00.000000,4.42243021,7.04399933,12.53337770,13611,21679,38574,8845,13341,27661,2.87409757,4.33469750,8.98758720,0.16406681,0.22371390,0.30514058
17111,0,USIllinoisMcHenry,Illinois,McHenry,2021-01-06 00:51:19.615925,2020-11-17 00:00:00.000000,4.23030079,6.90745160,12.45708301,13019,21259,38339,8461,13115,27758,2.74920615,4.26149850,9.01896357,0.16396350,0.22282000,0.30152053
17111,0,USIllinoisMcHenry,Illinois,McHenry,2021-01-06 00:51:19.615925,2020-11-18 00:00:00.000000,4.09630786,6.74763946,12.32833580,12607,20767,37943,8195,12882,27715,2.66268309,4.18583497,9.00506509,0.16395460,0.22206059,0.28660838
17111,0,USIllinoisMcHenry,Illinois,McHenry,2021-01-06 00:51:19.615925,2020-11-19 00:00:00.000000,3.96870457,6.58664292,12.14044851,12214,20271,37365,8020,12630,26953,2.60607403,4.10374970,8.75748865,0.16028481,0.22108405,0.29169884
17111,0,USIllinoisMcHenry,Illinois,McHenry,2021-01-06 00:51:19.615925,2020-11-20 00:00:00.000000,3.84746038,6.42499978,11.78373214,11841,19774,36267,7848,12360,26174,2.54995818,4.01613945,8.50441301,0.16030539,0.22299959,0.27782690
17111,0,USIllinoisMcHenry,Illinois,McHenry,2021-01-06 00:51:19.615925,2020-11-21 00:00:00.000000,3.75743176,6.26198300,11.50927368,11564,19272,35422,7679,12070,25415,2.49520456,3.92200623,8.25778861,0.16070912,0.22306085,0.28648245
17111,0,USIllinoisMcHenry,Illinois,McHenry,2021-01-06 00:51:19.615925,2020-11-22 00:00:00.000000,3.69851584,6.09780071,11.29750125,11383,18767,34770,7519,11793,24735,2.44323980,3.83199245,8.03696116,0.15932449,0.22687890,0.29842782
17111,0,USIllinoisMcHenry,Illinois,McHenry,2021-01-06 00:51:19.615925,2020-11-23 00:00:00.000000,3.66481051,5.93354404,11.10347155,11279,18261,34173,7385,11510,24155,2.39963964,3.74005376,7.84861029,0.16103418,0.23111563,0.32718943
17111,0,USIllinoisMcHenry,Illinois,McHenry,2021-01-06 00:51:19.615925,2020-11-24 00:00:00.000000,3.64157075,5.77939671,10.91518473,11207,17787,33594,7254,11239,23651,2.35699418,3.65202491,7.68454396,0.16194680,0.22700653,0.33086228
17111,0,USIllinoisMcHenry,Illinois,McHenry,2021-01-06 00:51:19.615925,2020-11-25 00:00:00.000000,3.61810443,5.64225764,10.73246616,11135,17365,33031,7011,10963,23194,2.27802389,3.56225283,7.53628887,0.16282386,0.22819359,0.33508906
17111,0,USIllinoisMcHenry,Illinois,McHenry,2021-01-06 00:51:19.615925,2020-11-26 00:00:00.000000,3.58880288,5.50830813,10.55953826,11045,16953,32499,6774,10680,22771,2.20102800,3.47012799,7.39873159,0.16340650,0.22975140,0.34241090
17111,0,USIllinoisMcHenry,Illinois,McHenry,2021-01-06 00:51:19.615925,2020-11-27 00:00:00.000000,3.54970014,5.36906922,10.39912543,10925,16524,32005,6546,10403,22375,2.12693256,3.38009859,7.27003054,0.16102923,0.23652906,0.35190917
17111,0,USIllinoisMcHenry,Illinois,McHenry,2021-01-06 00:51:19.615925,2020-11-28 00:00:00.000000,3.49847154,5.27281731,10.24789278,10767,16228,31540,6342,10159,22005,2.06069156,3.30095313,7.14990318,0.16372948,0.23805711,0.35756303
17111,0,USIllinoisMcHenry,Illinois,McHenry,2021-01-06 00:51:19.615925,2020-11-29 00:00:00.000000,3.43542720,5.16230826,10.09992656,10573,15888,31084,6172,9994,21659,2.00555972,3.24726746,7.03735084,0.17362145,0.24528873,0.36591163
17111,0,USIllinoisMcHenry,Illinois,McHenry,2021-01-06 00:51:19.615925,2020-11-30 00:00:00.000000,3.36091085,5.05213235,9.95052909,10344,15549,30625,6027,9782,21329,1.95828427,3.17861037,6.93020002,0.17472390,0.25325637,0.37592694
17111,0,USIllinoisMcHenry,Illinois,McHenry,2021-01-06 00:51:19.615925,2020-12-01 00:00:00.000000,3.27935075,4.94298561,9.79741973,10092,15213,30153,5897,9610,21008,1.91620374,3.12271104,6.82587191,0.18451573,0.25766719,0.38124505
17111,0,USIllinoisMcHenry,Illinois,McHenry,2021-01-06 00:51:19.615925,2020-12-02 00:00:00.000000,3.19400772,4.84475535,9.62624292,9830,14910,29627,5780,9471,20690,1.87801808,3.07746331,6.72252239,0.18599991,0.25979403,0.38688687
17111,0,USIllinoisMcHenry,Illinois,McHenry,2021-01-06 00:51:19.615925,2020-12-03 00:00:00.000000,3.10723152,4.76453601,9.48672649,9563,14664,29197,5674,9338,20373,1.84374459,3.03404862,6.61949258,0.19706345,0.26414541,0.39566759
17111,0,USIllinoisMcHenry,Illinois,McHenry,2021-01-06 00:51:19.615925,2020-12-04 00:00:00.000000,3.02140127,4.69791750,9.34863404,9299,14458,28772,5584,9184,20059,1.81439231,2.98410685,6.51756260,0.19763745,0.26895143,0.40740042
17111,0,USIllinoisMcHenry,Illinois,McHenry,2021-01-06 00:51:19.615925,2020-12-05 00:00:00.000000,2.93944684,4.64969214,9.20072183,9046,14310,28317,5510,9041,19749,1.79048031,2.93773699,6.41678804,0.19772145,0.27323518,0.40719293
17111,0,USIllinoisMcHenry,Illinois,McHenry,2021-01-06 00:51:19.615925,2020-12-06 00:00:00.000000,2.86542259,4.59079506,9.05370481,8819,14129,27864,5451,8913,19441,1.77124113,2.89606231,6.31667265,0.19990990,0.27622275,0.40107642
17111,0,USIllinoisMcHenry,Illinois,McHenry,2021-01-06 00:51:19.615925,2020-12-07 00:00:00.000000,2.80447150,4.54473465,8.90993831,8631,13987,27422,5402,8802,19134,1.75537438,2.86020730,6.21718289,0.20566261,0.28308194,0.39697741
17111,0,USIllinoisMcHenry,Illinois,McHenry,2021-01-06 00:51:19.615925,2020-12-08 00:00:00.000000,2.75393675,4.49951934,8.77183059,8475,13848,26997,5360,8707,18832,1.74167479,2.82924735,6.11893265,0.20650609,0.28564055,0.40388046
17111,0,USIllinoisMcHenry,Illinois,McHenry,2021-01-06 00:51:19.615925,2020-12-09 00:00:00.000000,2.70927467,4.45371030,8.64231915,8338,13707,26598,5322,8597,18537,1.72940064,2.79340817,6.02294654,0.20728806,0.28811205,0.41443381
17111,0,USIllinoisMcHenry,Illinois,McHenry,2021-01-06 00:51:19.615925,2020-12-10 00:00:00.000000,2.73065689,4.40498567,8.52417060,8404,13557,26235,5288,8456,18252,1.71824138,2.74756999,5.93062795,0.20914571,0.29031353,0.42843596
17111,0,USIllinoisMcHenry,Illinois,McHenry,2021-01-06 00:51:19.615925,2020-12-11 00:00:00.000000,2.75151822,4.35534540,8.41941794,8468,13404,25912,5257,8330,17984,1.70836148,2.70683501,5.84356312,0.21074376,0.29264022,0.43679407
17111,0,USIllinoisMcHenry,Illinois,McHenry,2021-01-06 00:51:19.615925,2020-12-12 00:00:00.000000,2.77200011,4.30468407,8.32882443,8531,13248,25633,5233,8188,17737,1.70045963,2.66050660,5.76325150,0.21259149,0.29807211,0.43880220
17111,0,USIllinoisMcHenry,Illinois,McHenry,2021-01-06 00:51:19.615925,2020-12-13 00:00:00.000000,2.79168549,4.26453306,8.25150382,8592,13125,25395,5144,8106,17514,1.67161524,2.63388858,5.69080045,0.21673910,0.30175369,0.43958268
17111,0,USIllinoisMcHenry,Illinois,McHenry,2021-01-06 00:51:19.615925,2020-12-14 00:00:00.000000,2.80802122,4.24265056,8.18462944,8642,13057,25190,5148,8047,17317,1.67268435,2.61466679,5.62663396,0.22728777,0.30435872,0.43995886
17111,0,USIllinoisMcHenry,Illinois,McHenry,2021-01-06 00:51:19.615925,2020-12-15 00:00:00.000000,2.82329793,4.23415635,8.12605763,8689,13031,25009,5178,7972,17143,1.68267611,2.59030746,5.57023717,0.23208144,0.30637601,0.44101319
17111,0,USIllinoisMcHenry,Illinois,McHenry,2021-01-06 00:51:19.615925,2020-12-16 00:00:00.000000,2.83749825,4.18027627,8.07378518,8733,12865,24849,5206,7892,16991,1.69160959,2.56436177,5.52070446,0.23322774,0.30689150,0.44590545
17111,0,USIllinoisMcHenry,Illinois,McHenry,2021-01-06 00:51:19.615925,2020-12-17 00:00:00.000000,2.82331707,4.10417508,8.02710588,8689,12631,24705,5190,7840,16856,1.68658772,2.54734877,5.47695238,0.23415424,0.31076071,0.45585548
17111,0,USIllinoisMcHenry,Illinois,McHenry,2021-01-06 00:51:19.615925,2020-12-18 00:00:00.000000,2.82332444,4.04483025,7.98683270,8689,12448,24581,5127,7840,16737,1.66587945,2.54747488,5.43814070,0.23414775,0.31697721,0.47894961
17111,0,USIllinoisMcHenry,Illinois,McHenry,2021-01-06 00:51:19.615925,2020-12-19 00:00:00.000000,2.80417282,3.99983731,7.93241876,8630,12310,24413,5090,7790,16632,1.65392505,2.53114474,5.40398884,0.23281237,0.32135821,0.52074821
17111,0,USIllinoisMcHenry,Illinois,McHenry,2021-01-06 00:51:19.615925,2020-12-20 00:00:00.000000,2.77664776,3.97496875,7.87719367,8545,12233,24243,5086,7736,16542,1.65282164,2.51374326,5.37487879,0.23212257,0.32334796,0.56715421
17111,0,USIllinoisMcHenry,Illinois,McHenry,2021-01-06 00:51:19.615925,2020-12-21 00:00:00.000000,2.74721106,3.95456109,7.83204548,8455,12171,24104,5113,7692,16470,1.66150237,2.49925247,5.35162978,0.23358690,0.32843736,0.59612586
17111,0,USIllinoisMcHenry,Illinois,McHenry,2021-01-06 00:51:19.615925,2020-12-22 00:00:00.000000,2.71819670,3.94308747,7.79304926,8365,12135,23984,5091,7620,16420,1.65445214,2.47608341,5.33510055,0.24037650,0.33412772,0.60673846
17111,0,USIllinoisMcHenry,Illinois,McHenry,2021-01-06 00:51:19.615925,2020-12-23 00:00:00.000000,2.69499581,3.95594655,7.75555659,8294,12175,23869,5032,7515,16390,1.63515697,2.44176677,5.32554393,0.24981035,0.33974746,0.62027353
17111,0,USIllinoisMcHenry,Illinois,McHenry,2021-01-06 00:51:19.615925,2020-12-24 00:00:00.000000,2.69212075,3.95955349,7.71678924,8285,12186,23750,4975,7465,16382,1.61662089,2.42565510,5.32280628,0.25903233,0.34794866,0.62599826
17111,0,USIllinoisMcHenry,Illinois,McHenry,2021-01-06 00:51:19.615925,2020-12-25 00:00:00.000000,2.71233646,3.92367137,7.67612167,8347,12076,23625,4919,7439,16394,1.59850440,2.41720780,5.32665870,0.26328503,0.36100235,0.62840549
17111,0,USIllinoisMcHenry,Illinois,McHenry,2021-01-06 00:51:19.615925,2020-12-26 00:00:00.000000,2.71777175,3.91175416,7.63807823,8364,12039,23508,4867,7418,16425,1.58143089,2.41029620,5.33698504,0.27800018,0.36802337,0.62856523
17111,0,USIllinoisMcHenry,Illinois,McHenry,2021-01-06 00:51:19.615925,2020-12-27 00:00:00.000000,2.73781741,3.91959764,7.63163234,8426,12063,23488,4839,7422,16476,1.57243266,2.41157455,5.35360114,0.28459969,0.37782142,0.62119706
17111,0,USIllinoisMcHenry,Illinois,McHenry,2021-01-06 00:51:19.615925,2020-12-28 00:00:00.000000,2.71178219,3.93548853,7.69220464,8346,12112,23674,4861,7446,16545,1.57955450,2.41954009,5.37598913,0.28352065,0.37757915,0.65766206
17111,0,USIllinoisMcHenry,Illinois,McHenry,2021-01-06 00:51:19.615925,2020-12-29 00:00:00.000000,2.67778779,3.98643910,7.78165990,8241,12269,23949,4919,7488,16628,1.59854366,2.43315902,5.40282033,0.28217385,0.38369207,0.68480906
17111,0,USIllinoisMcHenry,Illinois,McHenry,2021-01-06 00:51:19.615925,2020-12-30 00:00:00.000000,2.63750544,4.01726424,7.88630361,8117,12364,24271,5001,7510,16717,1.62508378,2.44013416,5.43183508,0.27713910,0.38340319,0.68980345
17111,0,USIllinoisMcHenry,Illinois,McHenry,2021-01-06 00:51:19.615925,2020-12-31 00:00:00.000000,2.59503881,4.04532428,7.83352465,7986,12450,24109,5005,7554,16804,1.62634499,2.45445295,5.45994556,0.26755755,0.38028603,0.71951237
17111,0,USIllinoisMcHenry,Illinois,McHenry,2021-01-06 00:51:19.615925,2021-01-01 00:00:00.000000,2.55204774,4.08716173,7.75802024,7854,12579,23877,4939,7602,16876,1.60475971,2.47017506,5.48332139,0.26427807,0.38627192,0.73338443
17111,0,USIllinoisMcHenry,Illinois,McHenry,2021-01-06 00:51:19.615925,2021-01-02 00:00:00.000000,2.50752190,4.10252646,7.67381216,7717,12626,23617,4867,7671,16915,1.58160532,2.49263177,5.49618051,0.26060535,0.38236831,0.75167394
17111,0,USIllinoisMcHenry,Illinois,McHenry,2021-01-06 00:51:19.615925,2021-01-03 00:00:00.000000,2.43921078,4.15204078,7.56907125,7507,12778,23295,4791,7662,16918,1.55676819,2.48974645,5.49706324,0.24127498,0.38340548,0.74960989
17111,0,USIllinoisMcHenry,Illinois,McHenry,2021-01-06 00:51:19.615925,2021-01-04 00:00:00.000000,2.43174543,4.21384019,7.44351791,7484,12969,22909,4777,7659,16889,1.55213970,2.48862694,5.48756034,0.21959251,0.38109214,0.74905938
17111,0,USIllinoisMcHenry,Illinois,McHenry,2021-01-06 00:51:19.615925,2021-01-05 00:00:00.000000,2.41446217,4.20865160,7.50658295,7431,12953,23103,4797,7759,16829,1.55879748,2.52125736,5.46826056,0.21837446,0.37453260,0.74905815
17111,0,USIllinoisMcHenry,Illinois,McHenry,2021-01-06 00:51:19.615925,2021-01-06 00:00:00.000000,2.39413082,4.20493648,7.75531277,7368,12941,23868,4783,7828,16718,1.55410270,2.54370065,5.43199288,0.21831840,0.37419460,0.77045944
17111,0,USIllinoisMcHenry,Illinois,McHenry,2021-01-06 00:51:19.615925,2021-01-07 00:00:00.000000,2.37140627,4.22443353,7.92463691,7298,13001,24389,4712,7846,16497,1.53107947,2.54931813,5.36016769,0.21831302,0.37454664,0.78755999
17111,0,USIllinoisMcHenry,Illinois,McHenry,2021-01-06 00:51:19.615925,2021-01-08 00:00:00.000000,2.31797140,4.25303380,7.83863571,7134,13089,24125,4552,7905,16512,1.47912689,2.56856257,5.36521946,0.21831178,0.37468088,0.79187146
17111,0,USIllinoisMcHenry,Illinois,McHenry,2021-01-06 00:51:19.615925,2021-01-09 00:00:00.000000,2.26419503,4.24464511,7.74253134,6968,13063,23829,4399,7959,16371,1.42939003,2.58630063,5.31944806,0.21831141,0.37473112,0.79287057
17111,0,USIllinoisMcHenry,Illinois,McHenry,2021-01-06 00:51:19.615925,2021-01-10 00:00:00.000000,2.25359040,4.20124646,7.63691507,6935,12930,23504,4250,7935,16208,1.38102468,2.57844691,5.26638188,0.21831130,0.37474980,0.79309748
17111,0,USIllinoisMcHenry,Illinois,McHenry,2021-01-06 00:51:19.615925,2021-01-11 00:00:00.000000,2.19947398,4.18260263,7.52241053,6769,12872,23152,4105,7907,16023,1.33406563,2.56925577,5.20639444,0.21831126,0.37475673,0.79314878
17111,0,USIllinoisMcHenry,Illinois,McHenry,2021-01-06 00:51:19.615925,2021-01-12 00:00:00.000000,2.12462616,4.15528900,7.39966704,6539,12788,22774,4074,7800,15819,1.32394014,2.53458460,5.13987364,0.21831125,0.37475929,0.79316036
17111,0,USIllinoisMcHenry,Illinois,McHenry,2021-01-06 00:51:19.615925,2021-01-13 00:00:00.000000,2.05188196,4.11555840,7.52186284,6315,12666,23150,4054,7823,15595,1.31742682,2.54202366,5.06722340,0.21831124,0.37476024,0.79316298
17111,0,USIllinoisMcHenry,Illinois,McHenry,2021-01-06 00:51:19.615925,2021-01-14 00:00:00.000000,1.98126223,4.07134720,7.77893650,6097,12530,23941,3978,7815,15354,1.29272655,2.53948269,4.98886283,0.21831124,0.37476060,0.79316357
17111,0,USIllinoisMcHenry,Illinois,McHenry,2021-01-06 00:51:19.615925,2021-01-15 00:00:00.000000,1.91276508,4.01835807,8.03407963,5886,12367,24726,3844,7770,15097,1.24897507,2.52458123,4.90522390,0.21831124,0.37476073,0.79316370
17111,0,USIllinoisMcHenry,Illinois,McHenry,2021-01-06 00:51:19.615925,2021-01-16 00:00:00.000000,1.84637269,3.95563494,8.28621949,5682,12174,25502,3713,7628,14824,1.20640633,2.47868132,4.81674840,0.21831124,0.37476077,0.79316373
17111,0,USIllinoisMcHenry,Illinois,McHenry,2021-01-06 00:51:19.615925,2021-01-17 00:00:00.000000,1.78205610,3.91722324,8.53424217,5484,12056,26266,3585,7565,14961,1.16504219,2.45803212,4.86112264,0.21831124,0.37476079,0.79316374
