FIPS,HR_UID,nameid,province,region,analysisTime,dates,pointprevalence_025,pointprevalence_50,pointprevalence_975,pointinfections_025,pointinfections_50,pointinfections_975,pointinfectious_025,pointinfectious_50,pointinfectious_975,pointinfectiousprevalence_05,pointinfectiousprevalence_50,pointinfectiousprevalence_95,infectrate_025,infectrate_50,infectrate_975
48073,0,USTexasCherokee,Texas,Cherokee,2021-01-05 09:22:46.711403,2020-03-09 00:00:00.000000,0.00095690,0.00491007,0.02310349,0,2,12,0,1,6,0.00051767,0.00268406,0.01274452,0.36672487,0.48889494,0.64007050
48073,0,USTexasCherokee,Texas,Cherokee,2021-01-05 09:22:46.711403,2020-03-10 00:00:00.000000,0.00104546,0.00535385,0.02506233,0,2,13,0,1,6,0.00055022,0.00294674,0.01287300,0.36661830,0.48888979,0.64007024
48073,0,USTexasCherokee,Texas,Cherokee,2021-01-05 09:22:46.711403,2020-03-11 00:00:00.000000,0.00114315,0.00580604,0.02621791,0,3,13,0,1,7,0.00060673,0.00327678,0.01492845,0.36639596,0.48887638,0.64006966
48073,0,USTexasCherokee,Texas,Cherokee,2021-01-05 09:22:46.711403,2020-03-12 00:00:00.000000,0.00124465,0.00631932,0.02749988,0,3,14,0,1,8,0.00067947,0.00361919,0.01653638,0.36593357,0.48884153,0.64006814
48073,0,USTexasCherokee,Texas,Cherokee,2021-01-05 09:22:46.711403,2020-03-13 00:00:00.000000,0.00136769,0.00687247,0.02887652,0,3,15,0,2,9,0.00075305,0.00395015,0.01761946,0.36497824,0.48875094,0.64006304
48073,0,USTexasCherokee,Texas,Cherokee,2021-01-05 09:22:46.711403,2020-03-14 00:00:00.000000,0.00150491,0.00746912,0.03034348,0,3,15,0,2,9,0.00082677,0.00433557,0.01873322,0.36303116,0.48851584,0.64004107
48073,0,USTexasCherokee,Texas,Cherokee,2021-01-05 09:22:46.711403,2020-03-15 00:00:00.000000,0.00163236,0.00811350,0.03186409,0,4,16,0,2,10,0.00090114,0.00475629,0.01974537,0.35910360,0.48448437,0.63993001
48073,0,USTexasCherokee,Texas,Cherokee,2021-01-05 09:22:46.711403,2020-03-16 00:00:00.000000,0.00308261,0.01079048,0.03625526,1,5,19,0,2,10,0.00097307,0.00517739,0.02063421,0.34105919,0.47967137,0.63932721
48073,0,USTexasCherokee,Texas,Cherokee,2021-01-05 09:22:46.711403,2020-03-17 00:00:00.000000,0.00450862,0.01330026,0.04053063,2,7,21,0,3,11,0.00179897,0.00620502,0.02265683,0.33242436,0.47159459,0.63481641
48073,0,USTexasCherokee,Texas,Cherokee,2021-01-05 09:22:46.711403,2020-03-18 00:00:00.000000,0.00582066,0.01577528,0.04474038,3,8,23,1,3,13,0.00243645,0.00755537,0.02519702,0.32044531,0.45673497,0.61104886
48073,0,USTexasCherokee,Texas,Cherokee,2021-01-05 09:22:46.711403,2020-03-19 00:00:00.000000,0.00743835,0.01827681,0.04870221,3,9,25,1,4,14,0.00333397,0.00894624,0.02801460,0.29787822,0.44335512,0.59427996
48073,0,USTexasCherokee,Texas,Cherokee,2021-01-05 09:22:46.711403,2020-03-20 00:00:00.000000,0.00912548,0.02118877,0.05235556,4,11,27,2,5,16,0.00403337,0.01058191,0.03101767,0.27984161,0.42933305,0.56664857
48073,0,USTexasCherokee,Texas,Cherokee,2021-01-05 09:22:46.711403,2020-03-21 00:00:00.000000,0.01082866,0.02402049,0.05574627,5,12,29,2,6,17,0.00511242,0.01242812,0.03417357,0.24859230,0.41520001,0.54349716
48073,0,USTexasCherokee,Texas,Cherokee,2021-01-05 09:22:46.711403,2020-03-22 00:00:00.000000,0.01244146,0.02669405,0.06198784,6,14,32,3,7,19,0.00626972,0.01468839,0.03749576,0.24506457,0.39558088,0.53016734
48073,0,USTexasCherokee,Texas,Cherokee,2021-01-05 09:22:46.711403,2020-03-23 00:00:00.000000,0.01484987,0.03092992,0.06509032,7,16,34,3,8,21,0.00748328,0.01678731,0.04100309,0.24351492,0.37566474,0.48694116
48073,0,USTexasCherokee,Texas,Cherokee,2021-01-05 09:22:46.711403,2020-03-24 00:00:00.000000,0.01641745,0.03452227,0.07124864,8,18,37,4,9,23,0.00870772,0.01851272,0.04512570,0.23834229,0.34763509,0.47580612
48073,0,USTexasCherokee,Texas,Cherokee,2021-01-05 09:22:46.711403,2020-03-25 00:00:00.000000,0.01830910,0.03880704,0.07904628,9,20,41,5,11,24,0.00999581,0.02110445,0.04710419,0.23139935,0.32660051,0.46003779
48073,0,USTexasCherokee,Texas,Cherokee,2021-01-05 09:22:46.711403,2020-03-26 00:00:00.000000,0.02012654,0.04185574,0.08702620,10,22,45,5,12,25,0.01115440,0.02344247,0.04871603,0.20740489,0.30343859,0.43162000
48073,0,USTexasCherokee,Texas,Cherokee,2021-01-05 09:22:46.711403,2020-03-27 00:00:00.000000,0.02094573,0.04369171,0.09495037,11,23,49,6,13,27,0.01218885,0.02520697,0.05251740,0.19592803,0.28321376,0.41330120
48073,0,USTexasCherokee,Texas,Cherokee,2021-01-05 09:22:46.711403,2020-03-28 00:00:00.000000,0.02170186,0.04630397,0.10236135,11,24,53,6,14,30,0.01289029,0.02695627,0.05753745,0.17948227,0.26586587,0.39163274
48073,0,USTexasCherokee,Texas,Cherokee,2021-01-05 09:22:46.711403,2020-03-29 00:00:00.000000,0.02292508,0.04872342,0.10905182,12,25,57,7,15,32,0.01363601,0.02980167,0.06243142,0.17169784,0.26048725,0.38605242
48073,0,USTexasCherokee,Texas,Cherokee,2021-01-05 09:22:46.711403,2020-03-30 00:00:00.000000,0.02447494,0.05039066,0.10650108,12,26,56,7,16,35,0.01435294,0.03180724,0.06681767,0.16809566,0.25275892,0.37570427
48073,0,USTexasCherokee,Texas,Cherokee,2021-01-05 09:22:46.711403,2020-03-31 00:00:00.000000,0.02680219,0.05282035,0.10652762,14,27,56,8,16,36,0.01536837,0.03201875,0.06991469,0.16545110,0.24669739,0.36863272
48073,0,USTexasCherokee,Texas,Cherokee,2021-01-05 09:22:46.711403,2020-04-01 00:00:00.000000,0.02946894,0.05511654,0.10759170,15,29,56,8,17,36,0.01666134,0.03285096,0.06947969,0.16231992,0.24131937,0.36130622
48073,0,USTexasCherokee,Texas,Cherokee,2021-01-05 09:22:46.711403,2020-04-02 00:00:00.000000,0.03089073,0.05611293,0.10974040,16,29,57,9,18,37,0.01807249,0.03450104,0.07098027,0.15829249,0.23390755,0.36127500
48073,0,USTexasCherokee,Texas,Cherokee,2021-01-05 09:22:46.711403,2020-04-03 00:00:00.000000,0.03291946,0.05776296,0.11424197,17,30,60,10,18,37,0.01942600,0.03552830,0.07193560,0.15056506,0.22689089,0.36051423
48073,0,USTexasCherokee,Texas,Cherokee,2021-01-05 09:22:46.711403,2020-04-04 00:00:00.000000,0.03407332,0.05943973,0.11681462,17,31,61,10,19,38,0.02077198,0.03753267,0.07354088,0.14593984,0.22071927,0.35783928
48073,0,USTexasCherokee,Texas,Cherokee,2021-01-05 09:22:46.711403,2020-04-05 00:00:00.000000,0.03454043,0.06090407,0.11712538,18,32,61,11,20,39,0.02176275,0.03885346,0.07518071,0.14405236,0.20777571,0.35004902
48073,0,USTexasCherokee,Texas,Cherokee,2021-01-05 09:22:46.711403,2020-04-06 00:00:00.000000,0.03638519,0.06446151,0.11927261,19,33,62,11,21,40,0.02211201,0.04013581,0.07692958,0.14459542,0.19569534,0.33102349
48073,0,USTexasCherokee,Texas,Cherokee,2021-01-05 09:22:46.711403,2020-04-07 00:00:00.000000,0.03932303,0.06541460,0.12005330,20,34,63,12,21,41,0.02354244,0.04170889,0.07798696,0.14278880,0.19027594,0.30168353
48073,0,USTexasCherokee,Texas,Cherokee,2021-01-05 09:22:46.711403,2020-04-08 00:00:00.000000,0.03877530,0.06675105,0.12128603,20,35,63,12,22,41,0.02387771,0.04219403,0.07798763,0.13885319,0.18787160,0.28367692
48073,0,USTexasCherokee,Texas,Cherokee,2021-01-05 09:22:46.711403,2020-04-09 00:00:00.000000,0.03820191,0.06870325,0.12023335,20,36,63,13,22,41,0.02515571,0.04279828,0.07843176,0.13678598,0.18667083,0.28183476
48073,0,USTexasCherokee,Texas,Cherokee,2021-01-05 09:22:46.711403,2020-04-10 00:00:00.000000,0.03765497,0.06880096,0.11992541,19,36,63,13,22,41,0.02482199,0.04302720,0.07884601,0.12990704,0.18224003,0.26285191
48073,0,USTexasCherokee,Texas,Cherokee,2021-01-05 09:22:46.711403,2020-04-11 00:00:00.000000,0.03717762,0.06967296,0.12139018,19,36,63,12,23,41,0.02448271,0.04420681,0.07965738,0.12679160,0.18136264,0.27935353
48073,0,USTexasCherokee,Texas,Cherokee,2021-01-05 09:22:46.711403,2020-04-12 00:00:00.000000,0.03682153,0.06884307,0.12507708,19,36,65,12,23,42,0.02417118,0.04475293,0.08021142,0.12617005,0.17457828,0.27147814
48073,0,USTexasCherokee,Texas,Cherokee,2021-01-05 09:22:46.711403,2020-04-13 00:00:00.000000,0.03620186,0.07011649,0.12938004,19,36,68,12,23,42,0.02392005,0.04389799,0.08065908,0.12453072,0.16889048,0.27350607
48073,0,USTexasCherokee,Texas,Cherokee,2021-01-05 09:22:46.711403,2020-04-14 00:00:00.000000,0.03576329,0.07103316,0.13380374,18,37,70,12,23,42,0.02356812,0.04437883,0.08026438,0.12291505,0.16260331,0.26726237
48073,0,USTexasCherokee,Texas,Cherokee,2021-01-05 09:22:46.711403,2020-04-15 00:00:00.000000,0.03547059,0.07093396,0.13794862,18,37,72,12,23,42,0.02324336,0.04455979,0.08147168,0.11846912,0.16016997,0.26270797
48073,0,USTexasCherokee,Texas,Cherokee,2021-01-05 09:22:46.711403,2020-04-16 00:00:00.000000,0.03554823,0.06887351,0.14196637,18,36,74,12,23,44,0.02300923,0.04551977,0.08520425,0.11361606,0.15875632,0.24535372
48073,0,USTexasCherokee,Texas,Cherokee,2021-01-05 09:22:46.711403,2020-04-17 00:00:00.000000,0.03668728,0.06856265,0.14588968,19,36,76,12,23,46,0.02286462,0.04520725,0.08890497,0.11173783,0.15778953,0.23575900
48073,0,USTexasCherokee,Texas,Cherokee,2021-01-05 09:22:46.711403,2020-04-18 00:00:00.000000,0.03517064,0.06797752,0.14966104,18,35,78,11,23,48,0.02279117,0.04500216,0.09248566,0.10403657,0.15487495,0.22981467
48073,0,USTexasCherokee,Texas,Cherokee,2021-01-05 09:22:46.711403,2020-04-19 00:00:00.000000,0.03415579,0.06679099,0.15326116,17,35,80,11,23,50,0.02230926,0.04379216,0.09581690,0.10273278,0.15433987,0.22488625
48073,0,USTexasCherokee,Texas,Cherokee,2021-01-05 09:22:46.711403,2020-04-20 00:00:00.000000,0.03361361,0.06739843,0.15699263,17,35,82,11,22,51,0.02148295,0.04303963,0.09872265,0.09694928,0.15285398,0.22108865
48073,0,USTexasCherokee,Texas,Cherokee,2021-01-05 09:22:46.711403,2020-04-21 00:00:00.000000,0.03374593,0.06871318,0.15967213,17,36,84,11,22,52,0.02102857,0.04316140,0.10029542,0.09619638,0.15006867,0.21793380
48073,0,USTexasCherokee,Texas,Cherokee,2021-01-05 09:22:46.711403,2020-04-22 00:00:00.000000,0.03442519,0.06896286,0.16142365,18,36,84,11,23,53,0.02158169,0.04396015,0.10090470,0.09569269,0.14755847,0.21812441
48073,0,USTexasCherokee,Texas,Cherokee,2021-01-05 09:22:46.711403,2020-04-23 00:00:00.000000,0.03366198,0.06835977,0.16254735,17,35,85,11,23,53,0.02177134,0.04435284,0.10089631,0.09484126,0.14248449,0.21754573
48073,0,USTexasCherokee,Texas,Cherokee,2021-01-05 09:22:46.711403,2020-04-24 00:00:00.000000,0.03390665,0.06689880,0.16324453,17,35,85,11,23,52,0.02108297,0.04377918,0.10057827,0.09331243,0.14085573,0.21432598
48073,0,USTexasCherokee,Texas,Cherokee,2021-01-05 09:22:46.711403,2020-04-25 00:00:00.000000,0.03248806,0.06651268,0.16367390,17,35,86,11,23,53,0.02100909,0.04412816,0.10141635,0.08990579,0.14174441,0.21291090
48073,0,USTexasCherokee,Texas,Cherokee,2021-01-05 09:22:46.711403,2020-04-26 00:00:00.000000,0.03224594,0.06705184,0.16395408,16,35,86,10,23,55,0.01991563,0.04423022,0.10550080,0.08647615,0.14140302,0.21183536
48073,0,USTexasCherokee,Texas,Cherokee,2021-01-05 09:22:46.711403,2020-04-27 00:00:00.000000,0.03204780,0.06643578,0.16157744,16,34,85,10,23,57,0.01978238,0.04387980,0.10961154,0.08612256,0.14001507,0.20972479
48073,0,USTexasCherokee,Texas,Cherokee,2021-01-05 09:22:46.711403,2020-04-28 00:00:00.000000,0.03141695,0.06567417,0.15788351,16,34,83,10,22,57,0.01932632,0.04367802,0.11012328,0.08570361,0.13870604,0.20701140
48073,0,USTexasCherokee,Texas,Cherokee,2021-01-05 09:22:46.711403,2020-04-29 00:00:00.000000,0.03190477,0.06551666,0.15359168,16,34,80,9,22,57,0.01891313,0.04335601,0.10939278,0.08596377,0.14036427,0.20478519
48073,0,USTexasCherokee,Texas,Cherokee,2021-01-05 09:22:46.711403,2020-04-30 00:00:00.000000,0.03225401,0.06553516,0.15014486,16,34,79,9,22,56,0.01855949,0.04283729,0.10823505,0.08714920,0.14192106,0.20521423
48073,0,USTexasCherokee,Texas,Cherokee,2021-01-05 09:22:46.711403,2020-05-01 00:00:00.000000,0.03126609,0.06490091,0.14732913,16,34,77,10,22,56,0.01903718,0.04258484,0.10688067,0.09044563,0.14333637,0.20350403
48073,0,USTexasCherokee,Texas,Cherokee,2021-01-05 09:22:46.711403,2020-05-02 00:00:00.000000,0.03040490,0.06444070,0.14979418,16,33,78,10,22,55,0.01960527,0.04204363,0.10508151,0.09667612,0.14409621,0.21042485
48073,0,USTexasCherokee,Texas,Cherokee,2021-01-05 09:22:46.711403,2020-05-03 00:00:00.000000,0.02918305,0.06281849,0.14773310,15,33,77,10,21,53,0.01933076,0.04173731,0.10240544,0.09676424,0.14408280,0.22194715
48073,0,USTexasCherokee,Texas,Cherokee,2021-01-05 09:22:46.711403,2020-05-04 00:00:00.000000,0.02988034,0.06354956,0.14741243,15,33,77,9,21,54,0.01848496,0.04121903,0.10431498,0.09180392,0.14604311,0.22384396
48073,0,USTexasCherokee,Texas,Cherokee,2021-01-05 09:22:46.711403,2020-05-05 00:00:00.000000,0.03070087,0.06496239,0.14713941,16,34,77,9,21,54,0.01846687,0.04167371,0.10354914,0.09007667,0.14627755,0.22645500
48073,0,USTexasCherokee,Texas,Cherokee,2021-01-05 09:22:46.711403,2020-05-06 00:00:00.000000,0.03139275,0.06470904,0.14825737,16,34,78,9,22,54,0.01887309,0.04226683,0.10316624,0.09105356,0.14677424,0.22709800
48073,0,USTexasCherokee,Texas,Cherokee,2021-01-05 09:22:46.711403,2020-05-07 00:00:00.000000,0.03265143,0.06459343,0.15047586,17,34,79,10,22,54,0.01997608,0.04259638,0.10297750,0.09719483,0.14665114,0.23225998
48073,0,USTexasCherokee,Texas,Cherokee,2021-01-05 09:22:46.711403,2020-05-08 00:00:00.000000,0.03310485,0.06390787,0.14939648,17,33,78,10,22,54,0.02003282,0.04252429,0.10284437,0.09790073,0.14429787,0.24235426
48073,0,USTexasCherokee,Texas,Cherokee,2021-01-05 09:22:46.711403,2020-05-09 00:00:00.000000,0.03270675,0.06280977,0.14807559,17,33,77,10,22,54,0.02054924,0.04180921,0.10271045,0.09965094,0.14524855,0.24267422
48073,0,USTexasCherokee,Texas,Cherokee,2021-01-05 09:22:46.711403,2020-05-10 00:00:00.000000,0.03179495,0.06340694,0.14658152,16,33,77,10,21,53,0.02000665,0.04111046,0.10254932,0.10188422,0.14603998,0.24803489
48073,0,USTexasCherokee,Texas,Cherokee,2021-01-05 09:22:46.711403,2020-05-11 00:00:00.000000,0.03095347,0.06299271,0.14446926,16,33,76,10,21,53,0.01910276,0.04089003,0.10188952,0.10264013,0.14646380,0.25159172
48073,0,USTexasCherokee,Texas,Cherokee,2021-01-05 09:22:46.711403,2020-05-12 00:00:00.000000,0.03136891,0.06399051,0.14239097,16,33,74,9,21,53,0.01811521,0.04086885,0.10075643,0.10170924,0.14787160,0.25425579
48073,0,USTexasCherokee,Texas,Cherokee,2021-01-05 09:22:46.711403,2020-05-13 00:00:00.000000,0.03287630,0.06528466,0.14027232,17,34,73,9,22,52,0.01821648,0.04186683,0.09935337,0.10300022,0.14908240,0.25573967
48073,0,USTexasCherokee,Texas,Cherokee,2021-01-05 09:22:46.711403,2020-05-14 00:00:00.000000,0.03113423,0.06550449,0.13825612,16,34,72,10,22,51,0.01907849,0.04290135,0.09732315,0.10467142,0.15136376,0.25487072
48073,0,USTexasCherokee,Texas,Cherokee,2021-01-05 09:22:46.711403,2020-05-15 00:00:00.000000,0.02954650,0.06423867,0.14041556,15,33,73,10,22,50,0.01965514,0.04288588,0.09504716,0.10704684,0.15477390,0.24980003
48073,0,USTexasCherokee,Texas,Cherokee,2021-01-05 09:22:46.711403,2020-05-16 00:00:00.000000,0.02816252,0.06557423,0.14171045,14,34,74,9,22,48,0.01866214,0.04226492,0.09260392,0.11035744,0.15902023,0.24401073
48073,0,USTexasCherokee,Texas,Cherokee,2021-01-05 09:22:46.711403,2020-05-17 00:00:00.000000,0.02699117,0.06519602,0.13876972,14,34,73,9,22,47,0.01779574,0.04247780,0.09010506,0.11348620,0.16051043,0.24412864
48073,0,USTexasCherokee,Texas,Cherokee,2021-01-05 09:22:46.711403,2020-05-18 00:00:00.000000,0.02931158,0.06553903,0.13723995,15,34,72,8,22,49,0.01706226,0.04302020,0.09333600,0.11346723,0.16522502,0.24605370
48073,0,USTexasCherokee,Texas,Cherokee,2021-01-05 09:22:46.711403,2020-05-19 00:00:00.000000,0.03175955,0.06587477,0.13620160,16,34,71,9,23,48,0.01837485,0.04375235,0.09168754,0.11349724,0.16892202,0.24655824
48073,0,USTexasCherokee,Texas,Cherokee,2021-01-05 09:22:46.711403,2020-05-20 00:00:00.000000,0.03395422,0.06733398,0.13571023,17,35,71,10,22,46,0.02014166,0.04366008,0.08924861,0.11352487,0.16907663,0.25149065
48073,0,USTexasCherokee,Texas,Cherokee,2021-01-05 09:22:46.711403,2020-05-21 00:00:00.000000,0.03526818,0.06819041,0.13577073,18,35,71,11,22,45,0.02192104,0.04343093,0.08656281,0.11356864,0.17230463,0.25768536
48073,0,USTexasCherokee,Texas,Cherokee,2021-01-05 09:22:46.711403,2020-05-22 00:00:00.000000,0.03542033,0.06694532,0.13646897,18,35,71,11,22,44,0.02145216,0.04356714,0.08385905,0.11374747,0.17775812,0.26984408
48073,0,USTexasCherokee,Texas,Cherokee,2021-01-05 09:22:46.711403,2020-05-23 00:00:00.000000,0.03563019,0.06722168,0.13796251,18,35,72,11,22,43,0.02134498,0.04357319,0.08291920,0.11499841,0.18341704,0.26990826
48073,0,USTexasCherokee,Texas,Cherokee,2021-01-05 09:22:46.711403,2020-05-24 00:00:00.000000,0.03588859,0.06772940,0.13657321,18,35,71,12,22,45,0.02298676,0.04345443,0.08631383,0.12078315,0.19108222,0.27109104
48073,0,USTexasCherokee,Texas,Cherokee,2021-01-05 09:22:46.711403,2020-05-25 00:00:00.000000,0.03725481,0.07003211,0.13847158,19,36,72,12,22,47,0.02361036,0.04326071,0.09050815,0.12669365,0.19462333,0.28493329
48073,0,USTexasCherokee,Texas,Cherokee,2021-01-05 09:22:46.711403,2020-05-26 00:00:00.000000,0.03760952,0.07373071,0.14248560,19,38,75,12,23,47,0.02330161,0.04400528,0.09045069,0.12810032,0.19675017,0.29262855
48073,0,USTexasCherokee,Texas,Cherokee,2021-01-05 09:22:46.711403,2020-05-27 00:00:00.000000,0.04051868,0.07486491,0.14645056,21,39,77,12,24,48,0.02400145,0.04674845,0.09144421,0.12861930,0.19963971,0.30668324
48073,0,USTexasCherokee,Texas,Cherokee,2021-01-05 09:22:46.711403,2020-05-28 00:00:00.000000,0.04101050,0.07711234,0.15044397,21,40,79,12,25,50,0.02434204,0.04818566,0.09522454,0.12935243,0.20785645,0.31321619
48073,0,USTexasCherokee,Texas,Cherokee,2021-01-05 09:22:46.711403,2020-05-29 00:00:00.000000,0.03975321,0.08184895,0.16790898,20,43,88,12,26,50,0.02446319,0.04955017,0.09649389,0.13045596,0.21433239,0.31542900
48073,0,USTexasCherokee,Texas,Cherokee,2021-01-05 09:22:46.711403,2020-05-30 00:00:00.000000,0.03859875,0.08246039,0.18719459,20,43,98,12,28,53,0.02460982,0.05403104,0.10077139,0.13181670,0.22308955,0.31696669
48073,0,USTexasCherokee,Texas,Cherokee,2021-01-05 09:22:46.711403,2020-05-31 00:00:00.000000,0.03757761,0.08337390,0.20632928,19,43,108,12,28,59,0.02443739,0.05455706,0.11209944,0.13521130,0.23013085,0.32825298
48073,0,USTexasCherokee,Texas,Cherokee,2021-01-05 09:22:46.711403,2020-06-01 00:00:00.000000,0.03943749,0.08528585,0.20794684,20,44,109,12,28,65,0.02379538,0.05471768,0.12347580,0.14150308,0.24038439,0.34194210
48073,0,USTexasCherokee,Texas,Cherokee,2021-01-05 09:22:46.711403,2020-06-02 00:00:00.000000,0.04169653,0.08995014,0.20811405,21,47,109,12,28,68,0.02465342,0.05492895,0.12997739,0.14523653,0.25146574,0.34853713
48073,0,USTexasCherokee,Texas,Cherokee,2021-01-05 09:22:46.711403,2020-06-03 00:00:00.000000,0.04149211,0.09296665,0.20822644,21,48,109,13,30,70,0.02582015,0.05822058,0.13421288,0.15083484,0.25712531,0.34862585
48073,0,USTexasCherokee,Texas,Cherokee,2021-01-05 09:22:46.711403,2020-06-04 00:00:00.000000,0.04156702,0.09590425,0.20835028,21,50,109,13,31,72,0.02615966,0.05988849,0.13735611,0.15343895,0.26353812,0.35825628
48073,0,USTexasCherokee,Texas,Cherokee,2021-01-05 09:22:46.711403,2020-06-05 00:00:00.000000,0.04348943,0.10111444,0.21122893,22,53,111,13,32,73,0.02594925,0.06122385,0.14006175,0.15499632,0.27276358,0.37639323
48073,0,USTexasCherokee,Texas,Cherokee,2021-01-05 09:22:46.711403,2020-06-06 00:00:00.000000,0.04512555,0.10378842,0.22416146,23,54,118,13,33,75,0.02648753,0.06312068,0.14279133,0.15669480,0.29559820,0.39218779
48073,0,USTexasCherokee,Texas,Cherokee,2021-01-05 09:22:46.711403,2020-06-07 00:00:00.000000,0.04521037,0.10952245,0.23781934,23,57,125,14,34,76,0.02783702,0.06485827,0.14590051,0.16568057,0.30811183,0.41628941
48073,0,USTexasCherokee,Texas,Cherokee,2021-01-05 09:22:46.711403,2020-06-08 00:00:00.000000,0.04773451,0.11878193,0.25303763,25,62,133,15,35,80,0.02944332,0.06743215,0.15309518,0.16633841,0.31380184,0.42647917
48073,0,USTexasCherokee,Texas,Cherokee,2021-01-05 09:22:46.711403,2020-06-09 00:00:00.000000,0.05719332,0.12604829,0.27106130,30,66,142,16,37,84,0.03103899,0.07147796,0.16069304,0.16643412,0.33211532,0.46580967
48073,0,USTexasCherokee,Texas,Cherokee,2021-01-05 09:22:46.711403,2020-06-10 00:00:00.000000,0.06244342,0.13492244,0.28860072,32,71,151,16,40,88,0.03195029,0.07698453,0.16820321,0.16648214,0.33682416,0.47204328
48073,0,USTexasCherokee,Texas,Cherokee,2021-01-05 09:22:46.711403,2020-06-11 00:00:00.000000,0.06586506,0.14484729,0.30196799,34,76,158,18,43,92,0.03485522,0.08305646,0.17641552,0.16683624,0.34385489,0.49523503
48073,0,USTexasCherokee,Texas,Cherokee,2021-01-05 09:22:46.711403,2020-06-12 00:00:00.000000,0.06933080,0.15470292,0.31045116,36,81,163,19,47,97,0.03685605,0.08981453,0.18569784,0.17298974,0.35682690,0.49805974
48073,0,USTexasCherokee,Texas,Cherokee,2021-01-05 09:22:46.711403,2020-06-13 00:00:00.000000,0.07334695,0.16330922,0.32377441,38,85,170,20,49,103,0.03907400,0.09491796,0.19703206,0.18913577,0.37528017,0.51016446
48073,0,USTexasCherokee,Texas,Cherokee,2021-01-05 09:22:46.711403,2020-06-14 00:00:00.000000,0.07794992,0.17526655,0.34602419,41,92,182,21,53,110,0.04166307,0.10122697,0.21043400,0.21060322,0.39327329,0.53223114
48073,0,USTexasCherokee,Texas,Cherokee,2021-01-05 09:22:46.711403,2020-06-15 00:00:00.000000,0.08408439,0.18977532,0.37363788,44,99,196,23,57,118,0.04473724,0.10872203,0.22453402,0.21199801,0.41440611,0.54895059
48073,0,USTexasCherokee,Texas,Cherokee,2021-01-05 09:22:46.711403,2020-06-16 00:00:00.000000,0.09512663,0.19872633,0.40340311,50,104,212,26,62,125,0.04993815,0.11847907,0.23843006,0.24521041,0.41909373,0.57127867
48073,0,USTexasCherokee,Texas,Cherokee,2021-01-05 09:22:46.711403,2020-06-17 00:00:00.000000,0.11104055,0.21765948,0.43570650,58,114,229,29,67,132,0.05632185,0.12746109,0.25234569,0.25323343,0.43287021,0.58240425
48073,0,USTexasCherokee,Texas,Cherokee,2021-01-05 09:22:46.711403,2020-06-18 00:00:00.000000,0.12819943,0.23648544,0.47073199,67,124,247,33,71,140,0.06391291,0.13562907,0.26773757,0.26468247,0.44816775,0.61247414
48073,0,USTexasCherokee,Texas,Cherokee,2021-01-05 09:22:46.711403,2020-06-19 00:00:00.000000,0.14379846,0.25659262,0.50824781,75,135,267,39,77,150,0.07580781,0.14680701,0.28650453,0.30136179,0.46419046,0.68447964
48073,0,USTexasCherokee,Texas,Cherokee,2021-01-05 09:22:46.711403,2020-06-20 00:00:00.000000,0.15613133,0.28496002,0.54839515,82,150,288,44,83,167,0.08433006,0.15793039,0.31854856,0.32981914,0.48040711,0.69340123
48073,0,USTexasCherokee,Texas,Cherokee,2021-01-05 09:22:46.711403,2020-06-21 00:00:00.000000,0.17103353,0.31039780,0.59126321,90,163,311,48,90,186,0.09159861,0.17225231,0.35363464,0.34355770,0.50850038,0.69361231
48073,0,USTexasCherokee,Texas,Cherokee,2021-01-05 09:22:46.711403,2020-06-22 00:00:00.000000,0.19921542,0.34398763,0.64818387,104,181,341,54,100,205,0.10330677,0.19106322,0.39085570,0.34578788,0.52299618,0.69237432
48073,0,USTexasCherokee,Texas,Cherokee,2021-01-05 09:22:46.711403,2020-06-23 00:00:00.000000,0.23002922,0.38295916,0.71423584,121,201,376,61,110,223,0.11766456,0.21045088,0.42471815,0.34672326,0.53211827,0.68794843
48073,0,USTexasCherokee,Texas,Cherokee,2021-01-05 09:22:46.711403,2020-06-24 00:00:00.000000,0.25712909,0.42320054,0.78700429,135,222,414,70,123,240,0.13348209,0.23375556,0.45777065,0.36201033,0.55412588,0.67734326
48073,0,USTexasCherokee,Texas,Cherokee,2021-01-05 09:22:46.711403,2020-06-25 00:00:00.000000,0.28390179,0.47097400,0.86430927,149,247,455,79,137,259,0.15115420,0.26065013,0.49249901,0.39992968,0.56837357,0.68234695
48073,0,USTexasCherokee,Texas,Cherokee,2021-01-05 09:22:46.711403,2020-06-26 00:00:00.000000,0.31397719,0.52108644,0.94565337,165,274,497,89,150,278,0.17091718,0.28661559,0.52976539,0.42219041,0.57053453,0.67534053
48073,0,USTexasCherokee,Texas,Cherokee,2021-01-05 09:22:46.711403,2020-06-27 00:00:00.000000,0.34951557,0.57664587,1.03342091,184,303,544,101,164,299,0.19308819,0.31161742,0.56949546,0.42359126,0.56786344,0.70389374
48073,0,USTexasCherokee,Texas,Cherokee,2021-01-05 09:22:46.711403,2020-06-28 00:00:00.000000,0.39112946,0.64737323,1.12891523,205,340,594,114,181,322,0.21757447,0.34401879,0.61308405,0.42465469,0.56824261,0.71653695
48073,0,USTexasCherokee,Texas,Cherokee,2021-01-05 09:22:46.711403,2020-06-29 00:00:00.000000,0.42471487,0.72184858,1.23357685,223,380,649,124,200,354,0.23667069,0.38172879,0.67361353,0.42570081,0.56851001,0.71972889
48073,0,USTexasCherokee,Texas,Cherokee,2021-01-05 09:22:46.711403,2020-06-30 00:00:00.000000,0.46412939,0.78567444,1.34697566,244,413,709,134,224,390,0.25548446,0.42725652,0.74245104,0.42757558,0.56582587,0.71946587
48073,0,USTexasCherokee,Texas,Cherokee,2021-01-05 09:22:46.711403,2020-07-01 00:00:00.000000,0.49845133,0.86756077,1.46983016,262,456,773,144,252,427,0.27498073,0.47894625,0.81240200,0.42972711,0.55722771,0.72042677
48073,0,USTexasCherokee,Texas,Cherokee,2021-01-05 09:22:46.711403,2020-07-02 00:00:00.000000,0.53538215,0.95627904,1.60259178,281,503,843,155,278,466,0.29556772,0.52824998,0.88698730,0.42727447,0.54883900,0.72061392
48073,0,USTexasCherokee,Texas,Cherokee,2021-01-05 09:22:46.711403,2020-07-03 00:00:00.000000,0.57613334,1.04479186,1.74351629,303,550,917,167,310,509,0.31756964,0.59046514,0.96773364,0.41521188,0.54520892,0.71926846
48073,0,USTexasCherokee,Texas,Cherokee,2021-01-05 09:22:46.711403,2020-07-04 00:00:00.000000,0.62320960,1.12916949,1.88083427,328,594,990,182,345,555,0.34631694,0.65699319,1.05429773,0.40830000,0.54475706,0.71142174
48073,0,USTexasCherokee,Texas,Cherokee,2021-01-05 09:22:46.711403,2020-07-05 00:00:00.000000,0.67789021,1.22675372,2.00855675,356,645,1057,203,372,601,0.38597751,0.70720362,1.14289275,0.40691265,0.54420651,0.71291086
48073,0,USTexasCherokee,Texas,Cherokee,2021-01-05 09:22:46.711403,2020-07-06 00:00:00.000000,0.73575881,1.33362122,2.13592194,387,702,1124,227,406,647,0.43125079,0.77239883,1.22955195,0.41107057,0.53734049,0.73724363
48073,0,USTexasCherokee,Texas,Cherokee,2021-01-05 09:22:46.711403,2020-07-07 00:00:00.000000,0.77780349,1.47154902,2.26964091,409,774,1194,251,445,692,0.47814786,0.84553107,1.31495697,0.39667138,0.52358745,0.73361700
48073,0,USTexasCherokee,Texas,Cherokee,2021-01-05 09:22:46.711403,2020-07-08 00:00:00.000000,0.85525832,1.60709998,2.40864928,450,846,1268,267,484,737,0.50879285,0.92007001,1.40168089,0.39840689,0.51477314,0.72510657
48073,0,USTexasCherokee,Texas,Cherokee,2021-01-05 09:22:46.711403,2020-07-09 00:00:00.000000,0.94995076,1.73292046,2.54240663,500,912,1338,284,524,784,0.53953199,0.99543809,1.49083401,0.37388082,0.50770725,0.70995236
48073,0,USTexasCherokee,Texas,Cherokee,2021-01-05 09:22:46.711403,2020-07-10 00:00:00.000000,1.02316716,1.87927155,2.68316051,538,989,1412,302,564,831,0.57462483,1.07141294,1.57973735,0.37017330,0.49216771,0.69204955
48073,0,USTexasCherokee,Texas,Cherokee,2021-01-05 09:22:46.711403,2020-07-11 00:00:00.000000,1.11123100,2.03281887,2.85828910,585,1070,1504,335,607,874,0.63795360,1.15346787,1.66051109,0.37336917,0.48469514,0.70898612
48073,0,USTexasCherokee,Texas,Cherokee,2021-01-05 09:22:46.711403,2020-07-12 00:00:00.000000,1.20039022,2.15921466,3.04064454,631,1136,1600,357,652,929,0.67813630,1.23861436,1.76491184,0.37080806,0.47661627,0.66539197
48073,0,USTexasCherokee,Texas,Cherokee,2021-01-05 09:22:46.711403,2020-07-13 00:00:00.000000,1.29432937,2.30574567,3.23103259,681,1213,1701,388,693,993,0.73704799,1.31790181,1.88636758,0.36082225,0.47164999,0.64329003
48073,0,USTexasCherokee,Texas,Cherokee,2021-01-05 09:22:46.711403,2020-07-14 00:00:00.000000,1.37991995,2.45069071,3.43019946,726,1290,1805,429,752,1048,0.81644542,1.42888215,1.99114413,0.34943295,0.46335285,0.64971607
48073,0,USTexasCherokee,Texas,Cherokee,2021-01-05 09:22:46.711403,2020-07-15 00:00:00.000000,1.44036644,2.57279950,3.61012265,758,1354,1900,451,803,1107,0.85697304,1.52550543,2.10277601,0.34903044,0.46065487,0.63123506
48073,0,USTexasCherokee,Texas,Cherokee,2021-01-05 09:22:46.711403,2020-07-16 00:00:00.000000,1.50709164,2.69427093,3.85758852,793,1418,2030,470,852,1174,0.89454583,1.61848159,2.23106032,0.34960859,0.45169835,0.61227585
48073,0,USTexasCherokee,Texas,Cherokee,2021-01-05 09:22:46.711403,2020-07-17 00:00:00.000000,1.58515549,2.83551361,4.08991250,834,1492,2153,492,896,1246,0.93517754,1.70237490,2.36702869,0.34746034,0.44698083,0.59333108
48073,0,USTexasCherokee,Texas,Cherokee,2021-01-05 09:22:46.711403,2020-07-18 00:00:00.000000,1.68148279,3.00692209,4.35243954,885,1583,2291,516,941,1321,0.98127345,1.78776167,2.50936284,0.34646815,0.44262097,0.58835448
48073,0,USTexasCherokee,Texas,Cherokee,2021-01-05 09:22:46.711403,2020-07-19 00:00:00.000000,1.74478593,3.13786488,4.60491619,918,1651,2424,545,986,1449,1.03650984,1.87425990,2.75365142,0.34091063,0.43777758,0.57067721
48073,0,USTexasCherokee,Texas,Cherokee,2021-01-05 09:22:46.711403,2020-07-20 00:00:00.000000,1.79463342,3.24565877,4.81339316,944,1708,2534,580,1036,1502,1.10327603,1.96941847,2.85369924,0.33661932,0.43601735,0.55287902
48073,0,USTexasCherokee,Texas,Cherokee,2021-01-05 09:22:46.711403,2020-07-21 00:00:00.000000,1.86664252,3.36652558,5.07537119,982,1772,2671,606,1085,1561,1.15245082,2.06194503,2.96659487,0.33493205,0.42585048,0.55682926
48073,0,USTexasCherokee,Texas,Cherokee,2021-01-05 09:22:46.711403,2020-07-22 00:00:00.000000,1.97644799,3.51245476,5.34182351,1040,1849,2812,630,1133,1643,1.19700707,2.15370350,3.12169395,0.33229641,0.41904063,0.52582886
48073,0,USTexasCherokee,Texas,Cherokee,2021-01-05 09:22:46.711403,2020-07-23 00:00:00.000000,2.09177100,3.65892036,5.60806600,1101,1926,2952,650,1177,1725,1.23583495,2.23617540,3.27726306,0.31759896,0.41154460,0.52421166
48073,0,USTexasCherokee,Texas,Cherokee,2021-01-05 09:22:46.711403,2020-07-24 00:00:00.000000,2.21243791,3.80021983,5.86713020,1164,2000,3088,676,1225,1809,1.28594223,2.32767322,3.43803367,0.30956631,0.40768852,0.52076417
48073,0,USTexasCherokee,Texas,Cherokee,2021-01-05 09:22:46.711403,2020-07-25 00:00:00.000000,2.32164795,3.91571255,6.11168627,1222,2061,3217,707,1272,1893,1.34376295,2.41733719,3.59627974,0.30153194,0.40715016,0.51602082
48073,0,USTexasCherokee,Texas,Cherokee,2021-01-05 09:22:46.711403,2020-07-26 00:00:00.000000,2.38152175,3.97971844,6.33750500,1253,2095,3336,740,1313,1980,1.40626524,2.49477395,3.76168906,0.29677525,0.40498357,0.50588894
48073,0,USTexasCherokee,Texas,Cherokee,2021-01-05 09:22:46.711403,2020-07-27 00:00:00.000000,2.44143600,4.12944035,6.53343982,1285,2173,3439,775,1353,2070,1.47262041,2.57156373,3.93202694,0.28505278,0.39074496,0.49640086
48073,0,USTexasCherokee,Texas,Cherokee,2021-01-05 09:22:46.711403,2020-07-28 00:00:00.000000,2.53734071,4.26027790,6.69677086,1335,2242,3525,811,1402,2163,1.54196019,2.66474687,4.10977469,0.28071299,0.38203841,0.49625545
48073,0,USTexasCherokee,Texas,Cherokee,2021-01-05 09:22:46.711403,2020-07-29 00:00:00.000000,2.65429318,4.39519857,6.78200574,1397,2313,3570,849,1447,2261,1.61412133,2.74971232,4.29474273,0.27719019,0.37668029,0.49559080
48073,0,USTexasCherokee,Texas,Cherokee,2021-01-05 09:22:46.711403,2020-07-30 00:00:00.000000,2.77404668,4.51493797,6.89745361,1460,2376,3631,889,1487,2360,1.68885633,2.82586420,4.48463583,0.26055926,0.36691932,0.47144436
48073,0,USTexasCherokee,Texas,Cherokee,2021-01-05 09:22:46.711403,2020-07-31 00:00:00.000000,2.87745683,4.56658177,7.12846532,1514,2404,3752,929,1507,2460,1.76562538,2.86424717,4.67361395,0.24253545,0.36388309,0.45582717
48073,0,USTexasCherokee,Texas,Cherokee,2021-01-05 09:22:46.711403,2020-08-01 00:00:00.000000,2.93273001,4.54158221,7.27557679,1543,2390,3830,970,1538,2548,1.84262035,2.92155758,4.83995846,0.23717603,0.34561611,0.44035591
48073,0,USTexasCherokee,Texas,Cherokee,2021-01-05 09:22:46.711403,2020-08-02 00:00:00.000000,2.98679675,4.55469687,7.30780494,1572,2397,3847,1003,1558,2566,1.90629105,2.95960853,4.87578156,0.22874911,0.33123798,0.43362830
48073,0,USTexasCherokee,Texas,Cherokee,2021-01-05 09:22:46.711403,2020-08-03 00:00:00.000000,3.04408427,4.60646169,7.00627568,1602,2425,3688,1022,1589,2514,1.94218258,3.01981642,4.77532872,0.20664732,0.31223132,0.42439943
48073,0,USTexasCherokee,Texas,Cherokee,2021-01-05 09:22:46.711403,2020-08-04 00:00:00.000000,3.09659458,4.59756715,6.82269266,1630,2420,3591,1015,1608,2459,1.92956468,3.05491944,4.67090642,0.19954903,0.29920819,0.40800590
48073,0,USTexasCherokee,Texas,Cherokee,2021-01-05 09:22:46.711403,2020-08-05 00:00:00.000000,3.06176849,4.56441877,6.58938624,1611,2402,3469,996,1605,2432,1.89190288,3.04944649,4.62040362,0.19337463,0.28823894,0.37881953
48073,0,USTexasCherokee,Texas,Cherokee,2021-01-05 09:22:46.711403,2020-08-06 00:00:00.000000,2.91994074,4.47627629,6.57564914,1537,2356,3461,970,1598,2344,1.84370548,3.03617065,4.45422332,0.18079622,0.27488198,0.36007281
48073,0,USTexasCherokee,Texas,Cherokee,2021-01-05 09:22:46.711403,2020-08-07 00:00:00.000000,2.76782102,4.39568246,6.58968925,1457,2314,3469,940,1578,2283,1.78558057,2.99925868,4.33683815,0.16885042,0.25465182,0.34379600
48073,0,USTexasCherokee,Texas,Cherokee,2021-01-05 09:22:46.711403,2020-08-08 00:00:00.000000,2.61399470,4.28034955,6.38143368,1376,2253,3359,904,1534,2286,1.71886659,2.91552637,4.34366236,0.15092859,0.23459023,0.32448125
48073,0,USTexasCherokee,Texas,Cherokee,2021-01-05 09:22:46.711403,2020-08-09 00:00:00.000000,2.46367623,4.09340923,6.10876246,1297,2155,3216,857,1498,2282,1.62901356,2.84683069,4.33601489,0.14283874,0.21530657,0.30203752
48073,0,USTexasCherokee,Texas,Cherokee,2021-01-05 09:22:46.711403,2020-08-10 00:00:00.000000,2.31496919,3.93967452,5.81873922,1218,2074,3063,809,1445,2253,1.53754385,2.74554432,4.28094477,0.13753001,0.20094542,0.28600138
48073,0,USTexasCherokee,Texas,Cherokee,2021-01-05 09:22:46.711403,2020-08-11 00:00:00.000000,2.17343465,3.76643355,5.52728775,1144,1982,2909,761,1396,2205,1.44704536,2.65224280,4.19006334,0.13380872,0.19357714,0.27977385
48073,0,USTexasCherokee,Texas,Cherokee,2021-01-05 09:22:46.711403,2020-08-12 00:00:00.000000,2.03927701,3.57811513,5.24232807,1073,1883,2759,715,1327,2141,1.35965303,2.52156535,4.06868414,0.13173466,0.18478296,0.25752953
48073,0,USTexasCherokee,Texas,Cherokee,2021-01-05 09:22:46.711403,2020-08-13 00:00:00.000000,1.92156294,3.40675663,4.96782514,1011,1793,2615,671,1264,2038,1.27634563,2.40249173,3.87212338,0.13007207,0.17879758,0.25371445
48073,0,USTexasCherokee,Texas,Cherokee,2021-01-05 09:22:46.711403,2020-08-14 00:00:00.000000,1.81875643,3.20463505,4.70398043,957,1687,2476,630,1205,1936,1.19748294,2.28999197,3.67838672,0.11897740,0.17344432,0.23970372
48073,0,USTexasCherokee,Texas,Cherokee,2021-01-05 09:22:46.711403,2020-08-15 00:00:00.000000,1.71554118,3.01814802,4.45214195,903,1588,2343,591,1143,1837,1.12309628,2.17217365,3.49035132,0.11444982,0.16632848,0.22924335
48073,0,USTexasCherokee,Texas,Cherokee,2021-01-05 09:22:46.711403,2020-08-16 00:00:00.000000,1.61258953,2.84704768,4.21394469,848,1498,2218,554,1080,1742,1.05305161,2.05217096,3.30963761,0.11382808,0.15991999,0.21919103
48073,0,USTexasCherokee,Texas,Cherokee,2021-01-05 09:22:46.711403,2020-08-17 00:00:00.000000,1.51300776,2.68239998,4.00762477,796,1412,2109,519,1017,1651,0.98716579,1.93195036,3.13647197,0.10923926,0.15814982,0.21884255
48073,0,USTexasCherokee,Texas,Cherokee,2021-01-05 09:22:46.711403,2020-08-18 00:00:00.000000,1.41782223,2.51267559,3.81116488,746,1322,2006,488,954,1563,0.92751274,1.81235088,2.97003357,0.10802054,0.15628835,0.21870580
48073,0,USTexasCherokee,Texas,Cherokee,2021-01-05 09:22:46.711403,2020-08-19 00:00:00.000000,1.31479895,2.34235929,3.61781306,692,1233,1904,459,891,1480,0.87268702,1.69366211,2.81183493,0.10774356,0.15446856,0.21801844
48073,0,USTexasCherokee,Texas,Cherokee,2021-01-05 09:22:46.711403,2020-08-20 00:00:00.000000,1.22324191,2.18839287,3.40969081,643,1152,1795,432,823,1401,0.82197407,1.56420758,2.66133640,0.10368535,0.15355009,0.21668817
48073,0,USTexasCherokee,Texas,Cherokee,2021-01-05 09:22:46.711403,2020-08-21 00:00:00.000000,1.12148412,2.03908421,3.22026664,590,1073,1695,408,765,1325,0.77505040,1.45488511,2.51761796,0.10289227,0.14939093,0.21434556
48073,0,USTexasCherokee,Texas,Cherokee,2021-01-05 09:22:46.711403,2020-08-22 00:00:00.000000,1.02821238,1.89339938,3.10127277,541,996,1632,375,712,1252,0.71294642,1.35322491,2.37987981,0.10209389,0.14831062,0.21078903
48073,0,USTexasCherokee,Texas,Cherokee,2021-01-05 09:22:46.711403,2020-08-23 00:00:00.000000,0.94322932,1.75532233,2.95125974,496,924,1553,348,663,1183,0.66141911,1.26024701,2.24767528,0.10115178,0.14841386,0.20758150
48073,0,USTexasCherokee,Texas,Cherokee,2021-01-05 09:22:46.711403,2020-08-24 00:00:00.000000,0.86960806,1.63145648,2.77061536,457,858,1458,321,618,1116,0.61051701,1.17471852,2.12089432,0.10008556,0.14989684,0.21236593
48073,0,USTexasCherokee,Texas,Cherokee,2021-01-05 09:22:46.711403,2020-08-25 00:00:00.000000,0.80300913,1.51552891,2.60280231,422,797,1370,296,570,1067,0.56318155,1.08425811,2.02679934,0.09956218,0.14800410,0.21795471
48073,0,USTexasCherokee,Texas,Cherokee,2021-01-05 09:22:46.711403,2020-08-26 00:00:00.000000,0.74279780,1.42365559,2.44807233,391,749,1288,274,527,1001,0.52088907,1.00245167,1.90318655,0.09956202,0.14844178,0.22315478
48073,0,USTexasCherokee,Texas,Cherokee,2021-01-05 09:22:46.711403,2020-08-27 00:00:00.000000,0.68799769,1.33030686,2.30563170,362,700,1213,254,487,941,0.48269326,0.92529698,1.78874411,0.09957279,0.14837370,0.22409330
48073,0,USTexasCherokee,Texas,Cherokee,2021-01-05 09:22:46.711403,2020-08-28 00:00:00.000000,0.63788830,1.22437682,2.17331966,335,644,1144,236,454,886,0.44846819,0.86421053,1.68310210,0.09960523,0.14965618,0.22423788
48073,0,USTexasCherokee,Texas,Cherokee,2021-01-05 09:22:46.711403,2020-08-29 00:00:00.000000,0.59623508,1.13855836,2.04967663,313,599,1079,220,426,836,0.41901722,0.80939133,1.58905344,0.09970206,0.15232116,0.23094489
48073,0,USTexasCherokee,Texas,Cherokee,2021-01-05 09:22:46.711403,2020-08-30 00:00:00.000000,0.55977661,1.06761862,1.93979657,294,562,1021,207,399,790,0.39428173,0.75874757,1.50214535,0.09999049,0.15302910,0.23109117
48073,0,USTexasCherokee,Texas,Cherokee,2021-01-05 09:22:46.711403,2020-08-31 00:00:00.000000,0.51416565,0.99992470,1.84411408,270,526,970,196,374,748,0.37298782,0.71043719,1.42191874,0.10165922,0.16046077,0.23110434
48073,0,USTexasCherokee,Texas,Cherokee,2021-01-05 09:22:46.711403,2020-09-01 00:00:00.000000,0.47298172,0.93531126,1.75428263,249,492,923,183,348,708,0.34900513,0.66240350,1.34632141,0.10397984,0.16272890,0.23370530
48073,0,USTexasCherokee,Texas,Cherokee,2021-01-05 09:22:46.711403,2020-09-02 00:00:00.000000,0.43944833,0.87362583,1.67528361,231,459,881,168,326,671,0.32065128,0.62059833,1.27602797,0.10739519,0.16569361,0.24931405
48073,0,USTexasCherokee,Texas,Cherokee,2021-01-05 09:22:46.711403,2020-09-03 00:00:00.000000,0.40898959,0.81647956,1.60403024,215,429,844,155,306,639,0.29463912,0.58143514,1.21535463,0.11176843,0.16924593,0.24899163
48073,0,USTexasCherokee,Texas,Cherokee,2021-01-05 09:22:46.711403,2020-09-04 00:00:00.000000,0.38103936,0.76856177,1.53704041,200,404,809,142,285,610,0.27080521,0.54291680,1.16038863,0.11211186,0.17326679,0.24417165
48073,0,USTexasCherokee,Texas,Cherokee,2021-01-05 09:22:46.711403,2020-09-05 00:00:00.000000,0.35558328,0.72596496,1.47366964,187,382,775,131,268,584,0.24908467,0.50971098,1.10936507,0.11893462,0.17841991,0.24300670
48073,0,USTexasCherokee,Texas,Cherokee,2021-01-05 09:22:46.711403,2020-09-06 00:00:00.000000,0.33286376,0.69100784,1.41353764,175,363,744,122,253,558,0.23177855,0.48227924,1.06129749,0.12708731,0.18476049,0.25448557
48073,0,USTexasCherokee,Texas,Cherokee,2021-01-05 09:22:46.711403,2020-09-07 00:00:00.000000,0.31657079,0.65985876,1.35354443,166,347,712,115,241,534,0.21876105,0.45795219,1.01606418,0.13723813,0.18915545,0.26668700
48073,0,USTexasCherokee,Texas,Cherokee,2021-01-05 09:22:46.711403,2020-09-08 00:00:00.000000,0.30435144,0.63291216,1.30712414,160,333,688,108,229,511,0.20658746,0.43580295,0.97240075,0.13993122,0.19246114,0.27072252
48073,0,USTexasCherokee,Texas,Cherokee,2021-01-05 09:22:46.711403,2020-09-09 00:00:00.000000,0.29075324,0.60729375,1.26535373,153,319,666,102,219,490,0.19503703,0.41785758,0.93076716,0.14320435,0.19954370,0.27312770
48073,0,USTexasCherokee,Texas,Cherokee,2021-01-05 09:22:46.711403,2020-09-10 00:00:00.000000,0.28565597,0.58550546,1.22594049,150,308,645,97,211,469,0.18555108,0.40103391,0.89189198,0.14956301,0.20552838,0.27868375
48073,0,USTexasCherokee,Texas,Cherokee,2021-01-05 09:22:46.711403,2020-09-11 00:00:00.000000,0.28398166,0.56625232,1.18263457,149,298,622,95,202,451,0.18229819,0.38464568,0.85744899,0.15546944,0.21257539,0.28906361
48073,0,USTexasCherokee,Texas,Cherokee,2021-01-05 09:22:46.711403,2020-09-12 00:00:00.000000,0.28337035,0.54626652,1.14146902,149,287,600,95,196,434,0.18067373,0.37363176,0.82551355,0.15670951,0.21734198,0.29494477
48073,0,USTexasCherokee,Texas,Cherokee,2021-01-05 09:22:46.711403,2020-09-13 00:00:00.000000,0.28328408,0.53388896,1.10725443,149,281,582,94,190,418,0.18010219,0.36139181,0.79558644,0.15734935,0.22173361,0.30099674
48073,0,USTexasCherokee,Texas,Cherokee,2021-01-05 09:22:46.711403,2020-09-14 00:00:00.000000,0.28016545,0.51332125,1.09098303,147,270,574,94,183,403,0.18018885,0.34797607,0.76720242,0.15961241,0.22869005,0.32236407
48073,0,USTexasCherokee,Texas,Cherokee,2021-01-05 09:22:46.711403,2020-09-15 00:00:00.000000,0.27716255,0.49501808,1.04901567,145,260,552,93,177,395,0.17805465,0.33724504,0.75104792,0.16275033,0.23740303,0.33518967
48073,0,USTexasCherokee,Texas,Cherokee,2021-01-05 09:22:46.711403,2020-09-16 00:00:00.000000,0.27149970,0.48434423,1.01531757,142,254,534,90,169,389,0.17181362,0.32256946,0.73953815,0.16423035,0.24239867,0.34465233
48073,0,USTexasCherokee,Texas,Cherokee,2021-01-05 09:22:46.711403,2020-09-17 00:00:00.000000,0.26038780,0.47505100,0.98968520,137,250,521,87,164,378,0.16594871,0.31180467,0.71913802,0.16460293,0.24797332,0.35894886
48073,0,USTexasCherokee,Texas,Cherokee,2021-01-05 09:22:46.711403,2020-09-18 00:00:00.000000,0.24662709,0.46640770,0.96553281,129,245,508,84,160,364,0.16041190,0.30524187,0.69257109,0.16602498,0.25542232,0.36918082
48073,0,USTexasCherokee,Texas,Cherokee,2021-01-05 09:22:46.711403,2020-09-19 00:00:00.000000,0.23243478,0.45831561,0.94378108,122,241,496,81,158,357,0.15513259,0.30109113,0.67873981,0.17080860,0.27363912,0.40678512
48073,0,USTexasCherokee,Texas,Cherokee,2021-01-05 09:22:46.711403,2020-09-20 00:00:00.000000,0.22501992,0.44908322,0.92567884,118,236,487,78,156,351,0.15002501,0.29764121,0.66783150,0.17982834,0.28232370,0.41684480
48073,0,USTexasCherokee,Texas,Cherokee,2021-01-05 09:22:46.711403,2020-09-21 00:00:00.000000,0.22299756,0.44706864,0.92349692,117,235,486,76,155,347,0.14499440,0.29554722,0.66011950,0.18616164,0.29135102,0.43831351
48073,0,USTexasCherokee,Texas,Cherokee,2021-01-05 09:22:46.711403,2020-09-22 00:00:00.000000,0.22321524,0.44179808,0.92667403,117,232,487,74,155,345,0.14168615,0.29581126,0.65569386,0.19606623,0.31006072,0.44514444
48073,0,USTexasCherokee,Texas,Cherokee,2021-01-05 09:22:46.711403,2020-09-23 00:00:00.000000,0.22667561,0.43782535,0.93477528,119,230,492,73,156,344,0.13953860,0.29750834,0.65470285,0.19745888,0.31682743,0.48068474
48073,0,USTexasCherokee,Texas,Cherokee,2021-01-05 09:22:46.711403,2020-09-24 00:00:00.000000,0.23025022,0.43518202,0.94682326,121,229,498,72,158,345,0.13773602,0.30033996,0.65715967,0.19810171,0.33211648,0.51461820
48073,0,USTexasCherokee,Texas,Cherokee,2021-01-05 09:22:46.711403,2020-09-25 00:00:00.000000,0.22809104,0.43939227,0.96167922,120,231,506,73,159,348,0.13907347,0.30320079,0.66283767,0.20009967,0.34577943,0.53631215
48073,0,USTexasCherokee,Texas,Cherokee,2021-01-05 09:22:46.711403,2020-09-26 00:00:00.000000,0.23576757,0.43943557,0.97827115,124,231,515,75,158,353,0.14416313,0.30152066,0.67122777,0.21300106,0.36422975,0.55154410
48073,0,USTexasCherokee,Texas,Cherokee,2021-01-05 09:22:46.711403,2020-09-27 00:00:00.000000,0.24465875,0.44850618,0.99550865,128,236,524,78,157,358,0.14952408,0.29881848,0.68115034,0.23172198,0.38054289,0.58966338
48073,0,USTexasCherokee,Texas,Cherokee,2021-01-05 09:22:46.711403,2020-09-28 00:00:00.000000,0.25427711,0.45882058,0.99258533,133,241,522,81,158,364,0.15512236,0.30061076,0.69223516,0.25768672,0.39570486,0.61073608
48073,0,USTexasCherokee,Texas,Cherokee,2021-01-05 09:22:46.711403,2020-09-29 00:00:00.000000,0.26046599,0.46523129,0.98950802,137,244,520,84,163,366,0.16127827,0.31113821,0.69600697,0.28020087,0.40979396,0.62449996
48073,0,USTexasCherokee,Texas,Cherokee,2021-01-05 09:22:46.711403,2020-09-30 00:00:00.000000,0.26864064,0.48776680,1.00475056,141,256,528,88,171,365,0.16794912,0.32549921,0.69385631,0.29648151,0.42308659,0.63907663
48073,0,USTexasCherokee,Texas,Cherokee,2021-01-05 09:22:46.711403,2020-10-01 00:00:00.000000,0.28159036,0.51562833,1.06633051,148,271,561,92,175,364,0.17520868,0.33381211,0.69193935,0.31132451,0.44742080,0.66651839
48073,0,USTexasCherokee,Texas,Cherokee,2021-01-05 09:22:46.711403,2020-10-02 00:00:00.000000,0.29561789,0.55040734,1.13097014,155,289,595,96,179,364,0.18327407,0.34141264,0.69171273,0.33427188,0.48211309,0.74427726
48073,0,USTexasCherokee,Texas,Cherokee,2021-01-05 09:22:46.711403,2020-10-03 00:00:00.000000,0.30042120,0.58671443,1.17085039,158,308,616,101,186,379,0.19234240,0.35469202,0.71991953,0.34307158,0.51860997,0.75951493
48073,0,USTexasCherokee,Texas,Cherokee,2021-01-05 09:22:46.711403,2020-10-04 00:00:00.000000,0.32313973,0.64266530,1.20521045,170,338,634,104,195,402,0.19915582,0.37181779,0.76363855,0.35041132,0.55215019,0.78596008
48073,0,USTexasCherokee,Texas,Cherokee,2021-01-05 09:22:46.711403,2020-10-05 00:00:00.000000,0.34908046,0.70393448,1.24885438,183,370,657,107,206,427,0.20335023,0.39189688,0.81276987,0.38194225,0.61107912,0.84789250
48073,0,USTexasCherokee,Texas,Cherokee,2021-01-05 09:22:46.711403,2020-10-06 00:00:00.000000,0.38438478,0.76698694,1.32527992,202,403,697,117,221,449,0.22330405,0.42114289,0.85384976,0.41036866,0.65486324,0.87392299
48073,0,USTexasCherokee,Texas,Cherokee,2021-01-05 09:22:46.711403,2020-10-07 00:00:00.000000,0.42695323,0.83513543,1.49383515,224,439,786,130,240,466,0.24872110,0.45739330,0.88694809,0.43499357,0.66256572,0.90381166
48073,0,USTexasCherokee,Texas,Cherokee,2021-01-05 09:22:46.711403,2020-10-08 00:00:00.000000,0.47571389,0.91029846,1.68012826,250,479,884,146,268,487,0.27751950,0.50919860,0.92568411,0.46852870,0.68942350,0.93590119
48073,0,USTexasCherokee,Texas,Cherokee,2021-01-05 09:22:46.711403,2020-10-09 00:00:00.000000,0.52700305,1.01991034,1.79912754,277,536,947,160,297,522,0.30548710,0.56458803,0.99211244,0.50812253,0.73718320,0.99941594
48073,0,USTexasCherokee,Texas,Cherokee,2021-01-05 09:22:46.711403,2020-10-10 00:00:00.000000,0.58930629,1.14349014,2.00180485,310,602,1053,177,322,587,0.33679354,0.61196677,1.11574340,0.54209971,0.77679261,1.04158400
48073,0,USTexasCherokee,Texas,Cherokee,2021-01-05 09:22:46.711403,2020-10-11 00:00:00.000000,0.66399524,1.27059237,2.28043617,349,668,1200,192,358,659,0.36477524,0.68068311,1.25278326,0.58495283,0.81485407,1.05070064
48073,0,USTexasCherokee,Texas,Cherokee,2021-01-05 09:22:46.711403,2020-10-12 00:00:00.000000,0.76408487,1.39853980,2.52413725,402,736,1328,218,402,740,0.41566942,0.76485129,1.40667219,0.62587060,0.83132375,1.08909318
48073,0,USTexasCherokee,Texas,Cherokee,2021-01-05 09:22:46.711403,2020-10-13 00:00:00.000000,0.88303860,1.55764228,2.79789227,464,820,1472,250,444,825,0.47508556,0.84406262,1.56799444,0.65342088,0.86117522,1.13292555
48073,0,USTexasCherokee,Texas,Cherokee,2021-01-05 09:22:46.711403,2020-10-14 00:00:00.000000,1.02005279,1.75301381,3.10234163,537,922,1633,282,499,913,0.53704029,0.94922594,1.73439041,0.67590417,0.86970121,1.16075018
48073,0,USTexasCherokee,Texas,Cherokee,2021-01-05 09:22:46.711403,2020-10-15 00:00:00.000000,1.16306745,1.97471498,3.43824403,612,1039,1810,321,570,1011,0.61009901,1.08454944,1.92124372,0.72248523,0.89324004,1.18385531
48073,0,USTexasCherokee,Texas,Cherokee,2021-01-05 09:22:46.711403,2020-10-16 00:00:00.000000,1.31336361,2.23447362,3.87747651,691,1176,2041,367,648,1120,0.69786652,1.23220204,2.12891070,0.74012529,0.90497608,1.19137398
48073,0,USTexasCherokee,Texas,Cherokee,2021-01-05 09:22:46.711403,2020-10-17 00:00:00.000000,1.49529932,2.52671804,4.39546121,787,1330,2314,420,724,1271,0.79882232,1.37703168,2.41467883,0.76365391,0.91612551,1.15604581
48073,0,USTexasCherokee,Texas,Cherokee,2021-01-05 09:22:46.711403,2020-10-18 00:00:00.000000,1.69012405,2.87361797,4.97395517,889,1512,2618,481,810,1431,0.91393174,1.53945586,2.71935119,0.79518122,0.93324439,1.13436983
48073,0,USTexasCherokee,Texas,Cherokee,2021-01-05 09:22:46.711403,2020-10-19 00:00:00.000000,1.90103475,3.24771177,5.61859632,1000,1709,2957,545,913,1589,1.03600925,1.73447486,3.01848444,0.80868624,0.95705560,1.13587926
48073,0,USTexasCherokee,Texas,Cherokee,2021-01-05 09:22:46.711403,2020-10-20 00:00:00.000000,2.18038251,3.67179893,6.19806645,1147,1933,3263,613,1029,1783,1.16485205,1.95497070,3.38733724,0.84159307,0.94459801,1.15801093
48073,0,USTexasCherokee,Texas,Cherokee,2021-01-05 09:22:46.711403,2020-10-21 00:00:00.000000,2.49699545,4.12977758,6.92621398,1314,2174,3646,688,1160,2008,1.30872211,2.20462611,3.81451020,0.81939090,0.94446304,1.15933327
48073,0,USTexasCherokee,Texas,Cherokee,2021-01-05 09:22:46.711403,2020-10-22 00:00:00.000000,2.85561680,4.65642662,7.75397141,1503,2451,4082,773,1309,2256,1.46893791,2.48820358,4.28668843,0.83889581,0.94579524,1.15420847
48073,0,USTexasCherokee,Texas,Cherokee,2021-01-05 09:22:46.711403,2020-10-23 00:00:00.000000,3.26001414,5.22056816,8.65626364,1716,2748,4557,889,1484,2530,1.68892472,2.81924648,4.80615975,0.83907125,0.94934308,1.13868274
48073,0,USTexasCherokee,Texas,Cherokee,2021-01-05 09:22:46.711403,2020-10-24 00:00:00.000000,3.71402843,5.86459316,9.63342357,1955,3087,5071,1021,1680,2829,1.94122720,3.19201813,5.37458856,0.84721990,0.93759950,1.13257388
48073,0,USTexasCherokee,Texas,Cherokee,2021-01-05 09:22:46.711403,2020-10-25 00:00:00.000000,4.21470225,6.55005275,10.68388810,2218,3448,5624,1172,1879,3154,2.22796058,3.57001770,5.99283654,0.81209414,0.92843227,1.11539651
48073,0,USTexasCherokee,Texas,Cherokee,2021-01-05 09:22:46.711403,2020-10-26 00:00:00.000000,4.75316442,7.34242537,11.81169628,2502,3865,6218,1344,2097,3506,2.55344663,3.98416572,6.66070513,0.79107143,0.92415011,1.09733636
48073,0,USTexasCherokee,Texas,Cherokee,2021-01-05 09:22:46.711403,2020-10-27 00:00:00.000000,5.37450513,8.17855094,12.93021981,2829,4305,6807,1538,2334,3885,2.92257240,4.43427666,7.37956029,0.73523599,0.90613953,1.05476156
48073,0,USTexasCherokee,Texas,Cherokee,2021-01-05 09:22:46.711403,2020-10-28 00:00:00.000000,6.04380685,9.01360368,13.97848737,3181,4745,7359,1757,2599,4273,3.33805523,4.93697273,8.11836770,0.68150972,0.89387243,1.01185797
48073,0,USTexasCherokee,Texas,Cherokee,2021-01-05 09:22:46.711403,2020-10-29 00:00:00.000000,6.77640729,9.80620166,14.89670596,3567,5162,7842,1969,2857,4654,3.74007523,5.42720076,8.84059446,0.56191156,0.86006583,1.00098041
48073,0,USTexasCherokee,Texas,Cherokee,2021-01-05 09:22:46.711403,2020-10-30 00:00:00.000000,7.50418838,10.51613746,15.59207780,3950,5536,8208,2158,3107,5006,4.10006983,5.90263301,9.50990534,0.40131397,0.79920619,0.93035677
48073,0,USTexasCherokee,Texas,Cherokee,2021-01-05 09:22:46.711403,2020-10-31 00:00:00.000000,7.94177454,10.66137081,15.92096822,4181,5612,8381,2327,3350,5299,4.42066767,6.36413755,10.06569729,0.31752019,0.67644795,0.88144960
48073,0,USTexasCherokee,Texas,Cherokee,2021-01-05 09:22:46.711403,2020-11-01 00:00:00.000000,8.11784991,10.72706941,16.02871281,4273,5647,8438,2462,3522,5543,4.67811691,6.69034900,10.53064850,0.30544818,0.51478376,0.75958834
48073,0,USTexasCherokee,Texas,Cherokee,2021-01-05 09:22:46.711403,2020-11-02 00:00:00.000000,7.79958917,10.85546572,16.21312404,4106,5714,8535,2546,3646,5883,4.83669829,6.92659263,11.17602785,0.27419687,0.41064879,0.58625200
48073,0,USTexasCherokee,Texas,Cherokee,2021-01-05 09:22:46.711403,2020-11-03 00:00:00.000000,7.50366773,10.71313770,16.16606617,3950,5640,8510,2574,3665,5951,4.88986990,6.96314819,11.30430227,0.21520086,0.36326199,0.46884335
48073,0,USTexasCherokee,Texas,Cherokee,2021-01-05 09:22:46.711403,2020-11-04 00:00:00.000000,7.10985831,10.44632310,15.98466106,3743,5499,8415,2538,3641,5861,4.82126727,6.91710678,11.13396484,0.18485038,0.32889271,0.42092133
48073,0,USTexasCherokee,Texas,Cherokee,2021-01-05 09:22:46.711403,2020-11-05 00:00:00.000000,6.73714629,10.16968782,15.36630295,3546,5353,8089,2432,3570,5804,4.62079377,6.78259427,11.02564692,0.17965010,0.30370191,0.40196293
48073,0,USTexasCherokee,Texas,Cherokee,2021-01-05 09:22:46.711403,2020-11-06 00:00:00.000000,6.40098517,9.72538040,14.49702481,3369,5120,7632,2288,3479,5647,4.34753994,6.60995713,10.72775804,0.17521795,0.28874853,0.39496735
48073,0,USTexasCherokee,Texas,Cherokee,2021-01-05 09:22:46.711403,2020-11-07 00:00:00.000000,6.07952853,9.18846928,13.96467519,3200,4837,7351,2131,3322,5379,4.04935887,6.31165543,10.21810901,0.17426387,0.28062678,0.39062242
48073,0,USTexasCherokee,Texas,Cherokee,2021-01-05 09:22:46.711403,2020-11-08 00:00:00.000000,5.77353776,8.67950065,13.38845842,3039,4569,7048,1973,3177,5182,3.74887732,6.03614824,9.84437631,0.17405876,0.27537721,0.38807901
48073,0,USTexasCherokee,Texas,Cherokee,2021-01-05 09:22:46.711403,2020-11-09 00:00:00.000000,5.35208599,8.18831035,12.77539922,2817,4310,6725,1823,3033,4997,3.46424554,5.76148455,9.49262901,0.17119837,0.27057203,0.38445251
48073,0,USTexasCherokee,Texas,Cherokee,2021-01-05 09:22:46.711403,2020-11-10 00:00:00.000000,4.91456933,7.71200582,12.15785096,2587,4060,6400,1729,2858,4810,3.28588155,5.43035935,9.13686399,0.17101809,0.26967978,0.38236744
48073,0,USTexasCherokee,Texas,Cherokee,2021-01-05 09:22:46.711403,2020-11-11 00:00:00.000000,4.51379592,7.31470172,11.54936396,2376,3850,6080,1641,2699,4623,3.11740275,5.12784275,8.78243681,0.17192148,0.26621955,0.38136169
48073,0,USTexasCherokee,Texas,Cherokee,2021-01-05 09:22:46.711403,2020-11-12 00:00:00.000000,4.26375449,6.95671615,11.03015100,2244,3662,5806,1558,2573,4439,2.95939594,4.88753334,8.43287788,0.17399979,0.27118012,0.38089982
48073,0,USTexasCherokee,Texas,Cherokee,2021-01-05 09:22:46.711403,2020-11-13 00:00:00.000000,4.02596764,6.56056878,10.56621792,2119,3453,5562,1460,2413,4259,2.77510489,4.58407557,8.09076280,0.17400253,0.27609403,0.38512679
48073,0,USTexasCherokee,Texas,Cherokee,2021-01-05 09:22:46.711403,2020-11-14 00:00:00.000000,3.69526587,6.17379092,10.12212718,1945,3250,5328,1339,2278,4084,2.54455386,4.32808826,7.75823148,0.17401052,0.28266225,0.38365208
48073,0,USTexasCherokee,Texas,Cherokee,2021-01-05 09:22:46.711403,2020-11-15 00:00:00.000000,3.41146590,5.83680042,9.69906346,1796,3072,5106,1229,2161,3915,2.33556207,4.10640245,7.43717583,0.17403493,0.28367487,0.38893505
48073,0,USTexasCherokee,Texas,Cherokee,2021-01-05 09:22:46.711403,2020-11-16 00:00:00.000000,3.17388565,5.54395619,9.29549220,1670,2918,4893,1134,2036,3753,2.15581941,3.86798670,7.12901899,0.17411662,0.28549569,0.40050236
48073,0,USTexasCherokee,Texas,Cherokee,2021-01-05 09:22:46.711403,2020-11-17 00:00:00.000000,2.93113645,5.23210586,8.85175470,1543,2754,4660,1061,1920,3559,2.01670101,3.64824741,6.76154261,0.17516584,0.29002376,0.41526767
48073,0,USTexasCherokee,Texas,Cherokee,2021-01-05 09:22:46.711403,2020-11-18 00:00:00.000000,2.71289577,4.93375654,8.36502987,1428,2597,4403,1002,1802,3366,1.90456194,3.42443516,6.39509643,0.18227261,0.29811876,0.42607733
48073,0,USTexasCherokee,Texas,Cherokee,2021-01-05 09:22:46.711403,2020-11-19 00:00:00.000000,2.52124483,4.72284400,7.90743593,1327,2486,4162,950,1722,3183,1.80552680,3.27170101,6.04691325,0.19498841,0.31051295,0.42774827
48073,0,USTexasCherokee,Texas,Cherokee,2021-01-05 09:22:46.711403,2020-11-20 00:00:00.000000,2.35298543,4.43084932,7.47708607,1238,2332,3936,893,1646,3010,1.69808036,3.12806258,5.71784734,0.19615425,0.31893012,0.45132883
48073,0,USTexasCherokee,Texas,Cherokee,2021-01-05 09:22:46.711403,2020-11-21 00:00:00.000000,2.20433306,4.19235928,7.07033324,1160,2207,3722,832,1546,2846,1.58153497,2.93700157,5.40754227,0.20304763,0.31972770,0.46547860
48073,0,USTexasCherokee,Texas,Cherokee,2021-01-05 09:22:46.711403,2020-11-22 00:00:00.000000,2.07388767,3.99174502,6.69269802,1091,2101,3523,778,1456,2692,1.47865230,2.76678064,5.11437884,0.21204648,0.33812066,0.49878675
48073,0,USTexasCherokee,Texas,Cherokee,2021-01-05 09:22:46.711403,2020-11-23 00:00:00.000000,1.95989803,3.79260910,6.50210474,1031,1996,3423,730,1384,2546,1.38808011,2.62912557,4.83662355,0.21208818,0.34617188,0.50386456
48073,0,USTexasCherokee,Texas,Cherokee,2021-01-05 09:22:46.711403,2020-11-24 00:00:00.000000,1.86207178,3.61428961,6.33182541,980,1902,3333,688,1317,2442,1.30866412,2.50270414,4.63949066,0.21136700,0.36273751,0.50518596
48073,0,USTexasCherokee,Texas,Cherokee,2021-01-05 09:22:46.711403,2020-11-25 00:00:00.000000,1.77809688,3.44683578,6.17157100,936,1814,3249,652,1251,2373,1.23988389,2.37766890,4.50805461,0.21843794,0.38161065,0.50586779
48073,0,USTexasCherokee,Texas,Cherokee,2021-01-05 09:22:46.711403,2020-11-26 00:00:00.000000,1.70508600,3.33669492,6.01599390,897,1756,3167,621,1215,2310,1.18063618,2.30844141,4.38814831,0.23664177,0.38760600,0.53958064
48073,0,USTexasCherokee,Texas,Cherokee,2021-01-05 09:22:46.711403,2020-11-27 00:00:00.000000,1.63969906,3.22998041,5.86277123,863,1700,3086,594,1181,2250,1.12928928,2.24426467,4.27465383,0.25310882,0.39761072,0.56794966
48073,0,USTexasCherokee,Texas,Cherokee,2021-01-05 09:22:46.711403,2020-11-28 00:00:00.000000,1.57880595,3.09963238,5.71129653,831,1631,3006,570,1128,2192,1.08385115,2.14367568,4.16466841,0.25678506,0.40950694,0.58311432
48073,0,USTexasCherokee,Texas,Cherokee,2021-01-05 09:22:46.711403,2020-11-29 00:00:00.000000,1.54492393,2.98058377,5.56233525,813,1569,2928,548,1076,2135,1.04230511,2.04397186,4.05685704,0.26085122,0.42034359,0.62894346
48073,0,USTexasCherokee,Texas,Cherokee,2021-01-05 09:22:46.711403,2020-11-30 00:00:00.000000,1.52265242,2.87509103,5.41630247,801,1513,2851,528,1027,2080,1.00336219,1.95128826,3.95103620,0.26814601,0.43931119,0.64191529
48073,0,USTexasCherokee,Texas,Cherokee,2021-01-05 09:22:46.711403,2020-12-01 00:00:00.000000,1.47173560,2.79106634,5.22976180,774,1469,2753,508,987,2025,0.96648310,1.87664004,3.84745450,0.27838836,0.45360113,0.64366087
48073,0,USTexasCherokee,Texas,Cherokee,2021-01-05 09:22:46.711403,2020-12-02 00:00:00.000000,1.41377855,2.73514469,5.05245343,744,1439,2659,490,968,1973,0.93158102,1.83906834,3.74808898,0.28442239,0.46662983,0.66175751
48073,0,USTexasCherokee,Texas,Cherokee,2021-01-05 09:22:46.711403,2020-12-03 00:00:00.000000,1.37055229,2.67697122,4.88756057,721,1409,2573,471,942,1922,0.89520477,1.78998288,3.65082459,0.29679370,0.47354555,0.67531226
48073,0,USTexasCherokee,Texas,Cherokee,2021-01-05 09:22:46.711403,2020-12-04 00:00:00.000000,1.33545526,2.62576838,4.73284994,703,1382,2491,457,925,1849,0.86866964,1.75789670,3.51254334,0.32832337,0.47570016,0.69357979
48073,0,USTexasCherokee,Texas,Cherokee,2021-01-05 09:22:46.711403,2020-12-05 00:00:00.000000,1.30690477,2.59651600,4.58724886,688,1366,2415,445,907,1784,0.84702718,1.72358785,3.39000492,0.34477192,0.48906929,0.71351943
48073,0,USTexasCherokee,Texas,Cherokee,2021-01-05 09:22:46.711403,2020-12-06 00:00:00.000000,1.28390017,2.55376516,4.45512593,675,1344,2345,436,885,1728,0.82940984,1.68253504,3.28410611,0.36118633,0.50770109,0.74437349
48073,0,USTexasCherokee,Texas,Cherokee,2021-01-05 09:22:46.711403,2020-12-07 00:00:00.000000,1.26694431,2.49309509,4.39151099,666,1312,2311,429,876,1680,0.81563572,1.66513383,3.19247244,0.35537887,0.51411139,0.82272426
48073,0,USTexasCherokee,Texas,Cherokee,2021-01-05 09:22:46.711403,2020-12-08 00:00:00.000000,1.25345672,2.46452733,4.29983020,659,1297,2263,423,858,1638,0.80428450,1.63158994,3.11184181,0.35328615,0.52558688,0.88454147
48073,0,USTexasCherokee,Texas,Cherokee,2021-01-05 09:22:46.711403,2020-12-09 00:00:00.000000,1.24293935,2.45941875,4.26892810,654,1294,2247,418,848,1600,0.79585412,1.61222574,3.04005672,0.36554211,0.54706346,0.89547824
48073,0,USTexasCherokee,Texas,Cherokee,2021-01-05 09:22:46.711403,2020-12-10 00:00:00.000000,1.23460569,2.44232572,4.25719360,649,1285,2241,415,839,1567,0.78918899,1.59420493,2.97670578,0.39250949,0.55574920,0.91198289
48073,0,USTexasCherokee,Texas,Cherokee,2021-01-05 09:22:46.711403,2020-12-11 00:00:00.000000,1.22765480,2.42534568,4.23330713,646,1276,2228,412,830,1543,0.78387786,1.57718725,2.93098340,0.40186832,0.57066262,0.92680679
48073,0,USTexasCherokee,Texas,Cherokee,2021-01-05 09:22:46.711403,2020-12-12 00:00:00.000000,1.22136366,2.41601024,4.13350903,642,1271,2176,410,822,1544,0.77944548,1.56317564,2.93368412,0.42148736,0.58097877,0.96168739
48073,0,USTexasCherokee,Texas,Cherokee,2021-01-05 09:22:46.711403,2020-12-13 00:00:00.000000,1.21522365,2.42053172,4.08119713,639,1274,2148,408,819,1540,0.77542624,1.55727445,2.92565907,0.42111512,0.60222104,1.00136458
48073,0,USTexasCherokee,Texas,Cherokee,2021-01-05 09:22:46.711403,2020-12-14 00:00:00.000000,1.20848489,2.44244762,4.08530174,636,1285,2150,406,818,1503,0.77149140,1.55534504,2.85602150,0.42006495,0.62326380,0.98155050
48073,0,USTexasCherokee,Texas,Cherokee,2021-01-05 09:22:46.711403,2020-12-15 00:00:00.000000,1.20143946,2.43590077,4.08664924,632,1282,2151,403,820,1493,0.76717501,1.55806079,2.83705008,0.42067048,0.63707653,0.98979162
48073,0,USTexasCherokee,Texas,Cherokee,2021-01-05 09:22:46.711403,2020-12-16 00:00:00.000000,1.19396226,2.42267174,4.08457892,628,1275,2150,403,823,1492,0.76702796,1.56465311,2.83499237,0.42243772,0.64478209,1.03280696
48073,0,USTexasCherokee,Texas,Cherokee,2021-01-05 09:22:46.711403,2020-12-17 00:00:00.000000,1.19273596,2.43561557,4.07674335,627,1282,2146,404,823,1491,0.76849611,1.56347361,2.83256402,0.42547213,0.64973133,1.07479635
48073,0,USTexasCherokee,Texas,Cherokee,2021-01-05 09:22:46.711403,2020-12-18 00:00:00.000000,1.19793847,2.46556313,4.03946048,630,1298,2126,405,815,1462,0.77045722,1.54970589,2.77812712,0.42448562,0.66111004,1.15121462
48073,0,USTexasCherokee,Texas,Cherokee,2021-01-05 09:22:46.711403,2020-12-19 00:00:00.000000,1.20675022,2.45306721,4.05147838,635,1291,2132,407,819,1460,0.77328933,1.55697532,2.77405598,0.42419945,0.66686404,1.21171557
48073,0,USTexasCherokee,Texas,Cherokee,2021-01-05 09:22:46.711403,2020-12-20 00:00:00.000000,1.22165538,2.47616990,4.03558394,643,1303,2124,409,834,1480,0.77795630,1.58569874,2.81207782,0.42403510,0.68366142,1.25090219
48073,0,USTexasCherokee,Texas,Cherokee,2021-01-05 09:22:46.711403,2020-12-21 00:00:00.000000,1.25259353,2.48687019,4.09715382,659,1309,2156,413,853,1477,0.78586933,1.62133053,2.80729421,0.41624823,0.70921447,1.27092908
48073,0,USTexasCherokee,Texas,Cherokee,2021-01-05 09:22:46.711403,2020-12-22 00:00:00.000000,1.29438263,2.53995990,4.25597609,681,1337,2240,422,869,1469,0.80172250,1.65130296,2.79126679,0.40715350,0.72996677,1.28093092
48073,0,USTexasCherokee,Texas,Cherokee,2021-01-05 09:22:46.711403,2020-12-23 00:00:00.000000,1.34971653,2.54418880,4.28323438,710,1339,2254,434,861,1508,0.82519288,1.63725311,2.86469899,0.41741769,0.73976363,1.28736854
48073,0,USTexasCherokee,Texas,Cherokee,2021-01-05 09:22:46.711403,2020-12-24 00:00:00.000000,1.41101080,2.59301948,4.27218032,742,1365,2249,451,868,1545,0.85691070,1.65059075,2.93644165,0.42035376,0.75998187,1.29417236
48073,0,USTexasCherokee,Texas,Cherokee,2021-01-05 09:22:46.711403,2020-12-25 00:00:00.000000,1.44043891,2.63894247,4.25727144,758,1389,2241,463,876,1577,0.88032170,1.66564850,2.99551776,0.42363688,0.77163356,1.30383642
48073,0,USTexasCherokee,Texas,Cherokee,2021-01-05 09:22:46.711403,2020-12-26 00:00:00.000000,1.46541133,2.68890102,4.23898365,771,1415,2231,459,884,1597,0.87300054,1.68020880,3.03390002,0.42600752,0.78464294,1.31783399
48073,0,USTexasCherokee,Texas,Cherokee,2021-01-05 09:22:46.711403,2020-12-27 00:00:00.000000,1.55136317,2.71615214,4.21780888,816,1429,2220,458,903,1610,0.87083088,1.71651720,3.05945584,0.43119437,0.77819008,1.33727137
48073,0,USTexasCherokee,Texas,Cherokee,2021-01-05 09:22:46.711403,2020-12-28 00:00:00.000000,1.52271810,2.72366761,4.22572364,801,1433,2224,473,927,1619,0.89938326,1.76206423,3.07680424,0.44310249,0.76945159,1.36142270
48073,0,USTexasCherokee,Texas,Cherokee,2021-01-05 09:22:46.711403,2020-12-29 00:00:00.000000,1.49814117,2.74783756,4.22205887,788,1446,2222,498,935,1623,0.94770382,1.77721030,3.08460545,0.45368298,0.76880508,1.38586788
48073,0,USTexasCherokee,Texas,Cherokee,2021-01-05 09:22:46.711403,2020-12-30 00:00:00.000000,1.50926918,2.81107295,4.19935816,794,1479,2210,529,945,1623,1.00591387,1.79503175,3.08354266,0.45759748,0.75716257,1.40469092
48073,0,USTexasCherokee,Texas,Cherokee,2021-01-05 09:22:46.711403,2020-12-31 00:00:00.000000,1.53155891,2.86407932,4.14834297,806,1507,2183,521,956,1616,0.98985156,1.81616227,3.06958689,0.43477126,0.76098601,1.41439469
48073,0,USTexasCherokee,Texas,Cherokee,2021-01-05 09:22:46.711403,2021-01-01 00:00:00.000000,1.54872604,2.88017404,4.09334531,815,1516,2154,512,971,1598,0.97438809,1.84607863,3.03616136,0.40584779,0.76673552,1.37920527
48073,0,USTexasCherokee,Texas,Cherokee,2021-01-05 09:22:46.711403,2021-01-02 00:00:00.000000,1.56095177,2.84837129,4.13346664,821,1499,2176,517,980,1569,0.98312680,1.86266897,2.98049553,0.39139947,0.76857924,1.42383309
48073,0,USTexasCherokee,Texas,Cherokee,2021-01-05 09:22:46.711403,2021-01-03 00:00:00.000000,1.59625620,2.82583227,4.23790027,840,1487,2231,521,978,1530,0.98975121,1.85921636,2.90748914,0.38665349,0.76300638,1.43005861
48073,0,USTexasCherokee,Texas,Cherokee,2021-01-05 09:22:46.711403,2021-01-04 00:00:00.000000,1.59334253,2.83661478,4.33766948,838,1493,2283,523,977,1498,0.99391691,1.85684790,2.84729674,0.38585342,0.76965717,1.45351753
48073,0,USTexasCherokee,Texas,Cherokee,2021-01-05 09:22:46.711403,2021-01-05 00:00:00.000000,1.58659542,2.89856127,4.43138167,835,1525,2332,524,973,1488,0.99653164,1.84992379,2.82821677,0.38622109,0.79699333,1.58620563
48073,0,USTexasCherokee,Texas,Cherokee,2021-01-05 09:22:46.711403,2021-01-06 00:00:00.000000,1.56429262,2.93571512,4.51767224,823,1545,2378,538,978,1490,1.02290975,1.85786376,2.83102909,0.38171723,0.81960816,1.64512517
48073,0,USTexasCherokee,Texas,Cherokee,2021-01-05 09:22:46.711403,2021-01-07 00:00:00.000000,1.51122782,2.91661823,4.59760886,795,1535,2420,523,965,1520,0.99516771,1.83427547,2.88797680,0.37745488,0.81671645,1.65463052
48073,0,USTexasCherokee,Texas,Cherokee,2021-01-05 09:22:46.711403,2021-01-08 00:00:00.000000,1.46287650,2.96163728,4.65483984,770,1559,2450,518,978,1548,0.98510248,1.85811769,2.94094010,0.37613671,0.81838994,1.65901489
48073,0,USTexasCherokee,Texas,Cherokee,2021-01-05 09:22:46.711403,2021-01-09 00:00:00.000000,1.41577977,2.92779348,4.73574774,745,1541,2493,502,997,1573,0.95391334,1.89481830,2.98958456,0.37574591,0.81928034,1.66099510
48073,0,USTexasCherokee,Texas,Cherokee,2021-01-05 09:22:46.711403,2021-01-10 00:00:00.000000,1.36993841,2.87375383,4.80433269,721,1512,2529,486,1006,1597,0.92356035,1.91265598,3.03358512,0.37563078,0.81963575,1.66188095
48073,0,USTexasCherokee,Texas,Cherokee,2021-01-05 09:22:46.711403,2021-01-11 00:00:00.000000,1.32575800,2.80260548,4.83118540,697,1475,2543,471,999,1601,0.89467416,1.89854485,3.04142263,0.37559624,0.81977583,1.66227555
48073,0,USTexasCherokee,Texas,Cherokee,2021-01-05 09:22:46.711403,2021-01-12 00:00:00.000000,1.28355325,2.78045730,4.78096459,675,1463,2516,456,985,1563,0.86652644,1.87191035,2.97052604,0.37558527,0.81983076,1.66245099
48073,0,USTexasCherokee,Texas,Cherokee,2021-01-05 09:22:46.711403,2021-01-13 00:00:00.000000,1.22243166,2.74098941,4.93965679,643,1443,2600,441,971,1599,0.83910905,1.84514740,3.03801019,0.37558133,0.81985226,1.66252892
48073,0,USTexasCherokee,Texas,Cherokee,2021-01-05 09:22:46.711403,2021-01-14 00:00:00.000000,1.15619454,2.74429756,4.96941173,608,1444,2616,427,967,1636,0.81241236,1.83765285,3.10823503,0.37557961,0.81986067,1.66256352
48073,0,USTexasCherokee,Texas,Cherokee,2021-01-05 09:22:46.711403,2021-01-15 00:00:00.000000,1.11218187,2.73125500,5.01347934,585,1437,2639,414,969,1672,0.78642637,1.84067338,3.17597098,0.37557869,0.81986396,1.66257888
48073,0,USTexasCherokee,Texas,Cherokee,2021-01-05 09:22:46.711403,2021-01-16 00:00:00.000000,1.08986274,2.68317021,5.10255574,573,1412,2686,397,964,1694,0.75417767,1.83227881,3.21788284,0.37557811,0.81986524,1.66258570
48073,0,USTexasCherokee,Texas,Cherokee,2021-01-05 09:22:46.711403,2021-01-17 00:00:00.000000,1.06780665,2.68438791,5.18569849,562,1413,2730,386,947,1691,0.73374767,1.79932724,3.21289919,0.37557773,0.81986575,1.66258873
