FIPS,HR_UID,nameid,province,region,analysisTime,dates,pointprevalence_025,pointprevalence_50,pointprevalence_975,pointinfections_025,pointinfections_50,pointinfections_975,pointinfectious_025,pointinfectious_50,pointinfectious_975,pointinfectiousprevalence_05,pointinfectiousprevalence_50,pointinfectiousprevalence_95,infectrate_025,infectrate_50,infectrate_975
27163,0,USMinnesotaWashington,Minnesota,Washington,2021-01-05 18:26:04.846615,2020-03-09 00:00:00.000000,0.00071125,0.00174720,0.00404103,1,4,10,0,1,3,0.00019915,0.00060690,0.00149388,0.49083756,0.63654462,0.82797013
27163,0,USMinnesotaWashington,Minnesota,Washington,2021-01-05 18:26:04.846615,2020-03-10 00:00:00.000000,0.00102627,0.00245908,0.00526707,2,6,13,0,1,4,0.00026775,0.00073122,0.00157314,0.49078686,0.63632620,0.82796862
27163,0,USMinnesotaWashington,Minnesota,Washington,2021-01-05 18:26:04.846615,2020-03-11 00:00:00.000000,0.00136710,0.00309937,0.00675765,3,8,17,0,2,4,0.00034676,0.00093532,0.00184128,0.49070611,0.63587942,0.82796572
27163,0,USMinnesotaWashington,Minnesota,Washington,2021-01-05 18:26:04.846615,2020-03-12 00:00:00.000000,0.00172907,0.00388916,0.00860840,4,10,22,1,3,6,0.00047592,0.00117139,0.00235675,0.49057765,0.63497390,0.82796013
27163,0,USMinnesotaWashington,Minnesota,Washington,2021-01-05 18:26:04.846615,2020-03-13 00:00:00.000000,0.00211802,0.00471562,0.01067749,5,12,28,1,3,8,0.00062775,0.00145618,0.00308377,0.49037362,0.63371501,0.82794932
27163,0,USMinnesotaWashington,Minnesota,Washington,2021-01-05 18:26:04.846615,2020-03-14 00:00:00.000000,0.00253896,0.00562180,0.01278676,6,14,33,2,4,9,0.00079939,0.00177165,0.00378337,0.49005044,0.63390685,0.82792839
27163,0,USMinnesotaWashington,Minnesota,Washington,2021-01-05 18:26:04.846615,2020-03-15 00:00:00.000000,0.00299643,0.00652317,0.01487928,7,17,39,2,5,12,0.00100268,0.00214405,0.00464786,0.48954075,0.63441112,0.82788772
27163,0,USMinnesotaWashington,Minnesota,Washington,2021-01-05 18:26:04.846615,2020-03-16 00:00:00.000000,0.00381064,0.00757233,0.01596651,10,19,41,3,6,14,0.00122023,0.00262183,0.00561049,0.48874231,0.62919562,0.82780614
27163,0,USMinnesotaWashington,Minnesota,Washington,2021-01-05 18:26:04.846615,2020-03-17 00:00:00.000000,0.00470139,0.00887396,0.01801211,12,23,47,3,8,17,0.00150233,0.00317519,0.00661186,0.48750457,0.62645971,0.82757161
27163,0,USMinnesotaWashington,Minnesota,Washington,2021-01-05 18:26:04.846615,2020-03-18 00:00:00.000000,0.00585002,0.01028631,0.01967541,15,26,51,4,9,20,0.00185479,0.00373964,0.00767775,0.48561617,0.61849556,0.82498254
27163,0,USMinnesotaWashington,Minnesota,Washington,2021-01-05 18:26:04.846615,2020-03-19 00:00:00.000000,0.00705931,0.01191769,0.02141530,18,31,56,5,11,23,0.00227421,0.00446855,0.00882741,0.46479604,0.61187900,0.77749286
27163,0,USMinnesotaWashington,Minnesota,Washington,2021-01-05 18:26:04.846615,2020-03-20 00:00:00.000000,0.00806977,0.01360879,0.02478186,21,35,65,7,13,26,0.00273089,0.00515722,0.01003121,0.44200065,0.58544349,0.77283318
27163,0,USMinnesotaWashington,Minnesota,Washington,2021-01-05 18:26:04.846615,2020-03-21 00:00:00.000000,0.00913235,0.01508256,0.02984737,23,39,78,8,15,28,0.00323684,0.00595684,0.01099425,0.43645392,0.56870584,0.77090960
27163,0,USMinnesotaWashington,Minnesota,Washington,2021-01-05 18:26:04.846615,2020-03-22 00:00:00.000000,0.01027998,0.01697703,0.03488148,26,44,91,9,17,33,0.00379215,0.00665115,0.01263043,0.42994912,0.56312894,0.76170661
27163,0,USMinnesotaWashington,Minnesota,Washington,2021-01-05 18:26:04.846615,2020-03-23 00:00:00.000000,0.01199915,0.01881473,0.03790265,31,49,99,11,19,37,0.00439692,0.00742616,0.01439545,0.42328601,0.55427193,0.74747582
27163,0,USMinnesotaWashington,Minnesota,Washington,2021-01-05 18:26:04.846615,2020-03-24 00:00:00.000000,0.01380789,0.02079313,0.04064867,36,54,106,13,22,42,0.00505334,0.00841220,0.01622475,0.40941170,0.52782358,0.74621593
27163,0,USMinnesotaWashington,Minnesota,Washington,2021-01-05 18:26:04.846615,2020-03-25 00:00:00.000000,0.01532751,0.02307723,0.04332191,40,60,113,15,24,47,0.00576076,0.00937767,0.01802534,0.39877321,0.51891884,0.72694192
27163,0,USMinnesotaWashington,Minnesota,Washington,2021-01-05 18:26:04.846615,2020-03-26 00:00:00.000000,0.01680478,0.02577685,0.04680549,44,67,122,16,27,52,0.00647053,0.01042319,0.01992053,0.39576801,0.51516561,0.72652976
27163,0,USMinnesotaWashington,Minnesota,Washington,2021-01-05 18:26:04.846615,2020-03-27 00:00:00.000000,0.01809249,0.02887417,0.05208796,47,75,136,18,30,57,0.00719926,0.01171857,0.02192235,0.37359433,0.50927299,0.72601083
27163,0,USMinnesotaWashington,Minnesota,Washington,2021-01-05 18:26:04.846615,2020-03-28 00:00:00.000000,0.01941901,0.03230017,0.05786259,50,84,151,20,34,63,0.00799461,0.01307574,0.02403169,0.36572626,0.49054359,0.71990082
27163,0,USMinnesotaWashington,Minnesota,Washington,2021-01-05 18:26:04.846615,2020-03-29 00:00:00.000000,0.02122806,0.03543655,0.06285705,55,92,164,23,38,69,0.00886136,0.01457556,0.02635501,0.34866850,0.48917188,0.70971695
27163,0,USMinnesotaWashington,Minnesota,Washington,2021-01-05 18:26:04.846615,2020-03-30 00:00:00.000000,0.02332309,0.03970537,0.06658076,61,104,174,26,42,75,0.00991623,0.01616486,0.02887690,0.33634758,0.48157610,0.69603405
27163,0,USMinnesotaWashington,Minnesota,Washington,2021-01-05 18:26:04.846615,2020-03-31 00:00:00.000000,0.02502174,0.04306865,0.07047197,65,113,184,29,46,82,0.01120701,0.01788877,0.03160999,0.33488112,0.47696440,0.68121457
27163,0,USMinnesotaWashington,Minnesota,Washington,2021-01-05 18:26:04.846615,2020-04-01 00:00:00.000000,0.02683694,0.04661530,0.07629498,70,122,200,31,51,90,0.01192956,0.01971591,0.03451755,0.33150097,0.46077635,0.66974409
27163,0,USMinnesotaWashington,Minnesota,Washington,2021-01-05 18:26:04.846615,2020-04-02 00:00:00.000000,0.02878033,0.05075981,0.08254795,75,133,216,34,56,98,0.01297568,0.02159701,0.03757953,0.31522630,0.45791873,0.64513308
27163,0,USMinnesotaWashington,Minnesota,Washington,2021-01-05 18:26:04.846615,2020-04-03 00:00:00.000000,0.03082411,0.05471426,0.08917575,80,143,234,36,62,107,0.01408599,0.02388647,0.04079027,0.31647416,0.44863928,0.58415890
27163,0,USMinnesotaWashington,Minnesota,Washington,2021-01-05 18:26:04.846615,2020-04-04 00:00:00.000000,0.03290367,0.05843292,0.09624251,86,153,252,39,69,115,0.01519922,0.02648019,0.04414516,0.31312981,0.43769824,0.58187174
27163,0,USMinnesotaWashington,Minnesota,Washington,2021-01-05 18:26:04.846615,2020-04-05 00:00:00.000000,0.03492455,0.06338294,0.10392584,91,166,272,42,76,124,0.01631477,0.02897464,0.04761524,0.31364337,0.43105906,0.58177785
27163,0,USMinnesotaWashington,Minnesota,Washington,2021-01-05 18:26:04.846615,2020-04-06 00:00:00.000000,0.03680897,0.06739571,0.11183560,96,176,293,45,82,139,0.01744052,0.03128026,0.05298660,0.31397052,0.42928829,0.58164870
27163,0,USMinnesotaWashington,Minnesota,Washington,2021-01-05 18:26:04.846615,2020-04-07 00:00:00.000000,0.03857321,0.07169936,0.12064181,101,188,316,48,87,153,0.01860911,0.03352179,0.05844500,0.31293590,0.42540079,0.58154659
27163,0,USMinnesotaWashington,Minnesota,Washington,2021-01-05 18:26:04.846615,2020-04-08 00:00:00.000000,0.04028756,0.07631395,0.12939903,105,200,339,52,94,166,0.01982537,0.03594018,0.06345144,0.31333397,0.42723106,0.58052641
27163,0,USMinnesotaWashington,Minnesota,Washington,2021-01-05 18:26:04.846615,2020-04-09 00:00:00.000000,0.04201365,0.08196895,0.13632406,110,215,357,55,101,177,0.02109562,0.03848966,0.06762216,0.31330815,0.42998323,0.56262019
27163,0,USMinnesotaWashington,Minnesota,Washington,2021-01-05 18:26:04.846615,2020-04-10 00:00:00.000000,0.04379244,0.08788542,0.14325800,114,230,375,58,106,189,0.02242767,0.04069133,0.07208713,0.31195171,0.43518894,0.55721701
27163,0,USMinnesotaWashington,Minnesota,Washington,2021-01-05 18:26:04.846615,2020-04-11 00:00:00.000000,0.04606548,0.09262538,0.15363250,120,243,403,62,113,201,0.02374608,0.04337467,0.07686698,0.31310481,0.42598626,0.55556863
27163,0,USMinnesotaWashington,Minnesota,Washington,2021-01-05 18:26:04.846615,2020-04-12 00:00:00.000000,0.04907401,0.09842709,0.16455665,128,258,431,65,122,215,0.02481817,0.04659558,0.08198424,0.30941295,0.41476677,0.55580059
27163,0,USMinnesotaWashington,Minnesota,Washington,2021-01-05 18:26:04.846615,2020-04-13 00:00:00.000000,0.05271288,0.10488836,0.17590163,138,275,461,68,130,229,0.02592746,0.04979626,0.08746695,0.29345977,0.41240880,0.55198870
27163,0,USMinnesotaWashington,Minnesota,Washington,2021-01-05 18:26:04.846615,2020-04-14 00:00:00.000000,0.05653709,0.11211601,0.18774953,148,294,492,72,139,244,0.02743860,0.05302836,0.09326469,0.29253440,0.42096344,0.55995104
27163,0,USMinnesotaWashington,Minnesota,Washington,2021-01-05 18:26:04.846615,2020-04-15 00:00:00.000000,0.06057002,0.11783679,0.20006197,158,309,525,76,147,260,0.02913477,0.05628176,0.09942871,0.30247482,0.42379690,0.56141138
27163,0,USMinnesotaWashington,Minnesota,Washington,2021-01-05 18:26:04.846615,2020-04-16 00:00:00.000000,0.06450104,0.12547321,0.21283091,169,329,558,81,155,278,0.03095418,0.05927358,0.10605940,0.30253629,0.42731040,0.55712922
27163,0,USMinnesotaWashington,Minnesota,Washington,2021-01-05 18:26:04.846615,2020-04-17 00:00:00.000000,0.06923773,0.13268032,0.22609801,181,348,593,85,164,297,0.03275489,0.06267616,0.11329260,0.30440921,0.43435460,0.55846865
27163,0,USMinnesotaWashington,Minnesota,Washington,2021-01-05 18:26:04.846615,2020-04-18 00:00:00.000000,0.07442262,0.14167712,0.23988033,195,371,629,91,175,318,0.03471813,0.06691904,0.12130554,0.32301825,0.42875330,0.56719657
27163,0,USMinnesotaWashington,Minnesota,Washington,2021-01-05 18:26:04.846615,2020-04-19 00:00:00.000000,0.08119142,0.15207233,0.25419078,213,399,667,96,187,341,0.03686711,0.07133540,0.13025109,0.32661408,0.42698322,0.61029789
27163,0,USMinnesotaWashington,Minnesota,Washington,2021-01-05 18:26:04.846615,2020-04-20 00:00:00.000000,0.08868508,0.16266304,0.26865903,232,426,705,102,196,367,0.03921599,0.07489873,0.14020686,0.30110632,0.42115083,0.61190939
27163,0,USMinnesotaWashington,Minnesota,Washington,2021-01-05 18:26:04.846615,2020-04-21 00:00:00.000000,0.09696928,0.17310205,0.28390225,254,454,745,109,208,396,0.04168163,0.07953034,0.15121388,0.28983720,0.42290016,0.61213846
27163,0,USMinnesotaWashington,Minnesota,Washington,2021-01-05 18:26:04.846615,2020-04-22 00:00:00.000000,0.10600457,0.18512914,0.29993477,278,485,787,116,221,421,0.04428618,0.08436986,0.16059634,0.28411851,0.41940928,0.61130210
27163,0,USMinnesotaWashington,Minnesota,Washington,2021-01-05 18:26:04.846615,2020-04-23 00:00:00.000000,0.11583683,0.19484969,0.31673389,304,511,831,124,236,445,0.04729201,0.09004144,0.16988089,0.27013658,0.42817530,0.60797471
27163,0,USMinnesotaWashington,Minnesota,Washington,2021-01-05 18:26:04.846615,2020-04-24 00:00:00.000000,0.12653935,0.20485940,0.33437204,332,537,877,133,251,471,0.05070687,0.09569111,0.17963126,0.27007003,0.42810398,0.62376919
27163,0,USMinnesotaWashington,Minnesota,Washington,2021-01-05 18:26:04.846615,2020-04-25 00:00:00.000000,0.13818402,0.21481429,0.35548745,362,563,932,142,264,499,0.05439202,0.10080718,0.19014308,0.27106741,0.42351375,0.61752774
27163,0,USMinnesotaWashington,Minnesota,Washington,2021-01-05 18:26:04.846615,2020-04-26 00:00:00.000000,0.15084049,0.22679605,0.37751385,395,595,990,151,279,529,0.05791651,0.10667575,0.20184352,0.27335637,0.43806339,0.61558513
27163,0,USMinnesotaWashington,Minnesota,Washington,2021-01-05 18:26:04.846615,2020-04-27 00:00:00.000000,0.16087707,0.23887509,0.39797758,422,626,1044,159,296,564,0.06078370,0.11307935,0.21505054,0.28693362,0.44678057,0.62559994
27163,0,USMinnesotaWashington,Minnesota,Washington,2021-01-05 18:26:04.846615,2020-04-28 00:00:00.000000,0.17017418,0.25381131,0.41838576,446,666,1098,167,315,602,0.06373971,0.12014496,0.22967784,0.29442673,0.44205138,0.61891788
27163,0,USMinnesotaWashington,Minnesota,Washington,2021-01-05 18:26:04.846615,2020-04-29 00:00:00.000000,0.17997090,0.27081066,0.44750843,472,710,1174,176,331,640,0.06729727,0.12616139,0.24408709,0.29590391,0.44428613,0.60120111
27163,0,USMinnesotaWashington,Minnesota,Washington,2021-01-05 18:26:04.846615,2020-04-30 00:00:00.000000,0.19029726,0.28965488,0.47967519,499,760,1258,187,348,672,0.07157046,0.13260775,0.25632913,0.28699493,0.43541203,0.61013902
27163,0,USMinnesotaWashington,Minnesota,Washington,2021-01-05 18:26:04.846615,2020-05-01 00:00:00.000000,0.20119010,0.30859820,0.51328039,528,809,1347,200,368,704,0.07629286,0.14047139,0.26845668,0.28644012,0.43363539,0.59797678
27163,0,USMinnesotaWashington,Minnesota,Washington,2021-01-05 18:26:04.846615,2020-05-02 00:00:00.000000,0.21270463,0.32890698,0.54694706,558,863,1435,213,392,736,0.08151087,0.14942453,0.28051336,0.28895275,0.44199335,0.60673461
27163,0,USMinnesotaWashington,Minnesota,Washington,2021-01-05 18:26:04.846615,2020-05-03 00:00:00.000000,0.22495753,0.34488555,0.57779205,590,905,1516,228,418,767,0.08721931,0.15953668,0.29259358,0.28788950,0.43882569,0.60441177
27163,0,USMinnesotaWashington,Minnesota,Washington,2021-01-05 18:26:04.846615,2020-05-04 00:00:00.000000,0.23859255,0.36759156,0.60304541,626,964,1582,245,450,799,0.09341644,0.17175311,0.30479322,0.27699027,0.42888716,0.58108713
27163,0,USMinnesotaWashington,Minnesota,Washington,2021-01-05 18:26:04.846615,2020-05-05 00:00:00.000000,0.25337652,0.39118166,0.62461754,664,1026,1639,261,483,832,0.09954517,0.18420045,0.31723123,0.27671025,0.41686771,0.58214381
27163,0,USMinnesotaWashington,Minnesota,Washington,2021-01-05 18:26:04.846615,2020-05-06 00:00:00.000000,0.26918646,0.41308690,0.64435037,706,1084,1691,278,517,878,0.10607571,0.19736503,0.33462578,0.27665732,0.40901900,0.58201274
27163,0,USMinnesotaWashington,Minnesota,Washington,2021-01-05 18:26:04.846615,2020-05-07 00:00:00.000000,0.28582437,0.43650204,0.66252312,750,1145,1738,296,548,928,0.11316371,0.20910538,0.35373556,0.27665859,0.39867630,0.57049872
27163,0,USMinnesotaWashington,Minnesota,Washington,2021-01-05 18:26:04.846615,2020-05-08 00:00:00.000000,0.30313701,0.46258172,0.67839539,795,1213,1780,316,579,979,0.12076802,0.22073201,0.37315886,0.27259228,0.38236239,0.55243542
27163,0,USMinnesotaWashington,Minnesota,Washington,2021-01-05 18:26:04.846615,2020-05-09 00:00:00.000000,0.32092467,0.48850524,0.71171069,842,1282,1867,338,615,1029,0.12887207,0.23448673,0.39244603,0.26973077,0.37106804,0.55162056
27163,0,USMinnesotaWashington,Minnesota,Washington,2021-01-05 18:26:04.846615,2020-05-10 00:00:00.000000,0.33885306,0.50601302,0.74936855,889,1327,1966,360,650,1079,0.13742122,0.24767661,0.41128374,0.26500840,0.35288274,0.54670807
27163,0,USMinnesotaWashington,Minnesota,Washington,2021-01-05 18:26:04.846615,2020-05-11 00:00:00.000000,0.35325035,0.52118498,0.78576060,927,1367,2062,382,679,1132,0.14589356,0.25891684,0.43156175,0.26117568,0.35152743,0.54719293
27163,0,USMinnesotaWashington,Minnesota,Washington,2021-01-05 18:26:04.846615,2020-05-12 00:00:00.000000,0.36498445,0.53801625,0.81512701,957,1411,2139,399,709,1175,0.15231273,0.27049090,0.44792848,0.23058845,0.34379528,0.55947484
27163,0,USMinnesotaWashington,Minnesota,Washington,2021-01-05 18:26:04.846615,2020-05-13 00:00:00.000000,0.37440925,0.55716294,0.83419084,982,1462,2189,413,739,1226,0.15767306,0.28195583,0.46715800,0.22130430,0.32876086,0.56029633
27163,0,USMinnesotaWashington,Minnesota,Washington,2021-01-05 18:26:04.846615,2020-05-14 00:00:00.000000,0.38391517,0.57911131,0.84708947,1007,1519,2223,437,774,1300,0.16667117,0.29512791,0.49550596,0.21438250,0.32120642,0.54341897
27163,0,USMinnesotaWashington,Minnesota,Washington,2021-01-05 18:26:04.846615,2020-05-15 00:00:00.000000,0.39341127,0.59739379,0.85809744,1032,1567,2251,459,811,1342,0.17519375,0.30926430,0.51155349,0.20776369,0.30971660,0.50285705
27163,0,USMinnesotaWashington,Minnesota,Washington,2021-01-05 18:26:04.846615,2020-05-16 00:00:00.000000,0.40265448,0.61341187,0.88396377,1056,1609,2319,479,840,1378,0.18287227,0.32027657,0.52518809,0.20432072,0.29577041,0.46481555
27163,0,USMinnesotaWashington,Minnesota,Washington,2021-01-05 18:26:04.846615,2020-05-17 00:00:00.000000,0.41104829,0.62690238,0.90821187,1078,1645,2383,497,863,1423,0.18959586,0.32883981,0.54225268,0.19260048,0.28703614,0.44409228
27163,0,USMinnesotaWashington,Minnesota,Washington,2021-01-05 18:26:04.846615,2020-05-18 00:00:00.000000,0.41849375,0.63370875,0.93065754,1098,1663,2442,513,884,1469,0.19550465,0.33714428,0.55980458,0.17867132,0.27368102,0.42680832
27163,0,USMinnesotaWashington,Minnesota,Washington,2021-01-05 18:26:04.846615,2020-05-19 00:00:00.000000,0.42447756,0.64160721,0.95238656,1113,1683,2499,526,895,1508,0.20076065,0.34128345,0.57497768,0.17148154,0.26651757,0.40791397
27163,0,USMinnesotaWashington,Minnesota,Washington,2021-01-05 18:26:04.846615,2020-05-20 00:00:00.000000,0.43104188,0.65395403,0.97210513,1131,1716,2551,539,914,1517,0.20560174,0.34841019,0.57817588,0.16766863,0.25851989,0.38562294
27163,0,USMinnesotaWashington,Minnesota,Washington,2021-01-05 18:26:04.846615,2020-05-21 00:00:00.000000,0.43454606,0.66691280,0.99576018,1140,1750,2613,551,927,1520,0.20999253,0.35340897,0.57941641,0.16710061,0.25017536,0.35234244
27163,0,USMinnesotaWashington,Minnesota,Washington,2021-01-05 18:26:04.846615,2020-05-22 00:00:00.000000,0.43398980,0.66960308,1.00961221,1138,1757,2649,558,933,1546,0.21264080,0.35580484,0.58911788,0.16484047,0.23951914,0.34351650
27163,0,USMinnesotaWashington,Minnesota,Washington,2021-01-05 18:26:04.846615,2020-05-23 00:00:00.000000,0.43234793,0.67242403,1.00476725,1134,1764,2636,561,940,1567,0.21400091,0.35824967,0.59741410,0.16439909,0.23423533,0.34105300
27163,0,USMinnesotaWashington,Minnesota,Washington,2021-01-05 18:26:04.846615,2020-05-24 00:00:00.000000,0.43036428,0.67519336,1.01036059,1129,1771,2651,563,952,1585,0.21453054,0.36303508,0.60420330,0.15531349,0.23192842,0.33549073
27163,0,USMinnesotaWashington,Minnesota,Washington,2021-01-05 18:26:04.846615,2020-05-25 00:00:00.000000,0.42867695,0.67120149,1.01618719,1125,1761,2666,562,956,1600,0.21447308,0.36456704,0.60993075,0.15520498,0.22590800,0.33356830
27163,0,USMinnesotaWashington,Minnesota,Washington,2021-01-05 18:26:04.846615,2020-05-26 00:00:00.000000,0.42687453,0.67687745,1.02136234,1120,1776,2680,561,952,1622,0.21400214,0.36286171,0.61833910,0.14694989,0.22301120,0.33217380
27163,0,USMinnesotaWashington,Minnesota,Washington,2021-01-05 18:26:04.846615,2020-05-27 00:00:00.000000,0.42501416,0.68260146,1.02590164,1115,1791,2692,559,947,1641,0.21326674,0.36098047,0.62565169,0.14729581,0.22062216,0.33157315
27163,0,USMinnesotaWashington,Minnesota,Washington,2021-01-05 18:26:04.846615,2020-05-28 00:00:00.000000,0.42311893,0.67710815,1.02967944,1110,1777,2702,557,954,1658,0.21236630,0.36379453,0.63208916,0.14830698,0.21681566,0.32944437
27163,0,USMinnesotaWashington,Minnesota,Washington,2021-01-05 18:26:04.846615,2020-05-29 00:00:00.000000,0.42116101,0.67404116,1.03253677,1105,1768,2709,559,965,1673,0.21335641,0.36799927,0.63781926,0.14936223,0.21239980,0.32845401
27163,0,USMinnesotaWashington,Minnesota,Washington,2021-01-05 18:26:04.846615,2020-05-30 00:00:00.000000,0.41877125,0.67127593,1.03434232,1099,1761,2714,563,968,1687,0.21477137,0.36902055,0.64289872,0.14605076,0.21177998,0.32308103
27163,0,USMinnesotaWashington,Minnesota,Washington,2021-01-05 18:26:04.846615,2020-05-31 00:00:00.000000,0.42217166,0.67115654,1.03504595,1107,1761,2716,561,970,1698,0.21376570,0.36992403,0.64725684,0.14305120,0.20992856,0.31232566
27163,0,USMinnesotaWashington,Minnesota,Washington,2021-01-05 18:26:04.846615,2020-06-01 00:00:00.000000,0.42488183,0.67172999,1.03399329,1115,1762,2713,557,975,1707,0.21232961,0.37161871,0.65076069,0.14159337,0.21125985,0.29911346
27163,0,USMinnesotaWashington,Minnesota,Washington,2021-01-05 18:26:04.846615,2020-06-02 00:00:00.000000,0.42636616,0.67203124,1.03204897,1118,1763,2708,552,977,1714,0.21052135,0.37263202,0.65320172,0.14120040,0.21114679,0.29348944
27163,0,USMinnesotaWashington,Minnesota,Washington,2021-01-05 18:26:04.846615,2020-06-03 00:00:00.000000,0.42726322,0.67031216,1.02947236,1121,1759,2701,547,979,1718,0.20847773,0.37315749,0.65470303,0.14131515,0.21026312,0.29449734
27163,0,USMinnesotaWashington,Minnesota,Washington,2021-01-05 18:26:04.846615,2020-06-04 00:00:00.000000,0.42788851,0.66958491,1.02688369,1122,1757,2694,541,980,1720,0.20630882,0.37370021,0.65547832,0.14180943,0.21052820,0.29604721
27163,0,USMinnesotaWashington,Minnesota,Washington,2021-01-05 18:26:04.846615,2020-06-05 00:00:00.000000,0.42831868,0.66910555,1.02622133,1124,1756,2693,535,983,1722,0.20410059,0.37487120,0.65631157,0.14278730,0.21366458,0.29874801
27163,0,USMinnesotaWashington,Minnesota,Washington,2021-01-05 18:26:04.846615,2020-06-06 00:00:00.000000,0.42853253,0.66416746,1.03242840,1124,1743,2709,530,981,1728,0.20212350,0.37393796,0.65865024,0.14444532,0.21299927,0.30287182
27163,0,USMinnesotaWashington,Minnesota,Washington,2021-01-05 18:26:04.846615,2020-06-07 00:00:00.000000,0.42809137,0.66139889,1.04892359,1123,1735,2752,528,979,1738,0.20135703,0.37338392,0.66230636,0.14697846,0.21801735,0.30782372
27163,0,USMinnesotaWashington,Minnesota,Washington,2021-01-05 18:26:04.846615,2020-06-08 00:00:00.000000,0.42550022,0.65930413,1.07179830,1116,1730,2812,527,973,1750,0.20086558,0.37110697,0.66696074,0.14639069,0.22108896,0.31238936
27163,0,USMinnesotaWashington,Minnesota,Washington,2021-01-05 18:26:04.846615,2020-06-09 00:00:00.000000,0.42019614,0.66065718,1.09674606,1102,1733,2878,526,966,1764,0.20072696,0.36841035,0.67235632,0.14123022,0.22309709,0.32763154
27163,0,USMinnesotaWashington,Minnesota,Washington,2021-01-05 18:26:04.846615,2020-06-10 00:00:00.000000,0.41391513,0.65944103,1.12261150,1086,1730,2946,527,960,1780,0.20086155,0.36600832,0.67828668,0.14204508,0.22806844,0.32278625
27163,0,USMinnesotaWashington,Minnesota,Washington,2021-01-05 18:26:04.846615,2020-06-11 00:00:00.000000,0.40807607,0.66660548,1.14916347,1070,1749,3015,528,962,1796,0.20122238,0.36682967,0.68459046,0.16193924,0.23188867,0.32526586
27163,0,USMinnesotaWashington,Minnesota,Washington,2021-01-05 18:26:04.846615,2020-06-12 00:00:00.000000,0.40489008,0.67143852,1.17445687,1062,1762,3082,529,973,1813,0.20178840,0.37112333,0.69113055,0.17008379,0.23784690,0.33398859
27163,0,USMinnesotaWashington,Minnesota,Washington,2021-01-05 18:26:04.846615,2020-06-13 00:00:00.000000,0.40729776,0.67245843,1.19034088,1068,1764,3123,531,975,1831,0.20255611,0.37169523,0.69776897,0.17065725,0.23935986,0.34485534
27163,0,USMinnesotaWashington,Minnesota,Washington,2021-01-05 18:26:04.846615,2020-06-14 00:00:00.000000,0.41005000,0.67978578,1.20989660,1076,1784,3175,534,987,1848,0.20352460,0.37626446,0.70435563,0.17007369,0.24330746,0.35390889
27163,0,USMinnesotaWashington,Minnesota,Washington,2021-01-05 18:26:04.846615,2020-06-15 00:00:00.000000,0.41317586,0.68800646,1.23239188,1084,1805,3234,537,987,1865,0.20468432,0.37641748,0.71074897,0.16771665,0.24270362,0.35916193
27163,0,USMinnesotaWashington,Minnesota,Washington,2021-01-05 18:26:04.846615,2020-06-16 00:00:00.000000,0.41689207,0.69322311,1.24913881,1094,1819,3278,540,998,1881,0.20602505,0.38055962,0.71693773,0.16701302,0.24324202,0.36156942
27163,0,USMinnesotaWashington,Minnesota,Washington,2021-01-05 18:26:04.846615,2020-06-17 00:00:00.000000,0.42163273,0.70079773,1.24464164,1106,1839,3266,544,1003,1897,0.20758946,0.38239602,0.72296623,0.16729756,0.24373794,0.36242963
27163,0,USMinnesotaWashington,Minnesota,Washington,2021-01-05 18:26:04.846615,2020-06-18 00:00:00.000000,0.42805869,0.71326601,1.24169541,1123,1871,3258,544,1002,1913,0.20745058,0.38202498,0.72893927,0.16743110,0.24543822,0.36244598
27163,0,USMinnesotaWashington,Minnesota,Washington,2021-01-05 18:26:04.846615,2020-06-19 00:00:00.000000,0.43684581,0.71909905,1.24212750,1146,1887,3259,548,1006,1928,0.20896458,0.38346709,0.73469164,0.17313405,0.24575213,0.36220197
27163,0,USMinnesotaWashington,Minnesota,Washington,2021-01-05 18:26:04.846615,2020-06-20 00:00:00.000000,0.44796052,0.72641726,1.24874084,1175,1906,3277,559,1013,1943,0.21329116,0.38606298,0.74067743,0.19283394,0.25276939,0.36141654
27163,0,USMinnesotaWashington,Minnesota,Washington,2021-01-05 18:26:04.846615,2020-06-21 00:00:00.000000,0.46160364,0.73527602,1.26519298,1211,1929,3320,571,1022,1960,0.21780309,0.38960703,0.74716667,0.19711289,0.25959499,0.36704306
27163,0,USMinnesotaWashington,Minnesota,Washington,2021-01-05 18:26:04.846615,2020-06-22 00:00:00.000000,0.46682395,0.74919192,1.29109441,1225,1966,3388,579,1032,2000,0.22070628,0.39325710,0.76230309,0.19440054,0.26820367,0.38325651
27163,0,USMinnesotaWashington,Minnesota,Washington,2021-01-05 18:26:04.846615,2020-06-23 00:00:00.000000,0.47681411,0.76334550,1.31766145,1251,2003,3458,581,1048,2042,0.22154312,0.39948586,0.77842444,0.19360689,0.27246029,0.39103478
27163,0,USMinnesotaWashington,Minnesota,Washington,2021-01-05 18:26:04.846615,2020-06-24 00:00:00.000000,0.48720607,0.77481429,1.34217142,1278,2033,3522,585,1065,2085,0.22322586,0.40591686,0.79482536,0.19330126,0.27796193,0.39569469
27163,0,USMinnesotaWashington,Minnesota,Washington,2021-01-05 18:26:04.846615,2020-06-25 00:00:00.000000,0.49823406,0.78697349,1.35759068,1307,2065,3562,592,1083,2129,0.22577523,0.41278771,0.81149391,0.19334217,0.28855131,0.39653260
27163,0,USMinnesotaWashington,Minnesota,Washington,2021-01-05 18:26:04.846615,2020-06-26 00:00:00.000000,0.51024142,0.80215318,1.38580328,1339,2105,3636,601,1091,2173,0.22921923,0.41572769,0.82826860,0.19351117,0.29613974,0.41347840
27163,0,USMinnesotaWashington,Minnesota,Washington,2021-01-05 18:26:04.846615,2020-06-27 00:00:00.000000,0.52352022,0.81913911,1.41185847,1373,2149,3705,613,1112,2216,0.23361078,0.42395538,0.84462755,0.19377424,0.30062370,0.40435317
27163,0,USMinnesotaWashington,Minnesota,Washington,2021-01-05 18:26:04.846615,2020-06-28 00:00:00.000000,0.53808696,0.83716328,1.42138048,1412,2197,3730,618,1131,2255,0.23572613,0.43121442,0.85954988,0.19384162,0.30687874,0.41751734
27163,0,USMinnesotaWashington,Minnesota,Washington,2021-01-05 18:26:04.846615,2020-06-29 00:00:00.000000,0.55381779,0.85590971,1.42752322,1453,2246,3746,624,1161,2288,0.23801573,0.44259215,0.87213980,0.19390972,0.30988117,0.43539322
27163,0,USMinnesotaWashington,Minnesota,Washington,2021-01-05 18:26:04.846615,2020-06-30 00:00:00.000000,0.57036764,0.87856677,1.47755400,1496,2305,3877,631,1195,2344,0.24069623,0.45544941,0.89343707,0.19395736,0.30609639,0.43979096
27163,0,USMinnesotaWashington,Minnesota,Washington,2021-01-05 18:26:04.846615,2020-07-01 00:00:00.000000,0.58757428,0.89893551,1.52229518,1542,2359,3995,639,1211,2382,0.24371033,0.46181103,0.90768367,0.19401847,0.30114538,0.44452021
27163,0,USMinnesotaWashington,Minnesota,Washington,2021-01-05 18:26:04.846615,2020-07-02 00:00:00.000000,0.60533158,0.92615838,1.54026164,1588,2430,4042,648,1242,2395,0.24701545,0.47327839,0.91264391,0.19412740,0.30352930,0.43998852
27163,0,USMinnesotaWashington,Minnesota,Washington,2021-01-05 18:26:04.846615,2020-07-03 00:00:00.000000,0.62349205,0.95315759,1.55737690,1636,2501,4087,657,1281,2407,0.25062128,0.48840416,0.91743979,0.19440287,0.30130094,0.43919039
27163,0,USMinnesotaWashington,Minnesota,Washington,2021-01-05 18:26:04.846615,2020-07-04 00:00:00.000000,0.64190084,0.97659595,1.57389584,1684,2562,4130,668,1313,2421,0.25482705,0.50067398,0.92270674,0.19726580,0.30885886,0.44203056
27163,0,USMinnesotaWashington,Minnesota,Washington,2021-01-05 18:26:04.846615,2020-07-05 00:00:00.000000,0.66067686,1.00007002,1.58949665,1733,2624,4171,683,1361,2462,0.26046588,0.51867086,0.93833857,0.19563329,0.30740509,0.43534759
27163,0,USMinnesotaWashington,Minnesota,Washington,2021-01-05 18:26:04.846615,2020-07-06 00:00:00.000000,0.67714823,1.02613147,1.63353130,1777,2692,4287,702,1390,2520,0.26776447,0.52986823,0.96040666,0.19737943,0.30622712,0.45660067
27163,0,USMinnesotaWashington,Minnesota,Washington,2021-01-05 18:26:04.846615,2020-07-07 00:00:00.000000,0.68869457,1.05141948,1.69129531,1807,2759,4438,724,1429,2579,0.27624953,0.54476112,0.98299633,0.19993311,0.30492680,0.46983204
27163,0,USMinnesotaWashington,Minnesota,Washington,2021-01-05 18:26:04.846615,2020-07-08 00:00:00.000000,0.70034949,1.07087259,1.69400806,1837,2810,4445,749,1460,2639,0.28566368,0.55653722,1.00579167,0.20235856,0.31324800,0.47452917
27163,0,USMinnesotaWashington,Minnesota,Washington,2021-01-05 18:26:04.846615,2020-07-09 00:00:00.000000,0.71210927,1.09003673,1.69575267,1868,2860,4450,776,1493,2697,0.29581719,0.56910855,1.02798818,0.20400092,0.30938142,0.48278072
27163,0,USMinnesotaWashington,Minnesota,Washington,2021-01-05 18:26:04.846615,2020-07-10 00:00:00.000000,0.72393932,1.10907535,1.69642616,1899,2910,4452,804,1524,2753,0.30655291,0.58090597,1.04903070,0.20510899,0.30746983,0.48183472
27163,0,USMinnesotaWashington,Minnesota,Washington,2021-01-05 18:26:04.846615,2020-07-11 00:00:00.000000,0.73578811,1.13264435,1.69926976,1931,2972,4459,833,1552,2804,0.31766166,0.59161667,1.06875787,0.20589517,0.30548434,0.45838500
27163,0,USMinnesotaWashington,Minnesota,Washington,2021-01-05 18:26:04.846615,2020-07-12 00:00:00.000000,0.74801891,1.15070569,1.72367310,1963,3019,4523,862,1580,2843,0.32875696,0.60205603,1.08343923,0.20645450,0.29563095,0.45742965
27163,0,USMinnesotaWashington,Minnesota,Washington,2021-01-05 18:26:04.846615,2020-07-13 00:00:00.000000,0.75890500,1.17405134,1.74839656,1991,3081,4588,890,1607,2847,0.33934093,0.61242657,1.08511066,0.20673914,0.29847170,0.46188582
27163,0,USMinnesotaWashington,Minnesota,Washington,2021-01-05 18:26:04.846615,2020-07-14 00:00:00.000000,0.78572109,1.19269372,1.79671077,2062,3130,4715,916,1642,2885,0.34932973,0.62577387,1.09954901,0.20745289,0.30029333,0.43471036
27163,0,USMinnesotaWashington,Minnesota,Washington,2021-01-05 18:26:04.846615,2020-07-15 00:00:00.000000,0.81370651,1.21602540,1.86038349,2135,3191,4882,941,1689,2952,0.35867213,0.64368497,1.12490022,0.20418274,0.29971963,0.43599686
27163,0,USMinnesotaWashington,Minnesota,Washington,2021-01-05 18:26:04.846615,2020-07-16 00:00:00.000000,0.83922362,1.24526019,1.92598870,2202,3268,5054,963,1727,3019,0.36713113,0.65814307,1.15059652,0.20328616,0.30099637,0.44062424
27163,0,USMinnesotaWashington,Minnesota,Washington,2021-01-05 18:26:04.846615,2020-07-17 00:00:00.000000,0.86139431,1.27620871,1.99311767,2260,3349,5230,983,1770,3078,0.37477787,0.67455644,1.17320614,0.20155311,0.29868372,0.44755959
27163,0,USMinnesotaWashington,Minnesota,Washington,2021-01-05 18:26:04.846615,2020-07-18 00:00:00.000000,0.87959744,1.30784517,2.02286437,2308,3432,5308,1002,1817,3122,0.38186399,0.69250609,1.18961170,0.19184964,0.29694548,0.42309459
27163,0,USMinnesotaWashington,Minnesota,Washington,2021-01-05 18:26:04.846615,2020-07-19 00:00:00.000000,0.89378791,1.33634498,2.02367807,2345,3507,5310,1019,1860,3164,0.38858348,0.70897723,1.20576856,0.18828911,0.29739955,0.41144324
27163,0,USMinnesotaWashington,Minnesota,Washington,2021-01-05 18:26:04.846615,2020-07-20 00:00:00.000000,0.90617859,1.36230686,2.02755685,2378,3575,5321,1036,1895,3206,0.39506854,0.72209179,1.22173384,0.18527067,0.29605953,0.43007246
27163,0,USMinnesotaWashington,Minnesota,Washington,2021-01-05 18:26:04.846615,2020-07-21 00:00:00.000000,0.91557317,1.38790001,2.06751672,2402,3642,5425,1053,1923,3247,0.40126716,0.73302257,1.23742056,0.18407127,0.29445655,0.41029367
27163,0,USMinnesotaWashington,Minnesota,Washington,2021-01-05 18:26:04.846615,2020-07-22 00:00:00.000000,0.92319001,1.40960305,2.10760858,2422,3699,5531,1068,1951,3288,0.40728573,0.74377896,1.25292505,0.18392119,0.29498858,0.41033635
27163,0,USMinnesotaWashington,Minnesota,Washington,2021-01-05 18:26:04.846615,2020-07-23 00:00:00.000000,0.93036029,1.42623445,2.14761312,2441,3743,5636,1080,1981,3328,0.41171751,0.75507036,1.26831639,0.18127372,0.29226391,0.41031850
27163,0,USMinnesotaWashington,Minnesota,Washington,2021-01-05 18:26:04.846615,2020-07-24 00:00:00.000000,0.93824380,1.45173305,2.18714837,2462,3809,5739,1092,2015,3368,0.41613522,0.76785592,1.28364346,0.17607663,0.29136039,0.41025543
27163,0,USMinnesotaWashington,Minnesota,Washington,2021-01-05 18:26:04.846615,2020-07-25 00:00:00.000000,0.94725106,1.48202716,2.22571815,2485,3889,5841,1104,2035,3410,0.42072851,0.77544058,1.29949607,0.17333123,0.28616558,0.41012931
27163,0,USMinnesotaWashington,Minnesota,Washington,2021-01-05 18:26:04.846615,2020-07-26 00:00:00.000000,0.95711850,1.51701078,2.26273503,2511,3981,5938,1118,2070,3489,0.42602048,0.78889468,1.32978983,0.17288782,0.28371008,0.41571455
27163,0,USMinnesotaWashington,Minnesota,Washington,2021-01-05 18:26:04.846615,2020-07-27 00:00:00.000000,0.96593038,1.52837389,2.29696335,2534,4011,6028,1147,2099,3570,0.43713431,0.79983794,1.36066184,0.17562893,0.28002250,0.42705957
27163,0,USMinnesotaWashington,Minnesota,Washington,2021-01-05 18:26:04.846615,2020-07-28 00:00:00.000000,0.98517016,1.54954330,2.32797714,2585,4066,6109,1166,2138,3653,0.44433377,0.81488172,1.39209626,0.17815349,0.27829291,0.41910425
27163,0,USMinnesotaWashington,Minnesota,Washington,2021-01-05 18:26:04.846615,2020-07-29 00:00:00.000000,1.02465216,1.57105893,2.35492866,2689,4123,6180,1188,2170,3735,0.45277876,0.82691274,1.42332657,0.17828488,0.27833020,0.42543744
27163,0,USMinnesotaWashington,Minnesota,Washington,2021-01-05 18:26:04.846615,2020-07-30 00:00:00.000000,1.06840440,1.59099523,2.37148510,2803,4175,6223,1213,2201,3805,0.46255656,0.83904031,1.44989225,0.17862649,0.27690034,0.43845346
27163,0,USMinnesotaWashington,Minnesota,Washington,2021-01-05 18:26:04.846615,2020-07-31 00:00:00.000000,1.08648539,1.62101531,2.39723455,2851,4254,6291,1243,2235,3865,0.47375024,0.85192235,1.47298633,0.17940638,0.27416472,0.44022284
27163,0,USMinnesotaWashington,Minnesota,Washington,2021-01-05 18:26:04.846615,2020-08-01 00:00:00.000000,1.08498991,1.65089789,2.41656790,2847,4332,6342,1277,2271,3922,0.48680690,0.86545488,1.49456273,0.18103195,0.27569416,0.40023095
27163,0,USMinnesotaWashington,Minnesota,Washington,2021-01-05 18:26:04.846615,2020-08-02 00:00:00.000000,1.08339212,1.67652820,2.44027357,2843,4399,6404,1319,2308,3978,0.50277780,0.87945354,1.51596938,0.18116697,0.27431182,0.38889920
27163,0,USMinnesotaWashington,Minnesota,Washington,2021-01-05 18:26:04.846615,2020-08-03 00:00:00.000000,1.07880855,1.69586321,2.45048271,2831,4450,6431,1371,2331,4035,0.52249959,0.88844182,1.53781897,0.18076630,0.27233948,0.38664409
27163,0,USMinnesotaWashington,Minnesota,Washington,2021-01-05 18:26:04.846615,2020-08-04 00:00:00.000000,1.07894965,1.70812343,2.45858960,2831,4482,6452,1428,2350,4094,0.54428501,0.89554492,1.56035304,0.18190629,0.27024708,0.38997290
27163,0,USMinnesotaWashington,Minnesota,Washington,2021-01-05 18:26:04.846615,2020-08-05 00:00:00.000000,1.10132708,1.72729424,2.49492955,2890,4533,6547,1456,2376,4200,0.55500986,0.90571904,1.60071413,0.18408309,0.26827483,0.39953517
27163,0,USMinnesotaWashington,Minnesota,Washington,2021-01-05 18:26:04.846615,2020-08-06 00:00:00.000000,1.12438051,1.74284684,2.53490676,2950,4573,6652,1480,2421,4273,0.56408074,0.92265494,1.62839941,0.18691607,0.26858839,0.39502614
27163,0,USMinnesotaWashington,Minnesota,Washington,2021-01-05 18:26:04.846615,2020-08-07 00:00:00.000000,1.14669332,1.76105474,2.56854390,3009,4621,6740,1504,2462,4317,0.57333120,0.93820872,1.64522501,0.18986271,0.26928446,0.39441882
27163,0,USMinnesotaWashington,Minnesota,Washington,2021-01-05 18:26:04.846615,2020-08-08 00:00:00.000000,1.16590201,1.77829248,2.60511241,3059,4666,6836,1529,2491,4359,0.58281479,0.94954737,1.66107261,0.19237123,0.27001094,0.39439807
27163,0,USMinnesotaWashington,Minnesota,Washington,2021-01-05 18:26:04.846615,2020-08-09 00:00:00.000000,1.18131199,1.79729034,2.64033914,3100,4716,6929,1554,2521,4404,0.59249736,0.96064974,1.67840563,0.19393048,0.27399009,0.39736130
27163,0,USMinnesotaWashington,Minnesota,Washington,2021-01-05 18:26:04.846615,2020-08-10 00:00:00.000000,1.20042615,1.82940002,2.66648048,3150,4801,6997,1556,2549,4466,0.59298808,0.97152364,1.70198514,0.19109590,0.27667901,0.40048785
27163,0,USMinnesotaWashington,Minnesota,Washington,2021-01-05 18:26:04.846615,2020-08-11 00:00:00.000000,1.22200473,1.85703632,2.67624863,3207,4873,7023,1559,2574,4513,0.59407777,0.98103915,1.71982125,0.19161128,0.27792438,0.40593297
27163,0,USMinnesotaWashington,Minnesota,Washington,2021-01-05 18:26:04.846615,2020-08-12 00:00:00.000000,1.23582942,1.87855439,2.72262958,3243,4930,7145,1570,2602,4549,0.59831749,0.99150632,1.73349036,0.19384938,0.27684891,0.40193849
27163,0,USMinnesotaWashington,Minnesota,Washington,2021-01-05 18:26:04.846615,2020-08-13 00:00:00.000000,1.24966799,1.89988597,2.77287327,3279,4986,7277,1607,2629,4596,0.61270265,1.00210665,1.75128257,0.19237025,0.27253910,0.39520301
27163,0,USMinnesotaWashington,Minnesota,Washington,2021-01-05 18:26:04.846615,2020-08-14 00:00:00.000000,1.26347557,1.92675616,2.80529645,3315,5056,7362,1640,2666,4664,0.62493149,1.01606170,1.77752492,0.18906927,0.26785732,0.39417049
27163,0,USMinnesotaWashington,Minnesota,Washington,2021-01-05 18:26:04.846615,2020-08-15 00:00:00.000000,1.27731422,1.94072149,2.83726752,3352,5093,7446,1665,2710,4740,0.63470175,1.03261995,1.80637640,0.18780611,0.26856098,0.39381017
27163,0,USMinnesotaWashington,Minnesota,Washington,2021-01-05 18:26:04.846615,2020-08-16 00:00:00.000000,1.29156447,1.96731866,2.86910428,3389,5163,7529,1686,2750,4821,0.64256914,1.04804594,1.83721074,0.18730392,0.26455539,0.39160719
27163,0,USMinnesotaWashington,Minnesota,Washington,2021-01-05 18:26:04.846615,2020-08-17 00:00:00.000000,1.30565740,1.99815731,2.89909363,3426,5243,7608,1703,2775,4879,0.64906986,1.05767553,1.85936686,0.18694023,0.26610106,0.38981587
27163,0,USMinnesotaWashington,Minnesota,Washington,2021-01-05 18:26:04.846615,2020-08-18 00:00:00.000000,1.31967228,2.01435479,2.92774647,3463,5286,7683,1717,2793,4934,0.65455649,1.06454556,1.88038288,0.18651057,0.26565603,0.38768717
27163,0,USMinnesotaWashington,Minnesota,Washington,2021-01-05 18:26:04.846615,2020-08-19 00:00:00.000000,1.32815713,2.00627004,2.92025640,3485,5265,7663,1730,2818,4955,0.65932983,1.07392478,1.88824320,0.18637397,0.26478827,0.37830035
27163,0,USMinnesotaWashington,Minnesota,Washington,2021-01-05 18:26:04.846615,2020-08-20 00:00:00.000000,1.33288332,2.01774602,2.95173080,3498,5295,7746,1741,2837,5015,0.66351412,1.08106569,1.91106849,0.18689772,0.26064866,0.36172240
27163,0,USMinnesotaWashington,Minnesota,Washington,2021-01-05 18:26:04.846615,2020-08-21 00:00:00.000000,1.33296993,2.04433190,3.00438563,3498,5365,7884,1750,2860,5095,0.66686550,1.08995086,1.94150499,0.18388638,0.24943169,0.36166415
27163,0,USMinnesotaWashington,Minnesota,Washington,2021-01-05 18:26:04.846615,2020-08-22 00:00:00.000000,1.34202319,2.04617055,3.03890460,3522,5369,7975,1755,2883,5148,0.66876441,1.09858954,1.96195505,0.16910217,0.24374588,0.36142748
27163,0,USMinnesotaWashington,Minnesota,Washington,2021-01-05 18:26:04.846615,2020-08-23 00:00:00.000000,1.35586363,2.02712796,3.05794670,3558,5319,8025,1755,2895,5202,0.66877290,1.10344705,1.98217658,0.16707514,0.24136613,0.36091699
27163,0,USMinnesotaWashington,Minnesota,Washington,2021-01-05 18:26:04.846615,2020-08-24 00:00:00.000000,1.36925496,2.00557227,3.06933822,3593,5263,8055,1750,2902,5254,0.66705653,1.10589017,2.00211332,0.16685298,0.23736421,0.35865273
27163,0,USMinnesotaWashington,Minnesota,Washington,2021-01-05 18:26:04.846615,2020-08-25 00:00:00.000000,1.37998418,2.00206119,3.07487297,3621,5254,8069,1743,2900,5306,0.66429066,1.10510707,2.02193396,0.16355251,0.22828511,0.33101673
27163,0,USMinnesotaWashington,Minnesota,Washington,2021-01-05 18:26:04.846615,2020-08-26 00:00:00.000000,1.38677341,1.98402286,3.06781666,3639,5206,8051,1737,2895,5355,0.66196608,1.10317488,2.04079338,0.15093109,0.22439040,0.32624688
27163,0,USMinnesotaWashington,Minnesota,Washington,2021-01-05 18:26:04.846615,2020-08-27 00:00:00.000000,1.38294330,1.94335050,3.04419841,3629,5100,7989,1726,2894,5400,0.65776213,1.10277795,2.05798071,0.13493187,0.22003017,0.32497366
27163,0,USMinnesotaWashington,Minnesota,Washington,2021-01-05 18:26:04.846615,2020-08-28 00:00:00.000000,1.38011337,1.92932641,3.01171887,3621,5063,7903,1713,2874,5441,0.65278918,1.09511114,2.07360372,0.13727648,0.21303586,0.31923825
27163,0,USMinnesotaWashington,Minnesota,Washington,2021-01-05 18:26:04.846615,2020-08-29 00:00:00.000000,1.34802072,1.92259853,2.97648495,3537,5045,7811,1699,2839,5461,0.64741050,1.08193120,2.08094087,0.12972030,0.20992511,0.30497753
27163,0,USMinnesotaWashington,Minnesota,Washington,2021-01-05 18:26:04.846615,2020-08-30 00:00:00.000000,1.30363979,1.90926245,2.94020206,3421,5010,7716,1683,2819,5414,0.64144542,1.07441463,2.06323786,0.12499346,0.20554521,0.29637166
27163,0,USMinnesotaWashington,Minnesota,Washington,2021-01-05 18:26:04.846615,2020-08-31 00:00:00.000000,1.26153989,1.89954654,2.90400001,3310,4985,7621,1664,2786,5353,0.63424608,1.06187311,2.04003047,0.12474626,0.20452932,0.29607767
27163,0,USMinnesotaWashington,Minnesota,Washington,2021-01-05 18:26:04.846615,2020-09-01 00:00:00.000000,1.22101374,1.89365043,2.86781725,3204,4969,7526,1640,2763,5281,0.62513010,1.05289661,2.01229913,0.12487074,0.20148247,0.29286808
27163,0,USMinnesotaWashington,Minnesota,Washington,2021-01-05 18:26:04.846615,2020-09-02 00:00:00.000000,1.18217587,1.86319751,2.84423590,3102,4889,7464,1611,2719,5200,0.61418538,1.03637179,1.98144349,0.12545092,0.20354758,0.29115006
27163,0,USMinnesotaWashington,Minnesota,Washington,2021-01-05 18:26:04.846615,2020-09-03 00:00:00.000000,1.14514433,1.82225259,2.81070740,3005,4782,7376,1579,2683,5117,0.60188383,1.02235472,1.95003588,0.12737897,0.20521879,0.29473738
27163,0,USMinnesotaWashington,Minnesota,Washington,2021-01-05 18:26:04.846615,2020-09-04 00:00:00.000000,1.11027240,1.78624415,2.78429329,2913,4687,7307,1545,2655,5042,0.58872753,1.01189195,1.92134793,0.13195229,0.21034968,0.29224034
27163,0,USMinnesotaWashington,Minnesota,Washington,2021-01-05 18:26:04.846615,2020-09-05 00:00:00.000000,1.07915236,1.77836654,2.78856978,2832,4667,7318,1509,2641,4976,0.57530713,1.00647732,1.89610497,0.13640584,0.20739741,0.29034499
27163,0,USMinnesotaWashington,Minnesota,Washington,2021-01-05 18:26:04.846615,2020-09-06 00:00:00.000000,1.05788665,1.76588449,2.80644396,2776,4634,7365,1476,2630,4917,0.56257969,1.00228424,1.87360391,0.13499539,0.20458881,0.29254083
27163,0,USMinnesotaWashington,Minnesota,Washington,2021-01-05 18:26:04.846615,2020-09-07 00:00:00.000000,1.05102696,1.74614343,2.82471307,2758,4582,7413,1446,2602,4881,0.55132902,0.99178057,1.86015169,0.13387412,0.20910615,0.29998550
27163,0,USMinnesotaWashington,Minnesota,Washington,2021-01-05 18:26:04.846615,2020-09-08 00:00:00.000000,1.05301479,1.72254138,2.84338426,2763,4520,7462,1421,2579,4877,0.54148687,0.98272550,1.85865921,0.13367839,0.22139515,0.30248505
27163,0,USMinnesotaWashington,Minnesota,Washington,2021-01-05 18:26:04.846615,2020-09-09 00:00:00.000000,1.05976821,1.69987639,2.83589763,2781,4461,7442,1398,2556,4864,0.53276509,0.97420831,1.85366826,0.13383810,0.22602384,0.30826669
27163,0,USMinnesotaWashington,Minnesota,Washington,2021-01-05 18:26:04.846615,2020-09-10 00:00:00.000000,1.07074733,1.67871322,2.81364690,2810,4405,7384,1377,2540,4844,0.52490972,0.96788089,1.84592087,0.13433537,0.22723914,0.33147845
27163,0,USMinnesotaWashington,Minnesota,Washington,2021-01-05 18:26:04.846615,2020-09-11 00:00:00.000000,1.08591309,1.66408242,2.78990920,2849,4367,7321,1358,2513,4818,0.51773734,0.95789141,1.83608230,0.14318916,0.22756936,0.34552605
27163,0,USMinnesotaWashington,Minnesota,Washington,2021-01-05 18:26:04.846615,2020-09-12 00:00:00.000000,1.08937020,1.66603238,2.76574228,2858,4372,7258,1366,2487,4788,0.52062705,0.94785818,1.82469951,0.14499760,0.23417894,0.36664258
27163,0,USMinnesotaWashington,Minnesota,Washington,2021-01-05 18:26:04.846615,2020-09-13 00:00:00.000000,1.08150281,1.67289821,2.74233243,2838,4390,7196,1379,2464,4756,0.52582311,0.93903813,1.81224678,0.15321063,0.24299395,0.38707842
27163,0,USMinnesotaWashington,Minnesota,Washington,2021-01-05 18:26:04.846615,2020-09-14 00:00:00.000000,1.10059814,1.69535217,2.71852207,2888,4449,7134,1397,2450,4722,0.53264157,0.93389075,1.79928258,0.16575343,0.25108932,0.38930132
27163,0,USMinnesotaWashington,Minnesota,Washington,2021-01-05 18:26:04.846615,2020-09-15 00:00:00.000000,1.12067406,1.72083638,2.71353421,2941,4516,7121,1418,2451,4687,0.54057455,0.93398626,1.78598932,0.17139183,0.26167774,0.39963999
27163,0,USMinnesotaWashington,Minnesota,Washington,2021-01-05 18:26:04.846615,2020-09-16 00:00:00.000000,1.14222820,1.74730241,2.73279993,2997,4585,7171,1409,2472,4653,0.53699477,0.94195045,1.77331331,0.17496373,0.26355182,0.42699119
27163,0,USMinnesotaWashington,Minnesota,Washington,2021-01-05 18:26:04.846615,2020-09-17 00:00:00.000000,1.14491165,1.77219974,2.77587969,3004,4650,7285,1395,2488,4622,0.53192399,0.94835831,1.76153226,0.17556398,0.26761982,0.43544564
27163,0,USMinnesotaWashington,Minnesota,Washington,2021-01-05 18:26:04.846615,2020-09-18 00:00:00.000000,1.13516109,1.79631405,2.82210447,2979,4714,7406,1383,2503,4593,0.52700876,0.95375787,1.75044901,0.18159455,0.28449152,0.44290610
27163,0,USMinnesotaWashington,Minnesota,Washington,2021-01-05 18:26:04.846615,2020-09-19 00:00:00.000000,1.13438416,1.81073034,2.85545708,2977,4752,7493,1370,2522,4636,0.52219872,0.96115246,1.76687895,0.18205712,0.29415977,0.44760833
27163,0,USMinnesotaWashington,Minnesota,Washington,2021-01-05 18:26:04.846615,2020-09-20 00:00:00.000000,1.16539506,1.82195155,2.89167911,3058,4781,7588,1375,2542,4687,0.52406031,0.96863474,1.78608979,0.18870141,0.30220956,0.45812300
27163,0,USMinnesotaWashington,Minnesota,Washington,2021-01-05 18:26:04.846615,2020-09-21 00:00:00.000000,1.20051315,1.83760044,2.92978724,3150,4822,7688,1404,2559,4713,0.53528221,0.97545039,1.79593184,0.20206332,0.31115129,0.46678507
27163,0,USMinnesotaWashington,Minnesota,Washington,2021-01-05 18:26:04.846615,2020-09-22 00:00:00.000000,1.24091465,1.87357936,2.96999015,3256,4917,7794,1435,2581,4772,0.54705890,0.98380222,1.81858408,0.20825402,0.32193849,0.47154841
27163,0,USMinnesotaWashington,Minnesota,Washington,2021-01-05 18:26:04.846615,2020-09-23 00:00:00.000000,1.28815950,1.92570874,3.01258927,3380,5053,7906,1467,2626,4847,0.55916748,1.00084347,1.84706787,0.20900953,0.33033634,0.48400276
27163,0,USMinnesotaWashington,Minnesota,Washington,2021-01-05 18:26:04.846615,2020-09-24 00:00:00.000000,1.31961229,1.97394062,3.05988577,3463,5180,8030,1499,2675,4935,0.57155801,1.01948123,1.88054529,0.22267583,0.33348297,0.49294766
27163,0,USMinnesotaWashington,Minnesota,Washington,2021-01-05 18:26:04.846615,2020-09-25 00:00:00.000000,1.34633407,2.01687778,3.11921626,3533,5293,8186,1533,2751,5033,0.58420505,1.04828091,1.91785695,0.23751521,0.34107572,0.55587424
27163,0,USMinnesotaWashington,Minnesota,Washington,2021-01-05 18:26:04.846615,2020-09-26 00:00:00.000000,1.37405220,2.06588956,3.20515793,3606,5421,8411,1567,2807,5139,0.59710740,1.06986818,1.95846290,0.24168962,0.34333140,0.58041652
27163,0,USMinnesotaWashington,Minnesota,Washington,2021-01-05 18:26:04.846615,2020-09-27 00:00:00.000000,1.40316693,2.12365065,3.32652894,3682,5573,8730,1601,2872,5255,0.61030288,1.09468469,2.00265145,0.25972403,0.35907818,0.58817573
27163,0,USMinnesotaWashington,Minnesota,Washington,2021-01-05 18:26:04.846615,2020-09-28 00:00:00.000000,1.43504712,2.20255163,3.47339086,3766,5780,9115,1637,2913,5359,0.62391626,1.11009177,2.04219012,0.27135977,0.37164858,0.59241985
27163,0,USMinnesotaWashington,Minnesota,Washington,2021-01-05 18:26:04.846615,2020-09-29 00:00:00.000000,1.48169838,2.27502869,3.63317268,3888,5970,9534,1674,2982,5463,0.63815791,1.13643429,2.08186381,0.28113547,0.38423577,0.61122129
27163,0,USMinnesotaWashington,Minnesota,Washington,2021-01-05 18:26:04.846615,2020-09-30 00:00:00.000000,1.52658758,2.37444885,3.80065284,4006,6231,9974,1741,3069,5570,0.66370050,1.16972591,2.12268161,0.28249318,0.39605116,0.64701910
27163,0,USMinnesotaWashington,Minnesota,Washington,2021-01-05 18:26:04.846615,2020-10-01 00:00:00.000000,1.58779636,2.49470678,3.97386619,4167,6547,10429,1848,3171,5775,0.70417218,1.20863720,2.20060550,0.28575499,0.40315223,0.64754015
27163,0,USMinnesotaWashington,Minnesota,Washington,2021-01-05 18:26:04.846615,2020-10-02 00:00:00.000000,1.66825810,2.59705643,4.08027878,4378,6815,10708,1962,3303,6006,0.74793966,1.25876793,2.28862499,0.29817598,0.42752858,0.64702203
27163,0,USMinnesotaWashington,Minnesota,Washington,2021-01-05 18:26:04.846615,2020-10-03 00:00:00.000000,1.76286998,2.71409803,4.28889353,4626,7122,11255,2085,3444,6193,0.79484534,1.31237197,2.35981537,0.32101559,0.44606956,0.63378529
27163,0,USMinnesotaWashington,Minnesota,Washington,2021-01-05 18:26:04.846615,2020-10-04 00:00:00.000000,1.86530859,2.84025951,4.44707806,4895,7453,11670,2183,3603,6382,0.83193611,1.37307997,2.43197330,0.32807308,0.44996730,0.62446343
27163,0,USMinnesotaWashington,Minnesota,Washington,2021-01-05 18:26:04.846615,2020-10-05 00:00:00.000000,1.97067661,2.99215683,4.64892515,5171,7852,12200,2280,3746,6584,0.86884954,1.42769982,2.50911925,0.32971622,0.46160870,0.62521636
27163,0,USMinnesotaWashington,Minnesota,Washington,2021-01-05 18:26:04.846615,2020-10-06 00:00:00.000000,2.07668846,3.12071165,4.86163637,5450,8189,12758,2391,3891,6807,0.91117059,1.48286907,2.59393361,0.33977585,0.46471004,0.62589733
27163,0,USMinnesotaWashington,Minnesota,Washington,2021-01-05 18:26:04.846615,2020-10-07 00:00:00.000000,2.18475856,3.25093751,5.08192715,5733,8531,13337,2513,4089,7053,0.95788918,1.55818512,2.68771301,0.35477841,0.47335167,0.62593363
27163,0,USMinnesotaWashington,Minnesota,Washington,2021-01-05 18:26:04.846615,2020-10-08 00:00:00.000000,2.29665606,3.42335411,5.31007470,6027,8984,13935,2646,4278,7332,1.00836636,1.63040349,2.79397751,0.36628951,0.47038676,0.62351854
27163,0,USMinnesotaWashington,Minnesota,Washington,2021-01-05 18:26:04.846615,2020-10-09 00:00:00.000000,2.41326862,3.62519361,5.54501793,6333,9513,14552,2787,4503,7734,1.06224136,1.71618922,2.94720390,0.37200346,0.48416743,0.62143792
27163,0,USMinnesotaWashington,Minnesota,Washington,2021-01-05 18:26:04.846615,2020-10-10 00:00:00.000000,2.53646183,3.81173616,5.81723532,6656,10003,15266,2937,4712,8163,1.11936492,1.79567067,3.11054447,0.37193049,0.49668541,0.64073690
27163,0,USMinnesotaWashington,Minnesota,Washington,2021-01-05 18:26:04.846615,2020-10-11 00:00:00.000000,2.67288734,4.00762072,6.23866521,7014,10517,16372,3098,4961,8629,1.18056058,1.89040202,3.28821897,0.36882422,0.50409801,0.67376544
27163,0,USMinnesotaWashington,Minnesota,Washington,2021-01-05 18:26:04.846615,2020-10-12 00:00:00.000000,2.81771493,4.21680867,6.68016083,7394,11066,17531,3329,5233,9137,1.26874373,1.99433237,3.48186895,0.36869514,0.50943269,0.68905682
27163,0,USMinnesotaWashington,Minnesota,Washington,2021-01-05 18:26:04.846615,2020-10-13 00:00:00.000000,2.97246258,4.43001889,7.00009687,7800,11626,18371,3496,5513,9682,1.33216275,2.10077363,3.68936587,0.36843926,0.51437920,0.69038877
27163,0,USMinnesotaWashington,Minnesota,Washington,2021-01-05 18:26:04.846615,2020-10-14 00:00:00.000000,3.13760353,4.67680452,7.33596153,8234,12273,19252,3651,5818,10262,1.39140807,2.21726246,3.91022816,0.36583237,0.51747760,0.68599397
27163,0,USMinnesotaWashington,Minnesota,Washington,2021-01-05 18:26:04.846615,2020-10-15 00:00:00.000000,3.31407851,4.98522148,7.77215974,8697,13083,20397,3823,6125,10679,1.45692570,2.33411576,4.06936757,0.37839702,0.51892559,0.68472736
27163,0,USMinnesotaWashington,Minnesota,Washington,2021-01-05 18:26:04.846615,2020-10-16 00:00:00.000000,3.51607239,5.25177724,8.22470660,9227,13782,21584,4034,6451,11105,1.53741320,2.45842064,4.23178789,0.37073548,0.52016071,0.72195251
27163,0,USMinnesotaWashington,Minnesota,Washington,2021-01-05 18:26:04.846615,2020-10-17 00:00:00.000000,3.78257406,5.54123887,8.69518589,9926,14542,22819,4266,6809,11549,1.62583243,2.59486190,4.40064908,0.38166915,0.52059160,0.73400114
27163,0,USMinnesotaWashington,Minnesota,Washington,2021-01-05 18:26:04.846615,2020-10-18 00:00:00.000000,4.08307978,5.87507759,9.18313635,10715,15418,24100,4452,7182,12178,1.69675448,2.73680801,4.64051289,0.38637501,0.53456640,0.73540750
27163,0,USMinnesotaWashington,Minnesota,Washington,2021-01-05 18:26:04.846615,2020-10-19 00:00:00.000000,4.35916098,6.22963403,9.68563456,11440,16349,25418,4639,7581,12952,1.76764877,2.88888628,4.93554627,0.38517587,0.55584779,0.71873008
27163,0,USMinnesotaWashington,Minnesota,Washington,2021-01-05 18:26:04.846615,2020-10-20 00:00:00.000000,4.56819370,6.60027409,10.17087128,11988,17321,26692,4847,8011,13753,1.84725454,3.05274077,5.24053430,0.38075508,0.56835343,0.73617306
27163,0,USMinnesotaWashington,Minnesota,Washington,2021-01-05 18:26:04.846615,2020-10-21 00:00:00.000000,4.78538932,7.00648888,10.66743514,12558,18387,27995,5086,8421,14580,1.93819489,3.20892475,5.55562512,0.37929775,0.56636309,0.73676776
27163,0,USMinnesotaWashington,Minnesota,Washington,2021-01-05 18:26:04.846615,2020-10-22 00:00:00.000000,5.01040768,7.39197331,11.31731611,13149,19399,29701,5397,8859,15432,2.05672534,3.37589195,5.88032991,0.38335847,0.56008661,0.73691489
27163,0,USMinnesotaWashington,Minnesota,Washington,2021-01-05 18:26:04.846615,2020-10-23 00:00:00.000000,5.24307814,7.81228065,11.98366789,13759,20502,31449,5767,9340,16307,2.19782864,3.55903547,6.21377571,0.38564638,0.55616510,0.73684091
27163,0,USMinnesotaWashington,Minnesota,Washington,2021-01-05 18:26:04.846615,2020-10-24 00:00:00.000000,5.48371859,8.16234998,12.65848615,14391,21421,33220,6152,9889,17195,2.34444800,3.76840343,6.55202181,0.37923818,0.54440728,0.73593425
27163,0,USMinnesotaWashington,Minnesota,Washington,2021-01-05 18:26:04.846615,2020-10-25 00:00:00.000000,5.73600092,8.54874353,13.25988214,15053,22435,34799,6545,10460,18019,2.49420677,3.98595854,6.86611116,0.38798388,0.53368452,0.73332939
27163,0,USMinnesotaWashington,Minnesota,Washington,2021-01-05 18:26:04.846615,2020-10-26 00:00:00.000000,6.01134387,8.97053651,13.84459545,15776,23542,36333,6940,11051,18699,2.64467751,4.21095712,7.12530531,0.37918427,0.53239127,0.72885880
27163,0,USMinnesotaWashington,Minnesota,Washington,2021-01-05 18:26:04.846615,2020-10-27 00:00:00.000000,6.32980097,9.32254627,14.43532280,16611,24466,37884,7257,11654,19442,2.76538037,4.44080645,7.40824397,0.37225898,0.53327444,0.71368393
27163,0,USMinnesotaWashington,Minnesota,Washington,2021-01-05 18:26:04.846615,2020-10-28 00:00:00.000000,6.68506804,9.69857930,15.03062086,17544,25452,39446,7536,12249,20250,2.87174959,4.66765876,7.71636188,0.37018325,0.52771725,0.69961751
27163,0,USMinnesotaWashington,Minnesota,Washington,2021-01-05 18:26:04.846615,2020-10-29 00:00:00.000000,7.06203683,10.14534331,15.62950044,18533,26625,41018,7803,12821,21116,2.97357441,4.88542663,8.04633947,0.36991621,0.52563654,0.69007492
27163,0,USMinnesotaWashington,Minnesota,Washington,2021-01-05 18:26:04.846615,2020-10-30 00:00:00.000000,7.40188864,10.58091131,16.23323821,19425,27768,42602,8052,13331,22033,3.06817153,5.07966867,8.39574444,0.36981858,0.52569736,0.68211891
27163,0,USMinnesotaWashington,Minnesota,Washington,2021-01-05 18:26:04.846615,2020-10-31 00:00:00.000000,7.71438306,10.98353665,16.79370969,20245,28825,44073,8284,13924,22997,3.15676161,5.30591057,8.76289060,0.36916502,0.52409099,0.67165978
27163,0,USMinnesotaWashington,Minnesota,Washington,2021-01-05 18:26:04.846615,2020-11-01 00:00:00.000000,8.03328060,11.41421533,17.33670698,21082,29955,45498,8505,14563,24001,3.24105647,5.54914558,9.14549910,0.36818441,0.52121493,0.65626379
27163,0,USMinnesotaWashington,Minnesota,Washington,2021-01-05 18:26:04.846615,2020-11-02 00:00:00.000000,8.35683792,11.73189936,17.88409570,21931,30789,46935,8789,15111,25022,3.34917305,5.75822026,9.53465279,0.36734626,0.52527440,0.66073777
27163,0,USMinnesotaWashington,Minnesota,Washington,2021-01-05 18:26:04.846615,2020-11-03 00:00:00.000000,8.68466973,12.10036014,18.47534215,22792,31756,48486,9134,15613,25908,3.48076829,5.94927794,9.87224856,0.36697405,0.52199109,0.68281420
27163,0,USMinnesotaWashington,Minnesota,Washington,2021-01-05 18:26:04.846615,2020-11-04 00:00:00.000000,9.01593935,12.48665794,19.08866552,23661,32769,50096,9490,16156,26811,3.61614975,6.15613430,10.21622831,0.36733137,0.51424732,0.67624218
27163,0,USMinnesotaWashington,Minnesota,Washington,2021-01-05 18:26:04.846615,2020-11-05 00:00:00.000000,9.35175788,12.82998880,19.68373936,24542,33671,51658,9853,16807,27971,3.75449230,6.40435541,10.65839066,0.36871896,0.51243985,0.66287358
27163,0,USMinnesotaWashington,Minnesota,Washington,2021-01-05 18:26:04.846615,2020-11-06 00:00:00.000000,9.62362302,13.13476219,20.24884546,25256,34470,53141,10221,17358,29176,3.89476390,6.61431581,11.11747212,0.37141229,0.51267373,0.67368071
27163,0,USMinnesotaWashington,Minnesota,Washington,2021-01-05 18:26:04.846615,2020-11-07 00:00:00.000000,9.89279433,13.45381893,20.77591630,25962,35308,54524,10588,17842,30124,4.03453967,6.79876122,11.47875074,0.37519997,0.50794156,0.68960042
27163,0,USMinnesotaWashington,Minnesota,Washington,2021-01-05 18:26:04.846615,2020-11-08 00:00:00.000000,10.17443292,13.77227246,21.25085701,26701,36143,55770,10945,18379,30971,4.17065414,7.00339161,11.80130627,0.36251206,0.50451920,0.65825381
27163,0,USMinnesotaWashington,Minnesota,Washington,2021-01-05 18:26:04.846615,2020-11-09 00:00:00.000000,10.33118062,14.06270551,21.64848327,27113,36906,56814,11285,18989,31720,4.30020963,7.23587322,12.08686680,0.34559245,0.49915738,0.65975772
27163,0,USMinnesotaWashington,Minnesota,Washington,2021-01-05 18:26:04.846615,2020-11-10 00:00:00.000000,10.43070821,14.32738935,21.80126518,27374,37600,57215,11605,19559,32372,4.42231173,7.45286340,12.33530267,0.34669200,0.49102281,0.66020939
27163,0,USMinnesotaWashington,Minnesota,Washington,2021-01-05 18:26:04.846615,2020-11-11 00:00:00.000000,10.51217263,14.60656847,21.89824383,27588,38333,57469,11908,20008,32934,4.53746621,7.62399616,12.54920145,0.35023612,0.48794967,0.65967755
27163,0,USMinnesotaWashington,Minnesota,Washington,2021-01-05 18:26:04.846615,2020-11-12 00:00:00.000000,10.65282742,14.78958697,21.96211750,27957,38813,57637,12193,20264,33559,4.64634877,7.72170294,12.78744537,0.35656615,0.48357670,0.65794335
27163,0,USMinnesotaWashington,Minnesota,Washington,2021-01-05 18:26:04.846615,2020-11-13 00:00:00.000000,10.81232288,14.95910146,22.19199272,28375,39258,58240,12461,20486,34238,4.74847822,7.80632571,13.04604310,0.34072680,0.47635192,0.65699862
27163,0,USMinnesotaWashington,Minnesota,Washington,2021-01-05 18:26:04.846615,2020-11-14 00:00:00.000000,10.93798891,15.16932767,22.38409685,28705,39810,58744,12631,20679,34870,4.81297019,7.87989431,13.28714292,0.31875399,0.46707960,0.64537672
27163,0,USMinnesotaWashington,Minnesota,Washington,2021-01-05 18:26:04.846615,2020-11-15 00:00:00.000000,11.02697861,15.34323104,22.53871466,28939,40266,59150,12763,20848,35460,4.86351000,7.94393016,13.51168050,0.29910163,0.46532054,0.59830813
27163,0,USMinnesotaWashington,Minnesota,Washington,2021-01-05 18:26:04.846615,2020-11-16 00:00:00.000000,11.07752353,15.37126174,22.65572531,29071,40340,59457,12860,21008,36005,4.90034716,8.00525442,13.71946061,0.29195830,0.46101037,0.60737860
27163,0,USMinnesotaWashington,Minnesota,Washington,2021-01-05 18:26:04.846615,2020-11-17 00:00:00.000000,11.08959442,15.32632266,22.54984315,29103,40222,59179,12925,21132,36503,4.92523988,8.05216996,13.90911750,0.28568430,0.45708038,0.61778980
27163,0,USMinnesotaWashington,Minnesota,Washington,2021-01-05 18:26:04.846615,2020-11-18 00:00:00.000000,11.06475599,15.15934131,22.34405338,29038,39784,58639,12964,21337,36947,4.93998022,8.13049292,14.07857021,0.27837467,0.45486607,0.62294760
27163,0,USMinnesotaWashington,Minnesota,Washington,2021-01-05 18:26:04.846615,2020-11-19 00:00:00.000000,11.00582075,15.01875753,22.06699569,28883,39415,57912,12980,21536,37333,4.94598164,8.20628520,14.22556568,0.26996011,0.45511645,0.63610035
27163,0,USMinnesotaWashington,Minnesota,Washington,2021-01-05 18:26:04.846615,2020-11-20 00:00:00.000000,10.91629076,14.93182223,22.02583047,28648,39187,57804,12977,21686,37655,4.94497144,8.26360054,14.34808748,0.26092631,0.45554979,0.64224364
27163,0,USMinnesotaWashington,Minnesota,Washington,2021-01-05 18:26:04.846615,2020-11-21 00:00:00.000000,10.79988947,14.76014844,22.03509261,28343,38736,57828,12949,21782,37908,4.93434895,8.30008352,14.44472701,0.25200076,0.44857175,0.64753961
27163,0,USMinnesotaWashington,Minnesota,Washington,2021-01-05 18:26:04.846615,2020-11-22 00:00:00.000000,10.66015569,14.51752824,21.99622612,27976,38099,57726,12887,21825,38091,4.91065118,8.31624108,14.51420949,0.24382236,0.44376015,0.65028275
27163,0,USMinnesotaWashington,Minnesota,Washington,2021-01-05 18:26:04.846615,2020-11-23 00:00:00.000000,10.50114090,14.39783398,21.90318033,27559,37785,57482,12786,21853,38198,4.87232206,8.32693533,14.55507091,0.23651126,0.43618745,0.65176650
27163,0,USMinnesotaWashington,Minnesota,Washington,2021-01-05 18:26:04.846615,2020-11-24 00:00:00.000000,10.31986042,14.26953321,21.73580243,27083,37448,57043,12650,21804,38224,4.82021086,8.30848133,14.56507346,0.22819923,0.43303454,0.64975724
27163,0,USMinnesotaWashington,Minnesota,Washington,2021-01-05 18:26:04.846615,2020-11-25 00:00:00.000000,10.10634427,14.14228863,21.47698036,26523,37115,56364,12482,21653,38155,4.75647966,8.25092589,14.53860678,0.21832545,0.42963186,0.64032072
27163,0,USMinnesotaWashington,Minnesota,Washington,2021-01-05 18:26:04.846615,2020-11-26 00:00:00.000000,9.85808232,13.88298517,21.15622290,25871,36434,55522,12294,21422,37970,4.68486861,8.16297402,14.46827694,0.20634453,0.42635736,0.65908318
27163,0,USMinnesotaWashington,Minnesota,Washington,2021-01-05 18:26:04.846615,2020-11-27 00:00:00.000000,9.59281253,13.58506923,20.81918423,25175,35652,54637,12090,21152,37672,4.60708652,8.05996565,14.35480680,0.19631389,0.42376424,0.66133778
27163,0,USMinnesotaWashington,Minnesota,Washington,2021-01-05 18:26:04.846615,2020-11-28 00:00:00.000000,9.32299347,13.29383408,20.49266795,24467,34888,53780,11873,20941,37287,4.52423841,7.97935996,14.20796912,0.19329374,0.41619564,0.66196276
27163,0,USMinnesotaWashington,Minnesota,Washington,2021-01-05 18:26:04.846615,2020-11-29 00:00:00.000000,9.04926557,13.01047476,20.17567280,23748,34144,52949,11642,20673,36846,4.43644078,7.87727961,14.04007874,0.18734051,0.40665648,0.66116529
27163,0,USMinnesotaWashington,Minnesota,Washington,2021-01-05 18:26:04.846615,2020-11-30 00:00:00.000000,8.77295643,12.71177125,19.85119408,23023,33360,52097,11396,20299,36372,4.34233576,7.73495907,13.85954603,0.18619630,0.39674340,0.59760883
27163,0,USMinnesotaWashington,Minnesota,Washington,2021-01-05 18:26:04.846615,2020-12-01 00:00:00.000000,8.49800734,12.40748861,19.50791601,22302,32562,51196,11128,19887,35872,4.24053244,7.57783604,13.66875515,0.18579275,0.38810229,0.57600725
27163,0,USMinnesotaWashington,Minnesota,Washington,2021-01-05 18:26:04.846615,2020-12-02 00:00:00.000000,8.22579293,12.11293762,19.13884771,21587,31789,50227,10843,19472,35342,4.13182062,7.41986520,13.46700307,0.18572631,0.38149592,0.57180776
27163,0,USMinnesotaWashington,Minnesota,Washington,2021-01-05 18:26:04.846615,2020-12-03 00:00:00.000000,7.95740573,11.80781689,18.72837637,20883,30988,49150,10545,18967,34779,4.01813448,7.22753713,13.25235579,0.18585181,0.37986820,0.56863119
27163,0,USMinnesotaWashington,Minnesota,Washington,2021-01-05 18:26:04.846615,2020-12-04 00:00:00.000000,7.69385250,11.47092114,18.26066473,20191,30104,47923,10241,18367,34170,3.90252777,6.99887721,13.02032757,0.18613727,0.37363792,0.56618182
27163,0,USMinnesotaWashington,Minnesota,Washington,2021-01-05 18:26:04.846615,2020-12-05 00:00:00.000000,7.43626123,11.09252513,17.76247733,19515,29111,46615,9933,17907,33499,3.78512423,6.82331839,12.76458729,0.18659365,0.37232450,0.56422902
27163,0,USMinnesotaWashington,Minnesota,Washington,2021-01-05 18:26:04.846615,2020-12-06 00:00:00.000000,7.18609374,10.75540344,17.25102528,18859,28226,45273,9623,17439,32765,3.66684956,6.64507282,12.48489816,0.18724939,0.36542658,0.56279050
27163,0,USMinnesotaWashington,Minnesota,Washington,2021-01-05 18:26:04.846615,2020-12-07 00:00:00.000000,6.94517035,10.37599037,16.73119841,18226,27230,43909,9311,16962,31982,3.54817462,6.46326448,12.18656409,0.18822013,0.36062858,0.56184738
27163,0,USMinnesotaWashington,Minnesota,Washington,2021-01-05 18:26:04.846615,2020-12-08 00:00:00.000000,6.71508596,9.94179487,16.20650509,17623,26091,42532,8999,16428,31161,3.42929983,6.26006551,11.87366361,0.18688336,0.35525552,0.57549574
27163,0,USMinnesotaWashington,Minnesota,Washington,2021-01-05 18:26:04.846615,2020-12-09 00:00:00.000000,6.39830630,9.51107933,15.67992795,16791,24960,41150,8688,15984,30311,3.31072490,6.09074963,11.54969890,0.18036986,0.35148743,0.57706704
27163,0,USMinnesotaWashington,Minnesota,Washington,2021-01-05 18:26:04.846615,2020-12-10 00:00:00.000000,6.08652370,9.13575043,15.15496299,15973,23975,39772,8380,15462,29439,3.19316320,5.89194169,11.21767965,0.17583329,0.35082557,0.57652883
27163,0,USMinnesotaWashington,Minnesota,Washington,2021-01-05 18:26:04.846615,2020-12-11 00:00:00.000000,5.82936163,8.75561682,14.63682335,15298,22978,38412,8076,14861,28554,3.07736578,5.66300292,10.88035721,0.17185020,0.35485886,0.58258981
27163,0,USMinnesotaWashington,Minnesota,Washington,2021-01-05 18:26:04.846615,2020-12-12 00:00:00.000000,5.61377307,8.43004281,14.13243099,14732,22123,37089,7779,14331,27662,2.96418039,5.46100914,10.54063688,0.16673765,0.35618064,0.65282180
27163,0,USMinnesotaWashington,Minnesota,Washington,2021-01-05 18:26:04.846615,2020-12-13 00:00:00.000000,5.41381184,8.12095392,13.64374274,14208,21312,35806,7492,13845,26773,2.85480844,5.27554930,10.20188915,0.16323733,0.36060430,0.70470208
27163,0,USMinnesotaWashington,Minnesota,Washington,2021-01-05 18:26:04.846615,2020-12-14 00:00:00.000000,5.22243613,7.82202100,13.16744159,13705,20528,34556,7205,13335,25894,2.74550389,5.08116972,9.86688316,0.16815545,0.36310295,0.72806519
27163,0,USMinnesotaWashington,Minnesota,Washington,2021-01-05 18:26:04.846615,2020-12-15 00:00:00.000000,5.03748469,7.52063676,12.69891665,13220,19737,33327,6915,12806,25028,2.63513853,4.87971439,9.53696709,0.16698720,0.36595217,0.74286179
27163,0,USMinnesotaWashington,Minnesota,Washington,2021-01-05 18:26:04.846615,2020-12-16 00:00:00.000000,4.85828989,7.24143430,12.23642872,12750,19004,32113,6636,12271,24176,2.52886753,4.67604155,9.21217381,0.16927872,0.37255635,0.75760458
27163,0,USMinnesotaWashington,Minnesota,Washington,2021-01-05 18:26:04.846615,2020-12-17 00:00:00.000000,4.68472580,6.97718172,11.78021391,12294,18310,30915,6369,11735,23337,2.42684490,4.47154435,8.89240715,0.17391469,0.37593501,0.77232939
27163,0,USMinnesotaWashington,Minnesota,Washington,2021-01-05 18:26:04.846615,2020-12-18 00:00:00.000000,4.48547980,6.67431462,11.33292408,11771,17516,29742,6112,11267,22511,2.32903355,4.29352243,8.57769440,0.19250521,0.39353221,0.79640798
27163,0,USMinnesotaWashington,Minnesota,Washington,2021-01-05 18:26:04.846615,2020-12-19 00:00:00.000000,4.28135305,6.40541926,10.89695365,11235,16810,28597,5867,10817,21699,2.23565227,4.12177375,8.26826863,0.19253500,0.41275530,0.81400202
27163,0,USMinnesotaWashington,Minnesota,Washington,2021-01-05 18:26:04.846615,2020-12-20 00:00:00.000000,4.08747494,6.18382412,10.48096507,10727,16228,27506,5564,10380,20902,2.12010582,3.95549048,7.96477988,0.18907224,0.42557526,0.82688404
27163,0,USMinnesotaWashington,Minnesota,Washington,2021-01-05 18:26:04.846615,2020-12-21 00:00:00.000000,3.90546562,5.93991501,10.11108924,10249,15588,26535,5266,9937,20127,2.00669685,3.78643175,7.66942876,0.18663031,0.44101331,0.83497801
27163,0,USMinnesotaWashington,Minnesota,Washington,2021-01-05 18:26:04.846615,2020-12-22 00:00:00.000000,3.73951787,5.72089796,9.80605323,9813,15013,25735,5005,9486,19391,1.90716861,3.61467618,7.38900844,0.21530948,0.45410101,0.84087083
27163,0,USMinnesotaWashington,Minnesota,Washington,2021-01-05 18:26:04.846615,2020-12-23 00:00:00.000000,3.58997227,5.53130049,9.55077871,9421,14516,25065,4777,9065,18717,1.82044227,3.45437239,7.13207293,0.21532448,0.45968772,0.87023628
27163,0,USMinnesotaWashington,Minnesota,Washington,2021-01-05 18:26:04.846615,2020-12-24 00:00:00.000000,3.45149650,5.35853874,9.34005015,9058,14062,24512,4574,8684,18112,1.74311023,3.30906537,6.90158256,0.21535498,0.46965585,0.92397120
27163,0,USMinnesotaWashington,Minnesota,Washington,2021-01-05 18:26:04.846615,2020-12-25 00:00:00.000000,3.32014405,5.22880019,9.13133094,8713,13722,23964,4389,8378,17579,1.67252749,3.19271158,6.69848278,0.21547973,0.47289539,0.95090134
27163,0,USMinnesotaWashington,Minnesota,Washington,2021-01-05 18:26:04.846615,2020-12-26 00:00:00.000000,3.19433525,5.02890244,8.91865992,8383,13197,23406,4217,8150,17097,1.60707710,3.10572213,6.51489825,0.21539402,0.49002779,1.02892110
27163,0,USMinnesotaWashington,Minnesota,Washington,2021-01-05 18:26:04.846615,2020-12-27 00:00:00.000000,3.07338003,4.87590508,8.70215461,8065,12796,22837,4057,7948,16649,1.54601720,3.02888254,6.34400901,0.21199166,0.49874915,1.05442748
27163,0,USMinnesotaWashington,Minnesota,Washington,2021-01-05 18:26:04.846615,2020-12-28 00:00:00.000000,2.95607427,4.76887093,8.48094668,7757,12515,22257,3908,7763,16221,1.48942674,2.95829896,6.18111380,0.20816299,0.50164384,1.06398099
27163,0,USMinnesotaWashington,Minnesota,Washington,2021-01-05 18:26:04.846615,2020-12-29 00:00:00.000000,2.84299670,4.65181589,8.25650899,7461,12208,21668,3773,7579,15806,1.43782917,2.88812255,6.02280367,0.20659771,0.50277258,1.07446564
27163,0,USMinnesotaWashington,Minnesota,Washington,2021-01-05 18:26:04.846615,2020-12-30 00:00:00.000000,2.73515318,4.53539841,8.02935592,7178,11902,21072,3655,7378,15397,1.39297930,2.81132295,5.86701996,0.20797166,0.50675163,1.09689682
27163,0,USMinnesotaWashington,Minnesota,Washington,2021-01-05 18:26:04.846615,2020-12-31 00:00:00.000000,2.63336427,4.41369415,7.80010816,6911,11583,20470,3559,7187,14991,1.35632213,2.73883528,5.71245225,0.21341725,0.52272272,1.10839347
27163,0,USMinnesotaWashington,Minnesota,Washington,2021-01-05 18:26:04.846615,2021-01-01 00:00:00.000000,2.53749938,4.27665928,7.46161148,6659,11223,19582,3472,6969,14587,1.32322519,2.65577402,5.55832118,0.22161729,0.53021122,1.12610038
27163,0,USMinnesotaWashington,Minnesota,Washington,2021-01-05 18:26:04.846615,2021-01-02 00:00:00.000000,2.44698997,4.15178566,7.13168583,6421,10895,18716,3340,6750,14182,1.27274768,2.57213504,5.40422236,0.22707580,0.53585339,1.16149686
27163,0,USMinnesotaWashington,Minnesota,Washington,2021-01-05 18:26:04.846615,2021-01-03 00:00:00.000000,2.31781102,4.03677235,6.81132029,6082,10594,17875,3213,6581,13639,1.22434033,2.50765088,5.19714839,0.22907195,0.53417738,1.18595369
27163,0,USMinnesotaWashington,Minnesota,Washington,2021-01-05 18:26:04.846615,2021-01-04 00:00:00.000000,2.23474640,3.90151624,6.50075935,5864,10239,17060,3091,6394,13059,1.17793175,2.43665870,4.97637396,0.22961624,0.53201257,1.24829141
27163,0,USMinnesotaWashington,Minnesota,Washington,2021-01-05 18:26:04.846615,2021-01-05 00:00:00.000000,2.08593588,3.75539063,6.22151025,5474,9855,16327,2976,6216,12495,1.13429761,2.36874440,4.76145837,0.22974131,0.53324542,1.26971130
27163,0,USMinnesotaWashington,Minnesota,Washington,2021-01-05 18:26:04.846615,2021-01-06 00:00:00.000000,1.96104728,3.62744041,6.00056499,5146,9519,15747,2874,6035,11947,1.09519893,2.29971670,4.55242955,0.22976246,0.54584226,1.27347095
27163,0,USMinnesotaWashington,Minnesota,Washington,2021-01-05 18:26:04.846615,2021-01-07 00:00:00.000000,1.85345118,3.50141834,5.78493193,4864,9189,15181,2782,5837,11413,1.06038128,2.22428585,4.34886971,0.22976152,0.54757539,1.27567226
27163,0,USMinnesotaWashington,Minnesota,Washington,2021-01-05 18:26:04.846615,2021-01-08 00:00:00.000000,1.75158165,3.39755431,5.57485821,4596,8916,14630,2700,5640,10893,1.02887429,2.14918011,4.15075655,0.22975771,0.54732143,1.27695135
27163,0,USMinnesotaWashington,Minnesota,Washington,2021-01-05 18:26:04.846615,2021-01-09 00:00:00.000000,1.65516835,3.26061682,5.37046394,4343,8557,14094,2550,5463,10388,0.97167612,2.08191185,3.95825652,0.22975475,0.54722146,1.27771205
27163,0,USMinnesotaWashington,Minnesota,Washington,2021-01-05 18:26:04.846615,2021-01-10 00:00:00.000000,1.56394586,3.13442445,5.17181540,4104,8225,13572,2380,5291,9993,0.90705692,2.01628185,3.80778498,0.22975289,0.54718252,1.27817687
27163,0,USMinnesotaWashington,Minnesota,Washington,2021-01-05 18:26:04.846615,2021-01-11 00:00:00.000000,1.47765582,3.03317092,4.97894007,3877,7960,13066,2221,5127,9638,0.84650044,1.95387383,3.67281898,0.22975181,0.54716740,1.27846708
27163,0,USMinnesotaWashington,Minnesota,Washington,2021-01-05 18:26:04.846615,2021-01-12 00:00:00.000000,1.39604825,2.93447680,4.81237704,3663,7701,12629,2072,4970,9293,0.78978486,1.89393144,3.54104286,0.22975119,0.54716154,1.27865098
27163,0,USMinnesotaWashington,Minnesota,Washington,2021-01-05 18:26:04.846615,2021-01-13 00:00:00.000000,1.31888243,2.84501789,4.70153399,3461,7466,12338,1992,4830,9026,0.75919421,1.84067075,3.43933056,0.22975085,0.54715928,1.27876864
27163,0,USMinnesotaWashington,Minnesota,Washington,2021-01-05 18:26:04.846615,2021-01-14 00:00:00.000000,1.24592738,2.75860826,4.59246027,3269,7239,12052,1922,4650,8821,0.73272568,1.77193900,3.36152486,0.22975066,0.54715840,1.27884438
27163,0,USMinnesotaWashington,Minnesota,Washington,2021-01-05 18:26:04.846615,2021-01-15 00:00:00.000000,1.17696209,2.65375133,4.48516894,3088,6964,11770,1855,4505,8621,0.70715024,1.71679684,3.28498771,0.22975056,0.54715806,1.27889332
27163,0,USMinnesotaWashington,Minnesota,Washington,2021-01-05 18:26:04.846615,2021-01-16 00:00:00.000000,1.11209060,2.57040021,4.36011514,2918,6745,11442,1790,4361,8423,0.68242998,1.66179955,3.20970299,0.22975050,0.54715792,1.27892501
27163,0,USMinnesotaWashington,Minnesota,Washington,2021-01-05 18:26:04.846615,2021-01-17 00:00:00.000000,1.05089726,2.48849646,4.17843255,2757,6530,10965,1728,4220,8229,0.65853185,1.60835671,3.13566047,0.22975047,0.54715787,1.27894556
