FIPS,HR_UID,nameid,province,region,analysisTime,dates,pointprevalence_025,pointprevalence_50,pointprevalence_975,pointinfections_025,pointinfections_50,pointinfections_975,pointinfectious_025,pointinfectious_50,pointinfectious_975,pointinfectiousprevalence_05,pointinfectiousprevalence_50,pointinfectiousprevalence_95,infectrate_025,infectrate_50,infectrate_975
4025,0,USArizonaYavapai,Arizona,Yavapai,2021-01-06 04:55:11.196838,2020-03-09 00:00:00.000000,0.00129546,0.00348601,0.00765856,3,8,18,0,3,8,0.00040249,0.00145913,0.00363377,0.45466976,0.59648408,0.79372197
4025,0,USArizonaYavapai,Arizona,Yavapai,2021-01-06 04:55:11.196838,2020-03-10 00:00:00.000000,0.00167602,0.00459262,0.00898238,3,10,21,1,3,9,0.00051407,0.00158638,0.00384241,0.45464436,0.59644957,0.79358534
4025,0,USArizonaYavapai,Arizona,Yavapai,2021-01-06 04:55:11.196838,2020-03-11 00:00:00.000000,0.00204218,0.00545096,0.01071923,4,12,25,1,4,10,0.00065176,0.00187103,0.00435749,0.45459797,0.59639706,0.79332532
4025,0,USArizonaYavapai,Arizona,Yavapai,2021-01-06 04:55:11.196838,2020-03-12 00:00:00.000000,0.00243332,0.00657446,0.01268419,5,15,29,1,5,11,0.00075966,0.00222372,0.00502208,0.45451353,0.59616818,0.79283102
4025,0,USArizonaYavapai,Arizona,Yavapai,2021-01-06 04:55:11.196838,2020-03-13 00:00:00.000000,0.00285659,0.00772378,0.01504242,6,18,35,2,6,13,0.00092185,0.00261482,0.00583122,0.45436073,0.59529962,0.79189341
4025,0,USArizonaYavapai,Arizona,Yavapai,2021-01-06 04:55:11.196838,2020-03-14 00:00:00.000000,0.00331809,0.00878966,0.01763319,7,20,41,2,7,16,0.00117323,0.00312106,0.00686251,0.45408692,0.59494982,0.79012228
4025,0,USArizonaYavapai,Arizona,Yavapai,2021-01-06 04:55:11.196838,2020-03-15 00:00:00.000000,0.00391906,0.00996780,0.02048362,9,23,48,3,8,18,0.00148492,0.00370937,0.00793268,0.45360440,0.59367032,0.78680276
4025,0,USArizonaYavapai,Arizona,Yavapai,2021-01-06 04:55:11.196838,2020-03-16 00:00:00.000000,0.00515080,0.01214800,0.02370152,12,28,55,4,10,21,0.00183642,0.00432286,0.00912872,0.45277593,0.59126626,0.78067147
4025,0,USArizonaYavapai,Arizona,Yavapai,2021-01-06 04:55:11.196838,2020-03-17 00:00:00.000000,0.00653298,0.01377354,0.02709421,15,32,63,5,11,25,0.00227213,0.00508845,0.01067566,0.45140437,0.58930114,0.77039820
4025,0,USArizonaYavapai,Arizona,Yavapai,2021-01-06 04:55:11.196838,2020-03-18 00:00:00.000000,0.00801817,0.01578829,0.03061380,18,37,71,6,14,29,0.00278258,0.00604011,0.01249602,0.44924097,0.58635543,0.76373205
4025,0,USArizonaYavapai,Arizona,Yavapai,2021-01-06 04:55:11.196838,2020-03-19 00:00:00.000000,0.00915414,0.01804057,0.03439815,21,42,80,7,16,34,0.00334699,0.00702196,0.01456730,0.44616831,0.57752832,0.75354286
4025,0,USArizonaYavapai,Arizona,Yavapai,2021-01-06 04:55:11.196838,2020-03-20 00:00:00.000000,0.01043342,0.02083496,0.03841486,24,48,90,8,18,38,0.00373411,0.00807325,0.01652512,0.41722830,0.56170228,0.73891725
4025,0,USArizonaYavapai,Arizona,Yavapai,2021-01-06 04:55:11.196838,2020-03-21 00:00:00.000000,0.01212761,0.02280254,0.04264627,28,53,100,10,21,43,0.00432772,0.00912621,0.01855147,0.40696227,0.54706208,0.71977207
4025,0,USArizonaYavapai,Arizona,Yavapai,2021-01-06 04:55:11.196838,2020-03-22 00:00:00.000000,0.01384775,0.02473292,0.04771135,32,58,112,11,23,48,0.00480619,0.01018517,0.02072712,0.38245934,0.53646911,0.66725754
4025,0,USArizonaYavapai,Arizona,Yavapai,2021-01-06 04:55:11.196838,2020-03-23 00:00:00.000000,0.01597195,0.02785483,0.05247837,37,65,123,12,26,54,0.00550775,0.01126054,0.02304492,0.37564772,0.52767487,0.64980168
4025,0,USArizonaYavapai,Arizona,Yavapai,2021-01-06 04:55:11.196838,2020-03-24 00:00:00.000000,0.01809354,0.03079870,0.05722719,42,72,134,14,29,60,0.00627855,0.01260289,0.02573422,0.37176313,0.51564931,0.65549907
4025,0,USArizonaYavapai,Arizona,Yavapai,2021-01-06 04:55:11.196838,2020-03-25 00:00:00.000000,0.01970849,0.03356002,0.06166744,46,78,144,16,33,66,0.00704870,0.01404376,0.02815308,0.36257783,0.50089285,0.65519882
4025,0,USArizonaYavapai,Arizona,Yavapai,2021-01-06 04:55:11.196838,2020-03-26 00:00:00.000000,0.02183870,0.03748346,0.06644860,51,88,156,18,36,72,0.00782761,0.01556035,0.03076901,0.35456344,0.49415135,0.65184052
4025,0,USArizonaYavapai,Arizona,Yavapai,2021-01-06 04:55:11.196838,2020-03-27 00:00:00.000000,0.02450126,0.04056798,0.07218658,57,95,169,20,41,78,0.00868256,0.01747673,0.03358201,0.34501759,0.48022535,0.65514348
4025,0,USArizonaYavapai,Arizona,Yavapai,2021-01-06 04:55:11.196838,2020-03-28 00:00:00.000000,0.02723750,0.04369764,0.07769927,64,102,182,23,45,86,0.00983991,0.01934395,0.03658489,0.33752317,0.46481367,0.67256291
4025,0,USArizonaYavapai,Arizona,Yavapai,2021-01-06 04:55:11.196838,2020-03-29 00:00:00.000000,0.03004499,0.04693905,0.08322059,70,110,195,25,49,93,0.01104568,0.02123944,0.03975641,0.32200086,0.44487349,0.67642184
4025,0,USArizonaYavapai,Arizona,Yavapai,2021-01-06 04:55:11.196838,2020-03-30 00:00:00.000000,0.03111684,0.05122784,0.08841638,73,120,207,28,54,101,0.01229269,0.02315367,0.04297578,0.31138106,0.43225226,0.67332430
4025,0,USArizonaYavapai,Arizona,Yavapai,2021-01-06 04:55:11.196838,2020-03-31 00:00:00.000000,0.03372556,0.05515871,0.09247389,79,129,217,31,58,108,0.01332411,0.02501694,0.04594890,0.30797325,0.42567274,0.66238304
4025,0,USArizonaYavapai,Arizona,Yavapai,2021-01-06 04:55:11.196838,2020-04-01 00:00:00.000000,0.03630324,0.05824584,0.10010611,85,136,235,34,63,114,0.01452659,0.02684056,0.04861867,0.30641528,0.42351933,0.63838944
4025,0,USArizonaYavapai,Arizona,Yavapai,2021-01-06 04:55:11.196838,2020-04-02 00:00:00.000000,0.03846621,0.06178493,0.10665453,90,145,250,37,67,120,0.01575545,0.02861783,0.05107574,0.29870893,0.41765999,0.61942127
4025,0,USArizonaYavapai,Arizona,Yavapai,2021-01-06 04:55:11.196838,2020-04-03 00:00:00.000000,0.04034892,0.06469965,0.11394711,94,152,267,39,71,125,0.01683649,0.03037902,0.05341956,0.29616910,0.41216022,0.60703146
4025,0,USArizonaYavapai,Arizona,Yavapai,2021-01-06 04:55:11.196838,2020-04-04 00:00:00.000000,0.04209534,0.06792111,0.12109743,98,159,284,41,75,135,0.01760288,0.03221407,0.05756280,0.29063958,0.40875348,0.60401722
4025,0,USArizonaYavapai,Arizona,Yavapai,2021-01-06 04:55:11.196838,2020-04-05 00:00:00.000000,0.04502320,0.07261870,0.12973959,105,170,305,43,80,145,0.01838737,0.03416990,0.06198088,0.28357447,0.39532406,0.60363627
4025,0,USArizonaYavapai,Arizona,Yavapai,2021-01-06 04:55:11.196838,2020-04-06 00:00:00.000000,0.04869945,0.07674880,0.13723440,114,180,322,45,84,156,0.01918735,0.03613225,0.06642323,0.28105525,0.39187097,0.60339162
4025,0,USArizonaYavapai,Arizona,Yavapai,2021-01-06 04:55:11.196838,2020-04-07 00:00:00.000000,0.05252329,0.08171492,0.14655177,123,192,344,48,90,166,0.02043489,0.03830884,0.07077304,0.27515247,0.39030178,0.60299848
4025,0,USArizonaYavapai,Arizona,Yavapai,2021-01-06 04:55:11.196838,2020-04-08 00:00:00.000000,0.05608636,0.08595883,0.15446451,131,202,363,51,95,176,0.02201467,0.04078653,0.07509127,0.27495105,0.38371751,0.60219023
4025,0,USArizonaYavapai,Arizona,Yavapai,2021-01-06 04:55:11.196838,2020-04-09 00:00:00.000000,0.05932802,0.09137299,0.16235264,139,214,381,55,102,186,0.02370975,0.04372974,0.07942519,0.27441495,0.38193931,0.59454494
4025,0,USArizonaYavapai,Arizona,Yavapai,2021-01-06 04:55:11.196838,2020-04-10 00:00:00.000000,0.06204718,0.09631305,0.17040586,145,226,400,59,108,197,0.02551496,0.04603348,0.08380417,0.27281304,0.37618336,0.58038005
4025,0,USArizonaYavapai,Arizona,Yavapai,2021-01-06 04:55:11.196838,2020-04-11 00:00:00.000000,0.06484035,0.10107732,0.17863316,152,237,419,64,115,207,0.02742793,0.04902765,0.08820829,0.27142069,0.37652205,0.56901411
4025,0,USArizonaYavapai,Arizona,Yavapai,2021-01-06 04:55:11.196838,2020-04-12 00:00:00.000000,0.06772350,0.10717824,0.18706223,159,251,439,69,123,217,0.02944664,0.05239726,0.09267471,0.27258615,0.37717546,0.57956850
4025,0,USArizonaYavapai,Arizona,Yavapai,2021-01-06 04:55:11.196838,2020-04-13 00:00:00.000000,0.07277805,0.11281839,0.19679817,171,265,462,73,129,228,0.03137964,0.05520897,0.09722128,0.27582700,0.37689965,0.55945170
4025,0,USArizonaYavapai,Arizona,Yavapai,2021-01-06 04:55:11.196838,2020-04-14 00:00:00.000000,0.07607066,0.11725500,0.20794524,178,275,488,77,137,241,0.03276122,0.05827365,0.10293281,0.27967938,0.37824110,0.55803323
4025,0,USArizonaYavapai,Arizona,Yavapai,2021-01-06 04:55:11.196838,2020-04-15 00:00:00.000000,0.07830565,0.12375275,0.21965908,184,290,516,80,142,256,0.03411006,0.06070649,0.10914104,0.28054817,0.37896558,0.55730720
4025,0,USArizonaYavapai,Arizona,Yavapai,2021-01-06 04:55:11.196838,2020-04-16 00:00:00.000000,0.08079808,0.13159343,0.23201252,189,309,545,84,151,271,0.03578795,0.06461013,0.11557585,0.28052995,0.38005671,0.55649677
4025,0,USArizonaYavapai,Arizona,Yavapai,2021-01-06 04:55:11.196838,2020-04-17 00:00:00.000000,0.08441223,0.13843452,0.24514370,198,325,576,88,158,287,0.03744022,0.06757015,0.12225529,0.28073561,0.38400046,0.55383309
4025,0,USArizonaYavapai,Arizona,Yavapai,2021-01-06 04:55:11.196838,2020-04-18 00:00:00.000000,0.08831222,0.14430678,0.25931222,207,339,609,91,166,303,0.03907976,0.07095093,0.12912859,0.28136311,0.38232243,0.53343152
4025,0,USArizonaYavapai,Arizona,Yavapai,2021-01-06 04:55:11.196838,2020-04-19 00:00:00.000000,0.09173452,0.15226300,0.27479510,215,357,646,95,174,320,0.04071648,0.07443052,0.13616812,0.28246524,0.38243464,0.53641156
4025,0,USArizonaYavapai,Arizona,Yavapai,2021-01-06 04:55:11.196838,2020-04-20 00:00:00.000000,0.09665762,0.15835844,0.29098595,227,372,684,99,184,337,0.04236175,0.07826911,0.14340793,0.28089848,0.38170006,0.52776171
4025,0,USArizonaYavapai,Arizona,Yavapai,2021-01-06 04:55:11.196838,2020-04-21 00:00:00.000000,0.10095027,0.16665596,0.30801575,237,391,724,103,193,355,0.04385219,0.08236275,0.15110381,0.28044429,0.38072014,0.51607827
4025,0,USArizonaYavapai,Arizona,Yavapai,2021-01-06 04:55:11.196838,2020-04-22 00:00:00.000000,0.10339334,0.17461100,0.32527615,243,410,764,106,203,374,0.04524529,0.08637090,0.15923810,0.27287177,0.37824778,0.51548913
4025,0,USArizonaYavapai,Arizona,Yavapai,2021-01-06 04:55:11.196838,2020-04-23 00:00:00.000000,0.10595273,0.18406594,0.34232022,249,432,804,109,210,394,0.04657696,0.08958948,0.16780328,0.27032603,0.37650630,0.51661553
4025,0,USArizonaYavapai,Arizona,Yavapai,2021-01-06 04:55:11.196838,2020-04-24 00:00:00.000000,0.11079248,0.19301694,0.35893059,260,453,843,112,220,415,0.04787275,0.09387758,0.17677411,0.26884647,0.37289638,0.51171932
4025,0,USArizonaYavapai,Arizona,Yavapai,2021-01-06 04:55:11.196838,2020-04-25 00:00:00.000000,0.11971791,0.20447494,0.37507064,281,480,881,117,231,437,0.04979895,0.09851006,0.18599114,0.26704124,0.37245422,0.49329576
4025,0,USArizonaYavapai,Arizona,Yavapai,2021-01-06 04:55:11.196838,2020-04-26 00:00:00.000000,0.12259152,0.21190510,0.39087211,288,498,918,122,241,458,0.05210153,0.10272713,0.19496925,0.25787911,0.36748418,0.49087522
4025,0,USArizonaYavapai,Arizona,Yavapai,2021-01-06 04:55:11.196838,2020-04-27 00:00:00.000000,0.12740306,0.21816037,0.40609776,299,512,954,128,252,478,0.05454165,0.10750253,0.20340284,0.24777871,0.35798711,0.47677273
4025,0,USArizonaYavapai,Arizona,Yavapai,2021-01-06 04:55:11.196838,2020-04-28 00:00:00.000000,0.13225202,0.22529219,0.42114149,310,529,990,138,264,496,0.05871564,0.11261473,0.21108652,0.24414669,0.35492346,0.47420829
4025,0,USArizonaYavapai,Arizona,Yavapai,2021-01-06 04:55:11.196838,2020-04-29 00:00:00.000000,0.13723689,0.23307821,0.43473608,322,547,1022,146,274,513,0.06232152,0.11679762,0.21822418,0.24109705,0.34687999,0.47602657
4025,0,USArizonaYavapai,Arizona,Yavapai,2021-01-06 04:55:11.196838,2020-04-30 00:00:00.000000,0.14241887,0.24022494,0.44505443,334,564,1046,150,284,528,0.06422684,0.12114311,0.22496814,0.23922212,0.33667608,0.47532002
4025,0,USArizonaYavapai,Arizona,Yavapai,2021-01-06 04:55:11.196838,2020-05-01 00:00:00.000000,0.14764287,0.25201655,0.45517963,347,592,1070,155,294,544,0.06621426,0.12507204,0.23141952,0.23756063,0.32522456,0.46897675
4025,0,USArizonaYavapai,Arizona,Yavapai,2021-01-06 04:55:11.196838,2020-05-02 00:00:00.000000,0.15189720,0.25879431,0.46484348,357,608,1092,160,302,558,0.06826167,0.12849990,0.23762958,0.23171627,0.31171448,0.46633975
4025,0,USArizonaYavapai,Arizona,Yavapai,2021-01-06 04:55:11.196838,2020-05-03 00:00:00.000000,0.15621844,0.26790401,0.47370557,367,629,1113,165,309,572,0.07031390,0.13182275,0.24359643,0.21413240,0.30545287,0.45531345
4025,0,USArizonaYavapai,Arizona,Yavapai,2021-01-06 04:55:11.196838,2020-05-04 00:00:00.000000,0.16111198,0.27300892,0.48232301,378,641,1133,169,319,586,0.07218379,0.13592838,0.24926646,0.19849909,0.29882037,0.43212935
4025,0,USArizonaYavapai,Arizona,Yavapai,2021-01-06 04:55:11.196838,2020-05-05 00:00:00.000000,0.16590528,0.27756050,0.48960428,390,652,1151,173,325,598,0.07375567,0.13843394,0.25466071,0.18389221,0.29227133,0.40964449
4025,0,USArizonaYavapai,Arizona,Yavapai,2021-01-06 04:55:11.196838,2020-05-06 00:00:00.000000,0.17073526,0.27955594,0.49549972,401,657,1164,176,331,610,0.07499346,0.14120154,0.25965382,0.18268448,0.28485536,0.39085531
4025,0,USArizonaYavapai,Arizona,Yavapai,2021-01-06 04:55:11.196838,2020-05-07 00:00:00.000000,0.17368403,0.28068743,0.49973187,408,659,1174,178,343,620,0.07598749,0.14614169,0.26414262,0.17585628,0.27595438,0.38194085
4025,0,USArizonaYavapai,Arizona,Yavapai,2021-01-06 04:55:11.196838,2020-05-08 00:00:00.000000,0.17450515,0.28652174,0.50226497,410,673,1180,181,355,630,0.07705985,0.15140089,0.26804078,0.17529765,0.26788109,0.38164329
4025,0,USArizonaYavapai,Arizona,Yavapai,2021-01-06 04:55:11.196838,2020-05-09 00:00:00.000000,0.17818068,0.29059404,0.50293378,418,683,1182,185,364,637,0.07889889,0.15501280,0.27125564,0.17474436,0.25637172,0.37004260
4025,0,USArizonaYavapai,Arizona,Yavapai,2021-01-06 04:55:11.196838,2020-05-10 00:00:00.000000,0.17796902,0.29193341,0.50185707,418,686,1179,188,374,643,0.08019632,0.15920040,0.27368985,0.17410009,0.24155385,0.35869392
4025,0,USArizonaYavapai,Arizona,Yavapai,2021-01-06 04:55:11.196838,2020-05-11 00:00:00.000000,0.17468895,0.29228892,0.49961004,410,687,1174,192,380,647,0.08201090,0.16177114,0.27529040,0.16881217,0.23711437,0.34899315
4025,0,USArizonaYavapai,Arizona,Yavapai,2021-01-06 04:55:11.196838,2020-05-12 00:00:00.000000,0.17382131,0.29178991,0.49657216,408,685,1167,193,381,649,0.08231799,0.16213463,0.27610771,0.16419168,0.23242741,0.33795023
4025,0,USArizonaYavapai,Arizona,Yavapai,2021-01-06 04:55:11.196838,2020-05-13 00:00:00.000000,0.17284734,0.29123654,0.49310020,406,684,1159,192,377,649,0.08181712,0.16051897,0.27623608,0.16188603,0.23147378,0.32794459
4025,0,USArizonaYavapai,Arizona,Yavapai,2021-01-06 04:55:11.196838,2020-05-14 00:00:00.000000,0.17025213,0.28894832,0.48940544,400,679,1150,192,380,648,0.08197050,0.16178413,0.27579921,0.16084902,0.23097158,0.33565124
4025,0,USArizonaYavapai,Arizona,Yavapai,2021-01-06 04:55:11.196838,2020-05-15 00:00:00.000000,0.16756403,0.28734463,0.48560561,393,675,1141,194,377,646,0.08271520,0.16076589,0.27491992,0.14919237,0.22945666,0.34379206
4025,0,USArizonaYavapai,Arizona,Yavapai,2021-01-06 04:55:11.196838,2020-05-16 00:00:00.000000,0.16647951,0.28666772,0.48612012,391,673,1142,197,375,643,0.08410692,0.15957237,0.27370557,0.15460585,0.23043947,0.35057703
4025,0,USArizonaYavapai,Arizona,Yavapai,2021-01-06 04:55:11.196838,2020-05-17 00:00:00.000000,0.16697799,0.28721798,0.49975225,392,675,1174,198,372,640,0.08451102,0.15835364,0.27224218,0.16001676,0.22984249,0.34777107
4025,0,USArizonaYavapai,Arizona,Yavapai,2021-01-06 04:55:11.196838,2020-05-18 00:00:00.000000,0.16623260,0.28929965,0.51237545,390,680,1204,193,369,638,0.08225414,0.15714426,0.27177827,0.15807448,0.23321830,0.35629802
4025,0,USArizonaYavapai,Arizona,Yavapai,2021-01-06 04:55:11.196838,2020-05-19 00:00:00.000000,0.16684053,0.29220076,0.52417038,392,686,1232,192,366,656,0.08179262,0.15575859,0.27931938,0.15479276,0.23672269,0.35987181
4025,0,USArizonaYavapai,Arizona,Yavapai,2021-01-06 04:55:11.196838,2020-05-20 00:00:00.000000,0.16908746,0.29374802,0.53546073,397,690,1258,191,363,675,0.08158896,0.15449660,0.28734463,0.15182478,0.23856016,0.36182560
4025,0,USArizonaYavapai,Arizona,Yavapai,2021-01-06 04:55:11.196838,2020-05-21 00:00:00.000000,0.16768422,0.29313458,0.54607863,394,689,1283,191,364,693,0.08136107,0.15522940,0.29496828,0.15180293,0.24047654,0.36432950
4025,0,USArizonaYavapai,Arizona,Yavapai,2021-01-06 04:55:11.196838,2020-05-22 00:00:00.000000,0.16646738,0.29455999,0.55567914,391,692,1306,188,370,710,0.08039147,0.15755943,0.30220999,0.15197833,0.24223749,0.36793213
4025,0,USArizonaYavapai,Arizona,Yavapai,2021-01-06 04:55:11.196838,2020-05-23 00:00:00.000000,0.16549777,0.29225376,0.56502130,389,687,1328,186,373,726,0.07941984,0.15878835,0.30905529,0.15262724,0.24399668,0.38194834
4025,0,USArizonaYavapai,Arizona,Yavapai,2021-01-06 04:55:11.196838,2020-05-24 00:00:00.000000,0.16487021,0.29641101,0.57447599,387,696,1350,185,370,741,0.07878561,0.15752227,0.31556738,0.15481027,0.24456146,0.38259797
4025,0,USArizonaYavapai,Arizona,Yavapai,2021-01-06 04:55:11.196838,2020-05-25 00:00:00.000000,0.16562339,0.29685702,0.58436805,389,697,1373,188,367,756,0.08023656,0.15650331,0.32184928,0.16081301,0.25079274,0.38283658
4025,0,USArizonaYavapai,Arizona,Yavapai,2021-01-06 04:55:11.196838,2020-05-26 00:00:00.000000,0.16692854,0.30162982,0.59454128,392,709,1397,192,366,771,0.08200192,0.15577686,0.32803367,0.17435837,0.25615046,0.38293137
4025,0,USArizonaYavapai,Arizona,Yavapai,2021-01-06 04:55:11.196838,2020-05-27 00:00:00.000000,0.16885546,0.30681313,0.60504108,396,721,1422,193,365,785,0.08237328,0.15552464,0.33419427,0.19437415,0.27087703,0.38303422
4025,0,USArizonaYavapai,Arizona,Yavapai,2021-01-06 04:55:11.196838,2020-05-28 00:00:00.000000,0.17138037,0.31035226,0.61586749,402,729,1447,195,369,800,0.08312389,0.15696291,0.34039243,0.19495268,0.27995303,0.40609278
4025,0,USArizonaYavapai,Arizona,Yavapai,2021-01-06 04:55:11.196838,2020-05-29 00:00:00.000000,0.17456613,0.31432962,0.62185550,410,738,1461,198,378,815,0.08429321,0.16080722,0.34667265,0.20274603,0.28817711,0.41340469
4025,0,USArizonaYavapai,Arizona,Yavapai,2021-01-06 04:55:11.196838,2020-05-30 00:00:00.000000,0.18364551,0.31916279,0.62606841,431,750,1471,202,388,830,0.08600825,0.16504298,0.35306124,0.20535121,0.29478019,0.42143928
4025,0,USArizonaYavapai,Arizona,Yavapai,2021-01-06 04:55:11.196838,2020-05-31 00:00:00.000000,0.18998093,0.32897265,0.63119513,446,773,1483,207,393,845,0.08847298,0.16753888,0.35957081,0.21327445,0.30875431,0.44534626
4025,0,USArizonaYavapai,Arizona,Yavapai,2021-01-06 04:55:11.196838,2020-06-01 00:00:00.000000,0.19255030,0.33833737,0.63960022,452,795,1503,215,402,860,0.09180549,0.17114718,0.36620729,0.22402389,0.32487166,0.46898447
4025,0,USArizonaYavapai,Arizona,Yavapai,2021-01-06 04:55:11.196838,2020-06-02 00:00:00.000000,0.20033164,0.34636923,0.65378339,470,814,1537,225,410,877,0.09588379,0.17462912,0.37305193,0.22481664,0.34268961,0.48855729
4025,0,USArizonaYavapai,Arizona,Yavapai,2021-01-06 04:55:11.196838,2020-06-03 00:00:00.000000,0.21016174,0.36207573,0.67303267,494,851,1582,236,420,893,0.10068053,0.17884775,0.38009620,0.22675551,0.35442481,0.53905481
4025,0,USArizonaYavapai,Arizona,Yavapai,2021-01-06 04:55:11.196838,2020-06-04 00:00:00.000000,0.22414641,0.37769044,0.69492076,526,887,1633,249,432,910,0.10606777,0.18404899,0.38735133,0.23569437,0.36609219,0.53969135
4025,0,USArizonaYavapai,Arizona,Yavapai,2021-01-06 04:55:11.196838,2020-06-05 00:00:00.000000,0.24297253,0.39337965,0.71777522,571,924,1687,258,444,928,0.11003744,0.18913745,0.39485919,0.24500657,0.37739376,0.56081663
4025,0,USArizonaYavapai,Arizona,Yavapai,2021-01-06 04:55:11.196838,2020-06-06 00:00:00.000000,0.25715191,0.41170617,0.73406406,604,967,1725,267,457,946,0.11383160,0.19453248,0.40270264,0.25284262,0.40014204,0.59807850
4025,0,USArizonaYavapai,Arizona,Yavapai,2021-01-06 04:55:11.196838,2020-06-07 00:00:00.000000,0.27465081,0.43533622,0.75189107,645,1023,1767,279,465,966,0.11889761,0.19805514,0.41100386,0.26327228,0.41060232,0.59465871
4025,0,USArizonaYavapai,Arizona,Yavapai,2021-01-06 04:55:11.196838,2020-06-08 00:00:00.000000,0.29138520,0.46493938,0.79911955,685,1093,1878,295,482,987,0.12565564,0.20535821,0.41989700,0.27688594,0.42245222,0.58706175
4025,0,USArizonaYavapai,Arizona,Yavapai,2021-01-06 04:55:11.196838,2020-06-09 00:00:00.000000,0.30863152,0.48822331,0.85554337,725,1147,2011,315,507,1009,0.13440674,0.21568187,0.42934552,0.28015579,0.43737837,0.60156802
4025,0,USArizonaYavapai,Arizona,Yavapai,2021-01-06 04:55:11.196838,2020-06-10 00:00:00.000000,0.32589601,0.51495661,0.89916635,766,1210,2113,340,532,1072,0.14471583,0.22652602,0.45601659,0.28140153,0.44946166,0.61114808
4025,0,USArizonaYavapai,Arizona,Yavapai,2021-01-06 04:55:11.196838,2020-06-11 00:00:00.000000,0.34422602,0.53968003,0.94209023,809,1268,2214,367,565,1142,0.15628211,0.24046184,0.48609948,0.29236680,0.45588395,0.64015276
4025,0,USArizonaYavapai,Arizona,Yavapai,2021-01-06 04:55:11.196838,2020-06-12 00:00:00.000000,0.36396016,0.56771054,0.98119375,855,1334,2306,386,606,1220,0.16456551,0.25806587,0.51904486,0.30119426,0.46873806,0.65546608
4025,0,USArizonaYavapai,Arizona,Yavapai,2021-01-06 04:55:11.196838,2020-06-13 00:00:00.000000,0.38550923,0.59966998,1.04980038,906,1409,2468,411,648,1303,0.17501122,0.27580490,0.55462307,0.32512010,0.47970047,0.66754772
4025,0,USArizonaYavapai,Arizona,Yavapai,2021-01-06 04:55:11.196838,2020-06-14 00:00:00.000000,0.40908744,0.62812160,1.11149387,961,1476,2613,442,696,1365,0.18822575,0.29625422,0.58070322,0.34447554,0.49603141,0.67814905
4025,0,USArizonaYavapai,Arizona,Yavapai,2021-01-06 04:55:11.196838,2020-06-15 00:00:00.000000,0.43545751,0.66414861,1.14943038,1023,1561,2702,479,747,1416,0.20398213,0.31798264,0.60235257,0.34476746,0.50842147,0.72422692
4025,0,USArizonaYavapai,Arizona,Yavapai,2021-01-06 04:55:11.196838,2020-06-16 00:00:00.000000,0.47503012,0.72147370,1.20449874,1116,1696,2831,521,799,1466,0.22181512,0.33999355,0.62398903,0.36725584,0.50901851,0.71581890
4025,0,USArizonaYavapai,Arizona,Yavapai,2021-01-06 04:55:11.196838,2020-06-17 00:00:00.000000,0.50698058,0.78351836,1.29564344,1191,1842,3046,567,853,1517,0.24149458,0.36318509,0.64560873,0.36497436,0.51096064,0.70996495
4025,0,USArizonaYavapai,Arizona,Yavapai,2021-01-06 04:55:11.196838,2020-06-18 00:00:00.000000,0.53898259,0.84283597,1.36910818,1267,1981,3218,597,912,1569,0.25424651,0.38804098,0.66739577,0.35792435,0.50709248,0.69931811
4025,0,USArizonaYavapai,Arizona,Yavapai,2021-01-06 04:55:11.196838,2020-06-19 00:00:00.000000,0.57359629,0.89821834,1.49785303,1348,2111,3521,639,982,1659,0.27181314,0.41790104,0.70575608,0.34405443,0.50569333,0.70214813
4025,0,USArizonaYavapai,Arizona,Yavapai,2021-01-06 04:55:11.196838,2020-06-20 00:00:00.000000,0.61087888,0.96049023,1.61199654,1436,2258,3789,687,1053,1751,0.29248240,0.44808338,0.74504208,0.32634031,0.49913096,0.68613642
4025,0,USArizonaYavapai,Arizona,Yavapai,2021-01-06 04:55:11.196838,2020-06-21 00:00:00.000000,0.65089274,1.02914820,1.67607449,1530,2419,3940,723,1132,1862,0.30767537,0.48183936,0.79225777,0.31369356,0.47894973,0.67510880
4025,0,USArizonaYavapai,Arizona,Yavapai,2021-01-06 04:55:11.196838,2020-06-22 00:00:00.000000,0.69413225,1.10111486,1.74104879,1631,2588,4093,761,1221,2033,0.32407353,0.51959908,0.86516409,0.30014918,0.47248954,0.64162141
4025,0,USArizonaYavapai,Arizona,Yavapai,2021-01-06 04:55:11.196838,2020-06-23 00:00:00.000000,0.74022569,1.17011486,1.83949427,1740,2750,4324,802,1295,2185,0.34155373,0.55104759,0.92940082,0.29939818,0.45960926,0.63189114
4025,0,USArizonaYavapai,Arizona,Yavapai,2021-01-06 04:55:11.196838,2020-06-24 00:00:00.000000,0.78900493,1.25157735,1.99055399,1854,2942,4679,846,1378,2237,0.35998969,0.58651801,0.95172728,0.29926035,0.43849074,0.62137397
4025,0,USArizonaYavapai,Arizona,Yavapai,2021-01-06 04:55:11.196838,2020-06-25 00:00:00.000000,0.83810107,1.30165674,2.14345440,1970,3060,5039,891,1471,2307,0.37919515,0.62580880,0.98133436,0.29912638,0.42126347,0.60128770
4025,0,USArizonaYavapai,Arizona,Yavapai,2021-01-06 04:55:11.196838,2020-06-26 00:00:00.000000,0.87602386,1.37699287,2.28661375,2059,3237,5375,937,1560,2493,0.39880109,0.66370762,1.06060196,0.29038642,0.40541068,0.59294954
4025,0,USArizonaYavapai,Arizona,Yavapai,2021-01-06 04:55:11.196838,2020-06-27 00:00:00.000000,0.89809502,1.44439946,2.40135761,2111,3395,5645,983,1630,2683,0.41814724,0.69345577,1.14156984,0.27204743,0.38527673,0.56715203
4025,0,USArizonaYavapai,Arizona,Yavapai,2021-01-06 04:55:11.196838,2020-06-28 00:00:00.000000,0.91575635,1.49137770,2.42068698,2152,3506,5691,1026,1748,2866,0.43642293,0.74369939,1.21927556,0.25998302,0.35967459,0.52603920
4025,0,USArizonaYavapai,Arizona,Yavapai,2021-01-06 04:55:11.196838,2020-06-29 00:00:00.000000,0.93264068,1.53623540,2.43466444,2192,3611,5723,1065,1812,3030,0.45310237,0.77116075,1.28898207,0.25887535,0.34813637,0.50858737
4025,0,USArizonaYavapai,Arizona,Yavapai,2021-01-06 04:55:11.196838,2020-06-30 00:00:00.000000,0.94902333,1.56935082,2.44604330,2231,3689,5750,1100,1861,3172,0.46807798,0.79171142,1.34930661,0.25130979,0.34116797,0.47919414
4025,0,USArizonaYavapai,Arizona,Yavapai,2021-01-06 04:55:11.196838,2020-07-01 00:00:00.000000,0.96504365,1.61006003,2.45559412,2268,3785,5773,1132,1903,3294,0.48152387,0.80986698,1.40116129,0.25025155,0.32237805,0.45818131
4025,0,USArizonaYavapai,Arizona,Yavapai,2021-01-06 04:55:11.196838,2020-07-02 00:00:00.000000,0.98066951,1.64909861,2.46214983,2305,3877,5788,1151,1954,3325,0.48961238,0.83127095,1.41441031,0.24724320,0.31726181,0.44731153
4025,0,USArizonaYavapai,Arizona,Yavapai,2021-01-06 04:55:11.196838,2020-07-03 00:00:00.000000,0.99578078,1.69362893,2.46011567,2341,3981,5783,1162,1994,3346,0.49445140,0.84839524,1.42329022,0.23611405,0.30394198,0.42847078
4025,0,USArizonaYavapai,Arizona,Yavapai,2021-01-06 04:55:11.196838,2020-07-04 00:00:00.000000,1.01015951,1.72208034,2.46793565,2374,4048,5802,1203,2038,3358,0.51208187,0.86703591,1.42846621,0.21689607,0.29825261,0.41583309
4025,0,USArizonaYavapai,Arizona,Yavapai,2021-01-06 04:55:11.196838,2020-07-05 00:00:00.000000,1.02348562,1.74338005,2.48999351,2406,4098,5853,1219,2091,3357,0.51853903,0.88964850,1.42828709,0.20641894,0.29073108,0.39146585
4025,0,USArizonaYavapai,Arizona,Yavapai,2021-01-06 04:55:11.196838,2020-07-06 00:00:00.000000,1.04055468,1.75306746,2.52427995,2446,4121,5934,1230,2147,3345,0.52358409,0.91341167,1.42292518,0.19219653,0.28162190,0.37201494
4025,0,USArizonaYavapai,Arizona,Yavapai,2021-01-06 04:55:11.196838,2020-07-07 00:00:00.000000,1.04519640,1.74959796,2.57271150,2457,4113,6048,1240,2162,3461,0.52762528,0.91975509,1.47239446,0.18016472,0.27996925,0.36214669
4025,0,USArizonaYavapai,Arizona,Yavapai,2021-01-06 04:55:11.196838,2020-07-08 00:00:00.000000,1.05078092,1.75290810,2.61369433,2470,4121,6144,1248,2190,3567,0.53114942,0.93170700,1.51744768,0.17569937,0.27453880,0.36092027
4025,0,USArizonaYavapai,Arizona,Yavapai,2021-01-06 04:55:11.196838,2020-07-09 00:00:00.000000,1.05622435,1.75426079,2.64458728,2483,4124,6217,1256,2189,3655,0.53458885,0.93146791,1.55498705,0.17563953,0.26784906,0.36125580
4025,0,USArizonaYavapai,Arizona,Yavapai,2021-01-06 04:55:11.196838,2020-07-10 00:00:00.000000,1.06081500,1.75697073,2.66448176,2493,4130,6264,1265,2198,3731,0.53826664,0.93518183,1.58703717,0.17577253,0.26336367,0.36103478
4025,0,USArizonaYavapai,Arizona,Yavapai,2021-01-06 04:55:11.196838,2020-07-11 00:00:00.000000,1.07558390,1.75528431,2.67452563,2528,4126,6287,1264,2217,3798,0.53769757,0.94327245,1.61549639,0.17310789,0.25243645,0.36189555
4025,0,USArizonaYavapai,Arizona,Yavapai,2021-01-06 04:55:11.196838,2020-07-12 00:00:00.000000,1.08001811,1.74853204,2.67701810,2539,4110,6293,1260,2229,3859,0.53603396,0.94835202,1.64164529,0.16783227,0.24501238,0.34828460
4025,0,USArizonaYavapai,Arizona,Yavapai,2021-01-06 04:55:11.196838,2020-07-13 00:00:00.000000,1.08133691,1.75553604,2.67372659,2542,4127,6285,1257,2256,3917,0.53479416,0.95984745,1.66631667,0.16561612,0.23936901,0.34953014
4025,0,USArizonaYavapai,Arizona,Yavapai,2021-01-06 04:55:11.196838,2020-07-14 00:00:00.000000,1.08290464,1.75834407,2.66693474,2545,4133,6269,1256,2260,3973,0.53437396,0.96142464,1.69012692,0.16339718,0.23772374,0.34997885
4025,0,USArizonaYavapai,Arizona,Yavapai,2021-01-06 04:55:11.196838,2020-07-15 00:00:00.000000,1.08363626,1.75671138,2.65744148,2547,4130,6247,1256,2255,4028,0.53453006,0.95923649,1.71336551,0.16162767,0.23083858,0.35002719
4025,0,USArizonaYavapai,Arizona,Yavapai,2021-01-06 04:55:11.196838,2020-07-16 00:00:00.000000,1.08302989,1.75278555,2.64423284,2546,4120,6216,1257,2244,4011,0.53488185,0.95453049,1.70613750,0.16110673,0.22661875,0.34989959
4025,0,USArizonaYavapai,Arizona,Yavapai,2021-01-06 04:55:11.196838,2020-07-17 00:00:00.000000,1.08102681,1.73123051,2.62196955,2541,4070,6164,1257,2228,3982,0.53507487,0.94801101,1.69404452,0.15592730,0.22244625,0.34943077
4025,0,USArizonaYavapai,Arizona,Yavapai,2021-01-06 04:55:11.196838,2020-07-18 00:00:00.000000,1.07729782,1.70748595,2.58559177,2532,4014,6078,1257,2223,3947,0.53483869,0.94595557,1.67922900,0.14557320,0.21772272,0.34650750
4025,0,USArizonaYavapai,Arizona,Yavapai,2021-01-06 04:55:11.196838,2020-07-19 00:00:00.000000,1.07190652,1.68032671,2.55214609,2520,3950,6000,1256,2209,3910,0.53457583,0.93967832,1.66324166,0.13799553,0.21395380,0.33511255
4025,0,USArizonaYavapai,Arizona,Yavapai,2021-01-06 04:55:11.196838,2020-07-20 00:00:00.000000,1.06431841,1.64909686,2.51019431,2502,3877,5901,1266,2191,3847,0.53881080,0.93221003,1.63656501,0.13334415,0.21252808,0.32660640
4025,0,USArizonaYavapai,Arizona,Yavapai,2021-01-06 04:55:11.196838,2020-07-21 00:00:00.000000,1.05538216,1.61379739,2.46331191,2481,3794,5791,1275,2171,3761,0.54254080,0.92370675,1.59993240,0.13078452,0.20939731,0.32439048
4025,0,USArizonaYavapai,Arizona,Yavapai,2021-01-06 04:55:11.196838,2020-07-22 00:00:00.000000,1.04981294,1.58064048,2.41463416,2468,3716,5676,1273,2149,3675,0.54155760,0.91439406,1.56337880,0.12944130,0.20591762,0.32299708
4025,0,USArizonaYavapai,Arizona,Yavapai,2021-01-06 04:55:11.196838,2020-07-23 00:00:00.000000,1.04929954,1.55563326,2.36483454,2466,3657,5559,1260,2125,3589,0.53613157,0.90423815,1.52700072,0.12848046,0.20097082,0.32193728
4025,0,USArizonaYavapai,Arizona,Yavapai,2021-01-06 04:55:11.196838,2020-07-24 00:00:00.000000,1.03576629,1.51592984,2.33634864,2435,3563,5492,1246,2099,3504,0.53040062,0.89287895,1.49050367,0.12765370,0.19540243,0.31937035
4025,0,USArizonaYavapai,Arizona,Yavapai,2021-01-06 04:55:11.196838,2020-07-25 00:00:00.000000,1.00371701,1.48254398,2.30825358,2359,3485,5426,1232,2077,3416,0.52439064,0.88353568,1.45314508,0.12486562,0.18865618,0.31048446
4025,0,USArizonaYavapai,Arizona,Yavapai,2021-01-06 04:55:11.196838,2020-07-26 00:00:00.000000,0.97146379,1.44719219,2.27833035,2283,3402,5356,1207,2041,3338,0.51351256,0.86845462,1.41983565,0.12055585,0.18385328,0.30121615
4025,0,USArizonaYavapai,Arizona,Yavapai,2021-01-06 04:55:11.196838,2020-07-27 00:00:00.000000,0.93989932,1.41157075,2.21675683,2209,3318,5211,1179,1996,3293,0.50174802,0.84914469,1.40069999,0.12007263,0.18106898,0.29297153
4025,0,USArizonaYavapai,Arizona,Yavapai,2021-01-06 04:55:11.196838,2020-07-28 00:00:00.000000,0.90902337,1.37342434,2.15093789,2137,3228,5056,1147,1940,3246,0.48813929,0.82531998,1.38084739,0.11814211,0.17838433,0.26681988
4025,0,USArizonaYavapai,Arizona,Yavapai,2021-01-06 04:55:11.196838,2020-07-29 00:00:00.000000,0.87778469,1.33000513,2.08613268,2063,3126,4904,1125,1902,3196,0.47875354,0.80914998,1.35980181,0.11808390,0.17640476,0.27097625
4025,0,USArizonaYavapai,Arizona,Yavapai,2021-01-06 04:55:11.196838,2020-07-30 00:00:00.000000,0.84979291,1.29233122,2.02217677,1997,3038,4754,1076,1841,3142,0.45776170,0.78339186,1.33648319,0.11578420,0.17466638,0.27375080
4025,0,USArizonaYavapai,Arizona,Yavapai,2021-01-06 04:55:11.196838,2020-07-31 00:00:00.000000,0.82164597,1.26495469,1.95925307,1931,2973,4606,1030,1773,3076,0.43834965,0.75451302,1.30861252,0.11094415,0.16997895,0.27429411
4025,0,USArizonaYavapai,Arizona,Yavapai,2021-01-06 04:55:11.196838,2020-08-01 00:00:00.000000,0.79528819,1.24533016,1.89750647,1869,2927,4461,990,1717,2994,0.42137967,0.73045211,1.27355393,0.10700595,0.16331013,0.26155471
4025,0,USArizonaYavapai,Arizona,Yavapai,2021-01-06 04:55:11.196838,2020-08-02 00:00:00.000000,0.77222489,1.22478616,1.83719418,1815,2879,4319,958,1674,2894,0.40774643,0.71241430,1.23103374,0.10462742,0.15492028,0.24478868
4025,0,USArizonaYavapai,Arizona,Yavapai,2021-01-06 04:55:11.196838,2020-08-03 00:00:00.000000,0.75097757,1.19468533,1.77742022,1765,2808,4178,927,1636,2780,0.39448963,0.69613682,1.18285992,0.10357540,0.15256383,0.24489061
4025,0,USArizonaYavapai,Arizona,Yavapai,2021-01-06 04:55:11.196838,2020-08-04 00:00:00.000000,0.72924184,1.16377199,1.71920708,1714,2736,4041,897,1596,2659,0.38165799,0.67925891,1.13104723,0.10177627,0.14976060,0.24415296
4025,0,USArizonaYavapai,Arizona,Yavapai,2021-01-06 04:55:11.196838,2020-08-05 00:00:00.000000,0.69582658,1.12131320,1.66240920,1635,2636,3908,867,1559,2533,0.36915991,0.66344807,1.07745151,0.09456525,0.14864139,0.24171951
4025,0,USArizonaYavapai,Arizona,Yavapai,2021-01-06 04:55:11.196838,2020-08-06 00:00:00.000000,0.66316992,1.07543253,1.60678359,1559,2528,3777,839,1522,2406,0.35687923,0.64752085,1.02345905,0.09053075,0.14790549,0.22652999
4025,0,USArizonaYavapai,Arizona,Yavapai,2021-01-06 04:55:11.196838,2020-08-07 00:00:00.000000,0.63745193,1.04592843,1.55200767,1498,2458,3648,810,1484,2300,0.34472567,0.63158996,0.97841629,0.08861888,0.14564508,0.21749374
4025,0,USArizonaYavapai,Arizona,Yavapai,2021-01-06 04:55:11.196838,2020-08-08 00:00:00.000000,0.61172410,1.00001273,1.49786769,1438,2351,3521,781,1447,2224,0.33250635,0.61568509,0.94607763,0.08748188,0.14779869,0.21337995
4025,0,USArizonaYavapai,Arizona,Yavapai,2021-01-06 04:55:11.196838,2020-08-09 00:00:00.000000,0.58567181,0.95645221,1.44446410,1376,2248,3395,752,1402,2149,0.32014075,0.59661407,0.91427579,0.08574924,0.14687771,0.21373880
4025,0,USArizonaYavapai,Arizona,Yavapai,2021-01-06 04:55:11.196838,2020-08-10 00:00:00.000000,0.55959770,0.92017353,1.40541169,1315,2163,3304,723,1360,2075,0.30762064,0.57856008,0.88297027,0.08513067,0.14587496,0.21384929
4025,0,USArizonaYavapai,Arizona,Yavapai,2021-01-06 04:55:11.196838,2020-08-11 00:00:00.000000,0.53391488,0.88111524,1.37700459,1255,2071,3237,693,1313,2003,0.29498529,0.55866661,0.85232860,0.08752449,0.14559049,0.21410034
4025,0,USArizonaYavapai,Arizona,Yavapai,2021-01-06 04:55:11.196838,2020-08-12 00:00:00.000000,0.50889283,0.84061068,1.34748710,1196,1976,3167,663,1269,1933,0.28234422,0.54006859,0.82241564,0.08825419,0.14402768,0.21402562
4025,0,USArizonaYavapai,Arizona,Yavapai,2021-01-06 04:55:11.196838,2020-08-13 00:00:00.000000,0.48462026,0.80883266,1.30239365,1139,1901,3061,631,1219,1865,0.26876173,0.51859794,0.79334837,0.08937588,0.14471801,0.19767094
4025,0,USArizonaYavapai,Arizona,Yavapai,2021-01-06 04:55:11.196838,2020-08-14 00:00:00.000000,0.46120518,0.77686073,1.25641490,1084,1826,2953,598,1171,1799,0.25445806,0.49838988,0.76529242,0.09038377,0.14560016,0.20530628
4025,0,USArizonaYavapai,Arizona,Yavapai,2021-01-06 04:55:11.196838,2020-08-15 00:00:00.000000,0.43871870,0.74531908,1.21037762,1031,1752,2845,567,1127,1736,0.24127691,0.47946921,0.73846790,0.09162600,0.14449456,0.20579388
4025,0,USArizonaYavapai,Arizona,Yavapai,2021-01-06 04:55:11.196838,2020-08-16 00:00:00.000000,0.41719434,0.71526728,1.16463018,980,1681,2738,539,1081,1676,0.22932625,0.45991445,0.71311354,0.09006645,0.14210482,0.20225865
4025,0,USArizonaYavapai,Arizona,Yavapai,2021-01-06 04:55:11.196838,2020-08-17 00:00:00.000000,0.39888615,0.68882915,1.11927433,937,1619,2631,513,1037,1620,0.21859054,0.44142406,0.68938500,0.08954440,0.14314832,0.20245551
4025,0,USArizonaYavapai,Arizona,Yavapai,2021-01-06 04:55:11.196838,2020-08-18 00:00:00.000000,0.38155821,0.66169749,1.07524129,897,1555,2527,491,997,1568,0.20887044,0.42419113,0.66715041,0.09096308,0.14465721,0.20282396
4025,0,USArizonaYavapai,Arizona,Yavapai,2021-01-06 04:55:11.196838,2020-08-19 00:00:00.000000,0.36524384,0.63770291,1.03870493,858,1499,2441,470,961,1519,0.20005323,0.40880002,0.64636687,0.09204235,0.14592348,0.20446097
4025,0,USArizonaYavapai,Arizona,Yavapai,2021-01-06 04:55:11.196838,2020-08-20 00:00:00.000000,0.34988803,0.61233554,1.01320848,822,1439,2382,451,919,1474,0.19208109,0.39107694,0.62703064,0.09285600,0.14786257,0.22242939
4025,0,USArizonaYavapai,Arizona,Yavapai,2021-01-06 04:55:11.196838,2020-08-21 00:00:00.000000,0.33545530,0.58683117,0.99056357,788,1379,2328,434,879,1432,0.18498268,0.37425031,0.60924778,0.09403586,0.14882628,0.22410302
4025,0,USArizonaYavapai,Arizona,Yavapai,2021-01-06 04:55:11.196838,2020-08-22 00:00:00.000000,0.32193518,0.56787314,0.96970283,756,1335,2279,416,850,1394,0.17729022,0.36178840,0.59305508,0.09590938,0.15105730,0.24123525
4025,0,USArizonaYavapai,Arizona,Yavapai,2021-01-06 04:55:11.196838,2020-08-23 00:00:00.000000,0.30933853,0.54563829,0.94987793,727,1282,2233,399,818,1359,0.16988606,0.34802055,0.57828663,0.09614410,0.15316343,0.25438139
4025,0,USArizonaYavapai,Arizona,Yavapai,2021-01-06 04:55:11.196838,2020-08-24 00:00:00.000000,0.29758724,0.52575349,0.93044415,699,1236,2187,383,782,1327,0.16295987,0.33264406,0.56468335,0.09601524,0.15676016,0.26621530
4025,0,USArizonaYavapai,Arizona,Yavapai,2021-01-06 04:55:11.196838,2020-08-25 00:00:00.000000,0.28677308,0.51101721,0.91156827,674,1201,2143,367,751,1297,0.15648778,0.31970773,0.55194122,0.09460466,0.15816662,0.26578650
4025,0,USArizonaYavapai,Arizona,Yavapai,2021-01-06 04:55:11.196838,2020-08-26 00:00:00.000000,0.27687267,0.49706877,0.89308466,650,1168,2099,353,726,1269,0.15047216,0.30909396,0.53988195,0.09293467,0.16108867,0.26383906
4025,0,USArizonaYavapai,Arizona,Yavapai,2021-01-06 04:55:11.196838,2020-08-27 00:00:00.000000,0.26782349,0.48191662,0.87492905,629,1132,2056,340,701,1236,0.14491088,0.29858800,0.52613099,0.09196409,0.16475408,0.27134249
4025,0,USArizonaYavapai,Arizona,Yavapai,2021-01-06 04:55:11.196838,2020-08-28 00:00:00.000000,0.25948599,0.46743601,0.85722289,610,1098,2015,328,678,1203,0.13979044,0.28857527,0.51189387,0.09221924,0.17036619,0.27477698
4025,0,USArizonaYavapai,Arizona,Yavapai,2021-01-06 04:55:11.196838,2020-08-29 00:00:00.000000,0.25170309,0.45995238,0.84002891,591,1081,1974,317,652,1173,0.13507533,0.27763462,0.49911306,0.09529895,0.17442857,0.27458459
4025,0,USArizonaYavapai,Arizona,Yavapai,2021-01-06 04:55:11.196838,2020-08-30 00:00:00.000000,0.24442328,0.45129360,0.82342681,574,1060,1935,307,630,1146,0.13071295,0.26833147,0.48781221,0.10052475,0.17687425,0.27277149
4025,0,USArizonaYavapai,Arizona,Yavapai,2021-01-06 04:55:11.196838,2020-08-31 00:00:00.000000,0.23583810,0.44043871,0.79989198,554,1035,1880,297,613,1123,0.12665080,0.26101738,0.47785058,0.10435589,0.18247374,0.28778804
4025,0,USArizonaYavapai,Arizona,Yavapai,2021-01-06 04:55:11.196838,2020-09-01 00:00:00.000000,0.22762625,0.42992421,0.77591292,535,1010,1824,287,597,1102,0.12248602,0.25404586,0.46904400,0.10657046,0.18873375,0.29810231
4025,0,USArizonaYavapai,Arizona,Yavapai,2021-01-06 04:55:11.196838,2020-09-02 00:00:00.000000,0.22001079,0.41693382,0.75457371,517,980,1773,278,578,1084,0.11831335,0.24606670,0.46115032,0.10930934,0.19133166,0.30563490
4025,0,USArizonaYavapai,Arizona,Yavapai,2021-01-06 04:55:11.196838,2020-09-03 00:00:00.000000,0.21172391,0.40811175,0.73549153,497,959,1729,268,559,1067,0.11419547,0.23812822,0.45396616,0.11353741,0.19691152,0.30946396
4025,0,USArizonaYavapai,Arizona,Yavapai,2021-01-06 04:55:11.196838,2020-09-04 00:00:00.000000,0.20428512,0.40226730,0.72619337,480,945,1707,259,544,1051,0.11026645,0.23175056,0.44733225,0.11935455,0.19855991,0.31196407
4025,0,USArizonaYavapai,Arizona,Yavapai,2021-01-06 04:55:11.196838,2020-09-05 00:00:00.000000,0.19738417,0.39481968,0.71763125,464,928,1687,250,533,1037,0.10649612,0.22713171,0.44112783,0.12643635,0.19876056,0.30195971
4025,0,USArizonaYavapai,Arizona,Yavapai,2021-01-06 04:55:11.196838,2020-09-06 00:00:00.000000,0.19133624,0.38935708,0.70944875,449,915,1667,241,524,1023,0.10290861,0.22294328,0.43526346,0.13085788,0.20164049,0.31418201
4025,0,USArizonaYavapai,Arizona,Yavapai,2021-01-06 04:55:11.196838,2020-09-07 00:00:00.000000,0.18640987,0.38430745,0.70324916,438,903,1653,238,513,1010,0.10129919,0.21826903,0.42970918,0.13059489,0.20367795,0.32464653
4025,0,USArizonaYavapai,Arizona,Yavapai,2021-01-06 04:55:11.196838,2020-09-08 00:00:00.000000,0.18335419,0.38095573,0.69789352,431,895,1640,237,502,998,0.10114010,0.21375430,0.42472082,0.13004227,0.20778048,0.33380184
4025,0,USArizonaYavapai,Arizona,Yavapai,2021-01-06 04:55:11.196838,2020-09-09 00:00:00.000000,0.18296253,0.37761822,0.69228218,430,887,1627,237,492,988,0.10081958,0.20953862,0.42028302,0.12930923,0.20942938,0.32728202
4025,0,USArizonaYavapai,Arizona,Yavapai,2021-01-06 04:55:11.196838,2020-09-10 00:00:00.000000,0.18441808,0.37436731,0.68370415,433,880,1607,235,482,977,0.10035412,0.20539984,0.41564709,0.12849075,0.21311278,0.34011323
4025,0,USArizonaYavapai,Arizona,Yavapai,2021-01-06 04:55:11.196838,2020-09-11 00:00:00.000000,0.18767865,0.36880419,0.66987123,441,867,1574,234,475,964,0.09977782,0.20227527,0.41031186,0.12773491,0.22335947,0.36047064
4025,0,USArizonaYavapai,Arizona,Yavapai,2021-01-06 04:55:11.196838,2020-09-12 00:00:00.000000,0.19262359,0.36735097,0.65530538,452,863,1540,233,471,952,0.09912725,0.20074015,0.40505442,0.12746065,0.22825455,0.38740960
4025,0,USArizonaYavapai,Arizona,Yavapai,2021-01-06 04:55:11.196838,2020-09-13 00:00:00.000000,0.19900525,0.36592224,0.63979829,467,860,1504,231,470,940,0.09844082,0.20011722,0.39984673,0.12812546,0.22847197,0.41203645
4025,0,USArizonaYavapai,Arizona,Yavapai,2021-01-06 04:55:11.196838,2020-09-14 00:00:00.000000,0.20029610,0.36072324,0.62666005,470,848,1473,229,471,927,0.09776266,0.20062659,0.39468189,0.13193577,0.23376447,0.41996424
4025,0,USArizonaYavapai,Arizona,Yavapai,2021-01-06 04:55:11.196838,2020-09-15 00:00:00.000000,0.20010658,0.35808453,0.61386404,470,841,1443,228,471,916,0.09711348,0.20065724,0.38977207,0.13568936,0.24513264,0.41973901
4025,0,USArizonaYavapai,Arizona,Yavapai,2021-01-06 04:55:11.196838,2020-09-16 00:00:00.000000,0.20068059,0.36261346,0.60189796,471,852,1415,226,472,905,0.09652114,0.20088058,0.38508780,0.14014909,0.25251725,0.42339989
4025,0,USArizonaYavapai,Arizona,Yavapai,2021-01-06 04:55:11.196838,2020-09-17 00:00:00.000000,0.20157266,0.36240241,0.59126808,473,852,1390,225,472,894,0.09599813,0.20115765,0.38063392,0.15120831,0.26007433,0.41730947
4025,0,USArizonaYavapai,Arizona,Yavapai,2021-01-06 04:55:11.196838,2020-09-18 00:00:00.000000,0.20035581,0.36500963,0.58270393,471,858,1369,223,478,885,0.09492976,0.20336819,0.37644278,0.16042676,0.26206396,0.40404091
4025,0,USArizonaYavapai,Arizona,Yavapai,2021-01-06 04:55:11.196838,2020-09-19 00:00:00.000000,0.19852509,0.37143561,0.57706405,466,873,1356,220,477,875,0.09372562,0.20294321,0.37256674,0.16127695,0.26726451,0.40005655
4025,0,USArizonaYavapai,Arizona,Yavapai,2021-01-06 04:55:11.196838,2020-09-20 00:00:00.000000,0.19623899,0.37113734,0.57491575,461,872,1351,219,473,867,0.09340453,0.20157861,0.36906842,0.16002041,0.27743082,0.40321642
4025,0,USArizonaYavapai,Arizona,Yavapai,2021-01-06 04:55:11.196838,2020-09-21 00:00:00.000000,0.19709824,0.37201780,0.59144197,463,874,1390,222,477,859,0.09444158,0.20301612,0.36555531,0.15930311,0.28290810,0.42570697
4025,0,USArizonaYavapai,Arizona,Yavapai,2021-01-06 04:55:11.196838,2020-09-22 00:00:00.000000,0.19978165,0.37201906,0.58491947,469,874,1375,224,477,847,0.09557824,0.20295922,0.36054381,0.15934217,0.28903902,0.44628921
4025,0,USArizonaYavapai,Arizona,Yavapai,2021-01-06 04:55:11.196838,2020-09-23 00:00:00.000000,0.20264670,0.37533248,0.57937162,476,882,1362,226,478,835,0.09625845,0.20341413,0.35555940,0.16231021,0.28959880,0.44473546
4025,0,USArizonaYavapai,Arizona,Yavapai,2021-01-06 04:55:11.196838,2020-09-24 00:00:00.000000,0.20570958,0.37498876,0.58871881,483,881,1384,227,479,824,0.09697300,0.20395231,0.35064244,0.17269555,0.29168400,0.44668546
4025,0,USArizonaYavapai,Arizona,Yavapai,2021-01-06 04:55:11.196838,2020-09-25 00:00:00.000000,0.20898742,0.37820116,0.59889613,491,889,1407,230,486,813,0.09807153,0.20704025,0.34588003,0.18023760,0.29439648,0.44651075
4025,0,USArizonaYavapai,Arizona,Yavapai,2021-01-06 04:55:11.196838,2020-09-26 00:00:00.000000,0.21249521,0.38515024,0.60960816,499,905,1433,235,493,823,0.10005901,0.20991237,0.35037673,0.20162854,0.31005090,0.44426437
4025,0,USArizonaYavapai,Arizona,Yavapai,2021-01-06 04:55:11.196838,2020-09-27 00:00:00.000000,0.21551065,0.39484356,0.62063464,506,928,1459,240,499,841,0.10215933,0.21246480,0.35804122,0.21507715,0.31190490,0.44637717
4025,0,USArizonaYavapai,Arizona,Yavapai,2021-01-06 04:55:11.196838,2020-09-28 00:00:00.000000,0.21737495,0.39936865,0.63239607,511,938,1486,245,506,842,0.10434142,0.21527868,0.35856990,0.22296375,0.31653741,0.46044668
4025,0,USArizonaYavapai,Arizona,Yavapai,2021-01-06 04:55:11.196838,2020-09-29 00:00:00.000000,0.21928338,0.40582254,0.64013235,515,954,1504,249,513,845,0.10623364,0.21821321,0.35953451,0.22670093,0.32016694,0.46536647
4025,0,USArizonaYavapai,Arizona,Yavapai,2021-01-06 04:55:11.196838,2020-09-30 00:00:00.000000,0.22123012,0.41333879,0.65532804,520,971,1540,254,518,848,0.10828917,0.22074966,0.36106200,0.23146003,0.32292190,0.46630308
4025,0,USArizonaYavapai,Arizona,Yavapai,2021-01-06 04:55:11.196838,2020-10-01 00:00:00.000000,0.22323931,0.42550930,0.67268525,524,1000,1581,256,522,854,0.10892266,0.22230424,0.36333257,0.23364633,0.33057333,0.47260415
4025,0,USArizonaYavapai,Arizona,Yavapai,2021-01-06 04:55:11.196838,2020-10-02 00:00:00.000000,0.22544262,0.43801835,0.69128551,530,1029,1625,256,537,861,0.10911671,0.22867592,0.36656025,0.24124673,0.33394359,0.48390861
4025,0,USArizonaYavapai,Arizona,Yavapai,2021-01-06 04:55:11.196838,2020-10-03 00:00:00.000000,0.22844074,0.45069649,0.70709910,537,1059,1662,257,555,872,0.10955605,0.23612733,0.37094169,0.23615489,0.33303950,0.48598183
4025,0,USArizonaYavapai,Arizona,Yavapai,2021-01-06 04:55:11.196838,2020-10-04 00:00:00.000000,0.23397910,0.46486564,0.71814493,550,1092,1688,259,570,885,0.11037680,0.24280196,0.37658916,0.24561036,0.34351625,0.48872445
4025,0,USArizonaYavapai,Arizona,Yavapai,2021-01-06 04:55:11.196838,2020-10-05 00:00:00.000000,0.24222023,0.47972320,0.72817060,569,1127,1711,262,584,902,0.11171069,0.24863537,0.38367976,0.24455758,0.34581739,0.49154253
4025,0,USArizonaYavapai,Arizona,Yavapai,2021-01-06 04:55:11.196838,2020-10-06 00:00:00.000000,0.25177088,0.49297750,0.73879084,591,1158,1736,266,599,928,0.11354351,0.25488985,0.39504426,0.24541310,0.35464620,0.49667813
4025,0,USArizonaYavapai,Arizona,Yavapai,2021-01-06 04:55:11.196838,2020-10-07 00:00:00.000000,0.26190020,0.50071196,0.76087777,615,1177,1788,272,618,955,0.11588468,0.26293807,0.40643104,0.24824981,0.35833850,0.50066901
4025,0,USArizonaYavapai,Arizona,Yavapai,2021-01-06 04:55:11.196838,2020-10-08 00:00:00.000000,0.27189638,0.51233500,0.78791541,639,1204,1852,279,638,982,0.11873677,0.27165031,0.41791720,0.24623330,0.36149993,0.51215989
4025,0,USArizonaYavapai,Arizona,Yavapai,2021-01-06 04:55:11.196838,2020-10-09 00:00:00.000000,0.28284463,0.52177615,0.82227093,664,1226,1933,290,656,1009,0.12352750,0.27924944,0.42956654,0.24590129,0.36241207,0.52998940
4025,0,USArizonaYavapai,Arizona,Yavapai,2021-01-06 04:55:11.196838,2020-10-10 00:00:00.000000,0.28922365,0.53750799,0.85878307,679,1263,2018,307,676,1037,0.13099580,0.28780440,0.44144274,0.24984303,0.37197090,0.53512030
4025,0,USArizonaYavapai,Arizona,Yavapai,2021-01-06 04:55:11.196838,2020-10-11 00:00:00.000000,0.29589570,0.55457185,0.89561068,695,1303,2105,324,698,1066,0.13817127,0.29693694,0.45361943,0.26189307,0.37905772,0.53544095
4025,0,USArizonaYavapai,Arizona,Yavapai,2021-01-06 04:55:11.196838,2020-10-12 00:00:00.000000,0.30431001,0.57778160,0.92059566,715,1358,2164,332,714,1095,0.14141285,0.30410878,0.46617444,0.25908694,0.38593392,0.53825723
4025,0,USArizonaYavapai,Arizona,Yavapai,2021-01-06 04:55:11.196838,2020-10-13 00:00:00.000000,0.31665426,0.60143763,0.96241492,744,1413,2262,345,738,1131,0.14674749,0.31391882,0.48125821,0.26363851,0.39256488,0.54321474
4025,0,USArizonaYavapai,Arizona,Yavapai,2021-01-06 04:55:11.196838,2020-10-14 00:00:00.000000,0.33359044,0.61864869,1.01021855,784,1454,2375,366,767,1179,0.15582906,0.32629766,0.50154314,0.26847547,0.39637638,0.54840614
4025,0,USArizonaYavapai,Arizona,Yavapai,2021-01-06 04:55:11.196838,2020-10-15 00:00:00.000000,0.35597808,0.64651123,1.06191008,836,1519,2496,389,796,1232,0.16580084,0.33875729,0.52437197,0.27355253,0.40069662,0.56281039
4025,0,USArizonaYavapai,Arizona,Yavapai,2021-01-06 04:55:11.196838,2020-10-16 00:00:00.000000,0.38008704,0.67676646,1.11862843,893,1591,2629,415,818,1291,0.17661712,0.34816053,0.54954780,0.28104919,0.42833978,0.57926021
4025,0,USArizonaYavapai,Arizona,Yavapai,2021-01-06 04:55:11.196838,2020-10-17 00:00:00.000000,0.40680331,0.69930040,1.18074936,956,1644,2775,442,852,1356,0.18831321,0.36281671,0.57687545,0.29146621,0.44062488,0.61218146
4025,0,USArizonaYavapai,Arizona,Yavapai,2021-01-06 04:55:11.196838,2020-10-18 00:00:00.000000,0.43623852,0.72349973,1.24120608,1025,1700,2918,472,890,1425,0.20109004,0.37868956,0.60632702,0.30361648,0.44052879,0.62106731
4025,0,USArizonaYavapai,Arizona,Yavapai,2021-01-06 04:55:11.196838,2020-10-19 00:00:00.000000,0.45987069,0.75332467,1.31537309,1081,1771,3092,494,923,1500,0.21049131,0.39290274,0.63818772,0.32046511,0.44958412,0.66109155
4025,0,USArizonaYavapai,Arizona,Yavapai,2021-01-06 04:55:11.196838,2020-10-20 00:00:00.000000,0.48536012,0.79257301,1.39830047,1141,1863,3287,513,962,1538,0.21838457,0.40937863,0.65452139,0.32641775,0.46131159,0.67997149
4025,0,USArizonaYavapai,Arizona,Yavapai,2021-01-06 04:55:11.196838,2020-10-21 00:00:00.000000,0.51338415,0.83959952,1.49070888,1206,1973,3504,534,1004,1573,0.22740947,0.42724284,0.66908895,0.34421799,0.46784595,0.68517465
4025,0,USArizonaYavapai,Arizona,Yavapai,2021-01-06 04:55:11.196838,2020-10-22 00:00:00.000000,0.54538814,0.88837914,1.59230061,1282,2088,3743,561,1052,1608,0.23882814,0.44770504,0.68411905,0.34808372,0.48961044,0.69599942
4025,0,USArizonaYavapai,Arizona,Yavapai,2021-01-06 04:55:11.196838,2020-10-23 00:00:00.000000,0.56901887,0.93891773,1.70249130,1337,2207,4002,597,1099,1647,0.25405756,0.46778191,0.70097007,0.36734426,0.49791322,0.70323883
4025,0,USArizonaYavapai,Arizona,Yavapai,2021-01-06 04:55:11.196838,2020-10-24 00:00:00.000000,0.59526126,0.99908107,1.82126903,1399,2348,4281,642,1152,1732,0.27337825,0.49010073,0.73694687,0.38119058,0.52026765,0.72014409
4025,0,USArizonaYavapai,Arizona,Yavapai,2021-01-06 04:55:11.196838,2020-10-25 00:00:00.000000,0.62879317,1.06862366,1.95071452,1478,2512,4586,696,1214,1851,0.29642715,0.51651946,0.78736517,0.39958516,0.54435833,0.74816059
4025,0,USArizonaYavapai,Arizona,Yavapai,2021-01-06 04:55:11.196838,2020-10-26 00:00:00.000000,0.66550706,1.14381883,2.04976098,1564,2689,4818,759,1291,1979,0.32285313,0.54931956,0.84210372,0.41845413,0.55150906,0.75866172
4025,0,USArizonaYavapai,Arizona,Yavapai,2021-01-06 04:55:11.196838,2020-10-27 00:00:00.000000,0.72270460,1.23489119,2.13976831,1699,2903,5030,812,1370,2117,0.34551325,0.58311285,0.90070683,0.42992227,0.56036068,0.76030587
4025,0,USArizonaYavapai,Arizona,Yavapai,2021-01-06 04:55:11.196838,2020-10-28 00:00:00.000000,0.79129462,1.33450680,2.23214612,1860,3137,5247,858,1458,2231,0.36531308,0.62040045,0.94930251,0.43017694,0.57582385,0.75892408
4025,0,USArizonaYavapai,Arizona,Yavapai,2021-01-06 04:55:11.196838,2020-10-29 00:00:00.000000,0.86627251,1.44031490,2.34224681,2036,3386,5506,912,1550,2429,0.38797534,0.65951718,1.03347765,0.43029348,0.58373615,0.75778040
4025,0,USArizonaYavapai,Arizona,Yavapai,2021-01-06 04:55:11.196838,2020-10-30 00:00:00.000000,0.94816003,1.55838913,2.51067299,2229,3663,5902,973,1649,2602,0.41409926,0.70180767,1.10714717,0.43038381,0.60548794,0.79815441
4025,0,USArizonaYavapai,Arizona,Yavapai,2021-01-06 04:55:11.196838,2020-10-31 00:00:00.000000,1.02098029,1.67685585,2.76253978,2400,3942,6494,1044,1762,2787,0.44422763,0.74974963,1.18575320,0.43909657,0.61856804,0.81606789
4025,0,USArizonaYavapai,Arizona,Yavapai,2021-01-06 04:55:11.196838,2020-11-01 00:00:00.000000,1.09083586,1.80449396,3.03625206,2564,4242,7138,1133,1891,2984,0.48210134,0.80434884,1.26950351,0.46425242,0.62312601,0.81959672
4025,0,USArizonaYavapai,Arizona,Yavapai,2021-01-06 04:55:11.196838,2020-11-02 00:00:00.000000,1.19090509,1.94917365,3.33189653,2799,4582,7833,1228,2028,3193,0.52268970,0.86297461,1.35852899,0.46353388,0.62712469,0.83221007
4025,0,USArizonaYavapai,Arizona,Yavapai,2021-01-06 04:55:11.196838,2020-11-03 00:00:00.000000,1.30356991,2.11688854,3.59204459,3064,4976,8444,1322,2177,3413,0.56244373,0.92618319,1.45201319,0.46330299,0.62930844,0.83734064
4025,0,USArizonaYavapai,Arizona,Yavapai,2021-01-06 04:55:11.196838,2020-11-04 00:00:00.000000,1.42585460,2.27282424,3.78172749,3352,5343,8890,1430,2341,3633,0.60839126,0.99598726,1.54551570,0.46334139,0.62459126,0.83806925
4025,0,USArizonaYavapai,Arizona,Yavapai,2021-01-06 04:55:11.196838,2020-11-05 00:00:00.000000,1.55544590,2.43958771,4.00099086,3656,5735,9406,1552,2524,3855,0.66056177,1.07383986,1.63976381,0.45681630,0.62255231,0.84021029
4025,0,USArizonaYavapai,Arizona,Yavapai,2021-01-06 04:55:11.196838,2020-11-06 00:00:00.000000,1.66819363,2.59694548,4.27739688,3921,6105,10056,1681,2726,4164,0.71538056,1.15973682,1.77124044,0.46383936,0.61718442,0.83368458
4025,0,USArizonaYavapai,Arizona,Yavapai,2021-01-06 04:55:11.196838,2020-11-07 00:00:00.000000,1.78840989,2.77203955,4.57767048,4204,6517,10762,1816,2948,4514,0.77261552,1.25400071,1.92033496,0.44766704,0.61772925,0.83047612
4025,0,USArizonaYavapai,Arizona,Yavapai,2021-01-06 04:55:11.196838,2020-11-08 00:00:00.000000,1.91617914,2.99632229,4.89021396,4504,7044,11496,1960,3188,4890,0.83408662,1.35627533,2.08005031,0.45472885,0.60656670,0.82388577
4025,0,USArizonaYavapai,Arizona,Yavapai,2021-01-06 04:55:11.196838,2020-11-09 00:00:00.000000,2.05123681,3.25500259,5.21639471,4822,7652,12263,2116,3454,5307,0.90009336,1.46921202,2.25742968,0.43166043,0.59381644,0.82352507
4025,0,USArizonaYavapai,Arizona,Yavapai,2021-01-06 04:55:11.196838,2020-11-10 00:00:00.000000,2.19306721,3.49106422,5.55958756,5155,8207,13070,2282,3737,5754,0.97076090,1.58986159,2.44752800,0.42914376,0.59225392,0.82584139
4025,0,USArizonaYavapai,Arizona,Yavapai,2021-01-06 04:55:11.196838,2020-11-11 00:00:00.000000,2.34060535,3.71840187,5.92102966,5502,8741,13920,2460,4033,6220,1.04649833,1.71569492,2.64580688,0.42865931,0.58783450,0.82453207
4025,0,USArizonaYavapai,Arizona,Yavapai,2021-01-06 04:55:11.196838,2020-11-12 00:00:00.000000,2.52642422,3.97955348,6.30192365,5939,9355,14815,2649,4364,6706,1.12677382,1.85661263,2.85266805,0.42953953,0.58437293,0.81213118
4025,0,USArizonaYavapai,Arizona,Yavapai,2021-01-06 04:55:11.196838,2020-11-13 00:00:00.000000,2.73267116,4.31099897,6.70443721,6424,10135,15762,2840,4714,7213,1.20842055,2.00527938,3.06812218,0.44441942,0.57939827,0.80423517
4025,0,USArizonaYavapai,Arizona,Yavapai,2021-01-06 04:55:11.196838,2020-11-14 00:00:00.000000,2.95179963,4.59289292,7.14325403,6939,10797,16793,3043,5080,7734,1.29459501,2.16121445,3.28968910,0.44325055,0.56786900,0.79869111
4025,0,USArizonaYavapai,Arizona,Yavapai,2021-01-06 04:55:11.196838,2020-11-15 00:00:00.000000,3.17626472,4.88979311,7.80616129,7467,11495,18352,3256,5469,8260,1.38525204,2.32627408,3.51380724,0.43177853,0.55837292,0.78948843
4025,0,USArizonaYavapai,Arizona,Yavapai,2021-01-06 04:55:11.196838,2020-11-16 00:00:00.000000,3.36843663,5.19552222,8.25871378,7919,12214,19416,3479,5829,8793,1.47984509,2.47951887,3.74036297,0.42340959,0.55449774,0.74896680
4025,0,USArizonaYavapai,Arizona,Yavapai,2021-01-06 04:55:11.196838,2020-11-17 00:00:00.000000,3.56876134,5.49744483,8.68848878,8390,12924,20426,3706,6212,9594,1.57657231,2.64246475,4.08107158,0.40441549,0.54900381,0.74688273
4025,0,USArizonaYavapai,Arizona,Yavapai,2021-01-06 04:55:11.196838,2020-11-18 00:00:00.000000,3.72607952,5.82824354,9.12869360,8759,13702,21461,3928,6609,10465,1.67091950,2.81141061,4.45133467,0.40412213,0.54204018,0.73996760
4025,0,USArizonaYavapai,Arizona,Yavapai,2021-01-06 04:55:11.196838,2020-11-19 00:00:00.000000,3.85450978,6.16618666,9.61515594,9061,14496,22605,4122,7018,11045,1.75333445,2.98551563,4.69813728,0.40401637,0.53340340,0.70711732
4025,0,USArizonaYavapai,Arizona,Yavapai,2021-01-06 04:55:11.196838,2020-11-20 00:00:00.000000,3.98807235,6.46906187,10.06976934,9375,15208,23673,4267,7426,11612,1.81505229,3.15896410,4.93940971,0.39541631,0.52134840,0.64304908
4025,0,USArizonaYavapai,Arizona,Yavapai,2021-01-06 04:55:11.196838,2020-11-21 00:00:00.000000,4.12744032,6.78830033,10.49210621,9703,15959,24666,4416,7806,12191,1.87853825,3.32059831,5.18589804,0.38869846,0.51049754,0.63982211
4025,0,USArizonaYavapai,Arizona,Yavapai,2021-01-06 04:55:11.196838,2020-11-22 00:00:00.000000,4.28228236,7.11900529,10.97409373,10067,16736,25799,4570,8201,12782,1.94428528,3.48836430,5.43724992,0.37946309,0.49863630,0.63775461
4025,0,USArizonaYavapai,Arizona,Yavapai,2021-01-06 04:55:11.196838,2020-11-23 00:00:00.000000,4.49082933,7.43783671,11.53324346,10557,17486,27114,4774,8598,13390,2.03065111,3.65724100,5.69567253,0.37228999,0.49515388,0.63586782
4025,0,USArizonaYavapai,Arizona,Yavapai,2021-01-06 04:55:11.196838,2020-11-24 00:00:00.000000,4.70631431,7.73374250,12.22222822,11064,18181,28734,5010,8927,14042,2.13118744,3.79745464,5.97312669,0.36535331,0.48295948,0.63584953
4025,0,USArizonaYavapai,Arizona,Yavapai,2021-01-06 04:55:11.196838,2020-11-25 00:00:00.000000,4.92864785,8.02695903,12.84791180,11587,18871,30205,5166,9299,14782,2.19756086,3.95547075,6.28758934,0.35789502,0.47412807,0.63547599
4025,0,USArizonaYavapai,Arizona,Yavapai,2021-01-06 04:55:11.196838,2020-11-26 00:00:00.000000,5.15758490,8.30456984,13.01774466,12125,19523,30604,5320,9699,15607,2.26307453,4.12584308,6.63849398,0.34375166,0.47233957,0.63523429
4025,0,USArizonaYavapai,Arizona,Yavapai,2021-01-06 04:55:11.196838,2020-11-27 00:00:00.000000,5.33529570,8.53952386,13.14700501,12543,20076,30908,5473,9978,16253,2.32814595,4.24457044,6.91327323,0.33905375,0.46748389,0.61284754
4025,0,USArizonaYavapai,Arizona,Yavapai,2021-01-06 04:55:11.196838,2020-11-28 00:00:00.000000,5.47283198,8.76167344,13.64056652,12866,20598,32068,5624,10215,16548,2.39250039,4.34523105,7.03899195,0.33481785,0.46269071,0.60735379
4025,0,USArizonaYavapai,Arizona,Yavapai,2021-01-06 04:55:11.196838,2020-11-29 00:00:00.000000,5.61003172,9.02133170,14.11565607,13189,21209,33185,5774,10444,17324,2.45608615,4.44280296,7.36886206,0.31871861,0.45244616,0.59674841
4025,0,USArizonaYavapai,Arizona,Yavapai,2021-01-06 04:55:11.196838,2020-11-30 00:00:00.000000,5.69415609,9.22547912,14.54173339,13386,21689,34187,5948,10801,18092,2.53035232,4.59429724,7.69556323,0.30115472,0.44303620,0.61013421
4025,0,USArizonaYavapai,Arizona,Yavapai,2021-01-06 04:55:11.196838,2020-12-01 00:00:00.000000,5.77193557,9.33632308,14.82365320,13569,21949,34850,6120,11259,18822,2.60327329,4.78926559,8.00630013,0.29961917,0.43502216,0.65489640
4025,0,USArizonaYavapai,Arizona,Yavapai,2021-01-06 04:55:11.196838,2020-12-02 00:00:00.000000,5.85403726,9.47270153,15.01651651,13762,22270,35303,6287,11532,19347,2.67459981,4.90551885,8.22956915,0.29793603,0.42928723,0.65650256
4025,0,USArizonaYavapai,Arizona,Yavapai,2021-01-06 04:55:11.196838,2020-12-03 00:00:00.000000,5.94803869,9.64513205,15.18190453,13983,22675,35692,6450,11847,19630,2.74375692,5.03949179,8.34981657,0.30448846,0.42917473,0.65226597
4025,0,USArizonaYavapai,Arizona,Yavapai,2021-01-06 04:55:11.196838,2020-12-04 00:00:00.000000,6.06192376,9.74561149,15.32119466,14251,22911,36019,6606,12095,20167,2.80989598,5.14483657,8.57820822,0.30486777,0.42363333,0.63704928
4025,0,USArizonaYavapai,Arizona,Yavapai,2021-01-06 04:55:11.196838,2020-12-05 00:00:00.000000,6.19566309,9.86674860,15.42407396,14565,23196,36261,6752,12406,20640,2.87204338,5.27712853,8.77941006,0.30109213,0.42100367,0.61480488
4025,0,USArizonaYavapai,Arizona,Yavapai,2021-01-06 04:55:11.196838,2020-12-06 00:00:00.000000,6.34173303,9.94540418,15.50571791,14909,23381,36453,6886,12654,20861,2.92931812,5.38275680,8.87343382,0.29609169,0.41771708,0.59200198
4025,0,USArizonaYavapai,Arizona,Yavapai,2021-01-06 04:55:11.196838,2020-12-07 00:00:00.000000,6.49419897,9.99356401,15.57810610,15267,23494,36623,7008,12881,21048,2.98115650,5.47905685,8.95288313,0.28901731,0.41522650,0.59685963
4025,0,USArizonaYavapai,Arizona,Yavapai,2021-01-06 04:55:11.196838,2020-12-08 00:00:00.000000,6.64838217,10.02464493,15.64223778,15630,23567,36774,7117,13017,21211,3.02765664,5.53687986,9.02217377,0.28170642,0.41384920,0.58101859
4025,0,USArizonaYavapai,Arizona,Yavapai,2021-01-06 04:55:11.196838,2020-12-09 00:00:00.000000,6.76945014,10.10339060,15.69972236,15914,23752,36909,7215,13134,21392,3.06895622,5.58675206,9.09951887,0.27452882,0.41050150,0.58814206
4025,0,USArizonaYavapai,Arizona,Yavapai,2021-01-06 04:55:11.196838,2020-12-10 00:00:00.000000,6.73051633,10.16059504,15.75476565,15823,23887,37039,7300,13218,21619,3.10534845,5.62232993,9.19586182,0.26962020,0.41110188,0.59789086
4025,0,USArizonaYavapai,Arizona,Yavapai,2021-01-06 04:55:11.196838,2020-12-11 00:00:00.000000,6.68646219,10.26544240,15.81950193,15719,24133,37191,7374,13301,21867,3.13679061,5.65762104,9.30134172,0.26944373,0.40671195,0.59639408
4025,0,USArizonaYavapai,Arizona,Yavapai,2021-01-06 04:55:11.196838,2020-12-12 00:00:00.000000,6.63899409,10.33314847,15.91332999,15608,24293,37412,7433,13369,22108,3.16172703,5.68695608,9.40376749,0.27048035,0.40055066,0.60404634
4025,0,USArizonaYavapai,Arizona,Yavapai,2021-01-06 04:55:11.196838,2020-12-13 00:00:00.000000,6.59174119,10.42432083,16.05652286,15497,24507,37748,7585,13418,22319,3.22652803,5.70767553,9.49360882,0.27353865,0.39729940,0.61202676
4025,0,USArizonaYavapai,Arizona,Yavapai,2021-01-06 04:55:11.196838,2020-12-14 00:00:00.000000,6.55341393,10.54742961,16.25776218,15407,24796,38221,7676,13415,22487,3.26536948,5.70646770,9.56509024,0.28082468,0.39881567,0.62921759
4025,0,USArizonaYavapai,Arizona,Yavapai,2021-01-06 04:55:11.196838,2020-12-15 00:00:00.000000,6.53881618,10.58332188,16.50211356,15372,24881,38796,7662,13357,22605,3.25925770,5.68172828,9.61550283,0.28957114,0.39871959,0.66444426
4025,0,USArizonaYavapai,Arizona,Yavapai,2021-01-06 04:55:11.196838,2020-12-16 00:00:00.000000,6.56574267,10.51345000,16.50896627,15435,24717,38812,7644,13382,22672,3.25150300,5.69207694,9.64383021,0.29000811,0.40214195,0.69375630
4025,0,USArizonaYavapai,Arizona,Yavapai,2021-01-06 04:55:11.196838,2020-12-17 00:00:00.000000,6.63831577,10.51288646,16.56257301,15606,24715,38938,7622,13402,22686,3.24227324,5.70088618,9.64978744,0.29011574,0.40686714,0.69075722
4025,0,USArizonaYavapai,Arizona,Yavapai,2021-01-06 04:55:11.196838,2020-12-18 00:00:00.000000,6.74381367,10.57417888,16.80307410,15854,24859,39503,7599,13390,22648,3.23267804,5.69587808,9.63354516,0.29023083,0.42335082,0.71842824
4025,0,USArizonaYavapai,Arizona,Yavapai,2021-01-06 04:55:11.196838,2020-12-19 00:00:00.000000,6.86662105,10.64342597,16.75122695,16143,25022,39381,7599,13352,22559,3.23241103,5.67949775,9.59583790,0.29490030,0.43731751,0.73353564
4025,0,USArizonaYavapai,Arizona,Yavapai,2021-01-06 04:55:11.196838,2020-12-20 00:00:00.000000,6.94248653,10.70256750,16.87839521,16321,25161,39680,7658,13344,22725,3.25762832,5.67601929,9.66633593,0.29827558,0.44885577,0.74115714
4025,0,USArizonaYavapai,Arizona,Yavapai,2021-01-06 04:55:11.196838,2020-12-21 00:00:00.000000,6.98494061,10.74754391,16.98659361,16421,25267,39935,7766,13371,23022,3.30354850,5.68781585,9.79274335,0.32119622,0.45786855,0.74708928
4025,0,USArizonaYavapai,Arizona,Yavapai,2021-01-06 04:55:11.196838,2020-12-22 00:00:00.000000,7.07638583,10.78171674,17.07167078,16636,25347,40135,7906,13397,22954,3.36322269,5.69877272,9.76360144,0.33151220,0.48245743,0.79492210
4025,0,USArizonaYavapai,Arizona,Yavapai,2021-01-06 04:55:11.196838,2020-12-23 00:00:00.000000,7.17095013,10.88609025,17.13045452,16858,25593,40273,8067,13508,22761,3.43139082,5.74577861,9.68150409,0.34454542,0.50788232,0.83532148
4025,0,USArizonaYavapai,Arizona,Yavapai,2021-01-06 04:55:11.196838,2020-12-24 00:00:00.000000,7.26565914,11.00935870,17.27861697,17081,25882,40621,8239,13665,22732,3.50454488,5.81281648,9.66921819,0.35894005,0.52055024,0.84190088
4025,0,USArizonaYavapai,Arizona,Yavapai,2021-01-06 04:55:11.196838,2020-12-25 00:00:00.000000,7.36234352,11.14203558,17.46711235,17308,26194,41065,8339,13790,22908,3.54725183,5.86597664,9.74415499,0.34815454,0.53852796,0.84286214
4025,0,USArizonaYavapai,Arizona,Yavapai,2021-01-06 04:55:11.196838,2020-12-26 00:00:00.000000,7.46716104,11.37445060,17.62850162,17555,26741,41444,8351,13948,23021,3.55224735,5.93290696,9.79242469,0.36116428,0.55737860,0.84339966
4025,0,USArizonaYavapai,Arizona,Yavapai,2021-01-06 04:55:11.196838,2020-12-27 00:00:00.000000,7.58043172,11.63356872,17.77032437,17821,27350,41777,8366,14122,23305,3.55850889,6.00692708,9.91325074,0.36850608,0.58109030,0.89884476
4025,0,USArizonaYavapai,Arizona,Yavapai,2021-01-06 04:55:11.196838,2020-12-28 00:00:00.000000,7.69889289,11.87548433,17.88935249,18100,27919,42057,8382,14313,23775,3.56563480,6.08843960,10.11280084,0.36870481,0.60706998,0.93762149
4025,0,USArizonaYavapai,Arizona,Yavapai,2021-01-06 04:55:11.196838,2020-12-29 00:00:00.000000,7.72762802,11.94132252,18.06247810,18167,28073,42464,8399,14528,24301,3.57284952,6.17962824,10.33690960,0.36952053,0.62014652,0.95059491
4025,0,USArizonaYavapai,Arizona,Yavapai,2021-01-06 04:55:11.196838,2020-12-30 00:00:00.000000,7.73554561,11.85626704,18.62302723,18186,27873,43782,8415,14704,24846,3.57958812,6.25477507,10.56848798,0.37171849,0.62428738,0.95442049
4025,0,USArizonaYavapai,Arizona,Yavapai,2021-01-06 04:55:11.196838,2020-12-31 00:00:00.000000,7.73923343,11.86487331,18.52494915,18194,27894,43551,8429,14917,25181,3.58538983,6.34518266,10.71114698,0.37125091,0.63344357,0.95494484
4025,0,USArizonaYavapai,Arizona,Yavapai,2021-01-06 04:55:11.196838,2021-01-01 00:00:00.000000,7.73860563,12.15592431,18.23832371,18193,28578,42878,8439,15244,25029,3.58989949,6.48422638,10.64647833,0.36488767,0.64699400,0.95053870
4025,0,USArizonaYavapai,Arizona,Yavapai,2021-01-06 04:55:11.196838,2021-01-02 00:00:00.000000,7.73471600,12.45680775,18.15126380,18184,29285,42673,8446,15485,24797,3.59285532,6.58695522,10.54778037,0.38992261,0.65613277,0.97278997
4025,0,USArizonaYavapai,Arizona,Yavapai,2021-01-06 04:55:11.196838,2021-01-03 00:00:00.000000,7.61983399,12.61941459,18.14440734,17914,29668,42657,8449,15641,24488,3.59407727,6.65302153,10.41629552,0.36703684,0.65581237,1.01852712
4025,0,USArizonaYavapai,Arizona,Yavapai,2021-01-06 04:55:11.196838,2021-01-04 00:00:00.000000,7.71003903,12.76173576,18.11012755,18126,30002,42576,8533,16085,24106,3.62979926,6.84194212,10.25382887,0.35899358,0.66337636,1.04947594
4025,0,USArizonaYavapai,Arizona,Yavapai,2021-01-06 04:55:11.196838,2021-01-05 00:00:00.000000,7.81692422,12.79255780,18.04507062,18377,30075,42423,8729,16348,24287,3.71296727,6.95401673,10.33086077,0.35651785,0.66396156,1.05252760
4025,0,USArizonaYavapai,Arizona,Yavapai,2021-01-06 04:55:11.196838,2021-01-06 00:00:00.000000,7.96861619,12.93516987,18.13824733,18734,30410,42642,8906,16619,24939,3.78846802,7.06898653,10.60799226,0.35579558,0.65899517,1.12874055
4025,0,USArizonaYavapai,Arizona,Yavapai,2021-01-06 04:55:11.196838,2021-01-07 00:00:00.000000,8.11394790,12.83058518,18.38743566,19075,30164,43228,9067,16744,25518,3.85707208,7.12241226,10.85419123,0.35558299,0.65629126,1.16154154
4025,0,USArizonaYavapai,Arizona,Yavapai,2021-01-06 04:55:11.196838,2021-01-08 00:00:00.000000,8.21130600,12.73554827,18.55752370,19304,29941,43628,9158,16895,26008,3.89556074,7.18647272,11.06288432,0.35552013,0.65592516,1.16370292
4025,0,USArizonaYavapai,Arizona,Yavapai,2021-01-06 04:55:11.196838,2021-01-09 00:00:00.000000,8.30036398,12.68620387,18.50239180,19514,29825,43498,9315,17038,26399,3.96242062,7.24739612,11.22928503,0.35550179,0.65576114,1.16518411
4025,0,USArizonaYavapai,Arizona,Yavapai,2021-01-06 04:55:11.196838,2021-01-10 00:00:00.000000,8.31974330,12.63966478,18.70311987,19559,29715,43970,9446,17221,26142,4.01813673,7.32525944,11.11981738,0.35549664,0.65568746,1.16611015
4025,0,USArizonaYavapai,Arizona,Yavapai,2021-01-06 04:55:11.196838,2021-01-11 00:00:00.000000,8.02752459,12.44191413,19.22529735,18872,29250,45198,9555,17005,25793,4.06456464,7.23319757,10.97148976,0.35549530,0.65565422,1.16664989
4025,0,USArizonaYavapai,Arizona,Yavapai,2021-01-06 04:55:11.196838,2021-01-12 00:00:00.000000,7.73304731,12.23300576,19.67677853,18180,28759,46259,9654,16941,25389,4.10656866,7.20607136,10.79946092,0.35549501,0.65563912,1.16695094
4025,0,USArizonaYavapai,Arizona,Yavapai,2021-01-06 04:55:11.196838,2021-01-13 00:00:00.000000,7.55355285,12.14056155,20.26024951,17758,28542,47631,9742,16735,24934,4.14413261,7.11830038,10.60601167,0.35549499,0.65563222,1.16711466
4025,0,USArizonaYavapai,Arizona,Yavapai,2021-01-06 04:55:11.196838,2021-01-14 00:00:00.000000,7.51378859,11.96102690,20.61104654,17664,28120,48456,9820,16437,25337,4.17719706,6.99173895,10.77755925,0.35549502,0.65562904,1.16720245
4025,0,USArizonaYavapai,Arizona,Yavapai,2021-01-06 04:55:11.196838,2021-01-15 00:00:00.000000,7.46987872,11.73088765,20.54437358,17561,27579,48299,9782,16177,25857,4.16097343,6.88107060,10.99866578,0.35549504,0.65562756,1.16724917
4025,0,USArizonaYavapai,Arizona,Yavapai,2021-01-06 04:55:11.196838,2021-01-16 00:00:00.000000,7.42190092,11.58220661,20.65727352,17448,27229,48565,9484,15848,26089,4.03433138,6.74117475,11.09704595,0.35549506,0.65562687,1.16727393
4025,0,USArizonaYavapai,Arizona,Yavapai,2021-01-06 04:55:11.196838,2021-01-17 00:00:00.000000,7.36994753,11.51944594,20.67892393,17326,27082,48615,9185,15461,25793,3.90725035,6.57654647,10.97151969,0.35549507,0.65562655,1.16728702
