FIPS,HR_UID,nameid,province,region,analysisTime,dates,pointprevalence_025,pointprevalence_50,pointprevalence_975,pointinfections_025,pointinfections_50,pointinfections_975,pointinfectious_025,pointinfectious_50,pointinfectious_975,pointinfectiousprevalence_05,pointinfectiousprevalence_50,pointinfectiousprevalence_95,infectrate_025,infectrate_50,infectrate_975
18097,0,USIndianaMarion,Indiana,Marion,2021-01-06 00:16:01.934083,2020-03-09 00:00:00.000000,0.01046278,0.02041425,0.03175951,100,196,306,48,89,122,0.00505276,0.00932171,0.01270102,0.79205098,0.94540916,1.17746644
18097,0,USIndianaMarion,Indiana,Marion,2021-01-06 00:16:01.934083,2020-03-10 00:00:00.000000,0.01328324,0.02485621,0.03789627,128,239,365,60,113,155,0.00627263,0.01179918,0.01616466,0.79204435,0.94539165,1.17745830
18097,0,USIndianaMarion,Indiana,Marion,2021-01-06 00:16:01.934083,2020-03-11 00:00:00.000000,0.01658417,0.03033321,0.04539350,159,292,437,79,142,190,0.00820688,0.01472804,0.01976124,0.79203109,0.94535750,1.17743694
18097,0,USIndianaMarion,Indiana,Marion,2021-01-06 00:16:01.934083,2020-03-12 00:00:00.000000,0.02065805,0.03694857,0.05427779,199,356,523,99,174,234,0.01029848,0.01811441,0.02433877,0.79200455,0.94529087,1.17738093
18097,0,USIndianaMarion,Indiana,Marion,2021-01-06 00:16:01.934083,2020-03-13 00:00:00.000000,0.02568149,0.04531442,0.06478164,247,437,624,125,210,286,0.01305618,0.02183369,0.02974293,0.79195147,0.94516090,1.17723411
18097,0,USIndianaMarion,Indiana,Marion,2021-01-06 00:16:01.934083,2020-03-14 00:00:00.000000,0.03187597,0.05505095,0.07719502,307,531,744,159,255,348,0.01652398,0.02651677,0.03613565,0.79184537,0.94490752,1.17684960
18097,0,USIndianaMarion,Indiana,Marion,2021-01-06 00:16:01.934083,2020-03-15 00:00:00.000000,0.03951520,0.06689412,0.09186720,381,645,886,197,309,431,0.02044479,0.03208874,0.04470759,0.79163363,0.94441406,1.17584496
18097,0,USIndianaMarion,Indiana,Marion,2021-01-06 00:16:01.934083,2020-03-16 00:00:00.000000,0.04887891,0.08185862,0.11023881,471,789,1063,239,373,532,0.02480282,0.03867472,0.05523676,0.79121242,0.94370583,1.17323605
18097,0,USIndianaMarion,Indiana,Marion,2021-01-06 00:16:01.934083,2020-03-17 00:00:00.000000,0.06044096,0.09821196,0.13524794,583,947,1304,294,451,655,0.03056732,0.04683151,0.06799446,0.79038006,0.94243326,1.16656743
18097,0,USIndianaMarion,Indiana,Marion,2021-01-06 00:16:01.934083,2020-03-18 00:00:00.000000,0.07469988,0.11804906,0.16554165,720,1138,1596,357,541,801,0.03703833,0.05612168,0.08307500,0.78875648,0.93987073,1.14802525
18097,0,USIndianaMarion,Indiana,Marion,2021-01-06 00:16:01.934083,2020-03-19 00:00:00.000000,0.09228394,0.14169365,0.19921959,890,1366,1921,437,657,960,0.04533677,0.06816052,0.09959844,0.78566875,0.93355251,1.08862055
18097,0,USIndianaMarion,Indiana,Marion,2021-01-06 00:16:01.934083,2020-03-20 00:00:00.000000,0.11369331,0.17033674,0.24331697,1096,1643,2346,542,797,1159,0.05623651,0.08272425,0.12017714,0.77168095,0.92284504,1.04309607
18097,0,USIndianaMarion,Indiana,Marion,2021-01-06 00:16:01.934083,2020-03-21 00:00:00.000000,0.13668486,0.20428991,0.29709022,1318,1970,2865,654,960,1416,0.06787979,0.09956279,0.14686728,0.75614827,0.91076465,1.01983627
18097,0,USIndianaMarion,Indiana,Marion,2021-01-06 00:16:01.934083,2020-03-22 00:00:00.000000,0.16602545,0.24798720,0.36253031,1601,2392,3496,788,1163,1730,0.08171793,0.12065348,0.17940861,0.73141717,0.87337509,1.00366195
18097,0,USIndianaMarion,Indiana,Marion,2021-01-06 00:16:01.934083,2020-03-23 00:00:00.000000,0.20092790,0.29984646,0.43316935,1938,2892,4178,946,1414,2112,0.09812677,0.14664679,0.21900697,0.66562126,0.83433665,0.99183337
18097,0,USIndianaMarion,Indiana,Marion,2021-01-06 00:16:01.934083,2020-03-24 00:00:00.000000,0.23981521,0.35437201,0.49343087,2313,3418,4759,1130,1684,2547,0.11715836,0.17463115,0.26410786,0.58305180,0.78073752,0.95871555
18097,0,USIndianaMarion,Indiana,Marion,2021-01-06 00:16:01.934083,2020-03-25 00:00:00.000000,0.28188949,0.41035011,0.56351685,2719,3958,5435,1329,2013,2995,0.13788124,0.20876169,0.31055857,0.51499498,0.73046254,0.88332779
18097,0,USIndianaMarion,Indiana,Marion,2021-01-06 00:16:01.934083,2020-03-26 00:00:00.000000,0.31770827,0.47512141,0.62878247,3064,4582,6065,1542,2366,3469,0.15991765,0.24530647,0.35974048,0.48900031,0.68156152,0.85230621
18097,0,USIndianaMarion,Indiana,Marion,2021-01-06 00:16:01.934083,2020-03-27 00:00:00.000000,0.35722085,0.54241703,0.69595124,3445,5232,6713,1771,2751,3907,0.18367527,0.28523158,0.40514571,0.42907188,0.63057710,0.84401056
18097,0,USIndianaMarion,Indiana,Marion,2021-01-06 00:16:01.934083,2020-03-28 00:00:00.000000,0.41829734,0.60175242,0.76404338,4034,5804,7369,2097,3147,4369,0.21743131,0.32635067,0.45303213,0.37035077,0.55665828,0.83046235
18097,0,USIndianaMarion,Indiana,Marion,2021-01-06 00:16:01.934083,2020-03-29 00:00:00.000000,0.46600562,0.65101339,0.85226968,4495,6279,8220,2466,3531,4840,0.25573931,0.36615301,0.50177260,0.32997584,0.49083621,0.77721967
18097,0,USIndianaMarion,Indiana,Marion,2021-01-06 00:16:01.934083,2020-03-30 00:00:00.000000,0.51556929,0.70756824,0.92156691,4973,6825,8889,2827,4031,5314,0.29311664,0.41792258,0.55095003,0.31625289,0.42662569,0.61549173
18097,0,USIndianaMarion,Indiana,Marion,2021-01-06 00:16:01.934083,2020-03-31 00:00:00.000000,0.56553327,0.75305585,0.98860935,5455,7263,9535,3133,4409,5787,0.32488375,0.45711524,0.60001426,0.30523880,0.38654249,0.50486889
18097,0,USIndianaMarion,Indiana,Marion,2021-01-06 00:16:01.934083,2020-04-01 00:00:00.000000,0.60803047,0.79964280,1.05887768,5864,7713,10213,3382,4747,6254,0.35065148,0.49215463,0.64842879,0.26558167,0.34966875,0.48285897
18097,0,USIndianaMarion,Indiana,Marion,2021-01-06 00:16:01.934083,2020-04-02 00:00:00.000000,0.64628136,0.84937878,1.13886540,6233,8192,10985,3603,5033,6759,0.37359161,0.52185863,0.70079411,0.23807360,0.32372440,0.45904508
18097,0,USIndianaMarion,Indiana,Marion,2021-01-06 00:16:01.934083,2020-04-03 00:00:00.000000,0.67500038,0.88467649,1.23022357,6510,8533,11866,3807,5325,7261,0.39471525,0.55207814,0.75284643,0.22606520,0.29587858,0.43249474
18097,0,USIndianaMarion,Indiana,Marion,2021-01-06 00:16:01.934083,2020-04-04 00:00:00.000000,0.71004371,0.91851911,1.31020735,6848,8859,12638,4001,5586,7700,0.41483547,0.57911719,0.79837643,0.21776685,0.27945560,0.40621749
18097,0,USIndianaMarion,Indiana,Marion,2021-01-06 00:16:01.934083,2020-04-05 00:00:00.000000,0.74007260,0.95304400,1.36539892,7138,9192,13170,4216,5872,8244,0.43714878,0.60878322,0.85468072,0.20877054,0.26462255,0.34969301
18097,0,USIndianaMarion,Indiana,Marion,2021-01-06 00:16:01.934083,2020-04-06 00:00:00.000000,0.76634769,0.97336553,1.39834848,7392,9388,13488,4516,6107,8746,0.46818461,0.63322145,0.90674105,0.20430781,0.25692799,0.33043555
18097,0,USIndianaMarion,Indiana,Marion,2021-01-06 00:16:01.934083,2020-04-07 00:00:00.000000,0.79450509,0.99715442,1.42060925,7663,9618,13702,4804,6311,9132,0.49811451,0.65432567,0.94682584,0.19959791,0.24695761,0.31087279
18097,0,USIndianaMarion,Indiana,Marion,2021-01-06 00:16:01.934083,2020-04-08 00:00:00.000000,0.81202009,1.01299972,1.43798107,7832,9771,13870,5038,6508,9344,0.52235866,0.67473581,0.96874569,0.19470576,0.23564373,0.29758384
18097,0,USIndianaMarion,Indiana,Marion,2021-01-06 00:16:01.934083,2020-04-09 00:00:00.000000,0.83244702,1.02722681,1.45197202,8029,9908,14005,5198,6657,9470,0.53893371,0.69024548,0.98182385,0.19096776,0.22893093,0.28875872
18097,0,USIndianaMarion,Indiana,Marion,2021-01-06 00:16:01.934083,2020-04-10 00:00:00.000000,0.84765535,1.04798319,1.46266944,8176,10108,14108,5322,6759,9577,0.55178645,0.70076873,0.99295080,0.19168033,0.22180473,0.28010198
18097,0,USIndianaMarion,Indiana,Marion,2021-01-06 00:16:01.934083,2020-04-11 00:00:00.000000,0.84855615,1.06577172,1.48196324,8185,10280,14294,5381,6897,9673,0.55795068,0.71508414,1.00288079,0.18677847,0.21588191,0.27303261
18097,0,USIndianaMarion,Indiana,Marion,2021-01-06 00:16:01.934083,2020-04-12 00:00:00.000000,0.84789762,1.07846151,1.49664503,8178,10402,14436,5399,7035,9762,0.55981973,0.72941671,1.01214377,0.17104425,0.21343298,0.27044877
18097,0,USIndianaMarion,Indiana,Marion,2021-01-06 00:16:01.934083,2020-04-13 00:00:00.000000,0.85457390,1.09191523,1.51348735,8243,10532,14598,5405,7173,9853,0.56043276,0.74366325,1.02154734,0.16419179,0.21290368,0.26909571
18097,0,USIndianaMarion,Indiana,Marion,2021-01-06 00:16:01.934083,2020-04-14 00:00:00.000000,0.85264296,1.10496085,1.53072103,8224,10658,14765,5403,7278,9979,0.56023693,0.75454554,1.03460515,0.16789911,0.21002558,0.26685407
18097,0,USIndianaMarion,Indiana,Marion,2021-01-06 00:16:01.934083,2020-04-15 00:00:00.000000,0.85145132,1.11467686,1.54856274,8212,10751,14937,5398,7315,10172,0.55965401,0.75843560,1.05459325,0.16842119,0.20842776,0.26629450
18097,0,USIndianaMarion,Indiana,Marion,2021-01-06 00:16:01.934083,2020-04-16 00:00:00.000000,0.85151369,1.12210671,1.56746979,8213,10823,15119,5392,7415,10295,0.55907469,0.76880755,1.06740133,0.16784114,0.20901611,0.26577478
18097,0,USIndianaMarion,Indiana,Marion,2021-01-06 00:16:01.934083,2020-04-17 00:00:00.000000,0.85336154,1.13291591,1.58833434,8231,10927,15320,5391,7506,10451,0.55890116,0.77826073,1.08347548,0.16975535,0.21065938,0.26412820
18097,0,USIndianaMarion,Indiana,Marion,2021-01-06 00:16:01.934083,2020-04-18 00:00:00.000000,0.85776805,1.14709812,1.61211325,8273,11064,15550,5397,7607,10604,0.55959160,0.78867703,1.09941812,0.16922269,0.20948852,0.25504083
18097,0,USIndianaMarion,Indiana,Marion,2021-01-06 00:16:01.934083,2020-04-19 00:00:00.000000,0.87198253,1.16389834,1.63868200,8410,11226,15806,5440,7691,10758,0.56406884,0.79738966,1.11531035,0.16660167,0.21270996,0.25904892
18097,0,USIndianaMarion,Indiana,Marion,2021-01-06 00:16:01.934083,2020-04-20 00:00:00.000000,0.89169750,1.17095824,1.64978326,8601,11294,15913,5525,7753,10911,0.57284048,0.80384559,1.13119893,0.16710514,0.21425715,0.26409613
18097,0,USIndianaMarion,Indiana,Marion,2021-01-06 00:16:01.934083,2020-04-21 00:00:00.000000,0.91199164,1.17178989,1.66111587,8796,11302,16022,5619,7846,11064,0.58255655,0.81350245,1.14705428,0.16740691,0.21422430,0.26369675
18097,0,USIndianaMarion,Indiana,Marion,2021-01-06 00:16:01.934083,2020-04-22 00:00:00.000000,0.92870564,1.17810061,1.67284573,8958,11363,16135,5671,7919,11217,0.58801464,0.82102871,1.16290836,0.16803655,0.21240603,0.26161369
18097,0,USIndianaMarion,Indiana,Marion,2021-01-06 00:16:01.934083,2020-04-23 00:00:00.000000,0.92733615,1.19191526,1.68505603,8944,11497,16253,5699,8006,11370,0.59085550,0.83000402,1.17875217,0.16947036,0.20942497,0.25863913
18097,0,USIndianaMarion,Indiana,Marion,2021-01-06 00:16:01.934083,2020-04-24 00:00:00.000000,0.93057961,1.19786043,1.69724604,8976,11554,16371,5737,8126,11519,0.59482376,0.84251650,1.19428415,0.17181685,0.20771642,0.25793117
18097,0,USIndianaMarion,Indiana,Marion,2021-01-06 00:16:01.934083,2020-04-25 00:00:00.000000,0.94746936,1.20625103,1.71703002,9139,11635,16562,5785,8234,11717,0.59977512,0.85365213,1.21480150,0.17254472,0.20768824,0.25874764
18097,0,USIndianaMarion,Indiana,Marion,2021-01-06 00:16:01.934083,2020-04-26 00:00:00.000000,0.96426003,1.21062782,1.74834062,9301,11677,16864,5884,8276,11905,0.61004102,0.85799790,1.23430787,0.16965883,0.20786231,0.25481166
18097,0,USIndianaMarion,Indiana,Marion,2021-01-06 00:16:01.934083,2020-04-27 00:00:00.000000,0.97690025,1.21405636,1.77706419,9423,11710,17141,5986,8303,12086,0.62064171,0.86088280,1.25298868,0.16622863,0.20604092,0.25164833
18097,0,USIndianaMarion,Indiana,Marion,2021-01-06 00:16:01.934083,2020-04-28 00:00:00.000000,0.98543182,1.21658761,1.80133176,9505,11734,17375,6085,8275,12303,0.63088124,0.85794861,1.27548410,0.16570897,0.20175963,0.24844764
18097,0,USIndianaMarion,Indiana,Marion,2021-01-06 00:16:01.934083,2020-04-29 00:00:00.000000,0.99147067,1.22514432,1.81952796,9563,11817,17550,6140,8291,12501,0.63663758,0.85955740,1.29607035,0.15948541,0.19821454,0.25226247
18097,0,USIndianaMarion,Indiana,Marion,2021-01-06 00:16:01.934083,2020-04-30 00:00:00.000000,0.99439728,1.23014222,1.83102569,9591,11865,17661,6116,8313,12671,0.63405996,0.86183337,1.31371147,0.15793372,0.19548769,0.25408286
18097,0,USIndianaMarion,Indiana,Marion,2021-01-06 00:16:01.934083,2020-05-01 00:00:00.000000,0.99513801,1.22978176,1.83571852,9598,11862,17707,6091,8334,12685,0.63151740,0.86401008,1.31507906,0.15347086,0.18932524,0.25477149
18097,0,USIndianaMarion,Indiana,Marion,2021-01-06 00:16:01.934083,2020-05-02 00:00:00.000000,0.99427152,1.22945891,1.83201700,9590,11859,17671,6112,8291,12617,0.63365094,0.85958580,1.30810631,0.14516914,0.18599601,0.24841636
18097,0,USIndianaMarion,Indiana,Marion,2021-01-06 00:16:01.934083,2020-05-03 00:00:00.000000,0.99207729,1.23061309,1.81223035,9569,11870,17480,6121,8368,12502,0.63461151,0.86757621,1.29612969,0.14141692,0.18227856,0.24012159
18097,0,USIndianaMarion,Indiana,Marion,2021-01-06 00:16:01.934083,2020-05-04 00:00:00.000000,0.98473514,1.22926869,1.78574366,9498,11857,17224,6120,8414,12361,0.63455028,0.87233544,1.28158241,0.13821964,0.17688492,0.23754604
18097,0,USIndianaMarion,Indiana,Marion,2021-01-06 00:16:01.934083,2020-05-05 00:00:00.000000,0.97375244,1.22268560,1.75869126,9392,11793,16964,6111,8432,12209,0.63356149,0.87419645,1.26578874,0.13360836,0.17214275,0.23462384
18097,0,USIndianaMarion,Indiana,Marion,2021-01-06 00:16:01.934083,2020-05-06 00:00:00.000000,0.96273048,1.21289183,1.73110828,9286,11699,16697,6092,8397,12054,0.63159567,0.87063604,1.24967069,0.12709194,0.16896463,0.22643629
18097,0,USIndianaMarion,Indiana,Marion,2021-01-06 00:16:01.934083,2020-05-07 00:00:00.000000,0.95165006,1.20367995,1.72941399,9179,11610,16681,6062,8338,11901,0.62850676,0.86448141,1.23389155,0.12779938,0.16376156,0.21901490
18097,0,USIndianaMarion,Indiana,Marion,2021-01-06 00:16:01.934083,2020-05-08 00:00:00.000000,0.94036178,1.18906708,1.70407443,9070,11469,16437,6019,8276,11764,0.62404169,0.85808132,1.21960296,0.12317897,0.15874976,0.20311258
18097,0,USIndianaMarion,Indiana,Marion,2021-01-06 00:16:01.934083,2020-05-09 00:00:00.000000,0.92852699,1.16947803,1.67103603,8956,11280,16118,5961,8202,11712,0.61806093,0.85033592,1.21420963,0.12268990,0.15321156,0.19623737
18097,0,USIndianaMarion,Indiana,Marion,2021-01-06 00:16:01.934083,2020-05-10 00:00:00.000000,0.91570931,1.15078984,1.63646549,8832,11100,15785,5888,8130,11642,0.61044276,0.84289368,1.20696405,0.11978662,0.14970488,0.19032315
18097,0,USIndianaMarion,Indiana,Marion,2021-01-06 00:16:01.934083,2020-05-11 00:00:00.000000,0.89768906,1.13595205,1.60412992,8658,10957,15473,5797,8033,11555,0.60105299,0.83284482,1.19794453,0.11753284,0.14618861,0.19053813
18097,0,USIndianaMarion,Indiana,Marion,2021-01-06 00:16:01.934083,2020-05-12 00:00:00.000000,0.87176186,1.11873534,1.56736689,8408,10791,15118,5676,7913,11454,0.58850410,0.82037127,1.18749942,0.11645796,0.14438737,0.19042723
18097,0,USIndianaMarion,Indiana,Marion,2021-01-06 00:16:01.934083,2020-05-13 00:00:00.000000,0.84575594,1.09370552,1.53356047,8158,10549,14792,5558,7755,11344,0.57621726,0.80407860,1.17610708,0.11530924,0.14162579,0.18901289
18097,0,USIndianaMarion,Indiana,Marion,2021-01-06 00:16:01.934083,2020-05-14 00:00:00.000000,0.81792243,1.07447977,1.50024007,7889,10364,14471,5412,7613,11228,0.56114004,0.78933952,1.16411866,0.11363528,0.14049587,0.18669439
18097,0,USIndianaMarion,Indiana,Marion,2021-01-06 00:16:01.934083,2020-05-15 00:00:00.000000,0.79063239,1.05503851,1.46745051,7626,10176,14154,5256,7446,10954,0.54497742,0.77198402,1.13562553,0.10900247,0.13895018,0.18740532
18097,0,USIndianaMarion,Indiana,Marion,2021-01-06 00:16:01.934083,2020-05-16 00:00:00.000000,0.76495226,1.03349601,1.44943361,7378,9968,13980,5095,7302,10819,0.52830224,0.75707742,1.12170150,0.10630488,0.13805620,0.18181788
18097,0,USIndianaMarion,Indiana,Marion,2021-01-06 00:16:01.934083,2020-05-17 00:00:00.000000,0.74086550,1.01272157,1.43429623,7146,9768,13834,4936,7175,10718,0.51178630,0.74393181,1.11124672,0.10548232,0.13583454,0.18059083
18097,0,USIndianaMarion,Indiana,Marion,2021-01-06 00:16:01.934083,2020-05-18 00:00:00.000000,0.71801078,0.99398331,1.41503810,6925,9587,13649,4782,7031,10612,0.49580602,0.72893318,1.10026034,0.10522003,0.13318850,0.17666140
18097,0,USIndianaMarion,Indiana,Marion,2021-01-06 00:16:01.934083,2020-05-19 00:00:00.000000,0.69597673,0.97153046,1.39047825,6713,9371,13412,4634,6860,10488,0.48046710,0.71128271,1.08735256,0.10509587,0.13168532,0.16768556
18097,0,USIndianaMarion,Indiana,Marion,2021-01-06 00:16:01.934083,2020-05-20 00:00:00.000000,0.67465590,0.94632457,1.36203908,6507,9128,13137,4492,6714,10259,0.46570986,0.69606752,1.06366204,0.10501494,0.13017455,0.16687240
18097,0,USIndianaMarion,Indiana,Marion,2021-01-06 00:16:01.934083,2020-05-21 00:00:00.000000,0.65399638,0.92205724,1.33186377,6308,8893,12846,4354,6565,10010,0.45146784,0.68061143,1.03784697,0.10278155,0.12945704,0.16732248
18097,0,USIndianaMarion,Indiana,Marion,2021-01-06 00:16:01.934083,2020-05-22 00:00:00.000000,0.63396552,0.89671017,1.30101943,6115,8649,12549,4221,6451,9752,0.43769098,0.66884119,1.01111006,0.10075981,0.12543157,0.16605723
18097,0,USIndianaMarion,Indiana,Marion,2021-01-06 00:16:01.934083,2020-05-23 00:00:00.000000,0.61453497,0.86894600,1.26446580,5927,8381,12196,4093,6337,9492,0.42434411,0.65707049,0.98411708,0.09811970,0.12490646,0.16538969
18097,0,USIndianaMarion,Indiana,Marion,2021-01-06 00:16:01.934083,2020-05-24 00:00:00.000000,0.59567443,0.84135007,1.24077404,5745,8115,11968,3968,6183,9233,0.41140127,0.64104713,0.95725592,0.09482656,0.12265217,0.16955146
18097,0,USIndianaMarion,Indiana,Marion,2021-01-06 00:16:01.934083,2020-05-25 00:00:00.000000,0.57746935,0.81676035,1.21149676,5570,7878,11685,3847,6009,8977,0.39884067,0.62302355,0.93072530,0.09267255,0.12188629,0.16265576
18097,0,USIndianaMarion,Indiana,Marion,2021-01-06 00:16:01.934083,2020-05-26 00:00:00.000000,0.55975273,0.79601104,1.18204678,5399,7678,11401,3729,5815,8726,0.38667428,0.60292890,0.90474400,0.09049496,0.12122309,0.16246295
18097,0,USIndianaMarion,Indiana,Marion,2021-01-06 00:16:01.934083,2020-05-27 00:00:00.000000,0.54247961,0.76984557,1.15200472,5232,7425,11112,3615,5624,8571,0.37486483,0.58313466,0.88859828,0.08854474,0.12021809,0.16261201
18097,0,USIndianaMarion,Indiana,Marion,2021-01-06 00:16:01.934083,2020-05-28 00:00:00.000000,0.52559567,0.74678046,1.12120744,5069,7203,10814,3505,5444,8425,0.36337793,0.56448521,0.87346297,0.08954842,0.11976005,0.16294374
18097,0,USIndianaMarion,Indiana,Marion,2021-01-06 00:16:01.934083,2020-05-29 00:00:00.000000,0.50893694,0.72481195,1.08973428,4909,6991,10511,3397,5302,8244,0.35218004,0.54970696,0.85471982,0.09129874,0.11919851,0.16225002
18097,0,USIndianaMarion,Indiana,Marion,2021-01-06 00:16:01.934083,2020-05-30 00:00:00.000000,0.49210115,0.70794665,1.05797973,4746,6828,10205,3291,5162,8037,0.34120803,0.53522451,0.83330217,0.08794567,0.11813969,0.16307683
18097,0,USIndianaMarion,Indiana,Marion,2021-01-06 00:16:01.934083,2020-05-31 00:00:00.000000,0.47493803,0.69071944,1.02640610,4581,6662,9900,3186,5024,7813,0.33031608,0.52094018,0.81001358,0.08664457,0.11882749,0.16422872
18097,0,USIndianaMarion,Indiana,Marion,2021-01-06 00:16:01.934083,2020-06-01 00:00:00.000000,0.45791736,0.67255518,0.99545431,4416,6487,9601,3080,4900,7577,0.31937767,0.50806663,0.78562119,0.08452145,0.11933027,0.16458734
18097,0,USIndianaMarion,Indiana,Marion,2021-01-06 00:16:01.934083,2020-06-02 00:00:00.000000,0.44129791,0.65074321,0.96521452,4256,6276,9310,2975,4755,7337,0.30844940,0.49298241,0.76072746,0.08460991,0.11889720,0.16843467
18097,0,USIndianaMarion,Indiana,Marion,2021-01-06 00:16:01.934083,2020-06-03 00:00:00.000000,0.42518449,0.62979193,0.93477925,4101,6074,9016,2870,4598,7097,0.29763964,0.47668905,0.73581249,0.08528035,0.11725703,0.16902154
18097,0,USIndianaMarion,Indiana,Marion,2021-01-06 00:16:01.934083,2020-06-04 00:00:00.000000,0.40960915,0.61083113,0.90185759,3951,5891,8699,2768,4458,6859,0.28703965,0.46220060,0.71112467,0.08648891,0.11568613,0.16918660
18097,0,USIndianaMarion,Indiana,Marion,2021-01-06 00:16:01.934083,2020-06-05 00:00:00.000000,0.39457944,0.59287274,0.87020652,3806,5718,8393,2669,4353,6626,0.27670902,0.45137266,0.68694036,0.08833942,0.11604380,0.16937988
18097,0,USIndianaMarion,Indiana,Marion,2021-01-06 00:16:01.934083,2020-06-06 00:00:00.000000,0.38009273,0.57481509,0.83993412,3666,5544,8101,2572,4249,6399,0.26668247,0.44059406,0.66341426,0.08874303,0.11706919,0.17874421
18097,0,USIndianaMarion,Indiana,Marion,2021-01-06 00:16:01.934083,2020-06-07 00:00:00.000000,0.36614241,0.55398793,0.81119331,3531,5343,7824,2478,4130,6179,0.25697821,0.42826102,0.64066450,0.08610756,0.11763196,0.18953120
18097,0,USIndianaMarion,Indiana,Marion,2021-01-06 00:16:01.934083,2020-06-08 00:00:00.000000,0.35258500,0.53620011,0.78391324,3400,5172,7561,2388,4000,5968,0.24760441,0.41477884,0.61880882,0.08511216,0.11958021,0.18964777
18097,0,USIndianaMarion,Indiana,Marion,2021-01-06 00:16:01.934083,2020-06-09 00:00:00.000000,0.33955781,0.51801711,0.75828931,3275,4996,7314,2300,3883,5767,0.23852632,0.40261567,0.59790041,0.08453234,0.12367582,0.18957967
18097,0,USIndianaMarion,Indiana,Marion,2021-01-06 00:16:01.934083,2020-06-10 00:00:00.000000,0.32707375,0.50239191,0.73423178,3154,4845,7082,2216,3761,5575,0.22976073,0.38991426,0.57803010,0.08429486,0.12358436,0.18918791
18097,0,USIndianaMarion,Indiana,Marion,2021-01-06 00:16:01.934083,2020-06-11 00:00:00.000000,0.31518500,0.48788976,0.71170464,3040,4706,6864,2134,3665,5394,0.22132257,0.38005770,0.55922042,0.08421918,0.12605656,0.18859966
18097,0,USIndianaMarion,Indiana,Marion,2021-01-06 00:16:01.934083,2020-06-12 00:00:00.000000,0.30399679,0.47288381,0.69068122,2932,4561,6662,2056,3567,5221,0.21323457,0.36980466,0.54129991,0.08427243,0.12709507,0.18717973
18097,0,USIndianaMarion,Indiana,Marion,2021-01-06 00:16:01.934083,2020-06-13 00:00:00.000000,0.29365165,0.46219350,0.67104278,2832,4458,6472,1982,3445,5058,0.20553867,0.35719583,0.52441147,0.08475125,0.13097759,0.18382638
18097,0,USIndianaMarion,Indiana,Marion,2021-01-06 00:16:01.934083,2020-06-14 00:00:00.000000,0.28421885,0.45072858,0.65244423,2741,4347,6293,1912,3326,4905,0.19829814,0.34490676,0.50852299,0.08593149,0.13678350,0.17854881
18097,0,USIndianaMarion,Indiana,Marion,2021-01-06 00:16:01.934083,2020-06-15 00:00:00.000000,0.27560115,0.43828040,0.63472744,2658,4227,6122,1847,3220,4760,0.19156838,0.33391854,0.49356150,0.09037911,0.13823839,0.18404112
18097,0,USIndianaMarion,Indiana,Marion,2021-01-06 00:16:01.934083,2020-06-16 00:00:00.000000,0.26912522,0.42457741,0.61788238,2595,4095,5959,1787,3120,4624,0.18535394,0.32352377,0.47947004,0.09418054,0.13863518,0.18963961
18097,0,USIndianaMarion,Indiana,Marion,2021-01-06 00:16:01.934083,2020-06-17 00:00:00.000000,0.26798443,0.41484491,0.60177363,2584,4001,5804,1732,3029,4496,0.17962467,0.31404256,0.46614169,0.10319295,0.14075225,0.19186926
18097,0,USIndianaMarion,Indiana,Marion,2021-01-06 00:16:01.934083,2020-06-18 00:00:00.000000,0.26728322,0.40526334,0.58630039,2578,3909,5655,1681,2937,4374,0.17434612,0.30455339,0.45347603,0.10622678,0.14541796,0.19367164
18097,0,USIndianaMarion,Indiana,Marion,2021-01-06 00:16:01.934083,2020-06-19 00:00:00.000000,0.26308450,0.39548073,0.57141209,2537,3814,5511,1639,2863,4257,0.17000567,0.29682375,0.44138754,0.10921341,0.14920067,0.19871435
18097,0,USIndianaMarion,Indiana,Marion,2021-01-06 00:16:01.934083,2020-06-20 00:00:00.000000,0.25659865,0.38624350,0.55707848,2475,3725,5373,1617,2804,4145,0.16773149,0.29074920,0.42981276,0.11348034,0.15262493,0.20789873
18097,0,USIndianaMarion,Indiana,Marion,2021-01-06 00:16:01.934083,2020-06-21 00:00:00.000000,0.25353061,0.37889926,0.54478967,2445,3654,5254,1616,2752,4040,0.16760910,0.28537365,0.41892487,0.11188510,0.16483555,0.22924389
18097,0,USIndianaMarion,Indiana,Marion,2021-01-06 00:16:01.934083,2020-06-22 00:00:00.000000,0.25345948,0.37778114,0.53703160,2444,3644,5180,1617,2704,3951,0.16772497,0.28034738,0.40966186,0.11177697,0.17296624,0.24497795
18097,0,USIndianaMarion,Indiana,Marion,2021-01-06 00:16:01.934083,2020-06-23 00:00:00.000000,0.25434864,0.37864284,0.53042773,2453,3652,5116,1614,2650,3878,0.16735833,0.27482294,0.40211205,0.11253809,0.17794754,0.25933366
18097,0,USIndianaMarion,Indiana,Marion,2021-01-06 00:16:01.934083,2020-06-24 00:00:00.000000,0.25596882,0.37401126,0.52431119,2469,3607,5057,1586,2600,3818,0.16452500,0.26964610,0.39586456,0.11438553,0.18142473,0.27101361
18097,0,USIndianaMarion,Indiana,Marion,2021-01-06 00:16:01.934083,2020-06-25 00:00:00.000000,0.25812986,0.37810978,0.51849360,2489,3647,5001,1578,2548,3766,0.16364409,0.26421588,0.39045401,0.12863155,0.18808960,0.27990793
18097,0,USIndianaMarion,Indiana,Marion,2021-01-06 00:16:01.934083,2020-06-26 00:00:00.000000,0.26076702,0.37611490,0.51297727,2515,3627,4948,1586,2517,3719,0.16448896,0.26094638,0.38557173,0.14601002,0.19498363,0.29169993
18097,0,USIndianaMarion,Indiana,Marion,2021-01-06 00:16:01.934083,2020-06-27 00:00:00.000000,0.26407476,0.37972717,0.51146667,2547,3662,4933,1598,2547,3675,0.16571985,0.26410782,0.38106345,0.15920100,0.20443182,0.29750176
18097,0,USIndianaMarion,Indiana,Marion,2021-01-06 00:16:01.934083,2020-06-28 00:00:00.000000,0.26741155,0.38788546,0.51279347,2579,3741,4946,1614,2567,3635,0.16735456,0.26617700,0.37692687,0.16211352,0.21222532,0.33069277
18097,0,USIndianaMarion,Indiana,Marion,2021-01-06 00:16:01.934083,2020-06-29 00:00:00.000000,0.27147813,0.39350939,0.51382096,2618,3795,4956,1635,2597,3601,0.16959094,0.26926289,0.37336273,0.16517473,0.21532525,0.36085292
18097,0,USIndianaMarion,Indiana,Marion,2021-01-06 00:16:01.934083,2020-06-30 00:00:00.000000,0.27739048,0.39793620,0.51937393,2675,3838,5009,1667,2616,3576,0.17287001,0.27127896,0.37074062,0.16825784,0.22318696,0.36809172
18097,0,USIndianaMarion,Indiana,Marion,2021-01-06 00:16:01.934083,2020-07-01 00:00:00.000000,0.28210302,0.40183087,0.52917966,2721,3875,5104,1712,2662,3564,0.17750254,0.27602470,0.36950672,0.17247392,0.23055064,0.36601781
18097,0,USIndianaMarion,Indiana,Marion,2021-01-06 00:16:01.934083,2020-07-02 00:00:00.000000,0.28982920,0.40837405,0.53961770,2795,3939,5205,1791,2685,3614,0.18574888,0.27844278,0.37473851,0.18074679,0.23747143,0.36328268
18097,0,USIndianaMarion,Indiana,Marion,2021-01-06 00:16:01.934083,2020-07-03 00:00:00.000000,0.29522152,0.41578573,0.55160866,2847,4010,5320,1878,2724,3673,0.19474173,0.28240778,0.38088381,0.18849256,0.24488229,0.36065758
18097,0,USIndianaMarion,Indiana,Marion,2021-01-06 00:16:01.934083,2020-07-04 00:00:00.000000,0.30245847,0.42583274,0.55553901,2917,4107,5358,1904,2781,3742,0.19746323,0.28833442,0.38802042,0.18862715,0.25061284,0.35929103
18097,0,USIndianaMarion,Indiana,Marion,2021-01-06 00:16:01.934083,2020-07-05 00:00:00.000000,0.31271591,0.43510562,0.55832043,3016,4196,5385,1964,2852,3753,0.20364310,0.29572885,0.38917966,0.18871387,0.26598844,0.36002745
18097,0,USIndianaMarion,Indiana,Marion,2021-01-06 00:16:01.934083,2020-07-06 00:00:00.000000,0.32791640,0.44298664,0.58018134,3163,4272,5596,2025,2912,3847,0.20996944,0.30193960,0.39888330,0.19621548,0.27461776,0.36443353
18097,0,USIndianaMarion,Indiana,Marion,2021-01-06 00:16:01.934083,2020-07-07 00:00:00.000000,0.34412281,0.45679306,0.60901855,3319,4406,5874,2110,2976,3948,0.21881471,0.30857121,0.40939441,0.19593572,0.28623540,0.37127135
18097,0,USIndianaMarion,Indiana,Marion,2021-01-06 00:16:01.934083,2020-07-08 00:00:00.000000,0.36122191,0.47244072,0.64171215,3484,4557,6189,2206,3060,4118,0.22877319,0.31731477,0.42700782,0.19591931,0.29539556,0.37519438
18097,0,USIndianaMarion,Indiana,Marion,2021-01-06 00:16:01.934083,2020-07-09 00:00:00.000000,0.36515887,0.49172524,0.67778119,3522,4743,6537,2310,3148,4319,0.23957836,0.32641238,0.44783980,0.19873790,0.29802860,0.38251975
18097,0,USIndianaMarion,Indiana,Marion,2021-01-06 00:16:01.934083,2020-07-10 00:00:00.000000,0.38620244,0.51424133,0.71656923,3725,4960,6911,2421,3242,4545,0.25108637,0.33616754,0.47122903,0.21343808,0.30529885,0.38649387
18097,0,USIndianaMarion,Indiana,Marion,2021-01-06 00:16:01.934083,2020-07-11 00:00:00.000000,0.40178275,0.53646082,0.75754969,3875,5174,7307,2531,3365,4793,0.26242874,0.34892663,0.49692376,0.22033476,0.30906050,0.38865195
18097,0,USIndianaMarion,Indiana,Marion,2021-01-06 00:16:01.934083,2020-07-12 00:00:00.000000,0.41480742,0.55573817,0.79912470,4001,5360,7708,2601,3506,5060,0.26969081,0.36349743,0.52460770,0.23864497,0.31595420,0.38969202
18097,0,USIndianaMarion,Indiana,Marion,2021-01-06 00:16:01.934083,2020-07-13 00:00:00.000000,0.43034671,0.57935387,0.82354845,4151,5588,7943,2703,3653,5268,0.28028915,0.37877125,0.54615291,0.25786739,0.31672902,0.40702999
18097,0,USIndianaMarion,Indiana,Marion,2021-01-06 00:16:01.934083,2020-07-14 00:00:00.000000,0.44941395,0.60619005,0.84544476,4334,5847,8155,2822,3805,5476,0.29262493,0.39449280,0.56770762,0.26291339,0.31675064,0.41568381
18097,0,USIndianaMarion,Indiana,Marion,2021-01-06 00:16:01.934083,2020-07-15 00:00:00.000000,0.47014830,0.63430102,0.87049610,4534,6118,8396,2953,3981,5686,0.30617846,0.41275149,0.58955672,0.26117220,0.31850234,0.40670440
18097,0,USIndianaMarion,Indiana,Marion,2021-01-06 00:16:01.934083,2020-07-16 00:00:00.000000,0.49142452,0.66109590,0.89839880,4740,6376,8665,3093,4156,5901,0.32069665,0.43089708,0.61183145,0.25857837,0.31647191,0.40171909
18097,0,USIndianaMarion,Indiana,Marion,2021-01-06 00:16:01.934083,2020-07-17 00:00:00.000000,0.51364823,0.68740867,0.92928925,4954,6630,8963,3225,4370,6120,0.33436697,0.45308640,0.63456691,0.25850674,0.31495479,0.40187488
18097,0,USIndianaMarion,Indiana,Marion,2021-01-06 00:16:01.934083,2020-07-18 00:00:00.000000,0.53683224,0.71237682,0.96946522,5178,6871,9351,3348,4550,6346,0.34710670,0.47179050,0.65791978,0.25720540,0.31198716,0.40068243
18097,0,USIndianaMarion,Indiana,Marion,2021-01-06 00:16:01.934083,2020-07-19 00:00:00.000000,0.56094655,0.74177730,1.01106574,5410,7155,9752,3478,4713,6578,0.36065898,0.48863156,0.68199132,0.24864532,0.30777418,0.39739219
18097,0,USIndianaMarion,Indiana,Marion,2021-01-06 00:16:01.934083,2020-07-20 00:00:00.000000,0.58549498,0.77245367,1.05587502,5647,7450,10184,3617,4901,6815,0.37507148,0.50810996,0.70657529,0.24168233,0.30129381,0.38186951
18097,0,USIndianaMarion,Indiana,Marion,2021-01-06 00:16:01.934083,2020-07-21 00:00:00.000000,0.60061213,0.79966469,1.09089008,5793,7713,10522,3765,5093,7049,0.39038664,0.52806518,0.73083012,0.23889337,0.29355304,0.35003087
18097,0,USIndianaMarion,Indiana,Marion,2021-01-06 00:16:01.934083,2020-07-22 00:00:00.000000,0.60965585,0.82540705,1.14025755,5880,7961,10998,3919,5275,7265,0.40636780,0.54695814,0.75326166,0.22920055,0.28637006,0.33688217
18097,0,USIndianaMarion,Indiana,Marion,2021-01-06 00:16:01.934083,2020-07-23 00:00:00.000000,0.62793568,0.84496042,1.19049892,6056,8150,11483,4075,5442,7453,0.42251935,0.56426140,0.77276552,0.22881251,0.28133542,0.33319484
18097,0,USIndianaMarion,Indiana,Marion,2021-01-06 00:16:01.934083,2020-07-24 00:00:00.000000,0.64400345,0.86816714,1.23392262,6211,8374,11902,4222,5641,7712,0.43779776,0.58488947,0.79955625,0.22300070,0.27847334,0.32954151
18097,0,USIndianaMarion,Indiana,Marion,2021-01-06 00:16:01.934083,2020-07-25 00:00:00.000000,0.65828033,0.89894360,1.27275055,6349,8671,12276,4352,5818,8046,0.45124835,0.60324135,0.83415221,0.21830342,0.26665768,0.32798453
18097,0,USIndianaMarion,Indiana,Marion,2021-01-06 00:16:01.934083,2020-07-26 00:00:00.000000,0.67155414,0.92127395,1.30714424,6477,8886,12608,4465,5962,8252,0.46294472,0.61810737,0.85553862,0.20978153,0.25811390,0.32628359
18097,0,USIndianaMarion,Indiana,Marion,2021-01-06 00:16:01.934083,2020-07-27 00:00:00.000000,0.68450777,0.94388622,1.33672581,6602,9104,12893,4564,6103,8463,0.47325199,0.63273165,0.87742075,0.19759982,0.25100162,0.32440491
18097,0,USIndianaMarion,Indiana,Marion,2021-01-06 00:16:01.934083,2020-07-28 00:00:00.000000,0.69729062,0.96537159,1.36035572,6725,9311,13121,4651,6218,8700,0.48224525,0.64470321,0.90194882,0.17687539,0.24201062,0.32006767
18097,0,USIndianaMarion,Indiana,Marion,2021-01-06 00:16:01.934083,2020-07-29 00:00:00.000000,0.71001018,0.97831833,1.37645331,6848,9436,13277,4739,6365,8994,0.49132665,0.65995616,0.93247458,0.17474810,0.23553300,0.30606720
18097,0,USIndianaMarion,Indiana,Marion,2021-01-06 00:16:01.934083,2020-07-30 00:00:00.000000,0.72262966,0.98570772,1.38510434,6970,9507,13360,4792,6502,9125,0.49689424,0.67409700,0.94606135,0.17125582,0.23028596,0.28930725
18097,0,USIndianaMarion,Indiana,Marion,2021-01-06 00:16:01.934083,2020-07-31 00:00:00.000000,0.73279989,0.99662220,1.38794178,7068,9613,13387,4787,6573,9217,0.49634883,0.68143818,0.95564497,0.16850443,0.22297948,0.27430924
18097,0,USIndianaMarion,Indiana,Marion,2021-01-06 00:16:01.934083,2020-08-01 00:00:00.000000,0.74250998,0.99817780,1.38302914,7162,9628,13340,4777,6614,9289,0.49531641,0.68577472,0.96304299,0.16407322,0.21463287,0.27229570
18097,0,USIndianaMarion,Indiana,Marion,2021-01-06 00:16:01.934083,2020-08-02 00:00:00.000000,0.75386269,0.99390840,1.37178631,7271,9587,13232,4765,6634,9339,0.49403243,0.68785657,0.96820217,0.15895860,0.21173826,0.26873378
18097,0,USIndianaMarion,Indiana,Marion,2021-01-06 00:16:01.934083,2020-08-03 00:00:00.000000,0.76310324,0.98954192,1.37786489,7360,9544,13290,4753,6626,9362,0.49276708,0.68701994,0.97067511,0.15882537,0.20973554,0.26477933
18097,0,USIndianaMarion,Indiana,Marion,2021-01-06 00:16:01.934083,2020-08-04 00:00:00.000000,0.75678831,0.98545778,1.37539721,7299,9505,13266,4746,6686,9373,0.49209407,0.69317137,0.97177857,0.15955357,0.20237190,0.27231550
18097,0,USIndianaMarion,Indiana,Marion,2021-01-06 00:16:01.934083,2020-08-05 00:00:00.000000,0.74998066,0.99290343,1.37360384,7234,9577,13249,4752,6718,9434,0.49269137,0.69653193,0.97807699,0.16147572,0.19624818,0.26817979
18097,0,USIndianaMarion,Indiana,Marion,2021-01-06 00:16:01.934083,2020-08-06 00:00:00.000000,0.75117201,0.99983687,1.37665309,7245,9644,13278,4791,6750,9486,0.49670750,0.69983111,0.98343492,0.15135405,0.19092467,0.26449057
18097,0,USIndianaMarion,Indiana,Marion,2021-01-06 00:16:01.934083,2020-08-07 00:00:00.000000,0.76610140,0.99920179,1.37162012,7389,9638,13230,4836,6798,9525,0.50137697,0.70479023,0.98754701,0.15246403,0.18813721,0.26088742
18097,0,USIndianaMarion,Indiana,Marion,2021-01-06 00:16:01.934083,2020-08-08 00:00:00.000000,0.76126329,0.98998485,1.36116961,7343,9549,13129,4803,6834,9534,0.49803433,0.70858989,0.98850919,0.14574379,0.18520622,0.25734242
18097,0,USIndianaMarion,Indiana,Marion,2021-01-06 00:16:01.934083,2020-08-09 00:00:00.000000,0.75056956,0.98311493,1.34951005,7239,9482,13017,4786,6860,9510,0.49623754,0.71119110,0.98597116,0.14302254,0.18386257,0.25366422
18097,0,USIndianaMarion,Indiana,Marion,2021-01-06 00:16:01.934083,2020-08-10 00:00:00.000000,0.74103348,0.98365561,1.33647821,7147,9488,12891,4776,6885,9462,0.49516113,0.71380021,0.98102770,0.14201241,0.18200614,0.25018760
18097,0,USIndianaMarion,Indiana,Marion,2021-01-06 00:16:01.934083,2020-08-11 00:00:00.000000,0.73253816,0.97737455,1.32324198,7065,9427,12763,4753,6866,9397,0.49277891,0.71182214,0.97430059,0.13591985,0.18350494,0.24916437
18097,0,USIndianaMarion,Indiana,Marion,2021-01-06 00:16:01.934083,2020-08-12 00:00:00.000000,0.72502490,0.96963401,1.30989382,6993,9352,12635,4720,6769,9322,0.48935311,0.70180253,0.96648189,0.13843754,0.18510482,0.24909011
18097,0,USIndianaMarion,Indiana,Marion,2021-01-06 00:16:01.934083,2020-08-13 00:00:00.000000,0.72422731,0.95762079,1.30368550,6985,9237,12575,4680,6724,9240,0.48523729,0.69714012,0.95800062,0.13944343,0.18247597,0.24884141
18097,0,USIndianaMarion,Indiana,Marion,2021-01-06 00:16:01.934083,2020-08-14 00:00:00.000000,0.73452601,0.94624541,1.31096415,7085,9127,12645,4670,6674,9155,0.48420078,0.69193172,0.94912097,0.14180518,0.18379211,0.25088912
18097,0,USIndianaMarion,Indiana,Marion,2021-01-06 00:16:01.934083,2020-08-15 00:00:00.000000,0.73146541,0.93651817,1.31827414,7055,9033,12715,4699,6638,9067,0.48719344,0.68820610,0.94000360,0.14314364,0.18562412,0.24556504
18097,0,USIndianaMarion,Indiana,Marion,2021-01-06 00:16:01.934083,2020-08-16 00:00:00.000000,0.73525369,0.93445979,1.32552606,7092,9013,12785,4754,6596,9069,0.49287850,0.68385164,0.94021450,0.14306312,0.18567597,0.25576929
18097,0,USIndianaMarion,Indiana,Marion,2021-01-06 00:16:01.934083,2020-08-17 00:00:00.000000,0.72615106,0.93306960,1.33241283,7004,9000,12852,4757,6549,9120,0.49324343,0.67904744,0.94558872,0.14312509,0.18524993,0.26522937
18097,0,USIndianaMarion,Indiana,Marion,2021-01-06 00:16:01.934083,2020-08-18 00:00:00.000000,0.72310230,0.92828169,1.33779367,6974,8954,12904,4728,6537,9171,0.49023858,0.67771906,0.95081420,0.14318130,0.18888372,0.27075777
18097,0,USIndianaMarion,Indiana,Marion,2021-01-06 00:16:01.934083,2020-08-19 00:00:00.000000,0.72063457,0.92248925,1.34006181,6951,8898,12925,4627,6542,9215,0.47978535,0.67824785,0.95538891,0.14343043,0.19079851,0.27411151
18097,0,USIndianaMarion,Indiana,Marion,2021-01-06 00:16:01.934083,2020-08-20 00:00:00.000000,0.71573793,0.91721420,1.33788839,6903,8847,12905,4568,6523,9247,0.47360489,0.67627018,0.95866338,0.14440711,0.19316746,0.27264974
18097,0,USIndianaMarion,Indiana,Marion,2021-01-06 00:16:01.934083,2020-08-21 00:00:00.000000,0.71180913,0.91565524,1.33124211,6865,8832,12840,4579,6484,9258,0.47475012,0.67226097,0.95988627,0.14942748,0.19264185,0.27051959
18097,0,USIndianaMarion,Indiana,Marion,2021-01-06 00:16:01.934083,2020-08-22 00:00:00.000000,0.70909543,0.91970885,1.32122868,6839,8871,12744,4592,6427,9246,0.47615271,0.66638989,0.95857919,0.15803541,0.19103645,0.27041454
18097,0,USIndianaMarion,Indiana,Marion,2021-01-06 00:16:01.934083,2020-08-23 00:00:00.000000,0.70500976,0.91832936,1.30914419,6800,8858,12627,4606,6372,9209,0.47758661,0.66064034,0.95480130,0.16034460,0.19360855,0.26482142
18097,0,USIndianaMarion,Indiana,Marion,2021-01-06 00:16:01.934083,2020-08-24 00:00:00.000000,0.70147802,0.91439663,1.29846962,6766,8820,12524,4620,6323,9153,0.47899958,0.65555582,0.94897902,0.15876457,0.19594369,0.25916607
18097,0,USIndianaMarion,Indiana,Marion,2021-01-06 00:16:01.934083,2020-08-25 00:00:00.000000,0.70365869,0.91402941,1.30306248,6787,8816,12569,4633,6296,9082,0.48034348,0.65277327,0.94157274,0.15882654,0.19769758,0.25449210
18097,0,USIndianaMarion,Indiana,Marion,2021-01-06 00:16:01.934083,2020-08-26 00:00:00.000000,0.70361562,0.91469247,1.30741415,6786,8822,12611,4645,6231,9000,0.48161151,0.64607389,0.93308759,0.15889018,0.19922068,0.25246854
18097,0,USIndianaMarion,Indiana,Marion,2021-01-06 00:16:01.934083,2020-08-27 00:00:00.000000,0.69196806,0.91033552,1.31157484,6674,8780,12651,4657,6185,8911,0.48281108,0.64121165,0.92392087,0.15905710,0.19768370,0.25215131
18097,0,USIndianaMarion,Indiana,Marion,2021-01-06 00:16:01.934083,2020-08-28 00:00:00.000000,0.68009648,0.90791798,1.31547212,6560,8757,12688,4620,6154,8820,0.47899224,0.63800672,0.91438951,0.16229444,0.19791932,0.25518995
18097,0,USIndianaMarion,Indiana,Marion,2021-01-06 00:16:01.934083,2020-08-29 00:00:00.000000,0.66822918,0.90806549,1.31830332,6445,8759,12716,4540,6153,8740,0.47076600,0.63793132,0.90613454,0.16434147,0.19997216,0.27018966
18097,0,USIndianaMarion,Indiana,Marion,2021-01-06 00:16:01.934083,2020-08-30 00:00:00.000000,0.66216617,0.90733967,1.31703315,6387,8752,12703,4466,6162,8759,0.46305658,0.63892675,0.90810216,0.16815920,0.19875040,0.27425872
18097,0,USIndianaMarion,Indiana,Marion,2021-01-06 00:16:01.934083,2020-08-31 00:00:00.000000,0.65379036,0.90701527,1.30916707,6306,8748,12627,4407,6174,8768,0.45689752,0.64016523,0.90903082,0.17284022,0.19877807,0.27642729
18097,0,USIndianaMarion,Indiana,Marion,2021-01-06 00:16:01.934083,2020-09-01 00:00:00.000000,0.64596762,0.90801688,1.29855521,6230,8758,12525,4366,6212,8760,0.45265885,0.64407050,0.90823399,0.17008452,0.19841082,0.27654954
18097,0,USIndianaMarion,Indiana,Marion,2021-01-06 00:16:01.934083,2020-09-02 00:00:00.000000,0.63872000,0.90960132,1.28715671,6160,8773,12415,4335,6253,8769,0.44947729,0.64835947,0.90919793,0.16385906,0.20169583,0.27628371
18097,0,USIndianaMarion,Indiana,Marion,2021-01-06 00:16:01.934083,2020-09-03 00:00:00.000000,0.63329780,0.91079038,1.27538646,6108,8785,12302,4310,6271,8792,0.44688366,0.65018214,0.91156167,0.16513999,0.20212779,0.27615532
18097,0,USIndianaMarion,Indiana,Marion,2021-01-06 00:16:01.934083,2020-09-04 00:00:00.000000,0.63171897,0.91500585,1.27906871,6093,8825,12337,4286,6292,8859,0.44442646,0.65234173,0.91852794,0.16821367,0.20288860,0.27508975
18097,0,USIndianaMarion,Indiana,Marion,2021-01-06 00:16:01.934083,2020-09-05 00:00:00.000000,0.63114258,0.91612640,1.29031394,6087,8836,12446,4258,6315,8853,0.44150651,0.65475196,0.91782834,0.16583721,0.20632386,0.27399482
18097,0,USIndianaMarion,Indiana,Marion,2021-01-06 00:16:01.934083,2020-09-06 00:00:00.000000,0.63144286,0.91992381,1.30109953,6090,8873,12550,4218,6341,8841,0.43729786,0.65743900,0.91661461,0.16394656,0.20953057,0.27231286
18097,0,USIndianaMarion,Indiana,Marion,2021-01-06 00:16:01.934083,2020-09-07 00:00:00.000000,0.63322202,0.92435229,1.31151009,6107,8916,12650,4193,6329,8826,0.43472874,0.65622052,0.91507093,0.16287555,0.20989137,0.26965134
18097,0,USIndianaMarion,Indiana,Marion,2021-01-06 00:16:01.934083,2020-09-08 00:00:00.000000,0.63691020,0.92127036,1.31894334,6143,8886,12722,4174,6313,8810,0.43274103,0.65449142,0.91340003,0.16237432,0.20984874,0.26629527
18097,0,USIndianaMarion,Indiana,Marion,2021-01-06 00:16:01.934083,2020-09-09 00:00:00.000000,0.64263041,0.91468197,1.31799719,6198,8822,12713,4160,6296,8795,0.43130262,0.65282054,0.91180678,0.15652817,0.20886807,0.26499431
18097,0,USIndianaMarion,Indiana,Marion,2021-01-06 00:16:01.934083,2020-09-10 00:00:00.000000,0.65013402,0.91288120,1.31890753,6271,8805,12721,4151,6302,8783,0.43043229,0.65341209,0.91055217,0.15072799,0.20430494,0.26537615
18097,0,USIndianaMarion,Indiana,Marion,2021-01-06 00:16:01.934083,2020-09-11 00:00:00.000000,0.65459219,0.91196258,1.32255415,6314,8796,12757,4148,6324,8777,0.43009533,0.65565985,0.90998909,0.14969713,0.20526218,0.26538761
18097,0,USIndianaMarion,Indiana,Marion,2021-01-06 00:16:01.934083,2020-09-12 00:00:00.000000,0.65577540,0.91070529,1.32960754,6325,8784,12825,4149,6341,8783,0.43021801,0.65742187,0.91056167,0.14964127,0.20017551,0.26554534
18097,0,USIndianaMarion,Indiana,Marion,2021-01-06 00:16:01.934083,2020-09-13 00:00:00.000000,0.65610640,0.90884886,1.34000786,6328,8766,12925,4154,6302,8803,0.43074041,0.65344347,0.91271750,0.14963700,0.19418753,0.26595462
18097,0,USIndianaMarion,Indiana,Marion,2021-01-06 00:16:01.934083,2020-09-14 00:00:00.000000,0.65472343,0.90155736,1.35272112,6315,8696,13048,4159,6244,8842,0.43117616,0.64734106,0.91671877,0.14957318,0.19265581,0.25902700
18097,0,USIndianaMarion,Indiana,Marion,2021-01-06 00:16:01.934083,2020-09-15 00:00:00.000000,0.65180976,0.89129765,1.35564016,6287,8597,13076,4163,6190,8898,0.43163558,0.64183012,0.92252456,0.14950874,0.19004825,0.25460848
18097,0,USIndianaMarion,Indiana,Marion,2021-01-06 00:16:01.934083,2020-09-16 00:00:00.000000,0.64812025,0.88392776,1.34635751,6251,8526,12986,4195,6124,8967,0.43491727,0.63495757,0.92966689,0.14944204,0.18864141,0.25349934
18097,0,USIndianaMarion,Indiana,Marion,2021-01-06 00:16:01.934083,2020-09-17 00:00:00.000000,0.64711096,0.87778466,1.33613414,6241,8466,12888,4215,6059,9043,0.43705500,0.62817413,0.93754885,0.14701315,0.19051759,0.25353762
18097,0,USIndianaMarion,Indiana,Marion,2021-01-06 00:16:01.934083,2020-09-18 00:00:00.000000,0.64890002,0.87266565,1.32420586,6259,8417,12773,4229,5989,9121,0.43843787,0.62095275,0.94566979,0.14465761,0.19403290,0.25352521
18097,0,USIndianaMarion,Indiana,Marion,2021-01-06 00:16:01.934083,2020-09-19 00:00:00.000000,0.65368794,0.86522377,1.31145217,6305,8345,12650,4236,5953,9196,0.43919997,0.61723065,0.95342021,0.13568474,0.19413722,0.26210341
18097,0,USIndianaMarion,Indiana,Marion,2021-01-06 00:16:01.934083,2020-09-20 00:00:00.000000,0.66418293,0.85980775,1.29842238,6406,8293,12524,4254,5889,9268,0.44105102,0.61062481,0.96088937,0.13421550,0.19319738,0.26783845
18097,0,USIndianaMarion,Indiana,Marion,2021-01-06 00:16:01.934083,2020-09-21 00:00:00.000000,0.65934669,0.85007319,1.28553527,6359,8199,12400,4307,5847,9338,0.44661335,0.60618591,0.96811340,0.13711895,0.19317969,0.26805799
18097,0,USIndianaMarion,Indiana,Marion,2021-01-06 00:16:01.934083,2020-09-22 00:00:00.000000,0.65696822,0.83922849,1.27259290,6336,8095,12275,4344,5811,9405,0.45042265,0.60249731,0.97507136,0.14431330,0.19415122,0.26607303
18097,0,USIndianaMarion,Indiana,Marion,2021-01-06 00:16:01.934083,2020-09-23 00:00:00.000000,0.65513062,0.82850326,1.25989195,6319,7991,12152,4329,5773,9396,0.44884788,0.59858693,0.97412986,0.15202032,0.19559459,0.26293554
18097,0,USIndianaMarion,Indiana,Marion,2021-01-06 00:16:01.934083,2020-09-24 00:00:00.000000,0.65763623,0.82326212,1.24830186,6343,7941,12040,4314,5743,9306,0.44727930,0.59543257,0.96486971,0.15656290,0.19835277,0.25942633
18097,0,USIndianaMarion,Indiana,Marion,2021-01-06 00:16:01.934083,2020-09-25 00:00:00.000000,0.66084440,0.82413203,1.23994014,6374,7949,11960,4300,5736,9223,0.44580892,0.59468940,0.95617387,0.15999651,0.20454521,0.27556493
18097,0,USIndianaMarion,Indiana,Marion,2021-01-06 00:16:01.934083,2020-09-26 00:00:00.000000,0.66435450,0.82672283,1.23811595,6408,7974,11942,4288,5739,9154,0.44458462,0.59506832,0.94904768,0.17007940,0.20537103,0.28916680
18097,0,USIndianaMarion,Indiana,Marion,2021-01-06 00:16:01.934083,2020-09-27 00:00:00.000000,0.66816571,0.83356922,1.24359839,6445,8040,11995,4274,5760,9113,0.44313772,0.59717275,0.94484946,0.17729352,0.21320091,0.29440699
18097,0,USIndianaMarion,Indiana,Marion,2021-01-06 00:16:01.934083,2020-09-28 00:00:00.000000,0.67283268,0.83813112,1.25323867,6490,8084,12088,4279,5764,9116,0.44368780,0.59764215,0.94510414,0.18193765,0.21860129,0.30532659
18097,0,USIndianaMarion,Indiana,Marion,2021-01-06 00:16:01.934083,2020-09-29 00:00:00.000000,0.67962563,0.84147638,1.27468704,6555,8116,12295,4286,5805,9155,0.44440802,0.60182643,0.94916283,0.18303390,0.22377073,0.31203709
18097,0,USIndianaMarion,Indiana,Marion,2021-01-06 00:16:01.934083,2020-09-30 00:00:00.000000,0.69035280,0.84630846,1.30475055,6659,8163,12585,4303,5862,9218,0.44613648,0.60781999,0.95568284,0.18910630,0.22770716,0.31262627
18097,0,USIndianaMarion,Indiana,Marion,2021-01-06 00:16:01.934083,2020-10-01 00:00:00.000000,0.70553671,0.85534076,1.30182829,6805,8250,12557,4329,5898,9294,0.44881800,0.61151241,0.96353895,0.19161234,0.23368785,0.31315971
18097,0,USIndianaMarion,Indiana,Marion,2021-01-06 00:16:01.934083,2020-10-02 00:00:00.000000,0.71184645,0.86639900,1.30141474,6866,8357,12553,4362,5939,9280,0.45231531,0.61573386,0.96213823,0.19205048,0.24240701,0.31359773
18097,0,USIndianaMarion,Indiana,Marion,2021-01-06 00:16:01.934083,2020-10-03 00:00:00.000000,0.71279983,0.87769258,1.31113713,6875,8466,12646,4403,5990,9224,0.45648720,0.62104686,0.95635469,0.19255377,0.24806210,0.31390394
18097,0,USIndianaMarion,Indiana,Marion,2021-01-06 00:16:01.934083,2020-10-04 00:00:00.000000,0.71857862,0.89623449,1.31744318,6931,8644,12707,4448,6039,9204,0.46121773,0.62617748,0.95423453,0.19742264,0.25064489,0.30855613
18097,0,USIndianaMarion,Indiana,Marion,2021-01-06 00:16:01.934083,2020-10-05 00:00:00.000000,0.72869812,0.90862311,1.32266964,7028,8764,12758,4498,6102,9228,0.46640618,0.63270355,0.95674585,0.20783619,0.25549371,0.32325761
18097,0,USIndianaMarion,Indiana,Marion,2021-01-06 00:16:01.934083,2020-10-06 00:00:00.000000,0.74156622,0.92615410,1.34330881,7153,8933,12957,4552,6178,9286,0.47200815,0.64052198,0.96276074,0.20735724,0.25687561,0.32682269
18097,0,USIndianaMarion,Indiana,Marion,2021-01-06 00:16:01.934083,2020-10-07 00:00:00.000000,0.75652420,0.95181498,1.36541975,7297,9181,13170,4611,6326,9370,0.47810943,0.65589831,0.97144399,0.21015023,0.26263792,0.32301928
18097,0,USIndianaMarion,Indiana,Marion,2021-01-06 00:16:01.934083,2020-10-08 00:00:00.000000,0.77376935,0.97682633,1.40181581,7463,9422,13521,4680,6486,9482,0.48519448,0.67246806,0.98304035,0.21409809,0.26494733,0.32105128
18097,0,USIndianaMarion,Indiana,Marion,2021-01-06 00:16:01.934083,2020-10-09 00:00:00.000000,0.78850613,1.00245812,1.44087709,7605,9669,13898,4752,6604,9630,0.49274686,0.68471277,0.99838424,0.21635308,0.27166765,0.34007677
18097,0,USIndianaMarion,Indiana,Marion,2021-01-06 00:16:01.934083,2020-10-10 00:00:00.000000,0.79903979,1.02892188,1.47912679,7707,9924,14267,4849,6750,9814,0.50280579,0.69987172,1.01751860,0.22239614,0.27374534,0.37501409
18097,0,USIndianaMarion,Indiana,Marion,2021-01-06 00:16:01.934083,2020-10-11 00:00:00.000000,0.81807860,1.05343189,1.51520850,7891,10161,14615,4968,6923,10068,0.51512208,0.71782238,1.04380097,0.22354928,0.27405701,0.39450283
18097,0,USIndianaMarion,Indiana,Marion,2021-01-06 00:16:01.934083,2020-10-12 00:00:00.000000,0.83744199,1.07911419,1.54957868,8077,10408,14946,5087,7103,10303,0.52744427,0.73641721,1.06817125,0.22881528,0.27780507,0.39809653
18097,0,USIndianaMarion,Indiana,Marion,2021-01-06 00:16:01.934083,2020-10-13 00:00:00.000000,0.85714260,1.10303664,1.58396150,8267,10639,15278,5213,7277,10519,0.54050526,0.75449834,1.09058365,0.22920516,0.28090455,0.40057688
18097,0,USIndianaMarion,Indiana,Marion,2021-01-06 00:16:01.934083,2020-10-14 00:00:00.000000,0.87740698,1.12913748,1.63397798,8463,10891,15761,5344,7423,10768,0.55410773,0.76964758,1.11635230,0.22917367,0.28148697,0.40167772
18097,0,USIndianaMarion,Indiana,Marion,2021-01-06 00:16:01.934083,2020-10-15 00:00:00.000000,0.89807603,1.16089221,1.68452812,8662,11197,16248,5454,7594,11033,0.56546211,0.78732201,1.14385335,0.22972690,0.28197280,0.40218236
18097,0,USIndianaMarion,Indiana,Marion,2021-01-06 00:16:01.934083,2020-10-16 00:00:00.000000,0.92324990,1.19199784,1.73473280,8905,11497,16732,5541,7795,11359,0.57447058,0.80818070,1.17767832,0.23429794,0.28946667,0.40226010
18097,0,USIndianaMarion,Indiana,Marion,2021-01-06 00:16:01.934083,2020-10-17 00:00:00.000000,0.95219694,1.23480257,1.78347419,9184,11910,17203,5690,8028,11750,0.58998434,0.83235718,1.21817514,0.23668080,0.29240616,0.40175882
18097,0,USIndianaMarion,Indiana,Marion,2021-01-06 00:16:01.934083,2020-10-18 00:00:00.000000,0.98627362,1.28134399,1.82997543,9513,12359,17651,5882,8263,12118,0.60980029,0.85669739,1.25630579,0.23569983,0.29923821,0.40010063
18097,0,USIndianaMarion,Indiana,Marion,2021-01-06 00:16:01.934083,2020-10-19 00:00:00.000000,1.00524758,1.32205873,1.87417855,9696,12752,18077,6031,8505,12458,0.62534109,0.88180708,1.29161125,0.23678846,0.30066656,0.39616924
18097,0,USIndianaMarion,Indiana,Marion,2021-01-06 00:16:01.934083,2020-10-20 00:00:00.000000,1.02861881,1.36231467,1.91676709,9921,13140,18488,6232,8742,12795,0.64617866,0.90630479,1.32651733,0.23914566,0.30586202,0.38809315
18097,0,USIndianaMarion,Indiana,Marion,2021-01-06 00:16:01.934083,2020-10-21 00:00:00.000000,1.05440315,1.41246168,1.95851377,10170,13624,18891,6440,8997,13160,0.66771510,0.93275122,1.36433030,0.24222533,0.30960740,0.38118512
18097,0,USIndianaMarion,Indiana,Marion,2021-01-06 00:16:01.934083,2020-10-22 00:00:00.000000,1.08867437,1.47634471,2.00003408,10501,14240,19291,6686,9270,13572,0.69323932,0.96108641,1.40706116,0.24517409,0.31621415,0.38155128
18097,0,USIndianaMarion,Indiana,Marion,2021-01-06 00:16:01.934083,2020-10-23 00:00:00.000000,1.12363789,1.53153198,2.04195176,10838,14772,19696,6946,9550,14032,0.72011284,0.99013877,1.45478498,0.24950925,0.31721916,0.38966796
18097,0,USIndianaMarion,Indiana,Marion,2021-01-06 00:16:01.934083,2020-10-24 00:00:00.000000,1.16106916,1.58853619,2.10013572,11199,15322,20257,7219,9886,14532,0.74842581,1.02497414,1.50658828,0.25621599,0.32341280,0.40698073
18097,0,USIndianaMarion,Indiana,Marion,2021-01-06 00:16:01.934083,2020-10-25 00:00:00.000000,1.20867019,1.64437851,2.17190333,11658,15861,20949,7509,10313,14847,0.77850449,1.06924549,1.53924667,0.26289471,0.33540711,0.42388194
18097,0,USIndianaMarion,Indiana,Marion,2021-01-06 00:16:01.934083,2020-10-26 00:00:00.000000,1.27496212,1.69802159,2.24935344,12298,16378,21696,7822,10751,15197,0.81099191,1.11460103,1.57553650,0.26770952,0.34749737,0.43277877
18097,0,USIndianaMarion,Indiana,Marion,2021-01-06 00:16:01.934083,2020-10-27 00:00:00.000000,1.35391697,1.77981346,2.34759725,13059,17167,22644,8170,11218,15641,0.84704175,1.16299744,1.62163436,0.27025201,0.35113850,0.44507396
18097,0,USIndianaMarion,Indiana,Marion,2021-01-06 00:16:01.934083,2020-10-28 00:00:00.000000,1.42779282,1.86814516,2.46174704,13772,18019,23745,8557,11707,16145,0.88715188,1.21374233,1.67382883,0.29449155,0.35466596,0.47038572
18097,0,USIndianaMarion,Indiana,Marion,2021-01-06 00:16:01.934083,2020-10-29 00:00:00.000000,1.47770065,1.96930437,2.58083330,14253,18995,24894,8984,12262,16655,0.93144265,1.27131309,1.72666231,0.29877749,0.36694219,0.48143137
18097,0,USIndianaMarion,Indiana,Marion,2021-01-06 00:16:01.934083,2020-10-30 00:00:00.000000,1.53284717,2.07742457,2.70795747,14785,20038,26120,9454,12793,17201,0.98015226,1.32633783,1.78326307,0.31481996,0.37879815,0.49008678
18097,0,USIndianaMarion,Indiana,Marion,2021-01-06 00:16:01.934083,2020-10-31 00:00:00.000000,1.59704020,2.19190667,2.84825338,15404,21142,27473,9935,13498,17885,1.03006268,1.39940983,1.85420750,0.33621477,0.39399141,0.53139533
18097,0,USIndianaMarion,Indiana,Marion,2021-01-06 00:16:01.934083,2020-11-01 00:00:00.000000,1.67472661,2.32385646,3.03666119,16154,22415,29291,10323,14188,19073,1.07028132,1.47099126,1.97735801,0.35545819,0.41339489,0.56074611
18097,0,USIndianaMarion,Indiana,Marion,2021-01-06 00:16:01.934083,2020-11-02 00:00:00.000000,1.76947494,2.46846161,3.28542048,17068,23810,31690,11020,14956,20296,1.14250901,1.55059451,2.10413678,0.37076488,0.42374602,0.56111131
18097,0,USIndianaMarion,Indiana,Marion,2021-01-06 00:16:01.934083,2020-11-03 00:00:00.000000,1.88553574,2.62990274,3.54879070,18187,25367,34230,11767,15884,21185,1.21991621,1.64675444,2.19633374,0.37934292,0.43044532,0.56087287
18097,0,USIndianaMarion,Indiana,Marion,2021-01-06 00:16:01.934083,2020-11-04 00:00:00.000000,2.02753336,2.81326071,3.85816247,19557,27136,37215,12495,16909,22189,1.29541473,1.75299036,2.30040280,0.38545516,0.43932431,0.56000670
18097,0,USIndianaMarion,Indiana,Marion,2021-01-06 00:16:01.934083,2020-11-05 00:00:00.000000,2.19366006,3.00584018,4.17464554,21159,28993,40267,13337,18105,23730,1.38272405,1.87707127,2.46023631,0.38922642,0.44932844,0.55775018
18097,0,USIndianaMarion,Indiana,Marion,2021-01-06 00:16:01.934083,2020-11-06 00:00:00.000000,2.37930075,3.22374134,4.49136550,22950,31095,43322,14299,19464,25673,1.48246791,2.01787279,2.66162273,0.38050408,0.44924977,0.55236382
18097,0,USIndianaMarion,Indiana,Marion,2021-01-06 00:16:01.934083,2020-11-07 00:00:00.000000,2.55793642,3.44479837,4.81788153,24673,33227,46472,15353,20842,27726,1.59174467,2.16073418,2.87441762,0.37099681,0.44785221,0.53723608
18097,0,USIndianaMarion,Indiana,Marion,2021-01-06 00:16:01.934083,2020-11-08 00:00:00.000000,2.76206182,3.67890590,5.10488735,26642,35486,49240,16405,22267,29735,1.70076850,2.30853560,3.08271476,0.36467968,0.44940048,0.53912661
18097,0,USIndianaMarion,Indiana,Marion,2021-01-06 00:16:01.934083,2020-11-09 00:00:00.000000,2.98164452,3.92207946,5.33223415,28760,37831,51433,17418,23717,31816,1.80579423,2.45878847,3.29843193,0.36087739,0.44118917,0.53452034
18097,0,USIndianaMarion,Indiana,Marion,2021-01-06 00:16:01.934083,2020-11-10 00:00:00.000000,3.17513614,4.14452412,5.65826635,30626,39977,54578,18760,25213,33650,1.94493959,2.61391881,3.48861292,0.33712764,0.43018773,0.52130390
18097,0,USIndianaMarion,Indiana,Marion,2021-01-06 00:16:01.934083,2020-11-11 00:00:00.000000,3.37167197,4.35399598,6.06846882,32522,41997,58535,19506,26876,35141,2.02225262,2.78629009,3.64315093,0.32721316,0.41578887,0.50729843
18097,0,USIndianaMarion,Indiana,Marion,2021-01-06 00:16:01.934083,2020-11-12 00:00:00.000000,3.52744911,4.58655255,6.47104342,34025,44241,62418,20554,28414,37305,2.13090191,2.94577433,3.86748173,0.29159517,0.39365621,0.47885476
18097,0,USIndianaMarion,Indiana,Marion,2021-01-06 00:16:01.934083,2020-11-13 00:00:00.000000,3.68910009,4.74034982,6.80317420,35584,45724,65622,21653,29678,39908,2.24486583,3.07678460,4.13741756,0.24767388,0.35772666,0.45838738
18097,0,USIndianaMarion,Indiana,Marion,2021-01-06 00:16:01.934083,2020-11-14 00:00:00.000000,3.84361370,4.84091652,7.03344321,37074,46694,67843,22737,30941,42336,2.35724707,3.20772929,4.38908883,0.23035992,0.32226478,0.43680551
18097,0,USIndianaMarion,Indiana,Marion,2021-01-06 00:16:01.934083,2020-11-15 00:00:00.000000,3.92147145,4.94513360,7.19039981,37825,47699,69357,23433,31840,44113,2.42938038,3.30101229,4.57336546,0.22514720,0.30143544,0.37530542
18097,0,USIndianaMarion,Indiana,Marion,2021-01-06 00:16:01.934083,2020-11-16 00:00:00.000000,3.99166684,5.03216329,7.28693937,38502,48539,70288,23997,32569,45354,2.48786378,3.37653084,4.70200015,0.22181658,0.28770090,0.35504584
18097,0,USIndianaMarion,Indiana,Marion,2021-01-06 00:16:01.934083,2020-11-17 00:00:00.000000,4.05845414,5.09293451,7.34056472,39147,49125,70805,24633,33154,46374,2.55380354,3.43718444,4.80777017,0.22003577,0.28220353,0.34987409
18097,0,USIndianaMarion,Indiana,Marion,2021-01-06 00:16:01.934083,2020-11-18 00:00:00.000000,4.12340960,5.12894724,7.35334125,39773,49472,70929,25305,33672,47235,2.62351047,3.49089134,4.89695097,0.21413154,0.27687522,0.34801854
18097,0,USIndianaMarion,Indiana,Marion,2021-01-06 00:16:01.934083,2020-11-19 00:00:00.000000,4.18719143,5.19017159,7.39815562,40388,50063,71361,25898,34141,47977,2.68494240,3.53951078,4.97394887,0.21580566,0.27287339,0.34734429
18097,0,USIndianaMarion,Indiana,Marion,2021-01-06 00:16:01.934083,2020-11-20 00:00:00.000000,4.25004114,5.22514917,7.48782342,40995,50400,72226,26400,34689,48633,2.73698809,3.59630759,5.04194627,0.22045824,0.27116700,0.34710100
18097,0,USIndianaMarion,Indiana,Marion,2021-01-06 00:16:01.934083,2020-11-21 00:00:00.000000,4.31248978,5.26278545,7.54169731,41597,50763,72745,26812,35292,49231,2.77972362,3.65883062,5.10390754,0.22882366,0.26841817,0.34701759
18097,0,USIndianaMarion,Indiana,Marion,2021-01-06 00:16:01.934083,2020-11-22 00:00:00.000000,4.37375649,5.30517288,7.51511233,42188,51172,72489,27127,35619,49857,2.81240753,3.69270076,5.16884725,0.23452234,0.26845502,0.34458562
18097,0,USIndianaMarion,Indiana,Marion,2021-01-06 00:16:01.934083,2020-11-23 00:00:00.000000,4.40605810,5.34791377,7.52741300,42500,51585,72608,27334,35795,50393,2.83384591,3.71101703,5.22443667,0.23913066,0.26865338,0.34720475
18097,0,USIndianaMarion,Indiana,Marion,2021-01-06 00:16:01.934083,2020-11-24 00:00:00.000000,4.42917334,5.40143991,7.68332816,42723,52101,74112,27464,36138,51005,2.84734052,3.74657596,5.28786409,0.24582189,0.27201010,0.35111957
18097,0,USIndianaMarion,Indiana,Marion,2021-01-06 00:16:01.934083,2020-11-25 00:00:00.000000,4.45695675,5.47971507,7.83986576,42991,52856,75621,27633,36541,51627,2.86485411,3.78832998,5.35231636,0.24155498,0.27646101,0.36050828
18097,0,USIndianaMarion,Indiana,Marion,2021-01-06 00:16:01.934083,2020-11-26 00:00:00.000000,4.46581038,5.54505353,7.99490050,43076,53486,77117,27984,36983,52267,2.90117085,3.83419080,5.41863025,0.24799608,0.28491063,0.36448132
18097,0,USIndianaMarion,Indiana,Marion,2021-01-06 00:16:01.934083,2020-11-27 00:00:00.000000,4.46290918,5.63802903,8.14635628,43048,54383,78578,28332,37562,52973,2.93725482,3.89421145,5.49190274,0.25008632,0.29061317,0.37863314
18097,0,USIndianaMarion,Indiana,Marion,2021-01-06 00:16:01.934083,2020-11-28 00:00:00.000000,4.49076751,5.70788360,8.29171973,43317,55057,79980,28690,38152,53850,2.97435509,3.95539199,5.58274288,0.26187042,0.30078307,0.40535555
18097,0,USIndianaMarion,Indiana,Marion,2021-01-06 00:16:01.934083,2020-11-29 00:00:00.000000,4.59654007,5.85032735,8.42779158,44337,56431,81292,29065,38756,54954,3.01322777,4.01792382,5.69719872,0.26693501,0.31957571,0.42005752
18097,0,USIndianaMarion,Indiana,Marion,2021-01-06 00:16:01.934083,2020-11-30 00:00:00.000000,4.70424510,5.99381695,8.55186179,45376,57815,82489,29319,39458,56249,3.03959856,4.09073675,5.83149716,0.26754310,0.32741131,0.42170703
18097,0,USIndianaMarion,Indiana,Marion,2021-01-06 00:16:01.934083,2020-12-01 00:00:00.000000,4.81042376,6.12882598,8.66326450,46400,59117,83564,29747,40141,57669,3.08392950,4.16158554,5.97873793,0.26531187,0.32896479,0.43193280
18097,0,USIndianaMarion,Indiana,Marion,2021-01-06 00:16:01.934083,2020-12-02 00:00:00.000000,4.91660863,6.24581343,8.76265952,47424,60245,84523,30293,40917,59154,3.14054168,4.24202604,6.13267702,0.26195035,0.32346504,0.43991312
18097,0,USIndianaMarion,Indiana,Marion,2021-01-06 00:16:01.934083,2020-12-03 00:00:00.000000,4.98538893,6.33676086,8.85025878,48088,61123,85368,30909,41696,60650,3.20440474,4.32271011,6.28772903,0.24812598,0.32077760,0.43067942
18097,0,USIndianaMarion,Indiana,Marion,2021-01-06 00:16:01.934083,2020-12-04 00:00:00.000000,5.03125031,6.39761157,8.95643208,48530,61710,86392,31558,42301,61711,3.27175341,4.38550198,6.39770820,0.23585225,0.31895444,0.42849274
18097,0,USIndianaMarion,Indiana,Marion,2021-01-06 00:16:01.934083,2020-12-05 00:00:00.000000,5.07692351,6.47229355,9.07216210,48971,62430,87508,32041,42921,62344,3.32179300,4.44973611,6.46339230,0.21457057,0.31126202,0.42146562
18097,0,USIndianaMarion,Indiana,Marion,2021-01-06 00:16:01.934083,2020-12-06 00:00:00.000000,5.15192473,6.54089920,9.16933499,49694,63092,88445,32332,43489,62898,3.35200938,4.50866375,6.52084044,0.21329956,0.30564162,0.40897059
18097,0,USIndianaMarion,Indiana,Marion,2021-01-06 00:16:01.934083,2020-12-07 00:00:00.000000,5.21451524,6.59579064,9.25174865,50298,63621,89240,32610,43794,63379,3.38075261,4.54030358,6.57067686,0.21326685,0.29793681,0.39133104
18097,0,USIndianaMarion,Indiana,Marion,2021-01-06 00:16:01.934083,2020-12-08 00:00:00.000000,5.23646558,6.56784627,9.32044500,50510,63352,89903,33080,44085,63792,3.42947239,4.57047015,6.61347957,0.21269926,0.29121094,0.37624225
18097,0,USIndianaMarion,Indiana,Marion,2021-01-06 00:16:01.934083,2020-12-09 00:00:00.000000,5.23966780,6.56975480,9.37390047,50540,63370,90418,33332,44341,64141,3.45559211,4.59700140,6.64962122,0.21013397,0.28334100,0.36779818
18097,0,USIndianaMarion,Indiana,Marion,2021-01-06 00:16:01.934083,2020-12-10 00:00:00.000000,5.23158856,6.58228687,9.40779470,50462,63491,90745,33359,44546,64426,3.45846180,4.61821076,6.67925054,0.20915453,0.27456765,0.35280342
18097,0,USIndianaMarion,Indiana,Marion,2021-01-06 00:16:01.934083,2020-12-11 00:00:00.000000,5.21427447,6.55184078,9.41539478,50295,63197,90819,33195,44570,64642,3.44146167,4.62067973,6.70165111,0.20876484,0.26824581,0.34352093
18097,0,USIndianaMarion,Indiana,Marion,2021-01-06 00:16:01.934083,2020-12-12 00:00:00.000000,5.16849815,6.52159782,9.39130047,49854,62906,90586,32878,44435,64731,3.40859041,4.60667121,6.71086756,0.20134762,0.25639207,0.33876348
18097,0,USIndianaMarion,Indiana,Marion,2021-01-06 00:16:01.934083,2020-12-13 00:00:00.000000,5.07132179,6.49427033,9.33641829,48917,62642,90057,32453,44268,64505,3.36447931,4.58938317,6.68737938,0.19388044,0.24123190,0.33400743
18097,0,USIndianaMarion,Indiana,Marion,2021-01-06 00:16:01.934083,2020-12-14 00:00:00.000000,4.96584545,6.38331419,9.25541967,47899,61572,89276,31951,43897,63917,3.31248593,4.55096358,6.62645585,0.19134212,0.23309984,0.32806147
18097,0,USIndianaMarion,Indiana,Marion,2021-01-06 00:16:01.934083,2020-12-15 00:00:00.000000,4.85580611,6.29298776,9.15611026,46838,60701,88318,31385,43113,63085,3.25378893,4.46964407,6.54022258,0.18830249,0.23052662,0.32852487
18097,0,USIndianaMarion,Indiana,Marion,2021-01-06 00:16:01.934083,2020-12-16 00:00:00.000000,4.74482754,6.17143394,9.04205382,45767,59528,87218,30770,42420,62113,3.19006125,4.39778112,6.43943598,0.18379493,0.22808984,0.32764980
18097,0,USIndianaMarion,Indiana,Marion,2021-01-06 00:16:01.934083,2020-12-17 00:00:00.000000,4.63428616,6.03421320,8.91622172,44701,58204,86004,30126,41771,61078,3.12327509,4.33053656,6.33209162,0.18079444,0.22605138,0.32716035
18097,0,USIndianaMarion,Indiana,Marion,2021-01-06 00:16:01.934083,2020-12-18 00:00:00.000000,4.57843209,5.93545457,8.78020604,44162,57252,84692,29466,41163,60296,3.05486659,4.26751515,6.25107460,0.17820796,0.22226106,0.33223732
18097,0,USIndianaMarion,Indiana,Marion,2021-01-06 00:16:01.934083,2020-12-19 00:00:00.000000,4.51688547,5.82762950,8.63547897,43569,56212,83296,28800,40574,59512,2.98578100,4.20645960,6.16977674,0.17967013,0.22429604,0.33441069
18097,0,USIndianaMarion,Indiana,Marion,2021-01-06 00:16:01.934083,2020-12-20 00:00:00.000000,4.45325100,5.72675845,8.48367680,42955,55239,81832,28133,39996,58656,2.91663831,4.14654521,6.08098452,0.18307512,0.22674799,0.33864988
18097,0,USIndianaMarion,Indiana,Marion,2021-01-06 00:16:01.934083,2020-12-21 00:00:00.000000,4.38981798,5.61612434,8.32655969,42343,54172,80316,27676,39427,57738,2.86925810,4.08747699,5.98588465,0.18251119,0.22971276,0.33891521
18097,0,USIndianaMarion,Indiana,Marion,2021-01-06 00:16:01.934083,2020-12-22 00:00:00.000000,4.32588888,5.50566184,8.16529778,41726,53106,78760,27327,38897,56771,2.83304803,4.03254695,5.88562787,0.18137924,0.23223419,0.33929585
18097,0,USIndianaMarion,Indiana,Marion,2021-01-06 00:16:01.934083,2020-12-23 00:00:00.000000,4.26198908,5.40499781,8.00107007,41110,52135,77176,27021,38306,55764,2.80134949,3.97128313,5.78117757,0.18243527,0.23429567,0.34076729
18097,0,USIndianaMarion,Indiana,Marion,2021-01-06 00:16:01.934083,2020-12-24 00:00:00.000000,4.19810815,5.30878522,7.83519516,40494,51207,75576,26738,37765,54724,2.77206034,3.91522188,5.67337198,0.18446023,0.24154667,0.36186939
18097,0,USIndianaMarion,Indiana,Marion,2021-01-06 00:16:01.934083,2020-12-25 00:00:00.000000,4.13143682,5.22501716,7.66871166,39851,50399,73971,26446,37232,53658,2.74175833,3.85998140,5.56292103,0.18656455,0.25273161,0.35776181
18097,0,USIndianaMarion,Indiana,Marion,2021-01-06 00:16:01.934083,2020-12-26 00:00:00.000000,4.07287365,5.15908076,7.50216610,39286,49763,72364,26117,36654,52573,2.70765654,3.80004179,5.45042065,0.18703736,0.26184839,0.37182622
18097,0,USIndianaMarion,Indiana,Marion,2021-01-06 00:16:01.934083,2020-12-27 00:00:00.000000,4.02987955,5.11994926,7.33483767,38871,49386,70750,25745,36184,51473,2.66911910,3.75134071,5.33635224,0.19620704,0.27505675,0.38739953
18097,0,USIndianaMarion,Indiana,Marion,2021-01-06 00:16:01.934083,2020-12-28 00:00:00.000000,3.99265393,5.05264135,7.16461920,38512,48736,69108,25341,35626,50360,2.62717821,3.69344283,5.22099093,0.19574361,0.28912813,0.38735171
18097,0,USIndianaMarion,Indiana,Marion,2021-01-06 00:16:01.934083,2020-12-29 00:00:00.000000,3.98558913,5.02189063,7.05564177,38444,48440,68057,25051,35108,49712,2.59709561,3.63977753,5.15382928,0.19740568,0.29011001,0.39820040
18097,0,USIndianaMarion,Indiana,Marion,2021-01-06 00:16:01.934083,2020-12-30 00:00:00.000000,3.90991940,4.98472748,7.03232442,37714,48081,67832,25017,34778,49400,2.59360621,3.60551563,5.12140215,0.20366143,0.29092305,0.41370156
18097,0,USIndianaMarion,Indiana,Marion,2021-01-06 00:16:01.934083,2020-12-31 00:00:00.000000,3.85326875,4.93373271,6.99670191,37167,47589,67488,24879,34514,49187,2.57927923,3.57823379,5.09933815,0.20423334,0.29108319,0.43681398
18097,0,USIndianaMarion,Indiana,Marion,2021-01-06 00:16:01.934083,2021-01-01 00:00:00.000000,3.80047457,4.89389755,6.94295288,36658,47205,66970,24934,34290,48953,2.58500114,3.55499850,5.07511873,0.18678928,0.29091491,0.43869453
18097,0,USIndianaMarion,Indiana,Marion,2021-01-06 00:16:01.934083,2021-01-02 00:00:00.000000,3.74304504,4.85669367,6.86830632,36104,46846,66250,24992,34179,48658,2.59099529,3.54349022,5.04453327,0.17018216,0.28884698,0.40605122
18097,0,USIndianaMarion,Indiana,Marion,2021-01-06 00:16:01.934083,2021-01-03 00:00:00.000000,3.68382355,4.82381869,6.77707151,35533,46529,65370,24994,33897,48273,2.59123275,3.51425856,5.00462756,0.16926337,0.28637272,0.42949597
18097,0,USIndianaMarion,Indiana,Marion,2021-01-06 00:16:01.934083,2021-01-04 00:00:00.000000,3.62406168,4.78742299,6.67617616,34957,46178,64397,25008,33711,47794,2.59264062,3.49490359,4.95493388,0.16631045,0.29608749,0.46120589
18097,0,USIndianaMarion,Indiana,Marion,2021-01-06 00:16:01.934083,2021-01-05 00:00:00.000000,3.57507094,4.72755592,6.68224295,34484,45601,64455,24619,33467,47234,2.55233049,3.46968877,4.89688597,0.16420175,0.29854764,0.48740466
18097,0,USIndianaMarion,Indiana,Marion,2021-01-06 00:16:01.934083,2021-01-06 00:00:00.000000,3.54899015,4.74288261,6.86031031,34232,45748,66173,24223,32762,46613,2.51132116,3.39651940,4.83250897,0.16420078,0.29828707,0.51587565
18097,0,USIndianaMarion,Indiana,Marion,2021-01-06 00:16:01.934083,2021-01-07 00:00:00.000000,3.52277138,4.76179318,7.04283780,33980,45931,67933,23824,32247,46135,2.46992798,3.34318035,4.78298803,0.16420060,0.29871108,0.51657845
18097,0,USIndianaMarion,Indiana,Marion,2021-01-06 00:16:01.934083,2021-01-08 00:00:00.000000,3.49609254,4.72915708,7.22546472,33722,45616,69695,23423,32055,45880,2.42834313,3.32323147,4.75651160,0.16420057,0.29891303,0.51704203
18097,0,USIndianaMarion,Indiana,Marion,2021-01-06 00:16:01.934083,2021-01-09 00:00:00.000000,3.34750097,4.71541734,7.34330075,32289,45484,70832,23021,32044,45600,2.38668796,3.32209701,4.72752153,0.16237605,0.29901036,0.51732215
18097,0,USIndianaMarion,Indiana,Marion,2021-01-06 00:16:01.934083,2021-01-10 00:00:00.000000,3.25689062,4.70522491,7.22046110,31415,45385,69647,22619,32006,46567,2.34504379,3.31820782,4.82775870,0.16117035,0.29905715,0.51748207
18097,0,USIndianaMarion,Indiana,Marion,2021-01-06 00:16:01.934083,2021-01-11 00:00:00.000000,3.19434644,4.71625140,7.09549191,30812,45492,68441,22073,32198,47660,2.28837631,3.33807379,4.94107255,0.16057083,0.29907960,0.51757034
18097,0,USIndianaMarion,Indiana,Marion,2021-01-06 00:16:01.934083,2021-01-12 00:00:00.000000,3.13286007,4.72985393,6.96870738,30219,45623,67218,21469,32430,48764,2.22578272,3.36215192,5.05549605,0.16027663,0.29909036,0.51761815
18097,0,USIndianaMarion,Indiana,Marion,2021-01-06 00:16:01.934083,2021-01-13 00:00:00.000000,3.07273068,4.73819515,6.84039301,29639,45703,65981,20561,32633,49866,2.13164225,3.38318479,5.16980099,0.16013320,0.29909552,0.51764377
18097,0,USIndianaMarion,Indiana,Marion,2021-01-06 00:16:01.934083,2021-01-14 00:00:00.000000,2.98818398,4.67856658,6.71081561,28823,45128,64731,19833,32509,50843,2.05613863,3.37035303,5.27102919,0.16006349,0.29909799,0.51765743
18097,0,USIndianaMarion,Indiana,Marion,2021-01-06 00:16:01.934083,2021-01-15 00:00:00.000000,2.89406828,4.57316567,6.75903229,27915,44111,65196,19125,32317,49905,1.98279714,3.35044108,5.17377238,0.16002966,0.29909917,0.51766469
18097,0,USIndianaMarion,Indiana,Marion,2021-01-06 00:16:01.934083,2021-01-16 00:00:00.000000,2.78965360,4.50072947,6.89647224,26908,43413,66522,18439,32042,48957,1.91161649,3.32186832,5.07552023,0.16001326,0.29909973,0.51766854
18097,0,USIndianaMarion,Indiana,Marion,2021-01-06 00:16:01.934083,2021-01-17 00:00:00.000000,2.68851378,4.45009187,7.02865401,25932,42924,67797,17773,31911,48002,1.84258226,3.30832188,4.97647455,0.16000531,0.29910000,0.51767058
