FIPS,HR_UID,nameid,province,region,analysisTime,dates,pointprevalence_025,pointprevalence_50,pointprevalence_975,pointinfections_025,pointinfections_50,pointinfections_975,pointinfectious_025,pointinfectious_50,pointinfectious_975,pointinfectiousprevalence_05,pointinfectiousprevalence_50,pointinfectiousprevalence_95,infectrate_025,infectrate_50,infectrate_975
53023,0,USWashingtonGarfield,Washington,Garfield,2021-01-05 06:28:22.844483,2020-03-09 00:00:00.000000,0.01442503,0.07747107,0.21728728,0,1,4,0,0,2,0.00743072,0.03958552,0.12802089,0.37817751,0.47455616,0.62747436
53023,0,USWashingtonGarfield,Washington,Garfield,2021-01-05 06:28:22.844483,2020-03-10 00:00:00.000000,0.01567579,0.08305429,0.23137505,0,1,5,0,0,2,0.00760080,0.04222997,0.12454320,0.37774964,0.47447036,0.62747436
53023,0,USWashingtonGarfield,Washington,Garfield,2021-01-05 06:28:22.844483,2020-03-11 00:00:00.000000,0.01700315,0.09132436,0.24596287,0,2,5,0,1,2,0.00792184,0.04510948,0.12648473,0.37709273,0.47432939,0.62747435
53023,0,USWashingtonGarfield,Washington,Garfield,2021-01-05 06:28:22.844483,2020-03-12 00:00:00.000000,0.01842640,0.09945735,0.26108346,0,2,5,0,1,2,0.00843130,0.04869485,0.13250348,0.37608940,0.47349752,0.62747425
53023,0,USWashingtonGarfield,Washington,Garfield,2021-01-05 06:28:22.844483,2020-03-13 00:00:00.000000,0.01995993,0.10708751,0.27900420,0,2,6,0,1,3,0.00903492,0.05288213,0.14309806,0.37547707,0.47207605,0.62747347
53023,0,USWashingtonGarfield,Washington,Garfield,2021-01-05 06:28:22.844483,2020-03-14 00:00:00.000000,0.02161495,0.11525444,0.29968403,0,2,6,0,1,3,0.00968055,0.05678759,0.15208069,0.37529002,0.46997888,0.62746717
53023,0,USWashingtonGarfield,Washington,Garfield,2021-01-05 06:28:22.844483,2020-03-15 00:00:00.000000,0.02339923,0.12395159,0.32076974,0,2,7,0,1,3,0.01034089,0.06231894,0.16024112,0.37473735,0.46435283,0.62741582
53023,0,USWashingtonGarfield,Washington,Garfield,2021-01-05 06:28:22.844483,2020-03-16 00:00:00.000000,0.04999111,0.15372104,0.37787400,1,3,8,0,1,3,0.01100308,0.06732450,0.16837929,0.37294209,0.45821957,0.62699647
53023,0,USWashingtonGarfield,Washington,Garfield,2021-01-05 06:28:22.844483,2020-03-17 00:00:00.000000,0.07235809,0.18962413,0.43612144,1,4,9,0,1,4,0.01690133,0.07716985,0.18218831,0.36136044,0.45367701,0.62360459
53023,0,USWashingtonGarfield,Washington,Garfield,2021-01-05 06:28:22.844483,2020-03-18 00:00:00.000000,0.09457751,0.23122480,0.52073341,2,5,11,0,2,4,0.02703834,0.09358725,0.20491340,0.33549218,0.44651978,0.59828217
53023,0,USWashingtonGarfield,Washington,Garfield,2021-01-05 06:28:22.844483,2020-03-19 00:00:00.000000,0.11586637,0.28013092,0.61157319,2,6,13,0,2,5,0.03793004,0.11354077,0.24612742,0.31293895,0.42887089,0.57892284
53023,0,USWashingtonGarfield,Washington,Garfield,2021-01-05 06:28:22.844483,2020-03-20 00:00:00.000000,0.14054356,0.32454367,0.70229280,3,7,15,1,2,6,0.05002211,0.13268814,0.29160949,0.27862393,0.40437085,0.57600246
53023,0,USWashingtonGarfield,Washington,Garfield,2021-01-05 06:28:22.844483,2020-03-21 00:00:00.000000,0.16562975,0.36781389,0.77859143,3,8,17,1,3,7,0.06201112,0.15561100,0.34094943,0.25107959,0.38399681,0.57401153
53023,0,USWashingtonGarfield,Washington,Garfield,2021-01-05 06:28:22.844483,2020-03-22 00:00:00.000000,0.19095363,0.41494739,0.85401924,4,9,19,1,4,8,0.07469259,0.18041189,0.39370874,0.23888746,0.35825760,0.53631546
53023,0,USWashingtonGarfield,Washington,Garfield,2021-01-05 06:28:22.844483,2020-03-23 00:00:00.000000,0.19816393,0.42239481,0.90576730,4,9,20,1,4,9,0.08800524,0.20607890,0.44858963,0.23004946,0.34080498,0.51670167
53023,0,USWashingtonGarfield,Washington,Garfield,2021-01-05 06:28:22.844483,2020-03-24 00:00:00.000000,0.20637462,0.42983517,0.95632053,4,9,21,2,5,10,0.09544796,0.22530090,0.48279865,0.22540131,0.32960526,0.47639848
53023,0,USWashingtonGarfield,Washington,Garfield,2021-01-05 06:28:22.844483,2020-03-25 00:00:00.000000,0.21464170,0.44460055,0.95243299,4,9,21,2,5,11,0.10482763,0.23557414,0.50023568,0.21670803,0.31382961,0.43065688
53023,0,USWashingtonGarfield,Washington,Garfield,2021-01-05 06:28:22.844483,2020-03-26 00:00:00.000000,0.22305910,0.45836379,0.94308147,4,10,20,2,5,11,0.11091404,0.24369939,0.50627939,0.20401889,0.29796188,0.40661775
53023,0,USWashingtonGarfield,Washington,Garfield,2021-01-05 06:28:22.844483,2020-03-27 00:00:00.000000,0.23166934,0.46346780,0.94614710,5,10,21,2,5,11,0.11637582,0.25214530,0.53425379,0.19336104,0.28354738,0.38522215
53023,0,USWashingtonGarfield,Washington,Garfield,2021-01-05 06:28:22.844483,2020-03-28 00:00:00.000000,0.24043045,0.46261567,0.95926684,5,10,21,2,5,12,0.12153584,0.25534346,0.55688730,0.18550359,0.27714903,0.37625816
53023,0,USWashingtonGarfield,Washington,Garfield,2021-01-05 06:28:22.844483,2020-03-29 00:00:00.000000,0.23718931,0.46870492,0.96877895,5,10,21,2,5,12,0.12656471,0.25920016,0.56705179,0.18144607,0.26432884,0.36756746
53023,0,USWashingtonGarfield,Washington,Garfield,2021-01-05 06:28:22.844483,2020-03-30 00:00:00.000000,0.22601495,0.47682215,0.97374965,5,10,21,2,5,12,0.13040357,0.26534299,0.57530147,0.16873850,0.25755340,0.35459672
53023,0,USWashingtonGarfield,Washington,Garfield,2021-01-05 06:28:22.844483,2020-03-31 00:00:00.000000,0.21522197,0.47640981,0.97421710,4,10,21,2,6,12,0.12875864,0.27050445,0.58121930,0.16209370,0.25006837,0.35140060
53023,0,USWashingtonGarfield,Washington,Garfield,2021-01-05 06:28:22.844483,2020-04-01 00:00:00.000000,0.20483772,0.47318763,0.97084577,4,10,21,2,6,13,0.12292218,0.27135777,0.58459256,0.15446230,0.24258976,0.34823232
53023,0,USWashingtonGarfield,Washington,Garfield,2021-01-05 06:28:22.844483,2020-04-02 00:00:00.000000,0.19485102,0.45649815,0.96388957,4,10,21,2,6,13,0.11710243,0.26982649,0.58551253,0.14688012,0.23359950,0.34388996
53023,0,USWashingtonGarfield,Washington,Garfield,2021-01-05 06:28:22.844483,2020-04-03 00:00:00.000000,0.18525861,0.43944638,0.95311640,4,9,21,2,5,12,0.11148458,0.26634090,0.58411843,0.14636603,0.22606930,0.31332515
53023,0,USWashingtonGarfield,Washington,Garfield,2021-01-05 06:28:22.844483,2020-04-04 00:00:00.000000,0.17603921,0.43697841,0.93859417,3,9,20,2,5,12,0.10607387,0.26358246,0.58042092,0.14705735,0.21735610,0.31609237
53023,0,USWashingtonGarfield,Washington,Garfield,2021-01-05 06:28:22.844483,2020-04-05 00:00:00.000000,0.16716441,0.43931645,0.92115601,3,9,20,2,5,12,0.10086620,0.25478149,0.57443338,0.13942563,0.20954029,0.31801076
53023,0,USWashingtonGarfield,Washington,Garfield,2021-01-05 06:28:22.844483,2020-04-06 00:00:00.000000,0.16084507,0.43473068,0.90194305,3,9,20,2,5,12,0.09608562,0.24944381,0.56639208,0.12773710,0.20679863,0.32169916
53023,0,USWashingtonGarfield,Washington,Garfield,2021-01-05 06:28:22.844483,2020-04-07 00:00:00.000000,0.15879666,0.42050573,0.88185831,3,9,19,2,5,12,0.09492778,0.24607887,0.55675010,0.12117264,0.20134611,0.32202327
53023,0,USWashingtonGarfield,Washington,Garfield,2021-01-05 06:28:22.844483,2020-04-08 00:00:00.000000,0.15674710,0.40649621,0.86330650,3,9,19,2,5,12,0.09378864,0.24595400,0.54600981,0.12239801,0.19824071,0.30444674
53023,0,USWashingtonGarfield,Washington,Garfield,2021-01-05 06:28:22.844483,2020-04-09 00:00:00.000000,0.15461621,0.39273211,0.84767949,3,8,18,1,5,11,0.08932087,0.23738303,0.53459294,0.12319080,0.19577112,0.30337660
53023,0,USWashingtonGarfield,Washington,Garfield,2021-01-05 06:28:22.844483,2020-04-10 00:00:00.000000,0.15207680,0.38029361,0.82734006,3,8,18,1,5,11,0.08321533,0.23078423,0.52278162,0.11848018,0.19362150,0.29670659
53023,0,USWashingtonGarfield,Washington,Garfield,2021-01-05 06:28:22.844483,2020-04-11 00:00:00.000000,0.14637322,0.36979913,0.82352647,3,8,18,1,4,11,0.08108225,0.22458421,0.50964085,0.11606163,0.18896778,0.27978433
53023,0,USWashingtonGarfield,Washington,Garfield,2021-01-05 06:28:22.844483,2020-04-12 00:00:00.000000,0.13626019,0.35893111,0.78186115,3,7,17,1,4,10,0.07814804,0.21844800,0.49077038,0.10956083,0.17992106,0.27492844
53023,0,USWashingtonGarfield,Washington,Garfield,2021-01-05 06:28:22.844483,2020-04-13 00:00:00.000000,0.12520901,0.34755218,0.75918532,2,7,16,1,4,10,0.07385783,0.21122205,0.46981792,0.10329048,0.17713385,0.27428218
53023,0,USWashingtonGarfield,Washington,Garfield,2021-01-05 06:28:22.844483,2020-04-14 00:00:00.000000,0.11950151,0.33555809,0.73685299,2,7,16,1,4,10,0.06982194,0.20357967,0.45116076,0.10167901,0.17147898,0.27219754
53023,0,USWashingtonGarfield,Washington,Garfield,2021-01-05 06:28:22.844483,2020-04-15 00:00:00.000000,0.11574626,0.32246797,0.71492750,2,7,15,1,4,9,0.06600215,0.19417478,0.44622812,0.10142520,0.16640096,0.26877907
53023,0,USWashingtonGarfield,Washington,Garfield,2021-01-05 06:28:22.844483,2020-04-16 00:00:00.000000,0.10877385,0.30825858,0.69347356,2,6,15,1,4,9,0.06211466,0.18504956,0.44088979,0.10084876,0.16159349,0.26365674
53023,0,USWashingtonGarfield,Washington,Garfield,2021-01-05 06:28:22.844483,2020-04-17 00:00:00.000000,0.10228368,0.29960473,0.67248291,2,6,14,1,3,9,0.05769676,0.17649351,0.42596680,0.09908892,0.15862935,0.26014758
53023,0,USWashingtonGarfield,Washington,Garfield,2021-01-05 06:28:22.844483,2020-04-18 00:00:00.000000,0.09374597,0.29326904,0.65182805,2,6,14,1,3,9,0.05346692,0.17045331,0.41094155,0.09393128,0.15355449,0.26173549
53023,0,USWashingtonGarfield,Washington,Garfield,2021-01-05 06:28:22.844483,2020-04-19 00:00:00.000000,0.08555474,0.27963386,0.63054668,1,6,14,1,3,8,0.04945823,0.16843186,0.39847746,0.08561492,0.15207240,0.26290540
53023,0,USWashingtonGarfield,Washington,Garfield,2021-01-05 06:28:22.844483,2020-04-20 00:00:00.000000,0.07797364,0.26757040,0.61030629,1,5,13,1,3,8,0.04525574,0.16466329,0.39222297,0.08308988,0.15067368,0.26312070
53023,0,USWashingtonGarfield,Washington,Garfield,2021-01-05 06:28:22.844483,2020-04-21 00:00:00.000000,0.07100033,0.26005706,0.59388906,1,5,13,0,3,8,0.04131821,0.15852180,0.38552069,0.08249238,0.14847192,0.25624164
53023,0,USWashingtonGarfield,Washington,Garfield,2021-01-05 06:28:22.844483,2020-04-22 00:00:00.000000,0.06460835,0.24854562,0.57785306,1,5,12,0,3,8,0.03768298,0.15104057,0.37843053,0.08153704,0.14910844,0.24614517
53023,0,USWashingtonGarfield,Washington,Garfield,2021-01-05 06:28:22.844483,2020-04-23 00:00:00.000000,0.05875780,0.23493273,0.56217653,1,5,12,0,3,8,0.03433764,0.14372493,0.37077734,0.08019250,0.14583129,0.24146914
53023,0,USWashingtonGarfield,Washington,Garfield,2021-01-05 06:28:22.844483,2020-04-24 00:00:00.000000,0.05340744,0.22035485,0.54684712,1,4,12,0,3,8,0.03126715,0.13697704,0.36254818,0.07986186,0.14123042,0.23721388
53023,0,USWashingtonGarfield,Washington,Garfield,2021-01-05 06:28:22.844483,2020-04-25 00:00:00.000000,0.04852081,0.20574350,0.53186450,1,4,11,0,2,7,0.02845457,0.12977105,0.35394498,0.07679973,0.13916141,0.23429264
53023,0,USWashingtonGarfield,Washington,Garfield,2021-01-05 06:28:22.844483,2020-04-26 00:00:00.000000,0.04406460,0.19652950,0.51723445,0,4,11,0,2,7,0.02604988,0.12318172,0.34507500,0.07683156,0.13984258,0.23709346
53023,0,USWashingtonGarfield,Washington,Garfield,2021-01-05 06:28:22.844483,2020-04-27 00:00:00.000000,0.04002537,0.18556234,0.50296139,0,4,11,0,2,7,0.02419556,0.11686028,0.33601180,0.07491404,0.13569382,0.23493352
53023,0,USWashingtonGarfield,Washington,Garfield,2021-01-05 06:28:22.844483,2020-04-28 00:00:00.000000,0.03634638,0.17474777,0.48903247,0,3,10,0,2,7,0.02250409,0.11092439,0.32698980,0.06906284,0.13244869,0.23647865
53023,0,USWashingtonGarfield,Washington,Garfield,2021-01-05 06:28:22.844483,2020-04-29 00:00:00.000000,0.03378585,0.16470930,0.47531957,0,3,10,0,2,7,0.02096959,0.10582286,0.31806642,0.06372340,0.13241806,0.24036954
53023,0,USWashingtonGarfield,Washington,Garfield,2021-01-05 06:28:22.844483,2020-04-30 00:00:00.000000,0.03169933,0.15652643,0.46111672,0,3,10,0,2,6,0.01958650,0.09976926,0.30928293,0.06134943,0.13190788,0.24958189
53023,0,USWashingtonGarfield,Washington,Garfield,2021-01-05 06:28:22.844483,2020-05-01 00:00:00.000000,0.02979945,0.14921592,0.44619574,0,3,9,0,2,6,0.01820497,0.09388467,0.30067100,0.06013650,0.13058737,0.25403643
53023,0,USWashingtonGarfield,Washington,Garfield,2021-01-05 06:28:22.844483,2020-05-02 00:00:00.000000,0.02805291,0.14172453,0.42843852,0,3,9,0,1,6,0.01664167,0.08855378,0.29225280,0.05966950,0.13011490,0.25405930
53023,0,USWashingtonGarfield,Washington,Garfield,2021-01-05 06:28:22.844483,2020-05-03 00:00:00.000000,0.02644144,0.13651333,0.41192493,0,3,9,0,1,6,0.01522986,0.08342150,0.28404274,0.05934920,0.12848899,0.25213219
53023,0,USWashingtonGarfield,Washington,Garfield,2021-01-05 06:28:22.844483,2020-05-04 00:00:00.000000,0.02443462,0.12961199,0.40176572,0,2,8,0,1,6,0.01396505,0.07883422,0.27623334,0.05905968,0.12663849,0.24909931
53023,0,USWashingtonGarfield,Washington,Garfield,2021-01-05 06:28:22.844483,2020-05-05 00:00:00.000000,0.02248949,0.12307933,0.39554575,0,2,8,0,1,5,0.01282550,0.07528248,0.26856598,0.05874533,0.12574949,0.24404680
53023,0,USWashingtonGarfield,Washington,Garfield,2021-01-05 06:28:22.844483,2020-05-06 00:00:00.000000,0.02069515,0.11577237,0.38617678,0,2,8,0,1,5,0.01179118,0.07245551,0.26107370,0.05832155,0.12488335,0.23644528
53023,0,USWashingtonGarfield,Washington,Garfield,2021-01-05 06:28:22.844483,2020-05-07 00:00:00.000000,0.01901637,0.10857234,0.37516221,0,2,8,0,1,5,0.01084515,0.06817256,0.25357623,0.05760646,0.12371086,0.23007270
53023,0,USWashingtonGarfield,Washington,Garfield,2021-01-05 06:28:22.844483,2020-05-08 00:00:00.000000,0.01741996,0.10129447,0.36692381,0,2,8,0,1,5,0.00997075,0.06370806,0.24187601,0.05634271,0.12237034,0.22478977
53023,0,USWashingtonGarfield,Washington,Garfield,2021-01-05 06:28:22.844483,2020-05-09 00:00:00.000000,0.01590586,0.09556418,0.35949520,0,2,7,0,1,5,0.00915176,0.06028113,0.22796706,0.05463132,0.12131122,0.21757838
53023,0,USWashingtonGarfield,Washington,Garfield,2021-01-05 06:28:22.844483,2020-05-10 00:00:00.000000,0.01449052,0.08991146,0.34757225,0,2,7,0,1,4,0.00837954,0.05727858,0.21623967,0.05320549,0.12044256,0.21698199
53023,0,USWashingtonGarfield,Washington,Garfield,2021-01-05 06:28:22.844483,2020-05-11 00:00:00.000000,0.01318165,0.08508101,0.33478209,0,1,7,0,1,4,0.00765433,0.05428420,0.21092725,0.05243539,0.12003680,0.21580797
53023,0,USWashingtonGarfield,Washington,Garfield,2021-01-05 06:28:22.844483,2020-05-12 00:00:00.000000,0.01197957,0.08019672,0.32598386,0,1,7,0,1,4,0.00697871,0.05143142,0.20522025,0.05209290,0.12300034,0.21331868
53023,0,USWashingtonGarfield,Washington,Garfield,2021-01-05 06:28:22.844483,2020-05-13 00:00:00.000000,0.01088197,0.07469378,0.31417235,0,1,6,0,1,4,0.00635382,0.04872104,0.19910775,0.05192871,0.11899203,0.21263791
53023,0,USWashingtonGarfield,Washington,Garfield,2021-01-05 06:28:22.844483,2020-05-14 00:00:00.000000,0.00988225,0.07153769,0.30095141,0,1,6,0,1,4,0.00577910,0.04615362,0.19259398,0.05181409,0.11724415,0.21525837
53023,0,USWashingtonGarfield,Washington,Garfield,2021-01-05 06:28:22.844483,2020-05-15 00:00:00.000000,0.00897489,0.06770557,0.28745436,0,1,6,0,0,4,0.00525285,0.04370577,0.18571911,0.05168078,0.11597387,0.21116086
53023,0,USWashingtonGarfield,Washington,Garfield,2021-01-05 06:28:22.844483,2020-05-16 00:00:00.000000,0.00815352,0.06347440,0.27371972,0,1,6,0,0,3,0.00477292,0.04152991,0.17855557,0.05150296,0.11412672,0.22000510
53023,0,USWashingtonGarfield,Washington,Garfield,2021-01-05 06:28:22.844483,2020-05-17 00:00:00.000000,0.00740942,0.05937538,0.25958097,0,1,5,0,0,3,0.00433669,0.03917929,0.17115818,0.05140346,0.11209133,0.22625795
53023,0,USWashingtonGarfield,Washington,Garfield,2021-01-05 06:28:22.844483,2020-05-18 00:00:00.000000,0.00673429,0.05543865,0.24559905,0,1,5,0,0,3,0.00394077,0.03683444,0.16352835,0.05010898,0.10874514,0.22888460
53023,0,USWashingtonGarfield,Washington,Garfield,2021-01-05 06:28:22.844483,2020-05-19 00:00:00.000000,0.00612116,0.05170691,0.23208364,0,1,5,0,0,3,0.00358146,0.03445387,0.15577764,0.04924254,0.10667237,0.22173571
53023,0,USWashingtonGarfield,Washington,Garfield,2021-01-05 06:28:22.844483,2020-05-20 00:00:00.000000,0.00556385,0.04819470,0.21912226,0,1,4,0,0,3,0.00325524,0.03216004,0.14804247,0.04886383,0.10660278,0.21355711
53023,0,USWashingtonGarfield,Washington,Garfield,2021-01-05 06:28:22.844483,2020-05-21 00:00:00.000000,0.00505644,0.04489991,0.20927474,0,0,4,0,0,3,0.00295887,0.02999249,0.14042865,0.04859777,0.10600048,0.21195054
53023,0,USWashingtonGarfield,Washington,Garfield,2021-01-05 06:28:22.844483,2020-05-22 00:00:00.000000,0.00459298,0.04180754,0.20184125,0,0,4,0,0,2,0.00268934,0.02795400,0.13301156,0.04800122,0.10523247,0.21150180
53023,0,USWashingtonGarfield,Washington,Garfield,2021-01-05 06:28:22.844483,2020-05-23 00:00:00.000000,0.00416842,0.03913093,0.19444051,0,0,4,0,0,2,0.00244372,0.02630731,0.12615168,0.04593194,0.10292902,0.21210326
53023,0,USWashingtonGarfield,Washington,Garfield,2021-01-05 06:28:22.844483,2020-05-24 00:00:00.000000,0.00378012,0.03661360,0.18717244,0,0,4,0,0,2,0.00221936,0.02480549,0.12182504,0.04170524,0.10212336,0.21966642
53023,0,USWashingtonGarfield,Washington,Garfield,2021-01-05 06:28:22.844483,2020-05-25 00:00:00.000000,0.00342617,0.03421641,0.18012196,0,0,4,0,0,2,0.00201428,0.02333617,0.11752903,0.03876829,0.10130444,0.22541679
53023,0,USWashingtonGarfield,Washington,Garfield,2021-01-05 06:28:22.844483,2020-05-26 00:00:00.000000,0.00310428,0.03249262,0.17330436,0,0,3,0,0,2,0.00182704,0.02173358,0.11330613,0.03779130,0.10261331,0.22700622
53023,0,USWashingtonGarfield,Washington,Garfield,2021-01-05 06:28:22.844483,2020-05-27 00:00:00.000000,0.00281197,0.03036496,0.16672496,0,0,3,0,0,2,0.00165642,0.02020945,0.10918303,0.03739578,0.10238600,0.22734981
53023,0,USWashingtonGarfield,Washington,Garfield,2021-01-05 06:28:22.844483,2020-05-28 00:00:00.000000,0.00254676,0.02814855,0.16038356,0,0,3,0,0,2,0.00150117,0.01878101,0.10517536,0.03711240,0.10340424,0.22745125
53023,0,USWashingtonGarfield,Washington,Garfield,2021-01-05 06:28:22.844483,2020-05-29 00:00:00.000000,0.00230634,0.02577861,0.15427576,0,0,3,0,0,2,0.00136010,0.01771162,0.10124362,0.03687104,0.10412935,0.22743921
53023,0,USWashingtonGarfield,Washington,Garfield,2021-01-05 06:28:22.844483,2020-05-30 00:00:00.000000,0.00208855,0.02355093,0.14838935,0,0,3,0,0,2,0.00123205,0.01659632,0.09741805,0.03611023,0.10279151,0.22659656
53023,0,USWashingtonGarfield,Washington,Garfield,2021-01-05 06:28:22.844483,2020-05-31 00:00:00.000000,0.00189145,0.02173112,0.14267991,0,0,3,0,0,2,0.00111592,0.01527527,0.09372455,0.03416605,0.10167868,0.22363713
53023,0,USWashingtonGarfield,Washington,Garfield,2021-01-05 06:28:22.844483,2020-06-01 00:00:00.000000,0.00171326,0.02005024,0.13706891,0,0,3,0,0,2,0.00101070,0.01382250,0.09015136,0.03156241,0.10095817,0.21708390
53023,0,USWashingtonGarfield,Washington,Garfield,2021-01-05 06:28:22.844483,2020-06-02 00:00:00.000000,0.00155222,0.01849879,0.13159576,0,0,2,0,0,1,0.00091545,0.01249583,0.08667135,0.02870751,0.09664681,0.21087195
53023,0,USWashingtonGarfield,Washington,Garfield,2021-01-05 06:28:22.844483,2020-06-03 00:00:00.000000,0.00140664,0.01706695,0.12628717,0,0,2,0,0,1,0.00082929,0.01128532,0.08327892,0.02624136,0.09631376,0.20773738
53023,0,USWashingtonGarfield,Washington,Garfield,2021-01-05 06:28:22.844483,2020-06-04 00:00:00.000000,0.00127487,0.01602976,0.12109039,0,0,2,0,0,1,0.00075137,0.01031693,0.07997861,0.02604661,0.09253378,0.20195620
53023,0,USWashingtonGarfield,Washington,Garfield,2021-01-05 06:28:22.844483,2020-06-05 00:00:00.000000,0.00115534,0.01502096,0.11587322,0,0,2,0,0,1,0.00068088,0.00954532,0.07675979,0.02990785,0.09224144,0.18919731
53023,0,USWashingtonGarfield,Washington,Garfield,2021-01-05 06:28:22.844483,2020-06-06 00:00:00.000000,0.00104656,0.01402162,0.11050140,0,0,2,0,0,1,0.00061703,0.00889842,0.07358188,0.03095076,0.09077784,0.17880023
53023,0,USWashingtonGarfield,Washington,Garfield,2021-01-05 06:28:22.844483,2020-06-07 00:00:00.000000,0.00094712,0.01300681,0.10503866,0,0,2,0,0,1,0.00055907,0.00828286,0.07038633,0.03108763,0.08821588,0.17150487
53023,0,USWashingtonGarfield,Washington,Garfield,2021-01-05 06:28:22.844483,2020-06-08 00:00:00.000000,0.00085588,0.01201771,0.09965449,0,0,2,0,0,1,0.00050628,0.00782807,0.06715590,0.03149159,0.08942803,0.16817673
53023,0,USWashingtonGarfield,Washington,Garfield,2021-01-05 06:28:22.844483,2020-06-09 00:00:00.000000,0.00077220,0.01114202,0.09445442,0,0,2,0,0,1,0.00045805,0.00738379,0.06392591,0.03295776,0.08711991,0.16719186
53023,0,USWashingtonGarfield,Washington,Garfield,2021-01-05 06:28:22.844483,2020-06-10 00:00:00.000000,0.00069574,0.01039837,0.08947747,0,0,1,0,0,1,0.00041390,0.00682278,0.06074521,0.03327105,0.08699084,0.16805446
53023,0,USWashingtonGarfield,Washington,Garfield,2021-01-05 06:28:22.844483,2020-06-11 00:00:00.000000,0.00062625,0.00966862,0.08472536,0,0,1,0,0,1,0.00037352,0.00630109,0.05765194,0.03321706,0.08650301,0.17065364
53023,0,USWashingtonGarfield,Washington,Garfield,2021-01-05 06:28:22.844483,2020-06-12 00:00:00.000000,0.00056336,0.00883835,0.08017414,0,0,1,0,0,1,0.00033669,0.00590490,0.05466780,0.03329942,0.08539132,0.17340928
53023,0,USWashingtonGarfield,Washington,Garfield,2021-01-05 06:28:22.844483,2020-06-13 00:00:00.000000,0.00050671,0.00807796,0.07569913,0,0,1,0,0,1,0.00030322,0.00553451,0.05190180,0.03438739,0.08550196,0.17482989
53023,0,USWashingtonGarfield,Washington,Garfield,2021-01-05 06:28:22.844483,2020-06-14 00:00:00.000000,0.00045593,0.00738225,0.07162055,0,0,1,0,0,1,0.00027294,0.00518773,0.04977520,0.03459979,0.08542689,0.17521819
53023,0,USWashingtonGarfield,Washington,Garfield,2021-01-05 06:28:22.844483,2020-06-15 00:00:00.000000,0.00041049,0.00674641,0.06831551,0,0,1,0,0,1,0.00024564,0.00486273,0.04765450,0.03421278,0.08419617,0.17497349
53023,0,USWashingtonGarfield,Washington,Garfield,2021-01-05 06:28:22.844483,2020-06-16 00:00:00.000000,0.00036983,0.00616602,0.06512386,0,0,1,0,0,1,0.00022112,0.00455474,0.04556945,0.03386979,0.08166330,0.17284051
53023,0,USWashingtonGarfield,Washington,Garfield,2021-01-05 06:28:22.844483,2020-06-17 00:00:00.000000,0.00033348,0.00570364,0.06203130,0,0,1,0,0,0,0.00019912,0.00418724,0.04353317,0.03380150,0.07900212,0.17224074
53023,0,USWashingtonGarfield,Washington,Garfield,2021-01-05 06:28:22.844483,2020-06-18 00:00:00.000000,0.00030105,0.00530862,0.05901599,0,0,1,0,0,0,0.00017943,0.00385024,0.04154994,0.03378858,0.07867955,0.16800920
53023,0,USWashingtonGarfield,Washington,Garfield,2021-01-05 06:28:22.844483,2020-06-19 00:00:00.000000,0.00027221,0.00493576,0.05606354,0,0,1,0,0,0,0.00016182,0.00354154,0.03961698,0.03381253,0.07765081,0.15979393
53023,0,USWashingtonGarfield,Washington,Garfield,2021-01-05 06:28:22.844483,2020-06-20 00:00:00.000000,0.00024658,0.00458193,0.05318143,0,0,1,0,0,0,0.00014611,0.00327711,0.03772916,0.03376359,0.07788216,0.16173576
53023,0,USWashingtonGarfield,Washington,Garfield,2021-01-05 06:28:22.844483,2020-06-21 00:00:00.000000,0.00022378,0.00424644,0.05039383,0,0,1,0,0,0,0.00013212,0.00304916,0.03588531,0.03439685,0.07634924,0.16482876
53023,0,USWashingtonGarfield,Washington,Garfield,2021-01-05 06:28:22.844483,2020-06-22 00:00:00.000000,0.02635199,0.05653774,0.17005505,0,1,3,0,0,0,0.00011966,0.00280383,0.03409058,0.03447020,0.07464779,0.16653245
53023,0,USWashingtonGarfield,Washington,Garfield,2021-01-05 06:28:22.844483,2020-06-23 00:00:00.000000,0.04886080,0.10574231,0.29724085,1,2,6,0,0,1,0.00706192,0.01731848,0.06143729,0.03483981,0.07376522,0.16603117
53023,0,USWashingtonGarfield,Washington,Garfield,2021-01-05 06:28:22.844483,2020-06-24 00:00:00.000000,0.07082786,0.15677971,0.43539968,1,3,9,0,0,2,0.01587742,0.03295402,0.10713689,0.03490915,0.07308285,0.16284706
53023,0,USWashingtonGarfield,Washington,Garfield,2021-01-05 06:28:22.844483,2020-06-25 00:00:00.000000,0.09251429,0.20614215,0.57179318,2,4,12,0,1,3,0.02399534,0.05443363,0.17497347,0.03466168,0.07095479,0.16641587
53023,0,USWashingtonGarfield,Washington,Garfield,2021-01-05 06:28:22.844483,2020-06-26 00:00:00.000000,0.11351677,0.25147293,0.69924007,2,5,15,0,1,5,0.03392377,0.07852142,0.24903381,0.03315402,0.07043061,0.17040481
53023,0,USWashingtonGarfield,Washington,Garfield,2021-01-05 06:28:22.844483,2020-06-27 00:00:00.000000,0.13358437,0.29386233,0.82050130,2,6,18,0,2,7,0.04420881,0.10210716,0.32192470,0.03253861,0.07020395,0.16994924
53023,0,USWashingtonGarfield,Washington,Garfield,2021-01-05 06:28:22.844483,2020-06-28 00:00:00.000000,0.15100663,0.33382335,0.93742854,3,7,20,1,2,8,0.05449118,0.12544437,0.39134475,0.03236928,0.06949634,0.16758561
53023,0,USWashingtonGarfield,Washington,Garfield,2021-01-05 06:28:22.844483,2020-06-29 00:00:00.000000,0.17164218,0.39439787,0.95561934,3,8,21,1,3,10,0.06327261,0.14806081,0.45605238,0.03234043,0.06890032,0.16517189
53023,0,USWashingtonGarfield,Washington,Garfield,2021-01-05 06:28:22.844483,2020-06-30 00:00:00.000000,0.18827469,0.43139029,0.97147727,4,9,21,1,4,11,0.07697448,0.18811817,0.49595527,0.03235275,0.06701060,0.16290056
53023,0,USWashingtonGarfield,Washington,Garfield,2021-01-05 06:28:22.844483,2020-07-01 00:00:00.000000,0.20366501,0.45084927,0.99393479,4,10,22,2,4,11,0.09064769,0.20912375,0.52826200,0.03181792,0.06640953,0.16053676
53023,0,USWashingtonGarfield,Washington,Garfield,2021-01-05 06:28:22.844483,2020-07-02 00:00:00.000000,0.21823824,0.50275212,1.05448240,4,11,23,2,5,12,0.10152122,0.23028106,0.54800932,0.03156298,0.06716486,0.15725412
53023,0,USWashingtonGarfield,Washington,Garfield,2021-01-05 06:28:22.844483,2020-07-03 00:00:00.000000,0.23187409,0.54970284,1.16801887,5,12,25,2,5,12,0.11007835,0.25501255,0.55846108,0.03212720,0.06764292,0.15171629
53023,0,USWashingtonGarfield,Washington,Garfield,2021-01-05 06:28:22.844483,2020-07-04 00:00:00.000000,0.24448268,0.59606402,1.32314667,5,13,29,2,6,12,0.11826443,0.29053213,0.56228728,0.03175833,0.06779190,0.14316799
53023,0,USWashingtonGarfield,Washington,Garfield,2021-01-05 06:28:22.844483,2020-07-05 00:00:00.000000,0.25610062,0.61346595,1.43664650,5,13,31,2,7,13,0.12589595,0.31637745,0.61936037,0.02974289,0.06745084,0.13576311
53023,0,USWashingtonGarfield,Washington,Garfield,2021-01-05 06:28:22.844483,2020-07-06 00:00:00.000000,0.27661478,0.62629464,1.44910418,6,13,32,2,7,15,0.13177765,0.33027347,0.69124006,0.02730738,0.06796878,0.13589882
53023,0,USWashingtonGarfield,Washington,Garfield,2021-01-05 06:28:22.844483,2020-07-07 00:00:00.000000,0.30148016,0.65556208,1.45573143,6,14,32,3,7,16,0.14199897,0.34255235,0.74253981,0.02569030,0.06748950,0.13728656
53023,0,USWashingtonGarfield,Washington,Garfield,2021-01-05 06:28:22.844483,2020-07-08 00:00:00.000000,0.33896033,0.66571403,1.52580954,7,14,33,3,7,17,0.15775140,0.35365703,0.78840254,0.02510682,0.06760754,0.13439870
53023,0,USWashingtonGarfield,Washington,Garfield,2021-01-05 06:28:22.844483,2020-07-09 00:00:00.000000,0.35588937,0.67252680,1.61681383,7,14,35,3,7,18,0.17555639,0.35876599,0.82080860,0.02508603,0.06741862,0.13079320
53023,0,USWashingtonGarfield,Washington,Garfield,2021-01-05 06:28:22.844483,2020-07-10 00:00:00.000000,0.35131855,0.66984702,1.70109368,7,14,37,3,7,18,0.17934135,0.35791660,0.83542236,0.02508450,0.06509426,0.12744740
53023,0,USWashingtonGarfield,Washington,Garfield,2021-01-05 06:28:22.844483,2020-07-11 00:00:00.000000,0.36357062,0.68403131,1.77854802,8,15,39,4,8,19,0.18244661,0.36457112,0.86007774,0.02511514,0.06173242,0.12425058
53023,0,USWashingtonGarfield,Washington,Garfield,2021-01-05 06:28:22.844483,2020-07-12 00:00:00.000000,0.37734661,0.71672239,1.84372277,8,15,41,4,8,19,0.18494329,0.37322616,0.88618612,0.02528767,0.06160293,0.12152278
53023,0,USWashingtonGarfield,Washington,Garfield,2021-01-05 06:28:22.844483,2020-07-13 00:00:00.000000,0.35742493,0.67844393,1.70465375,7,15,37,4,8,20,0.18691658,0.37724745,0.90223626,0.02607150,0.06002902,0.11963261
53023,0,USWashingtonGarfield,Washington,Garfield,2021-01-05 06:28:22.844483,2020-07-14 00:00:00.000000,0.33614706,0.62060636,1.56305003,7,13,34,4,8,19,0.18366470,0.36826465,0.87316450,0.02622957,0.05957329,0.11896695
53023,0,USWashingtonGarfield,Washington,Garfield,2021-01-05 06:28:22.844483,2020-07-15 00:00:00.000000,0.30016849,0.58121175,1.41649930,6,12,31,3,7,18,0.17692300,0.35250320,0.81983905,0.02597402,0.05989901,0.11914527
53023,0,USWashingtonGarfield,Washington,Garfield,2021-01-05 06:28:22.844483,2020-07-16 00:00:00.000000,0.26694131,0.53976590,1.27299945,5,12,28,3,7,17,0.16794517,0.33285301,0.77309084,0.02569666,0.06027864,0.11924325
53023,0,USWashingtonGarfield,Washington,Garfield,2021-01-05 06:28:22.844483,2020-07-17 00:00:00.000000,0.23854357,0.49277596,1.13700237,5,10,25,3,6,16,0.15769502,0.30967628,0.73794362,0.02538489,0.06114752,0.12556737
53023,0,USWashingtonGarfield,Washington,Garfield,2021-01-05 06:28:22.844483,2020-07-18 00:00:00.000000,0.22150227,0.44710752,1.03843508,4,9,23,3,6,15,0.14753341,0.28804500,0.70092501,0.02506196,0.06219857,0.12685101
53023,0,USWashingtonGarfield,Washington,Garfield,2021-01-05 06:28:22.844483,2020-07-19 00:00:00.000000,0.20552959,0.40893464,0.97336522,4,9,21,3,6,14,0.13580921,0.27034292,0.66327924,0.02453584,0.06173402,0.12802207
53023,0,USWashingtonGarfield,Washington,Garfield,2021-01-05 06:28:22.844483,2020-07-20 00:00:00.000000,0.21794642,0.42658860,1.01043352,4,9,22,2,5,13,0.12493367,0.25025776,0.62580372,0.02436637,0.06210567,0.12931855
53023,0,USWashingtonGarfield,Washington,Garfield,2021-01-05 06:28:22.844483,2020-07-21 00:00:00.000000,0.23177913,0.45877667,1.13615068,5,10,25,2,5,13,0.12025786,0.24038053,0.60168109,0.02454621,0.06308337,0.13064732
53023,0,USWashingtonGarfield,Washington,Garfield,2021-01-05 06:28:22.844483,2020-07-22 00:00:00.000000,0.25381550,0.49050974,1.27467473,5,10,28,2,5,13,0.12068371,0.24358110,0.59137562,0.02494896,0.06369047,0.13182545
53023,0,USWashingtonGarfield,Washington,Garfield,2021-01-05 06:28:22.844483,2020-07-23 00:00:00.000000,0.26442478,0.51084831,1.41441818,5,11,31,2,5,13,0.12425653,0.25710170,0.60220481,0.02495186,0.06459294,0.13222385
53023,0,USWashingtonGarfield,Washington,Garfield,2021-01-05 06:28:22.844483,2020-07-24 00:00:00.000000,0.27014858,0.53506501,1.54871285,6,11,34,2,6,14,0.13122804,0.27467156,0.65099894,0.02501812,0.06659609,0.13469754
53023,0,USWashingtonGarfield,Washington,Garfield,2021-01-05 06:28:22.844483,2020-07-25 00:00:00.000000,0.27036342,0.56042302,1.67331815,6,12,37,3,6,15,0.14107092,0.28992762,0.71681349,0.02581016,0.06613079,0.12941622
53023,0,USWashingtonGarfield,Washington,Garfield,2021-01-05 06:28:22.844483,2020-07-26 00:00:00.000000,0.27268937,0.57131672,1.78642259,6,12,39,3,6,17,0.15142190,0.30023849,0.78076091,0.02785078,0.06622239,0.13808733
53023,0,USWashingtonGarfield,Washington,Garfield,2021-01-05 06:28:22.844483,2020-07-27 00:00:00.000000,0.31239134,0.60868809,1.72180305,6,13,38,3,7,18,0.16182946,0.31703712,0.84027728,0.02789680,0.06711879,0.14787754
53023,0,USWashingtonGarfield,Washington,Garfield,2021-01-05 06:28:22.844483,2020-07-28 00:00:00.000000,0.35122988,0.65005613,1.64491245,7,14,36,3,7,18,0.16510877,0.32812098,0.85090692,0.02847214,0.06717074,0.14881630
53023,0,USWashingtonGarfield,Washington,Garfield,2021-01-05 06:28:22.844483,2020-07-29 00:00:00.000000,0.37133184,0.69177929,1.55476571,8,15,34,4,7,18,0.18000288,0.35118193,0.83333079,0.02838488,0.06621845,0.13586702
53023,0,USWashingtonGarfield,Washington,Garfield,2021-01-05 06:28:22.844483,2020-07-30 00:00:00.000000,0.36515744,0.72040057,1.46091090,8,16,32,4,8,18,0.19520074,0.36993272,0.84167943,0.02707425,0.06512640,0.12041923
53023,0,USWashingtonGarfield,Washington,Garfield,2021-01-05 06:28:22.844483,2020-07-31 00:00:00.000000,0.35899044,0.73915279,1.46241499,7,16,32,4,8,19,0.20566054,0.38298961,0.86930588,0.02781932,0.06423903,0.11615466
53023,0,USWashingtonGarfield,Washington,Garfield,2021-01-05 06:28:22.844483,2020-08-01 00:00:00.000000,0.35277954,0.74535253,1.48892755,7,16,33,4,8,19,0.20746588,0.38820846,0.89321887,0.02697834,0.06370285,0.11543056
53023,0,USWashingtonGarfield,Washington,Garfield,2021-01-05 06:28:22.844483,2020-08-02 00:00:00.000000,0.35628812,0.76057868,1.41205354,7,16,31,4,8,19,0.20400397,0.39835083,0.85900857,0.02609730,0.06484070,0.11712611
53023,0,USWashingtonGarfield,Washington,Garfield,2021-01-05 06:28:22.844483,2020-08-03 00:00:00.000000,0.33341578,0.72316562,1.31940104,7,16,29,4,9,18,0.20292059,0.41578070,0.81510383,0.02574129,0.06561134,0.12017339
53023,0,USWashingtonGarfield,Washington,Garfield,2021-01-05 06:28:22.844483,2020-08-04 00:00:00.000000,0.30971211,0.68418973,1.23878578,6,15,27,4,9,17,0.20086898,0.40517171,0.78341563,0.02713581,0.06614700,0.12132150
53023,0,USWashingtonGarfield,Washington,Garfield,2021-01-05 06:28:22.844483,2020-08-05 00:00:00.000000,0.28507282,0.64331712,1.14901918,6,14,25,4,8,17,0.19348473,0.39327947,0.77364832,0.02788634,0.06661440,0.12148223
53023,0,USWashingtonGarfield,Washington,Garfield,2021-01-05 06:28:22.844483,2020-08-06 00:00:00.000000,0.26069341,0.59279469,1.05627450,5,13,23,4,8,16,0.18292427,0.37698130,0.75112084,0.02799153,0.06669385,0.12075140
53023,0,USWashingtonGarfield,Washington,Garfield,2021-01-05 06:28:22.844483,2020-08-07 00:00:00.000000,0.23731509,0.54681186,0.96439170,5,12,21,3,7,16,0.17066237,0.35804163,0.72004752,0.02682757,0.06683003,0.11898196
53023,0,USWashingtonGarfield,Washington,Garfield,2021-01-05 06:28:22.844483,2020-08-08 00:00:00.000000,0.21564063,0.50389700,0.87570613,4,11,19,3,7,15,0.15770923,0.33384756,0.68391438,0.02572392,0.06758251,0.12127360
53023,0,USWashingtonGarfield,Washington,Garfield,2021-01-05 06:28:22.844483,2020-08-09 00:00:00.000000,0.19626147,0.46198823,0.81992079,4,10,18,3,6,14,0.14481803,0.30922279,0.64529079,0.02553885,0.06708758,0.12253306
53023,0,USWashingtonGarfield,Washington,Garfield,2021-01-05 06:28:22.844483,2020-08-10 00:00:00.000000,0.17870565,0.42118513,0.77159121,3,9,17,2,6,13,0.13255794,0.28668195,0.60606494,0.02674482,0.06736904,0.12317250
53023,0,USWashingtonGarfield,Washington,Garfield,2021-01-05 06:28:22.844483,2020-08-11 00:00:00.000000,0.16265441,0.37658475,0.72627086,3,8,16,2,5,12,0.12113059,0.26678545,0.56735502,0.02637003,0.06528673,0.12349583
53023,0,USWashingtonGarfield,Washington,Garfield,2021-01-05 06:28:22.844483,2020-08-12 00:00:00.000000,0.14798688,0.34183220,0.68375880,3,7,15,2,5,11,0.11035340,0.24297046,0.52980617,0.02605880,0.06482129,0.12367349
53023,0,USWashingtonGarfield,Washington,Garfield,2021-01-05 06:28:22.844483,2020-08-13 00:00:00.000000,0.13460197,0.31145956,0.63132848,2,6,14,2,4,10,0.09777471,0.22074830,0.49380955,0.02506706,0.06450694,0.12378153
53023,0,USWashingtonGarfield,Washington,Garfield,2021-01-05 06:28:22.844483,2020-08-14 00:00:00.000000,0.12118858,0.28775322,0.60250399,2,6,13,1,4,10,0.08650995,0.20024263,0.45959191,0.02421875,0.06543869,0.12384894
53023,0,USWashingtonGarfield,Washington,Garfield,2021-01-05 06:28:22.844483,2020-08-15 00:00:00.000000,0.10637391,0.26555119,0.57242311,2,5,12,1,4,9,0.07635171,0.18298089,0.42248501,0.02387938,0.06638174,0.12390303
53023,0,USWashingtonGarfield,Washington,Garfield,2021-01-05 06:28:22.844483,2020-08-16 00:00:00.000000,0.09324177,0.24299203,0.53977386,2,5,12,1,3,8,0.06722172,0.16705582,0.39178881,0.02347344,0.06589844,0.13401260
53023,0,USWashingtonGarfield,Washington,Garfield,2021-01-05 06:28:22.844483,2020-08-17 00:00:00.000000,0.08164880,0.22200109,0.50890462,1,4,11,1,3,8,0.05852304,0.15207518,0.36887091,0.02338309,0.06672089,0.13544689
53023,0,USWashingtonGarfield,Washington,Garfield,2021-01-05 06:28:22.844483,2020-08-18 00:00:00.000000,0.07071789,0.20255095,0.47953376,1,4,10,1,3,7,0.05074331,0.13842617,0.34193150,0.02393590,0.06708966,0.13524079
53023,0,USWashingtonGarfield,Washington,Garfield,2021-01-05 06:28:22.844483,2020-08-19 00:00:00.000000,0.06136466,0.18396658,0.45104242,1,4,10,0,2,7,0.04396658,0.12598578,0.31617362,0.02483328,0.06724222,0.13438313
53023,0,USWashingtonGarfield,Washington,Garfield,2021-01-05 06:28:22.844483,2020-08-20 00:00:00.000000,0.05457135,0.16529542,0.42382808,1,3,9,0,2,6,0.03807457,0.11460935,0.29423389,0.02481881,0.06733272,0.13221200
53023,0,USWashingtonGarfield,Washington,Garfield,2021-01-05 06:28:22.844483,2020-08-21 00:00:00.000000,0.04765623,0.14831569,0.39070676,1,3,8,0,2,6,0.03299761,0.10416182,0.27275787,0.02484614,0.06442680,0.13400566
53023,0,USWashingtonGarfield,Washington,Garfield,2021-01-05 06:28:22.844483,2020-08-22 00:00:00.000000,0.04161275,0.13437010,0.35912795,0,2,7,0,2,5,0.02947977,0.09393577,0.25278549,0.02505233,0.06394871,0.14159530
53023,0,USWashingtonGarfield,Washington,Garfield,2021-01-05 06:28:22.844483,2020-08-23 00:00:00.000000,0.03633696,0.12161346,0.33038090,0,2,7,0,1,5,0.02632424,0.08503774,0.23423920,0.02583880,0.06509432,0.13584018
53023,0,USWashingtonGarfield,Washington,Garfield,2021-01-05 06:28:22.844483,2020-08-24 00:00:00.000000,0.09649497,0.18314643,0.40801359,2,4,9,0,1,4,0.02321264,0.07666189,0.21705532,0.02647920,0.06440724,0.13001946
53023,0,USWashingtonGarfield,Washington,Garfield,2021-01-05 06:28:22.844483,2020-08-25 00:00:00.000000,0.11631401,0.25449231,0.52359523,2,5,11,0,1,4,0.04352261,0.08959902,0.22046734,0.02660418,0.06349708,0.12717960
53023,0,USWashingtonGarfield,Washington,Garfield,2021-01-05 06:28:22.844483,2020-08-26 00:00:00.000000,0.14641516,0.30507127,0.63417955,3,6,14,1,2,5,0.05311838,0.11351810,0.23789820,0.02660706,0.06425641,0.12595339
53023,0,USWashingtonGarfield,Washington,Garfield,2021-01-05 06:28:22.844483,2020-08-27 00:00:00.000000,0.17442746,0.35733326,0.81714748,3,7,18,1,3,6,0.06696041,0.13938180,0.27933756,0.02657749,0.06504647,0.12538528
53023,0,USWashingtonGarfield,Washington,Garfield,2021-01-05 06:28:22.844483,2020-08-28 00:00:00.000000,0.19787231,0.40708299,0.99263478,4,9,22,1,3,7,0.07624514,0.16876504,0.33044637,0.02651453,0.06513983,0.12450938
53023,0,USWashingtonGarfield,Washington,Garfield,2021-01-05 06:28:22.844483,2020-08-29 00:00:00.000000,0.22012564,0.45726183,1.15894324,4,10,25,1,4,9,0.08580070,0.19843060,0.42168845,0.02640067,0.06536142,0.12314757
53023,0,USWashingtonGarfield,Washington,Garfield,2021-01-05 06:28:22.844483,2020-08-30 00:00:00.000000,0.23794312,0.50083230,1.31521696,5,11,29,2,5,11,0.09628799,0.23109486,0.51233251,0.02622091,0.06476624,0.12730032
53023,0,USWashingtonGarfield,Washington,Garfield,2021-01-05 06:28:22.844483,2020-08-31 00:00:00.000000,0.37343486,0.66996865,1.35871912,8,14,30,2,5,13,0.10730652,0.25577829,0.60048339,0.02599685,0.06478706,0.13147130
53023,0,USWashingtonGarfield,Washington,Garfield,2021-01-05 06:28:22.844483,2020-09-01 00:00:00.000000,0.47602433,0.86537109,1.58509602,10,19,35,3,7,14,0.15911833,0.31562885,0.66109267,0.02586582,0.06474910,0.13167031
53023,0,USWashingtonGarfield,Washington,Garfield,2021-01-05 06:28:22.844483,2020-09-02 00:00:00.000000,0.55368843,0.99895015,1.82078257,12,22,40,4,8,16,0.22460575,0.38836997,0.71953656,0.02613990,0.06501022,0.13219427
53023,0,USWashingtonGarfield,Washington,Garfield,2021-01-05 06:28:22.844483,2020-09-03 00:00:00.000000,0.62652831,1.10722336,2.04623439,13,24,45,5,10,18,0.26496000,0.46527545,0.83890035,0.02746027,0.06428093,0.13319751
53023,0,USWashingtonGarfield,Washington,Garfield,2021-01-05 06:28:22.844483,2020-09-04 00:00:00.000000,0.69441063,1.22670509,2.25906892,15,27,50,6,12,21,0.30424765,0.54073356,0.95958343,0.02997589,0.06539772,0.13484005
53023,0,USWashingtonGarfield,Washington,Garfield,2021-01-05 06:28:22.844483,2020-09-05 00:00:00.000000,0.75713266,1.35954876,2.45857224,16,30,54,7,13,23,0.34217554,0.59804761,1.07774970,0.03199655,0.06607967,0.13687953
53023,0,USWashingtonGarfield,Washington,Garfield,2021-01-05 06:28:22.844483,2020-09-06 00:00:00.000000,0.77465885,1.45474098,2.65900298,17,32,59,8,14,27,0.37792920,0.66549324,1.23528195,0.03214327,0.06625317,0.13854188
53023,0,USWashingtonGarfield,Washington,Garfield,2021-01-05 06:28:22.844483,2020-09-07 00:00:00.000000,0.76741780,1.45063647,2.58120333,17,32,57,9,16,30,0.41079705,0.73969725,1.39237130,0.03194364,0.06585190,0.13898924
53023,0,USWashingtonGarfield,Washington,Garfield,2021-01-05 06:28:22.844483,2020-09-08 00:00:00.000000,0.83321672,1.44944355,2.54750863,18,32,56,9,17,32,0.42441537,0.76458081,1.44921326,0.03195977,0.06592099,0.14184575
53023,0,USWashingtonGarfield,Washington,Garfield,2021-01-05 06:28:22.844483,2020-09-09 00:00:00.000000,0.85993267,1.42677918,2.52712312,19,31,56,9,17,32,0.42284501,0.76722864,1.46187908,0.03199453,0.06645974,0.14286167
53023,0,USWashingtonGarfield,Washington,Garfield,2021-01-05 06:28:22.844483,2020-09-10 00:00:00.000000,0.82740096,1.37405595,2.49628700,18,30,55,9,17,32,0.43385500,0.77509560,1.46170608,0.03201825,0.06553673,0.14354832
53023,0,USWashingtonGarfield,Washington,Garfield,2021-01-05 06:28:22.844483,2020-09-11 00:00:00.000000,0.80590632,1.36457542,2.46015967,17,30,54,9,17,32,0.41879205,0.77811455,1.44593732,0.03203668,0.06567200,0.14421677
53023,0,USWashingtonGarfield,Washington,Garfield,2021-01-05 06:28:22.844483,2020-09-12 00:00:00.000000,0.81102961,1.34893089,2.42316619,18,30,53,9,17,32,0.41515503,0.76488722,1.44501981,0.03209034,0.06654851,0.14543542
53023,0,USWashingtonGarfield,Washington,Garfield,2021-01-05 06:28:22.844483,2020-09-13 00:00:00.000000,0.78529715,1.31216145,2.38503104,17,29,53,9,16,31,0.41139526,0.75915054,1.43588010,0.03240666,0.06706056,0.14948632
53023,0,USWashingtonGarfield,Washington,Garfield,2021-01-05 06:28:22.844483,2020-09-14 00:00:00.000000,0.75409100,1.28546453,2.32748565,16,28,51,9,16,31,0.40752575,0.74401502,1.42159708,0.03383551,0.06639777,0.15050732
53023,0,USWashingtonGarfield,Washington,Garfield,2021-01-05 06:28:22.844483,2020-09-15 00:00:00.000000,0.72453405,1.22908144,2.28016911,16,27,50,8,16,31,0.40286643,0.72499481,1.39575673,0.03610036,0.06698489,0.15435689
53023,0,USWashingtonGarfield,Washington,Garfield,2021-01-05 06:28:22.844483,2020-09-16 00:00:00.000000,0.69667388,1.18263223,2.22673094,15,26,49,8,15,30,0.39133499,0.71149674,1.37066463,0.03661964,0.06801147,0.15689118
53023,0,USWashingtonGarfield,Washington,Garfield,2021-01-05 06:28:22.844483,2020-09-17 00:00:00.000000,0.67095326,1.13954272,2.16986293,14,25,48,8,15,30,0.37709114,0.69469279,1.36471391,0.03608875,0.06914373,0.15890350
53023,0,USWashingtonGarfield,Washington,Garfield,2021-01-05 06:28:22.844483,2020-09-18 00:00:00.000000,0.64738705,1.09840845,2.11159288,14,24,46,8,15,30,0.36327572,0.68075057,1.34949177,0.03571378,0.07068785,0.16095105
53023,0,USWashingtonGarfield,Washington,Garfield,2021-01-05 06:28:22.844483,2020-09-19 00:00:00.000000,0.62592741,1.07733922,2.08687511,13,23,46,7,14,29,0.35015454,0.65274931,1.32788433,0.03563444,0.07235220,0.16338440
53023,0,USWashingtonGarfield,Washington,Garfield,2021-01-05 06:28:22.844483,2020-09-20 00:00:00.000000,0.60655125,1.05837167,2.10617760,13,23,46,7,14,29,0.33788527,0.64729181,1.31754700,0.03571909,0.07274696,0.16663137
53023,0,USWashingtonGarfield,Washington,Garfield,2021-01-05 06:28:22.844483,2020-09-21 00:00:00.000000,0.61319671,1.02191278,2.06961410,13,22,46,7,14,29,0.32655466,0.63600190,1.31380111,0.03596222,0.07538792,0.16527408
53023,0,USWashingtonGarfield,Washington,Garfield,2021-01-05 06:28:22.844483,2020-09-22 00:00:00.000000,0.62188386,0.99006266,2.03285085,13,22,45,7,13,28,0.32129521,0.61949495,1.28686953,0.03634267,0.07653075,0.18158544
53023,0,USWashingtonGarfield,Washington,Garfield,2021-01-05 06:28:22.844483,2020-09-23 00:00:00.000000,0.63271835,0.96274883,1.99490776,14,21,44,7,13,28,0.32019571,0.60662982,1.26367052,0.03686706,0.07660886,0.19544550
53023,0,USWashingtonGarfield,Washington,Garfield,2021-01-05 06:28:22.844483,2020-09-24 00:00:00.000000,0.63519006,0.95224377,1.95746521,14,21,43,7,13,27,0.32085331,0.59257853,1.24332683,0.03691116,0.07641377,0.20880228
53023,0,USWashingtonGarfield,Washington,Garfield,2021-01-05 06:28:22.844483,2020-09-25 00:00:00.000000,0.60351623,0.92689543,1.92092707,13,20,42,6,12,27,0.31319390,0.56978560,1.22514290,0.03624560,0.07850371,0.20975887
53023,0,USWashingtonGarfield,Washington,Garfield,2021-01-05 06:28:22.844483,2020-09-26 00:00:00.000000,0.59371095,0.90519318,1.89328686,13,20,42,6,12,26,0.30742837,0.55135065,1.20866903,0.03471680,0.07987173,0.21161718
53023,0,USWashingtonGarfield,Washington,Garfield,2021-01-05 06:28:22.844483,2020-09-27 00:00:00.000000,0.57651491,0.88279754,1.90882880,12,19,42,6,12,26,0.30304203,0.54063521,1.19385356,0.03224745,0.08013377,0.20320708
53023,0,USWashingtonGarfield,Washington,Garfield,2021-01-05 06:28:22.844483,2020-09-28 00:00:00.000000,0.55915191,0.87590849,1.96022676,12,19,43,6,11,26,0.29819068,0.52479118,1.18141932,0.03097642,0.08147720,0.19897740
53023,0,USWashingtonGarfield,Washington,Garfield,2021-01-05 06:28:22.844483,2020-09-29 00:00:00.000000,0.57042902,0.90640109,2.06359625,12,20,45,6,11,26,0.29769141,0.51511709,1.17801360,0.03125213,0.08123381,0.19783402
53023,0,USWashingtonGarfield,Washington,Garfield,2021-01-05 06:28:22.844483,2020-09-30 00:00:00.000000,0.54699287,0.91445311,2.17207290,12,20,48,6,11,26,0.30803760,0.51635310,1.18119810,0.03178683,0.08121977,0.20196715
53023,0,USWashingtonGarfield,Washington,Garfield,2021-01-05 06:28:22.844483,2020-10-01 00:00:00.000000,0.52410105,0.94465937,2.32009924,11,21,51,6,11,26,0.31311209,0.52414576,1.18894230,0.03222403,0.08218783,0.20295338
53023,0,USWashingtonGarfield,Washington,Garfield,2021-01-05 06:28:22.844483,2020-10-02 00:00:00.000000,0.50324313,0.96858206,2.50642981,11,21,55,6,11,27,0.30973519,0.52566816,1.23053576,0.03275968,0.08287720,0.20741560
53023,0,USWashingtonGarfield,Washington,Garfield,2021-01-05 06:28:22.844483,2020-10-03 00:00:00.000000,0.49085133,0.97379998,2.50697289,10,21,55,6,11,29,0.29182725,0.53201011,1.33634795,0.03329771,0.08290166,0.21308645
53023,0,USWashingtonGarfield,Washington,Garfield,2021-01-05 06:28:22.844483,2020-10-04 00:00:00.000000,0.48072889,0.98947234,2.61833508,10,22,58,6,12,29,0.28579849,0.54031449,1.33628504,0.03374151,0.08467698,0.21959734
53023,0,USWashingtonGarfield,Washington,Garfield,2021-01-05 06:28:22.844483,2020-10-05 00:00:00.000000,0.51893634,1.01968617,2.64495393,11,22,58,6,12,29,0.27467668,0.55509796,1.32510113,0.03401974,0.08612599,0.22578571
53023,0,USWashingtonGarfield,Washington,Garfield,2021-01-05 06:28:22.844483,2020-10-06 00:00:00.000000,0.53018795,1.04490225,2.66628018,11,23,59,6,12,29,0.27127182,0.57458708,1.32239141,0.03421559,0.08769969,0.23146424
53023,0,USWashingtonGarfield,Washington,Garfield,2021-01-05 06:28:22.844483,2020-10-07 00:00:00.000000,0.54463541,1.05848067,2.64565159,12,23,58,6,13,29,0.27274032,0.59858065,1.32571770,0.03430503,0.08854714,0.23662829
53023,0,USWashingtonGarfield,Washington,Garfield,2021-01-05 06:28:22.844483,2020-10-08 00:00:00.000000,0.51764958,1.07061513,2.57877258,11,23,57,6,13,29,0.29774329,0.60312453,1.33999131,0.03426690,0.08986472,0.24117143
53023,0,USWashingtonGarfield,Washington,Garfield,2021-01-05 06:28:22.844483,2020-10-09 00:00:00.000000,0.51208055,1.07479607,2.61335152,11,23,58,6,13,30,0.29147991,0.61217645,1.38023123,0.03400837,0.09250360,0.25581491
53023,0,USWashingtonGarfield,Washington,Garfield,2021-01-05 06:28:22.844483,2020-10-10 00:00:00.000000,0.52277632,1.08343266,2.78448217,11,24,61,6,13,31,0.28625226,0.61597372,1.42327753,0.03335207,0.09942688,0.28244103
53023,0,USWashingtonGarfield,Washington,Garfield,2021-01-05 06:28:22.844483,2020-10-11 00:00:00.000000,0.53337989,1.08383479,2.83282054,11,24,63,6,13,32,0.29179477,0.61501582,1.47025529,0.03227932,0.10600884,0.29936170
53023,0,USWashingtonGarfield,Washington,Garfield,2021-01-05 06:28:22.844483,2020-10-12 00:00:00.000000,0.53169987,1.11650868,3.09856747,11,24,68,6,13,33,0.29762027,0.60622779,1.49417600,0.03232995,0.11247304,0.30746740
53023,0,USWashingtonGarfield,Washington,Garfield,2021-01-05 06:28:22.844483,2020-10-13 00:00:00.000000,0.52624087,1.13885518,3.48282628,11,25,77,6,13,35,0.30769571,0.61600315,1.58636273,0.03454813,0.11440600,0.31091358
53023,0,USWashingtonGarfield,Washington,Garfield,2021-01-05 06:28:22.844483,2020-10-14 00:00:00.000000,0.52123487,1.15645439,3.83645717,11,25,85,7,14,36,0.31897356,0.63329583,1.65356647,0.03511888,0.11489557,0.31327387
53023,0,USWashingtonGarfield,Washington,Garfield,2021-01-05 06:28:22.844483,2020-10-15 00:00:00.000000,0.51693747,1.19511253,4.11754990,11,26,91,7,14,39,0.31565627,0.64084276,1.77819739,0.03510258,0.11828894,0.31779053
53023,0,USWashingtonGarfield,Washington,Garfield,2021-01-05 06:28:22.844483,2020-10-16 00:00:00.000000,0.51317180,1.21779772,4.40678137,11,27,98,6,14,44,0.31267650,0.65953925,1.98321169,0.03490972,0.12009999,0.32940162
53023,0,USWashingtonGarfield,Washington,Garfield,2021-01-05 06:28:22.844483,2020-10-17 00:00:00.000000,0.50986414,1.22962749,4.71945395,11,27,105,6,14,47,0.31002782,0.67114379,2.14694722,0.03337956,0.11596065,0.35111220
53023,0,USWashingtonGarfield,Washington,Garfield,2021-01-05 06:28:22.844483,2020-10-18 00:00:00.000000,0.50690309,1.27183491,5.03761847,11,28,112,6,15,51,0.30768504,0.68783942,2.32122876,0.03150043,0.11410530,0.38206037
53023,0,USWashingtonGarfield,Washington,Garfield,2021-01-05 06:28:22.844483,2020-10-19 00:00:00.000000,0.91162217,1.62323146,5.47899777,20,36,121,6,15,56,0.30560248,0.70484222,2.53932845,0.03067169,0.11570483,0.36905644
53023,0,USWashingtonGarfield,Washington,Garfield,2021-01-05 06:28:22.844483,2020-10-20 00:00:00.000000,1.28956014,1.98512023,5.91192312,28,44,131,8,17,60,0.40135466,0.80459438,2.73710573,0.03055739,0.11885682,0.36391291
53023,0,USWashingtonGarfield,Washington,Garfield,2021-01-05 06:28:22.844483,2020-10-21 00:00:00.000000,1.64166858,2.33948619,6.27099422,36,52,139,12,21,63,0.56275547,0.95300664,2.87351712,0.03064488,0.12194027,0.37540254
53023,0,USWashingtonGarfield,Washington,Garfield,2021-01-05 06:28:22.844483,2020-10-22 00:00:00.000000,1.94520709,2.69431385,6.76790773,43,59,150,14,24,68,0.67266955,1.11595113,3.09305639,0.03075277,0.12438450,0.39095111
53023,0,USWashingtonGarfield,Washington,Garfield,2021-01-05 06:28:22.844483,2020-10-23 00:00:00.000000,2.25037234,3.05239042,7.27086001,50,67,161,18,29,73,0.84809739,1.31014691,3.32565576,0.03083408,0.12574922,0.40955524
53023,0,USWashingtonGarfield,Washington,Garfield,2021-01-05 06:28:22.844483,2020-10-24 00:00:00.000000,2.59344053,3.42871305,7.76964690,57,76,172,23,33,79,1.03831046,1.52043179,3.56678427,0.03088425,0.12692525,0.42868063
53023,0,USWashingtonGarfield,Washington,Garfield,2021-01-05 06:28:22.844483,2020-10-25 00:00:00.000000,2.81201184,3.80680725,8.26744857,62,84,183,26,38,84,1.19781642,1.74258687,3.81568172,0.03091189,0.12847153,0.43711068
53023,0,USWashingtonGarfield,Washington,Garfield,2021-01-05 06:28:22.844483,2020-10-26 00:00:00.000000,3.04463476,4.14964893,8.64036264,67,92,192,30,43,90,1.35187640,1.96300281,4.07239690,0.03096893,0.12952062,0.43938715
53023,0,USWashingtonGarfield,Washington,Garfield,2021-01-05 06:28:22.844483,2020-10-27 00:00:00.000000,3.38480666,4.46805904,8.95773275,75,99,199,33,48,97,1.50580828,2.16963495,4.36926501,0.03099971,0.13072132,0.43976201
53023,0,USWashingtonGarfield,Washington,Garfield,2021-01-05 06:28:22.844483,2020-10-28 00:00:00.000000,3.71375453,4.78470371,9.45605793,82,106,210,35,52,104,1.60865605,2.34820353,4.69263724,0.03102170,0.13321279,0.43927730
53023,0,USWashingtonGarfield,Washington,Garfield,2021-01-05 06:28:22.844483,2020-10-29 00:00:00.000000,3.99066890,5.05352136,9.93949065,88,112,221,37,56,111,1.70235440,2.51727559,5.03369010,0.03105976,0.13412656,0.43764319
53023,0,USWashingtonGarfield,Washington,Garfield,2021-01-05 06:28:22.844483,2020-10-30 00:00:00.000000,4.11383670,5.35747087,10.39295719,91,119,231,39,59,119,1.78812375,2.67233592,5.38499736,0.03338446,0.13392951,0.43377902
53023,0,USWashingtonGarfield,Washington,Garfield,2021-01-05 06:28:22.844483,2020-10-31 00:00:00.000000,4.22211461,5.61236689,10.79469219,93,124,240,42,63,127,1.90610467,2.83418917,5.73948212,0.03794536,0.13151916,0.42652460
53023,0,USWashingtonGarfield,Washington,Garfield,2021-01-05 06:28:22.844483,2020-11-01 00:00:00.000000,4.31766439,5.84608604,11.13343093,96,130,247,45,66,133,2.05122924,2.99336166,6.00493277,0.03918212,0.13145900,0.41632617
53023,0,USWashingtonGarfield,Washington,Garfield,2021-01-05 06:28:22.844483,2020-11-02 00:00:00.000000,4.41028872,5.81153506,11.03127872,98,129,245,48,70,135,2.18930877,3.15011508,6.11169960,0.03859796,0.13167900,0.40487156
53023,0,USWashingtonGarfield,Washington,Garfield,2021-01-05 06:28:22.844483,2020-11-03 00:00:00.000000,4.35471917,5.73354264,10.89228680,96,127,242,49,71,136,2.23902972,3.23213807,6.15199120,0.03986388,0.12930143,0.39063599
53023,0,USWashingtonGarfield,Washington,Garfield,2021-01-05 06:28:22.844483,2020-11-04 00:00:00.000000,4.18899520,5.63538126,10.71190613,93,125,238,48,71,136,2.20082559,3.23404778,6.15714350,0.04005836,0.12795673,0.33012831
53023,0,USWashingtonGarfield,Washington,Garfield,2021-01-05 06:28:22.844483,2020-11-05 00:00:00.000000,4.03186492,5.50497853,10.50844797,89,122,233,49,72,136,2.22814141,3.24040849,6.14908220,0.04062798,0.12596514,0.29571954
53023,0,USWashingtonGarfield,Washington,Garfield,2021-01-05 06:28:22.844483,2020-11-06 00:00:00.000000,3.89307452,5.38489425,10.51672026,86,119,233,47,72,136,2.13999954,3.23971093,6.13412902,0.04195878,0.12579973,0.28923541
53023,0,USWashingtonGarfield,Washington,Garfield,2021-01-05 06:28:22.844483,2020-11-07 00:00:00.000000,3.73526228,5.27911247,10.47141318,83,117,232,45,71,136,2.04017817,3.22426291,6.11427966,0.04082717,0.12286451,0.27271417
53023,0,USWashingtonGarfield,Washington,Garfield,2021-01-05 06:28:22.844483,2020-11-08 00:00:00.000000,3.56838674,5.22972782,10.36250886,79,116,230,43,70,135,1.95385643,3.18224915,6.09024195,0.04037446,0.12310444,0.25536007
53023,0,USWashingtonGarfield,Washington,Garfield,2021-01-05 06:28:22.844483,2020-11-09 00:00:00.000000,3.34339073,5.00880756,10.09422984,74,111,224,41,69,134,1.86578106,3.13694334,6.06220047,0.04026452,0.12297904,0.25383404
53023,0,USWashingtonGarfield,Washington,Garfield,2021-01-05 06:28:22.844483,2020-11-10 00:00:00.000000,3.13835481,4.82532030,9.80690983,69,107,218,38,68,133,1.73818822,3.06182564,5.99254653,0.04035787,0.12214073,0.23876760
53023,0,USWashingtonGarfield,Washington,Garfield,2021-01-05 06:28:22.844483,2020-11-11 00:00:00.000000,2.94365458,4.59569491,9.50639849,65,102,211,37,66,129,1.67414975,2.98127327,5.83802562,0.03937664,0.12167583,0.22861505
53023,0,USWashingtonGarfield,Washington,Garfield,2021-01-05 06:28:22.844483,2020-11-12 00:00:00.000000,2.76195035,4.41674681,9.19663959,61,98,204,36,64,125,1.62235057,2.88880914,5.65714502,0.03701505,0.12268084,0.22889143
53023,0,USWashingtonGarfield,Washington,Garfield,2021-01-05 06:28:22.844483,2020-11-13 00:00:00.000000,2.59449097,4.25425692,8.87476880,57,94,197,35,61,121,1.57549979,2.76064946,5.46128576,0.03632787,0.12438422,0.22895567
53023,0,USWashingtonGarfield,Washington,Garfield,2021-01-05 06:28:22.844483,2020-11-14 00:00:00.000000,2.44164546,4.11694510,8.53605232,54,91,189,32,58,117,1.47594934,2.63920855,5.26110960,0.03670567,0.12370545,0.22827902
53023,0,USWashingtonGarfield,Washington,Garfield,2021-01-05 06:28:22.844483,2020-11-15 00:00:00.000000,2.30319301,3.92482743,8.18415567,51,87,182,30,56,112,1.37307913,2.51862838,5.06332523,0.03746118,0.12300096,0.22691527
53023,0,USWashingtonGarfield,Washington,Garfield,2021-01-05 06:28:22.844483,2020-11-16 00:00:00.000000,2.19859748,3.75217664,7.86595998,48,83,175,28,53,108,1.27660162,2.40768939,4.87147685,0.03777885,0.11994319,0.22741706
53023,0,USWashingtonGarfield,Washington,Garfield,2021-01-05 06:28:22.844483,2020-11-17 00:00:00.000000,2.10690146,3.56332304,7.67832544,46,79,170,26,51,103,1.19269230,2.31147571,4.65885040,0.03781070,0.12022210,0.22773068
53023,0,USWashingtonGarfield,Washington,Garfield,2021-01-05 06:28:22.844483,2020-11-18 00:00:00.000000,2.06875765,3.44028835,7.50255020,46,76,166,24,50,98,1.11880737,2.26631044,4.43945493,0.03757760,0.12029102,0.24013260
53023,0,USWashingtonGarfield,Washington,Garfield,2021-01-05 06:28:22.844483,2020-11-19 00:00:00.000000,1.96318482,3.36485297,7.33888902,43,74,163,23,48,93,1.07607438,2.19374470,4.22126483,0.03757308,0.11991532,0.24734031
53023,0,USWashingtonGarfield,Washington,Garfield,2021-01-05 06:28:22.844483,2020-11-20 00:00:00.000000,1.89910932,3.30925732,7.18683831,42,73,159,23,46,89,1.07854829,2.09843849,4.00885411,0.03758016,0.11820176,0.25010318
53023,0,USWashingtonGarfield,Washington,Garfield,2021-01-05 06:28:22.844483,2020-11-21 00:00:00.000000,1.83046360,3.18666062,7.04478130,40,70,156,24,44,84,1.08654771,2.01617428,3.80540172,0.03764694,0.11747199,0.25035695
53023,0,USWashingtonGarfield,Washington,Garfield,2021-01-05 06:28:22.844483,2020-11-22 00:00:00.000000,1.77934668,3.09890231,6.91047168,39,68,153,23,43,80,1.06616642,1.95870588,3.61637757,0.03791848,0.12039778,0.24754605
53023,0,USWashingtonGarfield,Washington,Garfield,2021-01-05 06:28:22.844483,2020-11-23 00:00:00.000000,1.82924548,3.04860167,6.76451712,40,67,150,23,42,77,1.04553910,1.90720517,3.46544855,0.03870748,0.12237956,0.24867141
53023,0,USWashingtonGarfield,Washington,Garfield,2021-01-05 06:28:22.844483,2020-11-24 00:00:00.000000,1.82415860,3.01491219,6.62314070,40,67,147,22,41,75,1.01076329,1.87606316,3.40595222,0.03914013,0.12266822,0.25458239
53023,0,USWashingtonGarfield,Washington,Garfield,2021-01-05 06:28:22.844483,2020-11-25 00:00:00.000000,1.78987191,2.98852779,6.48528906,39,66,144,21,40,74,0.96568734,1.82836138,3.34643641,0.03754867,0.12591829,0.25717022
53023,0,USWashingtonGarfield,Washington,Garfield,2021-01-05 06:28:22.844483,2020-11-26 00:00:00.000000,1.68363315,2.93742222,6.35123655,37,65,141,20,39,73,0.91793383,1.78900458,3.28617398,0.03674985,0.12540329,0.25836161
53023,0,USWashingtonGarfield,Washington,Garfield,2021-01-05 06:28:22.844483,2020-11-27 00:00:00.000000,1.59779428,2.91679157,6.22181921,35,64,138,19,39,71,0.87142570,1.75717027,3.22661663,0.03639551,0.12523347,0.26888457
53023,0,USWashingtonGarfield,Washington,Garfield,2021-01-05 06:28:22.844483,2020-11-28 00:00:00.000000,1.58761342,2.85728976,6.09877150,35,63,135,18,38,71,0.83590970,1.72626302,3.21766204,0.03620537,0.12742712,0.31727093
53023,0,USWashingtonGarfield,Washington,Garfield,2021-01-05 06:28:22.844483,2020-11-29 00:00:00.000000,1.57729791,2.79484469,5.97970266,35,62,133,17,37,72,0.80609599,1.66861376,3.23873624,0.03604263,0.12935027,0.33180346
53023,0,USWashingtonGarfield,Washington,Garfield,2021-01-05 06:28:22.844483,2020-11-30 00:00:00.000000,1.50986881,2.72627642,5.81958449,33,60,129,17,37,72,0.78045216,1.66905133,3.27235621,0.03584578,0.13194114,0.33417961
53023,0,USWashingtonGarfield,Washington,Garfield,2021-01-05 06:28:22.844483,2020-12-01 00:00:00.000000,1.44208364,2.64128254,5.67293641,32,58,126,16,36,72,0.76081707,1.65071312,3.27045170,0.03555541,0.13479278,0.33488635
53023,0,USWashingtonGarfield,Washington,Garfield,2021-01-05 06:28:22.844483,2020-12-02 00:00:00.000000,1.37724515,2.53915140,5.54957580,30,56,123,16,35,72,0.74480505,1.59569585,3.24993920,0.03515564,0.13504495,0.33585476
53023,0,USWashingtonGarfield,Washington,Garfield,2021-01-05 06:28:22.844483,2020-12-03 00:00:00.000000,1.33971449,2.48015463,5.47601739,29,55,121,16,34,71,0.73151715,1.56417869,3.21970843,0.03490851,0.13512531,0.35173961
53023,0,USWashingtonGarfield,Washington,Garfield,2021-01-05 06:28:22.844483,2020-12-04 00:00:00.000000,1.27596644,2.43125160,5.56615036,28,54,123,16,33,70,0.72035587,1.49751337,3.18446719,0.03416563,0.13563527,0.37370404
53023,0,USWashingtonGarfield,Washington,Garfield,2021-01-05 06:28:22.844483,2020-12-05 00:00:00.000000,1.21646133,2.37582559,5.66451831,27,52,126,15,31,70,0.71061936,1.41229984,3.14674923,0.03328914,0.13801080,0.40595734
53023,0,USWashingtonGarfield,Washington,Garfield,2021-01-05 06:28:22.844483,2020-12-06 00:00:00.000000,1.16090578,2.29283629,5.78310246,25,51,128,15,30,70,0.69461564,1.38221038,3.18216552,0.03248235,0.14592771,0.46733013
53023,0,USWashingtonGarfield,Washington,Garfield,2021-01-05 06:28:22.844483,2020-12-07 00:00:00.000000,1.15387859,2.29386734,5.84289454,25,51,130,14,30,70,0.66307298,1.37871716,3.18729682,0.03240267,0.15449931,0.54053672
53023,0,USWashingtonGarfield,Washington,Garfield,2021-01-05 06:28:22.844483,2020-12-08 00:00:00.000000,1.17077985,2.33851644,5.92788898,26,52,131,14,30,72,0.65889978,1.36441166,3.26487907,0.03224121,0.15870279,0.59280230
53023,0,USWashingtonGarfield,Washington,Garfield,2021-01-05 06:28:22.844483,2020-12-09 00:00:00.000000,1.18856940,2.32767060,6.02296420,26,51,134,14,30,75,0.66356807,1.36110388,3.40068991,0.03211170,0.16284380,0.62656384
53023,0,USWashingtonGarfield,Washington,Garfield,2021-01-05 06:28:22.844483,2020-12-10 00:00:00.000000,1.20617986,2.36073639,6.12126674,26,52,136,14,30,78,0.67036301,1.36223223,3.50696827,0.03219810,0.16988176,0.65356504
53023,0,USWashingtonGarfield,Washington,Garfield,2021-01-05 06:28:22.844483,2020-12-11 00:00:00.000000,1.22230343,2.43375097,6.25707458,27,54,139,15,30,78,0.67912663,1.36305372,3.53184456,0.03339169,0.17018406,0.67875961
53023,0,USWashingtonGarfield,Washington,Garfield,2021-01-05 06:28:22.844483,2020-12-12 00:00:00.000000,1.22981310,2.45404290,6.76062762,27,54,150,15,31,79,0.68822052,1.40071185,3.56079460,0.03469077,0.17025149,0.70317485
53023,0,USWashingtonGarfield,Washington,Garfield,2021-01-05 06:28:22.844483,2020-12-13 00:00:00.000000,1.17500974,2.47242837,7.28726039,26,55,162,15,32,80,0.68535284,1.44228763,3.59716165,0.03344726,0.18075847,0.72657458
53023,0,USWashingtonGarfield,Washington,Garfield,2021-01-05 06:28:22.844483,2020-12-14 00:00:00.000000,1.49961210,2.79309534,7.91237929,33,62,176,15,32,81,0.68155606,1.45745098,3.64628209,0.03264164,0.18155631,0.74685557
53023,0,USWashingtonGarfield,Washington,Garfield,2021-01-05 06:28:22.844483,2020-12-15 00:00:00.000000,1.79064827,3.06734298,8.55302777,39,68,190,16,33,83,0.73890017,1.51942460,3.75006110,0.03236586,0.17999551,0.76572941
53023,0,USWashingtonGarfield,Washington,Garfield,2021-01-05 06:28:22.844483,2020-12-16 00:00:00.000000,2.15681975,3.39256157,9.21174242,47,75,204,18,36,88,0.83262353,1.64219925,3.98842570,0.03230444,0.18144166,0.78408300
53023,0,USWashingtonGarfield,Washington,Garfield,2021-01-05 06:28:22.844483,2020-12-17 00:00:00.000000,2.43645445,3.66869878,9.88366605,54,81,219,21,40,95,0.98065834,1.81405936,4.30325950,0.03234654,0.18802058,0.80290845
53023,0,USWashingtonGarfield,Washington,Garfield,2021-01-05 06:28:22.844483,2020-12-18 00:00:00.000000,2.66694000,4.02013725,10.56165671,59,89,234,25,44,102,1.13983545,1.98032671,4.62732582,0.03263823,0.19668249,0.82258293
53023,0,USWashingtonGarfield,Washington,Garfield,2021-01-05 06:28:22.844483,2020-12-19 00:00:00.000000,2.88864354,4.26027998,11.23344957,64,94,249,28,46,110,1.28371557,2.07707907,4.95689409,0.03360024,0.20536494,0.84223684
53023,0,USWashingtonGarfield,Washington,Garfield,2021-01-05 06:28:22.844483,2020-12-20 00:00:00.000000,3.10285480,4.53942106,11.89580993,69,101,264,31,50,117,1.42909092,2.25107928,5.28803827,0.03468730,0.20577793,0.86002744
53023,0,USWashingtonGarfield,Washington,Garfield,2021-01-05 06:28:22.844483,2020-12-21 00:00:00.000000,3.31759111,4.89524089,12.51063377,73,108,278,35,54,124,1.58647600,2.44424476,5.61738361,0.03520817,0.20794315,0.87435151
53023,0,USWashingtonGarfield,Washington,Garfield,2021-01-05 06:28:22.844483,2020-12-22 00:00:00.000000,3.55815625,5.13797877,13.10365831,79,114,291,37,56,131,1.70510689,2.56041299,5.90834014,0.03557188,0.20336981,0.88475902
53023,0,USWashingtonGarfield,Washington,Garfield,2021-01-05 06:28:22.844483,2020-12-23 00:00:00.000000,3.84474112,5.38655244,13.66605396,85,119,304,40,59,136,1.83258556,2.68279086,6.13547367,0.03593779,0.19998538,0.89184672
53023,0,USWashingtonGarfield,Washington,Garfield,2021-01-05 06:28:22.844483,2020-12-24 00:00:00.000000,3.99700137,5.59558721,14.18283016,88,124,315,43,62,141,1.94786371,2.83088720,6.35935633,0.03624945,0.19801943,0.89434118
53023,0,USWashingtonGarfield,Washington,Garfield,2021-01-05 06:28:22.844483,2020-12-25 00:00:00.000000,4.12816190,5.79927715,14.56206860,91,129,324,45,65,146,2.04038915,2.95986047,6.57644240,0.03647004,0.19374889,0.83798766
53023,0,USWashingtonGarfield,Washington,Garfield,2021-01-05 06:28:22.844483,2020-12-26 00:00:00.000000,4.24421215,6.01169588,14.76602573,94,133,328,47,68,150,2.15111127,3.07923552,6.78323677,0.03778454,0.19339688,0.76257868
53023,0,USWashingtonGarfield,Washington,Garfield,2021-01-05 06:28:22.844483,2020-12-27 00:00:00.000000,4.33279364,6.17536452,14.82091443,96,137,329,49,71,155,2.22087416,3.22808154,6.97673248,0.03810582,0.19072557,0.70614260
53023,0,USWashingtonGarfield,Washington,Garfield,2021-01-05 06:28:22.844483,2020-12-28 00:00:00.000000,4.10864358,5.94795249,14.48929336,91,132,322,50,74,159,2.28083396,3.35014132,7.17620905,0.03661946,0.18676563,0.67898309
53023,0,USWashingtonGarfield,Washington,Garfield,2021-01-05 06:28:22.844483,2020-12-29 00:00:00.000000,3.80748030,5.81859668,14.08696086,84,129,313,51,74,162,2.29969385,3.36857572,7.29878958,0.03656938,0.19054941,0.66692703
53023,0,USWashingtonGarfield,Washington,Garfield,2021-01-05 06:28:22.844483,2020-12-30 00:00:00.000000,3.48208191,5.64404770,13.60824500,77,125,302,49,74,164,2.23125403,3.33387129,7.41320413,0.03619311,0.19395920,0.65353836
53023,0,USWashingtonGarfield,Washington,Garfield,2021-01-05 06:28:22.844483,2020-12-31 00:00:00.000000,3.21979835,5.60377788,13.71104435,71,124,305,47,72,166,2.12550371,3.26403495,7.49913301,0.03486440,0.19418985,0.64636461
53023,0,USWashingtonGarfield,Washington,Garfield,2021-01-05 06:28:22.844483,2021-01-01 00:00:00.000000,2.90369865,5.50048499,13.79827365,64,122,307,44,70,168,2.00312694,3.16315513,7.55859929,0.03483008,0.19788034,0.62945758
53023,0,USWashingtonGarfield,Washington,Garfield,2021-01-05 06:28:22.844483,2021-01-02 00:00:00.000000,2.60923731,5.27673376,13.97222106,58,117,310,40,67,168,1.83874357,3.05027692,7.59284971,0.03483013,0.19942971,0.62653111
53023,0,USWashingtonGarfield,Washington,Garfield,2021-01-05 06:28:22.844483,2021-01-03 00:00:00.000000,2.33849169,5.08927717,14.17833159,52,113,315,37,65,169,1.68315735,2.93071335,7.60274867,0.03485189,0.20577005,0.62638160
53023,0,USWashingtonGarfield,Washington,Garfield,2021-01-05 06:28:22.844483,2021-01-04 00:00:00.000000,2.09183672,4.87461671,14.33407781,46,108,318,33,62,168,1.52576087,2.82274588,7.58903255,0.03489585,0.20609234,0.64069999
53023,0,USWashingtonGarfield,Washington,Garfield,2021-01-05 06:28:22.844483,2021-01-05 00:00:00.000000,1.86859867,4.67558542,14.44179701,41,104,321,30,59,168,1.37509222,2.67867817,7.55246861,0.03496991,0.20355749,0.65261724
53023,0,USWashingtonGarfield,Washington,Garfield,2021-01-05 06:28:22.844483,2021-01-06 00:00:00.000000,1.66750190,4.47423495,14.50494576,37,99,322,27,57,166,1.23339796,2.57553200,7.49393944,0.03507393,0.20185707,0.65800115
53023,0,USWashingtonGarfield,Washington,Garfield,2021-01-05 06:28:22.844483,2021-01-07 00:00:00.000000,1.48696245,4.28118063,14.52683425,33,95,323,24,55,164,1.10199856,2.50437303,7.41447359,0.03518883,0.20084576,0.66023276
53023,0,USWashingtonGarfield,Washington,Garfield,2021-01-05 06:28:22.844483,2021-01-08 00:00:00.000000,1.32527454,4.09556138,14.51019278,29,91,322,21,54,162,0.98145635,2.42991062,7.31524578,0.03528650,0.20027834,0.66112425
53023,0,USWashingtonGarfield,Washington,Garfield,2021-01-05 06:28:22.844483,2021-01-09 00:00:00.000000,1.18081229,3.90927660,14.45722822,26,86,321,19,53,160,0.87179968,2.38281587,7.19756398,0.03535269,0.19997033,0.66147516
53023,0,USWashingtonGarfield,Washington,Garfield,2021-01-05 06:28:22.844483,2021-01-10 00:00:00.000000,1.05672732,3.74388453,14.34993427,23,83,319,17,51,160,0.77538051,2.31106495,7.19866156,0.03539094,0.19980614,0.66161253
53023,0,USWashingtonGarfield,Washington,Garfield,2021-01-05 06:28:22.844483,2021-01-11 00:00:00.000000,0.95939183,3.61908356,13.94309130,21,80,310,15,49,163,0.69163746,2.22497923,7.34617345,0.03541105,0.19971945,0.66166622
53023,0,USWashingtonGarfield,Washington,Garfield,2021-01-05 06:28:22.844483,2021-01-12 00:00:00.000000,0.87114412,3.49773355,13.51581183,19,77,300,13,47,166,0.61664858,2.14816134,7.47320112,0.03542109,0.19967392,0.66168721
53023,0,USWashingtonGarfield,Washington,Garfield,2021-01-05 06:28:22.844483,2021-01-13 00:00:00.000000,0.79108106,3.37973117,13.28331591,17,75,295,12,46,168,0.54959152,2.07536138,7.57687975,0.03542597,0.19965006,0.66169543
53023,0,USWashingtonGarfield,Washington,Garfield,2021-01-05 06:28:22.844483,2021-01-14 00:00:00.000000,0.71187037,3.26500617,13.37590049,15,72,297,10,44,170,0.48975524,1.99895127,7.66045754,0.03542832,0.19963758,0.66169866
53023,0,USWashingtonGarfield,Washington,Garfield,2021-01-05 06:28:22.844483,2021-01-15 00:00:00.000000,0.62516669,3.15350450,13.15133058,13,70,292,9,43,171,0.43661576,1.93677480,7.72302612,0.03542944,0.19963106,0.66169994
53023,0,USWashingtonGarfield,Washington,Garfield,2021-01-05 06:28:22.844483,2021-01-16 00:00:00.000000,0.54878185,3.02127832,12.50180375,12,67,278,8,41,169,0.38935165,1.87389189,7.62509869,0.03542998,0.19962765,0.66170045
53023,0,USWashingtonGarfield,Washington,Garfield,2021-01-05 06:28:22.844483,2021-01-17 00:00:00.000000,0.48154928,2.88789934,12.55586559,10,64,279,7,40,161,0.35360805,1.81248695,7.25765575,0.03543023,0.19962587,0.66170065
