FIPS,HR_UID,nameid,province,region,analysisTime,dates,pointprevalence_025,pointprevalence_50,pointprevalence_975,pointinfections_025,pointinfections_50,pointinfections_975,pointinfectious_025,pointinfectious_50,pointinfectious_975,pointinfectiousprevalence_05,pointinfectiousprevalence_50,pointinfectiousprevalence_95,infectrate_025,infectrate_50,infectrate_975
39115,0,USOhioMorgan,Ohio,Morgan,2021-01-05 13:08:32.666002,2020-03-09 00:00:00.000000,0.00444663,0.02250411,0.06722169,0,3,9,0,1,5,0.00298337,0.01096473,0.03866979,0.38498888,0.52551180,0.76029217
39115,0,USOhioMorgan,Ohio,Morgan,2021-01-05 13:08:32.666002,2020-03-10 00:00:00.000000,0.00525965,0.02598261,0.07663960,0,3,11,0,1,5,0.00280262,0.01122363,0.03842702,0.38497939,0.52549962,0.76019656
39115,0,USOhioMorgan,Ohio,Morgan,2021-01-05 13:08:32.666002,2020-03-11 00:00:00.000000,0.00605347,0.02876426,0.08619704,0,4,12,0,1,5,0.00278334,0.01176658,0.04011649,0.38495297,0.52546995,0.76006004
39115,0,USOhioMorgan,Ohio,Morgan,2021-01-05 13:08:32.666002,2020-03-12 00:00:00.000000,0.00685475,0.03112232,0.09271087,0,4,13,0,1,6,0.00287007,0.01306108,0.04298403,0.38487957,0.52387600,0.75985984
39115,0,USOhioMorgan,Ohio,Morgan,2021-01-05 13:08:32.666002,2020-03-13 00:00:00.000000,0.00741062,0.03337992,0.10136416,1,4,14,0,2,6,0.00302121,0.01381199,0.04541046,0.38467695,0.52032314,0.75460510
39115,0,USOhioMorgan,Ohio,Morgan,2021-01-05 13:08:32.666002,2020-03-14 00:00:00.000000,0.00786685,0.03575929,0.10857837,1,5,15,0,2,7,0.00321560,0.01490370,0.04841839,0.38412794,0.51634527,0.74199929
39115,0,USOhioMorgan,Ohio,Morgan,2021-01-05 13:08:32.666002,2020-03-15 00:00:00.000000,0.00833366,0.03826158,0.11553900,1,5,16,0,2,7,0.00344036,0.01638171,0.05352400,0.38271362,0.51622056,0.72632406
39115,0,USOhioMorgan,Ohio,Morgan,2021-01-05 13:08:32.666002,2020-03-16 00:00:00.000000,0.00881573,0.04087718,0.12282052,1,5,17,0,2,8,0.00368606,0.01800008,0.05889593,0.37950027,0.51563699,0.70771667
39115,0,USOhioMorgan,Ohio,Morgan,2021-01-05 13:08:32.666002,2020-03-17 00:00:00.000000,0.00931624,0.04432935,0.13045784,1,6,18,0,2,9,0.00394703,0.01974419,0.06455116,0.37904890,0.50656249,0.69779553
39115,0,USOhioMorgan,Ohio,Morgan,2021-01-05 13:08:32.666002,2020-03-18 00:00:00.000000,0.00983601,0.04871696,0.13844477,1,7,20,0,3,10,0.00422005,0.02162621,0.07049150,0.36723398,0.49155892,0.69118304
39115,0,USOhioMorgan,Ohio,Morgan,2021-01-05 13:08:32.666002,2020-03-19 00:00:00.000000,0.01036934,0.05404375,0.14662449,1,7,21,0,3,11,0.00450322,0.02405853,0.07612369,0.34209813,0.48144810,0.67780340
39115,0,USOhioMorgan,Ohio,Morgan,2021-01-05 13:08:32.666002,2020-03-20 00:00:00.000000,0.01089184,0.05811720,0.15434641,1,8,22,0,3,11,0.00479460,0.02635555,0.08190786,0.29984422,0.46616710,0.67205734
39115,0,USOhioMorgan,Ohio,Morgan,2021-01-05 13:08:32.666002,2020-03-21 00:00:00.000000,0.01134794,0.06102170,0.16029781,1,8,23,0,4,12,0.00508946,0.02905734,0.08788515,0.27811458,0.44960774,0.66821787
39115,0,USOhioMorgan,Ohio,Morgan,2021-01-05 13:08:32.666002,2020-03-22 00:00:00.000000,0.01169814,0.06393820,0.16421056,1,9,23,0,4,13,0.00537640,0.03182120,0.09402957,0.25808121,0.41861799,0.65353799
39115,0,USOhioMorgan,Ohio,Morgan,2021-01-05 13:08:32.666002,2020-03-23 00:00:00.000000,0.01943280,0.07877696,0.18981773,2,11,27,0,4,14,0.00564139,0.03333017,0.10031274,0.24660705,0.39872157,0.62971793
39115,0,USOhioMorgan,Ohio,Morgan,2021-01-05 13:08:32.666002,2020-03-24 00:00:00.000000,0.02672536,0.09409219,0.21512517,3,13,31,0,5,15,0.00688349,0.03771543,0.10940037,0.24049551,0.38841913,0.63265275
39115,0,USOhioMorgan,Ohio,Morgan,2021-01-05 13:08:32.666002,2020-03-25 00:00:00.000000,0.03214305,0.10928216,0.24083679,4,15,34,1,6,17,0.00834637,0.04243981,0.12028223,0.23557175,0.37854282,0.63169461
39115,0,USOhioMorgan,Ohio,Morgan,2021-01-05 13:08:32.666002,2020-03-26 00:00:00.000000,0.03777378,0.12295253,0.26671690,5,17,38,1,6,19,0.01194152,0.04751853,0.13100337,0.23022856,0.34675912,0.58644129
39115,0,USOhioMorgan,Ohio,Morgan,2021-01-05 13:08:32.666002,2020-03-27 00:00:00.000000,0.04361856,0.13593164,0.29201415,6,19,42,2,8,20,0.01615718,0.05579694,0.14195007,0.20977586,0.32942502,0.52797966
39115,0,USOhioMorgan,Ohio,Morgan,2021-01-05 13:08:32.666002,2020-03-28 00:00:00.000000,0.04967613,0.14672095,0.31678525,7,21,45,2,9,22,0.01926856,0.06363931,0.15267732,0.19604111,0.30897913,0.50277465
39115,0,USOhioMorgan,Ohio,Morgan,2021-01-05 13:08:32.666002,2020-03-29 00:00:00.000000,0.05594428,0.15788742,0.34148626,8,22,49,3,10,23,0.02230355,0.06998452,0.16245072,0.18914090,0.29027570,0.48923765
39115,0,USOhioMorgan,Ohio,Morgan,2021-01-05 13:08:32.666002,2020-03-30 00:00:00.000000,0.06945610,0.17053914,0.35028229,10,24,50,3,10,24,0.02550530,0.07558331,0.17090367,0.18337800,0.27359653,0.47598574
39115,0,USOhioMorgan,Ohio,Morgan,2021-01-05 13:08:32.666002,2020-03-31 00:00:00.000000,0.07544960,0.18486377,0.35882315,10,26,52,4,11,25,0.02937038,0.08196484,0.17851199,0.17025849,0.26600918,0.46112620
39115,0,USOhioMorgan,Ohio,Morgan,2021-01-05 13:08:32.666002,2020-04-01 00:00:00.000000,0.08285463,0.19688895,0.36693715,12,28,53,4,12,26,0.03370064,0.08851559,0.18542345,0.16002783,0.25931944,0.44442338
39115,0,USOhioMorgan,Ohio,Morgan,2021-01-05 13:08:32.666002,2020-04-02 00:00:00.000000,0.09167763,0.20818647,0.38120702,13,30,55,5,13,27,0.03820069,0.09415657,0.19176442,0.15724522,0.25560818,0.42654103
39115,0,USOhioMorgan,Ohio,Morgan,2021-01-05 13:08:32.666002,2020-04-03 00:00:00.000000,0.10031002,0.21860216,0.39423166,14,31,57,6,14,28,0.04300151,0.10250183,0.19777696,0.15574380,0.24875709,0.40776282
39115,0,USOhioMorgan,Ohio,Morgan,2021-01-05 13:08:32.666002,2020-04-04 00:00:00.000000,0.10878040,0.23154135,0.41635995,15,33,60,6,15,29,0.04773374,0.10863011,0.20350384,0.13915035,0.23865390,0.38325185
39115,0,USOhioMorgan,Ohio,Morgan,2021-01-05 13:08:32.666002,2020-04-05 00:00:00.000000,0.11711020,0.24358409,0.43672303,16,35,63,7,16,30,0.05246925,0.11382170,0.20892338,0.13117177,0.21995664,0.37735201
39115,0,USOhioMorgan,Ohio,Morgan,2021-01-05 13:08:32.666002,2020-04-06 00:00:00.000000,0.13183912,0.25408935,0.45303050,19,36,65,8,17,31,0.05717793,0.12265101,0.21984937,0.13076649,0.21702048,0.36466223
39115,0,USOhioMorgan,Ohio,Morgan,2021-01-05 13:08:32.666002,2020-04-07 00:00:00.000000,0.14635891,0.26262768,0.46665028,21,38,67,9,18,33,0.06312755,0.13002998,0.23175848,0.12944421,0.21541569,0.35104949
39115,0,USOhioMorgan,Ohio,Morgan,2021-01-05 13:08:32.666002,2020-04-08 00:00:00.000000,0.16048848,0.27424817,0.48025190,23,39,69,10,19,35,0.06988972,0.13784537,0.24176526,0.12817016,0.20953525,0.31742826
39115,0,USOhioMorgan,Ohio,Morgan,2021-01-05 13:08:32.666002,2020-04-09 00:00:00.000000,0.16599000,0.28448332,0.50408461,24,41,73,11,20,36,0.07639319,0.14413669,0.25252822,0.12834945,0.20059921,0.30579691
39115,0,USOhioMorgan,Ohio,Morgan,2021-01-05 13:08:32.666002,2020-04-10 00:00:00.000000,0.17665687,0.29287629,0.51620756,25,42,74,12,21,37,0.08447924,0.14703572,0.25966423,0.12722043,0.19296532,0.28557366
39115,0,USOhioMorgan,Ohio,Morgan,2021-01-05 13:08:32.666002,2020-04-11 00:00:00.000000,0.18923756,0.29680425,0.52280227,27,43,75,12,21,38,0.08691684,0.15067164,0.26858144,0.12114881,0.18160900,0.28117041
39115,0,USOhioMorgan,Ohio,Morgan,2021-01-05 13:08:32.666002,2020-04-12 00:00:00.000000,0.19197209,0.30164159,0.52870973,27,43,76,12,22,40,0.08942064,0.15375777,0.28013525,0.11799942,0.17610507,0.26718360
39115,0,USOhioMorgan,Ohio,Morgan,2021-01-05 13:08:32.666002,2020-04-13 00:00:00.000000,0.19663982,0.30927689,0.53290226,28,44,77,14,23,42,0.09675936,0.16074726,0.28991664,0.11014166,0.17376632,0.26072441
39115,0,USOhioMorgan,Ohio,Morgan,2021-01-05 13:08:32.666002,2020-04-14 00:00:00.000000,0.19888794,0.31313688,0.53719158,28,45,77,14,24,42,0.09910000,0.16621662,0.29333747,0.10493751,0.17277006,0.25908968
39115,0,USOhioMorgan,Ohio,Morgan,2021-01-05 13:08:32.666002,2020-04-15 00:00:00.000000,0.20482881,0.31671917,0.53901988,29,45,78,14,24,42,0.09943145,0.16947000,0.29407935,0.10383913,0.16910523,0.24996444
39115,0,USOhioMorgan,Ohio,Morgan,2021-01-05 13:08:32.666002,2020-04-16 00:00:00.000000,0.20055104,0.32479393,0.53760621,29,47,77,14,24,42,0.10169737,0.17221573,0.29393010,0.10528431,0.16413519,0.23674399
39115,0,USOhioMorgan,Ohio,Morgan,2021-01-05 13:08:32.666002,2020-04-17 00:00:00.000000,0.19799708,0.32739502,0.53400904,28,47,77,14,25,42,0.10096076,0.17430444,0.29308553,0.10380845,0.15839857,0.23058767
39115,0,USOhioMorgan,Ohio,Morgan,2021-01-05 13:08:32.666002,2020-04-18 00:00:00.000000,0.19720864,0.32922221,0.52945305,28,47,76,14,25,42,0.09889217,0.17387387,0.29473370,0.10071376,0.15152245,0.22554335
39115,0,USOhioMorgan,Ohio,Morgan,2021-01-05 13:08:32.666002,2020-04-19 00:00:00.000000,0.19619344,0.33191057,0.52785258,28,48,76,14,25,43,0.09797233,0.17703641,0.29852138,0.09490534,0.14915358,0.22300171
39115,0,USOhioMorgan,Ohio,Morgan,2021-01-05 13:08:32.666002,2020-04-20 00:00:00.000000,0.20259108,0.33154570,0.52422613,29,48,76,14,25,43,0.09771621,0.17823922,0.30219639,0.09171562,0.14598400,0.22083217
39115,0,USOhioMorgan,Ohio,Morgan,2021-01-05 13:08:32.666002,2020-04-21 00:00:00.000000,0.20891416,0.33502383,0.52234302,30,48,75,14,25,44,0.09803910,0.17905715,0.30653348,0.09143659,0.14569552,0.21603588
39115,0,USOhioMorgan,Ohio,Morgan,2021-01-05 13:08:32.666002,2020-04-22 00:00:00.000000,0.21503825,0.33667271,0.52144233,31,48,75,15,26,44,0.10354599,0.17926618,0.30648520,0.09046538,0.14157766,0.20884852
39115,0,USOhioMorgan,Ohio,Morgan,2021-01-05 13:08:32.666002,2020-04-23 00:00:00.000000,0.22111853,0.33649659,0.52725576,32,48,76,15,25,44,0.10728350,0.17916216,0.30770636,0.08892998,0.14098883,0.20203955
39115,0,USOhioMorgan,Ohio,Morgan,2021-01-05 13:08:32.666002,2020-04-24 00:00:00.000000,0.22301344,0.33579173,0.55931022,32,48,81,16,26,44,0.11119583,0.18030662,0.30855390,0.08502256,0.13826637,0.20025054
39115,0,USOhioMorgan,Ohio,Morgan,2021-01-05 13:08:32.666002,2020-04-25 00:00:00.000000,0.21716096,0.33521627,0.58975908,31,48,85,16,26,44,0.11544779,0.18130978,0.30925566,0.08135085,0.13672055,0.20243817
39115,0,USOhioMorgan,Ohio,Morgan,2021-01-05 13:08:32.666002,2020-04-26 00:00:00.000000,0.20864512,0.33565151,0.60895236,30,48,88,17,26,45,0.11818773,0.18155857,0.31296154,0.07878798,0.13404302,0.20086982
39115,0,USOhioMorgan,Ohio,Morgan,2021-01-05 13:08:32.666002,2020-04-27 00:00:00.000000,0.20956502,0.33746993,0.61330486,30,48,88,16,26,47,0.11386861,0.18310564,0.32623668,0.07733231,0.13183379,0.19871166
39115,0,USOhioMorgan,Ohio,Morgan,2021-01-05 13:08:32.666002,2020-04-28 00:00:00.000000,0.21089576,0.34379154,0.61759094,30,49,89,16,26,48,0.11147099,0.18418169,0.33573754,0.07575409,0.13090301,0.19637669
39115,0,USOhioMorgan,Ohio,Morgan,2021-01-05 13:08:32.666002,2020-04-29 00:00:00.000000,0.21300694,0.34718959,0.62186459,30,50,90,16,26,49,0.11037489,0.18488385,0.34238307,0.07548751,0.13076962,0.19425804
39115,0,USOhioMorgan,Ohio,Morgan,2021-01-05 13:08:32.666002,2020-04-30 00:00:00.000000,0.21180139,0.34584488,0.62607578,30,50,90,15,26,50,0.10849861,0.18340874,0.34685859,0.07543171,0.13009166,0.19242057
39115,0,USOhioMorgan,Ohio,Morgan,2021-01-05 13:08:32.666002,2020-05-01 00:00:00.000000,0.20660437,0.34731284,0.63158600,29,50,91,15,26,50,0.10592071,0.18348817,0.34966238,0.07386942,0.12761337,0.19060998
39115,0,USOhioMorgan,Ohio,Morgan,2021-01-05 13:08:32.666002,2020-05-02 00:00:00.000000,0.20130647,0.34583576,0.63676453,29,50,92,15,27,50,0.10340230,0.18854254,0.35114729,0.07191261,0.12615140,0.18579119
39115,0,USOhioMorgan,Ohio,Morgan,2021-01-05 13:08:32.666002,2020-05-03 00:00:00.000000,0.19625530,0.34550531,0.63940052,28,50,92,14,28,51,0.10095867,0.19310411,0.35157334,0.07006406,0.12396523,0.18030763
39115,0,USOhioMorgan,Ohio,Morgan,2021-01-05 13:08:32.666002,2020-05-04 00:00:00.000000,0.18613088,0.33305611,0.62976033,27,48,91,15,28,50,0.10436700,0.19382669,0.35115781,0.06944689,0.12323477,0.18080324
39115,0,USOhioMorgan,Ohio,Morgan,2021-01-05 13:08:32.666002,2020-05-05 00:00:00.000000,0.17619196,0.31776899,0.61587651,25,46,89,14,27,50,0.10075693,0.19238397,0.34832766,0.06925370,0.12280868,0.18093886
39115,0,USOhioMorgan,Ohio,Morgan,2021-01-05 13:08:32.666002,2020-05-06 00:00:00.000000,0.16628718,0.30273083,0.59848913,24,43,86,13,27,49,0.09502694,0.18705982,0.34231251,0.06920616,0.12229740,0.17888646
39115,0,USOhioMorgan,Ohio,Morgan,2021-01-05 13:08:32.666002,2020-05-07 00:00:00.000000,0.15648874,0.28808845,0.57945903,22,41,84,12,26,48,0.08924006,0.17958184,0.33501373,0.06727115,0.12237632,0.17493124
39115,0,USOhioMorgan,Ohio,Morgan,2021-01-05 13:08:32.666002,2020-05-08 00:00:00.000000,0.15029379,0.27774534,0.55990326,21,40,81,12,25,47,0.08355181,0.17405980,0.32649774,0.06650382,0.12064271,0.16959865
39115,0,USOhioMorgan,Ohio,Morgan,2021-01-05 13:08:32.666002,2020-05-09 00:00:00.000000,0.14208206,0.26855493,0.54034278,20,38,78,11,24,46,0.07904751,0.16883851,0.31719722,0.06598278,0.11968572,0.17730394
39115,0,USOhioMorgan,Ohio,Morgan,2021-01-05 13:08:32.666002,2020-05-10 00:00:00.000000,0.13427586,0.25828110,0.52105247,19,37,75,10,23,44,0.07470605,0.16241055,0.30728091,0.06556258,0.11965758,0.17786820
39115,0,USOhioMorgan,Ohio,Morgan,2021-01-05 13:08:32.666002,2020-05-11 00:00:00.000000,0.12681647,0.24695182,0.50234183,18,35,72,10,22,43,0.07047715,0.15598447,0.29694910,0.06400677,0.11945816,0.17680112
39115,0,USOhioMorgan,Ohio,Morgan,2021-01-05 13:08:32.666002,2020-05-12 00:00:00.000000,0.11954634,0.23738110,0.48464758,17,34,70,9,21,41,0.06801238,0.14989424,0.28662846,0.06427493,0.11837801,0.17574531
39115,0,USOhioMorgan,Ohio,Morgan,2021-01-05 13:08:32.666002,2020-05-13 00:00:00.000000,0.11248526,0.23090653,0.46579652,16,33,67,9,20,40,0.06622438,0.14388766,0.27642222,0.06424889,0.11763789,0.17476273
39115,0,USOhioMorgan,Ohio,Morgan,2021-01-05 13:08:32.666002,2020-05-14 00:00:00.000000,0.10576385,0.22416178,0.44322454,15,32,64,9,20,38,0.06455091,0.13803888,0.26639524,0.06210807,0.11852128,0.17386445
39115,0,USOhioMorgan,Ohio,Morgan,2021-01-05 13:08:32.666002,2020-05-15 00:00:00.000000,0.09941485,0.21631803,0.42330881,14,31,61,8,19,37,0.06077319,0.13184474,0.25828166,0.05628339,0.11944170,0.17302813
39115,0,USOhioMorgan,Ohio,Morgan,2021-01-05 13:08:32.666002,2020-05-16 00:00:00.000000,0.09337557,0.20892109,0.40523868,13,30,58,8,18,36,0.05628086,0.12598625,0.25090331,0.05609757,0.11981418,0.17137070
39115,0,USOhioMorgan,Ohio,Morgan,2021-01-05 13:08:32.666002,2020-05-17 00:00:00.000000,0.08628989,0.19994047,0.38827106,12,29,56,7,17,35,0.05207317,0.12104669,0.24357596,0.05609666,0.11968562,0.16845249
39115,0,USOhioMorgan,Ohio,Morgan,2021-01-05 13:08:32.666002,2020-05-18 00:00:00.000000,0.09045538,0.20575177,0.38077988,13,29,55,6,16,34,0.04816385,0.11678048,0.23633725,0.05622730,0.12028705,0.16646996
39115,0,USOhioMorgan,Ohio,Morgan,2021-01-05 13:08:32.666002,2020-05-19 00:00:00.000000,0.09586072,0.20704346,0.37870623,13,30,54,6,16,33,0.04663501,0.11483185,0.23005588,0.05642564,0.11970908,0.17029578
39115,0,USOhioMorgan,Ohio,Morgan,2021-01-05 13:08:32.666002,2020-05-20 00:00:00.000000,0.10043098,0.21092584,0.38465699,14,30,55,6,16,32,0.04674877,0.11515504,0.22453840,0.05668872,0.12094821,0.17120430
39115,0,USOhioMorgan,Ohio,Morgan,2021-01-05 13:08:32.666002,2020-05-21 00:00:00.000000,0.10564224,0.21426367,0.37942835,15,31,55,6,16,31,0.04797026,0.11528183,0.21963823,0.05766712,0.12204054,0.17166793
39115,0,USOhioMorgan,Ohio,Morgan,2021-01-05 13:08:32.666002,2020-05-22 00:00:00.000000,0.11155746,0.21917029,0.37631880,16,31,54,7,16,31,0.04985411,0.11564137,0.21524476,0.05880404,0.12150230,0.17103537
39115,0,USOhioMorgan,Ohio,Morgan,2021-01-05 13:08:32.666002,2020-05-23 00:00:00.000000,0.11781571,0.21999794,0.39485784,17,31,57,7,16,32,0.05219623,0.11661117,0.22190896,0.05937855,0.12135239,0.17311088
39115,0,USOhioMorgan,Ohio,Morgan,2021-01-05 13:08:32.666002,2020-05-24 00:00:00.000000,0.12415263,0.21796540,0.41876226,18,31,60,7,17,32,0.05478894,0.11890244,0.22684468,0.05965351,0.12118917,0.17733021
39115,0,USOhioMorgan,Ohio,Morgan,2021-01-05 13:08:32.666002,2020-05-25 00:00:00.000000,0.12656703,0.22470242,0.42914080,18,32,62,8,17,32,0.05749280,0.12127620,0.22401569,0.05980829,0.12130096,0.17827478
39115,0,USOhioMorgan,Ohio,Morgan,2021-01-05 13:08:32.666002,2020-05-26 00:00:00.000000,0.12885210,0.23317401,0.43939908,18,33,63,8,18,32,0.06181679,0.12416164,0.22115857,0.05985531,0.12299948,0.17786972
39115,0,USOhioMorgan,Ohio,Morgan,2021-01-05 13:08:32.666002,2020-05-27 00:00:00.000000,0.13086018,0.23842444,0.44885023,18,34,65,9,18,32,0.06714212,0.12623123,0.22167370,0.05885910,0.12207378,0.17937474
39115,0,USOhioMorgan,Ohio,Morgan,2021-01-05 13:08:32.666002,2020-05-28 00:00:00.000000,0.13258825,0.24515085,0.45665080,19,35,66,10,18,32,0.06991000,0.12939666,0.22741785,0.05867343,0.11864544,0.17988668
39115,0,USOhioMorgan,Ohio,Morgan,2021-01-05 13:08:32.666002,2020-05-29 00:00:00.000000,0.13404617,0.24792323,0.46259723,19,35,67,10,18,33,0.07124914,0.12920901,0.23279739,0.05884145,0.12061451,0.18198879
39115,0,USOhioMorgan,Ohio,Morgan,2021-01-05 13:08:32.666002,2020-05-30 00:00:00.000000,0.13529793,0.25004311,0.46771591,19,36,67,10,18,34,0.07237460,0.13072459,0.23787547,0.05934089,0.12132083,0.18417980
39115,0,USOhioMorgan,Ohio,Morgan,2021-01-05 13:08:32.666002,2020-05-31 00:00:00.000000,0.13641797,0.25265953,0.47230493,19,36,68,10,19,35,0.07332733,0.13518808,0.24272700,0.06165955,0.12118075,0.18496407
39115,0,USOhioMorgan,Ohio,Morgan,2021-01-05 13:08:32.666002,2020-06-01 00:00:00.000000,0.13227909,0.24472164,0.45527320,19,35,66,10,19,35,0.07414789,0.13550029,0.24747603,0.05934131,0.12062273,0.19026077
39115,0,USOhioMorgan,Ohio,Morgan,2021-01-05 13:08:32.666002,2020-06-02 00:00:00.000000,0.12531663,0.23650087,0.43837915,18,34,63,10,19,36,0.07379734,0.13398384,0.24885292,0.05860351,0.11991242,0.19981102
39115,0,USOhioMorgan,Ohio,Morgan,2021-01-05 13:08:32.666002,2020-06-03 00:00:00.000000,0.11829189,0.22426164,0.43110958,17,32,62,10,19,35,0.07268623,0.13132372,0.24788038,0.05724271,0.11932027,0.20266875
39115,0,USOhioMorgan,Ohio,Morgan,2021-01-05 13:08:32.666002,2020-06-04 00:00:00.000000,0.11140097,0.21458490,0.42335655,16,31,61,10,18,35,0.07109097,0.12819488,0.24529104,0.05705958,0.11860255,0.20349891
39115,0,USOhioMorgan,Ohio,Morgan,2021-01-05 13:08:32.666002,2020-06-05 00:00:00.000000,0.10477222,0.20707841,0.41527888,15,30,60,9,18,35,0.06786248,0.12408459,0.24162920,0.05690430,0.11795589,0.20454618
39115,0,USOhioMorgan,Ohio,Morgan,2021-01-05 13:08:32.666002,2020-06-06 00:00:00.000000,0.09848041,0.19799136,0.40701215,14,28,59,9,17,34,0.06422126,0.12052661,0.23730630,0.05676469,0.11826401,0.20242643
39115,0,USOhioMorgan,Ohio,Morgan,2021-01-05 13:08:32.666002,2020-06-07 00:00:00.000000,0.09235083,0.18893671,0.39865894,13,27,57,8,17,33,0.06060920,0.11758443,0.23262965,0.05673267,0.11878817,0.19609293
39115,0,USOhioMorgan,Ohio,Morgan,2021-01-05 13:08:32.666002,2020-06-08 00:00:00.000000,0.09668300,0.19996753,0.40124420,14,29,58,8,16,33,0.05710694,0.11417794,0.22781559,0.05697792,0.11891230,0.19662187
39115,0,USOhioMorgan,Ohio,Morgan,2021-01-05 13:08:32.666002,2020-06-09 00:00:00.000000,0.10233364,0.20167126,0.40807042,14,29,59,8,16,32,0.05666705,0.11227028,0.22724647,0.05775588,0.11901111,0.19777099
39115,0,USOhioMorgan,Ohio,Morgan,2021-01-05 13:08:32.666002,2020-06-10 00:00:00.000000,0.10644154,0.20732277,0.42375782,15,30,61,8,16,33,0.05736581,0.11486157,0.22972485,0.05925413,0.11910528,0.20747516
39115,0,USOhioMorgan,Ohio,Morgan,2021-01-05 13:08:32.666002,2020-06-11 00:00:00.000000,0.11254673,0.21583377,0.43980159,16,31,63,8,17,34,0.05888090,0.11885532,0.23436939,0.05455008,0.11965069,0.21717466
39115,0,USOhioMorgan,Ohio,Morgan,2021-01-05 13:08:32.666002,2020-06-12 00:00:00.000000,0.11464553,0.22117024,0.46116308,16,32,66,8,17,34,0.06056202,0.11990581,0.24053369,0.04983470,0.11876329,0.22525772
39115,0,USOhioMorgan,Ohio,Morgan,2021-01-05 13:08:32.666002,2020-06-13 00:00:00.000000,0.11504322,0.22840415,0.51243476,16,33,74,9,17,35,0.06357906,0.12299882,0.24774378,0.04723111,0.12116658,0.23188834
39115,0,USOhioMorgan,Ohio,Morgan,2021-01-05 13:08:32.666002,2020-06-14 00:00:00.000000,0.11430084,0.23648613,0.56193149,16,34,81,9,18,37,0.06536070,0.12479999,0.25565325,0.04831600,0.12089242,0.23550354
39115,0,USOhioMorgan,Ohio,Morgan,2021-01-05 13:08:32.666002,2020-06-15 00:00:00.000000,0.12012745,0.24798044,0.55335460,17,35,80,9,18,38,0.06480266,0.12884837,0.26401275,0.04941242,0.12166322,0.23660352
39115,0,USOhioMorgan,Ohio,Morgan,2021-01-05 13:08:32.666002,2020-06-16 00:00:00.000000,0.12476325,0.24826604,0.59912452,18,36,86,9,19,40,0.06675268,0.13118599,0.28008860,0.05123466,0.12279270,0.23703168
39115,0,USOhioMorgan,Ohio,Morgan,2021-01-05 13:08:32.666002,2020-06-17 00:00:00.000000,0.12950996,0.25780193,0.62232973,18,37,90,9,19,43,0.06812187,0.13496867,0.30134820,0.05484206,0.12424370,0.23720273
39115,0,USOhioMorgan,Ohio,Morgan,2021-01-05 13:08:32.666002,2020-06-18 00:00:00.000000,0.13427863,0.27458527,0.61943923,19,39,89,10,20,47,0.07116631,0.13948225,0.32489294,0.05608661,0.12273649,0.23719727
39115,0,USOhioMorgan,Ohio,Morgan,2021-01-05 13:08:32.666002,2020-06-19 00:00:00.000000,0.13899856,0.28741361,0.61540715,20,41,89,10,21,47,0.07391668,0.14487529,0.32449094,0.05688482,0.12449767,0.23679480
39115,0,USOhioMorgan,Ohio,Morgan,2021-01-05 13:08:32.666002,2020-06-20 00:00:00.000000,0.14191776,0.29666017,0.61989789,20,43,89,10,22,46,0.07579892,0.15444114,0.32344830,0.05821983,0.12393865,0.23504864
39115,0,USOhioMorgan,Ohio,Morgan,2021-01-05 13:08:32.666002,2020-06-21 00:00:00.000000,0.14293201,0.30149226,0.66018074,20,43,95,11,22,46,0.07779747,0.15608497,0.32186913,0.05944096,0.12365295,0.22945891
39115,0,USOhioMorgan,Ohio,Morgan,2021-01-05 13:08:32.666002,2020-06-22 00:00:00.000000,0.16632694,0.30618343,0.66047991,24,44,95,11,23,49,0.07915029,0.15910961,0.33942046,0.06122694,0.12422849,0.21975287
39115,0,USOhioMorgan,Ohio,Morgan,2021-01-05 13:08:32.666002,2020-06-23 00:00:00.000000,0.18629372,0.30513120,0.66020899,27,44,95,12,23,51,0.08537217,0.16110316,0.35625593,0.06330012,0.12518639,0.21235610
39115,0,USOhioMorgan,Ohio,Morgan,2021-01-05 13:08:32.666002,2020-06-24 00:00:00.000000,0.19578539,0.31825854,0.66556474,28,46,96,13,24,53,0.09114977,0.16563569,0.36840423,0.06349863,0.12562205,0.20670333
39115,0,USOhioMorgan,Ohio,Morgan,2021-01-05 13:08:32.666002,2020-06-25 00:00:00.000000,0.19450830,0.32289748,0.68432342,28,46,99,14,24,54,0.09802700,0.17173505,0.37701527,0.06256635,0.12533491,0.20846727
39115,0,USOhioMorgan,Ohio,Morgan,2021-01-05 13:08:32.666002,2020-06-26 00:00:00.000000,0.19647075,0.33120994,0.70226726,28,48,101,14,25,55,0.09966445,0.17615389,0.38296806,0.06098721,0.12350862,0.21043408
39115,0,USOhioMorgan,Ohio,Morgan,2021-01-05 13:08:32.666002,2020-06-27 00:00:00.000000,0.19591925,0.34591628,0.68893953,28,50,99,14,26,56,0.10088731,0.18115344,0.38692598,0.06072264,0.12536811,0.21185945
39115,0,USOhioMorgan,Ohio,Morgan,2021-01-05 13:08:32.666002,2020-06-28 00:00:00.000000,0.19548098,0.35344101,0.66811503,28,51,96,15,27,56,0.10483530,0.19031601,0.38938620,0.06229108,0.12630010,0.21332178
39115,0,USOhioMorgan,Ohio,Morgan,2021-01-05 13:08:32.666002,2020-06-29 00:00:00.000000,0.20136485,0.35132896,0.66200833,29,50,96,15,28,56,0.10763838,0.19554336,0.38855846,0.06312492,0.12757077,0.21470340
39115,0,USOhioMorgan,Ohio,Morgan,2021-01-05 13:08:32.666002,2020-06-30 00:00:00.000000,0.20190902,0.34764762,0.68030757,29,50,98,15,28,55,0.10799157,0.19722297,0.37953252,0.06090609,0.12752929,0.22103138
39115,0,USOhioMorgan,Ohio,Morgan,2021-01-05 13:08:32.666002,2020-07-01 00:00:00.000000,0.20017572,0.35316365,0.69743314,29,51,101,15,28,53,0.10779290,0.19593753,0.36991037,0.05967666,0.12697409,0.22269744
39115,0,USOhioMorgan,Ohio,Morgan,2021-01-05 13:08:32.666002,2020-07-02 00:00:00.000000,0.20280652,0.35648857,0.70056269,29,51,101,15,28,53,0.10729800,0.19780852,0.36733315,0.05907303,0.12830023,0.22304074
39115,0,USOhioMorgan,Ohio,Morgan,2021-01-05 13:08:32.666002,2020-07-03 00:00:00.000000,0.20305275,0.36038206,0.72971195,29,52,105,16,30,54,0.11081698,0.20710726,0.37779480,0.05962934,0.12994070,0.22631959
39115,0,USOhioMorgan,Ohio,Morgan,2021-01-05 13:08:32.666002,2020-07-04 00:00:00.000000,0.19995247,0.37036327,0.73052999,29,53,105,15,29,54,0.10621836,0.20671328,0.37851601,0.06076420,0.12932977,0.23113035
39115,0,USOhioMorgan,Ohio,Morgan,2021-01-05 13:08:32.666002,2020-07-05 00:00:00.000000,0.19862763,0.38487921,0.71801849,28,55,104,15,30,54,0.10422221,0.20875542,0.37415768,0.06277217,0.12909179,0.23625595
39115,0,USOhioMorgan,Ohio,Morgan,2021-01-05 13:08:32.666002,2020-07-06 00:00:00.000000,0.19793166,0.38461420,0.71010838,28,55,103,14,30,53,0.10310761,0.21144005,0.36932365,0.06595644,0.12962257,0.24676674
39115,0,USOhioMorgan,Ohio,Morgan,2021-01-05 13:08:32.666002,2020-07-07 00:00:00.000000,0.19790683,0.39245547,0.71117077,28,56,103,14,31,55,0.10249038,0.21804935,0.38077667,0.06801520,0.13176348,0.24687979
39115,0,USOhioMorgan,Ohio,Morgan,2021-01-05 13:08:32.666002,2020-07-08 00:00:00.000000,0.19839470,0.40064055,0.73589616,28,58,106,14,31,56,0.10261606,0.22025341,0.39169751,0.06802169,0.13257500,0.25320188
39115,0,USOhioMorgan,Ohio,Morgan,2021-01-05 13:08:32.666002,2020-07-09 00:00:00.000000,0.19922374,0.40151253,0.73800959,28,58,107,14,32,58,0.10281213,0.22522793,0.40126099,0.06801820,0.13298106,0.25524465
39115,0,USOhioMorgan,Ohio,Morgan,2021-01-05 13:08:32.666002,2020-07-10 00:00:00.000000,0.20029396,0.40683431,0.74576691,29,59,108,14,33,58,0.10304055,0.23411362,0.40645213,0.06631411,0.13559007,0.24746402
39115,0,USOhioMorgan,Ohio,Morgan,2021-01-05 13:08:32.666002,2020-07-11 00:00:00.000000,0.20305454,0.41684758,0.79032055,29,60,114,14,34,58,0.10328111,0.23880899,0.40227075,0.06476028,0.13889130,0.24965159
39115,0,USOhioMorgan,Ohio,Morgan,2021-01-05 13:08:32.666002,2020-07-12 00:00:00.000000,0.20773901,0.42507591,0.83406350,30,61,121,15,35,59,0.10358045,0.24281093,0.40957611,0.06385275,0.14300758,0.24867519
39115,0,USOhioMorgan,Ohio,Morgan,2021-01-05 13:08:32.666002,2020-07-13 00:00:00.000000,0.22219687,0.43730428,0.83792383,32,63,121,15,36,59,0.10387086,0.24919037,0.40802643,0.06340276,0.14471361,0.24584496
39115,0,USOhioMorgan,Ohio,Morgan,2021-01-05 13:08:32.666002,2020-07-14 00:00:00.000000,0.23434254,0.44574659,0.84084795,33,64,121,14,37,60,0.10296103,0.25805026,0.41485154,0.06326802,0.14467624,0.25032050
39115,0,USOhioMorgan,Ohio,Morgan,2021-01-05 13:08:32.666002,2020-07-15 00:00:00.000000,0.22459819,0.44100356,0.84248227,32,63,122,15,37,61,0.10746262,0.25907984,0.42127697,0.06280965,0.14411257,0.25614430
39115,0,USOhioMorgan,Ohio,Morgan,2021-01-05 13:08:32.666002,2020-07-16 00:00:00.000000,0.21506425,0.44863557,0.84317893,31,65,122,15,37,61,0.10922131,0.25965752,0.42660573,0.06233096,0.14460517,0.26743402
39115,0,USOhioMorgan,Ohio,Morgan,2021-01-05 13:08:32.666002,2020-07-17 00:00:00.000000,0.20616117,0.46488337,0.84319190,29,67,122,15,37,62,0.10811111,0.26122733,0.43184599,0.06328550,0.14747728,0.27251885
39115,0,USOhioMorgan,Ohio,Morgan,2021-01-05 13:08:32.666002,2020-07-18 00:00:00.000000,0.19820588,0.47767695,0.84263693,28,69,122,15,38,64,0.10717431,0.26418867,0.44264795,0.06354994,0.15053549,0.27985930
39115,0,USOhioMorgan,Ohio,Morgan,2021-01-05 13:08:32.666002,2020-07-19 00:00:00.000000,0.19148305,0.47389711,0.86554204,27,68,125,15,38,65,0.10655787,0.26549042,0.45392227,0.06445804,0.15378019,0.28264751
39115,0,USOhioMorgan,Ohio,Morgan,2021-01-05 13:08:32.666002,2020-07-20 00:00:00.000000,0.23039101,0.48361127,0.89564599,33,70,129,15,39,67,0.10624650,0.27230865,0.46573498,0.06723481,0.15382393,0.28329208
39115,0,USOhioMorgan,Ohio,Morgan,2021-01-05 13:08:32.666002,2020-07-21 00:00:00.000000,0.24715623,0.49742901,0.92634585,35,72,134,16,39,68,0.11431078,0.27198815,0.47425859,0.07177962,0.15367151,0.28327004
39115,0,USOhioMorgan,Ohio,Morgan,2021-01-05 13:08:32.666002,2020-07-22 00:00:00.000000,0.26211961,0.51312360,0.94267257,38,74,136,18,39,69,0.12758136,0.27276325,0.47887844,0.07559419,0.15410003,0.28286115
39115,0,USOhioMorgan,Ohio,Morgan,2021-01-05 13:08:32.666002,2020-07-23 00:00:00.000000,0.25937010,0.52587655,0.93575173,37,76,135,19,40,69,0.13336431,0.27572134,0.48041953,0.07711097,0.15507482,0.28198699
39115,0,USOhioMorgan,Ohio,Morgan,2021-01-05 13:08:32.666002,2020-07-24 00:00:00.000000,0.26298603,0.54384196,0.94781354,38,78,137,20,40,69,0.14024792,0.27761074,0.48101501,0.07792831,0.15591378,0.28014098
39115,0,USOhioMorgan,Ohio,Morgan,2021-01-05 13:08:32.666002,2020-07-25 00:00:00.000000,0.27709186,0.55695672,0.96722587,40,80,140,21,41,69,0.14533598,0.28719968,0.48219888,0.07619183,0.15813498,0.27595137
39115,0,USOhioMorgan,Ohio,Morgan,2021-01-05 13:08:32.666002,2020-07-26 00:00:00.000000,0.28876663,0.55854216,0.96123133,41,81,139,20,43,70,0.14220147,0.29762040,0.48453376,0.07336529,0.15545355,0.26879636
39115,0,USOhioMorgan,Ohio,Morgan,2021-01-05 13:08:32.666002,2020-07-27 00:00:00.000000,0.29972506,0.58475181,0.95272925,43,84,138,20,43,70,0.13903093,0.30001903,0.48773136,0.07207786,0.15455632,0.26095963
39115,0,USOhioMorgan,Ohio,Morgan,2021-01-05 13:08:32.666002,2020-07-28 00:00:00.000000,0.29954819,0.59884189,0.97483833,43,86,141,20,44,71,0.14037107,0.30482459,0.49161691,0.07254343,0.15556890,0.25492877
39115,0,USOhioMorgan,Ohio,Morgan,2021-01-05 13:08:32.666002,2020-07-29 00:00:00.000000,0.28900487,0.61350312,1.00895659,41,89,146,20,45,72,0.14105075,0.31469504,0.49802591,0.07296276,0.15546371,0.25109725
39115,0,USOhioMorgan,Ohio,Morgan,2021-01-05 13:08:32.666002,2020-07-30 00:00:00.000000,0.27892540,0.62833993,1.01884889,40,91,147,20,47,73,0.13990327,0.32683417,0.50448642,0.07349417,0.15570119,0.24503309
39115,0,USOhioMorgan,Ohio,Morgan,2021-01-05 13:08:32.666002,2020-07-31 00:00:00.000000,0.26933264,0.63688394,1.02844066,39,92,149,20,49,74,0.13882863,0.33845415,0.51059879,0.07755716,0.15468885,0.24449478
39115,0,USOhioMorgan,Ohio,Morgan,2021-01-05 13:08:32.666002,2020-08-01 00:00:00.000000,0.26023435,0.65077012,1.03763586,37,94,150,19,50,74,0.13780185,0.34864856,0.51641267,0.07925700,0.15315047,0.25071652
39115,0,USOhioMorgan,Ohio,Morgan,2021-01-05 13:08:32.666002,2020-08-02 00:00:00.000000,0.25172444,0.65269802,1.04570039,36,94,151,19,51,77,0.13679227,0.35637189,0.53357567,0.07909683,0.15322638,0.25369436
39115,0,USOhioMorgan,Ohio,Morgan,2021-01-05 13:08:32.666002,2020-08-03 00:00:00.000000,0.29522229,0.67790986,1.04481003,42,98,151,19,52,81,0.13578828,0.36466707,0.56143678,0.07907029,0.15539992,0.24162085
39115,0,USOhioMorgan,Ohio,Morgan,2021-01-05 13:08:32.666002,2020-08-04 00:00:00.000000,0.32800074,0.69656450,1.04326181,47,101,151,19,53,84,0.13706022,0.37021531,0.58476542,0.07909678,0.15442437,0.23809609
39115,0,USOhioMorgan,Ohio,Morgan,2021-01-05 13:08:32.666002,2020-08-05 00:00:00.000000,0.33377018,0.69386846,1.04533264,48,100,151,20,53,87,0.13906614,0.37177874,0.59990366,0.07919144,0.15598607,0.23791464
39115,0,USOhioMorgan,Ohio,Morgan,2021-01-05 13:08:32.666002,2020-08-06 00:00:00.000000,0.33943490,0.68907491,1.04963764,49,99,152,20,53,88,0.14089745,0.36850105,0.60931960,0.07964149,0.15383603,0.23558593
39115,0,USOhioMorgan,Ohio,Morgan,2021-01-05 13:08:32.666002,2020-08-07 00:00:00.000000,0.34525833,0.68910467,1.05314515,50,99,152,20,53,89,0.14265258,0.36782205,0.61459810,0.08055931,0.15195677,0.23189434
39115,0,USOhioMorgan,Ohio,Morgan,2021-01-05 13:08:32.666002,2020-08-08 00:00:00.000000,0.35140257,0.69385636,1.09379821,50,100,158,20,54,89,0.14437218,0.37617533,0.61650486,0.08084834,0.15156202,0.22648895
39115,0,USOhioMorgan,Ohio,Morgan,2021-01-05 13:08:32.666002,2020-08-09 00:00:00.000000,0.35772640,0.72177172,1.13602008,51,104,164,21,55,89,0.14824168,0.38166835,0.61504453,0.08202887,0.15226496,0.22325209
39115,0,USOhioMorgan,Ohio,Morgan,2021-01-05 13:08:32.666002,2020-08-10 00:00:00.000000,0.35126884,0.72326124,1.11932723,50,104,162,22,56,89,0.15300218,0.38650114,0.62002500,0.08418546,0.15229329,0.21959427
39115,0,USOhioMorgan,Ohio,Morgan,2021-01-05 13:08:32.666002,2020-08-11 00:00:00.000000,0.34463152,0.71507401,1.10175833,49,103,159,22,56,92,0.15645682,0.38710666,0.63477757,0.08430452,0.15178311,0.21884265
39115,0,USOhioMorgan,Ohio,Morgan,2021-01-05 13:08:32.666002,2020-08-12 00:00:00.000000,0.33743565,0.72225075,1.08308748,48,104,157,23,56,93,0.15909793,0.39163317,0.64150388,0.08434985,0.15155424,0.21502360
39115,0,USOhioMorgan,Ohio,Morgan,2021-01-05 13:08:32.666002,2020-08-13 00:00:00.000000,0.32958748,0.72082042,1.06600669,47,104,154,24,57,93,0.16680356,0.39539975,0.64255831,0.08353713,0.15211761,0.21318094
39115,0,USOhioMorgan,Ohio,Morgan,2021-01-05 13:08:32.666002,2020-08-14 00:00:00.000000,0.32089906,0.70959290,1.05306945,46,102,152,25,57,92,0.17571390,0.39589176,0.63998573,0.07830586,0.15167401,0.21717844
39115,0,USOhioMorgan,Ohio,Morgan,2021-01-05 13:08:32.666002,2020-08-15 00:00:00.000000,0.31265774,0.70740129,1.05088280,45,102,152,26,57,92,0.18520159,0.39463374,0.63556346,0.08188583,0.15159524,0.21726055
39115,0,USOhioMorgan,Ohio,Morgan,2021-01-05 13:08:32.666002,2020-08-16 00:00:00.000000,0.31255873,0.69490414,1.05830020,45,100,153,27,56,91,0.18660791,0.39158244,0.63023304,0.08521104,0.15100740,0.21447357
39115,0,USOhioMorgan,Ohio,Morgan,2021-01-05 13:08:32.666002,2020-08-17 00:00:00.000000,0.32663503,0.69463012,1.04164906,47,100,151,26,56,90,0.18178240,0.39196017,0.62435133,0.08797257,0.14928318,0.21501830
39115,0,USOhioMorgan,Ohio,Morgan,2021-01-05 13:08:32.666002,2020-08-18 00:00:00.000000,0.34037140,0.69005337,1.03305630,49,100,149,26,56,90,0.17972480,0.39252072,0.62267331,0.09000452,0.15097289,0.21519168
39115,0,USOhioMorgan,Ohio,Morgan,2021-01-05 13:08:32.666002,2020-08-19 00:00:00.000000,0.35417259,0.67790914,1.02283480,51,98,148,26,55,91,0.17955364,0.38578703,0.63190336,0.09144533,0.15034724,0.21440239
39115,0,USOhioMorgan,Ohio,Morgan,2021-01-05 13:08:32.666002,2020-08-20 00:00:00.000000,0.36796632,0.66612012,1.00550628,53,96,145,26,55,89,0.18065454,0.38439238,0.61953500,0.09140815,0.15128184,0.21201440
39115,0,USOhioMorgan,Ohio,Morgan,2021-01-05 13:08:32.666002,2020-08-21 00:00:00.000000,0.36467713,0.65614559,0.99346822,52,95,144,26,55,87,0.18252721,0.38149673,0.60486732,0.09016279,0.15097545,0.21590827
39115,0,USOhioMorgan,Ohio,Morgan,2021-01-05 13:08:32.666002,2020-08-22 00:00:00.000000,0.35725350,0.64443431,0.99091699,51,93,143,26,53,85,0.18472879,0.37088494,0.59012962,0.09000600,0.15123671,0.22572056
39115,0,USOhioMorgan,Ohio,Morgan,2021-01-05 13:08:32.666002,2020-08-23 00:00:00.000000,0.35034944,0.63518755,0.99399030,50,92,144,27,52,84,0.18726329,0.36468679,0.58030664,0.08983572,0.15134819,0.22738971
39115,0,USOhioMorgan,Ohio,Morgan,2021-01-05 13:08:32.666002,2020-08-24 00:00:00.000000,0.35286146,0.62846315,0.98260850,51,91,142,27,53,83,0.19000131,0.36573751,0.57429449,0.08972619,0.15122597,0.22478956
39115,0,USOhioMorgan,Ohio,Morgan,2021-01-05 13:08:32.666002,2020-08-25 00:00:00.000000,0.35577524,0.63575749,0.97999337,51,92,142,27,52,83,0.19113843,0.36364454,0.57887025,0.08970243,0.15340042,0.23316253
39115,0,USOhioMorgan,Ohio,Morgan,2021-01-05 13:08:32.666002,2020-08-26 00:00:00.000000,0.35914953,0.63738385,0.98299220,52,92,142,27,52,84,0.19126227,0.36134908,0.58142624,0.08974855,0.15329702,0.23533646
39115,0,USOhioMorgan,Ohio,Morgan,2021-01-05 13:08:32.666002,2020-08-27 00:00:00.000000,0.36022548,0.64913076,0.97868222,52,94,141,27,52,84,0.19071300,0.36164003,0.58263197,0.09367951,0.15652624,0.23542881
39115,0,USOhioMorgan,Ohio,Morgan,2021-01-05 13:08:32.666002,2020-08-28 00:00:00.000000,0.34777838,0.65605591,0.98126810,50,95,142,27,52,84,0.18972067,0.36213447,0.58292414,0.10227206,0.16037903,0.24298990
39115,0,USOhioMorgan,Ohio,Morgan,2021-01-05 13:08:32.666002,2020-08-29 00:00:00.000000,0.33596517,0.65800478,0.97953519,48,95,142,27,52,84,0.18844981,0.36274853,0.58049872,0.10425856,0.16110745,0.24416053
39115,0,USOhioMorgan,Ohio,Morgan,2021-01-05 13:08:32.666002,2020-08-30 00:00:00.000000,0.32477054,0.66081131,0.97714878,47,95,141,27,52,82,0.18703290,0.36519218,0.57026759,0.10832269,0.16213329,0.24527990
39115,0,USOhioMorgan,Ohio,Morgan,2021-01-05 13:08:32.666002,2020-08-31 00:00:00.000000,0.31323114,0.66103815,0.98382739,45,95,142,26,52,84,0.18561313,0.36222087,0.58118889,0.11417694,0.16493924,0.24594892
39115,0,USOhioMorgan,Ohio,Morgan,2021-01-05 13:08:32.666002,2020-09-01 00:00:00.000000,0.31028035,0.65520865,0.99350464,45,95,144,26,52,84,0.18341862,0.36439728,0.57912330,0.11531198,0.16603553,0.24597309
39115,0,USOhioMorgan,Ohio,Morgan,2021-01-05 13:08:32.666002,2020-09-02 00:00:00.000000,0.30987341,0.66125316,0.97290125,44,95,141,25,53,83,0.17709057,0.36654423,0.57499353,0.11805716,0.16631785,0.24593295
39115,0,USOhioMorgan,Ohio,Morgan,2021-01-05 13:08:32.666002,2020-09-03 00:00:00.000000,0.31133110,0.66470254,0.95106920,45,96,137,25,53,82,0.17358951,0.36543221,0.56937431,0.12215801,0.16627795,0.24549676
39115,0,USOhioMorgan,Ohio,Morgan,2021-01-05 13:08:32.666002,2020-09-04 00:00:00.000000,0.31225340,0.66245356,0.93698177,45,96,135,25,53,81,0.17331550,0.36721689,0.56299355,0.12521776,0.16757363,0.24233188
39115,0,USOhioMorgan,Ohio,Morgan,2021-01-05 13:08:32.666002,2020-09-05 00:00:00.000000,0.29835395,0.66069138,0.95121751,43,95,138,25,53,80,0.17280236,0.36631484,0.55653214,0.12477909,0.17021871,0.23003212
39115,0,USOhioMorgan,Ohio,Morgan,2021-01-05 13:08:32.666002,2020-09-06 00:00:00.000000,0.28537254,0.66451392,0.96650212,41,96,140,24,52,79,0.17211914,0.36210399,0.54473044,0.12239059,0.17243467,0.24066657
39115,0,USOhioMorgan,Ohio,Morgan,2021-01-05 13:08:32.666002,2020-09-07 00:00:00.000000,0.26989847,0.66417457,0.96905738,39,96,140,24,52,77,0.16869288,0.36128214,0.53253595,0.11998376,0.17580357,0.24944291
39115,0,USOhioMorgan,Ohio,Morgan,2021-01-05 13:08:32.666002,2020-09-08 00:00:00.000000,0.27031800,0.66475256,0.97305138,39,96,141,23,52,78,0.16047405,0.36162524,0.54059173,0.11822029,0.17914305,0.25385819
39115,0,USOhioMorgan,Ohio,Morgan,2021-01-05 13:08:32.666002,2020-09-09 00:00:00.000000,0.27393178,0.67364741,0.97866903,39,97,141,22,52,78,0.15230895,0.36256195,0.54151072,0.11735129,0.18367736,0.25395030
39115,0,USOhioMorgan,Ohio,Morgan,2021-01-05 13:08:32.666002,2020-09-10 00:00:00.000000,0.29561537,0.68255408,0.98647872,42,99,143,22,52,79,0.15200770,0.36308322,0.54585059,0.11889510,0.18783623,0.25383380
39115,0,USOhioMorgan,Ohio,Morgan,2021-01-05 13:08:32.666002,2020-09-11 00:00:00.000000,0.32337106,0.68895335,0.99668423,46,99,144,22,53,79,0.15323025,0.36597278,0.55026435,0.12393817,0.19373785,0.25370487
39115,0,USOhioMorgan,Ohio,Morgan,2021-01-05 13:08:32.666002,2020-09-12 00:00:00.000000,0.32735832,0.69223776,1.00904136,47,100,146,22,52,81,0.15529164,0.36465828,0.56149097,0.13155905,0.19783884,0.26764619
39115,0,USOhioMorgan,Ohio,Morgan,2021-01-05 13:08:32.666002,2020-09-13 00:00:00.000000,0.32832528,0.70192096,1.02307510,47,101,148,23,53,83,0.16511105,0.37001632,0.57776398,0.14152952,0.20359276,0.28898320
39115,0,USOhioMorgan,Ohio,Morgan,2021-01-05 13:08:32.666002,2020-09-14 00:00:00.000000,0.33519718,0.70905117,1.03628485,48,102,150,25,54,86,0.17602665,0.37673153,0.59555258,0.14743384,0.20967687,0.29791437
39115,0,USOhioMorgan,Ohio,Morgan,2021-01-05 13:08:32.666002,2020-09-15 00:00:00.000000,0.34253088,0.72442432,1.05039268,49,105,152,25,55,88,0.17705554,0.38260228,0.61236652,0.14816565,0.21483382,0.30013317
39115,0,USOhioMorgan,Ohio,Morgan,2021-01-05 13:08:32.666002,2020-09-16 00:00:00.000000,0.35033490,0.74161511,1.06569774,50,107,154,25,56,91,0.17803268,0.38998404,0.62870303,0.14835159,0.21514142,0.30115660
39115,0,USOhioMorgan,Ohio,Morgan,2021-01-05 13:08:32.666002,2020-09-17 00:00:00.000000,0.35849773,0.74377152,1.10025433,52,107,159,25,57,93,0.17896530,0.39843083,0.64483526,0.14914400,0.22285873,0.30223674
39115,0,USOhioMorgan,Ohio,Morgan,2021-01-05 13:08:32.666002,2020-09-18 00:00:00.000000,0.36698166,0.75831305,1.15007169,53,110,166,26,58,95,0.17985961,0.40072487,0.66096724,0.15187010,0.22472751,0.30392458
39115,0,USOhioMorgan,Ohio,Morgan,2021-01-05 13:08:32.666002,2020-09-19 00:00:00.000000,0.37036826,0.77492920,1.20392498,53,112,174,26,58,98,0.18489136,0.40301409,0.67737906,0.16411458,0.22824499,0.31409850
39115,0,USOhioMorgan,Ohio,Morgan,2021-01-05 13:08:32.666002,2020-09-20 00:00:00.000000,0.37086404,0.79473726,1.22015678,53,115,177,27,58,100,0.19021958,0.40600382,0.69179125,0.16949354,0.23315699,0.31858618
39115,0,USOhioMorgan,Ohio,Morgan,2021-01-05 13:08:32.666002,2020-09-21 00:00:00.000000,0.37733699,0.82344885,1.23555688,54,119,179,27,59,103,0.19048538,0.41049877,0.71360755,0.16942462,0.24058491,0.32276456
39115,0,USOhioMorgan,Ohio,Morgan,2021-01-05 13:08:32.666002,2020-09-22 00:00:00.000000,0.39348890,0.82742784,1.28066212,57,120,185,27,60,106,0.19039640,0.41498994,0.73427252,0.16986694,0.24866347,0.33647393
39115,0,USOhioMorgan,Ohio,Morgan,2021-01-05 13:08:32.666002,2020-09-23 00:00:00.000000,0.40831723,0.83641786,1.33671310,59,121,193,27,61,109,0.19254970,0.42177156,0.75641188,0.17750935,0.25732940,0.34808579
39115,0,USOhioMorgan,Ohio,Morgan,2021-01-05 13:08:32.666002,2020-09-24 00:00:00.000000,0.42111424,0.85866631,1.39155795,61,124,201,28,62,113,0.19530733,0.42983270,0.77984435,0.17750405,0.26626329,0.35333101
39115,0,USOhioMorgan,Ohio,Morgan,2021-01-05 13:08:32.666002,2020-09-25 00:00:00.000000,0.43420182,0.90231917,1.44647927,62,130,209,29,64,116,0.20080741,0.44732030,0.80437597,0.17753209,0.27170762,0.36594417
39115,0,USOhioMorgan,Ohio,Morgan,2021-01-05 13:08:32.666002,2020-09-26 00:00:00.000000,0.44770154,0.94135243,1.50111586,64,136,217,29,66,120,0.20607938,0.45671187,0.82926185,0.17769199,0.28399815,0.37163386
39115,0,USOhioMorgan,Ohio,Morgan,2021-01-05 13:08:32.666002,2020-09-27 00:00:00.000000,0.46221002,0.97799195,1.55757486,67,141,225,30,67,124,0.21186687,0.46618243,0.85502849,0.17866790,0.29219400,0.38259392
39115,0,USOhioMorgan,Ohio,Morgan,2021-01-05 13:08:32.666002,2020-09-28 00:00:00.000000,0.46432283,1.00264484,1.58972988,67,145,230,31,70,127,0.21816334,0.48904763,0.87984747,0.20473312,0.29489328,0.41636562
39115,0,USOhioMorgan,Ohio,Morgan,2021-01-05 13:08:32.666002,2020-09-29 00:00:00.000000,0.46568730,1.03333748,1.62282769,67,149,235,33,74,130,0.22777258,0.51242527,0.89816892,0.22018262,0.30294641,0.43318258
39115,0,USOhioMorgan,Ohio,Morgan,2021-01-05 13:08:32.666002,2020-09-30 00:00:00.000000,0.49256627,1.07155584,1.65537655,71,155,240,34,77,133,0.24000745,0.53331388,0.92351546,0.22435949,0.30976514,0.45113356
39115,0,USOhioMorgan,Ohio,Morgan,2021-01-05 13:08:32.666002,2020-10-01 00:00:00.000000,0.52702275,1.11757856,1.68693983,76,162,244,36,80,137,0.25428525,0.55753843,0.94674798,0.23009893,0.31871724,0.47016944
39115,0,USOhioMorgan,Ohio,Morgan,2021-01-05 13:08:32.666002,2020-10-02 00:00:00.000000,0.54562577,1.17167914,1.71744213,79,169,249,38,84,140,0.26482343,0.58015059,0.96841476,0.23910156,0.32148203,0.47337610
39115,0,USOhioMorgan,Ohio,Morgan,2021-01-05 13:08:32.666002,2020-10-03 00:00:00.000000,0.56111416,1.22750124,1.77340646,81,178,257,39,86,143,0.27243397,0.59655203,0.98884263,0.24928515,0.32981277,0.47338521
39115,0,USOhioMorgan,Ohio,Morgan,2021-01-05 13:08:32.666002,2020-10-04 00:00:00.000000,0.58262167,1.28258310,1.84435238,84,186,267,42,89,146,0.29114404,0.61624962,1.00832217,0.25444136,0.34228565,0.47223337
39115,0,USOhioMorgan,Ohio,Morgan,2021-01-05 13:08:32.666002,2020-10-05 00:00:00.000000,0.61273055,1.34091386,1.91598969,88,194,277,45,93,149,0.31135497,0.64575394,1.02716371,0.26013396,0.34836054,0.47472782
39115,0,USOhioMorgan,Ohio,Morgan,2021-01-05 13:08:32.666002,2020-10-06 00:00:00.000000,0.64480545,1.41431618,1.99134171,93,205,288,47,97,151,0.32944701,0.67128800,1.04743411,0.26436312,0.35630705,0.48459775
39115,0,USOhioMorgan,Ohio,Morgan,2021-01-05 13:08:32.666002,2020-10-07 00:00:00.000000,0.68097431,1.47645367,2.06993211,98,214,300,50,101,155,0.34615200,0.70091767,1.06885896,0.26681509,0.36635996,0.50224265
39115,0,USOhioMorgan,Ohio,Morgan,2021-01-05 13:08:32.666002,2020-10-08 00:00:00.000000,0.73393514,1.52734808,2.15948779,106,221,313,53,107,161,0.36557874,0.73902512,1.11254483,0.26841461,0.37170553,0.50562512
39115,0,USOhioMorgan,Ohio,Morgan,2021-01-05 13:08:32.666002,2020-10-09 00:00:00.000000,0.79054491,1.60178253,2.27510238,114,232,330,56,113,170,0.38642581,0.78458612,1.17320496,0.27241593,0.38980747,0.51547342
39115,0,USOhioMorgan,Ohio,Morgan,2021-01-05 13:08:32.666002,2020-10-10 00:00:00.000000,0.84249696,1.70099554,2.39409243,122,246,347,59,119,179,0.41223085,0.82170120,1.23690854,0.27684239,0.39062483,0.53446109
39115,0,USOhioMorgan,Ohio,Morgan,2021-01-05 13:08:32.666002,2020-10-11 00:00:00.000000,0.89806771,1.80949630,2.51727960,130,262,365,63,125,189,0.43866155,0.86265128,1.30333122,0.27976842,0.40133835,0.54798903
39115,0,USOhioMorgan,Ohio,Morgan,2021-01-05 13:08:32.666002,2020-10-12 00:00:00.000000,0.93901560,1.90929958,2.60089919,136,277,377,67,131,199,0.46717832,0.90887147,1.37243880,0.27742626,0.40778382,0.55406458
39115,0,USOhioMorgan,Ohio,Morgan,2021-01-05 13:08:32.666002,2020-10-13 00:00:00.000000,1.00502920,2.00241390,2.69179100,145,290,390,71,138,208,0.49337477,0.95408098,1.43583575,0.27156828,0.41676997,0.56095123
39115,0,USOhioMorgan,Ohio,Morgan,2021-01-05 13:08:32.666002,2020-10-14 00:00:00.000000,1.10334530,2.09980786,2.84404162,160,304,412,75,145,217,0.52078162,1.00164748,1.49606161,0.26695596,0.42777370,0.58737297
39115,0,USOhioMorgan,Ohio,Morgan,2021-01-05 13:08:32.666002,2020-10-15 00:00:00.000000,1.21375007,2.21319218,3.01885394,176,321,437,82,152,225,0.56699446,1.05205594,1.55531829,0.26516446,0.42769927,0.60711383
39115,0,USOhioMorgan,Ohio,Morgan,2021-01-05 13:08:32.666002,2020-10-16 00:00:00.000000,1.33464683,2.33776937,3.18921884,193,339,462,90,161,234,0.62042556,1.11352238,1.61576709,0.26552402,0.43478739,0.61735847
39115,0,USOhioMorgan,Ohio,Morgan,2021-01-05 13:08:32.666002,2020-10-17 00:00:00.000000,1.46572715,2.45652410,3.35141003,212,356,486,96,172,243,0.66498395,1.19215834,1.67892604,0.26730028,0.43475716,0.59293953
39115,0,USOhioMorgan,Ohio,Morgan,2021-01-05 13:08:32.666002,2020-10-18 00:00:00.000000,1.58987715,2.57883024,3.51326683,230,374,509,105,183,248,0.72733049,1.26825379,1.71182028,0.27404655,0.43799039,0.59121489
39115,0,USOhioMorgan,Ohio,Morgan,2021-01-05 13:08:32.666002,2020-10-19 00:00:00.000000,1.67159056,2.70723441,3.68640823,242,392,534,111,195,256,0.77176316,1.34480291,1.76813265,0.30230354,0.44412804,0.59936495
39115,0,USOhioMorgan,Ohio,Morgan,2021-01-05 13:08:32.666002,2020-10-20 00:00:00.000000,1.75438261,2.87871608,3.92123193,254,417,568,118,206,275,0.81576250,1.42273638,1.89871653,0.31742740,0.44641134,0.61563940
39115,0,USOhioMorgan,Ohio,Morgan,2021-01-05 13:08:32.666002,2020-10-21 00:00:00.000000,1.84314188,3.04379545,4.17219544,267,441,605,124,218,287,0.85970336,1.50428440,1.98467072,0.32520938,0.44718313,0.61722107
39115,0,USOhioMorgan,Ohio,Morgan,2021-01-05 13:08:32.666002,2020-10-22 00:00:00.000000,1.95306939,3.20804064,4.43729645,283,465,643,131,229,301,0.90493189,1.57857899,2.07651860,0.35002059,0.45280983,0.63049555
39115,0,USOhioMorgan,Ohio,Morgan,2021-01-05 13:08:32.666002,2020-10-23 00:00:00.000000,2.07663570,3.38333695,4.71242755,301,490,683,137,241,315,0.94602123,1.66275648,2.17407054,0.35849458,0.46240918,0.63236550
39115,0,USOhioMorgan,Ohio,Morgan,2021-01-05 13:08:32.666002,2020-10-24 00:00:00.000000,2.20654326,3.57424741,4.99275942,320,518,724,146,252,330,1.01188910,1.74157786,2.27595021,0.36166476,0.47177978,0.63989840
39115,0,USOhioMorgan,Ohio,Morgan,2021-01-05 13:08:32.666002,2020-10-25 00:00:00.000000,2.34276165,3.78596098,5.27588530,339,549,765,155,264,348,1.07455949,1.82307111,2.40128578,0.36497199,0.47064396,0.66091097
39115,0,USOhioMorgan,Ohio,Morgan,2021-01-05 13:08:32.666002,2020-10-26 00:00:00.000000,2.49516181,3.97561571,5.55377257,361,576,805,167,277,369,1.15586266,1.91307675,2.54538070,0.36619384,0.46233949,0.67219238
39115,0,USOhioMorgan,Ohio,Morgan,2021-01-05 13:08:32.666002,2020-10-27 00:00:00.000000,2.65400206,4.21004446,5.83859740,385,610,847,181,291,390,1.25005561,2.00663625,2.69198774,0.36603019,0.46908731,0.69214704
39115,0,USOhioMorgan,Ohio,Morgan,2021-01-05 13:08:32.666002,2020-10-28 00:00:00.000000,2.81977474,4.43989589,6.12642914,409,644,888,195,305,413,1.35033559,2.10840821,2.85029524,0.36730530,0.46674110,0.69969317
39115,0,USOhioMorgan,Ohio,Morgan,2021-01-05 13:08:32.666002,2020-10-29 00:00:00.000000,2.99382364,4.68441566,6.43335942,434,679,933,208,321,437,1.43412628,2.21410009,3.01809778,0.37330102,0.47536930,0.70121625
39115,0,USOhioMorgan,Ohio,Morgan,2021-01-05 13:08:32.666002,2020-10-30 00:00:00.000000,3.17422541,4.96434113,6.80841432,460,720,987,219,338,461,1.51377043,2.33148988,3.18344036,0.39009333,0.48122893,0.70074410
39115,0,USOhioMorgan,Ohio,Morgan,2021-01-05 13:08:32.666002,2020-10-31 00:00:00.000000,3.41650184,5.29048779,7.25248696,495,767,1052,231,359,486,1.59730225,2.47612257,3.35091179,0.40696325,0.50203732,0.70017447
39115,0,USOhioMorgan,Ohio,Morgan,2021-01-05 13:08:32.666002,2020-11-01 00:00:00.000000,3.64022858,5.61216227,7.72388797,528,814,1120,244,380,511,1.68476624,2.62592267,3.52380810,0.41198072,0.50737706,0.70052399
39115,0,USOhioMorgan,Ohio,Morgan,2021-01-05 13:08:32.666002,2020-11-02 00:00:00.000000,3.78173862,5.92683298,8.21770490,548,859,1192,263,404,537,1.81406622,2.78842167,3.70436475,0.41554884,0.52407402,0.74209771
39115,0,USOhioMorgan,Ohio,Morgan,2021-01-05 13:08:32.666002,2020-11-03 00:00:00.000000,4.01952689,6.25199445,8.73414021,583,907,1267,283,430,565,1.95688122,2.96729986,3.89914451,0.41190648,0.53276498,0.75541155
39115,0,USOhioMorgan,Ohio,Morgan,2021-01-05 13:08:32.666002,2020-11-04 00:00:00.000000,4.22676034,6.62333078,9.27591359,613,960,1345,301,463,603,2.08152007,3.19542605,4.15893542,0.41551879,0.54246729,0.75578703
39115,0,USOhioMorgan,Ohio,Morgan,2021-01-05 13:08:32.666002,2020-11-05 00:00:00.000000,4.44757807,7.11775548,9.84375778,645,1032,1428,320,494,648,2.20608773,3.40689559,4.47038693,0.42421423,0.55226445,0.76618697
39115,0,USOhioMorgan,Ohio,Morgan,2021-01-05 13:08:32.666002,2020-11-06 00:00:00.000000,4.70068811,7.59773434,10.47369302,681,1102,1519,340,524,697,2.34788566,3.61254967,4.80701933,0.43069880,0.56017727,0.81963708
39115,0,USOhioMorgan,Ohio,Morgan,2021-01-05 13:08:32.666002,2020-11-07 00:00:00.000000,5.05925860,8.21617522,11.23978888,733,1192,1630,359,555,749,2.47812171,3.83124552,5.16756676,0.43345272,0.57449884,0.84493271
39115,0,USOhioMorgan,Ohio,Morgan,2021-01-05 13:08:32.666002,2020-11-08 00:00:00.000000,5.46832853,8.82223577,12.05716432,793,1279,1749,379,594,805,2.61715971,4.10056864,5.55365080,0.45519583,0.59785568,0.86210642
39115,0,USOhioMorgan,Ohio,Morgan,2021-01-05 13:08:32.666002,2020-11-09 00:00:00.000000,5.86214945,9.49387617,12.99671593,850,1377,1885,405,638,865,2.79444391,4.39910031,5.96728831,0.47446694,0.60470961,0.87205222
39115,0,USOhioMorgan,Ohio,Morgan,2021-01-05 13:08:32.666002,2020-11-10 00:00:00.000000,6.28779626,10.21396442,14.03154520,912,1481,2035,429,682,931,2.96263260,4.70765742,6.41995346,0.48740693,0.62314072,0.87514941
39115,0,USOhioMorgan,Ohio,Morgan,2021-01-05 13:08:32.666002,2020-11-11 00:00:00.000000,6.69955810,11.02591522,15.14882810,971,1599,2197,457,729,1003,3.15017379,5.02785819,6.91628729,0.52279927,0.63835965,0.87006832
39115,0,USOhioMorgan,Ohio,Morgan,2021-01-05 13:08:32.666002,2020-11-12 00:00:00.000000,7.14937575,11.76855546,16.32060658,1037,1707,2367,487,777,1081,3.35938421,5.35609638,7.45727537,0.52926617,0.64592712,0.86803613
39115,0,USOhioMorgan,Ohio,Morgan,2021-01-05 13:08:32.666002,2020-11-13 00:00:00.000000,7.62076494,12.56241834,17.50910700,1105,1822,2540,521,831,1166,3.59695252,5.73187504,8.03858769,0.53178493,0.66500622,0.86436534
39115,0,USOhioMorgan,Ohio,Morgan,2021-01-05 13:08:32.666002,2020-11-14 00:00:00.000000,8.07235674,13.41500092,18.61410828,1171,1946,2700,561,887,1255,3.86925892,6.11939928,8.65045318,0.53585329,0.67441601,0.84560383
39115,0,USOhioMorgan,Ohio,Morgan,2021-01-05 13:08:32.666002,2020-11-15 00:00:00.000000,8.71438543,14.47954639,20.01735139,1264,2100,2904,605,949,1344,4.17686363,6.54526924,9.26827401,0.53875690,0.68235610,0.86007248
39115,0,USOhioMorgan,Ohio,Morgan,2021-01-05 13:08:32.666002,2020-11-16 00:00:00.000000,9.39192587,15.40742851,21.47076266,1362,2235,3114,655,1015,1431,4.51814952,7.00287853,9.86520996,0.54107090,0.68117146,0.85974690
39115,0,USOhioMorgan,Ohio,Morgan,2021-01-05 13:08:32.666002,2020-11-17 00:00:00.000000,10.10284165,16.25187028,22.81772188,1465,2357,3310,707,1082,1513,4.87656860,7.46195674,10.43142058,0.52272423,0.67315987,0.84863489
39115,0,USOhioMorgan,Ohio,Morgan,2021-01-05 13:08:32.666002,2020-11-18 00:00:00.000000,10.82797655,17.22310280,24.45440543,1570,2498,3547,762,1155,1597,5.25533954,7.96416087,11.01041275,0.52265252,0.66671881,0.84099438
39115,0,USOhioMorgan,Ohio,Morgan,2021-01-05 13:08:32.666002,2020-11-19 00:00:00.000000,11.55069673,18.21995300,25.95458486,1675,2643,3765,807,1239,1706,5.56453193,8.54547553,11.76002406,0.52270454,0.66189170,0.83975343
39115,0,USOhioMorgan,Ohio,Morgan,2021-01-05 13:08:32.666002,2020-11-20 00:00:00.000000,12.20242895,19.14747887,27.42469239,1770,2777,3978,850,1318,1812,5.86495072,9.08844889,12.49538817,0.52233259,0.65523616,0.83338259
39115,0,USOhioMorgan,Ohio,Morgan,2021-01-05 13:08:32.666002,2020-11-21 00:00:00.000000,12.77494156,19.92709554,28.81844254,1853,2891,4180,894,1394,1918,6.16870142,9.61327539,13.22213371,0.51350182,0.65017902,0.82286085
39115,0,USOhioMorgan,Ohio,Morgan,2021-01-05 13:08:32.666002,2020-11-22 00:00:00.000000,13.33367631,20.86820846,30.03213419,1934,3027,4357,939,1472,2022,6.47311064,10.14640380,13.94188028,0.49958343,0.63832104,0.79048127
39115,0,USOhioMorgan,Ohio,Morgan,2021-01-05 13:08:32.666002,2020-11-23 00:00:00.000000,13.85973276,21.89168813,30.94133018,2010,3176,4488,982,1540,2125,6.77462946,10.62131378,14.65341401,0.50245038,0.62922757,0.79127996
39115,0,USOhioMorgan,Ohio,Morgan,2021-01-05 13:08:32.666002,2020-11-24 00:00:00.000000,14.34457324,22.67646100,31.50049937,2081,3289,4570,1025,1623,2227,7.06787100,11.19049421,15.35470399,0.49342718,0.62096763,0.77831324
39115,0,USOhioMorgan,Ohio,Morgan,2021-01-05 13:08:32.666002,2020-11-25 00:00:00.000000,14.77398749,23.33385691,32.11899495,2143,3385,4659,1065,1695,2327,7.34742893,11.68447499,16.04057206,0.49120164,0.61909113,0.77897854
39115,0,USOhioMorgan,Ohio,Morgan,2021-01-05 13:08:32.666002,2020-11-26 00:00:00.000000,15.12808369,23.74358671,33.04283400,2194,3444,4793,1103,1763,2419,7.60555922,12.15868266,16.67712912,0.48146176,0.61249833,0.76712947
39115,0,USOhioMorgan,Ohio,Morgan,2021-01-05 13:08:32.666002,2020-11-27 00:00:00.000000,15.37805662,24.02399750,33.82538414,2231,3485,4907,1136,1823,2477,7.83393379,12.56762024,17.07511553,0.44201581,0.60582895,0.77081432
39115,0,USOhioMorgan,Ohio,Morgan,2021-01-05 13:08:32.666002,2020-11-28 00:00:00.000000,15.54235783,24.56990445,34.25043379,2254,3564,4969,1163,1883,2542,8.02113361,12.98102880,17.52204900,0.40197864,0.59902989,0.75787606
39115,0,USOhioMorgan,Ohio,Morgan,2021-01-05 13:08:32.666002,2020-11-29 00:00:00.000000,15.65392508,24.85321017,34.32111911,2271,3605,4979,1184,1929,2626,8.16471234,13.29769223,18.10304470,0.39574570,0.58914837,0.74274177
39115,0,USOhioMorgan,Ohio,Morgan,2021-01-05 13:08:32.666002,2020-11-30 00:00:00.000000,15.72296326,25.01957907,34.15764454,2281,3629,4955,1199,1954,2703,8.27110687,13.47531802,18.63435403,0.34909469,0.56820914,0.73077861
39115,0,USOhioMorgan,Ohio,Morgan,2021-01-05 13:08:32.666002,2020-12-01 00:00:00.000000,15.77400812,25.09576937,33.97061550,2288,3640,4928,1210,1963,2772,8.34605519,13.53230666,19.11312607,0.34153494,0.55976276,0.70522742
39115,0,USOhioMorgan,Ohio,Morgan,2021-01-05 13:08:32.666002,2020-12-02 00:00:00.000000,15.78755689,25.20043227,34.29060129,2290,3656,4974,1217,1992,2834,8.39458560,13.73055195,19.53494344,0.33752488,0.54382959,0.70395526
39115,0,USOhioMorgan,Ohio,Morgan,2021-01-05 13:08:32.666002,2020-12-03 00:00:00.000000,15.76162176,25.16788983,34.44954494,2286,3651,4997,1221,1995,2886,8.41991342,13.75369287,19.89609195,0.33554426,0.51807149,0.69593980
39115,0,USOhioMorgan,Ohio,Morgan,2021-01-05 13:08:32.666002,2020-12-04 00:00:00.000000,15.69056013,24.93526955,34.11663035,2276,3617,4949,1222,1992,2929,8.42407916,13.73113611,20.19320773,0.33178061,0.49474607,0.69409098
39115,0,USOhioMorgan,Ohio,Morgan,2021-01-05 13:08:32.666002,2020-12-05 00:00:00.000000,15.56566027,24.62375915,33.69027354,2258,3572,4887,1219,1988,2959,8.40841170,13.70816289,20.40006287,0.32469248,0.47948144,0.68846562
39115,0,USOhioMorgan,Ohio,Morgan,2021-01-05 13:08:32.666002,2020-12-06 00:00:00.000000,15.38078103,24.12560872,33.17136439,2231,3500,4812,1214,1982,2970,8.37408651,13.66499302,20.47807587,0.29639680,0.45304584,0.66106221
39115,0,USOhioMorgan,Ohio,Morgan,2021-01-05 13:08:32.666002,2020-12-07 00:00:00.000000,15.14214017,23.33598142,32.55100512,2196,3385,4722,1207,1964,2972,8.32121415,13.53977170,20.48855668,0.28398789,0.43671453,0.61791901
39115,0,USOhioMorgan,Ohio,Morgan,2021-01-05 13:08:32.666002,2020-12-08 00:00:00.000000,14.81577548,22.63313869,31.84403509,2149,3283,4619,1195,1934,2963,8.23849304,13.33588863,20.42673574,0.28183586,0.42601776,0.61275125
39115,0,USOhioMorgan,Ohio,Morgan,2021-01-05 13:08:32.666002,2020-12-09 00:00:00.000000,14.47489402,21.83602798,30.99660003,2100,3167,4496,1173,1898,2938,8.09088914,13.08815501,20.25351307,0.26246571,0.41634041,0.61189784
39115,0,USOhioMorgan,Ohio,Morgan,2021-01-05 13:08:32.666002,2020-12-10 00:00:00.000000,14.10905215,20.96424444,29.81266383,2046,3041,4325,1139,1847,2884,7.85467018,12.73349364,19.87881963,0.25810320,0.41358730,0.60695703
39115,0,USOhioMorgan,Ohio,Morgan,2021-01-05 13:08:32.666002,2020-12-11 00:00:00.000000,13.72241502,20.12119823,28.88073585,1990,2919,4190,1107,1795,2816,7.63034800,12.37706614,19.41044100,0.25744752,0.41442043,0.63541445
39115,0,USOhioMorgan,Ohio,Morgan,2021-01-05 13:08:32.666002,2020-12-12 00:00:00.000000,13.10014367,19.38971639,27.64400454,1900,2813,4010,1074,1743,2737,7.40354344,12.02047455,18.87181354,0.24992975,0.41437855,0.65360204
39115,0,USOhioMorgan,Ohio,Morgan,2021-01-05 13:08:32.666002,2020-12-13 00:00:00.000000,12.39656873,18.76122434,26.38722106,1798,2721,3828,1037,1674,2652,7.14906751,11.54204006,18.28214908,0.24383013,0.41163849,0.65580182
39115,0,USOhioMorgan,Ohio,Morgan,2021-01-05 13:08:32.666002,2020-12-14 00:00:00.000000,11.68601036,17.95782646,25.13287948,1695,2605,3646,999,1606,2561,6.88714767,11.07257723,17.65706703,0.24241789,0.40430112,0.67910212
39115,0,USOhioMorgan,Ohio,Morgan,2021-01-05 13:08:32.666002,2020-12-15 00:00:00.000000,10.99048719,17.01464559,23.93123383,1594,2468,3471,959,1553,2472,6.61376866,10.70599203,17.03978406,0.24349613,0.40149752,0.74572265
39115,0,USOhioMorgan,Ohio,Morgan,2021-01-05 13:08:32.666002,2020-12-16 00:00:00.000000,10.32296287,16.25376527,22.81901824,1497,2358,3310,919,1501,2398,6.33659706,10.35148647,16.53501747,0.23701622,0.40352666,0.75112844
39115,0,USOhioMorgan,Ohio,Morgan,2021-01-05 13:08:32.666002,2020-12-17 00:00:00.000000,9.79645362,15.53327486,21.74728425,1421,2253,3155,879,1440,2320,6.06092664,9.93236265,15.99726065,0.23718236,0.40346019,0.75053653
39115,0,USOhioMorgan,Ohio,Morgan,2021-01-05 13:08:32.666002,2020-12-18 00:00:00.000000,9.33424894,14.82374699,20.73713135,1354,2150,3008,840,1381,2239,5.79054376,9.52574080,15.43750735,0.24065965,0.40481343,0.72344688
39115,0,USOhioMorgan,Ohio,Morgan,2021-01-05 13:08:32.666002,2020-12-19 00:00:00.000000,8.79272113,14.13166795,19.80719960,1275,2050,2873,802,1323,2157,5.52806196,9.11946535,14.86807737,0.24152198,0.40825225,0.68913978
39115,0,USOhioMorgan,Ohio,Morgan,2021-01-05 13:08:32.666002,2020-12-20 00:00:00.000000,8.31910204,13.51507309,18.93993207,1206,1960,2747,758,1256,2075,5.22988354,8.66115610,14.30695509,0.25978801,0.41750418,0.69934550
39115,0,USOhioMorgan,Ohio,Morgan,2021-01-05 13:08:32.666002,2020-12-21 00:00:00.000000,7.90615763,12.87695830,18.10867877,1147,1868,2627,717,1195,1996,4.94524905,8.23957405,13.76232660,0.26751333,0.41858687,0.70635960
39115,0,USOhioMorgan,Ohio,Morgan,2021-01-05 13:08:32.666002,2020-12-22 00:00:00.000000,7.51357367,12.27307186,17.48575314,1090,1780,2536,678,1133,1919,4.67991693,7.81465524,13.22989401,0.27691498,0.42676647,0.72073288
39115,0,USOhioMorgan,Ohio,Morgan,2021-01-05 13:08:32.666002,2020-12-23 00:00:00.000000,7.14275278,11.67733360,16.77486962,1036,1694,2433,642,1085,1843,4.43087125,7.48084722,12.70808214,0.27721707,0.43532875,0.72897220
39115,0,USOhioMorgan,Ohio,Morgan,2021-01-05 13:08:32.666002,2020-12-24 00:00:00.000000,6.79857922,11.03683445,16.17143789,986,1601,2346,608,1045,1769,4.19596977,7.20562430,12.19608129,0.27414177,0.45354593,0.74170396
39115,0,USOhioMorgan,Ohio,Morgan,2021-01-05 13:08:32.666002,2020-12-25 00:00:00.000000,6.50054225,10.52913239,15.63030389,943,1527,2267,576,1005,1696,3.97365685,6.93360802,11.69402954,0.26860982,0.45453542,0.77117498
39115,0,USOhioMorgan,Ohio,Morgan,2021-01-05 13:08:32.666002,2020-12-26 00:00:00.000000,6.24158213,10.14145999,15.13126062,905,1471,2195,545,960,1625,3.76268560,6.61787846,11.20254809,0.24636450,0.46184490,0.82466763
39115,0,USOhioMorgan,Ohio,Morgan,2021-01-05 13:08:32.666002,2020-12-27 00:00:00.000000,5.98430872,9.72700176,14.67842809,868,1411,2129,516,914,1555,3.56177362,6.30006248,10.72241234,0.25059805,0.46301847,0.90573593
39115,0,USOhioMorgan,Ohio,Morgan,2021-01-05 13:08:32.666002,2020-12-28 00:00:00.000000,5.67808302,9.29606471,14.25535504,823,1348,2068,494,869,1487,3.40975883,5.99481301,10.25430387,0.24070016,0.48290780,0.94859828
39115,0,USOhioMorgan,Ohio,Morgan,2021-01-05 13:08:32.666002,2020-12-29 00:00:00.000000,5.36790684,8.82349074,13.61923480,778,1280,1975,465,832,1417,3.21142024,5.73898039,9.76942192,0.23196759,0.50330754,0.96483497
39115,0,USOhioMorgan,Ohio,Morgan,2021-01-05 13:08:32.666002,2020-12-30 00:00:00.000000,5.06357406,8.35887541,12.95002424,734,1212,1878,436,796,1346,3.00699069,5.48692159,9.27903917,0.22529089,0.51276612,0.96314683
39115,0,USOhioMorgan,Ohio,Morgan,2021-01-05 13:08:32.666002,2020-12-31 00:00:00.000000,4.76128094,7.94692373,12.30250382,690,1152,1784,409,757,1286,2.81968729,5.21951611,8.86497281,0.22079812,0.50880779,0.96120777
39115,0,USOhioMorgan,Ohio,Morgan,2021-01-05 13:08:32.666002,2021-01-01 00:00:00.000000,4.47642661,7.52342160,11.67750935,649,1091,1694,384,717,1231,2.65081197,4.94287439,8.49101845,0.21816171,0.50802087,0.95998519
39115,0,USOhioMorgan,Ohio,Morgan,2021-01-05 13:08:32.666002,2021-01-02 00:00:00.000000,4.21088649,7.07154155,11.07732350,610,1025,1607,361,680,1172,2.49020127,4.68825300,8.08178615,0.21689584,0.50541858,0.95937208
39115,0,USOhioMorgan,Ohio,Morgan,2021-01-05 13:08:32.666002,2021-01-03 00:00:00.000000,3.96428858,6.70126544,10.50900366,575,972,1524,344,642,1115,2.37358162,4.43122523,7.68564512,0.20981353,0.49964433,0.95918583
39115,0,USOhioMorgan,Ohio,Morgan,2021-01-05 13:08:32.666002,2021-01-04 00:00:00.000000,3.73317589,6.43851293,9.98446202,541,934,1448,330,602,1059,2.27923034,4.15084893,7.30447553,0.20934526,0.50093404,0.95935744
39115,0,USOhioMorgan,Ohio,Morgan,2021-01-05 13:08:32.666002,2021-01-05 00:00:00.000000,3.51536935,6.07136378,9.53904784,510,880,1383,311,570,1007,2.14549458,3.93318825,6.94177988,0.20924042,0.50431745,0.95956001
39115,0,USOhioMorgan,Ohio,Morgan,2021-01-05 13:08:32.666002,2021-01-06 00:00:00.000000,3.30977586,5.69345019,9.15816206,480,826,1328,293,538,957,2.01986437,3.71121962,6.59942094,0.20922301,0.50548700,0.95961392
39115,0,USOhioMorgan,Ohio,Morgan,2021-01-05 13:08:32.666002,2021-01-07 00:00:00.000000,3.10705278,5.31273297,8.79303173,450,770,1275,275,514,910,1.90165023,3.54731330,6.27598398,0.20922027,0.50527482,0.95961840
39115,0,USOhioMorgan,Ohio,Morgan,2021-01-05 13:08:32.666002,2021-01-08 00:00:00.000000,2.93083768,5.03980089,8.39921502,425,731,1218,259,485,866,1.79027527,3.34719791,5.96919241,0.20921966,0.50365336,0.95961642
39115,0,USOhioMorgan,Ohio,Morgan,2021-01-05 13:08:32.666002,2021-01-09 00:00:00.000000,2.74432616,4.75588122,7.92643662,398,689,1149,244,458,823,1.68542128,3.15770029,5.67709032,0.20921942,0.50275447,0.95961492
39115,0,USOhioMorgan,Ohio,Morgan,2021-01-05 13:08:32.666002,2021-01-10 00:00:00.000000,2.55198960,4.50281140,7.47425762,370,653,1084,229,432,783,1.58515705,2.97835052,5.39819240,0.20921930,0.50227078,0.95961420
39115,0,USOhioMorgan,Ohio,Morgan,2021-01-05 13:08:32.666002,2021-01-11 00:00:00.000000,2.36406345,4.20978770,7.04283274,342,610,1021,216,409,744,1.49267590,2.82254082,5.13139866,0.20921922,0.50201452,0.95961390
39115,0,USOhioMorgan,Ohio,Morgan,2021-01-05 13:08:32.666002,2021-01-12 00:00:00.000000,2.20696432,3.96208012,6.66006666,320,574,966,203,390,707,1.40443887,2.69110554,4.87589173,0.20921917,0.50196718,0.95961379
39115,0,USOhioMorgan,Ohio,Morgan,2021-01-05 13:08:32.666002,2021-01-13 00:00:00.000000,2.05082684,3.74672783,6.31715193,297,543,916,190,366,671,1.31406510,2.52810382,4.63105434,0.20921914,0.50195760,0.95961375
39115,0,USOhioMorgan,Ohio,Morgan,2021-01-05 13:08:32.666002,2021-01-14 00:00:00.000000,1.90539672,3.60012686,5.98856393,276,522,868,179,347,637,1.23865296,2.39737725,4.39640806,0.20921912,0.50194975,0.95961374
39115,0,USOhioMorgan,Ohio,Morgan,2021-01-05 13:08:32.666002,2021-01-15 00:00:00.000000,1.76999175,3.37211498,5.67785530,256,489,823,168,332,605,1.16309477,2.29525526,4.17150320,0.20921910,0.50194692,0.95961374
39115,0,USOhioMorgan,Ohio,Morgan,2021-01-05 13:08:32.666002,2021-01-16 00:00:00.000000,1.64396499,3.15778093,5.42723367,238,458,787,156,312,571,1.07967929,2.15525756,3.93741985,0.20921909,0.50194595,0.95961374
39115,0,USOhioMorgan,Ohio,Morgan,2021-01-05 13:08:32.666002,2021-01-17 00:00:00.000000,1.52101774,2.95655901,5.18431680,220,428,752,145,293,544,1.00199441,2.02298326,3.75206795,0.20921909,0.50194565,0.95961374
