FIPS,HR_UID,nameid,province,region,analysisTime,dates,pointprevalence_025,pointprevalence_50,pointprevalence_975,pointinfections_025,pointinfections_50,pointinfections_975,pointinfectious_025,pointinfectious_50,pointinfectious_975,pointinfectiousprevalence_05,pointinfectiousprevalence_50,pointinfectiousprevalence_95,infectrate_025,infectrate_50,infectrate_975
46127,0,USSouthDakotaUnion,South Dakota,Union,2021-01-05 10:34:12.771804,2020-03-09 00:00:00.000000,0.00266464,0.01964975,0.05683389,0,3,9,0,1,5,0.00133766,0.00973522,0.03549225,0.41820894,0.52487944,0.82236022
46127,0,USSouthDakotaUnion,South Dakota,Union,2021-01-05 10:34:12.771804,2020-03-10 00:00:00.000000,0.00305679,0.02170528,0.06427504,0,3,10,0,1,5,0.00136147,0.00990127,0.03478274,0.41820893,0.52487889,0.82223190
46127,0,USSouthDakotaUnion,South Dakota,Union,2021-01-05 10:34:12.771804,2020-03-11 00:00:00.000000,0.00342663,0.02372521,0.07054641,0,3,11,0,1,5,0.00139015,0.01004717,0.03564416,0.41820892,0.52487746,0.82199163
46127,0,USSouthDakotaUnion,South Dakota,Union,2021-01-05 10:34:12.771804,2020-03-12 00:00:00.000000,0.00390795,0.02607727,0.07676592,0,4,12,0,1,5,0.00155963,0.01043913,0.03752360,0.41820888,0.52487379,0.82154234
46127,0,USSouthDakotaUnion,South Dakota,Union,2021-01-05 10:34:12.771804,2020-03-13 00:00:00.000000,0.00443138,0.02822909,0.08336931,0,4,13,0,1,6,0.00176326,0.01118332,0.04017372,0.41820876,0.52486447,0.82070435
46127,0,USSouthDakotaUnion,South Dakota,Union,2021-01-05 10:34:12.771804,2020-03-14 00:00:00.000000,0.00496981,0.03058344,0.09044088,0,4,14,0,2,6,0.00199886,0.01257610,0.04344401,0.41820846,0.52484121,0.81914868
46127,0,USSouthDakotaUnion,South Dakota,Union,2021-01-05 10:34:12.771804,2020-03-15 00:00:00.000000,0.00556903,0.03348463,0.09805002,0,5,15,0,2,7,0.00226664,0.01315568,0.04724817,0.41820756,0.52478477,0.81628586
46127,0,USSouthDakotaUnion,South Dakota,Union,2021-01-05 10:34:12.771804,2020-03-16 00:00:00.000000,0.01086295,0.04234944,0.11465114,1,6,18,0,2,8,0.00256828,0.01399950,0.05144423,0.41820449,0.52256046,0.81110115
46127,0,USSouthDakotaUnion,South Dakota,Union,2021-01-05 10:34:12.771804,2020-03-17 00:00:00.000000,0.01679836,0.05264631,0.13404689,2,8,21,0,2,9,0.00350779,0.01675556,0.05654795,0.41006930,0.52226018,0.80197732
46127,0,USSouthDakotaUnion,South Dakota,Union,2021-01-05 10:34:12.771804,2020-03-18 00:00:00.000000,0.02297852,0.06487141,0.15493936,3,10,24,0,3,9,0.00492200,0.02048994,0.06276516,0.39936056,0.52065525,0.78670135
46127,0,USSouthDakotaUnion,South Dakota,Union,2021-01-05 10:34:12.771804,2020-03-19 00:00:00.000000,0.02948065,0.07869239,0.17708654,4,12,28,1,3,11,0.00671557,0.02458454,0.06992803,0.36658632,0.51334004,0.77432439
46127,0,USSouthDakotaUnion,South Dakota,Union,2021-01-05 10:34:12.771804,2020-03-20 00:00:00.000000,0.03636490,0.08770972,0.20079627,5,13,31,1,4,12,0.00882919,0.02869190,0.07912189,0.34458645,0.49309068,0.75370563
46127,0,USSouthDakotaUnion,South Dakota,Union,2021-01-05 10:34:12.771804,2020-03-21 00:00:00.000000,0.04290564,0.10094666,0.23282129,6,16,37,1,5,14,0.01123204,0.03439045,0.08939645,0.33635840,0.47701576,0.72098933
46127,0,USSouthDakotaUnion,South Dakota,Union,2021-01-05 10:34:12.771804,2020-03-22 00:00:00.000000,0.04955794,0.11478621,0.26459594,7,18,42,2,6,15,0.01391788,0.04024653,0.10039297,0.32877107,0.45580105,0.68523570
46127,0,USSouthDakotaUnion,South Dakota,Union,2021-01-05 10:34:12.771804,2020-03-23 00:00:00.000000,0.06159457,0.13021115,0.28195885,9,20,44,2,7,17,0.01689616,0.04537173,0.11213266,0.32733822,0.43665611,0.68114854
46127,0,USSouthDakotaUnion,South Dakota,Union,2021-01-05 10:34:12.771804,2020-03-24 00:00:00.000000,0.07163880,0.15150515,0.30332406,11,24,48,3,8,20,0.02252296,0.05295657,0.12901974,0.30986137,0.41540833,0.67509272
46127,0,USSouthDakotaUnion,South Dakota,Union,2021-01-05 10:34:12.771804,2020-03-25 00:00:00.000000,0.08031429,0.17086973,0.34419919,12,27,54,4,9,23,0.03102485,0.05985065,0.14980499,0.28970489,0.41576417,0.66254363
46127,0,USSouthDakotaUnion,South Dakota,Union,2021-01-05 10:34:12.771804,2020-03-26 00:00:00.000000,0.09172369,0.18887809,0.39355629,14,30,62,5,10,27,0.03558401,0.06695471,0.17266016,0.27706514,0.40605581,0.63751360
46127,0,USSouthDakotaUnion,South Dakota,Union,2021-01-05 10:34:12.771804,2020-03-27 00:00:00.000000,0.09917404,0.20975878,0.44371361,15,33,70,6,11,30,0.03910770,0.07440072,0.18953887,0.27519223,0.39262972,0.59810295
46127,0,USSouthDakotaUnion,South Dakota,Union,2021-01-05 10:34:12.771804,2020-03-28 00:00:00.000000,0.10686328,0.23068261,0.47140902,17,36,75,6,13,32,0.04284370,0.08349481,0.20704448,0.27068672,0.37789313,0.55684658
46127,0,USSouthDakotaUnion,South Dakota,Union,2021-01-05 10:34:12.771804,2020-03-29 00:00:00.000000,0.11482998,0.24982054,0.49924811,18,39,79,7,14,35,0.04579285,0.09135785,0.22524185,0.25668477,0.36802128,0.54780963
46127,0,USSouthDakotaUnion,South Dakota,Union,2021-01-05 10:34:12.771804,2020-03-30 00:00:00.000000,0.12567965,0.27031151,0.53530537,20,43,85,7,16,38,0.04880871,0.10086637,0.24416816,0.25484589,0.36485959,0.53433193
46127,0,USSouthDakotaUnion,South Dakota,Union,2021-01-05 10:34:12.771804,2020-03-31 00:00:00.000000,0.13690785,0.29386722,0.57202906,21,46,91,8,17,41,0.05243157,0.11207754,0.26329277,0.23820642,0.36387111,0.52058800
46127,0,USSouthDakotaUnion,South Dakota,Union,2021-01-05 10:34:12.771804,2020-04-01 00:00:00.000000,0.14862906,0.31702825,0.61055238,23,50,97,9,19,44,0.05709855,0.12350576,0.28241388,0.21528679,0.36332422,0.51241225
46127,0,USSouthDakotaUnion,South Dakota,Union,2021-01-05 10:34:12.771804,2020-04-02 00:00:00.000000,0.16088490,0.33697269,0.65150011,25,53,103,10,21,47,0.06319928,0.13629057,0.30012602,0.21577666,0.35851129,0.51532975
46127,0,USSouthDakotaUnion,South Dakota,Union,2021-01-05 10:34:12.771804,2020-04-03 00:00:00.000000,0.17374045,0.35880907,0.69363769,27,57,110,11,23,50,0.06996298,0.14896934,0.31584760,0.22130715,0.34545400,0.51587123
46127,0,USSouthDakotaUnion,South Dakota,Union,2021-01-05 10:34:12.771804,2020-04-04 00:00:00.000000,0.18737732,0.39216993,0.71851936,29,62,114,12,25,52,0.07728238,0.15974124,0.32991149,0.20855413,0.34185523,0.51251345
46127,0,USSouthDakotaUnion,South Dakota,Union,2021-01-05 10:34:12.771804,2020-04-05 00:00:00.000000,0.20217822,0.42040845,0.73700922,32,66,117,13,26,54,0.08506870,0.16911006,0.34268762,0.20079456,0.34001507,0.50096034
46127,0,USSouthDakotaUnion,South Dakota,Union,2021-01-05 10:34:12.771804,2020-04-06 00:00:00.000000,0.21589484,0.45259108,0.76585120,34,72,122,14,28,56,0.09235003,0.18149772,0.35448577,0.19796724,0.33862841,0.52368997
46127,0,USSouthDakotaUnion,South Dakota,Union,2021-01-05 10:34:12.771804,2020-04-07 00:00:00.000000,0.23139243,0.47207953,0.79448960,36,75,126,15,31,58,0.09965674,0.19828127,0.36833687,0.19666785,0.33976223,0.48518398
46127,0,USSouthDakotaUnion,South Dakota,Union,2021-01-05 10:34:12.771804,2020-04-08 00:00:00.000000,0.24791325,0.50312128,0.84600891,39,80,134,16,34,61,0.10599433,0.21406008,0.38374421,0.19543721,0.33381319,0.48264305
46127,0,USSouthDakotaUnion,South Dakota,Union,2021-01-05 10:34:12.771804,2020-04-09 00:00:00.000000,0.26356351,0.52837837,0.86748990,41,84,138,17,37,63,0.11243472,0.23260087,0.40033575,0.19375423,0.32731700,0.47158657
46127,0,USSouthDakotaUnion,South Dakota,Union,2021-01-05 10:34:12.771804,2020-04-10 00:00:00.000000,0.28204562,0.55842864,0.89085455,44,88,141,19,39,68,0.12346225,0.24996064,0.42884140,0.19188027,0.32398619,0.44344031
46127,0,USSouthDakotaUnion,South Dakota,Union,2021-01-05 10:34:12.771804,2020-04-11 00:00:00.000000,0.30192680,0.58800576,0.95428491,48,93,152,21,42,73,0.13332758,0.26822428,0.45960641,0.19059041,0.31732816,0.41893521
46127,0,USSouthDakotaUnion,South Dakota,Union,2021-01-05 10:34:12.771804,2020-04-12 00:00:00.000000,0.32113138,0.62425125,1.00857737,51,99,160,23,45,78,0.14483797,0.28853667,0.49024936,0.19167909,0.31581091,0.39731066
46127,0,USSouthDakotaUnion,South Dakota,Union,2021-01-05 10:34:12.771804,2020-04-13 00:00:00.000000,0.36219605,0.65642243,1.06592209,57,104,169,24,48,82,0.15636035,0.30667941,0.52028418,0.20206150,0.30670759,0.38927491
46127,0,USSouthDakotaUnion,South Dakota,Union,2021-01-05 10:34:12.771804,2020-04-14 00:00:00.000000,0.39679995,0.68997495,1.10986061,63,109,176,27,50,87,0.17076960,0.31972579,0.54698826,0.19933258,0.29893799,0.38339414
46127,0,USSouthDakotaUnion,South Dakota,Union,2021-01-05 10:34:12.771804,2020-04-15 00:00:00.000000,0.43310901,0.72210830,1.16451830,69,115,185,29,53,91,0.18681347,0.33792548,0.57481103,0.19971974,0.29688965,0.38100405
46127,0,USSouthDakotaUnion,South Dakota,Union,2021-01-05 10:34:12.771804,2020-04-16 00:00:00.000000,0.46012730,0.75846987,1.22068894,73,120,194,31,57,97,0.19936999,0.35888467,0.61376313,0.19980761,0.29483214,0.38045818
46127,0,USSouthDakotaUnion,South Dakota,Union,2021-01-05 10:34:12.771804,2020-04-17 00:00:00.000000,0.47152657,0.80322369,1.29076890,75,127,205,33,59,103,0.20948863,0.37481396,0.64881587,0.19742484,0.29746104,0.38019876
46127,0,USSouthDakotaUnion,South Dakota,Union,2021-01-05 10:34:12.771804,2020-04-18 00:00:00.000000,0.47877409,0.84571083,1.36606620,76,134,217,34,62,106,0.21937378,0.39261969,0.66726219,0.18943994,0.29371754,0.37128486
46127,0,USSouthDakotaUnion,South Dakota,Union,2021-01-05 10:34:12.771804,2020-04-19 00:00:00.000000,0.48882982,0.87789156,1.43839811,77,139,229,36,65,109,0.22919816,0.41309929,0.68574486,0.18934331,0.28475773,0.36810196
46127,0,USSouthDakotaUnion,South Dakota,Union,2021-01-05 10:34:12.771804,2020-04-20 00:00:00.000000,0.53917788,0.90244714,1.46535941,85,143,233,38,68,112,0.23905196,0.42700069,0.70429602,0.18122771,0.28826756,0.36578150
46127,0,USSouthDakotaUnion,South Dakota,Union,2021-01-05 10:34:12.771804,2020-04-21 00:00:00.000000,0.58798777,0.93722491,1.48809688,93,149,237,40,71,118,0.25116884,0.44835560,0.74613681,0.17906403,0.28268604,0.36353580
46127,0,USSouthDakotaUnion,South Dakota,Union,2021-01-05 10:34:12.771804,2020-04-22 00:00:00.000000,0.59343809,0.98799731,1.52063163,94,157,242,41,76,125,0.26314051,0.47773684,0.78959833,0.17663657,0.27844023,0.35634344
46127,0,USSouthDakotaUnion,South Dakota,Union,2021-01-05 10:34:12.771804,2020-04-23 00:00:00.000000,0.59918079,1.03244138,1.57120879,95,164,250,44,80,132,0.27968105,0.50230342,0.83313803,0.17767482,0.27369416,0.35586291
46127,0,USSouthDakotaUnion,South Dakota,Union,2021-01-05 10:34:12.771804,2020-04-24 00:00:00.000000,0.60132137,1.08039881,1.62147562,95,172,258,47,83,137,0.29588219,0.52292632,0.86135180,0.17075162,0.26765681,0.36103850
46127,0,USSouthDakotaUnion,South Dakota,Union,2021-01-05 10:34:12.771804,2020-04-25 00:00:00.000000,0.60278727,1.12054026,1.67077639,96,178,266,49,87,140,0.31047009,0.54953338,0.88108116,0.16397752,0.25347600,0.35160466
46127,0,USSouthDakotaUnion,South Dakota,Union,2021-01-05 10:34:12.771804,2020-04-26 00:00:00.000000,0.60006794,1.16335638,1.71842750,95,185,273,50,91,143,0.31713933,0.57501799,0.89859816,0.15936413,0.24614509,0.35488903
46127,0,USSouthDakotaUnion,South Dakota,Union,2021-01-05 10:34:12.771804,2020-04-27 00:00:00.000000,0.63395468,1.19379750,1.75628412,101,190,279,50,95,144,0.31875249,0.59867416,0.90959532,0.14446281,0.23902854,0.35329232
46127,0,USSouthDakotaUnion,South Dakota,Union,2021-01-05 10:34:12.771804,2020-04-28 00:00:00.000000,0.67816321,1.23293724,1.77959215,108,196,283,53,97,146,0.33352464,0.61189386,0.91699173,0.14507876,0.23337408,0.35084884
46127,0,USSouthDakotaUnion,South Dakota,Union,2021-01-05 10:34:12.771804,2020-04-29 00:00:00.000000,0.72328324,1.28635733,1.79003742,115,204,285,56,99,148,0.35512000,0.62348134,0.92935681,0.14618121,0.22868282,0.35039054
46127,0,USSouthDakotaUnion,South Dakota,Union,2021-01-05 10:34:12.771804,2020-04-30 00:00:00.000000,0.76896588,1.31898082,1.83083403,122,210,291,60,102,151,0.38081343,0.64203721,0.95196260,0.14761274,0.22413733,0.34444494
46127,0,USSouthDakotaUnion,South Dakota,Union,2021-01-05 10:34:12.771804,2020-05-01 00:00:00.000000,0.81557250,1.34329208,1.89148474,129,214,301,63,105,156,0.40053636,0.66034417,0.98192583,0.14506264,0.21573358,0.31678199
46127,0,USSouthDakotaUnion,South Dakota,Union,2021-01-05 10:34:12.771804,2020-05-02 00:00:00.000000,0.84825388,1.37345679,1.92349511,135,218,306,64,107,162,0.40680245,0.67612134,1.01692359,0.14246512,0.20957580,0.30617560
46127,0,USSouthDakotaUnion,South Dakota,Union,2021-01-05 10:34:12.771804,2020-05-03 00:00:00.000000,0.86389936,1.38624376,1.95341108,137,220,311,65,109,167,0.41209612,0.68882943,1.05059730,0.14122787,0.19874677,0.28358669
46127,0,USSouthDakotaUnion,South Dakota,Union,2021-01-05 10:34:12.771804,2020-05-04 00:00:00.000000,0.86324457,1.38120527,1.98153596,137,220,315,66,111,172,0.41757488,0.69966105,1.08325127,0.13634307,0.19344664,0.28825310
46127,0,USSouthDakotaUnion,South Dakota,Union,2021-01-05 10:34:12.771804,2020-05-05 00:00:00.000000,0.86145185,1.38699322,1.99320205,137,220,317,67,112,177,0.42362975,0.70549374,1.11171673,0.12848433,0.18729202,0.27410097
46127,0,USSouthDakotaUnion,South Dakota,Union,2021-01-05 10:34:12.771804,2020-05-06 00:00:00.000000,0.87304533,1.37565220,2.00161566,139,219,318,68,113,181,0.43013732,0.71144248,1.13709119,0.12560108,0.18286262,0.27294147
46127,0,USSouthDakotaUnion,South Dakota,Union,2021-01-05 10:34:12.771804,2020-05-07 00:00:00.000000,0.88319367,1.39001361,2.02792817,140,221,323,69,114,184,0.43678155,0.72166529,1.15492713,0.11381698,0.17990653,0.26476984
46127,0,USSouthDakotaUnion,South Dakota,Union,2021-01-05 10:34:12.771804,2020-05-08 00:00:00.000000,0.88799753,1.39053024,2.05031795,141,221,326,70,116,185,0.44300533,0.72884258,1.16416233,0.11091259,0.17214294,0.24234668
46127,0,USSouthDakotaUnion,South Dakota,Union,2021-01-05 10:34:12.771804,2020-05-09 00:00:00.000000,0.88734172,1.38161178,2.07177851,141,220,330,71,117,186,0.44800080,0.73957846,1.17018531,0.10929778,0.16758541,0.23240947
46127,0,USSouthDakotaUnion,South Dakota,Union,2021-01-05 10:34:12.771804,2020-05-10 00:00:00.000000,0.88344978,1.37696157,2.08374451,140,219,331,71,117,185,0.45121705,0.73987359,1.16170630,0.10121185,0.16447805,0.22177626
46127,0,USSouthDakotaUnion,South Dakota,Union,2021-01-05 10:34:12.771804,2020-05-11 00:00:00.000000,0.88168431,1.37890854,2.08678060,140,219,332,72,119,183,0.45269222,0.75171988,1.15283596,0.09970411,0.15984585,0.22105270
46127,0,USSouthDakotaUnion,South Dakota,Union,2021-01-05 10:34:12.771804,2020-05-12 00:00:00.000000,0.87036098,1.37517736,2.08536041,138,219,332,72,118,187,0.45397156,0.74502868,1.17752420,0.09940594,0.15685407,0.21540828
46127,0,USSouthDakotaUnion,South Dakota,Union,2021-01-05 10:34:12.771804,2020-05-13 00:00:00.000000,0.85848574,1.36840597,2.07919425,136,218,331,72,118,189,0.45437924,0.74332938,1.18644299,0.09523976,0.15565785,0.20996268
46127,0,USSouthDakotaUnion,South Dakota,Union,2021-01-05 10:34:12.771804,2020-05-14 00:00:00.000000,0.84656697,1.35451882,2.06999103,134,215,329,71,118,189,0.44880744,0.74423138,1.19116073,0.09721110,0.15379843,0.20681410
46127,0,USSouthDakotaUnion,South Dakota,Union,2021-01-05 10:34:12.771804,2020-05-15 00:00:00.000000,0.83484604,1.33741405,2.05854646,133,213,327,70,117,190,0.44304519,0.73885164,1.19560797,0.09115486,0.15263839,0.21161769
46127,0,USSouthDakotaUnion,South Dakota,Union,2021-01-05 10:34:12.771804,2020-05-16 00:00:00.000000,0.82344477,1.32508101,2.04553566,131,211,325,69,116,191,0.43717347,0.73251250,1.19971200,0.09058365,0.14528631,0.21785698
46127,0,USSouthDakotaUnion,South Dakota,Union,2021-01-05 10:34:12.771804,2020-05-17 00:00:00.000000,0.81242898,1.31710820,2.04800172,129,209,326,68,115,191,0.43124135,0.72490694,1.20347130,0.08867781,0.13910745,0.20783331
46127,0,USSouthDakotaUnion,South Dakota,Union,2021-01-05 10:34:12.771804,2020-05-18 00:00:00.000000,0.78431900,1.30602809,2.06355801,124,208,328,67,115,192,0.42529048,0.72679947,1.20690586,0.08427598,0.13487479,0.20407678
46127,0,USSouthDakotaUnion,South Dakota,Union,2021-01-05 10:34:12.771804,2020-05-19 00:00:00.000000,0.75665032,1.28941852,2.04783543,120,205,326,66,114,192,0.41984714,0.72100604,1.20794945,0.08238669,0.13390173,0.20349203
46127,0,USSouthDakotaUnion,South Dakota,Union,2021-01-05 10:34:12.771804,2020-05-20 00:00:00.000000,0.72931473,1.27247492,2.03166660,116,202,323,66,114,192,0.41477387,0.71833621,1.20720120,0.08168485,0.13365351,0.20072704
46127,0,USSouthDakotaUnion,South Dakota,Union,2021-01-05 10:34:12.771804,2020-05-21 00:00:00.000000,0.71703264,1.25539225,2.01754485,114,200,321,65,114,191,0.40997528,0.71686634,1.20511231,0.08144279,0.13283439,0.20258734
46127,0,USSouthDakotaUnion,South Dakota,Union,2021-01-05 10:34:12.771804,2020-05-22 00:00:00.000000,0.70885453,1.23854769,2.00578647,112,197,319,64,113,191,0.40537645,0.71439124,1.20201886,0.08137157,0.13105935,0.20158615
46127,0,USSouthDakotaUnion,South Dakota,Union,2021-01-05 10:34:12.771804,2020-05-23 00:00:00.000000,0.70069585,1.21992327,1.99605684,111,194,318,63,112,190,0.40091046,0.70736797,1.19812249,0.08136515,0.13062028,0.19960288
46127,0,USSouthDakotaUnion,South Dakota,Union,2021-01-05 10:34:12.771804,2020-05-24 00:00:00.000000,0.69270390,1.20349383,1.98712513,110,191,316,63,111,190,0.39652442,0.69820326,1.19283745,0.08139434,0.12698854,0.19666010
46127,0,USSouthDakotaUnion,South Dakota,Union,2021-01-05 10:34:12.771804,2020-05-25 00:00:00.000000,0.67810299,1.18638202,1.98549810,108,189,316,62,109,188,0.38937071,0.68877122,1.18422430,0.08145421,0.12469900,0.19768512
46127,0,USSouthDakotaUnion,South Dakota,Union,2021-01-05 10:34:12.771804,2020-05-26 00:00:00.000000,0.66379388,1.16524469,1.98387163,105,185,316,60,108,186,0.37829979,0.67914889,1.17320667,0.08322104,0.12446711,0.19802991
46127,0,USSouthDakotaUnion,South Dakota,Union,2021-01-05 10:34:12.771804,2020-05-27 00:00:00.000000,0.64952814,1.15165486,1.98148464,103,183,315,58,106,187,0.36954306,0.66873177,1.17535513,0.08216612,0.12613941,0.19723812
46127,0,USSouthDakotaUnion,South Dakota,Union,2021-01-05 10:34:12.771804,2020-05-28 00:00:00.000000,0.63535753,1.13605996,1.97680475,101,180,314,57,104,188,0.35849571,0.65840456,1.18134105,0.08131688,0.12587980,0.20057604
46127,0,USSouthDakotaUnion,South Dakota,Union,2021-01-05 10:34:12.771804,2020-05-29 00:00:00.000000,0.62127102,1.12045766,1.96752613,98,178,313,55,103,189,0.34731663,0.64789019,1.18707314,0.08018879,0.12655182,0.20059936
46127,0,USSouthDakotaUnion,South Dakota,Union,2021-01-05 10:34:12.771804,2020-05-30 00:00:00.000000,0.60729337,1.10467602,1.95197228,96,175,310,53,101,190,0.33796278,0.63914884,1.19288605,0.07952523,0.12754672,0.19408756
46127,0,USSouthDakotaUnion,South Dakota,Union,2021-01-05 10:34:12.771804,2020-05-31 00:00:00.000000,0.60125444,1.09350473,1.93098281,95,174,307,53,100,191,0.33717440,0.63210043,1.19917181,0.07880980,0.12662568,0.19381458
46127,0,USSouthDakotaUnion,South Dakota,Union,2021-01-05 10:34:12.771804,2020-06-01 00:00:00.000000,0.59827167,1.08011129,1.93372842,95,172,308,53,99,192,0.33663250,0.62557112,1.20612601,0.07819604,0.12667411,0.18680166
46127,0,USSouthDakotaUnion,South Dakota,Union,2021-01-05 10:34:12.771804,2020-06-02 00:00:00.000000,0.59037650,1.07026065,1.93251801,94,170,307,53,97,193,0.33343585,0.61422760,1.21159398,0.07796688,0.12603170,0.17834317
46127,0,USSouthDakotaUnion,South Dakota,Union,2021-01-05 10:34:12.771804,2020-06-03 00:00:00.000000,0.57807316,1.05008152,1.90625034,92,167,303,52,96,191,0.32836616,0.60434556,1.19975078,0.07483202,0.12641894,0.17835217
46127,0,USSouthDakotaUnion,South Dakota,Union,2021-01-05 10:34:12.771804,2020-06-04 00:00:00.000000,0.56481526,1.03029563,1.87697301,89,164,299,51,95,189,0.32196791,0.59721634,1.18716427,0.07479224,0.12480535,0.17829295
46127,0,USSouthDakotaUnion,South Dakota,Union,2021-01-05 10:34:12.771804,2020-06-05 00:00:00.000000,0.56011160,1.01364834,1.86746583,89,161,297,50,93,186,0.31458390,0.58582055,1.17359037,0.07487867,0.12376207,0.18211006
46127,0,USSouthDakotaUnion,South Dakota,Union,2021-01-05 10:34:12.771804,2020-06-06 00:00:00.000000,0.54118203,0.99933577,1.86903280,86,159,297,48,91,184,0.30640672,0.57529860,1.15895335,0.07513208,0.12271890,0.18712963
46127,0,USSouthDakotaUnion,South Dakota,Union,2021-01-05 10:34:12.771804,2020-06-07 00:00:00.000000,0.52275582,0.98588217,1.86435718,83,157,297,47,90,182,0.29761400,0.56690097,1.14338682,0.07694884,0.12095064,0.18727160
46127,0,USSouthDakotaUnion,South Dakota,Union,2021-01-05 10:34:12.771804,2020-06-08 00:00:00.000000,0.51085864,0.97508542,1.87261663,81,155,298,45,89,179,0.28842944,0.55864622,1.12708524,0.07687475,0.11959591,0.19222766
46127,0,USSouthDakotaUnion,South Dakota,Union,2021-01-05 10:34:12.771804,2020-06-09 00:00:00.000000,0.48806624,0.96945027,1.87899916,77,154,299,44,87,177,0.28233035,0.55032428,1.11289809,0.07784361,0.11846398,0.19389905
46127,0,USSouthDakotaUnion,South Dakota,Union,2021-01-05 10:34:12.771804,2020-06-10 00:00:00.000000,0.46643487,0.96408481,1.85553015,74,153,295,44,86,175,0.27858886,0.54083776,1.10038328,0.07816891,0.12075897,0.19517437
46127,0,USSouthDakotaUnion,South Dakota,Union,2021-01-05 10:34:12.771804,2020-06-11 00:00:00.000000,0.44578226,0.95033672,1.82621116,71,151,290,44,84,173,0.27670521,0.53096642,1.08919253,0.08027121,0.12374343,0.19497076
46127,0,USSouthDakotaUnion,South Dakota,Union,2021-01-05 10:34:12.771804,2020-06-12 00:00:00.000000,0.42440768,0.93571135,1.79719647,67,149,286,42,83,171,0.26883074,0.52252617,1.07905205,0.08192409,0.12656007,0.19464010
46127,0,USSouthDakotaUnion,South Dakota,Union,2021-01-05 10:34:12.771804,2020-06-13 00:00:00.000000,0.40489231,0.91758692,1.76849271,64,146,281,40,82,170,0.25699088,0.51525168,1.06974805,0.08055549,0.12900980,0.19424356
46127,0,USSouthDakotaUnion,South Dakota,Union,2021-01-05 10:34:12.771804,2020-06-14 00:00:00.000000,0.38958976,0.89809252,1.74015502,62,143,277,39,81,169,0.24496517,0.50895552,1.06111114,0.07713587,0.13025393,0.19544827
46127,0,USSouthDakotaUnion,South Dakota,Union,2021-01-05 10:34:12.771804,2020-06-15 00:00:00.000000,0.39017850,0.88949779,1.70368914,62,141,271,37,80,167,0.23663292,0.50277331,1.05300757,0.07761910,0.13128232,0.20117863
46127,0,USSouthDakotaUnion,South Dakota,Union,2021-01-05 10:34:12.771804,2020-06-16 00:00:00.000000,0.39176116,0.88580397,1.66829258,62,141,265,37,79,166,0.23625097,0.50023201,1.04311884,0.07689847,0.13167468,0.20700395
46127,0,USSouthDakotaUnion,South Dakota,Union,2021-01-05 10:34:12.771804,2020-06-17 00:00:00.000000,0.39458095,0.87959696,1.63475702,62,140,260,37,79,164,0.23642812,0.49634223,1.03187019,0.07589970,0.13340508,0.21380018
46127,0,USSouthDakotaUnion,South Dakota,Union,2021-01-05 10:34:12.771804,2020-06-18 00:00:00.000000,0.39950985,0.87442880,1.60391643,63,139,255,37,78,162,0.23658983,0.49420276,1.01951645,0.07576390,0.13562107,0.21928325
46127,0,USSouthDakotaUnion,South Dakota,Union,2021-01-05 10:34:12.771804,2020-06-19 00:00:00.000000,0.40528766,0.86461485,1.58697466,64,137,252,37,78,160,0.23601055,0.49096934,1.00612711,0.07571530,0.13946113,0.23193902
46127,0,USSouthDakotaUnion,South Dakota,Union,2021-01-05 10:34:12.771804,2020-06-20 00:00:00.000000,0.41131997,0.87487009,1.61136163,65,139,256,37,77,158,0.23679539,0.48564129,0.99195495,0.07455914,0.14254197,0.25369454
46127,0,USSouthDakotaUnion,South Dakota,Union,2021-01-05 10:34:12.771804,2020-06-21 00:00:00.000000,0.41745670,0.89540245,1.63822545,66,142,261,38,76,156,0.23855301,0.47887117,0.97984349,0.07361037,0.14336435,0.25733558
46127,0,USSouthDakotaUnion,South Dakota,Union,2021-01-05 10:34:12.771804,2020-06-22 00:00:00.000000,0.46294593,0.89258537,1.63466575,73,142,260,38,75,158,0.24092884,0.47221631,0.99189856,0.07280866,0.14525513,0.25740583
46127,0,USSouthDakotaUnion,South Dakota,Union,2021-01-05 10:34:12.771804,2020-06-23 00:00:00.000000,0.46302332,0.90247039,1.60623047,73,143,255,39,75,159,0.24797821,0.47155286,1.00390040,0.07215568,0.14770777,0.25708320
46127,0,USSouthDakotaUnion,South Dakota,Union,2021-01-05 10:34:12.771804,2020-06-24 00:00:00.000000,0.49805562,0.89492757,1.57911393,79,142,251,38,75,161,0.24376929,0.47101212,1.01589992,0.07252912,0.14829064,0.25602164
46127,0,USSouthDakotaUnion,South Dakota,Union,2021-01-05 10:34:12.771804,2020-06-25 00:00:00.000000,0.52219383,0.89280481,1.55318591,83,142,247,38,75,163,0.24017504,0.47143155,1.02791419,0.07231308,0.14972114,0.25352088
46127,0,USSouthDakotaUnion,South Dakota,Union,2021-01-05 10:34:12.771804,2020-06-26 00:00:00.000000,0.51620528,0.89888648,1.53521339,82,143,244,40,75,165,0.25531294,0.47142539,1.03995692,0.07423547,0.15023573,0.24833190
46127,0,USSouthDakotaUnion,South Dakota,Union,2021-01-05 10:34:12.771804,2020-06-27 00:00:00.000000,0.51094057,0.89346899,1.52857120,81,142,243,44,75,167,0.27708185,0.47216830,1.05205140,0.07453178,0.15499443,0.24376450
46127,0,USSouthDakotaUnion,South Dakota,Union,2021-01-05 10:34:12.771804,2020-06-28 00:00:00.000000,0.50677214,0.90151882,1.52184771,80,143,242,43,76,169,0.27615896,0.48122524,1.06424599,0.07473224,0.15784957,0.24714202
46127,0,USSouthDakotaUnion,South Dakota,Union,2021-01-05 10:34:12.771804,2020-06-29 00:00:00.000000,0.51567011,0.90848175,1.52013846,82,144,242,43,76,168,0.27519850,0.48150019,1.05809539,0.07392055,0.15875180,0.24563018
46127,0,USSouthDakotaUnion,South Dakota,Union,2021-01-05 10:34:12.771804,2020-06-30 00:00:00.000000,0.52588326,0.91323617,1.51853633,83,145,241,45,76,166,0.28591886,0.48249421,1.04353516,0.07513120,0.15930272,0.24544883
46127,0,USSouthDakotaUnion,South Dakota,Union,2021-01-05 10:34:12.771804,2020-07-01 00:00:00.000000,0.53029453,0.90613476,1.51704317,84,144,241,46,76,164,0.29389397,0.48325666,1.03093605,0.07773588,0.16406394,0.25184065
46127,0,USSouthDakotaUnion,South Dakota,Union,2021-01-05 10:34:12.771804,2020-07-02 00:00:00.000000,0.51861240,0.91217138,1.51540277,82,145,241,45,77,162,0.28765550,0.48476566,1.01965113,0.07855998,0.16574508,0.24777912
46127,0,USSouthDakotaUnion,South Dakota,Union,2021-01-05 10:34:12.771804,2020-07-03 00:00:00.000000,0.50836216,0.93579753,1.55563182,80,149,247,44,77,160,0.28159085,0.48814529,1.00933841,0.08076805,0.16684684,0.24733418
46127,0,USSouthDakotaUnion,South Dakota,Union,2021-01-05 10:34:12.771804,2020-07-04 00:00:00.000000,0.53448250,0.94463113,1.62196563,85,150,258,43,78,159,0.27606258,0.49304817,0.99981339,0.08333752,0.16663775,0.24570935
46127,0,USSouthDakotaUnion,South Dakota,Union,2021-01-05 10:34:12.771804,2020-07-05 00:00:00.000000,0.55894868,0.95098917,1.68705209,89,151,268,43,79,157,0.27086938,0.49958074,0.99097875,0.08609000,0.16539849,0.24974160
46127,0,USSouthDakotaUnion,South Dakota,Union,2021-01-05 10:34:12.771804,2020-07-06 00:00:00.000000,0.55185627,0.95399020,1.70720277,87,151,271,45,79,156,0.28264319,0.50148327,0.98280947,0.08647482,0.16400835,0.25226965
46127,0,USSouthDakotaUnion,South Dakota,Union,2021-01-05 10:34:12.771804,2020-07-07 00:00:00.000000,0.54519351,0.94871751,1.72078080,86,151,274,44,80,156,0.27833463,0.50357262,0.98153953,0.08671050,0.16225956,0.25355954
46127,0,USSouthDakotaUnion,South Dakota,Union,2021-01-05 10:34:12.771804,2020-07-08 00:00:00.000000,0.53898936,0.94512385,1.72777857,85,150,275,43,80,157,0.27424690,0.50519541,0.98578524,0.08708983,0.16329018,0.25406201
46127,0,USSouthDakotaUnion,South Dakota,Union,2021-01-05 10:34:12.771804,2020-07-09 00:00:00.000000,0.53347025,0.95638367,1.73168896,84,152,275,43,80,158,0.27092785,0.50430044,0.99450990,0.08908030,0.16527431,0.25418704
46127,0,USSouthDakotaUnion,South Dakota,Union,2021-01-05 10:34:12.771804,2020-07-10 00:00:00.000000,0.53000190,0.96927583,1.73442752,84,154,276,43,80,160,0.27594177,0.50691948,1.00687386,0.09183698,0.16498137,0.26076864
46127,0,USSouthDakotaUnion,South Dakota,Union,2021-01-05 10:34:12.771804,2020-07-11 00:00:00.000000,0.52967586,0.97765097,1.73646039,84,155,276,45,81,162,0.28371028,0.50981698,1.02140442,0.09973767,0.17004286,0.25814289
46127,0,USSouthDakotaUnion,South Dakota,Union,2021-01-05 10:34:12.771804,2020-07-12 00:00:00.000000,0.53068332,0.98600686,1.73809982,84,157,276,46,80,165,0.29193079,0.50749650,1.03822954,0.10786031,0.17403764,0.25172959
46127,0,USSouthDakotaUnion,South Dakota,Union,2021-01-05 10:34:12.771804,2020-07-13 00:00:00.000000,0.53196273,0.98427442,1.72777005,84,156,275,47,81,168,0.29798043,0.51139489,1.05689678,0.10587247,0.17539877,0.25047690
46127,0,USSouthDakotaUnion,South Dakota,Union,2021-01-05 10:34:12.771804,2020-07-14 00:00:00.000000,0.53365958,0.98106708,1.71736324,85,156,273,47,81,170,0.29834678,0.51390148,1.06914035,0.10719194,0.17621740,0.24970666
46127,0,USSouthDakotaUnion,South Dakota,Union,2021-01-05 10:34:12.771804,2020-07-15 00:00:00.000000,0.53565829,0.98346258,1.70681279,85,156,271,47,81,171,0.30025987,0.51388817,1.07655747,0.10784084,0.17965501,0.24253567
46127,0,USSouthDakotaUnion,South Dakota,Union,2021-01-05 10:34:12.771804,2020-07-16 00:00:00.000000,0.53785398,0.98303820,1.69628853,85,156,270,48,81,172,0.30329291,0.51402530,1.08036297,0.10863349,0.18047803,0.24195373
46127,0,USSouthDakotaUnion,South Dakota,Union,2021-01-05 10:34:12.771804,2020-07-17 00:00:00.000000,0.54016424,0.99538242,1.68591847,86,158,268,48,82,172,0.30393991,0.51584002,1.08156651,0.11027499,0.18088777,0.24415702
46127,0,USSouthDakotaUnion,South Dakota,Union,2021-01-05 10:34:12.771804,2020-07-18 00:00:00.000000,0.54253334,1.00901048,1.67574312,86,160,266,48,82,172,0.30451639,0.51817054,1.08122892,0.11391649,0.18290366,0.25455016
46127,0,USSouthDakotaUnion,South Dakota,Union,2021-01-05 10:34:12.771804,2020-07-19 00:00:00.000000,0.54009124,1.01649061,1.66575238,86,161,265,48,83,172,0.30529796,0.52336453,1.08019720,0.12157420,0.18587851,0.26227833
46127,0,USSouthDakotaUnion,South Dakota,Union,2021-01-05 10:34:12.771804,2020-07-20 00:00:00.000000,0.55223163,1.02578037,1.65534362,87,163,263,48,83,171,0.30623121,0.52637673,1.07878892,0.12383056,0.18870995,0.26533076
46127,0,USSouthDakotaUnion,South Dakota,Union,2021-01-05 10:34:12.771804,2020-07-21 00:00:00.000000,0.56770224,1.05337466,1.64509954,90,167,262,49,84,171,0.31111652,0.53021420,1.07692884,0.12254010,0.18791669,0.26789536
46127,0,USSouthDakotaUnion,South Dakota,Union,2021-01-05 10:34:12.771804,2020-07-22 00:00:00.000000,0.58652592,1.06710246,1.63508764,93,170,260,50,85,171,0.31890545,0.53433656,1.07472959,0.12222028,0.18853768,0.27051666
46127,0,USSouthDakotaUnion,South Dakota,Union,2021-01-05 10:34:12.771804,2020-07-23 00:00:00.000000,0.60801898,1.08498888,1.62587883,96,172,259,52,86,170,0.32880979,0.54036873,1.07227450,0.12228193,0.18957456,0.27752914
46127,0,USSouthDakotaUnion,South Dakota,Union,2021-01-05 10:34:12.771804,2020-07-24 00:00:00.000000,0.63152030,1.11115490,1.61950642,100,177,258,54,86,170,0.34024248,0.54403422,1.06962647,0.12972791,0.18988622,0.27788066
46127,0,USSouthDakotaUnion,South Dakota,Union,2021-01-05 10:34:12.771804,2020-07-25 00:00:00.000000,0.64543103,1.13175108,1.61704257,102,180,257,55,87,169,0.34647546,0.54855133,1.06683046,0.13510864,0.18796078,0.27811585
46127,0,USSouthDakotaUnion,South Dakota,Union,2021-01-05 10:34:12.771804,2020-07-26 00:00:00.000000,0.64427896,1.14599011,1.62000293,102,182,258,54,87,169,0.34517684,0.54986518,1.06390211,0.13789038,0.18706523,0.27893943
46127,0,USSouthDakotaUnion,South Dakota,Union,2021-01-05 10:34:12.771804,2020-07-27 00:00:00.000000,0.64994886,1.14408642,1.62359296,103,182,258,54,88,169,0.34414227,0.55667235,1.06076376,0.14117702,0.19171781,0.28266787
46127,0,USSouthDakotaUnion,South Dakota,Union,2021-01-05 10:34:12.771804,2020-07-28 00:00:00.000000,0.65762872,1.15403364,1.62465011,104,183,258,54,89,168,0.34467175,0.56282400,1.05722268,0.13987208,0.19289177,0.30689867
46127,0,USSouthDakotaUnion,South Dakota,Union,2021-01-05 10:34:12.771804,2020-07-29 00:00:00.000000,0.66900636,1.14432955,1.62562851,106,182,258,55,90,167,0.34628154,0.56985358,1.05310509,0.12469534,0.19987135,0.30670752
46127,0,USSouthDakotaUnion,South Dakota,Union,2021-01-05 10:34:12.771804,2020-07-30 00:00:00.000000,0.68211268,1.14089189,1.65517054,108,181,263,55,91,167,0.34861436,0.57692322,1.04848408,0.12571885,0.20294314,0.31033399
46127,0,USSouthDakotaUnion,South Dakota,Union,2021-01-05 10:34:12.771804,2020-07-31 00:00:00.000000,0.69746408,1.15212919,1.68320406,111,183,268,56,93,166,0.35393762,0.58596856,1.04349778,0.12723647,0.20656737,0.30743353
46127,0,USSouthDakotaUnion,South Dakota,Union,2021-01-05 10:34:12.771804,2020-08-01 00:00:00.000000,0.71503163,1.16021421,1.68993691,113,184,269,57,94,165,0.36197421,0.59312326,1.03827837,0.12897197,0.20831047,0.31110799
46127,0,USSouthDakotaUnion,South Dakota,Union,2021-01-05 10:34:12.771804,2020-08-02 00:00:00.000000,0.73427148,1.17616787,1.68474794,116,187,268,58,95,164,0.36544443,0.59933714,1.03294268,0.13071290,0.21313449,0.31262378
46127,0,USSouthDakotaUnion,South Dakota,Union,2021-01-05 10:34:12.771804,2020-08-03 00:00:00.000000,0.74457206,1.20232139,1.71816025,118,191,273,59,96,163,0.37316271,0.60793578,1.02759284,0.13225432,0.21538692,0.31328858
46127,0,USSouthDakotaUnion,South Dakota,Union,2021-01-05 10:34:12.771804,2020-08-04 00:00:00.000000,0.75529540,1.22443951,1.75225897,120,195,279,60,97,162,0.38109380,0.61165749,1.02256090,0.13347951,0.21547474,0.31373823
46127,0,USSouthDakotaUnion,South Dakota,Union,2021-01-05 10:34:12.771804,2020-08-05 00:00:00.000000,0.75281664,1.24326274,1.76507414,119,198,281,61,97,162,0.38845407,0.61441058,1.01962449,0.13438759,0.21752110,0.31402469
46127,0,USSouthDakotaUnion,South Dakota,Union,2021-01-05 10:34:12.771804,2020-08-06 00:00:00.000000,0.74867308,1.27448147,1.77592698,119,203,282,62,98,164,0.39542450,0.61696752,1.02988067,0.13507853,0.22079337,0.31392821
46127,0,USSouthDakotaUnion,South Dakota,Union,2021-01-05 10:34:12.771804,2020-08-07 00:00:00.000000,0.74573579,1.29773979,1.78862105,118,206,284,64,99,165,0.40212097,0.62228615,1.03907797,0.13577965,0.22389274,0.31334218
46127,0,USSouthDakotaUnion,South Dakota,Union,2021-01-05 10:34:12.771804,2020-08-08 00:00:00.000000,0.74499058,1.31647453,1.85516520,118,209,295,65,100,166,0.40862505,0.63187170,1.04755257,0.13725362,0.22830896,0.31076948
46127,0,USSouthDakotaUnion,South Dakota,Union,2021-01-05 10:34:12.771804,2020-08-09 00:00:00.000000,0.75844715,1.34416363,1.92861619,120,214,307,65,101,168,0.41407725,0.63744610,1.05906517,0.14041009,0.23162532,0.31305575
46127,0,USSouthDakotaUnion,South Dakota,Union,2021-01-05 10:34:12.771804,2020-08-10 00:00:00.000000,0.78402256,1.35578134,1.94705378,124,216,310,65,103,174,0.41405236,0.64737631,1.09676875,0.14649954,0.23429974,0.32626724
46127,0,USSouthDakotaUnion,South Dakota,Union,2021-01-05 10:34:12.771804,2020-08-11 00:00:00.000000,0.81020126,1.37240979,1.96065285,129,218,312,66,105,180,0.41542583,0.65992233,1.13229875,0.15654514,0.24180267,0.34315143
46127,0,USSouthDakotaUnion,South Dakota,Union,2021-01-05 10:34:12.771804,2020-08-12 00:00:00.000000,0.83546800,1.39056588,1.97654756,133,221,314,67,107,185,0.42244336,0.67283469,1.16695655,0.16161461,0.24692157,0.33455981
46127,0,USSouthDakotaUnion,South Dakota,Union,2021-01-05 10:34:12.771804,2020-08-13 00:00:00.000000,0.84803619,1.40979096,2.02760683,135,224,323,69,109,191,0.43486873,0.68988451,1.20158415,0.16216067,0.25605023,0.32832936
46127,0,USSouthDakotaUnion,South Dakota,Union,2021-01-05 10:34:12.771804,2020-08-14 00:00:00.000000,0.87153526,1.43564950,2.08932014,138,228,332,70,112,197,0.44317597,0.70585225,1.23686435,0.16325207,0.26513112,0.33136963
46127,0,USSouthDakotaUnion,South Dakota,Union,2021-01-05 10:34:12.771804,2020-08-15 00:00:00.000000,0.90430770,1.46985893,2.15056783,144,234,342,71,114,202,0.45061906,0.71965193,1.27369621,0.17024985,0.27184872,0.35035172
46127,0,USSouthDakotaUnion,South Dakota,Union,2021-01-05 10:34:12.771804,2020-08-16 00:00:00.000000,0.93994813,1.50213872,2.23161483,149,239,355,73,117,209,0.46085840,0.73593059,1.31185621,0.17510674,0.27720821,0.36862696
46127,0,USSouthDakotaUnion,South Dakota,Union,2021-01-05 10:34:12.771804,2020-08-17 00:00:00.000000,1.00487369,1.55833237,2.34338613,160,248,373,75,119,212,0.47377312,0.75178006,1.33626043,0.17809778,0.28378405,0.37020048
46127,0,USSouthDakotaUnion,South Dakota,Union,2021-01-05 10:34:12.771804,2020-08-18 00:00:00.000000,1.03861457,1.61082166,2.45896158,165,256,391,78,122,218,0.49276184,0.77128468,1.37428414,0.18456198,0.28582049,0.37204006
46127,0,USSouthDakotaUnion,South Dakota,Union,2021-01-05 10:34:12.771804,2020-08-19 00:00:00.000000,1.06323735,1.68575288,2.57997045,169,268,411,82,127,223,0.51638437,0.79847506,1.40146006,0.18750747,0.28821482,0.38705073
46127,0,USSouthDakotaUnion,South Dakota,Union,2021-01-05 10:34:12.771804,2020-08-20 00:00:00.000000,1.09094891,1.73666277,2.66622017,173,276,424,86,131,228,0.54363440,0.82366251,1.43301072,0.18877513,0.29081353,0.40918714
46127,0,USSouthDakotaUnion,South Dakota,Union,2021-01-05 10:34:12.771804,2020-08-21 00:00:00.000000,1.12201912,1.79128887,2.70186987,178,285,430,90,134,233,0.56709484,0.84513390,1.46762806,0.21171485,0.29500262,0.42636598
46127,0,USSouthDakotaUnion,South Dakota,Union,2021-01-05 10:34:12.771804,2020-08-22 00:00:00.000000,1.15605617,1.84251019,2.73118223,184,293,435,91,138,239,0.57644521,0.86861949,1.50389525,0.21099804,0.30453622,0.43112382
46127,0,USSouthDakotaUnion,South Dakota,Union,2021-01-05 10:34:12.771804,2020-08-23 00:00:00.000000,1.19293735,1.90066445,2.75844935,190,302,439,93,141,245,0.58610900,0.88695460,1.54083016,0.20542789,0.31306679,0.41701586
46127,0,USSouthDakotaUnion,South Dakota,Union,2021-01-05 10:34:12.771804,2020-08-24 00:00:00.000000,1.22687050,1.97797274,2.80480189,195,315,446,95,146,253,0.59638262,0.91806382,1.59396280,0.20088729,0.31733748,0.43459016
46127,0,USSouthDakotaUnion,South Dakota,Union,2021-01-05 10:34:12.771804,2020-08-25 00:00:00.000000,1.26401288,2.06185272,2.90604683,201,328,462,97,151,264,0.61340453,0.95203578,1.65811556,0.19905502,0.32067209,0.43445273
46127,0,USSouthDakotaUnion,South Dakota,Union,2021-01-05 10:34:12.771804,2020-08-26 00:00:00.000000,1.30823592,2.12347310,2.98768348,208,338,475,100,157,274,0.63281044,0.98627683,1.72258449,0.19771624,0.32852473,0.43402263
46127,0,USSouthDakotaUnion,South Dakota,Union,2021-01-05 10:34:12.771804,2020-08-27 00:00:00.000000,1.35710499,2.20193910,3.03732915,216,350,483,103,162,282,0.65174217,1.01776192,1.77271631,0.19557248,0.32850071,0.43807330
46127,0,USSouthDakotaUnion,South Dakota,Union,2021-01-05 10:34:12.771804,2020-08-28 00:00:00.000000,1.40723539,2.27933794,3.15741587,224,363,503,106,167,286,0.67045597,1.04999295,1.80116907,0.20033632,0.33084439,0.45299109
46127,0,USSouthDakotaUnion,South Dakota,Union,2021-01-05 10:34:12.771804,2020-08-29 00:00:00.000000,1.44828006,2.35943360,3.27291020,230,375,521,109,173,291,0.68920499,1.09119970,1.82751600,0.20813880,0.33377784,0.46955268
46127,0,USSouthDakotaUnion,South Dakota,Union,2021-01-05 10:34:12.771804,2020-08-30 00:00:00.000000,1.48320346,2.44881228,3.38603772,236,390,539,112,181,294,0.70855849,1.13723188,1.85155913,0.20680146,0.33753367,0.48584930
46127,0,USSouthDakotaUnion,South Dakota,Union,2021-01-05 10:34:12.771804,2020-08-31 00:00:00.000000,1.53217695,2.54365949,3.50523333,244,405,558,116,189,301,0.72976353,1.18752643,1.89028714,0.20646649,0.34070331,0.50090155
46127,0,USSouthDakotaUnion,South Dakota,Union,2021-01-05 10:34:12.771804,2020-09-01 00:00:00.000000,1.58167801,2.62188285,3.62612916,251,417,577,120,195,310,0.75388406,1.22805389,1.94623620,0.20711274,0.33772311,0.49881570
46127,0,USSouthDakotaUnion,South Dakota,Union,2021-01-05 10:34:12.771804,2020-09-02 00:00:00.000000,1.63250886,2.69218652,3.75007573,260,428,597,124,202,319,0.78040285,1.27001198,2.00547091,0.20935670,0.34113608,0.48851777
46127,0,USSouthDakotaUnion,South Dakota,Union,2021-01-05 10:34:12.771804,2020-09-03 00:00:00.000000,1.68572072,2.76472896,3.94262253,268,440,628,128,208,329,0.80888138,1.30590120,2.06833138,0.21486177,0.34220027,0.50801283
46127,0,USSouthDakotaUnion,South Dakota,Union,2021-01-05 10:34:12.771804,2020-09-04 00:00:00.000000,1.74355821,2.86135378,4.20327408,277,455,669,133,214,340,0.83908076,1.34792739,2.13492950,0.22632362,0.34889654,0.50870541
46127,0,USSouthDakotaUnion,South Dakota,Union,2021-01-05 10:34:12.771804,2020-09-05 00:00:00.000000,1.81007822,2.97726934,4.32084881,288,474,688,138,222,351,0.87079544,1.39629232,2.20526793,0.22831824,0.34657388,0.51983511
46127,0,USSouthDakotaUnion,South Dakota,Union,2021-01-05 10:34:12.771804,2020-09-06 00:00:00.000000,1.89144545,3.08918224,4.43899667,301,492,707,144,230,363,0.90714070,1.44705298,2.27949045,0.23071148,0.34414811,0.52862860
46127,0,USSouthDakotaUnion,South Dakota,Union,2021-01-05 10:34:12.771804,2020-09-07 00:00:00.000000,1.97749414,3.20567778,4.55338139,315,510,725,153,239,373,0.96036077,1.50060357,2.34307223,0.24100119,0.35759446,0.53491222
46127,0,USSouthDakotaUnion,South Dakota,Union,2021-01-05 10:34:12.771804,2020-09-08 00:00:00.000000,2.07753580,3.32038421,4.75203343,330,529,757,162,248,389,1.02154109,1.55722661,2.44240948,0.24552468,0.36132598,0.53813533
46127,0,USSouthDakotaUnion,South Dakota,Union,2021-01-05 10:34:12.771804,2020-09-09 00:00:00.000000,2.18819269,3.41556937,4.96802467,348,544,791,169,257,405,1.06628995,1.61896218,2.54468170,0.24696134,0.36445686,0.52418024
46127,0,USSouthDakotaUnion,South Dakota,Union,2021-01-05 10:34:12.771804,2020-09-10 00:00:00.000000,2.31025395,3.51090832,5.18971614,368,559,826,175,267,424,1.10104166,1.67610682,2.66274410,0.24726626,0.36879880,0.50305397
46127,0,USSouthDakotaUnion,South Dakota,Union,2021-01-05 10:34:12.771804,2020-09-11 00:00:00.000000,2.44789362,3.64762656,5.31420554,389,581,846,181,276,443,1.13687711,1.73646481,2.78635601,0.24763836,0.37239952,0.50136980
46127,0,USSouthDakotaUnion,South Dakota,Union,2021-01-05 10:34:12.771804,2020-09-12 00:00:00.000000,2.60376746,3.78595758,5.55533168,414,603,885,187,287,464,1.17476006,1.80181484,2.91446681,0.24895189,0.37391052,0.50395273
46127,0,USSouthDakotaUnion,South Dakota,Union,2021-01-05 10:34:12.771804,2020-09-13 00:00:00.000000,2.72472067,3.93249638,5.80176609,434,626,924,193,295,477,1.21682858,1.85403318,2.99408632,0.25260499,0.37862860,0.49818596
46127,0,USSouthDakotaUnion,South Dakota,Union,2021-01-05 10:34:12.771804,2020-09-14 00:00:00.000000,2.84010287,4.11299022,6.05241076,452,655,964,201,309,494,1.26476810,1.94035850,3.10607984,0.25753951,0.38282382,0.49858894
46127,0,USSouthDakotaUnion,South Dakota,Union,2021-01-05 10:34:12.771804,2020-09-15 00:00:00.000000,2.97876421,4.31758526,6.31127748,474,687,1005,209,325,514,1.31677486,2.04132582,3.22918710,0.26134366,0.38534291,0.49866564
46127,0,USSouthDakotaUnion,South Dakota,Union,2021-01-05 10:34:12.771804,2020-09-16 00:00:00.000000,3.07452046,4.53834620,6.55806600,489,723,1044,218,340,534,1.37256115,2.13850342,3.35343683,0.26589475,0.38936854,0.49759232
46127,0,USSouthDakotaUnion,South Dakota,Union,2021-01-05 10:34:12.771804,2020-09-17 00:00:00.000000,3.13426782,4.73986911,6.79876299,499,755,1083,228,354,555,1.43173422,2.22245149,3.48516307,0.27412035,0.39078794,0.49557660
46127,0,USSouthDakotaUnion,South Dakota,Union,2021-01-05 10:34:12.771804,2020-09-18 00:00:00.000000,3.20158580,4.94616454,7.08081949,510,788,1128,238,367,582,1.49401735,2.30823231,3.65630409,0.28718076,0.39608124,0.50819594
46127,0,USSouthDakotaUnion,South Dakota,Union,2021-01-05 10:34:12.771804,2020-09-19 00:00:00.000000,3.28366637,5.17538631,7.37832849,523,824,1175,248,386,611,1.55924932,2.42363253,3.83824254,0.29095883,0.41232940,0.51921926
46127,0,USSouthDakotaUnion,South Dakota,Union,2021-01-05 10:34:12.771804,2020-09-20 00:00:00.000000,3.38818281,5.40297605,7.67821232,539,860,1223,259,404,633,1.62732198,2.53891853,3.97883139,0.29229512,0.41895488,0.52043974
46127,0,USSouthDakotaUnion,South Dakota,Union,2021-01-05 10:34:12.771804,2020-09-21 00:00:00.000000,3.52391497,5.61568371,7.93629166,561,894,1264,270,420,657,1.69812448,2.63742300,4.12530342,0.29683851,0.41683286,0.52056572
46127,0,USSouthDakotaUnion,South Dakota,Union,2021-01-05 10:34:12.771804,2020-09-22 00:00:00.000000,3.68076807,5.84222549,8.17577613,586,930,1302,282,438,684,1.77222232,2.75009155,4.29801260,0.29662877,0.41041309,0.52060171
46127,0,USSouthDakotaUnion,South Dakota,Union,2021-01-05 10:34:12.771804,2020-09-23 00:00:00.000000,3.85258868,6.10559835,8.41128134,613,972,1340,294,454,715,1.84914817,2.85525075,4.49130105,0.29658888,0.40338098,0.52066006
46127,0,USSouthDakotaUnion,South Dakota,Union,2021-01-05 10:34:12.771804,2020-09-24 00:00:00.000000,4.03375217,6.39982949,8.64827301,642,1019,1377,307,473,748,1.92825235,2.97404471,4.70083257,0.29655859,0.40462654,0.52061663
46127,0,USSouthDakotaUnion,South Dakota,Union,2021-01-05 10:34:12.771804,2020-09-25 00:00:00.000000,4.21857977,6.64999012,8.94209155,672,1059,1424,319,490,784,2.00843291,3.07558684,4.92309760,0.29448793,0.40184205,0.51943134
46127,0,USSouthDakotaUnion,South Dakota,Union,2021-01-05 10:34:12.771804,2020-09-26 00:00:00.000000,4.39804510,6.86675654,9.29402841,700,1094,1480,332,508,821,2.08801096,3.19103876,5.15412085,0.28327727,0.39868463,0.52033560
46127,0,USSouthDakotaUnion,South Dakota,Union,2021-01-05 10:34:12.771804,2020-09-27 00:00:00.000000,4.55753874,7.14126273,9.62258351,726,1137,1533,345,530,858,2.16913612,3.32879596,5.38677373,0.28090243,0.38971502,0.52526761
46127,0,USSouthDakotaUnion,South Dakota,Union,2021-01-05 10:34:12.771804,2020-09-28 00:00:00.000000,4.68618846,7.40861230,9.94623939,746,1180,1584,360,550,893,2.26186926,3.45707319,5.60786432,0.28040059,0.38422842,0.51036354
46127,0,USSouthDakotaUnion,South Dakota,Union,2021-01-05 10:34:12.771804,2020-09-29 00:00:00.000000,4.78311624,7.60864400,10.28232345,762,1212,1638,374,572,924,2.35313502,3.59280789,5.80264888,0.27976892,0.37880963,0.51545658
46127,0,USSouthDakotaUnion,South Dakota,Union,2021-01-05 10:34:12.771804,2020-09-30 00:00:00.000000,4.85920426,7.81889721,10.63751765,774,1245,1694,389,592,950,2.44265735,3.71612499,5.96639180,0.27795207,0.36897205,0.51318738
46127,0,USSouthDakotaUnion,South Dakota,Union,2021-01-05 10:34:12.771804,2020-10-01 00:00:00.000000,5.00136772,7.99845354,11.01553672,796,1274,1754,403,612,972,2.52979402,3.84150037,6.10211534,0.26841099,0.35926859,0.49772242
46127,0,USSouthDakotaUnion,South Dakota,Union,2021-01-05 10:34:12.771804,2020-10-02 00:00:00.000000,5.13838109,8.19205081,11.41052793,818,1305,1817,416,626,990,2.61413074,3.93510159,6.21502570,0.26372874,0.35277555,0.47865674
46127,0,USSouthDakotaUnion,South Dakota,Union,2021-01-05 10:34:12.771804,2020-10-03 00:00:00.000000,5.27216047,8.36409781,11.81609178,839,1332,1882,429,645,1005,2.69572517,4.05197346,6.30998020,0.25675975,0.34150125,0.47317603
46127,0,USSouthDakotaUnion,South Dakota,Union,2021-01-05 10:34:12.771804,2020-10-04 00:00:00.000000,5.40585899,8.47450880,11.89490885,861,1350,1895,442,661,1018,2.77498122,4.14939474,6.39104495,0.24990870,0.32909736,0.47249488
46127,0,USSouthDakotaUnion,South Dakota,Union,2021-01-05 10:34:12.771804,2020-10-05 00:00:00.000000,5.52301760,8.58802105,12.02081368,879,1368,1915,454,676,1029,2.85235998,4.24656850,6.46132429,0.24293908,0.32666855,0.47026155
46127,0,USSouthDakotaUnion,South Dakota,Union,2021-01-05 10:34:12.771804,2020-10-06 00:00:00.000000,5.62531683,8.74326731,12.15328446,896,1392,1936,466,688,1040,2.92508980,4.32367334,6.52980780,0.23335586,0.31880827,0.46388539
46127,0,USSouthDakotaUnion,South Dakota,Union,2021-01-05 10:34:12.771804,2020-10-07 00:00:00.000000,5.68048258,8.85095735,12.32910801,905,1410,1964,471,697,1051,2.96238727,4.37560703,6.59906222,0.22503443,0.31418840,0.44830273
46127,0,USSouthDakotaUnion,South Dakota,Union,2021-01-05 10:34:12.771804,2020-10-08 00:00:00.000000,5.69517763,8.94750024,12.61010013,907,1425,2009,470,711,1062,2.95572735,4.46496971,6.66932701,0.22475731,0.30780790,0.44064431
46127,0,USSouthDakotaUnion,South Dakota,Union,2021-01-05 10:34:12.771804,2020-10-09 00:00:00.000000,5.69824014,9.09814102,12.87335824,907,1449,2050,469,717,1073,2.94536495,4.50084434,6.73960534,0.22420093,0.29889963,0.42371274
46127,0,USSouthDakotaUnion,South Dakota,Union,2021-01-05 10:34:12.771804,2020-10-10 00:00:00.000000,5.70122390,9.16347865,13.10846403,908,1459,2088,466,728,1084,2.93057511,4.56964981,6.80795963,0.21674090,0.30160856,0.41829442
46127,0,USSouthDakotaUnion,South Dakota,Union,2021-01-05 10:34:12.771804,2020-10-11 00:00:00.000000,5.76039773,9.22403266,13.29715073,917,1469,2118,466,740,1094,2.92849098,4.64607634,6.87131640,0.21197221,0.29147525,0.41601821
46127,0,USSouthDakotaUnion,South Dakota,Union,2021-01-05 10:34:12.771804,2020-10-12 00:00:00.000000,5.83929051,9.28656796,13.42318682,930,1479,2138,474,750,1103,2.97730063,4.71059675,6.92542748,0.22046746,0.28284650,0.41550415
46127,0,USSouthDakotaUnion,South Dakota,Union,2021-01-05 10:34:12.771804,2020-10-13 00:00:00.000000,5.89020761,9.29732706,13.50033239,938,1481,2150,481,759,1108,3.02455922,4.76565480,6.95918477,0.21937447,0.28376944,0.39829047
46127,0,USSouthDakotaUnion,South Dakota,Union,2021-01-05 10:34:12.771804,2020-10-14 00:00:00.000000,5.87226697,9.29242791,13.54499777,935,1480,2157,488,766,1111,3.06824622,4.81242367,6.97419907,0.22083665,0.28363261,0.39350888
46127,0,USSouthDakotaUnion,South Dakota,Union,2021-01-05 10:34:12.771804,2020-10-15 00:00:00.000000,5.85144634,9.33051271,13.56767207,932,1486,2161,495,773,1111,3.10841165,4.85191774,6.97343519,0.22165136,0.28456107,0.39371809
46127,0,USSouthDakotaUnion,South Dakota,Union,2021-01-05 10:34:12.771804,2020-10-16 00:00:00.000000,5.85517602,9.38207680,13.56809629,932,1494,2161,501,781,1125,3.14539871,4.90769055,7.06406836,0.21853184,0.28964490,0.40986990
46127,0,USSouthDakotaUnion,South Dakota,Union,2021-01-05 10:34:12.771804,2020-10-17 00:00:00.000000,5.85878289,9.40825843,13.51718862,933,1498,2153,506,788,1146,3.17952704,4.94724098,7.19909659,0.20890312,0.29614448,0.41516315
46127,0,USSouthDakotaUnion,South Dakota,Union,2021-01-05 10:34:12.771804,2020-10-18 00:00:00.000000,5.85564984,9.37656337,13.41013100,932,1493,2136,511,791,1166,3.21084077,4.96763120,7.32444714,0.21226428,0.30638291,0.42000201
46127,0,USSouthDakotaUnion,South Dakota,Union,2021-01-05 10:34:12.771804,2020-10-19 00:00:00.000000,5.85686930,9.38886279,13.28792369,933,1495,2117,514,794,1185,3.23099710,4.98808064,7.43803148,0.22297173,0.30612969,0.42101530
46127,0,USSouthDakotaUnion,South Dakota,Union,2021-01-05 10:34:12.771804,2020-10-20 00:00:00.000000,5.96490775,9.40396008,13.15468076,950,1498,2095,515,797,1202,3.23415501,5.00703685,7.54633663,0.22224830,0.30971851,0.42107581
46127,0,USSouthDakotaUnion,South Dakota,Union,2021-01-05 10:34:12.771804,2020-10-21 00:00:00.000000,6.08085464,9.43902427,13.01298778,968,1503,2073,515,804,1218,3.23409093,5.04885840,7.64928759,0.22604515,0.31500132,0.44714484
46127,0,USSouthDakotaUnion,South Dakota,Union,2021-01-05 10:34:12.771804,2020-10-22 00:00:00.000000,6.17808239,9.52249655,12.86616934,984,1517,2049,514,809,1234,3.23164700,5.08232934,7.74690434,0.23457491,0.32409717,0.45292447
46127,0,USSouthDakotaUnion,South Dakota,Union,2021-01-05 10:34:12.771804,2020-10-23 00:00:00.000000,6.15598030,9.55703870,12.97597652,980,1522,2067,514,809,1256,3.22733888,5.08379003,7.88475411,0.24537226,0.34208156,0.46220630
46127,0,USSouthDakotaUnion,South Dakota,Union,2021-01-05 10:34:12.771804,2020-10-24 00:00:00.000000,6.13045263,9.62465406,13.08691898,976,1533,2085,513,811,1279,3.22186049,5.09040966,8.03149155,0.24430619,0.35184318,0.49408525
46127,0,USSouthDakotaUnion,South Dakota,Union,2021-01-05 10:34:12.771804,2020-10-25 00:00:00.000000,6.10200431,9.75932680,13.20229140,972,1554,2103,512,813,1302,3.21642118,5.10486749,8.17713330,0.24623182,0.35799207,0.51636244
46127,0,USSouthDakotaUnion,South Dakota,Union,2021-01-05 10:34:12.771804,2020-10-26 00:00:00.000000,6.05095851,9.81832579,13.27388636,964,1564,2114,511,818,1325,3.21328651,5.14027581,8.32132300,0.24763864,0.36323267,0.52378850
46127,0,USSouthDakotaUnion,South Dakota,Union,2021-01-05 10:34:12.771804,2020-10-27 00:00:00.000000,5.99776372,9.87183033,13.34423074,955,1572,2126,512,825,1348,3.21527052,5.18130563,8.46344785,0.24937243,0.36839718,0.52442248
46127,0,USSouthDakotaUnion,South Dakota,Union,2021-01-05 10:34:12.771804,2020-10-28 00:00:00.000000,5.94196632,9.93760451,13.53374077,946,1583,2156,513,832,1370,3.22213044,5.22721297,8.60305333,0.26046340,0.37647459,0.52608594
46127,0,USSouthDakotaUnion,South Dakota,Union,2021-01-05 10:34:12.771804,2020-10-29 00:00:00.000000,5.97625961,9.99734545,13.76487409,952,1592,2193,509,839,1392,3.19719429,5.26775091,8.74291582,0.28241537,0.38318972,0.53113528
46127,0,USSouthDakotaUnion,South Dakota,Union,2021-01-05 10:34:12.771804,2020-10-30 00:00:00.000000,6.06835689,10.11056976,14.01349619,966,1610,2232,505,844,1410,3.16991647,5.30125323,8.85545985,0.28961145,0.38877037,0.53282554
46127,0,USSouthDakotaUnion,South Dakota,Union,2021-01-05 10:34:12.771804,2020-10-31 00:00:00.000000,6.20133177,10.25827278,14.26837531,987,1634,2273,500,849,1420,3.14236871,5.33276890,8.91769602,0.29193750,0.39488364,0.54366454
46127,0,USSouthDakotaUnion,South Dakota,Union,2021-01-05 10:34:12.771804,2020-11-01 00:00:00.000000,6.35773303,10.40246904,14.52192240,1012,1657,2313,498,857,1433,3.12916550,5.38180327,8.99677858,0.29610874,0.40638105,0.56494521
46127,0,USSouthDakotaUnion,South Dakota,Union,2021-01-05 10:34:12.771804,2020-11-02 00:00:00.000000,6.52945750,10.53842462,14.78432393,1040,1678,2355,501,867,1449,3.14832738,5.44643174,9.09640752,0.29474038,0.41008116,0.57669035
46127,0,USSouthDakotaUnion,South Dakota,Union,2021-01-05 10:34:12.771804,2020-11-03 00:00:00.000000,6.69843329,10.74804992,15.03869438,1067,1712,2395,518,877,1468,3.25501933,5.50908767,9.21704879,0.29467756,0.41263628,0.58047113
46127,0,USSouthDakotaUnion,South Dakota,Union,2021-01-05 10:34:12.771804,2020-11-04 00:00:00.000000,6.85625821,10.96883076,15.28312658,1092,1747,2434,540,888,1489,3.39553554,5.57842701,9.35108843,0.29387742,0.41657889,0.58109090
46127,0,USSouthDakotaUnion,South Dakota,Union,2021-01-05 10:34:12.771804,2020-11-05 00:00:00.000000,6.98838376,11.10781222,15.52032124,1113,1769,2472,563,900,1511,3.53896714,5.65244622,9.48904727,0.29359588,0.41901569,0.58110768
46127,0,USSouthDakotaUnion,South Dakota,Union,2021-01-05 10:34:12.771804,2020-11-06 00:00:00.000000,7.08163616,11.15810235,15.74740754,1128,1777,2508,586,912,1532,3.67943673,5.72444116,9.61893876,0.29353292,0.41751611,0.57811513
46127,0,USSouthDakotaUnion,South Dakota,Union,2021-01-05 10:34:12.771804,2020-11-07 00:00:00.000000,7.13755034,11.19937868,15.96590905,1137,1784,2543,604,925,1550,3.79432197,5.80821533,9.73121605,0.28289709,0.40821936,0.57626867
46127,0,USSouthDakotaUnion,South Dakota,Union,2021-01-05 10:34:12.771804,2020-11-08 00:00:00.000000,7.16767699,11.23305663,16.12146789,1141,1789,2568,613,937,1565,3.84994345,5.88384405,9.82319682,0.28271560,0.40102011,0.59398756
46127,0,USSouthDakotaUnion,South Dakota,Union,2021-01-05 10:34:12.771804,2020-11-09 00:00:00.000000,7.18137314,11.28836321,16.09126857,1144,1798,2563,619,942,1576,3.89149384,5.91573207,9.89603286,0.27007854,0.39768485,0.61257839
46127,0,USSouthDakotaUnion,South Dakota,Union,2021-01-05 10:34:12.771804,2020-11-10 00:00:00.000000,7.18393953,11.35511334,16.04561081,1144,1809,2556,624,946,1584,3.92077961,5.93782734,9.94669811,0.26513343,0.39263467,0.61746588
46127,0,USSouthDakotaUnion,South Dakota,Union,2021-01-05 10:34:12.771804,2020-11-11 00:00:00.000000,7.17687677,11.38011888,15.98573539,1143,1813,2546,627,944,1589,3.94017002,5.92519635,9.97825307,0.26848822,0.38926783,0.63930702
46127,0,USSouthDakotaUnion,South Dakota,Union,2021-01-05 10:34:12.771804,2020-11-12 00:00:00.000000,7.15894531,11.34481768,15.92040267,1140,1807,2536,629,943,1592,3.95138311,5.92061624,9.99326584,0.26973774,0.38879595,0.63161916
46127,0,USSouthDakotaUnion,South Dakota,Union,2021-01-05 10:34:12.771804,2020-11-13 00:00:00.000000,7.12608456,11.29878600,16.14654662,1135,1800,2572,630,943,1592,3.95518894,5.92047314,9.99376815,0.26979491,0.38265154,0.62851960
46127,0,USSouthDakotaUnion,South Dakota,Union,2021-01-05 10:34:12.771804,2020-11-14 00:00:00.000000,7.07163851,11.36703373,16.30655505,1126,1810,2597,629,938,1590,3.95159348,5.88810146,9.98163058,0.26425234,0.37283966,0.62464381
46127,0,USSouthDakotaUnion,South Dakota,Union,2021-01-05 10:34:12.771804,2020-11-15 00:00:00.000000,6.99012561,11.32897344,16.35830522,1113,1804,2606,627,936,1587,3.93948188,5.87900058,9.96386458,0.24802863,0.36621616,0.61996518
46127,0,USSouthDakotaUnion,South Dakota,Union,2021-01-05 10:34:12.771804,2020-11-16 00:00:00.000000,6.97256545,11.24579857,16.36198941,1110,1791,2606,623,933,1584,3.91596161,5.86084105,9.94553707,0.24334780,0.36552840,0.57966893
46127,0,USSouthDakotaUnion,South Dakota,Union,2021-01-05 10:34:12.771804,2020-11-17 00:00:00.000000,6.94882446,11.28320670,16.34017586,1107,1797,2603,617,937,1581,3.87872263,5.88301132,9.92380490,0.23723626,0.35612687,0.58681638
46127,0,USSouthDakotaUnion,South Dakota,Union,2021-01-05 10:34:12.771804,2020-11-18 00:00:00.000000,6.91910066,11.29329847,16.29061744,1102,1799,2595,614,937,1576,3.85514769,5.88623019,9.89744767,0.22947054,0.35679465,0.60173136
46127,0,USSouthDakotaUnion,South Dakota,Union,2021-01-05 10:34:12.771804,2020-11-19 00:00:00.000000,6.87864170,11.18647687,16.20654020,1095,1782,2582,617,941,1571,3.87877068,5.91256822,9.86559670,0.22789619,0.36325615,0.60493593
46127,0,USSouthDakotaUnion,South Dakota,Union,2021-01-05 10:34:12.771804,2020-11-20 00:00:00.000000,6.81579287,11.09566975,16.08381350,1085,1767,2562,620,941,1565,3.89687353,5.91129729,9.82766937,0.23418593,0.37004093,0.58954402
46127,0,USSouthDakotaUnion,South Dakota,Union,2021-01-05 10:34:12.771804,2020-11-21 00:00:00.000000,6.72573742,11.03666806,15.91511536,1071,1758,2535,622,939,1558,3.90983298,5.89637073,9.78175094,0.24150377,0.36854943,0.62444016
46127,0,USSouthDakotaUnion,South Dakota,Union,2021-01-05 10:34:12.771804,2020-11-22 00:00:00.000000,6.61830984,10.94555440,15.70332140,1054,1743,2501,622,937,1549,3.90843447,5.88640342,9.72711378,0.24733766,0.37525029,0.65319065
46127,0,USSouthDakotaUnion,South Dakota,Union,2021-01-05 10:34:12.771804,2020-11-23 00:00:00.000000,6.47553164,10.79523277,15.44973284,1031,1719,2461,609,935,1540,3.82719984,5.87345372,9.66657682,0.24622488,0.37707512,0.65491294
46127,0,USSouthDakotaUnion,South Dakota,Union,2021-01-05 10:34:12.771804,2020-11-24 00:00:00.000000,6.32912275,10.70064580,15.17534150,1008,1704,2417,594,928,1530,3.73097417,5.82582581,9.60380402,0.24693568,0.38101506,0.68361231
46127,0,USSouthDakotaUnion,South Dakota,Union,2021-01-05 10:34:12.771804,2020-11-25 00:00:00.000000,6.17143087,10.56448836,15.00204548,983,1683,2390,581,921,1520,3.64678748,5.78182850,9.54193452,0.25420026,0.38374481,0.69383762
46127,0,USSouthDakotaUnion,South Dakota,Union,2021-01-05 10:34:12.771804,2020-11-26 00:00:00.000000,6.01849571,10.45472606,14.88503469,958,1665,2371,569,913,1511,3.57567291,5.73498204,9.48425849,0.25525381,0.39651438,0.70425222
46127,0,USSouthDakotaUnion,South Dakota,Union,2021-01-05 10:34:12.771804,2020-11-27 00:00:00.000000,5.87825869,10.32632341,14.75608258,936,1645,2350,560,905,1503,3.51717847,5.68280322,9.43454410,0.25970482,0.40364779,0.71578607
46127,0,USSouthDakotaUnion,South Dakota,Union,2021-01-05 10:34:12.771804,2020-11-28 00:00:00.000000,5.74626750,10.21252256,14.76596982,915,1627,2352,552,896,1497,3.47055082,5.62612306,9.39630868,0.26411816,0.41095430,0.72761744
46127,0,USSouthDakotaUnion,South Dakota,Union,2021-01-05 10:34:12.771804,2020-11-29 00:00:00.000000,5.61541237,10.17590486,14.78878702,894,1621,2356,545,886,1492,3.42590815,5.56509826,9.37025094,0.26821998,0.42275965,0.73648475
46127,0,USSouthDakotaUnion,South Dakota,Union,2021-01-05 10:34:12.771804,2020-11-30 00:00:00.000000,5.49617998,10.16510557,14.79362548,875,1619,2356,536,879,1490,3.36717643,5.51813477,9.35398451,0.26817939,0.42883684,0.74189328
46127,0,USSouthDakotaUnion,South Dakota,Union,2021-01-05 10:34:12.771804,2020-12-01 00:00:00.000000,5.44606332,10.09675589,14.78408623,867,1608,2355,528,875,1488,3.31934364,5.49249930,9.34234453,0.26818257,0.44611944,0.74384645
46127,0,USSouthDakotaUnion,South Dakota,Union,2021-01-05 10:34:12.771804,2020-12-02 00:00:00.000000,5.43332751,9.99185516,14.75776221,865,1591,2351,522,869,1486,3.28126955,5.45990150,9.33196511,0.26822987,0.44943760,0.74483332
46127,0,USSouthDakotaUnion,South Dakota,Union,2021-01-05 10:34:12.771804,2020-12-03 00:00:00.000000,5.43039185,9.89465251,14.71402362,865,1576,2344,517,864,1484,3.25065820,5.42645658,9.31997049,0.26707245,0.45699712,0.77400440
46127,0,USSouthDakotaUnion,South Dakota,Union,2021-01-05 10:34:12.771804,2020-12-04 00:00:00.000000,5.42876224,9.78273578,14.59847393,864,1558,2325,508,860,1482,3.19181012,5.40090536,9.30410399,0.26870632,0.46382476,0.81668641
46127,0,USSouthDakotaUnion,South Dakota,Union,2021-01-05 10:34:12.771804,2020-12-05 00:00:00.000000,5.42179759,9.70999404,14.44079929,863,1546,2300,496,857,1478,3.11617932,5.38453488,9.28278095,0.26895817,0.47071707,0.86325611
46127,0,USSouthDakotaUnion,South Dakota,Union,2021-01-05 10:34:12.771804,2020-12-06 00:00:00.000000,5.40114026,9.52161122,14.28037209,860,1516,2275,484,845,1474,3.04001079,5.30632245,9.25566705,0.27019301,0.47823601,0.88547326
46127,0,USSouthDakotaUnion,South Dakota,Union,2021-01-05 10:34:12.771804,2020-12-07 00:00:00.000000,5.35356514,9.44144724,14.11956852,852,1504,2249,472,836,1469,2.96337034,5.25075978,9.22645209,0.27360049,0.48023332,0.88949032
46127,0,USSouthDakotaUnion,South Dakota,Union,2021-01-05 10:34:12.771804,2020-12-08 00:00:00.000000,5.29274582,9.39495449,13.96788510,843,1496,2225,460,827,1466,2.89249049,5.19564370,9.20271387,0.27239454,0.48027562,0.89090488
46127,0,USSouthDakotaUnion,South Dakota,Union,2021-01-05 10:34:12.771804,2020-12-09 00:00:00.000000,5.22409995,9.34042259,13.83116679,832,1488,2203,454,824,1463,2.85279653,5.17329598,9.18461463,0.26709390,0.48067217,0.89184646
46127,0,USSouthDakotaUnion,South Dakota,Union,2021-01-05 10:34:12.771804,2020-12-10 00:00:00.000000,5.15019107,9.25107142,13.71800973,820,1473,2185,450,820,1460,2.82580421,5.14718240,9.16755986,0.26582452,0.48915473,0.95262714
46127,0,USSouthDakotaUnion,South Dakota,Union,2021-01-05 10:34:12.771804,2020-12-11 00:00:00.000000,5.10286301,9.14911763,13.63302630,812,1457,2172,450,812,1457,2.82514961,5.09691299,9.14710675,0.26271350,0.49382821,1.00375959
46127,0,USSouthDakotaUnion,South Dakota,Union,2021-01-05 10:34:12.771804,2020-12-12 00:00:00.000000,5.09053501,9.03099464,13.56276672,811,1438,2160,450,800,1453,2.82525857,5.02217119,9.12002278,0.24932696,0.50836333,1.03680562
46127,0,USSouthDakotaUnion,South Dakota,Union,2021-01-05 10:34:12.771804,2020-12-13 00:00:00.000000,5.04761437,8.91369160,13.48929396,804,1420,2149,449,786,1447,2.82296562,4.93431369,9.08424767,0.24801819,0.50871022,1.04621039
46127,0,USSouthDakotaUnion,South Dakota,Union,2021-01-05 10:34:12.771804,2020-12-14 00:00:00.000000,4.99755964,8.71837780,13.40963514,796,1389,2136,448,779,1440,2.81315357,4.88979433,9.03861654,0.24830972,0.51043529,1.04822072
46127,0,USSouthDakotaUnion,South Dakota,Union,2021-01-05 10:34:12.771804,2020-12-15 00:00:00.000000,4.94519391,8.54678786,13.31350440,787,1361,2121,445,769,1431,2.79694285,4.82796965,8.98268853,0.24850179,0.51059224,1.04822337
46127,0,USSouthDakotaUnion,South Dakota,Union,2021-01-05 10:34:12.771804,2020-12-16 00:00:00.000000,4.89094695,8.37386502,13.19867507,779,1334,2102,442,756,1420,2.77614588,4.74617878,8.91631014,0.24876433,0.51076758,1.04825204
46127,0,USSouthDakotaUnion,South Dakota,Union,2021-01-05 10:34:12.771804,2020-12-17 00:00:00.000000,4.83533363,8.23384969,13.06264786,770,1311,2081,438,742,1408,2.75204293,4.65965203,8.83961725,0.24967158,0.50375341,1.02526922
46127,0,USSouthDakotaUnion,South Dakota,Union,2021-01-05 10:34:12.771804,2020-12-18 00:00:00.000000,4.77881585,8.10598339,12.90279507,761,1291,2055,434,727,1394,2.72555345,4.56933898,8.75300037,0.25313596,0.50202010,0.98947242
46127,0,USSouthDakotaUnion,South Dakota,Union,2021-01-05 10:34:12.771804,2020-12-19 00:00:00.000000,4.72183956,8.01126495,12.71837726,752,1276,2026,429,715,1379,2.69735627,4.49337380,8.65717691,0.25299243,0.50156156,0.97005544
46127,0,USSouthDakotaUnion,South Dakota,Union,2021-01-05 10:34:12.771804,2020-12-20 00:00:00.000000,4.66489804,7.89294300,12.51251207,743,1257,1993,425,701,1362,2.66873493,4.40020618,8.55332470,0.25645748,0.51152572,0.99260848
46127,0,USSouthDakotaUnion,South Dakota,Union,2021-01-05 10:34:12.771804,2020-12-21 00:00:00.000000,4.60784465,7.74036312,12.30950357,734,1233,1961,417,686,1345,2.62034809,4.30820056,8.44293985,0.26331792,0.52025428,1.03498659
46127,0,USSouthDakotaUnion,South Dakota,Union,2021-01-05 10:34:12.771804,2020-12-22 00:00:00.000000,4.55039722,7.60775236,12.09581051,724,1212,1927,406,677,1326,2.54955416,4.25348507,8.32799306,0.26464982,0.52298346,1.04303712
46127,0,USSouthDakotaUnion,South Dakota,Union,2021-01-05 10:34:12.771804,2020-12-23 00:00:00.000000,4.49237636,7.48388338,11.87551034,715,1192,1892,394,669,1307,2.47685750,4.20222718,8.20871971,0.26406072,0.52178288,1.08622324
46127,0,USSouthDakotaUnion,South Dakota,Union,2021-01-05 10:34:12.771804,2020-12-24 00:00:00.000000,4.43369463,7.39981715,11.65036226,706,1178,1856,384,660,1288,2.41431816,4.14802871,8.08499558,0.26343176,0.51784989,1.07382134
46127,0,USSouthDakotaUnion,South Dakota,Union,2021-01-05 10:34:12.771804,2020-12-25 00:00:00.000000,4.37437155,7.28335460,11.42088072,696,1160,1819,383,646,1267,2.40728430,4.05880588,7.95667968,0.26298040,0.50946766,1.05928570
46127,0,USSouthDakotaUnion,South Dakota,Union,2021-01-05 10:34:12.771804,2020-12-26 00:00:00.000000,4.31090831,7.13325597,11.18672407,686,1136,1782,382,629,1246,2.40202246,3.94921412,7.82375861,0.26264235,0.52034145,1.07346349
46127,0,USSouthDakotaUnion,South Dakota,Union,2021-01-05 10:34:12.771804,2020-12-27 00:00:00.000000,4.24617676,7.00735604,10.90892664,676,1116,1738,379,618,1224,2.38125975,3.87903240,7.68637235,0.26260903,0.53077552,1.09141103
46127,0,USSouthDakotaUnion,South Dakota,Union,2021-01-05 10:34:12.771804,2020-12-28 00:00:00.000000,4.16593429,6.88828339,10.61694085,663,1097,1691,371,609,1202,2.32974573,3.82781249,7.54479403,0.26267677,0.53550480,1.10061548
46127,0,USSouthDakotaUnion,South Dakota,Union,2021-01-05 10:34:12.771804,2020-12-29 00:00:00.000000,4.09649580,6.71824185,10.33126082,652,1070,1645,371,601,1178,2.33266277,3.77375627,7.39749427,0.26295387,0.53431868,1.10253283
46127,0,USSouthDakotaUnion,South Dakota,Union,2021-01-05 10:34:12.771804,2020-12-30 00:00:00.000000,4.02113851,6.56722590,10.03132048,640,1046,1598,371,589,1154,2.33097148,3.69862913,7.24533849,0.26271279,0.52983681,1.09965331
46127,0,USSouthDakotaUnion,South Dakota,Union,2021-01-05 10:34:12.771804,2020-12-31 00:00:00.000000,3.95035854,6.35810474,9.68897943,629,1012,1543,363,580,1129,2.28328985,3.64110690,7.08919993,0.24930054,0.53368852,1.09742768
46127,0,USSouthDakotaUnion,South Dakota,Union,2021-01-05 10:34:12.771804,2021-01-01 00:00:00.000000,3.88453136,6.14825448,9.34623182,618,979,1489,345,571,1104,2.16955432,3.58561458,6.93008210,0.24001660,0.52540805,1.09455412
46127,0,USSouthDakotaUnion,South Dakota,Union,2021-01-05 10:34:12.771804,2021-01-02 00:00:00.000000,3.82271664,5.95385957,9.31501178,609,948,1484,328,562,1078,2.06140349,3.52905229,6.76913370,0.23460486,0.52233964,1.16917346
46127,0,USSouthDakotaUnion,South Dakota,Union,2021-01-05 10:34:12.771804,2021-01-03 00:00:00.000000,3.76286775,5.84271209,9.08126542,599,930,1446,318,549,1052,1.99957574,3.44825723,6.60762528,0.23173790,0.52482171,1.18970586
46127,0,USSouthDakotaUnion,South Dakota,Union,2021-01-05 10:34:12.771804,2021-01-04 00:00:00.000000,3.70363827,5.70841538,8.85649933,590,909,1411,309,540,1027,1.94424663,3.39280336,6.44687215,0.23024903,0.52295166,1.19003365
46127,0,USSouthDakotaUnion,South Dakota,Union,2021-01-05 10:34:12.771804,2021-01-05 00:00:00.000000,3.63566705,5.58070541,8.65669889,579,889,1379,300,531,1001,1.88892876,3.33358622,6.28544602,0.22945561,0.51889780,1.24038535
46127,0,USSouthDakotaUnion,South Dakota,Union,2021-01-05 10:34:12.771804,2021-01-06 00:00:00.000000,3.46039138,5.50456478,8.47282233,551,876,1349,292,523,967,1.83390879,3.28539218,6.07032566,0.22907632,0.52510193,1.28262108
46127,0,USSouthDakotaUnion,South Dakota,Union,2021-01-05 10:34:12.771804,2021-01-07 00:00:00.000000,3.29136650,5.44554303,8.29349069,524,867,1321,283,511,933,1.77940438,3.21036421,5.85708402,0.22895460,0.52824973,1.29672827
46127,0,USSouthDakotaUnion,South Dakota,Union,2021-01-05 10:34:12.771804,2021-01-08 00:00:00.000000,3.12861742,5.28233427,8.11603109,498,841,1293,274,496,929,1.72558213,3.11399700,5.83405831,0.22890344,0.52936627,1.30069568
46127,0,USSouthDakotaUnion,South Dakota,Union,2021-01-05 10:34:12.771804,2021-01-09 00:00:00.000000,2.97213009,5.14229618,7.93992150,473,819,1264,266,482,906,1.67257322,3.02644704,5.69159382,0.22888161,0.52970875,1.30175777
46127,0,USSouthDakotaUnion,South Dakota,Union,2021-01-05 10:34:12.771804,2021-01-10 00:00:00.000000,2.82185956,4.98760110,7.79359257,449,794,1241,258,468,884,1.62047920,2.94243905,5.55027384,0.22887200,0.52980920,1.30203942
46127,0,USSouthDakotaUnion,South Dakota,Union,2021-01-05 10:34:12.771804,2021-01-11 00:00:00.000000,2.67773535,4.84507887,7.63988171,426,771,1217,250,456,861,1.56937653,2.86519836,5.40767406,0.22886763,0.52983834,1.30211449
46127,0,USSouthDakotaUnion,South Dakota,Union,2021-01-05 10:34:12.771804,2021-01-12 00:00:00.000000,2.53966532,4.64400890,7.42685251,404,739,1183,242,441,838,1.51932158,2.77040826,5.26605367,0.22886558,0.52984680,1.30213481
46127,0,USSouthDakotaUnion,South Dakota,Union,2021-01-05 10:34:12.771804,2021-01-13 00:00:00.000000,2.40753883,4.48117038,7.26019050,383,713,1156,234,434,816,1.47035503,2.72874510,5.12517941,0.22886459,0.52984925,1.30214048
46127,0,USSouthDakotaUnion,South Dakota,Union,2021-01-05 10:34:12.771804,2021-01-14 00:00:00.000000,2.28122960,4.33364825,7.35523269,363,690,1171,226,428,794,1.42118525,2.68735386,4.98495277,0.22886411,0.52984997,1.30214215
46127,0,USSouthDakotaUnion,South Dakota,Union,2021-01-05 10:34:12.771804,2021-01-15 00:00:00.000000,2.16059824,4.22167665,7.56718530,344,672,1205,214,416,771,1.34347081,2.61310767,4.84537376,0.22886386,0.52985018,1.30214268
46127,0,USSouthDakotaUnion,South Dakota,Union,2021-01-05 10:34:12.771804,2021-01-16 00:00:00.000000,2.04549459,4.10921079,7.51372603,325,654,1197,202,398,749,1.26933776,2.50265879,4.70651295,0.22886373,0.52985025,1.30214286
46127,0,USSouthDakotaUnion,South Dakota,Union,2021-01-05 10:34:12.771804,2021-01-17 00:00:00.000000,1.93575983,3.98138825,7.44256936,308,634,1185,190,382,727,1.19869909,2.40394381,4.56848993,0.22886366,0.52985026,1.30214294
