FIPS,HR_UID,nameid,province,region,analysisTime,dates,pointprevalence_025,pointprevalence_50,pointprevalence_975,pointinfections_025,pointinfections_50,pointinfections_975,pointinfectious_025,pointinfectious_50,pointinfectious_975,pointinfectiousprevalence_05,pointinfectiousprevalence_50,pointinfectiousprevalence_95,infectrate_025,infectrate_50,infectrate_975
17117,0,USIllinoisMacoupin,Illinois,Macoupin,2021-01-06 00:28:59.629886,2020-03-09 00:00:00.000000,0.00123832,0.00830685,0.03024557,0,3,13,0,1,7,0.00067752,0.00445042,0.01776942,0.39500457,0.52660947,0.73178325
17117,0,USIllinoisMacoupin,Illinois,Macoupin,2021-01-06 00:28:59.629886,2020-03-10 00:00:00.000000,0.00131829,0.00913190,0.03186636,0,4,14,0,1,7,0.00068914,0.00433808,0.01689020,0.39499817,0.52659878,0.73178297
17117,0,USIllinoisMacoupin,Illinois,Macoupin,2021-01-06 00:28:59.629886,2020-03-11 00:00:00.000000,0.00137943,0.00996690,0.03354517,0,4,15,0,2,7,0.00072360,0.00447026,0.01658964,0.39498769,0.52656689,0.73178244
17117,0,USIllinoisMacoupin,Illinois,Macoupin,2021-01-06 00:28:59.629886,2020-03-12 00:00:00.000000,0.00151858,0.01092061,0.03524881,0,4,15,0,2,7,0.00076232,0.00470713,0.01687643,0.39497060,0.52647171,0.73178143
17117,0,USIllinoisMacoupin,Illinois,Macoupin,2021-01-06 00:28:59.629886,2020-03-13 00:00:00.000000,0.00167202,0.01172948,0.03699381,0,5,16,0,2,8,0.00077644,0.00511724,0.01786421,0.39494297,0.52632719,0.73177949
17117,0,USIllinoisMacoupin,Illinois,Macoupin,2021-01-06 00:28:59.629886,2020-03-14 00:00:00.000000,0.00178237,0.01267928,0.03878360,0,5,17,0,2,8,0.00081225,0.00562506,0.01890604,0.39489900,0.52605944,0.73177568
17117,0,USIllinoisMacoupin,Illinois,Macoupin,2021-01-06 00:28:59.629886,2020-03-15 00:00:00.000000,0.00189799,0.01368593,0.04060706,0,6,18,0,2,8,0.00089284,0.00610958,0.01997558,0.39483079,0.52530516,0.73176784
17117,0,USIllinoisMacoupin,Illinois,Macoupin,2021-01-06 00:28:59.629886,2020-03-16 00:00:00.000000,0.00392107,0.01821145,0.04496362,1,8,20,0,2,9,0.00098193,0.00662371,0.02105882,0.39472917,0.52011998,0.73175011
17117,0,USIllinoisMacoupin,Illinois,Macoupin,2021-01-06 00:28:59.629886,2020-03-17 00:00:00.000000,0.00583651,0.02370330,0.05475825,2,10,24,0,3,10,0.00154409,0.00769157,0.02273787,0.36484372,0.51506745,0.73168300
17117,0,USIllinoisMacoupin,Illinois,Macoupin,2021-01-06 00:28:59.629886,2020-03-18 00:00:00.000000,0.00785203,0.02793222,0.06257496,3,12,28,0,4,11,0.00200020,0.00952739,0.02476596,0.35760774,0.50357595,0.73146377
17117,0,USIllinoisMacoupin,Illinois,Macoupin,2021-01-06 00:28:59.629886,2020-03-19 00:00:00.000000,0.01001460,0.03171609,0.06922875,4,14,31,1,5,12,0.00271155,0.01181739,0.02771881,0.34624727,0.47848092,0.72181626
17117,0,USIllinoisMacoupin,Illinois,Macoupin,2021-01-06 00:28:59.629886,2020-03-20 00:00:00.000000,0.01235951,0.03645371,0.07601405,5,16,34,1,6,14,0.00362466,0.01433328,0.03264633,0.33782266,0.45205883,0.66912159
17117,0,USIllinoisMacoupin,Illinois,Macoupin,2021-01-06 00:28:59.629886,2020-03-21 00:00:00.000000,0.01490102,0.04163385,0.08585415,6,18,38,2,7,17,0.00467523,0.01681228,0.03904670,0.30387774,0.44136901,0.64577033
17117,0,USIllinoisMacoupin,Illinois,Macoupin,2021-01-06 00:28:59.629886,2020-03-22 00:00:00.000000,0.01761836,0.04591024,0.09690607,7,20,43,2,8,20,0.00575051,0.01949001,0.04580101,0.27343271,0.41538359,0.62527914
17117,0,USIllinoisMacoupin,Illinois,Macoupin,2021-01-06 00:28:59.629886,2020-03-23 00:00:00.000000,0.02085018,0.05108031,0.10458309,9,22,46,3,10,23,0.00691571,0.02234455,0.05190214,0.25446211,0.39023652,0.59052708
17117,0,USIllinoisMacoupin,Illinois,Macoupin,2021-01-06 00:28:59.629886,2020-03-24 00:00:00.000000,0.02405735,0.05656999,0.10993702,10,25,49,3,11,25,0.00858580,0.02522887,0.05569272,0.24882738,0.36370436,0.57309222
17117,0,USIllinoisMacoupin,Illinois,Macoupin,2021-01-06 00:28:59.629886,2020-03-25 00:00:00.000000,0.02723678,0.06224172,0.11505074,12,27,51,4,12,26,0.01023686,0.02820249,0.05917864,0.23462115,0.35597819,0.55927261
17117,0,USIllinoisMacoupin,Illinois,Macoupin,2021-01-06 00:28:59.629886,2020-03-26 00:00:00.000000,0.03043660,0.06806903,0.12407448,13,30,55,5,14,28,0.01192309,0.03141267,0.06243412,0.21452098,0.34185240,0.55372935
17117,0,USIllinoisMacoupin,Illinois,Macoupin,2021-01-06 00:28:59.629886,2020-03-27 00:00:00.000000,0.03367825,0.07360105,0.13418746,15,33,60,6,15,29,0.01367272,0.03448982,0.06552121,0.20039037,0.33050738,0.53056533
17117,0,USIllinoisMacoupin,Illinois,Macoupin,2021-01-06 00:28:59.629886,2020-03-28 00:00:00.000000,0.03694256,0.08060455,0.14436472,16,36,64,6,16,30,0.01527154,0.03737641,0.06849674,0.19147901,0.31775634,0.52226708
17117,0,USIllinoisMacoupin,Illinois,Macoupin,2021-01-06 00:28:59.629886,2020-03-29 00:00:00.000000,0.03928554,0.08717408,0.15458061,17,39,69,7,18,32,0.01674004,0.04108610,0.07140917,0.19151976,0.29930535,0.49827062
17117,0,USIllinoisMacoupin,Illinois,Macoupin,2021-01-06 00:28:59.629886,2020-03-30 00:00:00.000000,0.04277759,0.09404871,0.15976724,19,42,71,8,20,33,0.01823759,0.04489781,0.07525015,0.18268045,0.27846433,0.45665430
17117,0,USIllinoisMacoupin,Illinois,Macoupin,2021-01-06 00:28:59.629886,2020-03-31 00:00:00.000000,0.04422294,0.09963424,0.17160360,19,44,77,9,21,36,0.02099216,0.04883489,0.08034300,0.17908076,0.27052801,0.42483538
17117,0,USIllinoisMacoupin,Illinois,Macoupin,2021-01-06 00:28:59.629886,2020-04-01 00:00:00.000000,0.04631852,0.10670393,0.19186719,20,47,86,10,23,38,0.02293120,0.05326622,0.08613455,0.17803735,0.26080791,0.40692269
17117,0,USIllinoisMacoupin,Illinois,Macoupin,2021-01-06 00:28:59.629886,2020-04-02 00:00:00.000000,0.04958814,0.11550462,0.21272272,22,51,95,10,25,43,0.02431741,0.05728452,0.09609212,0.17753827,0.25060486,0.39756794
17117,0,USIllinoisMacoupin,Illinois,Macoupin,2021-01-06 00:28:59.629886,2020-04-03 00:00:00.000000,0.05265185,0.12072016,0.23361017,23,54,104,11,27,48,0.02590262,0.06067784,0.10689967,0.16088688,0.23465179,0.38089355
17117,0,USIllinoisMacoupin,Illinois,Macoupin,2021-01-06 00:28:59.629886,2020-04-04 00:00:00.000000,0.05518141,0.12560096,0.24521246,24,56,110,12,28,53,0.02672872,0.06365801,0.11832014,0.15894863,0.23288786,0.36981559
17117,0,USIllinoisMacoupin,Illinois,Macoupin,2021-01-06 00:28:59.629886,2020-04-05 00:00:00.000000,0.05738955,0.12855880,0.25601452,25,57,115,12,30,58,0.02889967,0.06730661,0.13016264,0.15555780,0.22237106,0.34256335
17117,0,USIllinoisMacoupin,Illinois,Macoupin,2021-01-06 00:28:59.629886,2020-04-06 00:00:00.000000,0.06045670,0.13044334,0.26535903,27,58,119,13,31,63,0.03027208,0.07054814,0.14217730,0.14661718,0.21750785,0.33086067
17117,0,USIllinoisMacoupin,Illinois,Macoupin,2021-01-06 00:28:59.629886,2020-04-07 00:00:00.000000,0.06320047,0.13189909,0.27544152,28,59,123,13,32,67,0.03113138,0.07323860,0.15110237,0.14648563,0.21455774,0.32030167
17117,0,USIllinoisMacoupin,Illinois,Macoupin,2021-01-06 00:28:59.629886,2020-04-08 00:00:00.000000,0.06598630,0.13534852,0.28399856,29,60,127,14,33,70,0.03202793,0.07519834,0.15754171,0.14383716,0.20779929,0.31116787
17117,0,USIllinoisMacoupin,Illinois,Macoupin,2021-01-06 00:28:59.629886,2020-04-09 00:00:00.000000,0.06881185,0.14013744,0.29079943,30,62,130,14,34,72,0.03286378,0.07684669,0.16171535,0.13662664,0.19949759,0.30628877
17117,0,USIllinoisMacoupin,Illinois,Macoupin,2021-01-06 00:28:59.629886,2020-04-10 00:00:00.000000,0.07162794,0.14102102,0.28950940,32,63,130,15,35,73,0.03364361,0.07827257,0.16324586,0.12599131,0.19237979,0.29614837
17117,0,USIllinoisMacoupin,Illinois,Macoupin,2021-01-06 00:28:59.629886,2020-04-11 00:00:00.000000,0.07418916,0.14230467,0.29614697,33,63,133,15,35,73,0.03438149,0.07949935,0.16423045,0.12073631,0.18423314,0.29518566
17117,0,USIllinoisMacoupin,Illinois,Macoupin,2021-01-06 00:28:59.629886,2020-04-12 00:00:00.000000,0.07568370,0.14512460,0.30391949,34,65,136,15,36,74,0.03508756,0.08055518,0.16481383,0.12079879,0.17614216,0.28597758
17117,0,USIllinoisMacoupin,Illinois,Macoupin,2021-01-06 00:28:59.629886,2020-04-13 00:00:00.000000,0.07908035,0.14958753,0.30573928,35,67,137,16,36,73,0.03576758,0.08041927,0.16400029,0.11612492,0.17046600,0.28036744
17117,0,USIllinoisMacoupin,Illinois,Macoupin,2021-01-06 00:28:59.629886,2020-04-14 00:00:00.000000,0.08043303,0.14720578,0.30729563,36,66,138,16,36,73,0.03682024,0.08044525,0.16463849,0.11483045,0.16754891,0.27054162
17117,0,USIllinoisMacoupin,Illinois,Macoupin,2021-01-06 00:28:59.629886,2020-04-15 00:00:00.000000,0.08042734,0.15226092,0.30853294,36,68,138,17,36,73,0.03809753,0.08160281,0.16368863,0.11365774,0.16488306,0.25850725
17117,0,USIllinoisMacoupin,Illinois,Macoupin,2021-01-06 00:28:59.629886,2020-04-16 00:00:00.000000,0.08036950,0.15505759,0.30903264,36,69,138,17,35,72,0.03950474,0.07968572,0.16229112,0.11241265,0.16324184,0.24924725
17117,0,USIllinoisMacoupin,Illinois,Macoupin,2021-01-06 00:28:59.629886,2020-04-17 00:00:00.000000,0.08019460,0.15514206,0.30691917,36,69,137,17,37,72,0.03912830,0.08288798,0.16083364,0.10502151,0.15962636,0.23407671
17117,0,USIllinoisMacoupin,Illinois,Macoupin,2021-01-06 00:28:59.629886,2020-04-18 00:00:00.000000,0.07979543,0.15556407,0.30072087,35,69,135,17,37,73,0.03960603,0.08287763,0.16402412,0.10631749,0.15482380,0.22828481
17117,0,USIllinoisMacoupin,Illinois,Macoupin,2021-01-06 00:28:59.629886,2020-04-19 00:00:00.000000,0.07945874,0.15415990,0.29262807,35,69,131,18,37,74,0.04016762,0.08246903,0.16664426,0.09928729,0.15258361,0.22283891
17117,0,USIllinoisMacoupin,Illinois,Macoupin,2021-01-06 00:28:59.629886,2020-04-20 00:00:00.000000,0.07766575,0.15156633,0.28399909,34,68,127,18,37,75,0.04060324,0.08261404,0.16848848,0.09830251,0.14870839,0.21906572
17117,0,USIllinoisMacoupin,Illinois,Macoupin,2021-01-06 00:28:59.629886,2020-04-21 00:00:00.000000,0.07616523,0.15087099,0.27700205,34,67,124,18,37,76,0.04114663,0.08317661,0.16997145,0.09920324,0.14541850,0.20920547
17117,0,USIllinoisMacoupin,Illinois,Macoupin,2021-01-06 00:28:59.629886,2020-04-22 00:00:00.000000,0.07429509,0.14819809,0.27564609,33,66,123,18,37,75,0.04175171,0.08290612,0.16843236,0.09922885,0.14288389,0.20799581
17117,0,USIllinoisMacoupin,Illinois,Macoupin,2021-01-06 00:28:59.629886,2020-04-23 00:00:00.000000,0.07243066,0.14839637,0.27361300,32,66,122,18,37,74,0.04151501,0.08352116,0.16622638,0.09710752,0.13991653,0.20793206
17117,0,USIllinoisMacoupin,Illinois,Macoupin,2021-01-06 00:28:59.629886,2020-04-24 00:00:00.000000,0.07059053,0.14902666,0.27117275,31,66,121,18,37,73,0.04061074,0.08435472,0.16372329,0.09284040,0.13728453,0.20789736
17117,0,USIllinoisMacoupin,Illinois,Macoupin,2021-01-06 00:28:59.629886,2020-04-25 00:00:00.000000,0.06878156,0.15080771,0.26710438,30,67,119,17,38,72,0.03967947,0.08466203,0.16070586,0.08910230,0.13449133,0.20792515
17117,0,USIllinoisMacoupin,Illinois,Macoupin,2021-01-06 00:28:59.629886,2020-04-26 00:00:00.000000,0.06701130,0.15197611,0.26850974,30,68,120,17,38,70,0.03873683,0.08504978,0.15732269,0.08264723,0.13217382,0.20792331
17117,0,USIllinoisMacoupin,Illinois,Macoupin,2021-01-06 00:28:59.629886,2020-04-27 00:00:00.000000,0.06701686,0.14987377,0.26801073,30,67,120,17,39,70,0.03885748,0.08696214,0.15743428,0.07865800,0.12893254,0.19948385
17117,0,USIllinoisMacoupin,Illinois,Macoupin,2021-01-06 00:28:59.629886,2020-04-28 00:00:00.000000,0.06710629,0.15329831,0.26535637,30,68,119,17,38,70,0.03882093,0.08659243,0.15647478,0.07760926,0.12672749,0.19649089
17117,0,USIllinoisMacoupin,Illinois,Macoupin,2021-01-06 00:28:59.629886,2020-04-29 00:00:00.000000,0.06833079,0.15382884,0.26206639,30,69,117,17,38,69,0.03850450,0.08529328,0.15474239,0.07730229,0.12561800,0.19531791
17117,0,USIllinoisMacoupin,Illinois,Macoupin,2021-01-06 00:28:59.629886,2020-04-30 00:00:00.000000,0.06969241,0.15304615,0.25834021,31,68,116,17,38,68,0.03870170,0.08516068,0.15244952,0.07709018,0.12463059,0.19385501
17117,0,USIllinoisMacoupin,Illinois,Macoupin,2021-01-06 00:28:59.629886,2020-05-01 00:00:00.000000,0.07098718,0.15437820,0.25426789,31,69,114,17,38,67,0.03948043,0.08474150,0.15015830,0.07659197,0.12427959,0.19034435
17117,0,USIllinoisMacoupin,Illinois,Macoupin,2021-01-06 00:28:59.629886,2020-05-02 00:00:00.000000,0.07221082,0.15409963,0.24978849,32,69,112,18,39,67,0.04023502,0.08702293,0.14957075,0.07272732,0.12623554,0.18329525
17117,0,USIllinoisMacoupin,Illinois,Macoupin,2021-01-06 00:28:59.629886,2020-05-03 00:00:00.000000,0.07338199,0.15109689,0.24487021,32,67,110,18,39,66,0.04095980,0.08893640,0.14834977,0.06956513,0.12707412,0.18033789
17117,0,USIllinoisMacoupin,Illinois,Macoupin,2021-01-06 00:28:59.629886,2020-05-04 00:00:00.000000,0.07182127,0.14801480,0.23631623,32,66,106,18,39,65,0.04166787,0.08746218,0.14661584,0.06761974,0.12627246,0.18018558
17117,0,USIllinoisMacoupin,Illinois,Macoupin,2021-01-06 00:28:59.629886,2020-05-05 00:00:00.000000,0.07027901,0.14663586,0.22878026,31,65,102,18,38,65,0.04043915,0.08583625,0.14594098,0.06662401,0.12697533,0.17980746
17117,0,USIllinoisMacoupin,Illinois,Macoupin,2021-01-06 00:28:59.629886,2020-05-06 00:00:00.000000,0.07186728,0.14238002,0.22428021,32,63,100,17,37,64,0.03877316,0.08400024,0.14292210,0.06392914,0.12692972,0.17708374
17117,0,USIllinoisMacoupin,Illinois,Macoupin,2021-01-06 00:28:59.629886,2020-05-07 00:00:00.000000,0.07343815,0.14227681,0.22027554,32,63,98,16,36,62,0.03724046,0.08194519,0.13989890,0.06405780,0.12390802,0.17178020
17117,0,USIllinoisMacoupin,Illinois,Macoupin,2021-01-06 00:28:59.629886,2020-05-08 00:00:00.000000,0.07307230,0.14169502,0.22629306,32,63,101,16,35,61,0.03678724,0.07998489,0.13695403,0.06465237,0.12158611,0.16665009
17117,0,USIllinoisMacoupin,Illinois,Macoupin,2021-01-06 00:28:59.629886,2020-05-09 00:00:00.000000,0.07261551,0.13927663,0.23167289,32,62,104,16,35,60,0.03743593,0.07921767,0.13408316,0.06452658,0.11800262,0.17083977
17117,0,USIllinoisMacoupin,Illinois,Macoupin,2021-01-06 00:28:59.629886,2020-05-10 00:00:00.000000,0.07358026,0.13491613,0.23651300,33,60,106,17,35,58,0.03815774,0.07886061,0.13125867,0.06412795,0.11706896,0.17031185
17117,0,USIllinoisMacoupin,Illinois,Macoupin,2021-01-06 00:28:59.629886,2020-05-11 00:00:00.000000,0.07305265,0.13390303,0.23200452,32,60,104,17,34,57,0.03865365,0.07674499,0.12840597,0.06304864,0.12116844,0.17159906
17117,0,USIllinoisMacoupin,Illinois,Macoupin,2021-01-06 00:28:59.629886,2020-05-12 00:00:00.000000,0.07233499,0.13040281,0.22724215,32,58,102,17,34,56,0.03810104,0.07568006,0.12573886,0.06246474,0.11737133,0.17231707
17117,0,USIllinoisMacoupin,Illinois,Macoupin,2021-01-06 00:28:59.629886,2020-05-13 00:00:00.000000,0.07049147,0.12773523,0.22213149,31,57,99,17,33,56,0.03820774,0.07360698,0.12511618,0.06325700,0.11820935,0.17341365
17117,0,USIllinoisMacoupin,Illinois,Macoupin,2021-01-06 00:28:59.629886,2020-05-14 00:00:00.000000,0.06916664,0.12564695,0.21684275,31,56,97,17,33,55,0.03875701,0.07360332,0.12388970,0.06450561,0.11868535,0.17521123
17117,0,USIllinoisMacoupin,Illinois,Macoupin,2021-01-06 00:28:59.629886,2020-05-15 00:00:00.000000,0.06802275,0.12508809,0.21147588,30,56,95,17,32,54,0.03861200,0.07233329,0.12205391,0.06478017,0.11760852,0.17718385
17117,0,USIllinoisMacoupin,Illinois,Macoupin,2021-01-06 00:28:59.629886,2020-05-16 00:00:00.000000,0.06642537,0.12106560,0.20600253,29,54,92,17,31,53,0.03799121,0.07041944,0.11981757,0.06572432,0.11646714,0.17795143
17117,0,USIllinoisMacoupin,Illinois,Macoupin,2021-01-06 00:28:59.629886,2020-05-17 00:00:00.000000,0.06487149,0.11963331,0.20446102,29,53,91,16,31,52,0.03728192,0.06910006,0.11732018,0.06769620,0.11665270,0.17795109
17117,0,USIllinoisMacoupin,Illinois,Macoupin,2021-01-06 00:28:59.629886,2020-05-18 00:00:00.000000,0.06636651,0.11850903,0.20500671,29,53,92,16,30,51,0.03649872,0.06807884,0.11502304,0.06947194,0.11547472,0.17794922
17117,0,USIllinoisMacoupin,Illinois,Macoupin,2021-01-06 00:28:59.629886,2020-05-19 00:00:00.000000,0.06609946,0.11656917,0.20533268,29,52,92,16,30,51,0.03643536,0.06755455,0.11522793,0.07019910,0.11559023,0.17793215
17117,0,USIllinoisMacoupin,Illinois,Macoupin,2021-01-06 00:28:59.629886,2020-05-20 00:00:00.000000,0.06726695,0.11549307,0.20539059,30,51,92,16,30,51,0.03656552,0.06689326,0.11539292,0.07039640,0.11795254,0.17660704
17117,0,USIllinoisMacoupin,Illinois,Macoupin,2021-01-06 00:28:59.629886,2020-05-21 00:00:00.000000,0.06847038,0.11484690,0.20524916,30,51,92,16,29,51,0.03696180,0.06594679,0.11552975,0.07045594,0.12041132,0.17655622
17117,0,USIllinoisMacoupin,Illinois,Macoupin,2021-01-06 00:28:59.629886,2020-05-22 00:00:00.000000,0.06966901,0.11421994,0.20334044,31,51,91,16,29,51,0.03731904,0.06538651,0.11564629,0.07052862,0.12143587,0.17828969
17117,0,USIllinoisMacoupin,Illinois,Macoupin,2021-01-06 00:28:59.629886,2020-05-23 00:00:00.000000,0.07083079,0.11508128,0.20043977,31,51,90,16,28,51,0.03764617,0.06452579,0.11529704,0.07072253,0.12449261,0.18007412
17117,0,USIllinoisMacoupin,Illinois,Macoupin,2021-01-06 00:28:59.629886,2020-05-24 00:00:00.000000,0.06964662,0.11503154,0.19969576,31,51,89,16,28,51,0.03720024,0.06278458,0.11370597,0.07116195,0.12538395,0.18135996
17117,0,USIllinoisMacoupin,Illinois,Macoupin,2021-01-06 00:28:59.629886,2020-05-25 00:00:00.000000,0.07007515,0.11298566,0.19565291,31,50,87,16,28,51,0.03675159,0.06273015,0.11383646,0.07182057,0.12586324,0.18207449
17117,0,USIllinoisMacoupin,Illinois,Macoupin,2021-01-06 00:28:59.629886,2020-05-26 00:00:00.000000,0.07058453,0.11181070,0.19155465,31,50,86,16,28,51,0.03644339,0.06278474,0.11359142,0.07130233,0.12719173,0.18244909
17117,0,USIllinoisMacoupin,Illinois,Macoupin,2021-01-06 00:28:59.629886,2020-05-27 00:00:00.000000,0.07122945,0.11247858,0.18731206,32,50,84,16,28,50,0.03626353,0.06258958,0.11173105,0.06997191,0.12718879,0.18261787
17117,0,USIllinoisMacoupin,Illinois,Macoupin,2021-01-06 00:28:59.629886,2020-05-28 00:00:00.000000,0.07022081,0.11176833,0.18301216,31,50,82,16,27,48,0.03618528,0.06180649,0.10866190,0.07008165,0.12826773,0.18281337
17117,0,USIllinoisMacoupin,Illinois,Macoupin,2021-01-06 00:28:59.629886,2020-05-29 00:00:00.000000,0.06932731,0.11099959,0.18464870,31,49,82,16,27,47,0.03618093,0.06063324,0.10616219,0.07086478,0.12865879,0.18470193
17117,0,USIllinoisMacoupin,Illinois,Macoupin,2021-01-06 00:28:59.629886,2020-05-30 00:00:00.000000,0.06850382,0.11142396,0.18614233,30,50,83,16,27,47,0.03622923,0.06034443,0.10507862,0.07280285,0.13182412,0.19255207
17117,0,USIllinoisMacoupin,Illinois,Macoupin,2021-01-06 00:28:59.629886,2020-05-31 00:00:00.000000,0.06758879,0.11008142,0.18753312,30,49,84,16,27,47,0.03631641,0.06041296,0.10476601,0.07734260,0.13600352,0.19983196
17117,0,USIllinoisMacoupin,Illinois,Macoupin,2021-01-06 00:28:59.629886,2020-06-01 00:00:00.000000,0.06681093,0.11038741,0.18633487,30,49,83,16,27,46,0.03643409,0.06114092,0.10454564,0.08434929,0.14241251,0.20593876
17117,0,USIllinoisMacoupin,Illinois,Macoupin,2021-01-06 00:28:59.629886,2020-06-02 00:00:00.000000,0.06603902,0.11280078,0.18690367,29,50,83,16,27,47,0.03679381,0.06151223,0.10466410,0.08558133,0.14527404,0.20843827
17117,0,USIllinoisMacoupin,Illinois,Macoupin,2021-01-06 00:28:59.629886,2020-06-03 00:00:00.000000,0.06531568,0.11439884,0.18551106,29,51,83,16,27,47,0.03648982,0.06230460,0.10500260,0.08556485,0.14596130,0.20992438
17117,0,USIllinoisMacoupin,Illinois,Macoupin,2021-01-06 00:28:59.629886,2020-06-04 00:00:00.000000,0.06752754,0.11451513,0.18522600,30,51,83,16,28,47,0.03597030,0.06303307,0.10553206,0.08593387,0.14768599,0.21203908
17117,0,USIllinoisMacoupin,Illinois,Macoupin,2021-01-06 00:28:59.629886,2020-06-05 00:00:00.000000,0.07023292,0.11519984,0.18646772,31,51,83,16,28,47,0.03570094,0.06329827,0.10609490,0.08782057,0.15512922,0.21774769
17117,0,USIllinoisMacoupin,Illinois,Macoupin,2021-01-06 00:28:59.629886,2020-06-06 00:00:00.000000,0.07095085,0.11655735,0.18784996,31,52,84,16,28,47,0.03602919,0.06342292,0.10677190,0.08877681,0.15642328,0.22099190
17117,0,USIllinoisMacoupin,Illinois,Macoupin,2021-01-06 00:28:59.629886,2020-06-07 00:00:00.000000,0.07055109,0.11736336,0.18930046,31,52,85,16,28,48,0.03570856,0.06353592,0.10746882,0.09008192,0.15957325,0.23028552
17117,0,USIllinoisMacoupin,Illinois,Macoupin,2021-01-06 00:28:59.629886,2020-06-08 00:00:00.000000,0.07272818,0.11809040,0.19041634,32,53,85,15,28,48,0.03543997,0.06357219,0.10817619,0.09371006,0.16281058,0.23637944
17117,0,USIllinoisMacoupin,Illinois,Macoupin,2021-01-06 00:28:59.629886,2020-06-09 00:00:00.000000,0.07232684,0.12108258,0.18967360,32,54,85,16,28,49,0.03651201,0.06391119,0.10956239,0.10193051,0.16567485,0.23779770
17117,0,USIllinoisMacoupin,Illinois,Macoupin,2021-01-06 00:28:59.629886,2020-06-10 00:00:00.000000,0.07105476,0.12298489,0.19396236,31,55,87,16,29,50,0.03768916,0.06491885,0.11152953,0.10615970,0.16832717,0.24289263
17117,0,USIllinoisMacoupin,Illinois,Macoupin,2021-01-06 00:28:59.629886,2020-06-11 00:00:00.000000,0.07153830,0.12559385,0.20404035,32,56,91,17,29,51,0.03898519,0.06636755,0.11409036,0.10617527,0.17456101,0.24766685
17117,0,USIllinoisMacoupin,Illinois,Macoupin,2021-01-06 00:28:59.629886,2020-06-12 00:00:00.000000,0.07154320,0.12735204,0.21415613,32,57,96,17,31,52,0.03892353,0.06985030,0.11717690,0.10610517,0.18336218,0.25007360
17117,0,USIllinoisMacoupin,Illinois,Macoupin,2021-01-06 00:28:59.629886,2020-06-13 00:00:00.000000,0.07193747,0.12876225,0.22428184,32,57,100,17,31,54,0.03932816,0.07107364,0.12062994,0.10470749,0.18930599,0.26125783
17117,0,USIllinoisMacoupin,Illinois,Macoupin,2021-01-06 00:28:59.629886,2020-06-14 00:00:00.000000,0.07239671,0.13242401,0.23439797,32,59,105,18,32,55,0.04062874,0.07227645,0.12424408,0.10402198,0.19566301,0.27358095
17117,0,USIllinoisMacoupin,Illinois,Macoupin,2021-01-06 00:28:59.629886,2020-06-15 00:00:00.000000,0.07404419,0.13633245,0.23706957,33,61,106,18,32,57,0.04043726,0.07260599,0.12693632,0.12137890,0.19922262,0.28413201
17117,0,USIllinoisMacoupin,Illinois,Macoupin,2021-01-06 00:28:59.629886,2020-06-16 00:00:00.000000,0.07683526,0.14000561,0.23970512,34,62,107,18,33,58,0.04112620,0.07462310,0.13107432,0.12212786,0.20396852,0.29366803
17117,0,USIllinoisMacoupin,Illinois,Macoupin,2021-01-06 00:28:59.629886,2020-06-17 00:00:00.000000,0.07680562,0.14556887,0.24218265,34,65,108,18,34,59,0.04215692,0.07655183,0.13352132,0.12492689,0.20911808,0.30026610
17117,0,USIllinoisMacoupin,Illinois,Macoupin,2021-01-06 00:28:59.629886,2020-06-18 00:00:00.000000,0.07798297,0.15164851,0.24453626,35,68,109,19,35,60,0.04360041,0.07811317,0.13555785,0.12583615,0.22030439,0.30458308
17117,0,USIllinoisMacoupin,Illinois,Macoupin,2021-01-06 00:28:59.629886,2020-06-19 00:00:00.000000,0.07653975,0.15495025,0.25067303,34,69,112,19,35,61,0.04418405,0.08000181,0.13730503,0.13184306,0.22788017,0.30972612
17117,0,USIllinoisMacoupin,Illinois,Macoupin,2021-01-06 00:28:59.629886,2020-06-20 00:00:00.000000,0.07513992,0.15778313,0.26181022,33,70,117,19,36,62,0.04425633,0.08185015,0.13884979,0.14168591,0.22955493,0.31550924
17117,0,USIllinoisMacoupin,Illinois,Macoupin,2021-01-06 00:28:59.629886,2020-06-21 00:00:00.000000,0.07476269,0.15924135,0.26648846,33,71,119,19,37,63,0.04382477,0.08447055,0.14048828,0.14654312,0.23115623,0.32222547
17117,0,USIllinoisMacoupin,Illinois,Macoupin,2021-01-06 00:28:59.629886,2020-06-22 00:00:00.000000,0.08915766,0.16328674,0.28239242,40,73,126,19,39,64,0.04313492,0.08698497,0.14298964,0.15463465,0.23450398,0.32716597
17117,0,USIllinoisMacoupin,Illinois,Macoupin,2021-01-06 00:28:59.629886,2020-06-23 00:00:00.000000,0.08947946,0.16601848,0.28458515,40,74,127,19,40,66,0.04429118,0.08908134,0.14908322,0.15815327,0.24329442,0.33697709
17117,0,USIllinoisMacoupin,Illinois,Macoupin,2021-01-06 00:28:59.629886,2020-06-24 00:00:00.000000,0.08981584,0.17025872,0.28545996,40,76,128,19,40,68,0.04438506,0.09111853,0.15355180,0.16191283,0.24633266,0.34441444
17117,0,USIllinoisMacoupin,Illinois,Macoupin,2021-01-06 00:28:59.629886,2020-06-25 00:00:00.000000,0.09031499,0.17696035,0.28871647,40,79,129,20,41,71,0.04471696,0.09345330,0.15923606,0.16343308,0.25220795,0.36112404
17117,0,USIllinoisMacoupin,Illinois,Macoupin,2021-01-06 00:28:59.629886,2020-06-26 00:00:00.000000,0.09385819,0.18424801,0.30142266,42,82,135,22,43,72,0.04963663,0.09593156,0.16049383,0.16503274,0.25651621,0.36396579
17117,0,USIllinoisMacoupin,Illinois,Macoupin,2021-01-06 00:28:59.629886,2020-06-27 00:00:00.000000,0.09476859,0.18857101,0.31938296,42,84,143,24,44,73,0.05469591,0.09887312,0.16415498,0.16910613,0.26056180,0.36548778
17117,0,USIllinoisMacoupin,Illinois,Macoupin,2021-01-06 00:28:59.629886,2020-06-28 00:00:00.000000,0.09585922,0.19502572,0.34371123,43,87,154,24,45,75,0.05515806,0.10200939,0.16904084,0.17787710,0.27414173,0.37294292
17117,0,USIllinoisMacoupin,Illinois,Macoupin,2021-01-06 00:28:59.629886,2020-06-29 00:00:00.000000,0.11147008,0.20418731,0.34752550,50,91,156,25,47,78,0.05587163,0.10618116,0.17444438,0.18537308,0.28514228,0.38475414
17117,0,USIllinoisMacoupin,Illinois,Macoupin,2021-01-06 00:28:59.629886,2020-06-30 00:00:00.000000,0.12877268,0.21467393,0.36142343,57,96,162,25,50,81,0.05775594,0.11209919,0.18057986,0.18824972,0.29760701,0.40216874
17117,0,USIllinoisMacoupin,Illinois,Macoupin,2021-01-06 00:28:59.629886,2020-07-01 00:00:00.000000,0.13570341,0.22655385,0.37908083,60,101,170,28,52,86,0.06263415,0.11711352,0.19291095,0.18906848,0.30657089,0.44215751
17117,0,USIllinoisMacoupin,Illinois,Macoupin,2021-01-06 00:28:59.629886,2020-07-02 00:00:00.000000,0.14303578,0.24128829,0.39761744,64,108,178,29,54,93,0.06478888,0.12059216,0.20717668,0.19514407,0.31293708,0.45169213
17117,0,USIllinoisMacoupin,Illinois,Macoupin,2021-01-06 00:28:59.629886,2020-07-03 00:00:00.000000,0.15076218,0.25463430,0.42322674,67,114,190,33,56,100,0.07398654,0.12656244,0.22309679,0.21330018,0.31861141,0.46978285
17117,0,USIllinoisMacoupin,Illinois,Macoupin,2021-01-06 00:28:59.629886,2020-07-04 00:00:00.000000,0.15898051,0.26741721,0.45526717,71,120,204,34,60,108,0.07709383,0.13475688,0.24041552,0.21986815,0.32966439,0.49555482
17117,0,USIllinoisMacoupin,Illinois,Macoupin,2021-01-06 00:28:59.629886,2020-07-05 00:00:00.000000,0.16777967,0.28201284,0.48823827,75,126,219,35,63,113,0.07932577,0.14035450,0.25373902,0.23888014,0.34203324,0.51063237
17117,0,USIllinoisMacoupin,Illinois,Macoupin,2021-01-06 00:28:59.629886,2020-07-06 00:00:00.000000,0.17517255,0.30044286,0.50701938,78,134,227,36,67,117,0.08163521,0.14915676,0.26126641,0.25339778,0.34493360,0.52034381
17117,0,USIllinoisMacoupin,Illinois,Macoupin,2021-01-06 00:28:59.629886,2020-07-07 00:00:00.000000,0.18353029,0.31987757,0.52566725,82,143,236,38,71,121,0.08611175,0.15837909,0.26942041,0.25451345,0.34811903,0.52220270
17117,0,USIllinoisMacoupin,Illinois,Macoupin,2021-01-06 00:28:59.629886,2020-07-08 00:00:00.000000,0.19292685,0.34116588,0.54422542,86,153,244,40,75,124,0.09094328,0.16728697,0.27811308,0.25652978,0.35064364,0.52293429
17117,0,USIllinoisMacoupin,Illinois,Macoupin,2021-01-06 00:28:59.629886,2020-07-09 00:00:00.000000,0.20386235,0.36425864,0.56567695,91,163,254,43,79,129,0.09622437,0.17711721,0.28737544,0.26080468,0.35907072,0.52328241
17117,0,USIllinoisMacoupin,Illinois,Macoupin,2021-01-06 00:28:59.629886,2020-07-10 00:00:00.000000,0.21596800,0.38575886,0.59368209,97,173,266,47,84,133,0.10480822,0.18820078,0.29753850,0.26896030,0.36574326,0.52348862
17117,0,USIllinoisMacoupin,Illinois,Macoupin,2021-01-06 00:28:59.629886,2020-07-11 00:00:00.000000,0.22902015,0.41087544,0.62953818,102,184,282,51,89,139,0.11409731,0.19952809,0.30967393,0.28072688,0.38001776,0.52827494
17117,0,USIllinoisMacoupin,Illinois,Macoupin,2021-01-06 00:28:59.629886,2020-07-12 00:00:00.000000,0.24296701,0.44142573,0.66948334,109,198,300,54,94,146,0.12176427,0.21144077,0.32583921,0.29230780,0.38974040,0.52462241
17117,0,USIllinoisMacoupin,Illinois,Macoupin,2021-01-06 00:28:59.629886,2020-07-13 00:00:00.000000,0.26797899,0.47521966,0.70933189,120,213,318,57,100,154,0.12893379,0.22267278,0.34322748,0.29559539,0.40009984,0.53138269
17117,0,USIllinoisMacoupin,Illinois,Macoupin,2021-01-06 00:28:59.629886,2020-07-14 00:00:00.000000,0.28766479,0.50130431,0.75122769,129,225,337,62,105,162,0.13812744,0.23539814,0.36252079,0.30247350,0.40785684,0.52514939
17117,0,USIllinoisMacoupin,Illinois,Macoupin,2021-01-06 00:28:59.629886,2020-07-15 00:00:00.000000,0.30625501,0.52663208,0.79512460,137,236,357,65,112,172,0.14534873,0.24973520,0.38414428,0.30630489,0.40750686,0.52551174
17117,0,USIllinoisMacoupin,Illinois,Macoupin,2021-01-06 00:28:59.629886,2020-07-16 00:00:00.000000,0.32679969,0.55255558,0.84093215,146,248,377,70,118,183,0.15727988,0.26371664,0.40831400,0.30997382,0.40969096,0.52916736
17117,0,USIllinoisMacoupin,Illinois,Macoupin,2021-01-06 00:28:59.629886,2020-07-17 00:00:00.000000,0.34988496,0.58440193,0.88845842,157,262,399,77,125,195,0.17219988,0.27926353,0.43501640,0.31098995,0.41106787,0.52681138
17117,0,USIllinoisMacoupin,Illinois,Macoupin,2021-01-06 00:28:59.629886,2020-07-18 00:00:00.000000,0.37569212,0.61446808,0.93738933,168,276,421,82,133,208,0.18312395,0.29799299,0.46414154,0.31735971,0.42236290,0.52650563
17117,0,USIllinoisMacoupin,Illinois,Macoupin,2021-01-06 00:28:59.629886,2020-07-19 00:00:00.000000,0.40096953,0.65417621,0.98731470,180,293,443,84,139,222,0.18808513,0.31146745,0.49559099,0.31660505,0.42700536,0.52777878
17117,0,USIllinoisMacoupin,Illinois,Macoupin,2021-01-06 00:28:59.629886,2020-07-20 00:00:00.000000,0.42695101,0.69503807,1.03682522,191,312,465,87,148,237,0.19416943,0.32998285,0.52931789,0.31622858,0.42947293,0.53338002
17117,0,USIllinoisMacoupin,Illinois,Macoupin,2021-01-06 00:28:59.629886,2020-07-21 00:00:00.000000,0.46358270,0.73507113,1.08666227,208,330,488,91,156,252,0.20307709,0.34917391,0.56285945,0.31604746,0.43755837,0.54251187
17117,0,USIllinoisMacoupin,Illinois,Macoupin,2021-01-06 00:28:59.629886,2020-07-22 00:00:00.000000,0.49701339,0.77025193,1.13677238,223,346,510,97,165,268,0.21768700,0.36762735,0.59825145,0.31596662,0.43812504,0.57332190
17117,0,USIllinoisMacoupin,Illinois,Macoupin,2021-01-06 00:28:59.629886,2020-07-23 00:00:00.000000,0.53987129,0.82057849,1.18735709,242,368,533,106,173,286,0.23773318,0.38646669,0.63699242,0.31604824,0.43594974,0.58437943
17117,0,USIllinoisMacoupin,Illinois,Macoupin,2021-01-06 00:28:59.629886,2020-07-24 00:00:00.000000,0.58349248,0.87820517,1.23872648,262,394,556,116,183,306,0.25980909,0.40739739,0.68139757,0.31052677,0.43568072,0.58117834
17117,0,USIllinoisMacoupin,Illinois,Macoupin,2021-01-06 00:28:59.629886,2020-07-25 00:00:00.000000,0.62587640,0.92940341,1.29110936,281,417,580,126,194,327,0.28078568,0.43228788,0.72908060,0.30579161,0.44382964,0.58383536
17117,0,USIllinoisMacoupin,Illinois,Macoupin,2021-01-06 00:28:59.629886,2020-07-26 00:00:00.000000,0.66717045,0.98699681,1.36570566,299,443,613,130,207,350,0.29066159,0.46243238,0.78016494,0.30543320,0.44392792,0.58592126
17117,0,USIllinoisMacoupin,Illinois,Macoupin,2021-01-06 00:28:59.629886,2020-07-27 00:00:00.000000,0.70750586,1.04090766,1.47490708,317,467,662,141,221,374,0.31461893,0.49271912,0.83465680,0.30619459,0.44266282,0.58582787
17117,0,USIllinoisMacoupin,Illinois,Macoupin,2021-01-06 00:28:59.629886,2020-07-28 00:00:00.000000,0.75217121,1.10318001,1.58899849,337,495,713,153,236,396,0.34187444,0.52740645,0.88335833,0.29546169,0.44122122,0.58401663
17117,0,USIllinoisMacoupin,Illinois,Macoupin,2021-01-06 00:28:59.629886,2020-07-29 00:00:00.000000,0.80149696,1.16765286,1.70946744,360,524,767,166,251,417,0.37166573,0.55875477,0.92824814,0.29478012,0.44107020,0.56858384
17117,0,USIllinoisMacoupin,Illinois,Macoupin,2021-01-06 00:28:59.629886,2020-07-30 00:00:00.000000,0.85751797,1.22573827,1.83692829,385,550,825,176,266,435,0.39306763,0.59224852,0.96956646,0.29452461,0.43953704,0.56115179
17117,0,USIllinoisMacoupin,Illinois,Macoupin,2021-01-06 00:28:59.629886,2020-07-31 00:00:00.000000,0.91621813,1.29382477,1.97196409,411,581,885,183,280,453,0.40948309,0.62442581,1.00839711,0.29448610,0.43468108,0.55321868
17117,0,USIllinoisMacoupin,Illinois,Macoupin,2021-01-06 00:28:59.629886,2020-08-01 00:00:00.000000,0.96835816,1.37809346,2.11470582,435,619,950,192,294,469,0.42809846,0.65566009,1.04584336,0.29466285,0.42836553,0.55294659
17117,0,USIllinoisMacoupin,Illinois,Macoupin,2021-01-06 00:28:59.629886,2020-08-02 00:00:00.000000,1.02092664,1.44507841,2.19767435,458,649,987,201,313,500,0.44894476,0.69706870,1.11479094,0.28922993,0.41635963,0.55253236
17117,0,USIllinoisMacoupin,Illinois,Macoupin,2021-01-06 00:28:59.629886,2020-08-03 00:00:00.000000,1.07744086,1.51397843,2.24070444,484,680,1006,211,329,516,0.47181084,0.73447309,1.15028672,0.28335847,0.40645393,0.54938785
17117,0,USIllinoisMacoupin,Illinois,Macoupin,2021-01-06 00:28:59.629886,2020-08-04 00:00:00.000000,1.12333039,1.59578595,2.28219091,504,716,1025,223,345,532,0.49840355,0.76823896,1.18569132,0.28007502,0.39995552,0.53856991
17117,0,USIllinoisMacoupin,Illinois,Macoupin,2021-01-06 00:28:59.629886,2020-08-05 00:00:00.000000,1.16534801,1.66964987,2.32803346,523,750,1045,239,362,560,0.53306027,0.80702512,1.24722911,0.26367019,0.39446944,0.51398447
17117,0,USIllinoisMacoupin,Illinois,Macoupin,2021-01-06 00:28:59.629886,2020-08-06 00:00:00.000000,1.20387850,1.72032594,2.40169392,540,772,1078,255,383,579,0.56771792,0.85454897,1.28987364,0.26426903,0.37915401,0.51093159
17117,0,USIllinoisMacoupin,Illinois,Macoupin,2021-01-06 00:28:59.629886,2020-08-07 00:00:00.000000,1.24245793,1.77721172,2.45409284,558,798,1102,270,406,599,0.60219025,0.90460216,1.33432476,0.25108516,0.36294578,0.50079273
17117,0,USIllinoisMacoupin,Illinois,Macoupin,2021-01-06 00:28:59.629886,2020-08-08 00:00:00.000000,1.28303890,1.83378720,2.49519006,576,823,1120,285,420,615,0.63614520,0.93495171,1.36978955,0.24783932,0.35312232,0.46084944
17117,0,USIllinoisMacoupin,Illinois,Macoupin,2021-01-06 00:28:59.629886,2020-08-09 00:00:00.000000,1.33028237,1.90233063,2.54055405,597,854,1141,300,436,643,0.66917967,0.97178764,1.43150769,0.24677902,0.34268573,0.45801418
17117,0,USIllinoisMacoupin,Illinois,Macoupin,2021-01-06 00:28:59.629886,2020-08-10 00:00:00.000000,1.36484512,1.95696027,2.59428749,613,879,1165,313,459,673,0.69735470,1.02200497,1.49987988,0.24603195,0.33417334,0.47256316
17117,0,USIllinoisMacoupin,Illinois,Macoupin,2021-01-06 00:28:59.629886,2020-08-11 00:00:00.000000,1.40211711,2.01279164,2.66035247,629,904,1195,325,474,698,0.72420998,1.05507259,1.55459461,0.24530723,0.32347540,0.46327694
17117,0,USIllinoisMacoupin,Illinois,Macoupin,2021-01-06 00:28:59.629886,2020-08-12 00:00:00.000000,1.44420922,2.05497185,2.67960610,648,923,1203,336,487,708,0.74857775,1.08532981,1.57786995,0.23916575,0.31591293,0.45052208
17117,0,USIllinoisMacoupin,Illinois,Macoupin,2021-01-06 00:28:59.629886,2020-08-13 00:00:00.000000,1.48705902,2.08016046,2.73463930,668,934,1228,343,498,736,0.76535254,1.10976280,1.64019656,0.23143360,0.30878973,0.43079465
17117,0,USIllinoisMacoupin,Illinois,Macoupin,2021-01-06 00:28:59.629886,2020-08-14 00:00:00.000000,1.53072412,2.10387191,2.80451130,687,945,1259,350,512,764,0.77970254,1.14139581,1.70144041,0.22299858,0.30470937,0.40339189
17117,0,USIllinoisMacoupin,Illinois,Macoupin,2021-01-06 00:28:59.629886,2020-08-15 00:00:00.000000,1.56443519,2.12261149,2.81302065,702,953,1263,355,524,790,0.79205749,1.16685157,1.75925676,0.21783295,0.29292427,0.39898173
17117,0,USIllinoisMacoupin,Illinois,Macoupin,2021-01-06 00:28:59.629886,2020-08-16 00:00:00.000000,1.55373871,2.15087983,2.86886498,698,966,1288,360,531,806,0.80309035,1.18358807,1.79610491,0.21563763,0.27894238,0.39508694
17117,0,USIllinoisMacoupin,Illinois,Macoupin,2021-01-06 00:28:59.629886,2020-08-17 00:00:00.000000,1.53240703,2.17101428,2.93670996,688,975,1319,365,540,812,0.81327827,1.20314158,1.80917351,0.21396643,0.27288898,0.40678169
17117,0,USIllinoisMacoupin,Illinois,Macoupin,2021-01-06 00:28:59.629886,2020-08-18 00:00:00.000000,1.52966477,2.18327970,2.95678742,687,980,1328,369,548,816,0.82190221,1.22007850,1.81694339,0.21176174,0.26412020,0.39878330
17117,0,USIllinoisMacoupin,Illinois,Macoupin,2021-01-06 00:28:59.629886,2020-08-19 00:00:00.000000,1.54255371,2.20704735,2.96993517,693,991,1334,372,552,818,0.82962729,1.22951269,1.82113115,0.20633657,0.26025921,0.38796309
17117,0,USIllinoisMacoupin,Illinois,Macoupin,2021-01-06 00:28:59.629886,2020-08-20 00:00:00.000000,1.55526175,2.22256658,2.98932080,698,998,1342,375,557,818,0.83682112,1.24006218,1.82275573,0.19883109,0.25588630,0.38012925
17117,0,USIllinoisMacoupin,Illinois,Macoupin,2021-01-06 00:28:59.629886,2020-08-21 00:00:00.000000,1.56716892,2.22771305,3.02776935,704,1000,1360,379,560,827,0.84368395,1.24755098,1.84243215,0.18882938,0.24973500,0.35075558
17117,0,USIllinoisMacoupin,Illinois,Macoupin,2021-01-06 00:28:59.629886,2020-08-22 00:00:00.000000,1.57308805,2.22314270,3.05576115,706,998,1372,382,557,846,0.85042966,1.24017398,1.88443104,0.18305739,0.24756613,0.33629183
17117,0,USIllinoisMacoupin,Illinois,Macoupin,2021-01-06 00:28:59.629886,2020-08-23 00:00:00.000000,1.54850084,2.21940295,3.07412419,695,997,1381,384,555,862,0.85555539,1.23707616,1.92080551,0.17936177,0.23748971,0.32253030
17117,0,USIllinoisMacoupin,Illinois,Macoupin,2021-01-06 00:28:59.629886,2020-08-24 00:00:00.000000,1.50327045,2.23920966,3.08722499,675,1005,1386,382,553,875,0.85111717,1.23110218,1.94844589,0.17600303,0.23342811,0.31752924
17117,0,USIllinoisMacoupin,Illinois,Macoupin,2021-01-06 00:28:59.629886,2020-08-25 00:00:00.000000,1.47791276,2.24673165,3.09099822,663,1009,1388,375,548,883,0.83584061,1.22192420,1.96654496,0.17218783,0.23185078,0.31475756
17117,0,USIllinoisMacoupin,Illinois,Macoupin,2021-01-06 00:28:59.629886,2020-08-26 00:00:00.000000,1.47459765,2.22970188,3.10130071,662,1001,1393,365,548,886,0.81412975,1.22022626,1.97414819,0.16969936,0.23066665,0.31453390
17117,0,USIllinoisMacoupin,Illinois,Macoupin,2021-01-06 00:28:59.629886,2020-08-27 00:00:00.000000,1.44754490,2.22508591,3.10451170,650,999,1394,354,546,885,0.78922112,1.21601622,1.97192141,0.16274889,0.22671402,0.31273128
17117,0,USIllinoisMacoupin,Illinois,Macoupin,2021-01-06 00:28:59.629886,2020-08-28 00:00:00.000000,1.41411967,2.20350298,3.10183357,635,989,1393,343,544,881,0.76419938,1.21179276,1.96122120,0.16231127,0.22537852,0.31227978
17117,0,USIllinoisMacoupin,Illinois,Macoupin,2021-01-06 00:28:59.629886,2020-08-29 00:00:00.000000,1.39408033,2.18433318,3.08575398,626,981,1386,343,543,873,0.76490946,1.21030821,1.94348941,0.15767612,0.22725500,0.31450429
17117,0,USIllinoisMacoupin,Illinois,Macoupin,2021-01-06 00:28:59.629886,2020-08-30 00:00:00.000000,1.37604380,2.17004059,3.05576879,618,974,1372,343,546,862,0.76507094,1.21709447,1.92001817,0.14852765,0.23127626,0.31899056
17117,0,USIllinoisMacoupin,Illinois,Macoupin,2021-01-06 00:28:59.629886,2020-08-31 00:00:00.000000,1.36009129,2.17500498,3.06339220,611,977,1376,343,542,849,0.76489058,1.20790785,1.89192354,0.14502304,0.23445135,0.32336294
17117,0,USIllinoisMacoupin,Illinois,Macoupin,2021-01-06 00:28:59.629886,2020-09-01 00:00:00.000000,1.34469867,2.17571122,3.11607522,604,977,1399,343,536,836,0.76431067,1.19523462,1.86210783,0.14465498,0.23681417,0.32403822
17117,0,USIllinoisMacoupin,Illinois,Macoupin,2021-01-06 00:28:59.629886,2020-09-02 00:00:00.000000,1.32988422,2.16016764,3.07744977,597,970,1382,342,535,822,0.76339893,1.19301643,1.83110816,0.15351828,0.23926440,0.32467108
17117,0,USIllinoisMacoupin,Illinois,Macoupin,2021-01-06 00:28:59.629886,2020-09-03 00:00:00.000000,1.31589423,2.13304950,3.03039606,591,958,1361,342,536,808,0.76222523,1.19343566,1.79991694,0.15746409,0.23935405,0.32440033
17117,0,USIllinoisMacoupin,Illinois,Macoupin,2021-01-06 00:28:59.629886,2020-09-04 00:00:00.000000,1.30266844,2.11466098,2.98885926,585,950,1342,341,533,809,0.76086837,1.18702204,1.80174573,0.15496305,0.24405063,0.32305422
17117,0,USIllinoisMacoupin,Illinois,Macoupin,2021-01-06 00:28:59.629886,2020-09-05 00:00:00.000000,1.29280405,2.10360816,2.94984657,580,945,1325,341,528,813,0.75947100,1.17702986,1.81104745,0.15355052,0.23863347,0.31926250
17117,0,USIllinoisMacoupin,Illinois,Macoupin,2021-01-06 00:28:59.629886,2020-09-06 00:00:00.000000,1.28692360,2.10443555,2.91187559,578,945,1308,335,523,815,0.74568333,1.16463777,1.81538115,0.15296648,0.24095248,0.32604239
17117,0,USIllinoisMacoupin,Illinois,Macoupin,2021-01-06 00:28:59.629886,2020-09-07 00:00:00.000000,1.29030588,2.08770644,2.86176435,579,937,1285,328,521,815,0.73076585,1.16182758,1.81594830,0.15300349,0.24464940,0.31956134
17117,0,USIllinoisMacoupin,Illinois,Macoupin,2021-01-06 00:28:59.629886,2020-09-08 00:00:00.000000,1.29864817,2.07197934,2.82413852,583,930,1268,322,527,815,0.71889597,1.17378937,1.81446936,0.15352359,0.24068772,0.31419765
17117,0,USIllinoisMacoupin,Illinois,Macoupin,2021-01-06 00:28:59.629886,2020-09-09 00:00:00.000000,1.31122297,2.07306547,2.82535095,589,931,1269,318,528,813,0.70979328,1.17547451,1.81138396,0.15446554,0.24490888,0.31462808
17117,0,USIllinoisMacoupin,Illinois,Macoupin,2021-01-06 00:28:59.629886,2020-09-10 00:00:00.000000,1.32662360,2.04419810,2.82157085,595,918,1267,320,521,811,0.71374831,1.16054842,1.80671421,0.15586771,0.24440774,0.31304045
17117,0,USIllinoisMacoupin,Illinois,Macoupin,2021-01-06 00:28:59.629886,2020-09-11 00:00:00.000000,1.34202777,2.01657261,2.81199826,602,905,1263,323,518,807,0.72046802,1.15345552,1.79838810,0.15639195,0.24805108,0.31237224
17117,0,USIllinoisMacoupin,Illinois,Macoupin,2021-01-06 00:28:59.629886,2020-09-12 00:00:00.000000,1.35224286,2.00616958,2.79815558,607,901,1257,326,513,801,0.72678340,1.14298267,1.78515337,0.15703395,0.25030137,0.32491339
17117,0,USIllinoisMacoupin,Illinois,Macoupin,2021-01-06 00:28:59.629886,2020-09-13 00:00:00.000000,1.35078303,2.01138340,2.78253030,606,903,1250,324,509,794,0.72190190,1.13357806,1.76802886,0.15027511,0.25211412,0.33686597
17117,0,USIllinoisMacoupin,Illinois,Macoupin,2021-01-06 00:28:59.629886,2020-09-14 00:00:00.000000,1.33832534,2.02335662,2.76577708,601,909,1242,322,508,785,0.71799960,1.13123473,1.74802579,0.16098416,0.25324399,0.34897629
17117,0,USIllinoisMacoupin,Illinois,Macoupin,2021-01-06 00:28:59.629886,2020-09-15 00:00:00.000000,1.32174829,2.03389031,2.74869295,593,913,1234,320,512,774,0.71396723,1.14015924,1.72498639,0.16221840,0.24910611,0.35447471
17117,0,USIllinoisMacoupin,Illinois,Macoupin,2021-01-06 00:28:59.629886,2020-09-16 00:00:00.000000,1.31160177,2.03703611,2.76187317,589,915,1240,320,515,763,0.71303786,1.14705448,1.69976717,0.16033058,0.24883484,0.35605659
17117,0,USIllinoisMacoupin,Illinois,Macoupin,2021-01-06 00:28:59.629886,2020-09-17 00:00:00.000000,1.30177239,2.03886913,2.77312804,584,915,1245,321,515,751,0.71648467,1.14798927,1.67302952,0.16058052,0.25185713,0.35348740
17117,0,USIllinoisMacoupin,Illinois,Macoupin,2021-01-06 00:28:59.629886,2020-09-18 00:00:00.000000,1.29510222,2.03558622,2.77929822,581,914,1248,322,513,747,0.71865782,1.14203958,1.66390170,0.16546801,0.25114206,0.34469200
17117,0,USIllinoisMacoupin,Illinois,Macoupin,2021-01-06 00:28:59.629886,2020-09-19 00:00:00.000000,1.29277055,2.03187880,2.78073101,580,912,1249,323,508,743,0.72103163,1.13115001,1.65578611,0.16958960,0.25018290,0.33402993
17117,0,USIllinoisMacoupin,Illinois,Macoupin,2021-01-06 00:28:59.629886,2020-09-20 00:00:00.000000,1.29336507,2.02797604,2.77881193,581,911,1248,324,508,740,0.72279487,1.13077987,1.64855547,0.17174480,0.25864286,0.33168823
17117,0,USIllinoisMacoupin,Illinois,Macoupin,2021-01-06 00:28:59.629886,2020-09-21 00:00:00.000000,1.29240795,2.02083694,2.77278528,580,907,1245,325,508,737,0.72477181,1.13211948,1.64262525,0.17288521,0.25783824,0.33273064
17117,0,USIllinoisMacoupin,Illinois,Macoupin,2021-01-06 00:28:59.629886,2020-09-22 00:00:00.000000,1.29235462,2.01497438,2.75253764,580,905,1236,327,503,737,0.72826145,1.12116708,1.64060493,0.17396171,0.26015255,0.33417413
17117,0,USIllinoisMacoupin,Illinois,Macoupin,2021-01-06 00:28:59.629886,2020-09-23 00:00:00.000000,1.29260470,2.00684024,2.74619791,580,901,1233,330,506,737,0.73506471,1.12679702,1.64237963,0.17299281,0.26131913,0.33895304
17117,0,USIllinoisMacoupin,Illinois,Macoupin,2021-01-06 00:28:59.629886,2020-09-24 00:00:00.000000,1.29296565,2.00400925,2.75312016,580,900,1236,335,501,740,0.74583000,1.11631037,1.64776953,0.17257999,0.26263893,0.34306934
17117,0,USIllinoisMacoupin,Illinois,Macoupin,2021-01-06 00:28:59.629886,2020-09-25 00:00:00.000000,1.29338860,2.00817454,2.78072606,581,902,1249,337,497,744,0.75079566,1.10758330,1.65636441,0.17564892,0.26514412,0.35306070
17117,0,USIllinoisMacoupin,Illinois,Macoupin,2021-01-06 00:28:59.629886,2020-09-26 00:00:00.000000,1.29398410,2.00022460,2.80417696,581,898,1259,337,495,749,0.75111984,1.10263926,1.66761888,0.18527469,0.27425909,0.36165520
17117,0,USIllinoisMacoupin,Illinois,Macoupin,2021-01-06 00:28:59.629886,2020-09-27 00:00:00.000000,1.29520767,2.00872270,2.82133564,581,902,1267,334,501,755,0.74373773,1.11687494,1.68100276,0.20297810,0.28313663,0.36350443
17117,0,USIllinoisMacoupin,Illinois,Macoupin,2021-01-06 00:28:59.629886,2020-09-28 00:00:00.000000,1.30262256,2.03698889,2.83481498,585,915,1273,330,503,761,0.73671171,1.12013666,1.69610996,0.20264887,0.28693068,0.36408516
17117,0,USIllinoisMacoupin,Illinois,Macoupin,2021-01-06 00:28:59.629886,2020-09-29 00:00:00.000000,1.31642747,2.06222636,2.86863781,591,926,1288,327,501,762,0.72963211,1.11691754,1.69731514,0.20285633,0.29022228,0.36481980
17117,0,USIllinoisMacoupin,Illinois,Macoupin,2021-01-06 00:28:59.629886,2020-09-30 00:00:00.000000,1.33931335,2.07032264,2.90404930,601,930,1304,324,503,762,0.72127652,1.12044646,1.69746844,0.20971059,0.29215846,0.38749176
17117,0,USIllinoisMacoupin,Illinois,Macoupin,2021-01-06 00:28:59.629886,2020-10-01 00:00:00.000000,1.36718512,2.08405253,2.93998108,614,936,1320,320,501,763,0.71365425,1.11718494,1.69870082,0.21436344,0.29428942,0.39108247
17117,0,USIllinoisMacoupin,Illinois,Macoupin,2021-01-06 00:28:59.629886,2020-10-02 00:00:00.000000,1.39772367,2.09508786,2.97664543,627,941,1337,317,506,764,0.70656289,1.12775892,1.70080440,0.21495449,0.30036191,0.40395554
17117,0,USIllinoisMacoupin,Illinois,Macoupin,2021-01-06 00:28:59.629886,2020-10-03 00:00:00.000000,1.41001202,2.11247978,3.01437628,633,949,1354,314,512,765,0.70020950,1.14107065,1.70406978,0.21335973,0.31219827,0.43445646
17117,0,USIllinoisMacoupin,Illinois,Macoupin,2021-01-06 00:28:59.629886,2020-10-04 00:00:00.000000,1.40315442,2.14611274,3.05270629,630,964,1371,311,518,768,0.69436366,1.15453775,1.70999114,0.21782638,0.31906693,0.44376268
17117,0,USIllinoisMacoupin,Illinois,Macoupin,2021-01-06 00:28:59.629886,2020-10-05 00:00:00.000000,1.41051202,2.18152266,3.09033002,633,980,1388,314,520,773,0.69943513,1.15901507,1.72174068,0.22210170,0.32574527,0.45032589
17117,0,USIllinoisMacoupin,Illinois,Macoupin,2021-01-06 00:28:59.629886,2020-10-06 00:00:00.000000,1.43494086,2.20457601,3.12900007,644,990,1405,325,525,781,0.72523808,1.17058274,1.74031364,0.22665859,0.33388505,0.45801828
17117,0,USIllinoisMacoupin,Illinois,Macoupin,2021-01-06 00:28:59.629886,2020-10-07 00:00:00.000000,1.50987120,2.24310433,3.16842002,678,1007,1423,340,541,793,0.75695856,1.20455133,1.76536778,0.23712241,0.33603988,0.47017634
17117,0,USIllinoisMacoupin,Illinois,Macoupin,2021-01-06 00:28:59.629886,2020-10-08 00:00:00.000000,1.58631934,2.28795583,3.20868408,712,1027,1441,356,555,807,0.79386719,1.23692828,1.79644616,0.24287172,0.34160255,0.48744267
17117,0,USIllinoisMacoupin,Illinois,Macoupin,2021-01-06 00:28:59.629886,2020-10-09 00:00:00.000000,1.66014061,2.33335212,3.25010670,745,1048,1460,369,576,823,0.82166735,1.28226566,1.83296827,0.24591541,0.34793216,0.48604640
17117,0,USIllinoisMacoupin,Illinois,Macoupin,2021-01-06 00:28:59.629886,2020-10-10 00:00:00.000000,1.73025165,2.37040688,3.29348713,777,1064,1479,380,582,842,0.84673244,1.29620066,1.87477164,0.25127795,0.35350129,0.48236239
17117,0,USIllinoisMacoupin,Illinois,Macoupin,2021-01-06 00:28:59.629886,2020-10-11 00:00:00.000000,1.79844357,2.39675533,3.42335742,807,1076,1537,393,590,854,0.87576280,1.31393571,1.90115114,0.25723841,0.37481866,0.47967603
17117,0,USIllinoisMacoupin,Illinois,Macoupin,2021-01-06 00:28:59.629886,2020-10-12 00:00:00.000000,1.86439657,2.44094258,3.58257602,837,1096,1609,405,594,866,0.90221433,1.32218917,1.92973428,0.27431359,0.37628250,0.47705873
17117,0,USIllinoisMacoupin,Illinois,Macoupin,2021-01-06 00:28:59.629886,2020-10-13 00:00:00.000000,1.92946052,2.50118398,3.73832730,866,1123,1679,413,608,881,0.92140082,1.35553134,1.96280407,0.27639826,0.38674798,0.51704470
17117,0,USIllinoisMacoupin,Illinois,Macoupin,2021-01-06 00:28:59.629886,2020-10-14 00:00:00.000000,1.97560526,2.58101512,3.81505892,887,1159,1713,425,620,906,0.94678443,1.38090301,2.01841086,0.27651945,0.39240154,0.52250939
17117,0,USIllinoisMacoupin,Illinois,Macoupin,2021-01-06 00:28:59.629886,2020-10-15 00:00:00.000000,2.00553722,2.67483700,3.89269266,901,1201,1748,438,633,938,0.97682873,1.40995850,2.08788192,0.27669329,0.40621001,0.52668398
17117,0,USIllinoisMacoupin,Illinois,Macoupin,2021-01-06 00:28:59.629886,2020-10-16 00:00:00.000000,2.09537251,2.78594314,3.97174698,941,1251,1784,453,648,971,1.01046929,1.44401417,2.16341243,0.27753785,0.41638301,0.53391629
17117,0,USIllinoisMacoupin,Illinois,Macoupin,2021-01-06 00:28:59.629886,2020-10-17 00:00:00.000000,2.13515625,2.90297514,4.06865335,959,1304,1827,470,665,1007,1.04731322,1.48097076,2.24352591,0.29105733,0.43520951,0.56618948
17117,0,USIllinoisMacoupin,Illinois,Macoupin,2021-01-06 00:28:59.629886,2020-10-18 00:00:00.000000,2.18542171,3.04824254,4.26058160,981,1369,1914,488,687,1042,1.08765837,1.53052506,2.32150084,0.29296783,0.45485608,0.63825087
17117,0,USIllinoisMacoupin,Illinois,Macoupin,2021-01-06 00:28:59.629886,2020-10-19 00:00:00.000000,2.22603139,3.18656105,4.45927596,1000,1431,2003,508,716,1086,1.13240398,1.59440289,2.41902541,0.31458959,0.45806570,0.68583473
17117,0,USIllinoisMacoupin,Illinois,Macoupin,2021-01-06 00:28:59.629886,2020-10-20 00:00:00.000000,2.29991284,3.31150689,4.67150880,1033,1487,2098,534,742,1127,1.19029028,1.65199948,2.51010078,0.33974342,0.46673836,0.71048835
17117,0,USIllinoisMacoupin,Illinois,Macoupin,2021-01-06 00:28:59.629886,2020-10-21 00:00:00.000000,2.40897077,3.46498198,4.90557779,1082,1556,2203,556,770,1154,1.23771298,1.71525589,2.56999680,0.34400230,0.48016496,0.72705074
17117,0,USIllinoisMacoupin,Illinois,Macoupin,2021-01-06 00:28:59.629886,2020-10-22 00:00:00.000000,2.48834426,3.69540018,5.17185725,1117,1660,2323,581,807,1178,1.29448955,1.79829032,2.62390301,0.35280997,0.49304030,0.73362567
17117,0,USIllinoisMacoupin,Illinois,Macoupin,2021-01-06 00:28:59.629886,2020-10-23 00:00:00.000000,2.57358417,3.93428300,5.47228879,1156,1767,2458,599,844,1201,1.33526804,1.88061598,2.67340418,0.35571496,0.50741199,0.73483339
17117,0,USIllinoisMacoupin,Illinois,Macoupin,2021-01-06 00:28:59.629886,2020-10-24 00:00:00.000000,2.71893654,4.23424260,5.80063990,1221,1902,2605,618,893,1242,1.37689855,1.98789692,2.76521656,0.36961164,0.55709258,0.76347422
17117,0,USIllinoisMacoupin,Illinois,Macoupin,2021-01-06 00:28:59.629886,2020-10-25 00:00:00.000000,2.89037314,4.52902228,6.16411047,1298,2034,2769,638,931,1310,1.42202538,2.07414248,2.91712441,0.40044233,0.58700332,0.78654350
17117,0,USIllinoisMacoupin,Illinois,Macoupin,2021-01-06 00:28:59.629886,2020-10-26 00:00:00.000000,3.07451369,4.88364627,6.65019100,1381,2194,2987,663,993,1401,1.47743258,2.21129943,3.11880041,0.41898403,0.62134777,0.84174412
17117,0,USIllinoisMacoupin,Illinois,Macoupin,2021-01-06 00:28:59.629886,2020-10-27 00:00:00.000000,3.26743960,5.28930101,7.16728940,1467,2376,3219,692,1070,1510,1.54184203,2.38220604,3.36197296,0.41981833,0.65200087,0.86530449
17117,0,USIllinoisMacoupin,Illinois,Macoupin,2021-01-06 00:28:59.629886,2020-10-28 00:00:00.000000,3.47395936,5.68638505,7.64182673,1560,2554,3433,724,1148,1621,1.61284669,2.55627895,3.60933970,0.43400211,0.67087035,0.87298256
17117,0,USIllinoisMacoupin,Illinois,Macoupin,2021-01-06 00:28:59.629886,2020-10-29 00:00:00.000000,3.70170065,6.18735748,8.29092859,1663,2779,3724,784,1242,1712,1.74663756,2.76588138,3.81106434,0.48146938,0.71425703,0.92657792
17117,0,USIllinoisMacoupin,Illinois,Macoupin,2021-01-06 00:28:59.629886,2020-10-30 00:00:00.000000,3.97091416,6.70704007,9.09438691,1783,3013,4085,856,1346,1823,1.90583758,2.99650778,4.05895231,0.51158957,0.73845152,0.93003713
17117,0,USIllinoisMacoupin,Illinois,Macoupin,2021-01-06 00:28:59.629886,2020-10-31 00:00:00.000000,4.32004318,7.31742085,9.96745140,1940,3287,4477,936,1442,2002,2.08561488,3.21019247,4.45701568,0.58811515,0.77314232,0.95516179
17117,0,USIllinoisMacoupin,Illinois,Macoupin,2021-01-06 00:28:59.629886,2020-11-01 00:00:00.000000,4.78025120,8.00628817,10.75506639,2147,3596,4831,1019,1560,2197,2.26905473,3.47267949,4.89034844,0.59943600,0.80162234,0.96166408
17117,0,USIllinoisMacoupin,Illinois,Macoupin,2021-01-06 00:28:59.629886,2020-11-02 00:00:00.000000,5.34780993,8.75438066,11.54921945,2402,3932,5188,1110,1699,2371,2.47248313,3.78210447,5.27911656,0.62578923,0.82350891,0.96389990
17117,0,USIllinoisMacoupin,Illinois,Macoupin,2021-01-06 00:28:59.629886,2020-11-03 00:00:00.000000,5.99605099,9.51855856,12.55856148,2693,4276,5642,1217,1864,2543,2.70968436,4.15016222,5.66258843,0.62943016,0.82867166,0.96552014
17117,0,USIllinoisMacoupin,Illinois,Macoupin,2021-01-06 00:28:59.629886,2020-11-04 00:00:00.000000,6.71736803,10.35488730,13.53990046,3017,4652,6082,1337,2043,2725,2.97816705,4.54930146,6.06648024,0.62917168,0.81879507,0.96396318
17117,0,USIllinoisMacoupin,Illinois,Macoupin,2021-01-06 00:28:59.629886,2020-11-05 00:00:00.000000,7.51161593,11.18380191,14.52649305,3374,5024,6526,1467,2228,2916,3.26686491,4.95975992,6.49183588,0.62125314,0.80145085,0.94099299
17117,0,USIllinoisMacoupin,Illinois,Macoupin,2021-01-06 00:28:59.629886,2020-11-06 00:00:00.000000,8.37985418,11.92910678,15.44736828,3764,5359,6939,1611,2429,3169,3.58789534,5.40848441,7.05539023,0.60306374,0.76960898,0.91810162
17117,0,USIllinoisMacoupin,Illinois,Macoupin,2021-01-06 00:28:59.629886,2020-11-07 00:00:00.000000,9.31630071,12.76150508,16.31433303,4185,5733,7329,1775,2638,3435,3.95102513,5.87234675,7.64804525,0.56619055,0.73646056,0.91018338
17117,0,USIllinoisMacoupin,Illinois,Macoupin,2021-01-06 00:28:59.629886,2020-11-08 00:00:00.000000,10.07600957,13.50279789,17.14519807,4526,6066,7702,1941,2873,3705,4.32242712,6.39622325,8.24808252,0.52202232,0.68639817,0.88475830
17117,0,USIllinoisMacoupin,Illinois,Macoupin,2021-01-06 00:28:59.629886,2020-11-09 00:00:00.000000,10.79420313,14.30695096,17.95796908,4849,6427,8067,2113,3095,3945,4.70466700,6.89129954,8.78120077,0.47736979,0.65034948,0.84653782
17117,0,USIllinoisMacoupin,Illinois,Macoupin,2021-01-06 00:28:59.629886,2020-11-10 00:00:00.000000,11.36654496,15.01856845,18.82500305,5106,6747,8457,2280,3329,4163,5.07645411,7.41051201,9.26730108,0.44275776,0.60281583,0.78363738
17117,0,USIllinoisMacoupin,Illinois,Macoupin,2021-01-06 00:28:59.629886,2020-11-11 00:00:00.000000,11.82001583,15.43743851,19.65012454,5310,6935,8828,2431,3553,4379,5.41151224,7.91068217,9.74843919,0.42378377,0.56850160,0.75121278
17117,0,USIllinoisMacoupin,Illinois,Macoupin,2021-01-06 00:28:59.629886,2020-11-12 00:00:00.000000,12.23171452,15.85262247,20.26144312,5495,7121,9102,2522,3719,4532,5.61590126,8.27948081,10.08815510,0.41361112,0.54175179,0.71536657
17117,0,USIllinoisMacoupin,Illinois,Macoupin,2021-01-06 00:28:59.629886,2020-11-13 00:00:00.000000,12.53025500,16.20919480,20.55879367,5629,7282,9236,2629,3846,4743,5.85353956,8.56206168,10.55834909,0.38309526,0.50658301,0.66430990
17117,0,USIllinoisMacoupin,Illinois,Macoupin,2021-01-06 00:28:59.629886,2020-11-14 00:00:00.000000,12.70131127,16.48406529,20.82627808,5706,7405,9356,2738,3965,4930,6.09666398,8.82592145,10.97447212,0.35952176,0.48372871,0.64459540
17117,0,USIllinoisMacoupin,Illinois,Macoupin,2021-01-06 00:28:59.629886,2020-11-15 00:00:00.000000,12.82447783,16.59675126,21.18225658,5761,7456,9516,2801,4061,5093,6.23515898,9.04075037,11.33791471,0.34418115,0.46601805,0.61518932
17117,0,USIllinoisMacoupin,Illinois,Macoupin,2021-01-06 00:28:59.629886,2020-11-16 00:00:00.000000,12.90102475,16.77792610,21.44936721,5795,7537,9636,2835,4129,5234,6.31156216,9.19232881,11.65140869,0.32208595,0.44673569,0.59622833
17117,0,USIllinoisMacoupin,Illinois,Macoupin,2021-01-06 00:28:59.629886,2020-11-17 00:00:00.000000,12.92731504,16.74717143,21.65219083,5807,7523,9727,2849,4149,5354,6.34294461,9.23678123,11.91818834,0.31611349,0.43076860,0.55092919
17117,0,USIllinoisMacoupin,Illinois,Macoupin,2021-01-06 00:28:59.629886,2020-11-18 00:00:00.000000,12.81890848,16.73667338,21.82285772,5759,7519,9804,2849,4154,5454,6.34265578,9.24693197,12.14035853,0.30147697,0.42162224,0.54352549
17117,0,USIllinoisMacoupin,Illinois,Macoupin,2021-01-06 00:28:59.629886,2020-11-19 00:00:00.000000,12.59757437,16.51964665,21.89762451,5659,7421,9837,2835,4173,5533,6.31058699,9.29053615,12.31734943,0.29800471,0.41276384,0.50870894
17117,0,USIllinoisMacoupin,Illinois,Macoupin,2021-01-06 00:28:59.629886,2020-11-20 00:00:00.000000,12.31460673,16.27876096,21.73939631,5532,7313,9766,2806,4178,5591,6.24635942,9.30177634,12.44611216,0.27419209,0.40785287,0.49862058
17117,0,USIllinoisMacoupin,Illinois,Macoupin,2021-01-06 00:28:59.629886,2020-11-21 00:00:00.000000,11.98362178,16.09791056,21.57467210,5383,7232,9692,2763,4152,5629,6.15159508,9.24192312,12.53012796,0.26660701,0.39308871,0.48926865
17117,0,USIllinoisMacoupin,Illinois,Macoupin,2021-01-06 00:28:59.629886,2020-11-22 00:00:00.000000,11.66705667,15.89414821,21.32563074,5241,7140,9580,2708,4126,5642,6.02962712,9.18615819,12.56024802,0.25540560,0.39440234,0.48440353
17117,0,USIllinoisMacoupin,Illinois,Macoupin,2021-01-06 00:28:59.629886,2020-11-23 00:00:00.000000,11.35827471,15.62335996,21.01671368,5102,7018,9441,2676,4087,5626,5.95664392,9.09837077,12.52308368,0.24302786,0.40130817,0.48386963
17117,0,USIllinoisMacoupin,Illinois,Macoupin,2021-01-06 00:28:59.629886,2020-11-24 00:00:00.000000,11.03233114,15.27215211,20.65025401,4956,6861,9277,2649,4025,5594,5.89767359,8.96076680,12.45257789,0.23593588,0.39719818,0.48398195
17117,0,USIllinoisMacoupin,Illinois,Macoupin,2021-01-06 00:28:59.629886,2020-11-25 00:00:00.000000,10.63099426,14.93127403,20.23434355,4776,6708,9090,2581,3930,5543,5.74650974,8.74902929,12.33988499,0.23937203,0.38979082,0.48394526
17117,0,USIllinoisMacoupin,Illinois,Macoupin,2021-01-06 00:28:59.629886,2020-11-26 00:00:00.000000,10.23173326,14.61198607,19.85519156,4596,6564,8920,2513,3857,5476,5.59454321,8.58741247,12.18905822,0.24458209,0.38875884,0.48664486
17117,0,USIllinoisMacoupin,Illinois,Macoupin,2021-01-06 00:28:59.629886,2020-11-27 00:00:00.000000,9.83909437,14.28905102,19.33618630,4420,6419,8686,2446,3779,5393,5.44486943,8.41186215,12.00531451,0.25192323,0.39051914,0.50248778
17117,0,USIllinoisMacoupin,Illinois,Macoupin,2021-01-06 00:28:59.629886,2020-11-28 00:00:00.000000,9.46039227,13.99304971,18.87938296,4250,6286,8481,2381,3682,5298,5.29992349,8.19643427,11.79448539,0.26113266,0.40099746,0.52005827
17117,0,USIllinoisMacoupin,Illinois,Macoupin,2021-01-06 00:28:59.629886,2020-11-29 00:00:00.000000,9.11548164,13.68980011,18.38982818,4095,6150,8261,2319,3596,5194,5.16189400,8.00553097,11.56194189,0.27147209,0.40289110,0.52781411
17117,0,USIllinoisMacoupin,Illinois,Macoupin,2021-01-06 00:28:59.629886,2020-11-30 00:00:00.000000,8.87933922,13.30041665,18.06442214,3989,5975,8115,2261,3506,5081,5.03289560,7.80596873,11.31042475,0.27278610,0.40561820,0.54270203
17117,0,USIllinoisMacoupin,Illinois,Macoupin,2021-01-06 00:28:59.629886,2020-12-01 00:00:00.000000,8.66892877,12.95352597,17.71818234,3894,5819,7960,2206,3418,4961,4.91227775,7.60861305,11.04402965,0.27024999,0.41671596,0.54662081
17117,0,USIllinoisMacoupin,Illinois,Macoupin,2021-01-06 00:28:59.629886,2020-12-02 00:00:00.000000,8.45282468,12.58363232,17.35413677,3797,5653,7796,2156,3341,4837,4.79999167,7.43690074,10.76687652,0.26958675,0.41297445,0.54886838
17117,0,USIllinoisMacoupin,Illinois,Macoupin,2021-01-06 00:28:59.629886,2020-12-03 00:00:00.000000,8.24185967,12.16023049,16.97470260,3702,5463,7626,2109,3259,4709,4.69447204,7.25500503,10.48233496,0.26928204,0.42248127,0.55826274
17117,0,USIllinoisMacoupin,Illinois,Macoupin,2021-01-06 00:28:59.629886,2020-12-04 00:00:00.000000,8.03474655,11.76674204,16.56378609,3609,5286,7441,2063,3196,4621,4.59377602,7.11589451,10.28684624,0.26904047,0.42398811,0.56204984
17117,0,USIllinoisMacoupin,Illinois,Macoupin,2021-01-06 00:28:59.629886,2020-12-05 00:00:00.000000,7.82299659,11.43816640,16.13995308,3514,5138,7251,2019,3120,4553,4.49621330,6.94576072,10.13467620,0.26915922,0.43173170,0.57104366
17117,0,USIllinoisMacoupin,Illinois,Macoupin,2021-01-06 00:28:59.629886,2020-12-06 00:00:00.000000,7.61045464,11.18444000,15.72883505,3419,5024,7066,1976,3033,4441,4.40052877,6.75273108,9.88519021,0.26964165,0.44696476,0.59411090
17117,0,USIllinoisMacoupin,Illinois,Macoupin,2021-01-06 00:28:59.629886,2020-12-07 00:00:00.000000,7.41129364,10.96442357,15.33714616,3329,4925,6890,1934,2941,4311,4.30582968,6.54706887,9.59645001,0.27810674,0.46481737,0.60093930
17117,0,USIllinoisMacoupin,Illinois,Macoupin,2021-01-06 00:28:59.629886,2020-12-08 00:00:00.000000,7.21762775,10.62124435,14.98001427,3242,4771,6729,1887,2852,4192,4.20027061,6.34887064,9.33224424,0.28283866,0.48231301,0.62127596
17117,0,USIllinoisMacoupin,Illinois,Macoupin,2021-01-06 00:28:59.629886,2020-12-09 00:00:00.000000,7.00924159,10.33760962,14.65775169,3148,4644,6585,1832,2758,4083,4.07817901,6.14015573,9.08989155,0.28806115,0.49387738,0.62901935
17117,0,USIllinoisMacoupin,Illinois,Macoupin,2021-01-06 00:28:59.629886,2020-12-10 00:00:00.000000,6.85393671,10.11726273,14.30832572,3079,4545,6428,1779,2664,3992,3.96104326,5.93005149,8.88754305,0.29571722,0.50265238,0.64411116
17117,0,USIllinoisMacoupin,Illinois,Macoupin,2021-01-06 00:28:59.629886,2020-12-11 00:00:00.000000,6.70556173,9.85205063,14.06842283,3012,4426,6320,1732,2570,3925,3.85528763,5.72063506,8.73787506,0.29666945,0.51821168,0.66654578
17117,0,USIllinoisMacoupin,Illinois,Macoupin,2021-01-06 00:28:59.629886,2020-12-12 00:00:00.000000,6.54577421,9.54786192,13.79424686,2940,4289,6197,1693,2506,3860,3.77062373,5.57981289,8.59272803,0.29885155,0.53651891,0.72292403
17117,0,USIllinoisMacoupin,Illinois,Macoupin,2021-01-06 00:28:59.629886,2020-12-13 00:00:00.000000,6.37021917,9.30605177,13.42647642,2861,4180,6031,1661,2468,3795,3.69904215,5.49356735,8.44856841,0.30202684,0.55208985,0.78393142
17117,0,USIllinoisMacoupin,Illinois,Macoupin,2021-01-06 00:28:59.629886,2020-12-14 00:00:00.000000,6.16919280,9.07679753,13.06708640,2771,4077,5870,1607,2420,3730,3.57787739,5.38847092,8.30323700,0.30342194,0.57688466,0.81555890
17117,0,USIllinoisMacoupin,Illinois,Macoupin,2021-01-06 00:28:59.629886,2020-12-15 00:00:00.000000,5.98914053,8.89459312,12.86279552,2690,3995,5778,1555,2369,3663,3.46259561,5.27470342,8.15461365,0.31108072,0.59501570,0.82486807
17117,0,USIllinoisMacoupin,Illinois,Macoupin,2021-01-06 00:28:59.629886,2020-12-16 00:00:00.000000,5.87516109,8.75470987,12.67569465,2639,3933,5694,1506,2323,3595,3.35315527,5.17134665,8.00261058,0.33135756,0.60190314,0.83890228
17117,0,USIllinoisMacoupin,Illinois,Macoupin,2021-01-06 00:28:59.629886,2020-12-17 00:00:00.000000,5.77863422,8.61822560,12.47297801,2596,3871,5603,1459,2281,3525,3.24852762,5.07759927,7.84765537,0.34422451,0.60352560,0.85343852
17117,0,USIllinoisMacoupin,Illinois,Macoupin,2021-01-06 00:28:59.629886,2020-12-18 00:00:00.000000,5.69262271,8.49653871,12.21905166,2557,3817,5489,1414,2243,3455,3.14769337,4.99331333,7.69096713,0.35206384,0.61593893,0.87714150
17117,0,USIllinoisMacoupin,Illinois,Macoupin,2021-01-06 00:28:59.629886,2020-12-19 00:00:00.000000,5.56330904,8.42368872,11.98144972,2499,3784,5382,1370,2209,3385,3.05012694,4.91785542,7.53522334,0.35293600,0.63817732,0.91013717
17117,0,USIllinoisMacoupin,Illinois,Macoupin,2021-01-06 00:28:59.629886,2020-12-20 00:00:00.000000,5.43647930,8.34644677,11.73189481,2442,3749,5270,1328,2179,3317,2.95698614,4.85130359,7.38454128,0.35717882,0.67235315,0.92875085
17117,0,USIllinoisMacoupin,Illinois,Macoupin,2021-01-06 00:28:59.629886,2020-12-21 00:00:00.000000,5.37332268,8.21345202,11.46233901,2414,3689,5149,1291,2153,3253,2.87508207,4.79280809,7.24203628,0.35776908,0.69551382,0.96933228
17117,0,USIllinoisMacoupin,Illinois,Macoupin,2021-01-06 00:28:59.629886,2020-12-22 00:00:00.000000,5.33377900,8.05587062,11.19007532,2396,3619,5027,1263,2126,3193,2.81296210,4.73223102,7.10761697,0.35804783,0.71877160,1.00641709
17117,0,USIllinoisMacoupin,Illinois,Macoupin,2021-01-06 00:28:59.629886,2020-12-23 00:00:00.000000,5.26781919,7.94578183,10.92367686,2366,3569,4907,1243,2096,3135,2.76784188,4.66749018,6.97872782,0.35851870,0.74251315,1.06205011
17117,0,USIllinoisMacoupin,Illinois,Macoupin,2021-01-06 00:28:59.629886,2020-12-24 00:00:00.000000,5.17962532,7.87043225,10.76609199,2326,3535,4836,1228,2063,3078,2.73379536,4.59280667,6.85243269,0.36103370,0.76843295,1.12646929
17117,0,USIllinoisMacoupin,Illinois,Macoupin,2021-01-06 00:28:59.629886,2020-12-25 00:00:00.000000,5.07157425,7.70434694,10.61520409,2278,3461,4768,1215,2037,3021,2.70659518,4.53418209,6.72641941,0.37474623,0.78353891,1.17778629
17117,0,USIllinoisMacoupin,Illinois,Macoupin,2021-01-06 00:28:59.629886,2020-12-26 00:00:00.000000,4.93299740,7.62199273,10.47699052,2216,3424,4706,1206,2001,2964,2.68533832,4.45422485,6.59938252,0.41034444,0.78985375,1.29850329
17117,0,USIllinoisMacoupin,Illinois,Macoupin,2021-01-06 00:28:59.629886,2020-12-27 00:00:00.000000,4.94213302,7.54574524,10.28940548,2220,3390,4622,1201,1977,2907,2.67486303,4.40187564,6.47085217,0.43826998,0.80814682,1.32606341
17117,0,USIllinoisMacoupin,Illinois,Macoupin,2021-01-06 00:28:59.629886,2020-12-28 00:00:00.000000,4.96536087,7.45534041,10.04928937,2230,3349,4514,1203,1950,2848,2.67843948,4.34153562,6.34027370,0.44062606,0.82519911,1.32534319
17117,0,USIllinoisMacoupin,Illinois,Macoupin,2021-01-06 00:28:59.629886,2020-12-29 00:00:00.000000,4.93544967,7.28566524,9.84216755,2217,3273,4421,1208,1913,2788,2.69037897,4.25960779,6.20633696,0.44127340,0.82166268,1.29844595
17117,0,USIllinoisMacoupin,Illinois,Macoupin,2021-01-06 00:28:59.629886,2020-12-30 00:00:00.000000,4.90560061,7.11057894,9.68836698,2203,3194,4352,1214,1874,2726,2.70324225,4.17233978,6.06824435,0.44205020,0.81930836,1.32137147
17117,0,USIllinoisMacoupin,Illinois,Macoupin,2021-01-06 00:28:59.629886,2020-12-31 00:00:00.000000,4.88557344,6.93982549,9.46632397,2194,3117,4252,1184,1833,2661,2.63689853,4.08033279,5.92499088,0.44286478,0.81780251,1.31858275
17117,0,USIllinoisMacoupin,Illinois,Macoupin,2021-01-06 00:28:59.629886,2021-01-01 00:00:00.000000,4.83375508,6.78568429,9.26645355,2171,3048,4163,1154,1802,2602,2.56928488,4.01274357,5.79188552,0.43734120,0.82060240,1.35416525
17117,0,USIllinoisMacoupin,Illinois,Macoupin,2021-01-06 00:28:59.629886,2021-01-02 00:00:00.000000,4.66620409,6.60813842,9.08793722,2096,2968,4082,1126,1771,2573,2.50681947,3.94333661,5.72770566,0.42367435,0.82418286,1.42454251
17117,0,USIllinoisMacoupin,Illinois,Macoupin,2021-01-06 00:28:59.629886,2021-01-03 00:00:00.000000,4.48479451,6.43434332,8.91788946,2014,2890,4006,1135,1736,2541,2.52835773,3.86541793,5.65708822,0.41163238,0.82289545,1.43745609
17117,0,USIllinoisMacoupin,Illinois,Macoupin,2021-01-06 00:28:59.629886,2021-01-04 00:00:00.000000,4.34759173,6.24319345,8.80987166,1953,2804,3957,1140,1681,2506,2.53939452,3.74172434,5.57914224,0.41064157,0.83379171,1.51767263
17117,0,USIllinoisMacoupin,Illinois,Macoupin,2021-01-06 00:28:59.629886,2021-01-05 00:00:00.000000,4.23330370,6.00632137,8.71278693,1901,2698,3914,1123,1621,2468,2.50111989,3.61015136,5.49402487,0.41612482,0.83499845,1.55043099
17117,0,USIllinoisMacoupin,Illinois,Macoupin,2021-01-06 00:28:59.629886,2021-01-06 00:00:00.000000,4.14277330,5.82826646,8.60908414,1861,2618,3867,1082,1559,2427,2.40865135,3.47161352,5.40256851,0.41992197,0.83557150,1.56307121
17117,0,USIllinoisMacoupin,Illinois,Macoupin,2021-01-06 00:28:59.629886,2021-01-07 00:00:00.000000,3.94815541,5.63815043,8.49529378,1773,2532,3816,1038,1495,2383,2.31103146,3.32802553,5.30587167,0.42070304,0.83876339,1.56846741
17117,0,USIllinoisMacoupin,Illinois,Macoupin,2021-01-06 00:28:59.629886,2021-01-08 00:00:00.000000,3.80309364,5.45141351,8.36968973,1708,2449,3760,994,1458,2344,2.21273750,3.24686961,5.21829184,0.42077821,0.84083463,1.57111394
17117,0,USIllinoisMacoupin,Illinois,Macoupin,2021-01-06 00:28:59.629886,2021-01-09 00:00:00.000000,3.66784316,5.34428778,8.22853434,1647,2400,3696,950,1412,2314,2.11502299,3.14352627,5.15131493,0.42081383,0.84153132,1.57257118
17117,0,USIllinoisMacoupin,Illinois,Macoupin,2021-01-06 00:28:59.629886,2021-01-10 00:00:00.000000,3.53427181,5.20790385,8.07664711,1587,2339,3628,906,1382,2275,2.01883242,3.07776853,5.06569261,0.42083027,0.84153134,1.57343614
17117,0,USIllinoisMacoupin,Illinois,Macoupin,2021-01-06 00:28:59.629886,2021-01-11 00:00:00.000000,3.40267022,5.07354816,7.91550560,1528,2279,3556,865,1353,2227,1.92580375,3.01252605,4.95768094,0.42083766,0.84153134,1.57397229
17117,0,USIllinoisMacoupin,Illinois,Macoupin,2021-01-06 00:28:59.629886,2021-01-12 00:00:00.000000,3.27329602,4.89876236,7.74603834,1470,2200,3479,824,1315,2178,1.83544031,2.92832196,4.84931808,0.42084089,0.84153135,1.57431307
17117,0,USIllinoisMacoupin,Illinois,Macoupin,2021-01-06 00:28:59.629886,2021-01-13 00:00:00.000000,3.14637559,4.71338580,7.56919620,1413,2117,3400,785,1297,2129,1.74798165,2.88892938,4.74057090,0.42084224,0.84153135,1.57453320
17117,0,USIllinoisMacoupin,Illinois,Macoupin,2021-01-06 00:28:59.629886,2021-01-14 00:00:00.000000,3.02210559,4.53389707,7.38593723,1357,2036,3318,747,1252,2080,1.66362359,2.78858106,4.63147434,0.42084277,0.84153135,1.57467717
17117,0,USIllinoisMacoupin,Illinois,Macoupin,2021-01-06 00:28:59.629886,2021-01-15 00:00:00.000000,2.90065459,4.39170265,7.19721417,1303,1973,3233,710,1215,2060,1.58247688,2.70582412,4.58588297,0.42084295,0.84153135,1.57477237
17117,0,USIllinoisMacoupin,Illinois,Macoupin,2021-01-06 00:28:59.629886,2021-01-16 00:00:00.000000,2.77532480,4.23625244,7.00396389,1246,1903,3146,682,1180,2031,1.51911095,2.62771565,4.52245776,0.42084300,0.84153135,1.57483600
17117,0,USIllinoisMacoupin,Illinois,Macoupin,2021-01-06 00:28:59.629886,2021-01-17 00:00:00.000000,2.63153624,4.06988428,6.80709850,1182,1828,3058,662,1148,1983,1.47412266,2.55723444,4.41586577,0.42084299,0.84153135,1.57487897
