FIPS,HR_UID,nameid,province,region,analysisTime,dates,pointprevalence_025,pointprevalence_50,pointprevalence_975,pointinfections_025,pointinfections_50,pointinfections_975,pointinfectious_025,pointinfectious_50,pointinfectious_975,pointinfectiousprevalence_05,pointinfectiousprevalence_50,pointinfectiousprevalence_95,infectrate_025,infectrate_50,infectrate_975
48303,0,USTexasLubbock,Texas,Lubbock,2021-01-05 08:45:52.978350,2020-03-09 00:00:00.000000,0.00091507,0.00358388,0.00803419,2,11,24,0,4,10,0.00002100,0.00151410,0.00337396,0.48863213,0.64536384,0.84893589
48303,0,USTexasLubbock,Texas,Lubbock,2021-01-05 08:45:52.978350,2020-03-10 00:00:00.000000,0.00148026,0.00479861,0.00930041,4,14,28,1,5,12,0.00033398,0.00169822,0.00391478,0.48862971,0.64536321,0.84893051
48303,0,USTexasLubbock,Texas,Lubbock,2021-01-05 08:45:52.978350,2020-03-11 00:00:00.000000,0.00227034,0.00581192,0.01155302,7,18,35,1,6,13,0.00064387,0.00214582,0.00440817,0.48862459,0.64536189,0.84891932
48303,0,USTexasLubbock,Texas,Lubbock,2021-01-05 08:45:52.978350,2020-03-12 00:00:00.000000,0.00314569,0.00708283,0.01405291,9,21,43,3,8,15,0.00099620,0.00277698,0.00502775,0.48861362,0.64305064,0.84889593
48303,0,USTexasLubbock,Texas,Lubbock,2021-01-05 08:45:52.978350,2020-03-13 00:00:00.000000,0.00383952,0.00857235,0.01764304,11,26,54,4,10,20,0.00140621,0.00328857,0.00646625,0.48858981,0.63827303,0.84884688
48303,0,USTexasLubbock,Texas,Lubbock,2021-01-05 08:45:52.978350,2020-03-14 00:00:00.000000,0.00460061,0.01023887,0.02156946,14,31,66,5,12,25,0.00187388,0.00394654,0.00812610,0.48853769,0.63824458,0.84874394
48303,0,USTexasLubbock,Texas,Lubbock,2021-01-05 08:45:52.978350,2020-03-15 00:00:00.000000,0.00543961,0.01187015,0.02586503,16,36,80,7,14,31,0.00232059,0.00464943,0.01002661,0.48842339,0.63818344,0.84852885
48303,0,USTexasLubbock,Texas,Lubbock,2021-01-05 08:45:52.978350,2020-03-16 00:00:00.000000,0.00675044,0.01381369,0.02862264,20,42,88,8,17,37,0.00274882,0.00548096,0.01216932,0.48817753,0.63804608,0.84808611
48303,0,USTexasLubbock,Texas,Lubbock,2021-01-05 08:45:52.978350,2020-03-17 00:00:00.000000,0.00815502,0.01588184,0.03183400,25,49,98,10,20,44,0.00334178,0.00646119,0.01420553,0.48768076,0.63200552,0.84657410
48303,0,USTexasLubbock,Texas,Lubbock,2021-01-05 08:45:52.978350,2020-03-18 00:00:00.000000,0.00967905,0.01820423,0.03535305,30,56,109,12,23,50,0.00409096,0.00754449,0.01629301,0.48679432,0.63519968,0.83585535
48303,0,USTexasLubbock,Texas,Lubbock,2021-01-05 08:45:52.978350,2020-03-19 00:00:00.000000,0.01092173,0.02145826,0.04049846,33,66,125,15,27,57,0.00490775,0.00887580,0.01849252,0.45066282,0.62952750,0.83486383
48303,0,USTexasLubbock,Texas,Lubbock,2021-01-05 08:45:52.978350,2020-03-20 00:00:00.000000,0.01222798,0.02491120,0.04578837,37,77,142,17,31,63,0.00576402,0.01025677,0.02044729,0.43062382,0.61001099,0.82959094
48303,0,USTexasLubbock,Texas,Lubbock,2021-01-05 08:45:52.978350,2020-03-21 00:00:00.000000,0.01361630,0.02837696,0.05237189,42,88,162,20,37,69,0.00669903,0.01191512,0.02234596,0.42663225,0.59826919,0.82189662
48303,0,USTexasLubbock,Texas,Lubbock,2021-01-05 08:45:52.978350,2020-03-22 00:00:00.000000,0.01510487,0.03227514,0.05836590,46,100,181,23,43,79,0.00771483,0.01385693,0.02557683,0.40759680,0.58022676,0.80373476
48303,0,USTexasLubbock,Texas,Lubbock,2021-01-05 08:45:52.978350,2020-03-23 00:00:00.000000,0.01840272,0.03593900,0.06353855,57,111,197,27,48,87,0.00881641,0.01571560,0.02809536,0.39632638,0.55033438,0.78107999
48303,0,USTexasLubbock,Texas,Lubbock,2021-01-05 08:45:52.978350,2020-03-24 00:00:00.000000,0.02183202,0.03973990,0.06833117,67,123,212,30,55,96,0.00993934,0.01798189,0.03099372,0.38658388,0.54322117,0.77459388
48303,0,USTexasLubbock,Texas,Lubbock,2021-01-05 08:45:52.978350,2020-03-25 00:00:00.000000,0.02509254,0.04386271,0.07434212,77,136,230,34,63,106,0.01111404,0.02035570,0.03422078,0.37660070,0.52051216,0.74028246
48303,0,USTexasLubbock,Texas,Lubbock,2021-01-05 08:45:52.978350,2020-03-26 00:00:00.000000,0.02673596,0.04827616,0.08130667,83,149,252,38,70,117,0.01235703,0.02259005,0.03774877,0.37308116,0.50389907,0.72045334
48303,0,USTexasLubbock,Texas,Lubbock,2021-01-05 08:45:52.978350,2020-03-27 00:00:00.000000,0.02840020,0.05286429,0.08697040,88,164,270,42,77,129,0.01379969,0.02504176,0.04165483,0.34688205,0.47771363,0.67194256
48303,0,USTexasLubbock,Texas,Lubbock,2021-01-05 08:45:52.978350,2020-03-28 00:00:00.000000,0.03209141,0.05705873,0.09293482,99,177,288,46,86,140,0.01500934,0.02778615,0.04531429,0.31568857,0.45133672,0.62645833
48303,0,USTexasLubbock,Texas,Lubbock,2021-01-05 08:45:52.978350,2020-03-29 00:00:00.000000,0.03395626,0.06227575,0.09852219,105,193,305,51,95,150,0.01657107,0.03061731,0.04859020,0.30426254,0.42748965,0.59442685
48303,0,USTexasLubbock,Texas,Lubbock,2021-01-05 08:45:52.978350,2020-03-30 00:00:00.000000,0.03629006,0.06632800,0.10589285,112,205,328,55,103,160,0.01771865,0.03323476,0.05160269,0.28626178,0.40953230,0.56570847
48303,0,USTexasLubbock,Texas,Lubbock,2021-01-05 08:45:52.978350,2020-03-31 00:00:00.000000,0.04001995,0.07073209,0.11187862,124,219,347,59,109,179,0.01900328,0.03528885,0.05781787,0.27294632,0.39912516,0.52972743
48303,0,USTexasLubbock,Texas,Lubbock,2021-01-05 08:45:52.978350,2020-04-01 00:00:00.000000,0.04201681,0.07533954,0.11844016,130,233,367,64,116,202,0.02074072,0.03755492,0.06505985,0.26399891,0.38636152,0.51635773
48303,0,USTexasLubbock,Texas,Lubbock,2021-01-05 08:45:52.978350,2020-04-02 00:00:00.000000,0.04361636,0.07915174,0.12479749,135,245,387,70,124,223,0.02275255,0.03992799,0.07212527,0.26069654,0.37277413,0.48299768
48303,0,USTexasLubbock,Texas,Lubbock,2021-01-05 08:45:52.978350,2020-04-03 00:00:00.000000,0.04768735,0.08292993,0.13102646,148,257,406,77,131,243,0.02496034,0.04244858,0.07825990,0.24268664,0.36230181,0.47541425
48303,0,USTexasLubbock,Texas,Lubbock,2021-01-05 08:45:52.978350,2020-04-04 00:00:00.000000,0.05205643,0.08618224,0.13723258,161,267,426,84,139,254,0.02734444,0.04484591,0.08185525,0.21674676,0.33570227,0.45676609
48303,0,USTexasLubbock,Texas,Lubbock,2021-01-05 08:45:52.978350,2020-04-05 00:00:00.000000,0.05651974,0.08915417,0.14348701,175,276,445,92,147,264,0.02990319,0.04738292,0.08524632,0.20931571,0.31846349,0.42357746
48303,0,USTexasLubbock,Texas,Lubbock,2021-01-05 08:45:52.978350,2020-04-06 00:00:00.000000,0.05866407,0.09221284,0.14897754,182,286,462,97,152,274,0.03129213,0.04916976,0.08851780,0.19761119,0.30747250,0.40874309
48303,0,USTexasLubbock,Texas,Lubbock,2021-01-05 08:45:52.978350,2020-04-07 00:00:00.000000,0.06076669,0.09527497,0.15561549,188,295,483,101,158,284,0.03253514,0.05118365,0.09160202,0.18091220,0.29766584,0.39721671
48303,0,USTexasLubbock,Texas,Lubbock,2021-01-05 08:45:52.978350,2020-04-08 00:00:00.000000,0.06213963,0.09801155,0.15800745,192,304,490,104,166,291,0.03349429,0.05362071,0.09394297,0.16943732,0.28992612,0.39678314
48303,0,USTexasLubbock,Texas,Lubbock,2021-01-05 08:45:52.978350,2020-04-09 00:00:00.000000,0.06254616,0.09966048,0.16012348,194,309,497,104,172,303,0.03376201,0.05550562,0.09779594,0.16714539,0.26827588,0.38640919
48303,0,USTexasLubbock,Texas,Lubbock,2021-01-05 08:45:52.978350,2020-04-10 00:00:00.000000,0.06231478,0.10195939,0.15721906,193,316,488,105,177,309,0.03392346,0.05730243,0.09956662,0.16028721,0.25397402,0.36386873
48303,0,USTexasLubbock,Texas,Lubbock,2021-01-05 08:45:52.978350,2020-04-11 00:00:00.000000,0.06177547,0.10168651,0.15714568,191,315,488,106,182,310,0.03425923,0.05860738,0.09987913,0.14786046,0.24255416,0.34882379
48303,0,USTexasLubbock,Texas,Lubbock,2021-01-05 08:45:52.978350,2020-04-12 00:00:00.000000,0.06140692,0.10297941,0.16019042,190,319,497,109,185,309,0.03513683,0.05964466,0.09962941,0.13900678,0.22603989,0.34424494
48303,0,USTexasLubbock,Texas,Lubbock,2021-01-05 08:45:52.978350,2020-04-13 00:00:00.000000,0.06075036,0.10271848,0.16025878,188,319,497,106,186,307,0.03442653,0.06020184,0.09890240,0.12995354,0.20927132,0.31701496
48303,0,USTexasLubbock,Texas,Lubbock,2021-01-05 08:45:52.978350,2020-04-14 00:00:00.000000,0.05989763,0.10231625,0.16013295,186,317,497,104,188,303,0.03356790,0.06078374,0.09782888,0.12667814,0.20525459,0.29440942
48303,0,USTexasLubbock,Texas,Lubbock,2021-01-05 08:45:52.978350,2020-04-15 00:00:00.000000,0.05879103,0.10202223,0.15823448,182,316,491,103,190,299,0.03321374,0.06134116,0.09648713,0.12417429,0.19797176,0.29356605
48303,0,USTexasLubbock,Texas,Lubbock,2021-01-05 08:45:52.978350,2020-04-16 00:00:00.000000,0.05757015,0.10157051,0.15994371,178,315,496,101,190,303,0.03273509,0.06142505,0.09765291,0.12264374,0.19633129,0.28865321
48303,0,USTexasLubbock,Texas,Lubbock,2021-01-05 08:45:52.978350,2020-04-17 00:00:00.000000,0.05627919,0.10133353,0.16154459,174,314,501,99,192,306,0.03214785,0.06189591,0.09860689,0.11942527,0.18868927,0.27523335
48303,0,USTexasLubbock,Texas,Lubbock,2021-01-05 08:45:52.978350,2020-04-18 00:00:00.000000,0.05496866,0.10047081,0.16271416,170,312,505,97,191,307,0.03148945,0.06177292,0.09894412,0.11593972,0.18416958,0.26853964
48303,0,USTexasLubbock,Texas,Lubbock,2021-01-05 08:45:52.978350,2020-04-19 00:00:00.000000,0.05366823,0.09880419,0.15916526,166,306,494,95,187,311,0.03079423,0.06046450,0.10030054,0.11280197,0.17965897,0.25645191
48303,0,USTexasLubbock,Texas,Lubbock,2021-01-05 08:45:52.978350,2020-04-20 00:00:00.000000,0.05204073,0.09857580,0.15805503,161,306,490,93,182,317,0.03008648,0.05889109,0.10208507,0.11105813,0.17645439,0.25091537
48303,0,USTexasLubbock,Texas,Lubbock,2021-01-05 08:45:52.978350,2020-04-21 00:00:00.000000,0.05044503,0.09729019,0.15537380,156,302,482,90,179,321,0.02928743,0.05789588,0.10365893,0.10809718,0.17499828,0.24589844
48303,0,USTexasLubbock,Texas,Lubbock,2021-01-05 08:45:52.978350,2020-04-22 00:00:00.000000,0.04909685,0.09470760,0.15266235,152,294,474,88,178,314,0.02844567,0.05741940,0.10128233,0.10737129,0.17016803,0.24096496
48303,0,USTexasLubbock,Texas,Lubbock,2021-01-05 08:45:52.978350,2020-04-23 00:00:00.000000,0.04834554,0.09349963,0.14989850,150,290,465,85,176,308,0.02758855,0.05688956,0.09933088,0.10604664,0.16303719,0.23603296
48303,0,USTexasLubbock,Texas,Lubbock,2021-01-05 08:45:52.978350,2020-04-24 00:00:00.000000,0.04764150,0.09147438,0.14849447,147,284,461,83,174,300,0.02672900,0.05603981,0.09683471,0.10490501,0.16333881,0.23307336
48303,0,USTexasLubbock,Texas,Lubbock,2021-01-05 08:45:52.978350,2020-04-25 00:00:00.000000,0.04684153,0.08918872,0.15047376,145,276,467,80,169,292,0.02587763,0.05463297,0.09429318,0.10436347,0.15947142,0.23274325
48303,0,USTexasLubbock,Texas,Lubbock,2021-01-05 08:45:52.978350,2020-04-26 00:00:00.000000,0.04464655,0.08692348,0.15189404,138,269,471,77,166,292,0.02502090,0.05357693,0.09412561,0.10413436,0.15830034,0.23258456
48303,0,USTexasLubbock,Texas,Lubbock,2021-01-05 08:45:52.978350,2020-04-27 00:00:00.000000,0.04236498,0.08505557,0.15356587,131,264,476,75,162,296,0.02415090,0.05228945,0.09552101,0.10052561,0.15668369,0.23094172
48303,0,USTexasLubbock,Texas,Lubbock,2021-01-05 08:45:52.978350,2020-04-28 00:00:00.000000,0.04035545,0.08237095,0.15496771,125,255,481,72,157,300,0.02341883,0.05073133,0.09681046,0.09486235,0.15507682,0.22604867
48303,0,USTexasLubbock,Texas,Lubbock,2021-01-05 08:45:52.978350,2020-04-29 00:00:00.000000,0.03934801,0.07930530,0.15619337,122,246,485,70,152,304,0.02277104,0.04915295,0.09797401,0.09358126,0.15334179,0.22193524
48303,0,USTexasLubbock,Texas,Lubbock,2021-01-05 08:45:52.978350,2020-04-30 00:00:00.000000,0.03840567,0.07638566,0.15480220,119,237,480,68,147,304,0.02218110,0.04757515,0.09818435,0.09342789,0.15240790,0.22205369
48303,0,USTexasLubbock,Texas,Lubbock,2021-01-05 08:45:52.978350,2020-05-01 00:00:00.000000,0.03753669,0.07365731,0.15220515,116,228,472,66,145,301,0.02136262,0.04677187,0.09714601,0.09341541,0.15566117,0.22299270
48303,0,USTexasLubbock,Texas,Lubbock,2021-01-05 08:45:52.978350,2020-05-02 00:00:00.000000,0.03675883,0.07139767,0.14927056,114,221,463,65,141,297,0.02103546,0.04545915,0.09591058,0.09357790,0.16071040,0.22488496
48303,0,USTexasLubbock,Texas,Lubbock,2021-01-05 08:45:52.978350,2020-05-03 00:00:00.000000,0.03608563,0.07002124,0.14738564,112,217,457,64,137,293,0.02063958,0.04417378,0.09447415,0.09408891,0.15987511,0.22915843
48303,0,USTexasLubbock,Texas,Lubbock,2021-01-05 08:45:52.978350,2020-05-04 00:00:00.000000,0.03504455,0.06902309,0.14730348,108,214,457,62,133,288,0.02021569,0.04284172,0.09286671,0.10065281,0.16321693,0.24061127
48303,0,USTexasLubbock,Texas,Lubbock,2021-01-05 08:45:52.978350,2020-05-05 00:00:00.000000,0.03409640,0.06780657,0.14730331,105,210,457,61,129,283,0.01972575,0.04164629,0.09122699,0.10389549,0.16978209,0.24266735
48303,0,USTexasLubbock,Texas,Lubbock,2021-01-05 08:45:52.978350,2020-05-06 00:00:00.000000,0.03316470,0.06690011,0.14710923,102,207,456,59,125,278,0.01921918,0.04039645,0.08957316,0.10446348,0.17104311,0.24847913
48303,0,USTexasLubbock,Texas,Lubbock,2021-01-05 08:45:52.978350,2020-05-07 00:00:00.000000,0.03197136,0.06551337,0.14676851,99,203,455,58,121,273,0.01872096,0.03921986,0.08792328,0.10482818,0.17333525,0.26143293
48303,0,USTexasLubbock,Texas,Lubbock,2021-01-05 08:45:52.978350,2020-05-08 00:00:00.000000,0.03087355,0.06439902,0.14630812,95,200,454,56,118,268,0.01810818,0.03818601,0.08629341,0.10620494,0.17736549,0.26604097
48303,0,USTexasLubbock,Texas,Lubbock,2021-01-05 08:45:52.978350,2020-05-09 00:00:00.000000,0.02997814,0.06345906,0.14572479,93,197,452,54,116,263,0.01744564,0.03739091,0.08469859,0.11095304,0.18426180,0.27372623
48303,0,USTexasLubbock,Texas,Lubbock,2021-01-05 08:45:52.978350,2020-05-10 00:00:00.000000,0.02912123,0.06259168,0.14439415,90,194,448,52,115,262,0.01687219,0.03719564,0.08443257,0.12066253,0.19010015,0.27877127
48303,0,USTexasLubbock,Texas,Lubbock,2021-01-05 08:45:52.978350,2020-05-11 00:00:00.000000,0.02878212,0.06283637,0.14139251,89,195,439,50,115,261,0.01636210,0.03719847,0.08417689,0.12168450,0.19983154,0.28358932
48303,0,USTexasLubbock,Texas,Lubbock,2021-01-05 08:45:52.978350,2020-05-12 00:00:00.000000,0.02859199,0.06324515,0.13840675,88,196,429,50,114,260,0.01618022,0.03673500,0.08382773,0.12370223,0.20522809,0.29611067
48303,0,USTexasLubbock,Texas,Lubbock,2021-01-05 08:45:52.978350,2020-05-13 00:00:00.000000,0.02846395,0.06378150,0.13594617,88,198,422,49,113,259,0.01603261,0.03644471,0.08347014,0.13110046,0.21696731,0.30935587
48303,0,USTexasLubbock,Texas,Lubbock,2021-01-05 08:45:52.978350,2020-05-14 00:00:00.000000,0.02840641,0.06457030,0.13606843,88,200,422,49,114,260,0.01592109,0.03676794,0.08400381,0.13726492,0.22325664,0.31623962
48303,0,USTexasLubbock,Texas,Lubbock,2021-01-05 08:45:52.978350,2020-05-15 00:00:00.000000,0.02851272,0.06473977,0.13668072,88,201,424,49,114,263,0.01584714,0.03683095,0.08488322,0.13821036,0.22945997,0.32229909
48303,0,USTexasLubbock,Texas,Lubbock,2021-01-05 08:45:52.978350,2020-05-16 00:00:00.000000,0.02886427,0.06554624,0.13878502,89,203,431,49,115,266,0.01583877,0.03718651,0.08589902,0.13789130,0.24061443,0.34301177
48303,0,USTexasLubbock,Texas,Lubbock,2021-01-05 08:45:52.978350,2020-05-17 00:00:00.000000,0.02937121,0.06574672,0.13910060,91,204,432,49,117,270,0.01592841,0.03781290,0.08701724,0.13776651,0.25305189,0.35737089
48303,0,USTexasLubbock,Texas,Lubbock,2021-01-05 08:45:52.978350,2020-05-18 00:00:00.000000,0.03044194,0.06714410,0.13884291,94,208,431,50,119,265,0.01611141,0.03832984,0.08562952,0.13782134,0.26077919,0.39113764
48303,0,USTexasLubbock,Texas,Lubbock,2021-01-05 08:45:52.978350,2020-05-19 00:00:00.000000,0.03189458,0.06887318,0.14129320,99,213,438,51,121,264,0.01646073,0.03912138,0.08522033,0.14259231,0.26850398,0.45029048
48303,0,USTexasLubbock,Texas,Lubbock,2021-01-05 08:45:52.978350,2020-05-20 00:00:00.000000,0.03393059,0.07072411,0.14386469,105,219,446,52,123,272,0.01675763,0.03988425,0.08788039,0.15214106,0.27778489,0.45903457
48303,0,USTexasLubbock,Texas,Lubbock,2021-01-05 08:45:52.978350,2020-05-21 00:00:00.000000,0.03662555,0.07339456,0.14651567,113,227,455,53,126,279,0.01714091,0.04069876,0.08997905,0.15551183,0.29734813,0.47049186
48303,0,USTexasLubbock,Texas,Lubbock,2021-01-05 08:45:52.978350,2020-05-22 00:00:00.000000,0.03943186,0.07617658,0.14923104,122,236,463,56,128,278,0.01825845,0.04149006,0.08951883,0.17445849,0.30819168,0.49044970
48303,0,USTexasLubbock,Texas,Lubbock,2021-01-05 08:45:52.978350,2020-05-23 00:00:00.000000,0.04240955,0.07972269,0.15204313,131,247,472,60,130,278,0.01956416,0.04211358,0.08952181,0.18941502,0.32132189,0.47785385
48303,0,USTexasLubbock,Texas,Lubbock,2021-01-05 08:45:52.978350,2020-05-24 00:00:00.000000,0.04561880,0.08304017,0.15754253,141,257,489,65,135,279,0.02101518,0.04368561,0.09003116,0.19044383,0.34478022,0.48267703
48303,0,USTexasLubbock,Texas,Lubbock,2021-01-05 08:45:52.978350,2020-05-25 00:00:00.000000,0.04947350,0.08826467,0.16467737,153,274,511,70,142,283,0.02259480,0.04593605,0.09125296,0.19179211,0.36915719,0.51642756
48303,0,USTexasLubbock,Texas,Lubbock,2021-01-05 08:45:52.978350,2020-05-26 00:00:00.000000,0.05336093,0.09315684,0.17214052,165,289,534,75,149,290,0.02440456,0.04824504,0.09346484,0.20971743,0.39153534,0.53332921
48303,0,USTexasLubbock,Texas,Lubbock,2021-01-05 08:45:52.978350,2020-05-27 00:00:00.000000,0.05718279,0.09888876,0.18009259,177,307,559,81,157,299,0.02640221,0.05059378,0.09656364,0.22948616,0.40366074,0.54228200
48303,0,USTexasLubbock,Texas,Lubbock,2021-01-05 08:45:52.978350,2020-05-28 00:00:00.000000,0.06146821,0.10600534,0.18914091,190,329,587,88,166,313,0.02857796,0.05347928,0.10086904,0.27047115,0.41238632,0.56030937
48303,0,USTexasLubbock,Texas,Lubbock,2021-01-05 08:45:52.978350,2020-05-29 00:00:00.000000,0.06638165,0.11353551,0.20058360,206,352,622,96,177,320,0.03094775,0.05699436,0.10309983,0.29581939,0.41976673,0.56965810
48303,0,USTexasLubbock,Texas,Lubbock,2021-01-05 08:45:52.978350,2020-05-30 00:00:00.000000,0.07209347,0.12213012,0.21503569,223,379,667,104,188,332,0.03355641,0.06078619,0.10708941,0.32425675,0.44730932,0.61647991
48303,0,USTexasLubbock,Texas,Lubbock,2021-01-05 08:45:52.978350,2020-05-31 00:00:00.000000,0.07873233,0.13046391,0.22937076,244,405,712,113,203,355,0.03647551,0.06565425,0.11433489,0.32595004,0.45929467,0.67005732
48303,0,USTexasLubbock,Texas,Lubbock,2021-01-05 08:45:52.978350,2020-06-01 00:00:00.000000,0.08648980,0.14097786,0.24340868,268,437,755,123,222,379,0.03979166,0.07167407,0.12204598,0.33281218,0.47811061,0.67946259
48303,0,USTexasLubbock,Texas,Lubbock,2021-01-05 08:45:52.978350,2020-06-02 00:00:00.000000,0.09567136,0.15106365,0.26355408,297,469,818,136,235,405,0.04400535,0.07596985,0.13049465,0.33378538,0.49249405,0.73093142
48303,0,USTexasLubbock,Texas,Lubbock,2021-01-05 08:45:52.978350,2020-06-03 00:00:00.000000,0.10364622,0.16239899,0.28826654,321,504,895,150,255,433,0.04834772,0.08215623,0.13966274,0.33625782,0.51187708,0.76938173
48303,0,USTexasLubbock,Texas,Lubbock,2021-01-05 08:45:52.978350,2020-06-04 00:00:00.000000,0.11452501,0.17905854,0.31525577,355,556,979,165,282,464,0.05329488,0.09106893,0.14963626,0.34369772,0.52757017,0.83773384
48303,0,USTexasLubbock,Texas,Lubbock,2021-01-05 08:45:52.978350,2020-06-05 00:00:00.000000,0.12546914,0.19657502,0.34068063,389,610,1058,178,308,499,0.05737942,0.09939348,0.16082127,0.36241502,0.55277861,0.85927284
48303,0,USTexasLubbock,Texas,Lubbock,2021-01-05 08:45:52.978350,2020-06-06 00:00:00.000000,0.13673678,0.21336704,0.36861848,424,662,1144,194,335,538,0.06271278,0.10795122,0.17342009,0.36603439,0.57898146,0.93171381
48303,0,USTexasLubbock,Texas,Lubbock,2021-01-05 08:45:52.978350,2020-06-07 00:00:00.000000,0.15030270,0.23660423,0.40275294,466,734,1250,212,366,584,0.06839232,0.11801430,0.18834636,0.39707203,0.60074813,0.95045086
48303,0,USTexasLubbock,Texas,Lubbock,2021-01-05 08:45:52.978350,2020-06-08 00:00:00.000000,0.16681773,0.26806439,0.44645938,518,832,1386,226,399,646,0.07296739,0.12849730,0.20823822,0.40955173,0.61278364,0.96002667
48303,0,USTexasLubbock,Texas,Lubbock,2021-01-05 08:45:52.978350,2020-06-09 00:00:00.000000,0.18964206,0.29877284,0.49483747,588,927,1536,248,445,717,0.08015822,0.14352537,0.23102374,0.43677592,0.63472231,0.96479012
48303,0,USTexasLubbock,Texas,Lubbock,2021-01-05 08:45:52.978350,2020-06-10 00:00:00.000000,0.22144075,0.33839467,0.54852785,687,1050,1703,279,500,797,0.08995082,0.16106401,0.25684405,0.43666832,0.64888716,0.96709980
48303,0,USTexasLubbock,Texas,Lubbock,2021-01-05 08:45:52.978350,2020-06-11 00:00:00.000000,0.25661070,0.38231134,0.60828104,796,1187,1889,326,553,887,0.10504195,0.17835357,0.28587701,0.47583202,0.65768165,0.96798573
48303,0,USTexasLubbock,Texas,Lubbock,2021-01-05 08:45:52.978350,2020-06-12 00:00:00.000000,0.28816706,0.43173623,0.67499162,894,1340,2096,380,616,988,0.12264720,0.19844944,0.31837373,0.49958812,0.66140008,0.96627850
48303,0,USTexasLubbock,Texas,Lubbock,2021-01-05 08:45:52.978350,2020-06-13 00:00:00.000000,0.32539081,0.49570738,0.74960960,1010,1539,2328,444,691,1101,0.14296801,0.22253319,0.35466100,0.50343588,0.67190437,0.93907833
48303,0,USTexasLubbock,Texas,Lubbock,2021-01-05 08:45:52.978350,2020-06-14 00:00:00.000000,0.36822309,0.55084231,0.83252952,1143,1710,2585,500,782,1227,0.16108173,0.25184315,0.39517197,0.50547808,0.66575965,0.89697141
48303,0,USTexasLubbock,Texas,Lubbock,2021-01-05 08:45:52.978350,2020-06-15 00:00:00.000000,0.41737792,0.60820118,0.92374170,1296,1888,2868,565,870,1368,0.18203195,0.28025092,0.44067047,0.51940742,0.66687881,0.85684073
48303,0,USTexasLubbock,Texas,Lubbock,2021-01-05 08:45:52.978350,2020-06-16 00:00:00.000000,0.47273208,0.67573204,1.02507935,1468,2098,3183,648,978,1529,0.20879945,0.31517370,0.49249183,0.51070382,0.66688937,0.82827596
48303,0,USTexasLubbock,Texas,Lubbock,2021-01-05 08:45:52.978350,2020-06-17 00:00:00.000000,0.53415066,0.76038741,1.11754432,1658,2361,3470,758,1110,1699,0.24423033,0.35756072,0.54710729,0.50584044,0.65964089,0.81611267
48303,0,USTexasLubbock,Texas,Lubbock,2021-01-05 08:45:52.978350,2020-06-18 00:00:00.000000,0.62032881,0.84673795,1.24920460,1926,2629,3879,853,1252,1861,0.27489353,0.40318479,0.59939474,0.50322020,0.65576285,0.81430755
48303,0,USTexasLubbock,Texas,Lubbock,2021-01-05 08:45:52.978350,2020-06-19 00:00:00.000000,0.70455233,0.93477000,1.38917354,2188,2903,4314,958,1412,2124,0.30874471,0.45469508,0.68420445,0.50164369,0.62864594,0.80793496
48303,0,USTexasLubbock,Texas,Lubbock,2021-01-05 08:45:52.978350,2020-06-20 00:00:00.000000,0.77788890,1.03398313,1.50645365,2415,3211,4678,1074,1581,2424,0.34610243,0.50910879,0.78056421,0.47379442,0.61024140,0.79753323
48303,0,USTexasLubbock,Texas,Lubbock,2021-01-05 08:45:52.978350,2020-06-21 00:00:00.000000,0.85200476,1.14854673,1.66343073,2646,3567,5166,1202,1770,2660,0.38732981,0.57014548,0.85662703,0.41782516,0.57994159,0.75003771
48303,0,USTexasLubbock,Texas,Lubbock,2021-01-05 08:45:52.978350,2020-06-22 00:00:00.000000,0.92547650,1.26375417,1.85384398,2874,3924,5757,1343,1962,2889,0.43255253,0.63180591,0.93034319,0.40730625,0.55376411,0.72188707
48303,0,USTexasLubbock,Texas,Lubbock,2021-01-05 08:45:52.978350,2020-06-23 00:00:00.000000,0.99912163,1.37975926,2.03231986,3102,4285,6311,1490,2144,3238,0.47984647,0.69058167,1.04292384,0.38975131,0.51844754,0.69463023
48303,0,USTexasLubbock,Texas,Lubbock,2021-01-05 08:45:52.978350,2020-06-24 00:00:00.000000,1.07343366,1.50459210,2.18774447,3333,4672,6794,1631,2317,3595,0.52529854,0.74625681,1.15756385,0.37478636,0.48942576,0.66940637
48303,0,USTexasLubbock,Texas,Lubbock,2021-01-05 08:45:52.978350,2020-06-25 00:00:00.000000,1.15934406,1.60816394,2.31296817,3600,4994,7183,1766,2501,3936,0.56884664,0.80560457,1.26763186,0.35179506,0.46679492,0.65623236
48303,0,USTexasLubbock,Texas,Lubbock,2021-01-05 08:45:52.978350,2020-06-26 00:00:00.000000,1.26897847,1.72543109,2.46850108,3941,5358,7666,1874,2702,4259,0.60353786,0.87023942,1.37166830,0.33791363,0.43682252,0.63453535
48303,0,USTexasLubbock,Texas,Lubbock,2021-01-05 08:45:52.978350,2020-06-27 00:00:00.000000,1.38840325,1.83276071,2.60402744,4311,5691,8087,1997,2892,4496,0.64305271,0.93149313,1.44771620,0.31468325,0.41815868,0.62184750
48303,0,USTexasLubbock,Texas,Lubbock,2021-01-05 08:45:52.978350,2020-06-28 00:00:00.000000,1.49494785,1.92822826,2.72357336,4642,5988,8458,2173,3089,4705,0.69970538,0.99479964,1.51497069,0.30429817,0.39724448,0.60822436
48303,0,USTexasLubbock,Texas,Lubbock,2021-01-05 08:45:52.978350,2020-06-29 00:00:00.000000,1.57717649,2.00437767,2.82557512,4898,6224,8775,2314,3270,4892,0.74513705,1.05291463,1.57546401,0.29476266,0.37579116,0.53916005
48303,0,USTexasLubbock,Texas,Lubbock,2021-01-05 08:45:52.978350,2020-06-30 00:00:00.000000,1.66290043,2.08227378,2.91667417,5164,6466,9058,2459,3398,5057,0.79197911,1.09435114,1.62858607,0.26944820,0.36348445,0.51426850
48303,0,USTexasLubbock,Texas,Lubbock,2021-01-05 08:45:52.978350,2020-07-01 00:00:00.000000,1.72950324,2.17085650,3.00318103,5371,6742,9326,2606,3551,5200,0.83931496,1.14370591,1.67435627,0.25676535,0.34402020,0.50123081
48303,0,USTexasLubbock,Texas,Lubbock,2021-01-05 08:45:52.978350,2020-07-02 00:00:00.000000,1.79038117,2.26438020,3.08810217,5560,7032,9590,2754,3677,5338,0.88694341,1.18427536,1.71879181,0.24384308,0.33334254,0.48262072
48303,0,USTexasLubbock,Texas,Lubbock,2021-01-05 08:45:52.978350,2020-07-03 00:00:00.000000,1.84257651,2.29878224,3.17301264,5722,7139,9854,2901,3839,5537,0.93420651,1.23636610,1.78299101,0.22092913,0.31550311,0.45782578
48303,0,USTexasLubbock,Texas,Lubbock,2021-01-05 08:45:52.978350,2020-07-04 00:00:00.000000,1.85038514,2.32653131,3.24188279,5746,7225,10068,3008,4023,5720,0.96859986,1.29567335,1.84208929,0.20907929,0.29649294,0.42075888
48303,0,USTexasLubbock,Texas,Lubbock,2021-01-05 08:45:52.978350,2020-07-05 00:00:00.000000,1.85743011,2.35291924,3.25619085,5768,7307,10112,3029,4116,5920,0.97550179,1.32546400,1.90643737,0.20121859,0.28098739,0.39696478
48303,0,USTexasLubbock,Texas,Lubbock,2021-01-05 08:45:52.978350,2020-07-06 00:00:00.000000,1.88319525,2.37968268,3.26288870,5848,7390,10133,3081,4214,6063,0.99231917,1.35694952,1.95227913,0.19095965,0.27440576,0.36194333
48303,0,USTexasLubbock,Texas,Lubbock,2021-01-05 08:45:52.978350,2020-07-07 00:00:00.000000,1.87804087,2.39068100,3.32214244,5832,7424,10317,3109,4254,6163,1.00123369,1.36986916,1.98453451,0.18278182,0.26914620,0.34735226
48303,0,USTexasLubbock,Texas,Lubbock,2021-01-05 08:45:52.978350,2020-07-08 00:00:00.000000,1.87219592,2.38693099,3.37509884,5814,7413,10482,3119,4274,6327,1.00449169,1.37626734,2.03742739,0.17925385,0.25423587,0.33802216
48303,0,USTexasLubbock,Texas,Lubbock,2021-01-05 08:45:52.978350,2020-07-09 00:00:00.000000,1.87165754,2.36864082,3.40507244,5812,7356,10575,3118,4277,6475,1.00397838,1.37742418,2.08517610,0.15926145,0.24582747,0.32911314
48303,0,USTexasLubbock,Texas,Lubbock,2021-01-05 08:45:52.978350,2020-07-10 00:00:00.000000,1.85932376,2.36596043,3.34129291,5774,7347,10377,3108,4284,6606,1.00101575,1.37950387,2.12721767,0.15607418,0.23630206,0.32023474
48303,0,USTexasLubbock,Texas,Lubbock,2021-01-05 08:45:52.978350,2020-07-11 00:00:00.000000,1.84615319,2.34309750,3.30264819,5733,7276,10257,3094,4278,6596,0.99646084,1.37757217,2.12391852,0.14794184,0.22812977,0.31172341
48303,0,USTexasLubbock,Texas,Lubbock,2021-01-05 08:45:52.978350,2020-07-12 00:00:00.000000,1.83230565,2.34224142,3.29921205,5690,7274,10246,3077,4241,6589,0.99083893,1.36582019,2.12162135,0.13993545,0.22198484,0.29666494
48303,0,USTexasLubbock,Texas,Lubbock,2021-01-05 08:45:52.978350,2020-07-13 00:00:00.000000,1.77900202,2.32291692,3.26372650,5525,7214,10136,3057,4220,6680,0.98444153,1.35894225,2.15114633,0.13667677,0.21681317,0.28677514
48303,0,USTexasLubbock,Texas,Lubbock,2021-01-05 08:45:52.978350,2020-07-14 00:00:00.000000,1.73370546,2.29774336,3.21561877,5384,7136,9986,3016,4173,6761,0.97121984,1.34393717,2.17708546,0.13483176,0.21354567,0.28679585
48303,0,USTexasLubbock,Texas,Lubbock,2021-01-05 08:45:52.978350,2020-07-15 00:00:00.000000,1.68899247,2.26098558,3.18515853,5245,7021,9892,2897,4114,6819,0.93302483,1.32495911,2.19578454,0.13359317,0.21079954,0.28142853
48303,0,USTexasLubbock,Texas,Lubbock,2021-01-05 08:45:52.978350,2020-07-16 00:00:00.000000,1.62627000,2.20536476,3.16132550,5050,6849,9818,2782,4046,6842,0.89596940,1.30294289,2.20321101,0.13209268,0.20751880,0.26712491
48303,0,USTexasLubbock,Texas,Lubbock,2021-01-05 08:45:52.978350,2020-07-17 00:00:00.000000,1.56777785,2.14226562,3.11578202,4869,6653,9676,2694,3982,6827,0.86746296,1.28217574,2.19850979,0.12999019,0.20205261,0.26478271
48303,0,USTexasLubbock,Texas,Lubbock,2021-01-05 08:45:52.978350,2020-07-18 00:00:00.000000,1.51647261,2.08405843,3.07179165,4709,6472,9540,2613,3940,6782,0.84143816,1.26878053,2.18390238,0.12731448,0.19864954,0.25517037
48303,0,USTexasLubbock,Texas,Lubbock,2021-01-05 08:45:52.978350,2020-07-19 00:00:00.000000,1.46803592,2.02868576,3.04740733,4559,6300,9464,2571,3888,6715,0.82805699,1.25193162,2.16230617,0.12432410,0.19315779,0.25470279
48303,0,USTexasLubbock,Texas,Lubbock,2021-01-05 08:45:52.978350,2020-07-20 00:00:00.000000,1.42389384,1.98607954,3.03885100,4422,6168,9437,2526,3829,6634,0.81341260,1.23319701,2.13612995,0.12377613,0.19081834,0.25329503
48303,0,USTexasLubbock,Texas,Lubbock,2021-01-05 08:45:52.978350,2020-07-21 00:00:00.000000,1.38457721,1.94901657,3.01991797,4300,6053,9378,2478,3770,6539,0.79820675,1.21420822,2.10565193,0.12241585,0.19000222,0.25007686
48303,0,USTexasLubbock,Texas,Lubbock,2021-01-05 08:45:52.978350,2020-07-22 00:00:00.000000,1.34993465,1.90462447,2.93527083,4192,5915,9116,2409,3691,6420,0.77594792,1.18867241,2.06733000,0.12193272,0.19055399,0.25367451
48303,0,USTexasLubbock,Texas,Lubbock,2021-01-05 08:45:52.978350,2020-07-23 00:00:00.000000,1.31851372,1.86009960,2.85088015,4094,5776,8853,2308,3629,6297,0.74340949,1.16868676,2.02767581,0.12336059,0.19390973,0.25863427
48303,0,USTexasLubbock,Texas,Lubbock,2021-01-05 08:45:52.978350,2020-07-24 00:00:00.000000,1.28369412,1.82394313,2.78560780,3986,5664,8651,2214,3533,6171,0.71306753,1.13785584,1.98728889,0.12698774,0.19684094,0.26405985
48303,0,USTexasLubbock,Texas,Lubbock,2021-01-05 08:45:52.978350,2020-07-25 00:00:00.000000,1.24188779,1.79477046,2.73862106,3856,5574,8505,2133,3427,6045,0.68692578,1.10355658,1.94658471,0.12625441,0.20054908,0.26800454
48303,0,USTexasLubbock,Texas,Lubbock,2021-01-05 08:45:52.978350,2020-07-26 00:00:00.000000,1.20393702,1.74491915,2.69000068,3739,5419,8354,2083,3331,5918,0.67094498,1.07262965,1.90584543,0.12827332,0.20069936,0.26972474
48303,0,USTexasLubbock,Texas,Lubbock,2021-01-05 08:45:52.978350,2020-07-27 00:00:00.000000,1.16112183,1.69949427,2.63552289,3606,5278,8185,2035,3242,5825,0.65536016,1.04400509,1.87577892,0.12309827,0.20126248,0.27032187
48303,0,USTexasLubbock,Texas,Lubbock,2021-01-05 08:45:52.978350,2020-07-28 00:00:00.000000,1.11836803,1.65865842,2.57330387,3473,5151,7991,1985,3150,5724,0.63938030,1.01444592,1.84307741,0.12174573,0.20251316,0.27050659
48303,0,USTexasLubbock,Texas,Lubbock,2021-01-05 08:45:52.978350,2020-07-29 00:00:00.000000,1.09285295,1.61576479,2.52560090,3394,5018,7843,1934,3094,5608,0.62293794,0.99626106,1.80584929,0.12130534,0.20369640,0.27128367
48303,0,USTexasLubbock,Texas,Lubbock,2021-01-05 08:45:52.978350,2020-07-30 00:00:00.000000,1.08168353,1.58437186,2.51460266,3359,4920,7809,1883,3035,5484,0.60659196,0.97733516,1.76602070,0.12161199,0.20857234,0.28393672
48303,0,USTexasLubbock,Texas,Lubbock,2021-01-05 08:45:52.978350,2020-07-31 00:00:00.000000,1.07278294,1.54328510,2.47281571,3331,4792,7679,1822,2956,5356,0.58678329,0.95211183,1.72472465,0.12855594,0.21249276,0.28646658
48303,0,USTexasLubbock,Texas,Lubbock,2021-01-05 08:45:52.978350,2020-08-01 00:00:00.000000,1.04040380,1.50542142,2.41043098,3231,4675,7486,1768,2903,5226,0.56928466,0.93490625,1.68276242,0.14326226,0.21438460,0.29481468
48303,0,USTexasLubbock,Texas,Lubbock,2021-01-05 08:45:52.978350,2020-08-02 00:00:00.000000,1.01011850,1.48241435,2.34656497,3137,4603,7287,1739,2851,5171,0.55996190,0.91803315,1.66516923,0.14301997,0.21524222,0.31252939
48303,0,USTexasLubbock,Texas,Lubbock,2021-01-05 08:45:52.978350,2020-08-03 00:00:00.000000,0.98505494,1.44842683,2.28612031,3059,4498,7099,1696,2795,5072,0.54618989,0.89997984,1.63330855,0.14424733,0.21724584,0.32239896
48303,0,USTexasLubbock,Texas,Lubbock,2021-01-05 08:45:52.978350,2020-08-04 00:00:00.000000,0.96434439,1.43128624,2.22935407,2994,4445,6923,1657,2742,4953,0.53381480,0.88297929,1.59512051,0.14474043,0.21792278,0.33403756
48303,0,USTexasLubbock,Texas,Lubbock,2021-01-05 08:45:52.978350,2020-08-05 00:00:00.000000,0.94680648,1.41502034,2.17548058,2940,4394,6756,1625,2691,4877,0.52326161,0.86667378,1.57058911,0.14495659,0.21946273,0.34059285
48303,0,USTexasLubbock,Texas,Lubbock,2021-01-05 08:45:52.978350,2020-08-06 00:00:00.000000,0.93211052,1.40593227,2.16821154,2894,4366,6733,1602,2649,4808,0.51612536,0.85298086,1.54830776,0.14540969,0.22408752,0.35519406
48303,0,USTexasLubbock,Texas,Lubbock,2021-01-05 08:45:52.978350,2020-08-07 00:00:00.000000,0.92034017,1.40745199,2.17869905,2858,4371,6766,1607,2614,4741,0.51767919,0.84183266,1.52685594,0.14679497,0.23772573,0.37797978
48303,0,USTexasLubbock,Texas,Lubbock,2021-01-05 08:45:52.978350,2020-08-08 00:00:00.000000,0.91146220,1.41513965,2.18995473,2830,4394,6801,1588,2585,4677,0.51145257,0.83263196,1.50612003,0.15099726,0.23985310,0.38061182
48303,0,USTexasLubbock,Texas,Lubbock,2021-01-05 08:45:52.978350,2020-08-09 00:00:00.000000,0.90560712,1.41330880,2.19331878,2812,4389,6811,1570,2553,4614,0.50583510,0.82220556,1.48598171,0.15852882,0.24742607,0.38730087
48303,0,USTexasLubbock,Texas,Lubbock,2021-01-05 08:45:52.978350,2020-08-10 00:00:00.000000,0.90235639,1.39360713,2.16768006,2802,4328,6732,1565,2507,4554,0.50408054,0.80728933,1.46637604,0.16491019,0.26299199,0.38429148
48303,0,USTexasLubbock,Texas,Lubbock,2021-01-05 08:45:52.978350,2020-08-11 00:00:00.000000,0.90152702,1.38477693,2.14982830,2799,4300,6676,1541,2485,4521,0.49622786,0.80026898,1.45583724,0.17503765,0.26602307,0.39107344
48303,0,USTexasLubbock,Texas,Lubbock,2021-01-05 08:45:52.978350,2020-08-12 00:00:00.000000,0.91073690,1.38525782,2.15519143,2828,4302,6693,1534,2458,4525,0.49402428,0.79166962,1.45704716,0.17882569,0.26962505,0.40002386
48303,0,USTexasLubbock,Texas,Lubbock,2021-01-05 08:45:52.978350,2020-08-13 00:00:00.000000,0.93356940,1.39798443,2.14529909,2899,4341,6662,1532,2450,4517,0.49345049,0.78891844,1.45446795,0.17939097,0.27949255,0.40853636
48303,0,USTexasLubbock,Texas,Lubbock,2021-01-05 08:45:52.978350,2020-08-14 00:00:00.000000,0.94189326,1.41920686,2.16057264,2925,4407,6710,1537,2453,4485,0.49506750,0.78996659,1.44430514,0.18110692,0.29059298,0.42266253
48303,0,USTexasLubbock,Texas,Lubbock,2021-01-05 08:45:52.978350,2020-08-15 00:00:00.000000,0.95760668,1.41954627,2.18876573,2974,4408,6797,1553,2456,4458,0.50017218,0.79101690,1.43549582,0.19137823,0.31192200,0.42604132
48303,0,USTexasLubbock,Texas,Lubbock,2021-01-05 08:45:52.978350,2020-08-16 00:00:00.000000,0.99357327,1.44384236,2.22569123,3085,4484,6912,1585,2486,4437,0.51043935,0.80069792,1.42870197,0.20522538,0.33359073,0.44316304
48303,0,USTexasLubbock,Texas,Lubbock,2021-01-05 08:45:52.978350,2020-08-17 00:00:00.000000,1.00643361,1.47644027,2.25850036,3125,4585,7014,1635,2519,4442,0.52672652,0.81116745,1.43055855,0.21489828,0.34412507,0.46098008
48303,0,USTexasLubbock,Texas,Lubbock,2021-01-05 08:45:52.978350,2020-08-18 00:00:00.000000,1.03841170,1.52273737,2.28069570,3224,4729,7083,1704,2592,4481,0.54877659,0.83459774,1.44309134,0.21794668,0.35145019,0.48066372
48303,0,USTexasLubbock,Texas,Lubbock,2021-01-05 08:45:52.978350,2020-08-19 00:00:00.000000,1.08996461,1.56444952,2.35658592,3385,4858,7318,1751,2663,4544,0.56410429,0.85765182,1.46325485,0.21768501,0.35799543,0.49721851
48303,0,USTexasLubbock,Texas,Lubbock,2021-01-05 08:45:52.978350,2020-08-20 00:00:00.000000,1.11839825,1.61861198,2.44501496,3473,5026,7593,1786,2732,4645,0.57536162,0.87968526,1.49570234,0.21749633,0.36356083,0.50758866
48303,0,USTexasLubbock,Texas,Lubbock,2021-01-05 08:45:52.978350,2020-08-21 00:00:00.000000,1.14928562,1.67398097,2.54516677,3569,5198,7904,1826,2785,4742,0.58812300,0.89695697,1.52699860,0.22806583,0.37211034,0.52065243
48303,0,USTexasLubbock,Texas,Lubbock,2021-01-05 08:45:52.978350,2020-08-22 00:00:00.000000,1.20441186,1.74851909,2.59519756,3740,5430,8059,1875,2874,4793,0.60383511,0.92562490,1.54334187,0.22818535,0.39479434,0.54020236
48303,0,USTexasLubbock,Texas,Lubbock,2021-01-05 08:45:52.978350,2020-08-23 00:00:00.000000,1.24690096,1.81597151,2.64276535,3872,5639,8207,1938,2979,4845,0.62433047,0.95932390,1.56018514,0.23238513,0.41022338,0.54783554
48303,0,USTexasLubbock,Texas,Lubbock,2021-01-05 08:45:52.978350,2020-08-24 00:00:00.000000,1.29045704,1.90928078,2.69003734,4007,5929,8354,2019,3109,4925,0.65033159,1.00127604,1.58584963,0.25604373,0.41781541,0.55059647
48303,0,USTexasLubbock,Texas,Lubbock,2021-01-05 08:45:52.978350,2020-08-25 00:00:00.000000,1.34371786,1.98160491,2.73610829,4173,6154,8497,2115,3252,5065,0.68102797,1.04727843,1.63093101,0.26320755,0.42139316,0.55292592
48303,0,USTexasLubbock,Texas,Lubbock,2021-01-05 08:45:52.978350,2020-08-26 00:00:00.000000,1.40480960,2.05596372,2.79579560,4362,6385,8682,2222,3387,5219,0.71558473,1.09072739,1.68053786,0.27301793,0.42096778,0.55996724
48303,0,USTexasLubbock,Texas,Lubbock,2021-01-05 08:45:52.978350,2020-08-27 00:00:00.000000,1.47443487,2.14039756,2.89610645,4579,6647,8994,2339,3539,5383,0.75330197,1.13969020,1.73343892,0.27773910,0.41171057,0.55843288
48303,0,USTexasLubbock,Texas,Lubbock,2021-01-05 08:45:52.978350,2020-08-28 00:00:00.000000,1.55303284,2.21921839,3.03288414,4823,6892,9419,2465,3695,5562,0.79378492,1.18992002,1.79117512,0.27927585,0.40678047,0.55845615
48303,0,USTexasLubbock,Texas,Lubbock,2021-01-05 08:45:52.978350,2020-08-29 00:00:00.000000,1.64035112,2.33311178,3.18144194,5094,7245,9880,2599,3911,5769,0.83691302,1.25936089,1.85768629,0.27972882,0.40509784,0.56087622
48303,0,USTexasLubbock,Texas,Lubbock,2021-01-05 08:45:52.978350,2020-08-30 00:00:00.000000,1.71708378,2.42239276,3.32345649,5332,7523,10321,2740,4093,5997,0.88237894,1.31821454,1.93115643,0.27971793,0.39258074,0.54393720
48303,0,USTexasLubbock,Texas,Lubbock,2021-01-05 08:45:52.978350,2020-08-31 00:00:00.000000,1.79798817,2.53899438,3.42071105,5583,7885,10623,2876,4291,6242,0.92606158,1.38171843,2.00999427,0.27628282,0.38000007,0.53902233
48303,0,USTexasLubbock,Texas,Lubbock,2021-01-05 08:45:52.978350,2020-09-01 00:00:00.000000,1.89834669,2.63578252,3.55960895,5895,8185,11055,3009,4396,6499,0.96909852,1.41578660,2.09273961,0.27555188,0.37490455,0.53511189
48303,0,USTexasLubbock,Texas,Lubbock,2021-01-05 08:45:52.978350,2020-09-02 00:00:00.000000,1.98311789,2.68237393,3.69892155,6158,8330,11487,3138,4520,6766,1.01054034,1.45569988,2.17860201,0.27320143,0.35889420,0.51784720
48303,0,USTexasLubbock,Texas,Lubbock,2021-01-05 08:45:52.978350,2020-09-03 00:00:00.000000,2.02530023,2.72367565,3.81295084,6289,8458,11841,3256,4652,7038,1.04859825,1.49815195,2.26635720,0.24477145,0.34900196,0.47380705
48303,0,USTexasLubbock,Texas,Lubbock,2021-01-05 08:45:52.978350,2020-09-04 00:00:00.000000,2.08253116,2.78539308,3.89480585,6467,8650,12096,3329,4761,7308,1.07219316,1.53308017,2.35332693,0.24166795,0.33843156,0.43611911
48303,0,USTexasLubbock,Texas,Lubbock,2021-01-05 08:45:52.978350,2020-09-05 00:00:00.000000,2.09817383,2.83182834,3.91580219,6516,8794,12161,3395,4850,7559,1.09344368,1.56194004,2.43421269,0.23221903,0.32521728,0.42561944
48303,0,USTexasLubbock,Texas,Lubbock,2021-01-05 08:45:52.978350,2020-09-06 00:00:00.000000,2.10120444,2.86013098,3.92906899,6525,8882,12202,3460,4953,7706,1.11422585,1.59490894,2.48138118,0.22667451,0.31213074,0.42497943
48303,0,USTexasLubbock,Texas,Lubbock,2021-01-05 08:45:52.978350,2020-09-07 00:00:00.000000,2.14243071,2.90118994,3.93863010,6653,9010,12232,3517,5031,7821,1.13246859,1.62010718,2.51859662,0.22218544,0.30729672,0.42450255
48303,0,USTexasLubbock,Texas,Lubbock,2021-01-05 08:45:52.978350,2020-09-08 00:00:00.000000,2.14289083,2.92958717,3.94568183,6655,9098,12254,3544,5066,7949,1.14137565,1.63130876,2.55975926,0.22175887,0.30048848,0.42057783
48303,0,USTexasLubbock,Texas,Lubbock,2021-01-05 08:45:52.978350,2020-09-09 00:00:00.000000,2.13588321,2.93162109,3.95107037,6633,9104,12270,3559,5136,8060,1.14623598,1.65374950,2.59549867,0.22140965,0.29442828,0.40785702
48303,0,USTexasLubbock,Texas,Lubbock,2021-01-05 08:45:52.978350,2020-09-10 00:00:00.000000,2.12627835,2.95067740,3.95509189,6603,9163,12283,3568,5163,8088,1.14907485,1.66248957,2.60457072,0.21516830,0.29149377,0.40217372
48303,0,USTexasLubbock,Texas,Lubbock,2021-01-05 08:45:52.978350,2020-09-11 00:00:00.000000,2.12835411,2.95222323,3.95791047,6610,9168,12292,3572,5193,8109,1.15026552,1.67240708,2.61112105,0.21440578,0.28752064,0.39259430
48303,0,USTexasLubbock,Texas,Lubbock,2021-01-05 08:45:52.978350,2020-09-12 00:00:00.000000,2.13462296,2.94943498,3.97126446,6629,9160,12333,3574,5182,8124,1.15107046,1.66856645,2.61601387,0.20967546,0.28695169,0.37774133
48303,0,USTexasLubbock,Texas,Lubbock,2021-01-05 08:45:52.978350,2020-09-13 00:00:00.000000,2.14030950,2.96362762,3.98420359,6647,9204,12373,3585,5218,8135,1.15439990,1.68029310,2.61960145,0.20553179,0.28576654,0.37601765
48303,0,USTexasLubbock,Texas,Lubbock,2021-01-05 08:45:52.978350,2020-09-14 00:00:00.000000,2.14535613,2.94057098,3.99343016,6662,9132,12402,3591,5196,8142,1.15629916,1.67330899,2.62180335,0.21142373,0.28625363,0.38653041
48303,0,USTexasLubbock,Texas,Lubbock,2021-01-05 08:45:52.978350,2020-09-15 00:00:00.000000,2.15353141,2.93649508,4.00050657,6688,9119,12424,3598,5181,8147,1.15871251,1.66833010,2.62329242,0.20295888,0.28872044,0.38756623
48303,0,USTexasLubbock,Texas,Lubbock,2021-01-05 08:45:52.978350,2020-09-16 00:00:00.000000,2.17682771,2.92734379,4.00975430,6760,9091,12453,3607,5173,8163,1.16148220,1.66585048,2.62840778,0.20583807,0.28784482,0.39195828
48303,0,USTexasLubbock,Texas,Lubbock,2021-01-05 08:45:52.978350,2020-09-17 00:00:00.000000,2.20707635,2.90588658,4.04431290,6854,9024,12560,3627,5180,8173,1.16810453,1.66802992,2.63171334,0.20343159,0.28977038,0.39306074
48303,0,USTexasLubbock,Texas,Lubbock,2021-01-05 08:45:52.978350,2020-09-18 00:00:00.000000,2.24174474,2.90282607,4.05488132,6962,9015,12593,3652,5181,8209,1.17606496,1.66841584,2.64326434,0.20785576,0.29446542,0.39763234
48303,0,USTexasLubbock,Texas,Lubbock,2021-01-05 08:45:52.978350,2020-09-19 00:00:00.000000,2.25291374,2.91566028,4.05910854,6996,9055,12606,3657,5168,8189,1.17762882,1.66411072,2.63702427,0.21107281,0.29955934,0.39507174
48303,0,USTexasLubbock,Texas,Lubbock,2021-01-05 08:45:52.978350,2020-09-20 00:00:00.000000,2.26303354,2.93802988,4.09476083,7028,9124,12717,3666,5196,8323,1.18069912,1.67336287,2.68017442,0.21651378,0.31238551,0.39659106
48303,0,USTexasLubbock,Texas,Lubbock,2021-01-05 08:45:52.978350,2020-09-21 00:00:00.000000,2.27192874,2.93964451,4.13423373,7055,9129,12839,3680,5237,8417,1.18504456,1.68654944,2.71043372,0.21879161,0.31713529,0.40621309
48303,0,USTexasLubbock,Texas,Lubbock,2021-01-05 08:45:52.978350,2020-09-22 00:00:00.000000,2.28043146,2.92664739,4.17792364,7082,9089,12975,3696,5264,8505,1.19008951,1.69496597,2.73859165,0.22332871,0.32125301,0.42083401
48303,0,USTexasLubbock,Texas,Lubbock,2021-01-05 08:45:52.978350,2020-09-23 00:00:00.000000,2.28842515,2.93484181,4.22955568,7107,9114,13135,3712,5273,8593,1.19551664,1.69806337,2.76697186,0.22474811,0.32266830,0.43804247
48303,0,USTexasLubbock,Texas,Lubbock,2021-01-05 08:45:52.978350,2020-09-24 00:00:00.000000,2.29591594,2.94895413,4.29472152,7130,9158,13338,3730,5273,8678,1.20113410,1.69802457,2.79429356,0.22947415,0.32625419,0.44000926
48303,0,USTexasLubbock,Texas,Lubbock,2021-01-05 08:45:52.978350,2020-09-25 00:00:00.000000,2.31210205,2.95952464,4.33523989,7180,9191,13463,3776,5309,8756,1.21590078,1.70969360,2.81939404,0.23717147,0.32505854,0.44046777
48303,0,USTexasLubbock,Texas,Lubbock,2021-01-05 08:45:52.978350,2020-09-26 00:00:00.000000,2.31562359,2.97542007,4.37856533,7191,9240,13598,3834,5357,8824,1.23458966,1.72501948,2.84127552,0.24043172,0.33306494,0.44063194
48303,0,USTexasLubbock,Texas,Lubbock,2021-01-05 08:45:52.978350,2020-09-27 00:00:00.000000,2.32359291,3.00969297,4.44897647,7216,9347,13817,3870,5422,8879,1.24618618,1.74609022,2.85924038,0.24351622,0.33647691,0.44071277
48303,0,USTexasLubbock,Texas,Lubbock,2021-01-05 08:45:52.978350,2020-09-28 00:00:00.000000,2.34700533,3.05505073,4.51826499,7289,9488,14032,3852,5484,8932,1.24047446,1.76589159,2.87623976,0.24532014,0.33869357,0.44077729
48303,0,USTexasLubbock,Texas,Lubbock,2021-01-05 08:45:52.978350,2020-09-29 00:00:00.000000,2.37459561,3.11957430,4.59373237,7374,9688,14266,3904,5538,8991,1.25729199,1.78346988,2.89519673,0.24365539,0.34168519,0.44087953
48303,0,USTexasLubbock,Texas,Lubbock,2021-01-05 08:45:52.978350,2020-09-30 00:00:00.000000,2.40417155,3.16120213,4.66876397,7466,9817,14499,3958,5663,8984,1.27455454,1.82355651,2.89306027,0.24715119,0.34600216,0.44574520
48303,0,USTexasLubbock,Texas,Lubbock,2021-01-05 08:45:52.978350,2020-10-01 00:00:00.000000,2.43699456,3.21243099,4.74842584,7568,9976,14747,4012,5776,9159,1.29190111,1.86004841,2.94942298,0.24810784,0.34751162,0.45517890
48303,0,USTexasLubbock,Texas,Lubbock,2021-01-05 08:45:52.978350,2020-10-02 00:00:00.000000,2.45442120,3.28258361,4.83641785,7622,10194,15020,4066,5878,9358,1.30933428,1.89269283,3.01318490,0.24978229,0.35035559,0.48613986
48303,0,USTexasLubbock,Texas,Lubbock,2021-01-05 08:45:52.978350,2020-10-03 00:00:00.000000,2.49955761,3.36290478,4.93401454,7762,10444,15323,4121,5962,9561,1.32693771,1.91982759,3.07881042,0.25347705,0.36085906,0.50800131
48303,0,USTexasLubbock,Texas,Lubbock,2021-01-05 08:45:52.978350,2020-10-04 00:00:00.000000,2.56327057,3.41407468,5.03881079,7960,10603,15648,4177,6008,9768,1.34525524,1.93475329,3.14545103,0.25444172,0.37115578,0.52092465
48303,0,USTexasLubbock,Texas,Lubbock,2021-01-05 08:45:52.978350,2020-10-05 00:00:00.000000,2.62879213,3.47790761,5.14704794,8164,10801,15985,4255,6120,9977,1.37031606,1.97064069,3.21258593,0.25757377,0.38450528,0.52982966
48303,0,USTexasLubbock,Texas,Lubbock,2021-01-05 08:45:52.978350,2020-10-06 00:00:00.000000,2.69584825,3.55006117,5.25888967,8372,11025,16332,4328,6234,10186,1.39382830,2.00738418,3.27992576,0.26156470,0.40033794,0.53719006
48303,0,USTexasLubbock,Texas,Lubbock,2021-01-05 08:45:52.978350,2020-10-07 00:00:00.000000,2.76469606,3.63512807,5.37550606,8586,11289,16694,4435,6407,10395,1.42821689,2.06307922,3.34739056,0.26721193,0.40640965,0.54266767
48303,0,USTexasLubbock,Texas,Lubbock,2021-01-05 08:45:52.978350,2020-10-08 00:00:00.000000,2.83599532,3.73981424,5.50044857,8807,11614,17082,4559,6539,10607,1.46823218,2.10568384,3.41541307,0.27715193,0.41181564,0.53993235
48303,0,USTexasLubbock,Texas,Lubbock,2021-01-05 08:45:52.978350,2020-10-09 00:00:00.000000,2.91214386,3.84415576,5.63936674,9044,11938,17514,4655,6735,10948,1.49909227,2.16877058,3.52543278,0.29377757,0.42329737,0.55084431
48303,0,USTexasLubbock,Texas,Lubbock,2021-01-05 08:45:52.978350,2020-10-10 00:00:00.000000,3.00344016,3.97200692,5.79604469,9327,12335,18000,4759,6844,11336,1.53257132,2.20400983,3.65038537,0.30629139,0.43191593,0.53849534
48303,0,USTexasLubbock,Texas,Lubbock,2021-01-05 08:45:52.978350,2020-10-11 00:00:00.000000,3.09469059,4.09266139,5.97050087,9611,12710,18542,4883,7002,11746,1.57240279,2.25467138,3.78229217,0.30579105,0.43679123,0.56642193
48303,0,USTexasLubbock,Texas,Lubbock,2021-01-05 08:45:52.978350,2020-10-12 00:00:00.000000,3.19390192,4.21551878,6.15967857,9919,13092,19130,5087,7208,12178,1.63806095,2.32115041,3.92139820,0.32372756,0.43794435,0.57782350
48303,0,USTexasLubbock,Texas,Lubbock,2021-01-05 08:45:52.978350,2020-10-13 00:00:00.000000,3.35025468,4.35616156,6.35849463,10404,13528,19747,5197,7425,12556,1.67359226,2.39105428,4.04293519,0.31900133,0.44190321,0.58539037
48303,0,USTexasLubbock,Texas,Lubbock,2021-01-05 08:45:52.978350,2020-10-14 00:00:00.000000,3.44046427,4.52475589,6.56250065,10685,14052,20381,5339,7622,12886,1.71928616,2.45438699,4.14937311,0.32210800,0.44572989,0.58047600
48303,0,USTexasLubbock,Texas,Lubbock,2021-01-05 08:45:52.978350,2020-10-15 00:00:00.000000,3.50369459,4.63750369,6.76890913,10881,14402,21022,5511,7820,13237,1.77450306,2.51812373,4.26247335,0.32789875,0.45093107,0.58005290
48303,0,USTexasLubbock,Texas,Lubbock,2021-01-05 08:45:52.978350,2020-10-16 00:00:00.000000,3.59365589,4.78797620,6.97848587,11160,14869,21673,5633,8068,13601,1.81403477,2.59788204,4.37959905,0.32699985,0.45735551,0.59441553
48303,0,USTexasLubbock,Texas,Lubbock,2021-01-05 08:45:52.978350,2020-10-17 00:00:00.000000,3.74371232,4.92035726,7.17876301,11626,15281,22295,5782,8344,13972,1.86185264,2.68687768,4.49904736,0.32984164,0.46474814,0.59248295
48303,0,USTexasLubbock,Texas,Lubbock,2021-01-05 08:45:52.978350,2020-10-18 00:00:00.000000,3.88280088,5.08306303,7.38301342,12058,15786,22929,5980,8653,14349,1.92559835,2.78623894,4.62040367,0.32655369,0.46606495,0.60767391
48303,0,USTexasLubbock,Texas,Lubbock,2021-01-05 08:45:52.978350,2020-10-19 00:00:00.000000,4.01485408,5.29779004,7.56860157,12468,16453,23505,6225,8951,14732,2.00461780,2.88214466,4.74373101,0.33046864,0.47048864,0.62712483
48303,0,USTexasLubbock,Texas,Lubbock,2021-01-05 08:45:52.978350,2020-10-20 00:00:00.000000,4.11486142,5.54053712,7.73491840,12779,17207,24022,6513,9267,15118,2.09712216,2.98400929,4.86807822,0.33734753,0.47141382,0.63589700
48303,0,USTexasLubbock,Texas,Lubbock,2021-01-05 08:45:52.978350,2020-10-21 00:00:00.000000,4.27327903,5.70736992,7.88290192,13271,17725,24481,6817,9565,15500,2.19527706,3.08003308,4.99094869,0.33798731,0.47735336,0.64338792
48303,0,USTexasLubbock,Texas,Lubbock,2021-01-05 08:45:52.978350,2020-10-22 00:00:00.000000,4.42111010,5.93216584,8.01511762,13730,18423,24892,7098,9874,15869,2.28576465,3.17953949,5.10972364,0.33829004,0.47650608,0.64720329
48303,0,USTexasLubbock,Texas,Lubbock,2021-01-05 08:45:52.978350,2020-10-23 00:00:00.000000,4.58325272,6.10091555,8.13642202,14234,18947,25269,7298,10239,16218,2.34999259,3.29702990,5.22216153,0.33824537,0.48111197,0.64321206
48303,0,USTexasLubbock,Texas,Lubbock,2021-01-05 08:45:52.978350,2020-10-24 00:00:00.000000,4.75592616,6.32032768,8.28861286,14770,19628,25741,7439,10626,16542,2.39559727,3.42146903,5.32653487,0.33884544,0.48860357,0.65048144
48303,0,USTexasLubbock,Texas,Lubbock,2021-01-05 08:45:52.978350,2020-10-25 00:00:00.000000,4.94644769,6.56624519,8.49561264,15362,20392,26384,7632,10957,16838,2.45755062,3.52825590,5.42166658,0.33973367,0.49390718,0.65109647
48303,0,USTexasLubbock,Texas,Lubbock,2021-01-05 08:45:52.978350,2020-10-26 00:00:00.000000,5.15196417,6.77022539,8.70126641,16000,21026,27023,7871,11323,17102,2.53448667,3.64613077,5.50692346,0.34100603,0.49216401,0.66948053
48303,0,USTexasLubbock,Texas,Lubbock,2021-01-05 08:45:52.978350,2020-10-27 00:00:00.000000,5.37688578,6.96312400,8.87324523,16698,21625,27557,8143,11612,17335,2.62215975,3.73903898,5.58187309,0.34061585,0.49004992,0.67930236
48303,0,USTexasLubbock,Texas,Lubbock,2021-01-05 08:45:52.978350,2020-10-28 00:00:00.000000,5.60046737,7.10221157,9.11759498,17393,22057,28316,8437,11869,17536,2.71684483,3.82185627,5.64669098,0.34217940,0.48812391,0.69358877
48303,0,USTexasLubbock,Texas,Lubbock,2021-01-05 08:45:52.978350,2020-10-29 00:00:00.000000,5.80965933,7.30599368,9.32378755,18043,22690,28956,8708,12112,17707,2.80395260,3.89997981,5.70173527,0.34541702,0.48331692,0.66773775
48303,0,USTexasLubbock,Texas,Lubbock,2021-01-05 08:45:52.978350,2020-10-30 00:00:00.000000,5.89427381,7.46943281,9.52876576,18305,23197,29593,8827,12483,17995,2.84229126,4.01967860,5.79427446,0.34517780,0.47923869,0.66093821
48303,0,USTexasLubbock,Texas,Lubbock,2021-01-05 08:45:52.978350,2020-10-31 00:00:00.000000,5.97552361,7.62797374,9.73318899,18558,23690,30228,8936,12940,18406,2.87741014,4.16679614,5.92654908,0.34695210,0.48262395,0.63867215
48303,0,USTexasLubbock,Texas,Lubbock,2021-01-05 08:45:52.978350,2020-11-01 00:00:00.000000,6.05170639,7.76603541,9.93555970,18794,24118,30856,9083,13248,18818,2.92493507,4.26586526,6.05922884,0.34288932,0.48163886,0.61942137
48303,0,USTexasLubbock,Texas,Lubbock,2021-01-05 08:45:52.978350,2020-11-02 00:00:00.000000,6.12165193,7.97092718,10.09377002,19011,24755,31348,9289,13593,19230,2.99124803,4.37693892,6.19190597,0.34057146,0.48222858,0.61693591
48303,0,USTexasLubbock,Texas,Lubbock,2021-01-05 08:45:52.978350,2020-11-03 00:00:00.000000,6.18520693,8.13882129,10.32236556,19209,25276,32058,9481,14025,19641,3.05289889,4.51595433,6.32440505,0.33963707,0.48253908,0.61504370
48303,0,USTexasLubbock,Texas,Lubbock,2021-01-05 08:45:52.978350,2020-11-04 00:00:00.000000,6.24256204,8.31974356,10.54091369,19387,25838,32736,9653,14408,20158,3.10827523,4.63935653,6.49067377,0.34006169,0.48101096,0.61434585
48303,0,USTexasLubbock,Texas,Lubbock,2021-01-05 08:45:52.978350,2020-11-05 00:00:00.000000,6.29532766,8.50834519,10.74421442,19551,26424,33368,9809,14722,20839,3.15855093,4.74056743,6.71002173,0.34492851,0.47919587,0.60968554
48303,0,USTexasLubbock,Texas,Lubbock,2021-01-05 08:45:52.978350,2020-11-06 00:00:00.000000,6.34885108,8.63215449,10.94741169,19717,26808,33999,9958,15026,21526,3.20639219,4.83823084,6.93126528,0.33397509,0.48338623,0.59831444
48303,0,USTexasLubbock,Texas,Lubbock,2021-01-05 08:45:52.978350,2020-11-07 00:00:00.000000,6.40898052,8.81832793,11.14944978,19904,27386,34626,10114,15241,22230,3.25679199,4.90759940,7.15787851,0.33224338,0.48986334,0.60195748
48303,0,USTexasLubbock,Texas,Lubbock,2021-01-05 08:45:52.978350,2020-11-08 00:00:00.000000,6.49962371,8.98604634,11.34825060,20185,27907,35244,10302,15466,22956,3.31729152,4.97992201,7.39164038,0.33208807,0.49547891,0.60792588
48303,0,USTexasLubbock,Texas,Lubbock,2021-01-05 08:45:52.978350,2020-11-09 00:00:00.000000,6.59805817,9.10679569,11.54025097,20491,28282,35840,10540,15759,23412,3.39396688,5.07449670,7.53863536,0.33201390,0.50440990,0.60822935
48303,0,USTexasLubbock,Texas,Lubbock,2021-01-05 08:45:52.978350,2020-11-10 00:00:00.000000,6.69735648,9.20892627,11.72348708,20799,28600,36409,10830,16030,23498,3.48735499,5.16172936,7.56630482,0.33203008,0.50784541,0.61182541
48303,0,USTexasLubbock,Texas,Lubbock,2021-01-05 08:45:52.978350,2020-11-11 00:00:00.000000,6.78971893,9.27995632,11.89514647,21086,28820,36942,11160,16259,23526,3.59353828,5.23539786,7.57523905,0.33208350,0.50546928,0.60922226
48303,0,USTexasLubbock,Texas,Lubbock,2021-01-05 08:45:52.978350,2020-11-12 00:00:00.000000,6.87014538,9.36122887,12.09413596,21336,29073,37560,11515,16513,23518,3.70797040,5.31717079,7.57277570,0.33411462,0.50143996,0.60964251
48303,0,USTexasLubbock,Texas,Lubbock,2021-01-05 08:45:52.978350,2020-11-13 00:00:00.000000,6.94760037,9.41033119,12.25564413,21577,29225,38062,11884,16708,23966,3.82654191,5.37986364,7.71699913,0.32401800,0.49838303,0.62145576
48303,0,USTexasLubbock,Texas,Lubbock,2021-01-05 08:45:52.978350,2020-11-14 00:00:00.000000,7.04837796,9.43570526,12.43613758,21890,29304,38622,12142,16864,24511,3.90976283,5.43014913,7.89253136,0.31448381,0.49409827,0.62814807
48303,0,USTexasLubbock,Texas,Lubbock,2021-01-05 08:45:52.978350,2020-11-15 00:00:00.000000,7.13925072,9.44132539,12.59137304,22172,29321,39104,12194,16959,25036,3.92640066,5.46067734,8.06150310,0.31185594,0.48734764,0.62704366
48303,0,USTexasLubbock,Texas,Lubbock,2021-01-05 08:45:52.978350,2020-11-16 00:00:00.000000,7.21932644,9.43058050,12.59305402,22420,29288,39110,12231,17048,25530,3.93844006,5.48928030,8.22047973,0.30893364,0.48892611,0.62815378
48303,0,USTexasLubbock,Texas,Lubbock,2021-01-05 08:45:52.978350,2020-11-17 00:00:00.000000,7.29004716,9.45007339,12.64335946,22640,29348,39266,12188,17113,25977,3.92469629,5.51043587,8.36447464,0.29835164,0.48646838,0.62659761
48303,0,USTexasLubbock,Texas,Lubbock,2021-01-05 08:45:52.978350,2020-11-18 00:00:00.000000,7.35266240,9.46285481,12.69666519,22835,29388,39431,12142,17241,26351,3.90983606,5.55162806,8.48490623,0.30445188,0.48387554,0.62829748
48303,0,USTexasLubbock,Texas,Lubbock,2021-01-05 08:45:52.978350,2020-11-19 00:00:00.000000,7.34161699,9.37656076,12.72499513,22800,29120,39519,12105,17318,26619,3.89795342,5.57635230,8.57111192,0.30587343,0.48967869,0.61303082
48303,0,USTexasLubbock,Texas,Lubbock,2021-01-05 08:45:52.978350,2020-11-20 00:00:00.000000,7.29433138,9.32247901,12.75510401,22653,28952,39613,12233,17266,26759,3.93918530,5.55957942,8.61631542,0.30225501,0.48967842,0.61413107
48303,0,USTexasLubbock,Texas,Lubbock,2021-01-05 08:45:52.978350,2020-11-21 00:00:00.000000,7.22542435,9.28396365,12.73588080,22439,28833,39553,12147,17179,26771,3.91150859,5.53159859,8.62023567,0.29728766,0.48523083,0.60630740
48303,0,USTexasLubbock,Texas,Lubbock,2021-01-05 08:45:52.978350,2020-11-22 00:00:00.000000,7.13608469,9.23377137,12.62931707,22162,28677,39222,12068,17056,26633,3.88602006,5.49200888,8.57579390,0.29117837,0.47469466,0.60106284
48303,0,USTexasLubbock,Texas,Lubbock,2021-01-05 08:45:52.978350,2020-11-23 00:00:00.000000,7.03821980,9.11829695,12.47326552,21858,28318,38738,11975,17030,26310,3.85607858,5.48359849,8.47181140,0.28987298,0.47413731,0.59245677
48303,0,USTexasLubbock,Texas,Lubbock,2021-01-05 08:45:52.978350,2020-11-24 00:00:00.000000,6.97028633,8.97293784,12.43322032,21647,27867,38613,11855,16842,25850,3.81750520,5.42296844,8.32357634,0.29035438,0.47013269,0.59683639
48303,0,USTexasLubbock,Texas,Lubbock,2021-01-05 08:45:52.978350,2020-11-25 00:00:00.000000,6.88123537,8.81752348,12.51035331,21370,27384,38853,11715,16618,25305,3.77222802,5.35101824,8.14795686,0.29231453,0.46766044,0.59898554
48303,0,USTexasLubbock,Texas,Lubbock,2021-01-05 08:45:52.978350,2020-11-26 00:00:00.000000,6.78483859,8.70248875,12.52257254,21071,27027,38891,11560,16405,24919,3.72233790,5.28236224,8.02395946,0.29839799,0.46412262,0.59969473
48303,0,USTexasLubbock,Texas,Lubbock,2021-01-05 08:45:52.978350,2020-11-27 00:00:00.000000,6.68301145,8.53954077,12.45156321,20755,26521,38670,11421,16280,25088,3.67744946,5.24214436,8.07814296,0.29717331,0.45398665,0.60013988
48303,0,USTexasLubbock,Texas,Lubbock,2021-01-05 08:45:52.978350,2020-11-28 00:00:00.000000,6.57648198,8.35781415,12.31908001,20424,25956,38259,11242,16018,25241,3.62003634,5.15788713,8.12745610,0.29433694,0.45225570,0.60388398
48303,0,USTexasLubbock,Texas,Lubbock,2021-01-05 08:45:52.978350,2020-11-29 00:00:00.000000,6.43779120,8.23610889,12.15478181,19993,25578,37748,11063,15875,25292,3.56229434,5.11165845,8.14394792,0.30218286,0.45959862,0.62781308
48303,0,USTexasLubbock,Texas,Lubbock,2021-01-05 08:45:52.978350,2020-11-30 00:00:00.000000,6.21900103,8.12219722,11.97387866,19314,25225,37187,10903,15615,24805,3.51085384,5.02818665,7.98713919,0.31003734,0.45991168,0.64863590
48303,0,USTexasLubbock,Texas,Lubbock,2021-01-05 08:45:52.978350,2020-12-01 00:00:00.000000,6.03896126,7.95277538,11.77676837,18755,24698,36574,10683,15230,24364,3.43992271,4.90408628,7.84521447,0.30454021,0.46647314,0.68177026
48303,0,USTexasLubbock,Texas,Lubbock,2021-01-05 08:45:52.978350,2020-12-02 00:00:00.000000,5.96448322,7.80617015,11.58162174,18523,24243,35968,10517,14907,24073,3.38662175,4.80011366,7.75141719,0.30087070,0.47370292,0.68249233
48303,0,USTexasLubbock,Texas,Lubbock,2021-01-05 08:45:52.978350,2020-12-03 00:00:00.000000,5.90851034,7.69437032,11.37446302,18350,23896,35325,10374,14684,23749,3.34050385,4.72809647,7.64714543,0.29893204,0.49034470,0.76764664
48303,0,USTexasLubbock,Texas,Lubbock,2021-01-05 08:45:52.978350,2020-12-04 00:00:00.000000,5.86101196,7.57631519,11.16206638,18202,23529,34665,10179,14474,23457,3.27754918,4.66050092,7.55306266,0.30153751,0.50135886,0.78529268
48303,0,USTexasLubbock,Texas,Lubbock,2021-01-05 08:45:52.978350,2020-12-05 00:00:00.000000,5.72838942,7.44901251,10.91602810,17790,23134,33901,9977,14322,23269,3.21254955,4.61182868,7.49257269,0.31161150,0.51487766,0.80477671
48303,0,USTexasLubbock,Texas,Lubbock,2021-01-05 08:45:52.978350,2020-12-06 00:00:00.000000,5.60639703,7.38577591,10.67840130,17411,22937,33163,9778,14102,22892,3.14847706,4.54088234,7.37113210,0.32590748,0.54341247,0.84329872
48303,0,USTexasLubbock,Texas,Lubbock,2021-01-05 08:45:52.978350,2020-12-07 00:00:00.000000,5.53476598,7.37974305,10.48349468,17189,22919,32558,9589,13887,22418,3.08756483,4.47178183,7.21865653,0.32833664,0.55921096,0.87027449
48303,0,USTexasLubbock,Texas,Lubbock,2021-01-05 08:45:52.978350,2020-12-08 00:00:00.000000,5.43947552,7.34235912,10.34229815,16893,22803,32119,9409,13691,22068,3.02974775,4.40839938,7.10586003,0.33627903,0.56312528,0.87725433
48303,0,USTexasLubbock,Texas,Lubbock,2021-01-05 08:45:52.978350,2020-12-09 00:00:00.000000,5.33998474,7.29846280,10.24400653,16584,22666,31814,9234,13460,21798,2.97332418,4.33400768,7.01882992,0.34833604,0.58662722,0.88790840
48303,0,USTexasLubbock,Texas,Lubbock,2021-01-05 08:45:52.978350,2020-12-10 00:00:00.000000,5.28792579,7.25154706,10.21490683,16422,22521,31724,9092,13258,21531,2.92762199,4.26900559,6.93289025,0.35695658,0.61004077,0.90423539
48303,0,USTexasLubbock,Texas,Lubbock,2021-01-05 08:45:52.978350,2020-12-11 00:00:00.000000,5.25549144,7.22137911,10.18445134,16321,22427,31629,9071,13157,21255,2.92088496,4.23649067,6.84393909,0.35830801,0.62092104,0.92311526
48303,0,USTexasLubbock,Texas,Lubbock,2021-01-05 08:45:52.978350,2020-12-12 00:00:00.000000,5.26342119,7.18767102,10.05050153,16346,22322,31213,9055,13101,20959,2.91565020,4.21849526,6.74880434,0.35915231,0.64340849,0.97562752
48303,0,USTexasLubbock,Texas,Lubbock,2021-01-05 08:45:52.978350,2020-12-13 00:00:00.000000,5.21520635,7.16770112,10.01275060,16196,22260,31096,9037,13070,20905,2.91011599,4.20851542,6.73123812,0.36710174,0.68470573,0.99299984
48303,0,USTexasLubbock,Texas,Lubbock,2021-01-05 08:45:52.978350,2020-12-14 00:00:00.000000,5.16373813,7.10926562,9.97099744,16036,22079,30966,8999,13058,20943,2.89787386,4.20456881,6.74356847,0.37757931,0.69781359,1.01021766
48303,0,USTexasLubbock,Texas,Lubbock,2021-01-05 08:45:52.978350,2020-12-15 00:00:00.000000,5.15379443,7.03720573,9.92523666,16006,21855,30824,8894,13035,21010,2.86407141,4.19717276,6.76524163,0.37897799,0.70387126,1.08085293
48303,0,USTexasLubbock,Texas,Lubbock,2021-01-05 08:45:52.978350,2020-12-16 00:00:00.000000,5.15649972,6.98597152,9.88193565,16014,21696,30690,8856,13002,20765,2.85168940,4.18659941,6.68623952,0.37933749,0.70793324,1.14328764
48303,0,USTexasLubbock,Texas,Lubbock,2021-01-05 08:45:52.978350,2020-12-17 00:00:00.000000,5.15463380,6.92806107,9.85506858,16008,21516,30606,8856,12975,20489,2.85160018,4.17805202,6.59738152,0.37892677,0.71844673,1.18216643
48303,0,USTexasLubbock,Texas,Lubbock,2021-01-05 08:45:52.978350,2020-12-18 00:00:00.000000,5.11468837,6.86467543,9.85501138,15884,21319,30606,8788,12813,20274,2.82986743,4.12594272,6.52802291,0.37317899,0.72980832,1.19301818
48303,0,USTexasLubbock,Texas,Lubbock,2021-01-05 08:45:52.978350,2020-12-19 00:00:00.000000,5.07606587,6.82179748,9.88255243,15764,21186,30692,8723,12629,20258,2.80892005,4.06647805,6.52301666,0.38480141,0.72625916,1.21021961
48303,0,USTexasLubbock,Texas,Lubbock,2021-01-05 08:45:52.978350,2020-12-20 00:00:00.000000,5.04533809,6.77549910,9.90356738,15669,21042,30757,8672,12532,20302,2.79238874,4.03530643,6.53728796,0.37696293,0.73124264,1.25149068
48303,0,USTexasLubbock,Texas,Lubbock,2021-01-05 08:45:52.978350,2020-12-21 00:00:00.000000,5.03001741,6.66487323,9.92268987,15621,20699,30816,8600,12409,20359,2.76928901,3.99562195,6.55556192,0.37037135,0.73393189,1.26239303
48303,0,USTexasLubbock,Texas,Lubbock,2021-01-05 08:45:52.978350,2020-12-22 00:00:00.000000,5.03245568,6.55186428,9.92072807,15629,20348,30810,8558,12283,20407,2.75562285,3.95509000,6.57088817,0.36522630,0.73619211,1.26778287
48303,0,USTexasLubbock,Texas,Lubbock,2021-01-05 08:45:52.978350,2020-12-23 00:00:00.000000,5.04615442,6.45188396,9.89736125,15671,20037,30738,8491,12142,20432,2.73422267,3.90961861,6.57897799,0.36545596,0.73671211,1.26843152
48303,0,USTexasLubbock,Texas,Lubbock,2021-01-05 08:45:52.978350,2020-12-24 00:00:00.000000,5.05746080,6.33215867,9.85266520,15706,19665,30599,8409,11984,20425,2.70775441,3.85883602,6.57683012,0.36765782,0.73727257,1.32230357
48303,0,USTexasLubbock,Texas,Lubbock,2021-01-05 08:45:52.978350,2020-12-25 00:00:00.000000,5.04552623,6.22015503,9.78691439,15669,19317,30395,8325,11809,20308,2.68057880,3.80268912,6.53915649,0.36717868,0.74884220,1.32269814
48303,0,USTexasLubbock,Texas,Lubbock,2021-01-05 08:45:52.978350,2020-12-26 00:00:00.000000,4.97893361,6.12536911,9.69924139,15463,19023,30122,8242,11619,20264,2.65393379,3.74132053,6.52483147,0.36313970,0.75290634,1.36755463
48303,0,USTexasLubbock,Texas,Lubbock,2021-01-05 08:45:52.978350,2020-12-27 00:00:00.000000,4.89316763,6.07042810,9.59265192,15196,18852,29791,8159,11456,20133,2.62714784,3.68900944,6.48278555,0.35942060,0.76563884,1.44797608
48303,0,USTexasLubbock,Texas,Lubbock,2021-01-05 08:45:52.978350,2020-12-28 00:00:00.000000,4.73100423,5.98872542,9.46754831,14693,18599,29403,8072,11242,19933,2.59924589,3.61990496,6.41830806,0.35833059,0.78969974,1.49161289
48303,0,USTexasLubbock,Texas,Lubbock,2021-01-05 08:45:52.978350,2020-12-29 00:00:00.000000,4.52417042,5.89549907,9.32500134,14050,18309,28960,7949,11035,19836,2.55969196,3.55317065,6.38724418,0.35814819,0.80304958,1.50926865
48303,0,USTexasLubbock,Texas,Lubbock,2021-01-05 08:45:52.978350,2020-12-30 00:00:00.000000,4.31917135,5.78790098,9.16627945,13414,17975,28467,7787,10809,19607,2.50751815,3.48057950,6.31339948,0.35813252,0.80856442,1.51454683
48303,0,USTexasLubbock,Texas,Lubbock,2021-01-05 08:45:52.978350,2020-12-31 00:00:00.000000,4.11778235,5.70722592,8.99274193,12788,17724,27928,7616,10702,19339,2.45255249,3.44624255,6.22727941,0.37209053,0.81386687,1.51102944
48303,0,USTexasLubbock,Texas,Lubbock,2021-01-05 08:45:52.978350,2021-01-01 00:00:00.000000,3.93899545,5.60575163,8.80581459,12233,17409,27348,7439,10499,19038,2.39539024,3.38076848,6.13032952,0.35811286,0.82503316,1.51590577
48303,0,USTexasLubbock,Texas,Lubbock,2021-01-05 08:45:52.978350,2021-01-02 00:00:00.000000,3.83593486,5.47087566,8.60696420,11913,16990,26730,7256,10303,18706,2.33657032,3.31766891,6.02331118,0.35887516,0.83791701,1.54752243
48303,0,USTexasLubbock,Texas,Lubbock,2021-01-05 08:45:52.978350,2021-01-03 00:00:00.000000,3.72023177,5.34870480,8.39767511,11553,16611,26080,7032,10141,18345,2.26432856,3.26550088,5.90705972,0.36204139,0.82382789,1.55203566
48303,0,USTexasLubbock,Texas,Lubbock,2021-01-05 08:45:52.978350,2021-01-04 00:00:00.000000,3.59793878,5.22296314,8.27411600,11174,16220,25696,6765,10013,17958,2.17846124,3.22438100,5.78246125,0.36827634,0.84532663,1.55262508
48303,0,USTexasLubbock,Texas,Lubbock,2021-01-05 08:45:52.978350,2021-01-05 00:00:00.000000,3.43408672,5.05595223,8.25503459,10665,15702,25637,6503,9826,17548,2.09396126,3.16397616,5.65043305,0.37929129,0.84572455,1.55274813
48303,0,USTexasLubbock,Texas,Lubbock,2021-01-05 08:45:52.978350,2021-01-06 00:00:00.000000,3.27575945,4.90414329,8.25793693,10173,15230,25646,6237,9658,17118,2.00837124,3.10991336,5.51190672,0.38956339,0.83964089,1.55279021
48303,0,USTexasLubbock,Texas,Lubbock,2021-01-05 08:45:52.978350,2021-01-07 00:00:00.000000,3.15789167,4.76519362,8.17541361,9807,14799,25390,5962,9482,16891,1.91999939,3.05322941,5.43884225,0.39562663,0.83174363,1.55280798
48303,0,USTexasLubbock,Texas,Lubbock,2021-01-05 08:45:52.978350,2021-01-08 00:00:00.000000,3.04171923,4.60350944,8.08446032,9446,14297,25107,5724,9326,16980,1.84324080,3.00312963,5.46761076,0.39830062,0.82874412,1.55281592
48303,0,USTexasLubbock,Texas,Lubbock,2021-01-05 08:45:52.978350,2021-01-09 00:00:00.000000,2.91022231,4.47548330,7.92126426,9038,13899,24600,5473,9061,16905,1.76236096,2.91766702,5.44331213,0.39932809,0.82681022,1.55281951
48303,0,USTexasLubbock,Texas,Lubbock,2021-01-05 08:45:52.978350,2021-01-10 00:00:00.000000,2.76722807,4.37815862,7.92082441,8594,13597,24599,5188,8740,16657,1.67072509,2.81428514,5.36359633,0.39970259,0.82562533,1.55282114
48303,0,USTexasLubbock,Texas,Lubbock,2021-01-05 08:45:52.978350,2021-01-11 00:00:00.000000,2.62054069,4.24150680,7.89255162,8138,13172,24511,4887,8451,16236,1.57364511,2.72117396,5.22806318,0.39983702,0.82525246,1.55282188
48303,0,USTexasLubbock,Texas,Lubbock,2021-01-05 08:45:52.978350,2021-01-12 00:00:00.000000,2.46245833,4.10252223,7.85927950,7647,12741,24408,4599,8129,16273,1.48101318,2.61754691,5.23983585,0.39988541,0.82519233,1.55282222
48303,0,USTexasLubbock,Texas,Lubbock,2021-01-05 08:45:52.978350,2021-01-13 00:00:00.000000,2.31289271,3.98707342,7.81261044,7183,12382,24263,4342,7812,16288,1.39838081,2.51543714,5.24466451,0.39990311,0.82516752,1.55282237
48303,0,USTexasLubbock,Texas,Lubbock,2021-01-05 08:45:52.978350,2021-01-14 00:00:00.000000,2.17155176,3.85176330,7.75294922,6744,11962,24078,4100,7523,16280,1.32039764,2.42235659,5.24225481,0.39990978,0.82515730,1.55282245
48303,0,USTexasLubbock,Texas,Lubbock,2021-01-05 08:45:52.978350,2021-01-15 00:00:00.000000,2.03811591,3.73293562,7.69865444,6329,11593,23909,3870,7242,16250,1.24611314,2.33195687,5.23244075,0.39991243,0.82515309,1.55282248
48303,0,USTexasLubbock,Texas,Lubbock,2021-01-05 08:45:52.978350,2021-01-16 00:00:00.000000,1.91225080,3.61491142,7.64141024,5938,11226,23731,3650,6992,16196,1.17544522,2.25142835,5.21516423,0.39991357,0.82515137,1.55282249
48303,0,USTexasLubbock,Texas,Lubbock,2021-01-05 08:45:52.978350,2021-01-17 00:00:00.000000,1.79361588,3.49834378,7.57178414,5570,10864,23515,3442,6742,16119,1.10829518,2.17095546,5.19045816,0.39991411,0.82515066,1.55282250
