FIPS,HR_UID,nameid,province,region,analysisTime,dates,pointprevalence_025,pointprevalence_50,pointprevalence_975,pointinfections_025,pointinfections_50,pointinfections_975,pointinfectious_025,pointinfectious_50,pointinfectious_975,pointinfectiousprevalence_05,pointinfectiousprevalence_50,pointinfectiousprevalence_95,infectrate_025,infectrate_50,infectrate_975
27095,0,USMinnesotaMilleLacs,Minnesota,Mille Lacs,2021-01-05 18:29:05.882010,2020-03-09 00:00:00.000000,0.00119182,0.01023501,0.04118649,0,2,10,0,1,5,0.00061171,0.00547406,0.02219807,0.38088792,0.51050722,0.74855764
27095,0,USMinnesotaMilleLacs,Minnesota,Mille Lacs,2021-01-05 18:29:05.882010,2020-03-10 00:00:00.000000,0.00128217,0.01163089,0.04369570,0,3,11,0,1,5,0.00060469,0.00517428,0.02205838,0.38088494,0.51049913,0.74855763
27095,0,USMinnesotaMilleLacs,Minnesota,Mille Lacs,2021-01-05 18:29:05.882010,2020-03-11 00:00:00.000000,0.00143622,0.01274447,0.04604646,0,3,12,0,1,5,0.00062701,0.00523274,0.02237901,0.38087976,0.51047633,0.74855760
27095,0,USMinnesotaMilleLacs,Minnesota,Mille Lacs,2021-01-05 18:29:05.882010,2020-03-12 00:00:00.000000,0.00151545,0.01388459,0.04853930,0,3,12,0,1,6,0.00066976,0.00562020,0.02302199,0.38087080,0.51042074,0.74855748
27095,0,USMinnesotaMilleLacs,Minnesota,Mille Lacs,2021-01-05 18:29:05.882010,2020-03-13 00:00:00.000000,0.00160905,0.01519783,0.05118858,0,3,13,0,1,6,0.00072756,0.00613368,0.02390099,0.38085531,0.51029390,0.74855682
27095,0,USMinnesotaMilleLacs,Minnesota,Mille Lacs,2021-01-05 18:29:05.882010,2020-03-14 00:00:00.000000,0.00176434,0.01620312,0.05400529,0,4,14,0,1,6,0.00077430,0.00663402,0.02496235,0.38082868,0.51001467,0.74855335
27095,0,USMinnesotaMilleLacs,Minnesota,Mille Lacs,2021-01-05 18:29:05.882010,2020-03-15 00:00:00.000000,0.00192724,0.01707710,0.05699797,0,4,14,0,1,6,0.00085221,0.00703892,0.02617309,0.38078322,0.50897989,0.74853505
27095,0,USMinnesotaMilleLacs,Minnesota,Mille Lacs,2021-01-05 18:29:05.882010,2020-03-16 00:00:00.000000,0.00207620,0.01827441,0.06017286,0,4,15,0,1,7,0.00094172,0.00749735,0.02751331,0.38070600,0.50747171,0.74843821
27095,0,USMinnesotaMilleLacs,Minnesota,Mille Lacs,2021-01-05 18:29:05.882010,2020-03-17 00:00:00.000000,0.00222352,0.02010448,0.06353316,0,5,16,0,2,7,0.00103343,0.00812806,0.02897120,0.37263003,0.50197276,0.74792636
27095,0,USMinnesotaMilleLacs,Minnesota,Mille Lacs,2021-01-05 18:29:05.882010,2020-03-18 00:00:00.000000,0.00238049,0.02214580,0.06698026,0,5,17,0,2,8,0.00110978,0.00885653,0.03053969,0.35547192,0.49648747,0.74524442
27095,0,USMinnesotaMilleLacs,Minnesota,Mille Lacs,2021-01-05 18:29:05.882010,2020-03-19 00:00:00.000000,0.00254756,0.02362993,0.06988743,0,6,18,0,2,8,0.00119083,0.00966520,0.03221394,0.33531374,0.48770919,0.73182817
27095,0,USMinnesotaMilleLacs,Minnesota,Mille Lacs,2021-01-05 18:29:05.882010,2020-03-20 00:00:00.000000,0.00272445,0.02532934,0.07264738,0,6,19,0,2,8,0.00127684,0.01072705,0.03398907,0.31114426,0.46056830,0.69200784
27095,0,USMinnesotaMilleLacs,Minnesota,Mille Lacs,2021-01-05 18:29:05.882010,2020-03-21 00:00:00.000000,0.00290887,0.02802549,0.07641963,0,7,20,0,3,9,0.00136795,0.01159967,0.03585750,0.29619263,0.42833232,0.66094954
27095,0,USMinnesotaMilleLacs,Minnesota,Mille Lacs,2021-01-05 18:29:05.882010,2020-03-22 00:00:00.000000,0.00309348,0.02957558,0.08001024,0,7,21,0,3,9,0.00146379,0.01238100,0.03777818,0.29024955,0.40581360,0.62497917
27095,0,USMinnesotaMilleLacs,Minnesota,Mille Lacs,2021-01-05 18:29:05.882010,2020-03-23 00:00:00.000000,0.00326314,0.03120771,0.08338927,0,8,21,0,3,10,0.00156262,0.01306406,0.03933306,0.27640228,0.37567191,0.59831737
27095,0,USMinnesotaMilleLacs,Minnesota,Mille Lacs,2021-01-05 18:29:05.882010,2020-03-24 00:00:00.000000,0.00339721,0.03256027,0.08671169,0,8,22,0,3,10,0.00166016,0.01373263,0.04107162,0.26607814,0.35895110,0.57506174
27095,0,USMinnesotaMilleLacs,Minnesota,Mille Lacs,2021-01-05 18:29:05.882010,2020-03-25 00:00:00.000000,0.00348704,0.03394508,0.09008505,0,8,23,0,3,11,0.00174939,0.01433846,0.04331976,0.24896814,0.34854430,0.55530447
27095,0,USMinnesotaMilleLacs,Minnesota,Mille Lacs,2021-01-05 18:29:05.882010,2020-03-26 00:00:00.000000,0.00354092,0.03538457,0.09356607,0,9,24,0,3,11,0.00182404,0.01501760,0.04532843,0.24069617,0.33769538,0.55110032
27095,0,USMinnesotaMilleLacs,Minnesota,Mille Lacs,2021-01-05 18:29:05.882010,2020-03-27 00:00:00.000000,0.00357041,0.03639715,0.09607414,0,9,25,0,4,12,0.00188193,0.01578161,0.04682509,0.22882410,0.32571050,0.54270513
27095,0,USMinnesotaMilleLacs,Minnesota,Mille Lacs,2021-01-05 18:29:05.882010,2020-03-28 00:00:00.000000,0.00355694,0.03750786,0.09788618,0,9,25,0,4,12,0.00192419,0.01654921,0.04815232,0.21724795,0.31860761,0.49565271
27095,0,USMinnesotaMilleLacs,Minnesota,Mille Lacs,2021-01-05 18:29:05.882010,2020-03-29 00:00:00.000000,0.00353304,0.03896388,0.09958724,0,10,26,0,4,12,0.00194588,0.01732380,0.04933806,0.20743783,0.29579450,0.43426882
27095,0,USMinnesotaMilleLacs,Minnesota,Mille Lacs,2021-01-05 18:29:05.882010,2020-03-30 00:00:00.000000,0.00917762,0.04441276,0.10729940,2,11,28,0,4,13,0.00193857,0.01810832,0.05033904,0.20036485,0.28981601,0.43048782
27095,0,USMinnesotaMilleLacs,Minnesota,Mille Lacs,2021-01-05 18:29:05.882010,2020-03-31 00:00:00.000000,0.01175386,0.05022362,0.11389782,3,13,29,0,5,13,0.00333580,0.01965095,0.05139402,0.19655826,0.28061978,0.42676849
27095,0,USMinnesotaMilleLacs,Minnesota,Mille Lacs,2021-01-05 18:29:05.882010,2020-04-01 00:00:00.000000,0.01585630,0.05521132,0.12298192,4,14,32,1,5,13,0.00439816,0.02177399,0.05287773,0.19280879,0.27453164,0.41385305
27095,0,USMinnesotaMilleLacs,Minnesota,Mille Lacs,2021-01-05 18:29:05.882010,2020-04-02 00:00:00.000000,0.02042900,0.06214813,0.13102414,5,16,34,1,6,14,0.00536440,0.02519608,0.05678134,0.18279982,0.27019024,0.40314479
27095,0,USMinnesotaMilleLacs,Minnesota,Mille Lacs,2021-01-05 18:29:05.882010,2020-04-03 00:00:00.000000,0.02499221,0.06799417,0.13909924,6,17,36,1,7,16,0.00680339,0.02826983,0.06118402,0.18383770,0.25908638,0.39798546
27095,0,USMinnesotaMilleLacs,Minnesota,Mille Lacs,2021-01-05 18:29:05.882010,2020-04-04 00:00:00.000000,0.02755759,0.07382617,0.14901544,7,19,39,2,8,17,0.00882929,0.03113122,0.06675117,0.15953584,0.24306113,0.38017377
27095,0,USMinnesotaMilleLacs,Minnesota,Mille Lacs,2021-01-05 18:29:05.882010,2020-04-05 00:00:00.000000,0.03162523,0.07999801,0.15864287,8,21,41,2,9,19,0.01095807,0.03428146,0.07515888,0.15874358,0.23116229,0.36697210
27095,0,USMinnesotaMilleLacs,Minnesota,Mille Lacs,2021-01-05 18:29:05.882010,2020-04-06 00:00:00.000000,0.03788043,0.08891720,0.16828634,9,23,44,3,9,21,0.01314559,0.03798737,0.08146267,0.15859314,0.22614378,0.34941195
27095,0,USMinnesotaMilleLacs,Minnesota,Mille Lacs,2021-01-05 18:29:05.882010,2020-04-07 00:00:00.000000,0.04093334,0.09725580,0.17768325,10,25,46,4,10,23,0.01560658,0.04142196,0.08809973,0.15490854,0.21854041,0.33716751
27095,0,USMinnesotaMilleLacs,Minnesota,Mille Lacs,2021-01-05 18:29:05.882010,2020-04-08 00:00:00.000000,0.04553684,0.10276803,0.18715334,11,27,49,4,11,24,0.01824795,0.04401865,0.09321397,0.15157449,0.21386561,0.32628270
27095,0,USMinnesotaMilleLacs,Minnesota,Mille Lacs,2021-01-05 18:29:05.882010,2020-04-09 00:00:00.000000,0.05104089,0.10711967,0.19647289,13,28,51,5,12,26,0.02100439,0.04735002,0.09981247,0.14623613,0.21283986,0.32668436
27095,0,USMinnesotaMilleLacs,Minnesota,Mille Lacs,2021-01-05 18:29:05.882010,2020-04-10 00:00:00.000000,0.05456259,0.11256209,0.21101692,14,29,55,6,13,28,0.02354468,0.05005506,0.10879363,0.13931606,0.21277597,0.31017678
27095,0,USMinnesotaMilleLacs,Minnesota,Mille Lacs,2021-01-05 18:29:05.882010,2020-04-11 00:00:00.000000,0.05893237,0.11979036,0.23908353,15,31,62,6,13,29,0.02520346,0.05198029,0.11110918,0.13152994,0.21048377,0.28494286
27095,0,USMinnesotaMilleLacs,Minnesota,Mille Lacs,2021-01-05 18:29:05.882010,2020-04-12 00:00:00.000000,0.06274922,0.12344666,0.24714351,16,32,64,7,14,29,0.02685343,0.05433989,0.11299829,0.12536278,0.20589527,0.27309624
27095,0,USMinnesotaMilleLacs,Minnesota,Mille Lacs,2021-01-05 18:29:05.882010,2020-04-13 00:00:00.000000,0.06725062,0.12865857,0.24635104,17,33,64,7,15,30,0.02840496,0.05754613,0.11458517,0.12118405,0.19794535,0.26668036
27095,0,USMinnesotaMilleLacs,Minnesota,Mille Lacs,2021-01-05 18:29:05.882010,2020-04-14 00:00:00.000000,0.07171409,0.13301087,0.25298444,18,34,66,8,15,31,0.03044974,0.05996289,0.12052893,0.11846636,0.18856871,0.26543477
27095,0,USMinnesotaMilleLacs,Minnesota,Mille Lacs,2021-01-05 18:29:05.882010,2020-04-15 00:00:00.000000,0.07615385,0.13934550,0.26212642,20,36,68,8,16,33,0.03360529,0.06431241,0.12658131,0.11662508,0.18323726,0.26502134
27095,0,USMinnesotaMilleLacs,Minnesota,Mille Lacs,2021-01-05 18:29:05.882010,2020-04-16 00:00:00.000000,0.08023236,0.14407431,0.27052873,21,37,71,9,17,33,0.03688560,0.06768837,0.12918230,0.11197014,0.17778529,0.26451919
27095,0,USMinnesotaMilleLacs,Minnesota,Mille Lacs,2021-01-05 18:29:05.882010,2020-04-17 00:00:00.000000,0.08066649,0.14956837,0.27833866,21,39,73,10,18,35,0.03969009,0.07033733,0.13566642,0.10493802,0.17365073,0.26295664
27095,0,USMinnesotaMilleLacs,Minnesota,Mille Lacs,2021-01-05 18:29:05.882010,2020-04-18 00:00:00.000000,0.08083120,0.15446062,0.28562961,21,40,75,11,19,37,0.04213607,0.07531308,0.14139846,0.10039414,0.16413506,0.26549881
27095,0,USMinnesotaMilleLacs,Minnesota,Mille Lacs,2021-01-05 18:29:05.882010,2020-04-19 00:00:00.000000,0.08086081,0.15761944,0.29245017,21,41,76,11,20,38,0.04457073,0.07901319,0.14650979,0.09746121,0.16364416,0.26053221
27095,0,USMinnesotaMilleLacs,Minnesota,Mille Lacs,2021-01-05 18:29:05.882010,2020-04-20 00:00:00.000000,0.08162342,0.16413995,0.30505139,21,43,80,12,21,39,0.04623324,0.08216219,0.15107272,0.09441114,0.16370818,0.25981490
27095,0,USMinnesotaMilleLacs,Minnesota,Mille Lacs,2021-01-05 18:29:05.882010,2020-04-21 00:00:00.000000,0.08273707,0.16836500,0.31703630,21,44,83,12,22,40,0.04661832,0.08407738,0.15531127,0.09290760,0.16452765,0.25901871
27095,0,USMinnesotaMilleLacs,Minnesota,Mille Lacs,2021-01-05 18:29:05.882010,2020-04-22 00:00:00.000000,0.08843808,0.17116012,0.32864592,23,44,86,12,22,41,0.04898551,0.08523158,0.15922741,0.08837417,0.16435951,0.25802248
27095,0,USMinnesotaMilleLacs,Minnesota,Mille Lacs,2021-01-05 18:29:05.882010,2020-04-23 00:00:00.000000,0.09419406,0.17375793,0.33043684,24,45,86,13,22,42,0.05040434,0.08707540,0.16269611,0.08459458,0.16343957,0.25636157
27095,0,USMinnesotaMilleLacs,Minnesota,Mille Lacs,2021-01-05 18:29:05.882010,2020-04-24 00:00:00.000000,0.10001102,0.17860041,0.32805135,26,46,86,13,23,43,0.05166777,0.09001699,0.16574809,0.08199253,0.15468699,0.25363224
27095,0,USMinnesotaMilleLacs,Minnesota,Mille Lacs,2021-01-05 18:29:05.882010,2020-04-25 00:00:00.000000,0.10587054,0.18330235,0.32537370,27,48,85,14,24,45,0.05334651,0.09175398,0.17199956,0.07987174,0.14996503,0.24987379
27095,0,USMinnesotaMilleLacs,Minnesota,Mille Lacs,2021-01-05 18:29:05.882010,2020-04-26 00:00:00.000000,0.11118592,0.18721599,0.34406760,29,49,90,14,24,47,0.05453345,0.09452575,0.18186085,0.07793427,0.14637830,0.23746250
27095,0,USMinnesotaMilleLacs,Minnesota,Mille Lacs,2021-01-05 18:29:05.882010,2020-04-27 00:00:00.000000,0.11525951,0.19018798,0.35987893,30,49,94,14,25,50,0.05560001,0.09676540,0.19337820,0.07661853,0.14300774,0.23242005
27095,0,USMinnesotaMilleLacs,Minnesota,Mille Lacs,2021-01-05 18:29:05.882010,2020-04-28 00:00:00.000000,0.11427772,0.19208359,0.35304749,30,50,92,14,26,52,0.05665515,0.10058134,0.20004662,0.07711574,0.14198144,0.22879624
27095,0,USMinnesotaMilleLacs,Minnesota,Mille Lacs,2021-01-05 18:29:05.882010,2020-04-29 00:00:00.000000,0.11193307,0.19628066,0.35514041,29,51,93,15,26,52,0.05804528,0.10195105,0.19912267,0.08045731,0.13974881,0.22280333
27095,0,USMinnesotaMilleLacs,Minnesota,Mille Lacs,2021-01-05 18:29:05.882010,2020-04-30 00:00:00.000000,0.10961033,0.20003691,0.36701955,28,52,96,15,27,51,0.05947174,0.10384329,0.19636539,0.08051365,0.14066876,0.21647726
27095,0,USMinnesotaMilleLacs,Minnesota,Mille Lacs,2021-01-05 18:29:05.882010,2020-05-01 00:00:00.000000,0.10726511,0.20296361,0.37806978,28,53,99,16,27,51,0.06090215,0.10458398,0.19487356,0.07866490,0.13852219,0.21282244
27095,0,USMinnesotaMilleLacs,Minnesota,Mille Lacs,2021-01-05 18:29:05.882010,2020-05-02 00:00:00.000000,0.10481449,0.20897012,0.38722952,27,54,101,16,27,52,0.06231014,0.10374130,0.19791038,0.07146137,0.13748180,0.20980081
27095,0,USMinnesotaMilleLacs,Minnesota,Mille Lacs,2021-01-05 18:29:05.882010,2020-05-03 00:00:00.000000,0.10220924,0.21376636,0.39609091,26,56,104,16,28,53,0.06268642,0.10715457,0.20365805,0.06936992,0.13373396,0.20934042
27095,0,USMinnesotaMilleLacs,Minnesota,Mille Lacs,2021-01-05 18:29:05.882010,2020-05-04 00:00:00.000000,0.11366018,0.21547746,0.39600576,29,56,104,16,29,54,0.06141749,0.11070378,0.20891870,0.06457570,0.13000423,0.20869991
27095,0,USMinnesotaMilleLacs,Minnesota,Mille Lacs,2021-01-05 18:29:05.882010,2020-05-05 00:00:00.000000,0.11735528,0.21904904,0.39570233,30,57,103,16,29,55,0.06186819,0.11206656,0.21254985,0.06441221,0.13101396,0.20739690
27095,0,USMinnesotaMilleLacs,Minnesota,Mille Lacs,2021-01-05 18:29:05.882010,2020-05-06 00:00:00.000000,0.11538401,0.22178691,0.39494214,30,58,103,16,30,56,0.06222402,0.11499213,0.21498484,0.06399790,0.13049712,0.20726124
27095,0,USMinnesotaMilleLacs,Minnesota,Mille Lacs,2021-01-05 18:29:05.882010,2020-05-07 00:00:00.000000,0.11356585,0.22943329,0.39385435,29,60,103,16,30,57,0.06414802,0.11746482,0.21750315,0.06277144,0.13075158,0.20643897
27095,0,USMinnesotaMilleLacs,Minnesota,Mille Lacs,2021-01-05 18:29:05.882010,2020-05-08 00:00:00.000000,0.11196893,0.23224505,0.39248115,29,61,103,16,31,58,0.06450511,0.11833475,0.22181161,0.05943930,0.13131929,0.20506793
27095,0,USMinnesotaMilleLacs,Minnesota,Mille Lacs,2021-01-05 18:29:05.882010,2020-05-09 00:00:00.000000,0.10969341,0.22885239,0.39060939,28,60,102,17,30,59,0.06493411,0.11790950,0.22562447,0.05766429,0.13269321,0.20215228
27095,0,USMinnesotaMilleLacs,Minnesota,Mille Lacs,2021-01-05 18:29:05.882010,2020-05-10 00:00:00.000000,0.10941636,0.22780081,0.38769602,28,59,101,16,31,60,0.06306156,0.12173176,0.22887953,0.05447968,0.13284767,0.19717329
27095,0,USMinnesotaMilleLacs,Minnesota,Mille Lacs,2021-01-05 18:29:05.882010,2020-05-11 00:00:00.000000,0.11481391,0.22908061,0.40064697,30,60,105,15,33,60,0.06051454,0.12669498,0.23163648,0.05389241,0.12999224,0.19407175
27095,0,USMinnesotaMilleLacs,Minnesota,Mille Lacs,2021-01-05 18:29:05.882010,2020-05-12 00:00:00.000000,0.12026945,0.22604872,0.41247007,31,59,108,16,33,61,0.06260437,0.12881792,0.23394756,0.05380227,0.12973989,0.20570224
27095,0,USMinnesotaMilleLacs,Minnesota,Mille Lacs,2021-01-05 18:29:05.882010,2020-05-13 00:00:00.000000,0.12587805,0.22714656,0.42404000,33,59,111,17,33,61,0.06746923,0.12883220,0.23580182,0.05378436,0.12829112,0.20978434
27095,0,USMinnesotaMilleLacs,Minnesota,Mille Lacs,2021-01-05 18:29:05.882010,2020-05-14 00:00:00.000000,0.13151888,0.22915781,0.44554162,34,60,117,17,33,62,0.06848765,0.12883260,0.23894697,0.05379451,0.12717609,0.21131535
27095,0,USMinnesotaMilleLacs,Minnesota,Mille Lacs,2021-01-05 18:29:05.882010,2020-05-15 00:00:00.000000,0.13612401,0.23422678,0.46238748,35,61,121,18,34,64,0.06957585,0.12990490,0.24508313,0.05399971,0.12485970,0.21310159
27095,0,USMinnesotaMilleLacs,Minnesota,Mille Lacs,2021-01-05 18:29:05.882010,2020-05-16 00:00:00.000000,0.13565085,0.23852440,0.47891618,35,62,125,18,34,66,0.07069199,0.12978315,0.25405182,0.05440187,0.12397939,0.21491133
27095,0,USMinnesotaMilleLacs,Minnesota,Mille Lacs,2021-01-05 18:29:05.882010,2020-05-17 00:00:00.000000,0.13321946,0.23680673,0.49507429,35,62,130,18,33,69,0.07180676,0.12751921,0.26329837,0.05623702,0.12296377,0.21619594
27095,0,USMinnesotaMilleLacs,Minnesota,Mille Lacs,2021-01-05 18:29:05.882010,2020-05-18 00:00:00.000000,0.13891526,0.23697372,0.49653526,36,62,130,19,33,71,0.07290026,0.12690700,0.27270909,0.05721430,0.12251088,0.21494564
27095,0,USMinnesotaMilleLacs,Minnesota,Mille Lacs,2021-01-05 18:29:05.882010,2020-05-19 00:00:00.000000,0.13985484,0.24482662,0.49752272,36,64,130,19,33,73,0.07423140,0.12912125,0.28021911,0.05735862,0.12075101,0.21204481
27095,0,USMinnesotaMilleLacs,Minnesota,Mille Lacs,2021-01-05 18:29:05.882010,2020-05-20 00:00:00.000000,0.13877032,0.24852100,0.49777179,36,65,130,19,33,75,0.07569539,0.12796136,0.28618026,0.05712810,0.12164299,0.20697730
27095,0,USMinnesotaMilleLacs,Minnesota,Mille Lacs,2021-01-05 18:29:05.882010,2020-05-21 00:00:00.000000,0.13782298,0.24951129,0.49726266,36,65,130,20,33,76,0.07722035,0.12736588,0.29085037,0.05669326,0.12074576,0.21121164
27095,0,USMinnesotaMilleLacs,Minnesota,Mille Lacs,2021-01-05 18:29:05.882010,2020-05-22 00:00:00.000000,0.13712728,0.25193931,0.49624235,36,66,130,20,33,77,0.07875815,0.12723827,0.29442213,0.05609137,0.12040934,0.21327636
27095,0,USMinnesotaMilleLacs,Minnesota,Mille Lacs,2021-01-05 18:29:05.882010,2020-05-23 00:00:00.000000,0.13849117,0.25383882,0.49489516,36,66,130,20,34,78,0.07924415,0.13106242,0.29707367,0.05535492,0.11922867,0.21145657
27095,0,USMinnesotaMilleLacs,Minnesota,Mille Lacs,2021-01-05 18:29:05.882010,2020-05-24 00:00:00.000000,0.13933017,0.25596000,0.49331769,36,67,129,20,35,78,0.07886451,0.13503619,0.29896670,0.05523899,0.11785320,0.20729563
27095,0,USMinnesotaMilleLacs,Minnesota,Mille Lacs,2021-01-05 18:29:05.882010,2020-05-25 00:00:00.000000,0.13982369,0.25560635,0.50286410,36,67,132,20,35,78,0.07845035,0.13590035,0.30024026,0.05467195,0.11658797,0.20497634
27095,0,USMinnesotaMilleLacs,Minnesota,Mille Lacs,2021-01-05 18:29:05.882010,2020-05-26 00:00:00.000000,0.14057152,0.25515373,0.51225217,36,67,134,20,36,79,0.07811077,0.13769325,0.30251536,0.05273097,0.11358869,0.20259785
27095,0,USMinnesotaMilleLacs,Minnesota,Mille Lacs,2021-01-05 18:29:05.882010,2020-05-27 00:00:00.000000,0.14301005,0.25390877,0.52123415,37,66,136,20,36,80,0.07782715,0.13798989,0.30556587,0.05200003,0.11242049,0.19467202
27095,0,USMinnesotaMilleLacs,Minnesota,Mille Lacs,2021-01-05 18:29:05.882010,2020-05-28 00:00:00.000000,0.14555483,0.25489113,0.51508304,38,66,135,20,36,81,0.07758562,0.13713470,0.30921056,0.05154677,0.11225275,0.19528203
27095,0,USMinnesotaMilleLacs,Minnesota,Mille Lacs,2021-01-05 18:29:05.882010,2020-05-29 00:00:00.000000,0.14551119,0.25442684,0.50892167,38,66,133,20,35,82,0.07737567,0.13631118,0.31330197,0.05125564,0.11101280,0.19422163
27095,0,USMinnesotaMilleLacs,Minnesota,Mille Lacs,2021-01-05 18:29:05.882010,2020-05-30 00:00:00.000000,0.14239406,0.25355561,0.50277247,37,66,132,20,35,83,0.07718907,0.13552451,0.31771852,0.05095590,0.11153855,0.19306136
27095,0,USMinnesotaMilleLacs,Minnesota,Mille Lacs,2021-01-05 18:29:05.882010,2020-05-31 00:00:00.000000,0.13948895,0.25117466,0.49638130,36,66,130,20,35,84,0.07750042,0.13592244,0.32235965,0.05053270,0.11170980,0.19536849
27095,0,USMinnesotaMilleLacs,Minnesota,Mille Lacs,2021-01-05 18:29:05.882010,2020-06-01 00:00:00.000000,0.13991731,0.25194147,0.48513895,36,66,127,20,35,85,0.07675978,0.13612880,0.32714338,0.04976875,0.11169081,0.19524889
27095,0,USMinnesotaMilleLacs,Minnesota,Mille Lacs,2021-01-05 18:29:05.882010,2020-06-02 00:00:00.000000,0.13723665,0.25071216,0.47399473,36,65,124,20,35,86,0.07632968,0.13553243,0.32953518,0.04835714,0.11429803,0.19785576
27095,0,USMinnesotaMilleLacs,Minnesota,Mille Lacs,2021-01-05 18:29:05.882010,2020-06-03 00:00:00.000000,0.13508943,0.24929464,0.46290533,35,65,121,20,35,85,0.07631966,0.13553130,0.32369815,0.04618979,0.11367002,0.19978925
27095,0,USMinnesotaMilleLacs,Minnesota,Mille Lacs,2021-01-05 18:29:05.882010,2020-06-04 00:00:00.000000,0.13439255,0.25095675,0.46067796,35,65,121,19,35,83,0.07600832,0.13560714,0.31736743,0.04382051,0.11393136,0.20115046
27095,0,USMinnesotaMilleLacs,Minnesota,Mille Lacs,2021-01-05 18:29:05.882010,2020-06-05 00:00:00.000000,0.13356453,0.24645418,0.46558748,35,64,122,19,35,81,0.07565885,0.13454912,0.31074078,0.04209715,0.11496026,0.20212429
27095,0,USMinnesotaMilleLacs,Minnesota,Mille Lacs,2021-01-05 18:29:05.882010,2020-06-06 00:00:00.000000,0.13172512,0.24418136,0.46910335,34,64,123,19,35,79,0.07498617,0.13355724,0.30395631,0.04133628,0.11523373,0.20716870
27095,0,USMinnesotaMilleLacs,Minnesota,Mille Lacs,2021-01-05 18:29:05.882010,2020-06-07 00:00:00.000000,0.13023089,0.24286331,0.47206434,34,63,124,19,34,78,0.07380202,0.13210580,0.29710304,0.04153645,0.11502304,0.21751733
27095,0,USMinnesotaMilleLacs,Minnesota,Mille Lacs,2021-01-05 18:29:05.882010,2020-06-08 00:00:00.000000,0.13131662,0.24011963,0.46479771,34,63,122,19,34,76,0.07274904,0.13159145,0.29022605,0.04304535,0.11548016,0.21589322
27095,0,USMinnesotaMilleLacs,Minnesota,Mille Lacs,2021-01-05 18:29:05.882010,2020-06-09 00:00:00.000000,0.13260772,0.24286604,0.45661883,34,63,119,18,34,75,0.07225969,0.13197985,0.28554908,0.04664837,0.11669493,0.21468555
27095,0,USMinnesotaMilleLacs,Minnesota,Mille Lacs,2021-01-05 18:29:05.882010,2020-06-10 00:00:00.000000,0.13094333,0.24329567,0.44738142,34,63,117,18,34,74,0.07221383,0.13282137,0.28228489,0.05072289,0.11781328,0.21526037
27095,0,USMinnesotaMilleLacs,Minnesota,Mille Lacs,2021-01-05 18:29:05.882010,2020-06-11 00:00:00.000000,0.12854588,0.24204752,0.43760990,33,63,114,19,35,73,0.07287400,0.13465951,0.27985977,0.05251550,0.12045204,0.21800148
27095,0,USMinnesotaMilleLacs,Minnesota,Mille Lacs,2021-01-05 18:29:05.882010,2020-06-12 00:00:00.000000,0.12605056,0.24661314,0.43767074,33,64,115,19,35,73,0.07284770,0.13539770,0.27792427,0.05306390,0.11746246,0.21462823
27095,0,USMinnesotaMilleLacs,Minnesota,Mille Lacs,2021-01-05 18:29:05.882010,2020-06-13 00:00:00.000000,0.12578474,0.24886600,0.44864208,33,65,117,19,35,72,0.07340915,0.13618155,0.27627349,0.05323505,0.11961334,0.21077585
27095,0,USMinnesotaMilleLacs,Minnesota,Mille Lacs,2021-01-05 18:29:05.882010,2020-06-14 00:00:00.000000,0.12771418,0.24745221,0.46088162,33,65,121,19,35,72,0.07380873,0.13583148,0.27477611,0.05329203,0.12381527,0.20731019
27095,0,USMinnesotaMilleLacs,Minnesota,Mille Lacs,2021-01-05 18:29:05.882010,2020-06-15 00:00:00.000000,0.13012612,0.25246260,0.45838501,34,66,120,19,35,71,0.07362987,0.13477073,0.27335060,0.05331205,0.12415239,0.20858168
27095,0,USMinnesotaMilleLacs,Minnesota,Mille Lacs,2021-01-05 18:29:05.882010,2020-06-16 00:00:00.000000,0.13293396,0.25622768,0.45651808,34,67,119,19,35,71,0.07367748,0.13469289,0.27200727,0.05333114,0.12662498,0.20973765
27095,0,USMinnesotaMilleLacs,Minnesota,Mille Lacs,2021-01-05 18:29:05.882010,2020-06-17 00:00:00.000000,0.13584235,0.26226024,0.45473899,35,68,119,19,35,71,0.07389194,0.13565406,0.27070711,0.05338137,0.13032557,0.21120073
27095,0,USMinnesotaMilleLacs,Minnesota,Mille Lacs,2021-01-05 18:29:05.882010,2020-06-18 00:00:00.000000,0.13586336,0.26534304,0.45305159,35,69,119,19,35,71,0.07422965,0.13655224,0.27080337,0.05385995,0.13333576,0.21269679
27095,0,USMinnesotaMilleLacs,Minnesota,Mille Lacs,2021-01-05 18:29:05.882010,2020-06-19 00:00:00.000000,0.13444778,0.26469821,0.45363095,35,69,119,19,36,71,0.07466211,0.13742617,0.27338450,0.05405911,0.13496757,0.21348021
27095,0,USMinnesotaMilleLacs,Minnesota,Mille Lacs,2021-01-05 18:29:05.882010,2020-06-20 00:00:00.000000,0.13298078,0.26429634,0.45847677,34,69,120,19,36,72,0.07518692,0.13818872,0.27605474,0.05402323,0.14006293,0.21482406
27095,0,USMinnesotaMilleLacs,Minnesota,Mille Lacs,2021-01-05 18:29:05.882010,2020-06-21 00:00:00.000000,0.13147941,0.26727818,0.46344454,34,70,121,19,37,73,0.07590648,0.14106613,0.27880918,0.05378373,0.14100760,0.21700382
27095,0,USMinnesotaMilleLacs,Minnesota,Mille Lacs,2021-01-05 18:29:05.882010,2020-06-22 00:00:00.000000,0.14474720,0.27108259,0.45957703,38,71,120,20,37,74,0.07688805,0.14286283,0.28164618,0.05340503,0.14029754,0.22023907
27095,0,USMinnesotaMilleLacs,Minnesota,Mille Lacs,2021-01-05 18:29:05.882010,2020-06-23 00:00:00.000000,0.15716658,0.27158354,0.46058797,41,71,121,20,38,74,0.07761141,0.14476101,0.28322904,0.05292121,0.13994739,0.22444334
27095,0,USMinnesotaMilleLacs,Minnesota,Mille Lacs,2021-01-05 18:29:05.882010,2020-06-24 00:00:00.000000,0.16127606,0.27788569,0.46594602,42,73,122,20,38,74,0.07815695,0.14651832,0.28390366,0.05242802,0.14131218,0.22915624
27095,0,USMinnesotaMilleLacs,Minnesota,Mille Lacs,2021-01-05 18:29:05.882010,2020-06-25 00:00:00.000000,0.16291667,0.28553641,0.47145981,42,75,123,20,38,74,0.07857284,0.14795624,0.28396536,0.05203492,0.14192394,0.23070987
27095,0,USMinnesotaMilleLacs,Minnesota,Mille Lacs,2021-01-05 18:29:05.882010,2020-06-26 00:00:00.000000,0.15889509,0.28758053,0.47709869,41,75,125,20,39,74,0.07889285,0.14872142,0.28365391,0.05186698,0.14318518,0.22974384
27095,0,USMinnesotaMilleLacs,Minnesota,Mille Lacs,2021-01-05 18:29:05.882010,2020-06-27 00:00:00.000000,0.15499464,0.28691421,0.48281750,40,75,126,20,38,74,0.07914226,0.14829037,0.28314429,0.05218304,0.14394286,0.23031979
27095,0,USMinnesotaMilleLacs,Minnesota,Mille Lacs,2021-01-05 18:29:05.882010,2020-06-28 00:00:00.000000,0.15122595,0.28913457,0.48857451,39,75,128,20,39,74,0.07934252,0.14913154,0.28254862,0.05364747,0.14533570,0.23244305
27095,0,USMinnesotaMilleLacs,Minnesota,Mille Lacs,2021-01-05 18:29:05.882010,2020-06-29 00:00:00.000000,0.15599940,0.29187310,0.49656987,40,76,130,20,39,74,0.07952123,0.14916086,0.28192976,0.05720705,0.14543092,0.23789296
27095,0,USMinnesotaMilleLacs,Minnesota,Mille Lacs,2021-01-05 18:29:05.882010,2020-06-30 00:00:00.000000,0.17445962,0.29399004,0.48870395,45,77,128,21,39,74,0.08041306,0.15096806,0.28164463,0.06205505,0.14673876,0.24066735
27095,0,USMinnesotaMilleLacs,Minnesota,Mille Lacs,2021-01-05 18:29:05.882010,2020-07-01 00:00:00.000000,0.17908989,0.29958148,0.49780559,47,78,130,22,40,74,0.08653535,0.15407607,0.28309676,0.06083172,0.14989587,0.24842146
27095,0,USMinnesotaMilleLacs,Minnesota,Mille Lacs,2021-01-05 18:29:05.882010,2020-07-02 00:00:00.000000,0.18456073,0.30240037,0.51218249,48,79,134,23,41,75,0.09123857,0.15712631,0.28876778,0.06036218,0.15297486,0.25549203
27095,0,USMinnesotaMilleLacs,Minnesota,Mille Lacs,2021-01-05 18:29:05.882010,2020-07-03 00:00:00.000000,0.19227850,0.30784717,0.52658455,50,80,138,24,42,77,0.09222611,0.16019245,0.29504885,0.06019333,0.15628223,0.25991243
27095,0,USMinnesotaMilleLacs,Minnesota,Mille Lacs,2021-01-05 18:29:05.882010,2020-07-04 00:00:00.000000,0.19269659,0.31186299,0.54116809,50,81,142,25,43,79,0.09736215,0.16392743,0.30193970,0.06012955,0.16254863,0.26227436
27095,0,USMinnesotaMilleLacs,Minnesota,Mille Lacs,2021-01-05 18:29:05.882010,2020-07-05 00:00:00.000000,0.19743952,0.31549100,0.55609912,51,82,146,26,44,81,0.09960319,0.16798301,0.30947921,0.06008172,0.16685414,0.26377647
27095,0,USMinnesotaMilleLacs,Minnesota,Mille Lacs,2021-01-05 18:29:05.882010,2020-07-06 00:00:00.000000,0.20912776,0.33014742,0.56721965,54,86,149,26,44,81,0.09898832,0.17039006,0.30955503,0.05995363,0.17133888,0.26527545
27095,0,USMinnesotaMilleLacs,Minnesota,Mille Lacs,2021-01-05 18:29:05.882010,2020-07-07 00:00:00.000000,0.21613300,0.33636199,0.57629370,56,88,151,26,46,82,0.10168451,0.17615649,0.31521801,0.05961433,0.17147405,0.27241646
27095,0,USMinnesotaMilleLacs,Minnesota,Mille Lacs,2021-01-05 18:29:05.882010,2020-07-08 00:00:00.000000,0.22126075,0.34354992,0.57584654,58,90,151,28,47,85,0.10667884,0.17931813,0.32682332,0.05932709,0.17258777,0.27957839
27095,0,USMinnesotaMilleLacs,Minnesota,Mille Lacs,2021-01-05 18:29:05.882010,2020-07-09 00:00:00.000000,0.22208822,0.34645390,0.59854295,58,91,157,29,47,89,0.11324455,0.18216878,0.33926337,0.05967399,0.17448234,0.28318984
27095,0,USMinnesotaMilleLacs,Minnesota,Mille Lacs,2021-01-05 18:29:05.882010,2020-07-10 00:00:00.000000,0.22271464,0.35011804,0.62133688,58,92,163,30,48,91,0.11467587,0.18440868,0.34696495,0.06119678,0.17998073,0.28148233
27095,0,USMinnesotaMilleLacs,Minnesota,Mille Lacs,2021-01-05 18:29:05.882010,2020-07-11 00:00:00.000000,0.22316793,0.35777081,0.64417030,58,94,169,30,49,92,0.11577709,0.18722519,0.35349280,0.06402300,0.18270954,0.28244918
27095,0,USMinnesotaMilleLacs,Minnesota,Mille Lacs,2021-01-05 18:29:05.882010,2020-07-12 00:00:00.000000,0.21909809,0.37011667,0.66578555,57,97,174,31,50,92,0.11949775,0.19181334,0.35360582,0.06624703,0.18331823,0.29105362
27095,0,USMinnesotaMilleLacs,Minnesota,Mille Lacs,2021-01-05 18:29:05.882010,2020-07-13 00:00:00.000000,0.22437572,0.38420293,0.66895628,58,100,175,32,51,92,0.12327333,0.19452096,0.35294558,0.06712784,0.18530654,0.29720119
27095,0,USMinnesotaMilleLacs,Minnesota,Mille Lacs,2021-01-05 18:29:05.882010,2020-07-14 00:00:00.000000,0.23145390,0.39313936,0.67096955,60,103,176,32,52,92,0.12538267,0.19870085,0.35341225,0.06751445,0.18581966,0.31944388
27095,0,USMinnesotaMilleLacs,Minnesota,Mille Lacs,2021-01-05 18:29:05.882010,2020-07-15 00:00:00.000000,0.22991264,0.40704709,0.68859462,60,106,180,33,53,94,0.12582437,0.20468637,0.36141786,0.06799927,0.18810087,0.32567462
27095,0,USMinnesotaMilleLacs,Minnesota,Mille Lacs,2021-01-05 18:29:05.882010,2020-07-16 00:00:00.000000,0.22568301,0.42627701,0.69628513,59,112,182,33,55,96,0.12640522,0.20943939,0.36788218,0.07815755,0.18923019,0.32521741
27095,0,USMinnesotaMilleLacs,Minnesota,Mille Lacs,2021-01-05 18:29:05.882010,2020-07-17 00:00:00.000000,0.22188090,0.43598807,0.70385226,58,114,184,33,56,98,0.12691770,0.21501960,0.37313490,0.08540921,0.19109873,0.31308559
27095,0,USMinnesotaMilleLacs,Minnesota,Mille Lacs,2021-01-05 18:29:05.882010,2020-07-18 00:00:00.000000,0.21835358,0.44721138,0.71130356,57,117,186,33,58,99,0.12749016,0.22216238,0.37739188,0.08747109,0.19274701,0.29944922
27095,0,USMinnesotaMilleLacs,Minnesota,Mille Lacs,2021-01-05 18:29:05.882010,2020-07-19 00:00:00.000000,0.21500643,0.45714553,0.71865339,56,120,188,33,59,100,0.12810286,0.22619716,0.38079056,0.08789150,0.19023252,0.30082506
27095,0,USMinnesotaMilleLacs,Minnesota,Mille Lacs,2021-01-05 18:29:05.882010,2020-07-20 00:00:00.000000,0.23381866,0.47488480,0.74043582,61,124,194,33,61,100,0.12874957,0.23392508,0.38342396,0.08798342,0.19267764,0.30458109
27095,0,USMinnesotaMilleLacs,Minnesota,Mille Lacs,2021-01-05 18:29:05.882010,2020-07-21 00:00:00.000000,0.25389034,0.48353083,0.76216530,66,127,200,34,63,101,0.13170641,0.24041349,0.38496335,0.09269649,0.19645264,0.31008528
27095,0,USMinnesotaMilleLacs,Minnesota,Mille Lacs,2021-01-05 18:29:05.882010,2020-07-22 00:00:00.000000,0.25581247,0.49116500,0.78410286,67,129,206,35,64,101,0.13636876,0.24727266,0.38559365,0.09920988,0.20046592,0.31488964
27095,0,USMinnesotaMilleLacs,Minnesota,Mille Lacs,2021-01-05 18:29:05.882010,2020-07-23 00:00:00.000000,0.25785634,0.50253879,0.80620164,67,132,211,38,66,106,0.14525428,0.25400583,0.40361260,0.10067902,0.20186766,0.31889755
27095,0,USMinnesotaMilleLacs,Minnesota,Mille Lacs,2021-01-05 18:29:05.882010,2020-07-24 00:00:00.000000,0.26067257,0.51713138,0.82842534,68,135,217,38,68,110,0.14730832,0.26030100,0.42106491,0.10131232,0.20314479,0.32177385
27095,0,USMinnesotaMilleLacs,Minnesota,Mille Lacs,2021-01-05 18:29:05.882010,2020-07-25 00:00:00.000000,0.26709175,0.52333281,0.85075267,70,137,223,39,69,109,0.14859736,0.26493485,0.41842798,0.10222315,0.20512850,0.32358926
27095,0,USMinnesotaMilleLacs,Minnesota,Mille Lacs,2021-01-05 18:29:05.882010,2020-07-26 00:00:00.000000,0.27424061,0.53046987,0.87323742,72,139,229,39,70,110,0.15038968,0.26913828,0.41939448,0.10354293,0.20268351,0.32497441
27095,0,USMinnesotaMilleLacs,Minnesota,Mille Lacs,2021-01-05 18:29:05.882010,2020-07-27 00:00:00.000000,0.28486507,0.53857247,0.87246931,74,141,229,40,71,112,0.15232091,0.27246942,0.42766335,0.10547708,0.20255480,0.32365432
27095,0,USMinnesotaMilleLacs,Minnesota,Mille Lacs,2021-01-05 18:29:05.882010,2020-07-28 00:00:00.000000,0.28764867,0.54311365,0.89111550,75,142,234,41,72,115,0.15629024,0.27636633,0.43998566,0.10833654,0.20728924,0.32479376
27095,0,USMinnesotaMilleLacs,Minnesota,Mille Lacs,2021-01-05 18:29:05.882010,2020-07-29 00:00:00.000000,0.28897926,0.54290196,0.91249865,75,142,239,42,73,120,0.16170650,0.28114352,0.45722249,0.11254210,0.20695653,0.32968165
27095,0,USMinnesotaMilleLacs,Minnesota,Mille Lacs,2021-01-05 18:29:05.882010,2020-07-30 00:00:00.000000,0.28553934,0.55608481,0.93306375,75,146,245,44,75,124,0.16811088,0.28609308,0.47256804,0.11606918,0.20730293,0.34733522
27095,0,USMinnesotaMilleLacs,Minnesota,Mille Lacs,2021-01-05 18:29:05.882010,2020-07-31 00:00:00.000000,0.28220116,0.57572568,0.94836308,74,151,249,44,76,127,0.16776260,0.29103400,0.48659209,0.11781143,0.20736259,0.34941314
27095,0,USMinnesotaMilleLacs,Minnesota,Mille Lacs,2021-01-05 18:29:05.882010,2020-08-01 00:00:00.000000,0.27906204,0.59019533,0.96465289,73,155,253,43,78,131,0.16651568,0.29854281,0.49967842,0.12009605,0.20548739,0.34173505
27095,0,USMinnesotaMilleLacs,Minnesota,Mille Lacs,2021-01-05 18:29:05.882010,2020-08-02 00:00:00.000000,0.27617519,0.60780948,0.97074499,72,159,255,43,80,134,0.16510137,0.30717790,0.51207826,0.12265198,0.21024559,0.33077655
27095,0,USMinnesotaMilleLacs,Minnesota,Mille Lacs,2021-01-05 18:29:05.882010,2020-08-03 00:00:00.000000,0.27639307,0.62228001,0.97080306,72,163,255,42,83,137,0.16362177,0.31609991,0.52394972,0.12479360,0.20673029,0.33473964
27095,0,USMinnesotaMilleLacs,Minnesota,Mille Lacs,2021-01-05 18:29:05.882010,2020-08-04 00:00:00.000000,0.27681713,0.62661773,0.97312043,72,164,255,42,84,139,0.16266023,0.32307427,0.53164173,0.12647456,0.20677610,0.33777582
27095,0,USMinnesotaMilleLacs,Minnesota,Mille Lacs,2021-01-05 18:29:05.882010,2020-08-05 00:00:00.000000,0.27752610,0.63471437,0.97597913,72,166,256,42,86,141,0.16210192,0.32971672,0.53710000,0.12825662,0.21068052,0.32653532
27095,0,USMinnesotaMilleLacs,Minnesota,Mille Lacs,2021-01-05 18:29:05.882010,2020-08-06 00:00:00.000000,0.27864791,0.64780685,0.97870343,73,170,257,42,88,143,0.16186738,0.33828088,0.54711004,0.13204675,0.21191815,0.30512943
27095,0,USMinnesotaMilleLacs,Minnesota,Mille Lacs,2021-01-05 18:29:05.882010,2020-08-07 00:00:00.000000,0.28040903,0.66135272,0.98151723,73,173,257,42,90,143,0.16192544,0.34575019,0.54778207,0.13517258,0.21331881,0.29687213
27095,0,USMinnesotaMilleLacs,Minnesota,Mille Lacs,2021-01-05 18:29:05.882010,2020-08-08 00:00:00.000000,0.28288197,0.67403623,0.98482454,74,177,258,42,92,145,0.16303744,0.35160456,0.55558150,0.12897188,0.21543506,0.30109088
27095,0,USMinnesotaMilleLacs,Minnesota,Mille Lacs,2021-01-05 18:29:05.882010,2020-08-09 00:00:00.000000,0.28584740,0.68506460,0.98943579,75,180,259,43,93,147,0.16476197,0.35723790,0.56194660,0.13050731,0.22007083,0.31019507
27095,0,USMinnesotaMilleLacs,Minnesota,Mille Lacs,2021-01-05 18:29:05.882010,2020-08-10 00:00:00.000000,0.30037117,0.69379776,0.99626081,78,182,261,43,95,148,0.16676425,0.36294470,0.56697031,0.13170861,0.22163881,0.31646053
27095,0,USMinnesotaMilleLacs,Minnesota,Mille Lacs,2021-01-05 18:29:05.882010,2020-08-11 00:00:00.000000,0.31498964,0.70339585,1.00739580,82,184,264,44,96,152,0.16964464,0.36676324,0.58036915,0.13038961,0.22531556,0.32414036
27095,0,USMinnesotaMilleLacs,Minnesota,Mille Lacs,2021-01-05 18:29:05.882010,2020-08-12 00:00:00.000000,0.32983467,0.70989019,1.02240927,86,186,268,45,98,156,0.17313243,0.37386147,0.59540231,0.13049230,0.22518981,0.31836636
27095,0,USMinnesotaMilleLacs,Minnesota,Mille Lacs,2021-01-05 18:29:05.882010,2020-08-13 00:00:00.000000,0.34489065,0.72031362,1.04037409,90,189,273,46,100,159,0.17868224,0.38217933,0.60709171,0.13139037,0.22771234,0.31617295
27095,0,USMinnesotaMilleLacs,Minnesota,Mille Lacs,2021-01-05 18:29:05.882010,2020-08-14 00:00:00.000000,0.36068605,0.72848587,1.06061742,94,191,278,48,101,159,0.18571246,0.38690033,0.60838970,0.13485092,0.22758734,0.31066273
27095,0,USMinnesotaMilleLacs,Minnesota,Mille Lacs,2021-01-05 18:29:05.882010,2020-08-15 00:00:00.000000,0.37749835,0.74070121,1.08285576,99,194,284,50,103,159,0.19344137,0.39234219,0.60862810,0.13804092,0.23630829,0.32071533
27095,0,USMinnesotaMilleLacs,Minnesota,Mille Lacs,2021-01-05 18:29:05.882010,2020-08-16 00:00:00.000000,0.39368846,0.75029118,1.09008926,103,197,286,53,105,159,0.20182256,0.40074431,0.60804468,0.13901597,0.23854700,0.32368651
27095,0,USMinnesotaMilleLacs,Minnesota,Mille Lacs,2021-01-05 18:29:05.882010,2020-08-17 00:00:00.000000,0.39562019,0.76129330,1.12508982,103,200,295,54,107,161,0.20889279,0.40748019,0.61560097,0.13834222,0.23599617,0.37752014
27095,0,USMinnesotaMilleLacs,Minnesota,Mille Lacs,2021-01-05 18:29:05.882010,2020-08-18 00:00:00.000000,0.39774420,0.77214560,1.14896794,104,202,301,57,108,166,0.21772745,0.41463153,0.63261197,0.13696796,0.24162600,0.39379827
27095,0,USMinnesotaMilleLacs,Minnesota,Mille Lacs,2021-01-05 18:29:05.882010,2020-08-19 00:00:00.000000,0.41526217,0.79798007,1.15420867,109,209,303,58,109,171,0.22319930,0.41702271,0.65113526,0.13652684,0.24334403,0.39635863
27095,0,USMinnesotaMilleLacs,Minnesota,Mille Lacs,2021-01-05 18:29:05.882010,2020-08-20 00:00:00.000000,0.44588782,0.80971123,1.15925423,117,212,304,59,109,176,0.22761967,0.41840585,0.67062263,0.13746263,0.24139537,0.39624306
27095,0,USMinnesotaMilleLacs,Minnesota,Mille Lacs,2021-01-05 18:29:05.882010,2020-08-21 00:00:00.000000,0.47523959,0.82745419,1.16664231,124,217,306,60,110,177,0.23036734,0.42214998,0.67458315,0.14054369,0.24233029,0.39505781
27095,0,USMinnesotaMilleLacs,Minnesota,Mille Lacs,2021-01-05 18:29:05.882010,2020-08-22 00:00:00.000000,0.50314373,0.84145089,1.17620889,132,221,309,61,112,177,0.23423972,0.42831034,0.67379124,0.13624462,0.24418972,0.39294179
27095,0,USMinnesotaMilleLacs,Minnesota,Mille Lacs,2021-01-05 18:29:05.882010,2020-08-23 00:00:00.000000,0.53158749,0.86323811,1.19617428,139,226,314,62,114,176,0.23969451,0.43581985,0.67290132,0.13715393,0.24686278,0.39064732
27095,0,USMinnesotaMilleLacs,Minnesota,Mille Lacs,2021-01-05 18:29:05.882010,2020-08-24 00:00:00.000000,0.54736704,0.87863452,1.21058590,143,230,318,64,117,176,0.24691347,0.44643184,0.67225712,0.14756414,0.24669508,0.39352864
27095,0,USMinnesotaMilleLacs,Minnesota,Mille Lacs,2021-01-05 18:29:05.882010,2020-08-25 00:00:00.000000,0.56410101,0.88786012,1.24664789,148,233,327,67,120,176,0.25602164,0.45715728,0.67352990,0.14901608,0.25036362,0.39429772
27095,0,USMinnesotaMilleLacs,Minnesota,Mille Lacs,2021-01-05 18:29:05.882010,2020-08-26 00:00:00.000000,0.58155766,0.89675354,1.29805202,152,235,341,70,122,183,0.26677810,0.46654568,0.69791344,0.15352751,0.25267250,0.40071586
27095,0,USMinnesotaMilleLacs,Minnesota,Mille Lacs,2021-01-05 18:29:05.882010,2020-08-27 00:00:00.000000,0.59977961,0.91833824,1.35085983,157,241,354,73,124,190,0.27879923,0.47235254,0.72460856,0.15564515,0.25419016,0.40506903
27095,0,USMinnesotaMilleLacs,Minnesota,Mille Lacs,2021-01-05 18:29:05.882010,2020-08-28 00:00:00.000000,0.61489968,0.94102596,1.40524839,161,247,369,76,126,197,0.29185979,0.48323788,0.75268094,0.15791001,0.25515368,0.40559874
27095,0,USMinnesotaMilleLacs,Minnesota,Mille Lacs,2021-01-05 18:29:05.882010,2020-08-29 00:00:00.000000,0.62221279,0.95684344,1.46144300,163,251,384,78,129,200,0.29693671,0.49214108,0.76125015,0.15903847,0.25624894,0.40552813
27095,0,USMinnesotaMilleLacs,Minnesota,Mille Lacs,2021-01-05 18:29:05.882010,2020-08-30 00:00:00.000000,0.63077676,0.97172906,1.51974749,165,255,399,78,132,201,0.30005910,0.50384483,0.76810655,0.15956569,0.26034607,0.40294967
27095,0,USMinnesotaMilleLacs,Minnesota,Mille Lacs,2021-01-05 18:29:05.882010,2020-08-31 00:00:00.000000,0.64419784,0.98807491,1.56666072,169,259,411,79,135,206,0.30356829,0.51548209,0.78731086,0.15985852,0.26046761,0.40092051
27095,0,USMinnesotaMilleLacs,Minnesota,Mille Lacs,2021-01-05 18:29:05.882010,2020-09-01 00:00:00.000000,0.65798094,1.02127723,1.61557071,172,268,424,81,139,213,0.30893142,0.53087647,0.81169545,0.16018057,0.26271150,0.41603926
27095,0,USMinnesotaMilleLacs,Minnesota,Mille Lacs,2021-01-05 18:29:05.882010,2020-09-02 00:00:00.000000,0.67207445,1.04765102,1.66565098,176,275,437,82,143,219,0.31569176,0.54449831,0.83510851,0.16531870,0.26541382,0.41452713
27095,0,USMinnesotaMilleLacs,Minnesota,Mille Lacs,2021-01-05 18:29:05.882010,2020-09-03 00:00:00.000000,0.68640906,1.06683551,1.74158415,180,280,457,85,146,225,0.32350917,0.55912376,0.85808234,0.16603998,0.26802032,0.41825979
27095,0,USMinnesotaMilleLacs,Minnesota,Mille Lacs,2021-01-05 18:29:05.882010,2020-09-04 00:00:00.000000,0.70106899,1.10597288,1.82316659,184,290,479,87,150,231,0.33213612,0.57325292,0.88112070,0.16771625,0.27345267,0.41342596
27095,0,USMinnesotaMilleLacs,Minnesota,Mille Lacs,2021-01-05 18:29:05.882010,2020-09-05 00:00:00.000000,0.71193036,1.13417185,1.90567111,187,298,500,89,155,237,0.34140169,0.59109662,0.90465971,0.17153422,0.27978225,0.41328413
27095,0,USMinnesotaMilleLacs,Minnesota,Mille Lacs,2021-01-05 18:29:05.882010,2020-09-06 00:00:00.000000,0.71813735,1.15510921,1.98416589,188,303,521,92,158,244,0.35120601,0.60437743,0.92899389,0.18242588,0.28318944,0.42774037
27095,0,USMinnesotaMilleLacs,Minnesota,Mille Lacs,2021-01-05 18:29:05.882010,2020-09-07 00:00:00.000000,0.73192523,1.17654153,2.04747188,192,309,538,95,162,250,0.36155133,0.62024238,0.95424988,0.19261114,0.29097252,0.45754956
27095,0,USMinnesotaMilleLacs,Minnesota,Mille Lacs,2021-01-05 18:29:05.882010,2020-09-08 00:00:00.000000,0.74602093,1.20577465,2.10699924,196,316,553,97,167,257,0.37182656,0.63615871,0.98100029,0.19404806,0.30206051,0.45822870
27095,0,USMinnesotaMilleLacs,Minnesota,Mille Lacs,2021-01-05 18:29:05.882010,2020-09-09 00:00:00.000000,0.76060599,1.26515361,2.16680043,199,332,569,100,170,265,0.38309917,0.64798453,1.00903746,0.19443047,0.30934675,0.45783559
27095,0,USMinnesotaMilleLacs,Minnesota,Mille Lacs,2021-01-05 18:29:05.882010,2020-09-10 00:00:00.000000,0.77651169,1.32384042,2.22780385,204,347,585,104,173,272,0.39623419,0.66144753,1.03819254,0.19488910,0.31748469,0.45678410
27095,0,USMinnesotaMilleLacs,Minnesota,Mille Lacs,2021-01-05 18:29:05.882010,2020-09-11 00:00:00.000000,0.82197557,1.36676674,2.28282878,215,359,599,107,180,280,0.41069737,0.68608458,1.06834495,0.19585238,0.32218995,0.45643308
27095,0,USMinnesotaMilleLacs,Minnesota,Mille Lacs,2021-01-05 18:29:05.882010,2020-09-12 00:00:00.000000,0.87037095,1.38959078,2.35240395,228,365,618,112,184,288,0.42839451,0.70227706,1.09944492,0.20013094,0.32952551,0.47330555
27095,0,USMinnesotaMilleLacs,Minnesota,Mille Lacs,2021-01-05 18:29:05.882010,2020-09-13 00:00:00.000000,0.92210743,1.42978488,2.41514573,242,375,634,117,189,297,0.44724898,0.72208362,1.13168311,0.20407609,0.33606363,0.48144397
27095,0,USMinnesotaMilleLacs,Minnesota,Mille Lacs,2021-01-05 18:29:05.882010,2020-09-14 00:00:00.000000,0.97714207,1.47468205,2.48424178,256,387,652,123,196,306,0.46840053,0.74969359,1.16635886,0.20742116,0.34652333,0.51337417
27095,0,USMinnesotaMilleLacs,Minnesota,Mille Lacs,2021-01-05 18:29:05.882010,2020-09-15 00:00:00.000000,0.99289069,1.52162278,2.55311162,260,399,670,129,203,317,0.49112967,0.77402608,1.20848046,0.21049831,0.34945686,0.51616273
27095,0,USMinnesotaMilleLacs,Minnesota,Mille Lacs,2021-01-05 18:29:05.882010,2020-09-16 00:00:00.000000,1.03267275,1.57474248,2.63582838,271,413,692,135,211,330,0.51577589,0.80312439,1.25789389,0.21575335,0.35673547,0.51625267
27095,0,USMinnesotaMilleLacs,Minnesota,Mille Lacs,2021-01-05 18:29:05.882010,2020-09-17 00:00:00.000000,1.06963671,1.65896025,2.73364247,281,435,718,142,219,345,0.54264137,0.83497071,1.31329802,0.22511337,0.36319588,0.51457582
27095,0,USMinnesotaMilleLacs,Minnesota,Mille Lacs,2021-01-05 18:29:05.882010,2020-09-18 00:00:00.000000,1.08842034,1.73241740,2.83447409,286,455,744,150,228,360,0.57175058,0.86782296,1.37352540,0.24277162,0.36682331,0.51269012
27095,0,USMinnesotaMilleLacs,Minnesota,Mille Lacs,2021-01-05 18:29:05.882010,2020-09-19 00:00:00.000000,1.13594983,1.80908016,2.93864678,298,475,772,156,237,377,0.59491159,0.90248068,1.43767144,0.26040525,0.37106714,0.52500901
27095,0,USMinnesotaMilleLacs,Minnesota,Mille Lacs,2021-01-05 18:29:05.882010,2020-09-20 00:00:00.000000,1.20346760,1.88992516,3.04600028,316,496,800,165,245,395,0.62890403,0.93559140,1.50502483,0.27165826,0.37942097,0.53535493
27095,0,USMinnesotaMilleLacs,Minnesota,Mille Lacs,2021-01-05 18:29:05.882010,2020-09-21 00:00:00.000000,1.25007498,1.98739508,3.15657800,328,522,829,172,255,413,0.65830650,0.97180547,1.57503745,0.27821074,0.38469006,0.53888247
27095,0,USMinnesotaMilleLacs,Minnesota,Mille Lacs,2021-01-05 18:29:05.882010,2020-09-22 00:00:00.000000,1.29624408,2.08989145,3.27113501,340,549,859,180,267,432,0.68578790,1.01873619,1.64474424,0.28040026,0.39652279,0.54943063
27095,0,USMinnesotaMilleLacs,Minnesota,Mille Lacs,2021-01-05 18:29:05.882010,2020-09-23 00:00:00.000000,1.34718664,2.19170889,3.39136209,354,575,891,192,279,450,0.73406185,1.06289911,1.71468650,0.28821099,0.40146939,0.54963386
27095,0,USMinnesotaMilleLacs,Minnesota,Mille Lacs,2021-01-05 18:29:05.882010,2020-09-24 00:00:00.000000,1.40577689,2.29959658,3.55402817,369,604,933,203,290,469,0.77346003,1.10714230,1.78531969,0.29533541,0.41725921,0.55098782
27095,0,USMinnesotaMilleLacs,Minnesota,Mille Lacs,2021-01-05 18:29:05.882010,2020-09-25 00:00:00.000000,1.50816609,2.42471330,3.74419005,396,637,983,211,306,487,0.80531230,1.16782091,1.85704595,0.30177960,0.43374415,0.56761972
27095,0,USMinnesotaMilleLacs,Minnesota,Mille Lacs,2021-01-05 18:29:05.882010,2020-09-26 00:00:00.000000,1.62356052,2.55952704,3.93630393,426,672,1034,225,323,507,0.85902499,1.22923959,1.92986916,0.31183808,0.44108033,0.57580811
27095,0,USMinnesotaMilleLacs,Minnesota,Mille Lacs,2021-01-05 18:29:05.882010,2020-09-27 00:00:00.000000,1.74665725,2.72021269,4.13045889,458,714,1085,235,341,526,0.89553960,1.30034591,2.00433556,0.31672077,0.45568497,0.61603863
27095,0,USMinnesotaMilleLacs,Minnesota,Mille Lacs,2021-01-05 18:29:05.882010,2020-09-28 00:00:00.000000,1.88883885,2.87834151,4.32596102,496,756,1136,246,360,546,0.93811956,1.37350862,2.08137949,0.31952361,0.46573081,0.64446140
27095,0,USMinnesotaMilleLacs,Minnesota,Mille Lacs,2021-01-05 18:29:05.882010,2020-09-29 00:00:00.000000,2.03960795,3.08057571,4.52700971,535,809,1189,260,382,568,0.98992544,1.45744991,2.16237983,0.32078993,0.47313695,0.64515660
27095,0,USMinnesotaMilleLacs,Minnesota,Mille Lacs,2021-01-05 18:29:05.882010,2020-09-30 00:00:00.000000,2.19501980,3.28294221,4.79829510,576,862,1260,276,408,593,1.05369625,1.55569396,2.25675931,0.32206759,0.47636897,0.67853115
27095,0,USMinnesotaMilleLacs,Minnesota,Mille Lacs,2021-01-05 18:29:05.882010,2020-10-01 00:00:00.000000,2.33665164,3.49925584,5.09378843,614,919,1338,297,432,623,1.13074951,1.64708472,2.37136941,0.32383113,0.47707695,0.66616361
27095,0,USMinnesotaMilleLacs,Minnesota,Mille Lacs,2021-01-05 18:29:05.882010,2020-10-02 00:00:00.000000,2.47871270,3.76012955,5.40361513,651,988,1419,317,462,654,1.20941650,1.75980289,2.49151088,0.32572455,0.47986062,0.66522733
27095,0,USMinnesotaMilleLacs,Minnesota,Mille Lacs,2021-01-05 18:29:05.882010,2020-10-03 00:00:00.000000,2.60872144,3.97329436,5.72743078,685,1044,1504,334,498,687,1.27412573,1.89694348,2.61507536,0.34050735,0.47579134,0.64537879
27095,0,USMinnesotaMilleLacs,Minnesota,Mille Lacs,2021-01-05 18:29:05.882010,2020-10-04 00:00:00.000000,2.77429181,4.19707581,6.06026406,729,1102,1592,352,524,719,1.34051607,1.99789664,2.74000005,0.35923665,0.47882931,0.64404662
27095,0,USMinnesotaMilleLacs,Minnesota,Mille Lacs,2021-01-05 18:29:05.882010,2020-10-05 00:00:00.000000,2.97065380,4.44751829,6.36976401,780,1168,1673,377,553,752,1.43626878,2.10477072,2.86482188,0.35692046,0.47528542,0.63308457
27095,0,USMinnesotaMilleLacs,Minnesota,Mille Lacs,2021-01-05 18:29:05.882010,2020-10-06 00:00:00.000000,3.18024166,4.73494143,6.61931923,835,1244,1739,406,586,785,1.54656235,2.23136305,2.98834829,0.35609239,0.47280189,0.63015541
27095,0,USMinnesotaMilleLacs,Minnesota,Mille Lacs,2021-01-05 18:29:05.882010,2020-10-07 00:00:00.000000,3.39629196,5.04854456,6.87145998,892,1326,1805,432,623,817,1.64403967,2.37226067,3.11089858,0.35574223,0.47166375,0.62722010
27095,0,USMinnesotaMilleLacs,Minnesota,Mille Lacs,2021-01-05 18:29:05.882010,2020-10-08 00:00:00.000000,3.60956034,5.32362489,7.24822935,948,1398,1904,460,667,850,1.75060349,2.53887809,3.23713331,0.34622300,0.46498756,0.62297596
27095,0,USMinnesotaMilleLacs,Minnesota,Mille Lacs,2021-01-05 18:29:05.882010,2020-10-09 00:00:00.000000,3.80785351,5.57757443,7.63887088,1000,1465,2007,489,703,895,1.86281215,2.67896576,3.40951366,0.32159578,0.45941112,0.60849150
27095,0,USMinnesotaMilleLacs,Minnesota,Mille Lacs,2021-01-05 18:29:05.882010,2020-10-10 00:00:00.000000,3.98543605,5.82854614,8.04344754,1047,1531,2113,519,742,941,1.97606728,2.82689869,3.58288724,0.30905375,0.44752221,0.58626605
27095,0,USMinnesotaMilleLacs,Minnesota,Mille Lacs,2021-01-05 18:29:05.882010,2020-10-11 00:00:00.000000,4.14810653,6.13459431,8.46223976,1089,1611,2223,548,783,986,2.08615937,2.98323594,3.75325092,0.30506663,0.44306612,0.58342804
27095,0,USMinnesotaMilleLacs,Minnesota,Mille Lacs,2021-01-05 18:29:05.882010,2020-10-12 00:00:00.000000,4.32131934,6.43435955,8.87421565,1135,1690,2331,575,819,1030,2.19128926,3.11968246,3.92177534,0.30390959,0.43593877,0.57245622
27095,0,USMinnesotaMilleLacs,Minnesota,Mille Lacs,2021-01-05 18:29:05.882010,2020-10-13 00:00:00.000000,4.49362798,6.74938318,9.30364276,1180,1773,2444,603,863,1077,2.29492906,3.28559346,4.09879035,0.30376113,0.42583984,0.54532381
27095,0,USMinnesotaMilleLacs,Minnesota,Mille Lacs,2021-01-05 18:29:05.882010,2020-10-14 00:00:00.000000,4.66813179,7.01889308,9.79774332,1226,1844,2574,629,903,1135,2.39746733,3.43866081,4.32289583,0.30394134,0.42405054,0.54680637
27095,0,USMinnesotaMilleLacs,Minnesota,Mille Lacs,2021-01-05 18:29:05.882010,2020-10-15 00:00:00.000000,4.84615883,7.30597553,10.24908563,1273,1919,2693,656,937,1201,2.49967002,3.56734715,4.57073700,0.29808961,0.42122172,0.55177579
27095,0,USMinnesotaMilleLacs,Minnesota,Mille Lacs,2021-01-05 18:29:05.882010,2020-10-16 00:00:00.000000,5.02910534,7.60132768,10.72962108,1321,1997,2819,683,968,1268,2.60231197,3.68459114,4.82802515,0.29507985,0.41770641,0.55536018
27095,0,USMinnesotaMilleLacs,Minnesota,Mille Lacs,2021-01-05 18:29:05.882010,2020-10-17 00:00:00.000000,5.22013123,7.89858691,11.29363375,1371,2075,2967,711,1007,1338,2.70617998,3.83526240,5.09279053,0.29416274,0.41442019,0.55860148
27095,0,USMinnesotaMilleLacs,Minnesota,Mille Lacs,2021-01-05 18:29:05.882010,2020-10-18 00:00:00.000000,5.42510903,8.25029023,11.86605142,1425,2167,3118,739,1050,1408,2.81239389,3.99637074,5.36040605,0.29554495,0.42255070,0.59759505
27095,0,USMinnesotaMilleLacs,Minnesota,Mille Lacs,2021-01-05 18:29:05.882010,2020-10-19 00:00:00.000000,5.61364505,8.50955367,12.33489595,1475,2236,3241,768,1095,1478,2.92280482,4.16849093,5.62485881,0.29497063,0.42746182,0.62872191
27095,0,USMinnesotaMilleLacs,Minnesota,Mille Lacs,2021-01-05 18:29:05.882010,2020-10-20 00:00:00.000000,5.74071569,8.76800059,12.79946069,1508,2303,3363,797,1137,1546,3.03575667,4.32787931,5.88500850,0.29661518,0.44147022,0.64805124
27095,0,USMinnesotaMilleLacs,Minnesota,Mille Lacs,2021-01-05 18:29:05.882010,2020-10-21 00:00:00.000000,5.87059271,9.15176000,13.27773256,1542,2404,3488,828,1176,1613,3.15303333,4.47862894,6.14192207,0.29055566,0.46542071,0.66024517
27095,0,USMinnesotaMilleLacs,Minnesota,Mille Lacs,2021-01-05 18:29:05.882010,2020-10-22 00:00:00.000000,6.03327715,9.58601892,13.79492903,1585,2518,3624,860,1222,1681,3.27561686,4.65405448,6.39879049,0.30279203,0.48933781,0.66767953
27095,0,USMinnesotaMilleLacs,Minnesota,Mille Lacs,2021-01-05 18:29:05.882010,2020-10-23 00:00:00.000000,6.34508738,10.01900636,14.84349949,1667,2632,3900,894,1270,1750,3.40471288,4.83390568,6.66174739,0.33583118,0.52108714,0.70757795
27095,0,USMinnesotaMilleLacs,Minnesota,Mille Lacs,2021-01-05 18:29:05.882010,2020-10-24 00:00:00.000000,6.82779371,10.51649160,16.04898584,1794,2763,4217,930,1331,1849,3.54219518,5.06795814,7.03787903,0.33914058,0.56085810,0.73998481
27095,0,USMinnesotaMilleLacs,Minnesota,Mille Lacs,2021-01-05 18:29:05.882010,2020-10-25 00:00:00.000000,7.20645086,11.18682945,17.31600589,1893,2939,4550,969,1399,1964,3.69046212,5.32580296,7.47799865,0.35071630,0.59846527,0.80137994
27095,0,USMinnesotaMilleLacs,Minnesota,Mille Lacs,2021-01-05 18:29:05.882010,2020-10-26 00:00:00.000000,7.57145242,12.02917044,18.63559265,1989,3160,4896,1012,1466,2086,3.85188311,5.57983629,7.93894367,0.38361695,0.63261242,0.84755529
27095,0,USMinnesotaMilleLacs,Minnesota,Mille Lacs,2021-01-05 18:29:05.882010,2020-10-27 00:00:00.000000,7.97631703,12.78567107,19.99593772,2095,3359,5254,1058,1548,2211,4.02969621,5.89303192,8.41757806,0.40834077,0.64420400,0.86384541
27095,0,USMinnesotaMilleLacs,Minnesota,Mille Lacs,2021-01-05 18:29:05.882010,2020-10-28 00:00:00.000000,8.43507388,13.68244059,21.39128202,2216,3595,5620,1110,1635,2341,4.22620603,6.22278821,8.91099909,0.43900274,0.65296514,0.90633640
27095,0,USMinnesotaMilleLacs,Minnesota,Mille Lacs,2021-01-05 18:29:05.882010,2020-10-29 00:00:00.000000,8.96401386,14.57093658,22.71291070,2355,3828,5968,1168,1741,2474,4.44551948,6.62733525,9.41627325,0.48352411,0.66973297,0.91174855
27095,0,USMinnesotaMilleLacs,Minnesota,Mille Lacs,2021-01-05 18:29:05.882010,2020-10-30 00:00:00.000000,9.56438228,15.62591027,23.77464880,2513,4106,6247,1237,1852,2609,4.71092536,7.05022660,9.93039651,0.51222009,0.68883425,0.93021805
27095,0,USMinnesotaMilleLacs,Minnesota,Mille Lacs,2021-01-05 18:29:05.882010,2020-10-31 00:00:00.000000,10.22104489,16.79525364,25.04846148,2685,4413,6581,1336,1986,2770,5.08651617,7.56138727,10.54301715,0.51161865,0.72039426,0.97456674
27095,0,USMinnesotaMilleLacs,Minnesota,Mille Lacs,2021-01-05 18:29:05.882010,2020-11-01 00:00:00.000000,10.91909994,18.04295930,26.45122431,2869,4741,6950,1447,2132,2961,5.50905704,8.11611294,11.27182293,0.51421380,0.73320906,0.99170069
27095,0,USMinnesotaMilleLacs,Minnesota,Mille Lacs,2021-01-05 18:29:05.882010,2020-11-02 00:00:00.000000,11.64383701,19.19755291,27.84607502,3059,5044,7317,1559,2262,3167,5.93362045,8.61081409,12.05390137,0.51656188,0.72969370,0.99698710
27095,0,USMinnesotaMilleLacs,Minnesota,Mille Lacs,2021-01-05 18:29:05.882010,2020-11-03 00:00:00.000000,12.39468281,20.29786334,29.23974082,3256,5333,7683,1678,2393,3383,6.38930097,9.10793733,12.87504557,0.51567269,0.72638773,0.99928228
27095,0,USMinnesotaMilleLacs,Minnesota,Mille Lacs,2021-01-05 18:29:05.882010,2020-11-04 00:00:00.000000,13.17483101,21.45383894,30.59644220,3461,5637,8039,1810,2565,3604,6.89179201,9.76160130,13.71734951,0.51368189,0.72334841,0.99994575
27095,0,USMinnesotaMilleLacs,Minnesota,Mille Lacs,2021-01-05 18:29:05.882010,2020-11-05 00:00:00.000000,14.21172004,22.55719675,31.83327521,3734,5927,8364,1934,2746,3825,7.36171113,10.45260377,14.55902844,0.49185381,0.71164095,0.99810081
27095,0,USMinnesotaMilleLacs,Minnesota,Mille Lacs,2021-01-05 18:29:05.882010,2020-11-06 00:00:00.000000,15.17364290,23.63663826,32.90601952,3987,6210,8646,2055,2923,4040,7.82114808,11.12527005,15.37834426,0.46321078,0.68265028,0.95579122
27095,0,USMinnesotaMilleLacs,Minnesota,Mille Lacs,2021-01-05 18:29:05.882010,2020-11-07 00:00:00.000000,15.96754426,24.36601469,33.82161568,4195,6402,8887,2177,3091,4246,8.28524669,11.76644295,16.15966042,0.43409775,0.63270237,0.92729540
27095,0,USMinnesotaMilleLacs,Minnesota,Mille Lacs,2021-01-05 18:29:05.882010,2020-11-08 00:00:00.000000,16.63481306,25.08851818,34.60411441,4371,6592,9092,2294,3230,4439,8.73289300,12.29545793,16.89460976,0.37425131,0.59745482,0.88332581
27095,0,USMinnesotaMilleLacs,Minnesota,Mille Lacs,2021-01-05 18:29:05.882010,2020-11-09 00:00:00.000000,16.60870802,25.84794937,35.26594821,4364,6792,9266,2394,3351,4671,9.11443252,12.75483369,17.77979788,0.36197626,0.58343311,0.83131069
27095,0,USMinnesotaMilleLacs,Minnesota,Mille Lacs,2021-01-05 18:29:05.882010,2020-11-10 00:00:00.000000,16.50294428,25.86172147,35.81780288,4336,6795,9411,2472,3468,4886,9.40974174,13.20116031,18.59793092,0.33825122,0.56937686,0.78203990
27095,0,USMinnesotaMilleLacs,Minnesota,Mille Lacs,2021-01-05 18:29:05.882010,2020-11-11 00:00:00.000000,16.48582995,26.17441135,36.25971548,4331,6877,9527,2531,3583,5079,9.63215425,13.63641122,19.32918215,0.32748036,0.56214039,0.76790807
27095,0,USMinnesotaMilleLacs,Minnesota,Mille Lacs,2021-01-05 18:29:05.882010,2020-11-12 00:00:00.000000,16.59427197,26.39158564,36.58057872,4360,6934,9612,2573,3688,5250,9.79530833,14.03619896,19.98197464,0.30629522,0.55388693,0.76795367
27095,0,USMinnesotaMilleLacs,Minnesota,Mille Lacs,2021-01-05 18:29:05.882010,2020-11-13 00:00:00.000000,16.67190868,26.37989626,36.63741358,4380,6931,9627,2575,3722,5402,9.80004865,14.16725463,20.56118762,0.30493434,0.54647851,0.76777531
27095,0,USMinnesotaMilleLacs,Minnesota,Mille Lacs,2021-01-05 18:29:05.882010,2020-11-14 00:00:00.000000,16.73479425,26.48453286,36.42744225,4397,6959,9572,2545,3728,5533,9.68823958,14.18897943,21.05890760,0.30575030,0.53968803,0.79333144
27095,0,USMinnesotaMilleLacs,Minnesota,Mille Lacs,2021-01-05 18:29:05.882010,2020-11-15 00:00:00.000000,16.77443161,26.40872370,36.12372849,4407,6939,9492,2611,3757,5638,9.93645513,14.29869141,21.45794747,0.29467317,0.54351826,0.80526044
27095,0,USMinnesotaMilleLacs,Minnesota,Mille Lacs,2021-01-05 18:29:05.882010,2020-11-16 00:00:00.000000,16.78911712,26.23342600,35.73831697,4411,6893,9390,2622,3752,5718,9.97922553,14.28007314,21.76224142,0.26782160,0.55243781,0.80485616
27095,0,USMinnesotaMilleLacs,Minnesota,Mille Lacs,2021-01-05 18:29:05.882010,2020-11-17 00:00:00.000000,16.76826560,26.11710473,35.97644218,4406,6862,9453,2607,3734,5777,9.92418121,14.21200442,21.98583428,0.26502900,0.54596897,0.80131981
27095,0,USMinnesotaMilleLacs,Minnesota,Mille Lacs,2021-01-05 18:29:05.882010,2020-11-18 00:00:00.000000,16.88035266,25.67969131,36.20627434,4435,6747,9513,2584,3696,5817,9.83559942,14.06842810,22.13738047,0.23926568,0.54621997,0.79749849
27095,0,USMinnesotaMilleLacs,Minnesota,Mille Lacs,2021-01-05 18:29:05.882010,2020-11-19 00:00:00.000000,16.98621798,25.33894102,36.29694914,4463,6658,9537,2553,3694,5804,9.71778003,14.05910068,22.09089435,0.23094423,0.53949940,0.81350014
27095,0,USMinnesotaMilleLacs,Minnesota,Mille Lacs,2021-01-05 18:29:05.882010,2020-11-20 00:00:00.000000,16.89109638,25.06488647,36.24411994,4438,6586,9523,2539,3672,5848,9.66427445,13.97609475,22.25581085,0.22871320,0.54332781,0.85551782
27095,0,USMinnesotaMilleLacs,Minnesota,Mille Lacs,2021-01-05 18:29:05.882010,2020-11-21 00:00:00.000000,16.50250865,24.53524657,36.05346504,4336,6447,9473,2532,3639,5841,9.63640508,13.84921743,22.22947315,0.22780944,0.56762211,0.91005372
27095,0,USMinnesotaMilleLacs,Minnesota,Mille Lacs,2021-01-05 18:29:05.882010,2020-11-22 00:00:00.000000,16.25900831,23.99911481,35.73763991,4272,6306,9390,2521,3597,5819,9.59750507,13.69256474,22.14706567,0.22719245,0.57683609,0.95491394
27095,0,USMinnesotaMilleLacs,Minnesota,Mille Lacs,2021-01-05 18:29:05.882010,2020-11-23 00:00:00.000000,15.94092275,23.45975827,35.30938322,4188,6164,9278,2508,3551,5784,9.54493272,13.51532947,22.01191495,0.22095492,0.58602255,0.98309955
27095,0,USMinnesotaMilleLacs,Minnesota,Mille Lacs,2021-01-05 18:29:05.882010,2020-11-24 00:00:00.000000,15.31705159,22.94397833,34.75517692,4024,6028,9132,2491,3477,5734,9.48160437,13.23561837,21.82194261,0.21697422,0.59365047,1.00112762
27095,0,USMinnesotaMilleLacs,Minnesota,Mille Lacs,2021-01-05 18:29:05.882010,2020-11-25 00:00:00.000000,14.77498339,22.35584499,33.89222916,3882,5874,8905,2444,3419,5670,9.30457497,13.01377781,21.57893650,0.20493062,0.60376211,1.01768269
27095,0,USMinnesotaMilleLacs,Minnesota,Mille Lacs,2021-01-05 18:29:05.882010,2020-11-26 00:00:00.000000,14.32024373,21.75573120,32.98604310,3762,5716,8667,2371,3349,5594,9.02689139,12.74601257,21.29095904,0.20271609,0.60369545,1.00478097
27095,0,USMinnesotaMilleLacs,Minnesota,Mille Lacs,2021-01-05 18:29:05.882010,2020-11-27 00:00:00.000000,13.93569927,21.04473297,32.05197610,3661,5529,8422,2305,3276,5508,8.77463819,12.46912855,20.96226164,0.19737165,0.57853222,0.97908744
27095,0,USMinnesotaMilleLacs,Minnesota,Mille Lacs,2021-01-05 18:29:05.882010,2020-11-28 00:00:00.000000,13.51125957,20.26913818,30.90714173,3550,5326,8121,2217,3200,5412,8.43879446,12.18113567,20.59689253,0.19350739,0.57385726,1.00299372
27095,0,USMinnesotaMilleLacs,Minnesota,Mille Lacs,2021-01-05 18:29:05.882010,2020-11-29 00:00:00.000000,13.04844114,19.75787660,29.72499188,3428,5191,7810,2134,3125,5307,8.12442232,11.89492277,20.19874442,0.19074634,0.56892897,1.01054364
27095,0,USMinnesotaMilleLacs,Minnesota,Mille Lacs,2021-01-05 18:29:05.882010,2020-11-30 00:00:00.000000,12.53555188,19.07415959,28.53644463,3293,5012,7498,2048,3023,5195,7.79695324,11.50574422,19.77163152,0.18753421,0.56651277,1.00984241
27095,0,USMinnesotaMilleLacs,Minnesota,Mille Lacs,2021-01-05 18:29:05.882010,2020-12-01 00:00:00.000000,11.92745947,18.32406760,27.34552630,3134,4815,7185,1960,2926,5076,7.46008880,11.13686940,19.31850056,0.18401572,0.56484070,1.00015707
27095,0,USMinnesotaMilleLacs,Minnesota,Mille Lacs,2021-01-05 18:29:05.882010,2020-12-02 00:00:00.000000,11.21673203,17.70999659,26.15890016,2947,4653,6873,1870,2830,4951,7.11835867,10.77308095,18.84308535,0.18045786,0.56368740,0.99814977
27095,0,USMinnesotaMilleLacs,Minnesota,Mille Lacs,2021-01-05 18:29:05.882010,2020-12-03 00:00:00.000000,10.45629316,17.02468852,24.98613015,2747,4473,6565,1787,2719,4821,6.80320698,10.35004184,18.34888620,0.17712729,0.54070894,0.98819103
27095,0,USMinnesotaMilleLacs,Minnesota,Mille Lacs,2021-01-05 18:29:05.882010,2020-12-04 00:00:00.000000,9.72760726,16.25811543,24.18409894,2556,4272,6354,1706,2604,4687,6.49582986,9.91329126,17.83924327,0.16852006,0.54491975,0.97800847
27095,0,USMinnesotaMilleLacs,Minnesota,Mille Lacs,2021-01-05 18:29:05.882010,2020-12-05 00:00:00.000000,9.24500492,15.45767679,23.34373429,2429,4061,6134,1624,2495,4558,6.18361467,9.49565616,17.34823658,0.15247238,0.55624574,0.97288138
27095,0,USMinnesotaMilleLacs,Minnesota,Mille Lacs,2021-01-05 18:29:05.882010,2020-12-06 00:00:00.000000,8.77977961,14.63411374,22.49257621,2307,3845,5910,1518,2389,4447,5.77734204,9.09245885,16.92577261,0.13779281,0.56039446,0.96687665
27095,0,USMinnesotaMilleLacs,Minnesota,Mille Lacs,2021-01-05 18:29:05.882010,2020-12-07 00:00:00.000000,8.33227112,13.91427354,21.64287813,2189,3656,5687,1438,2279,4328,5.47344741,8.67378014,16.47233916,0.13235763,0.56664148,0.98352633
27095,0,USMinnesotaMilleLacs,Minnesota,Mille Lacs,2021-01-05 18:29:05.882010,2020-12-08 00:00:00.000000,7.89645002,13.19274978,20.80807157,2074,3466,5467,1364,2167,4203,5.19458926,8.24769976,15.99533372,0.13062359,0.57019574,0.97632782
27095,0,USMinnesotaMilleLacs,Minnesota,Mille Lacs,2021-01-05 18:29:05.882010,2020-12-09 00:00:00.000000,7.47104375,12.50130263,19.99289430,1963,3284,5253,1294,2066,4073,4.92805193,7.86416700,15.50244673,0.13066519,0.57274131,0.98700559
27095,0,USMinnesotaMilleLacs,Minnesota,Mille Lacs,2021-01-05 18:29:05.882010,2020-12-10 00:00:00.000000,7.06193823,11.77420799,19.20012986,1855,3093,5045,1220,1973,3941,4.64389058,7.50922547,15.00024717,0.13594655,0.57580286,1.01214427
27095,0,USMinnesotaMilleLacs,Minnesota,Mille Lacs,2021-01-05 18:29:05.882010,2020-12-11 00:00:00.000000,6.67161159,11.03526577,18.43140406,1753,2899,4843,1150,1878,3808,4.37923275,7.14710963,14.49415116,0.13940441,0.57573556,0.99955184
27095,0,USMinnesotaMilleLacs,Minnesota,Mille Lacs,2021-01-05 18:29:05.882010,2020-12-12 00:00:00.000000,6.30025852,10.36846404,17.68750861,1655,2724,4647,1085,1779,3675,4.13007007,6.77053319,13.98853519,0.13728955,0.59149238,1.00128473
27095,0,USMinnesotaMilleLacs,Minnesota,Mille Lacs,2021-01-05 18:29:05.882010,2020-12-13 00:00:00.000000,5.94747789,9.79227293,16.96871357,1562,2573,4458,1015,1690,3543,3.86553776,6.43171377,13.48686967,0.13526646,0.60093745,0.99910742
27095,0,USMinnesotaMilleLacs,Minnesota,Mille Lacs,2021-01-05 18:29:05.882010,2020-12-14 00:00:00.000000,5.61093296,9.25243692,16.28076710,1474,2431,4278,949,1597,3413,3.61358917,6.07836721,12.99186236,0.13330669,0.61480635,0.98605687
27095,0,USMinnesotaMilleLacs,Minnesota,Mille Lacs,2021-01-05 18:29:05.882010,2020-12-15 00:00:00.000000,5.29121911,8.73619467,15.61719232,1390,2295,4103,885,1505,3286,3.37053562,5.72791338,12.50650771,0.13134490,0.60587332,0.99023038
27095,0,USMinnesotaMilleLacs,Minnesota,Mille Lacs,2021-01-05 18:29:05.882010,2020-12-16 00:00:00.000000,4.91484153,8.22346725,14.97736568,1291,2160,3935,824,1412,3161,3.13797651,5.37406106,12.03210932,0.13035975,0.59041182,0.99458463
27095,0,USMinnesotaMilleLacs,Minnesota,Mille Lacs,2021-01-05 18:29:05.882010,2020-12-17 00:00:00.000000,4.55521999,7.75964629,14.36053618,1196,2039,3773,766,1328,3040,2.91713404,5.05598131,11.56958630,0.12992353,0.57795549,1.00345915
27095,0,USMinnesotaMilleLacs,Minnesota,Mille Lacs,2021-01-05 18:29:05.882010,2020-12-18 00:00:00.000000,4.21933461,7.31634950,13.76580252,1108,1922,3617,711,1253,2921,2.70862416,4.76863963,11.11955363,0.12910537,0.58727927,1.02801580
27095,0,USMinnesotaMilleLacs,Minnesota,Mille Lacs,2021-01-05 18:29:05.882010,2020-12-19 00:00:00.000000,3.96451407,6.90195454,13.19219494,1041,1813,3466,662,1181,2807,2.52309100,4.49477933,10.68236720,0.12791608,0.60771214,1.08179860
27095,0,USMinnesotaMilleLacs,Minnesota,Mille Lacs,2021-01-05 18:29:05.882010,2020-12-20 00:00:00.000000,3.71402343,6.50801296,12.63908164,975,1710,3321,623,1114,2695,2.37291205,4.23963424,10.25817441,0.13010472,0.59753118,1.09983239
27095,0,USMinnesotaMilleLacs,Minnesota,Mille Lacs,2021-01-05 18:29:05.882010,2020-12-21 00:00:00.000000,3.43241152,6.12172579,12.09718966,901,1608,3178,586,1051,2587,2.23160897,4.00247957,9.84701545,0.13233855,0.59415456,1.12767875
27095,0,USMinnesotaMilleLacs,Minnesota,Mille Lacs,2021-01-05 18:29:05.882010,2020-12-22 00:00:00.000000,3.18558075,5.76255651,11.57497382,837,1514,3041,550,991,2482,2.09557467,3.77510672,9.44750084,0.13109966,0.59349525,1.14712731
27095,0,USMinnesotaMilleLacs,Minnesota,Mille Lacs,2021-01-05 18:29:05.882010,2020-12-23 00:00:00.000000,2.96091575,5.47483151,11.07057744,778,1438,2909,516,934,2380,1.96547736,3.55763672,9.05989727,0.12790639,0.59297763,1.18538130
27095,0,USMinnesotaMilleLacs,Minnesota,Mille Lacs,2021-01-05 18:29:05.882010,2020-12-24 00:00:00.000000,2.75703105,5.17203084,10.57962970,724,1359,2780,481,879,2281,1.83298762,3.34718529,8.68414708,0.12041761,0.58702903,1.20545118
27095,0,USMinnesotaMilleLacs,Minnesota,Mille Lacs,2021-01-05 18:29:05.882010,2020-12-25 00:00:00.000000,2.56958730,4.87958016,10.09683404,675,1282,2653,447,824,2186,1.70269911,3.13863801,8.31953285,0.11215464,0.58740186,1.22040453
27095,0,USMinnesotaMilleLacs,Minnesota,Mille Lacs,2021-01-05 18:29:05.882010,2020-12-26 00:00:00.000000,2.39654645,4.56895052,9.62368735,629,1200,2528,416,773,2092,1.58404878,2.94533057,7.96469119,0.10812325,0.59609439,1.23112772
27095,0,USMinnesotaMilleLacs,Minnesota,Mille Lacs,2021-01-05 18:29:05.882010,2020-12-27 00:00:00.000000,2.23715169,4.26022014,9.16558041,587,1119,2408,387,727,2001,1.47573373,2.76698973,7.61882192,0.10686517,0.59963761,1.23859807
27095,0,USMinnesotaMilleLacs,Minnesota,Mille Lacs,2021-01-05 18:29:05.882010,2020-12-28 00:00:00.000000,2.07085478,3.96038167,8.72274090,544,1040,2292,361,682,1913,1.37608434,2.59861111,7.28216350,0.10652500,0.60644350,1.24574132
27095,0,USMinnesotaMilleLacs,Minnesota,Mille Lacs,2021-01-05 18:29:05.882010,2020-12-29 00:00:00.000000,1.91554961,3.68089981,8.29796977,503,967,2180,336,640,1827,1.27981809,2.43920738,6.95494664,0.10645628,0.60401962,1.24916106
27095,0,USMinnesotaMilleLacs,Minnesota,Mille Lacs,2021-01-05 18:29:05.882010,2020-12-30 00:00:00.000000,1.79308301,3.42050737,7.89108361,471,898,2073,315,599,1744,1.20235612,2.27988244,6.63777076,0.10648300,0.60717262,1.25344575
27095,0,USMinnesotaMilleLacs,Minnesota,Mille Lacs,2021-01-05 18:29:05.882010,2020-12-31 00:00:00.000000,1.66945142,3.16551696,7.50186670,438,831,1971,294,557,1663,1.12077321,2.12147051,6.33106261,0.10655862,0.61524565,1.25983597
27095,0,USMinnesotaMilleLacs,Minnesota,Mille Lacs,2021-01-05 18:29:05.882010,2021-01-01 00:00:00.000000,1.53393992,2.92517374,7.13002459,403,768,1873,271,518,1585,1.03482500,1.97303405,6.03510790,0.10667392,0.62673948,1.30620543
27095,0,USMinnesotaMilleLacs,Minnesota,Mille Lacs,2021-01-05 18:29:05.882010,2021-01-02 00:00:00.000000,1.40816920,2.71753194,6.77505407,370,714,1780,250,485,1510,0.95384674,1.84660705,5.75007681,0.10694984,0.63763367,1.38597771
27095,0,USMinnesotaMilleLacs,Minnesota,Mille Lacs,2021-01-05 18:29:05.882010,2021-01-03 00:00:00.000000,1.29180493,2.54064482,6.43653263,339,667,1691,230,454,1438,0.87796251,1.73129748,5.47602441,0.10866220,0.64152195,1.37946111
27095,0,USMinnesotaMilleLacs,Minnesota,Mille Lacs,2021-01-05 18:29:05.882010,2021-01-04 00:00:00.000000,1.18439913,2.38537725,6.11396164,311,626,1606,212,426,1369,0.80717530,1.62223311,5.21292755,0.11919497,0.64288205,1.44177755
27095,0,USMinnesotaMilleLacs,Minnesota,Mille Lacs,2021-01-05 18:29:05.882010,2021-01-05 00:00:00.000000,1.08544225,2.23668269,5.80678817,285,587,1525,194,399,1303,0.74139031,1.51884619,4.96069252,0.13772557,0.64340876,1.53350340
27095,0,USMinnesotaMilleLacs,Minnesota,Mille Lacs,2021-01-05 18:29:05.882010,2021-01-06 00:00:00.000000,0.99869521,2.09721560,5.51442705,262,551,1449,178,372,1240,0.68044371,1.41789673,4.71916374,0.13838964,0.64185636,1.55831136
27095,0,USMinnesotaMilleLacs,Minnesota,Mille Lacs,2021-01-05 18:29:05.882010,2021-01-07 00:00:00.000000,0.91890007,1.96264076,5.23627860,241,515,1375,164,346,1179,0.62673673,1.31910449,4.48813358,0.13680335,0.64265297,1.56128153
27095,0,USMinnesotaMilleLacs,Minnesota,Mille Lacs,2021-01-05 18:29:05.882010,2021-01-08 00:00:00.000000,0.84528879,1.82466315,4.97174108,222,479,1306,151,322,1121,0.57705588,1.22809980,4.26735250,0.13636165,0.64278481,1.56220660
27095,0,USMinnesotaMilleLacs,Minnesota,Mille Lacs,2021-01-05 18:29:05.882010,2021-01-09 00:00:00.000000,0.77741979,1.70429554,4.72021903,204,447,1240,139,302,1065,0.53114498,1.15042090,4.05653852,0.13624813,0.64282577,1.56252511
27095,0,USMinnesotaMilleLacs,Minnesota,Mille Lacs,2021-01-05 18:29:05.882010,2021-01-10 00:00:00.000000,0.71487494,1.60626543,4.48112874,187,422,1177,128,281,1013,0.48875311,1.06993814,3.85538574,0.13621968,0.64284422,1.56263740
27095,0,USMinnesotaMilleLacs,Minnesota,Mille Lacs,2021-01-05 18:29:05.882010,2021-01-11 00:00:00.000000,0.65726033,1.51375931,4.25390175,172,397,1117,118,263,962,0.44963781,1.00223003,3.66357158,0.13621264,0.64285324,1.56267823
27095,0,USMinnesotaMilleLacs,Minnesota,Mille Lacs,2021-01-05 18:29:05.882010,2021-01-12 00:00:00.000000,0.60420637,1.42550140,4.03719468,158,374,1060,108,247,914,0.41356716,0.94146944,3.48076278,0.13621092,0.64285772,1.56269359
27095,0,USMinnesotaMilleLacs,Minnesota,Mille Lacs,2021-01-05 18:29:05.882010,2021-01-13 00:00:00.000000,0.55536737,1.33183530,3.84854328,145,349,1011,99,231,868,0.38032098,0.88215757,3.30662042,0.13621051,0.64285996,1.56269957
27095,0,USMinnesotaMilleLacs,Minnesota,Mille Lacs,2021-01-05 18:29:05.882010,2021-01-14 00:00:00.000000,0.51042086,1.23942945,3.66888293,134,325,964,91,217,825,0.34969140,0.82891351,3.14080383,0.13621040,0.64286108,1.56270197
27095,0,USMinnesotaMilleLacs,Minnesota,Mille Lacs,2021-01-05 18:29:05.882010,2021-01-15 00:00:00.000000,0.46906665,1.15140388,3.49653864,123,302,918,84,203,783,0.32148309,0.77432984,2.98297383,0.13621037,0.64286165,1.56270297
27095,0,USMinnesotaMilleLacs,Minnesota,Mille Lacs,2021-01-05 18:29:05.882010,2021-01-16 00:00:00.000000,0.43102582,1.06950272,3.33131924,113,281,875,77,190,744,0.29551316,0.72502322,2.83279521,0.13621036,0.64286193,1.56270339
27095,0,USMinnesotaMilleLacs,Minnesota,Mille Lacs,2021-01-05 18:29:05.882010,2021-01-17 00:00:00.000000,0.39603958,0.99332049,3.17302720,104,261,833,71,178,706,0.27161083,0.67947016,2.68967412,0.13621035,0.64286208,1.56270358
