FIPS,HR_UID,nameid,province,region,analysisTime,dates,pointprevalence_025,pointprevalence_50,pointprevalence_975,pointinfections_025,pointinfections_50,pointinfections_975,pointinfectious_025,pointinfectious_50,pointinfectious_975,pointinfectiousprevalence_05,pointinfectiousprevalence_50,pointinfectiousprevalence_95,infectrate_025,infectrate_50,infectrate_975
22091,0,USLouisianaSt.Helena,Louisiana,St. Helena,2021-01-05 21:07:59.833492,2020-03-09 00:00:00.000000,0.01719470,0.04350875,0.08737301,1,4,8,0,2,5,0.00834925,0.02204423,0.05023122,0.48360992,0.57009486,0.69605121
22091,0,USLouisianaSt.Helena,Louisiana,St. Helena,2021-01-05 21:07:59.833492,2020-03-10 00:00:00.000000,0.01865712,0.04809288,0.09585484,1,4,9,0,2,4,0.00856979,0.02075204,0.04726871,0.48360926,0.57009477,0.69604458
22091,0,USLouisianaSt.Helena,Louisiana,St. Helena,2021-01-05 21:07:59.833492,2020-03-11 00:00:00.000000,0.02011841,0.05166718,0.10429417,2,5,10,0,2,4,0.00870204,0.02066568,0.04657713,0.48360821,0.57009440,0.69603107
22091,0,USLouisianaSt.Helena,Louisiana,St. Helena,2021-01-05 21:07:59.833492,2020-03-12 00:00:00.000000,0.02162583,0.05465200,0.11296064,2,5,11,0,2,4,0.00909457,0.02107280,0.04740556,0.48360652,0.57009298,0.69600331
22091,0,USLouisianaSt.Helena,Louisiana,St. Helena,2021-01-05 21:07:59.833492,2020-03-13 00:00:00.000000,0.02321227,0.05770099,0.12204038,2,5,12,0,2,4,0.00966207,0.02176847,0.04929109,0.48360378,0.57008739,0.69594581
22091,0,USLouisianaSt.Helena,Louisiana,St. Helena,2021-01-05 21:07:59.833492,2020-03-14 00:00:00.000000,0.02517989,0.06084280,0.13085588,2,6,13,1,2,5,0.01037007,0.02268347,0.05195141,0.48359936,0.57006545,0.69582588
22091,0,USLouisianaSt.Helena,Louisiana,St. Helena,2021-01-05 21:07:59.833492,2020-03-15 00:00:00.000000,0.02765920,0.06409790,0.13957658,2,6,14,1,2,5,0.01119459,0.02374897,0.05521768,0.48359222,0.56997915,0.69557443
22091,0,USLouisianaSt.Helena,Louisiana,St. Helena,2021-01-05 21:07:59.833492,2020-03-16 00:00:00.000000,0.03679972,0.08307605,0.15244998,3,8,15,1,2,5,0.01212491,0.02523252,0.05819202,0.47838049,0.56963714,0.69504595
22091,0,USLouisianaSt.Helena,Louisiana,St. Helena,2021-01-05 21:07:59.833492,2020-03-17 00:00:00.000000,0.04298127,0.10388163,0.16529747,4,10,16,1,2,6,0.01448783,0.02887096,0.06201916,0.47683565,0.56767692,0.69393695
22091,0,USLouisianaSt.Helena,Louisiana,St. Helena,2021-01-05 21:07:59.833492,2020-03-18 00:00:00.000000,0.04743681,0.12303915,0.18052761,4,12,18,1,3,6,0.01655195,0.03405741,0.06648032,0.45065312,0.56057673,0.68794357
22091,0,USLouisianaSt.Helena,Louisiana,St. Helena,2021-01-05 21:07:59.833492,2020-03-19 00:00:00.000000,0.05467310,0.14169177,0.20272553,5,14,20,1,4,7,0.01836355,0.04098140,0.07120136,0.38457054,0.54546385,0.68108187
22091,0,USLouisianaSt.Helena,Louisiana,St. Helena,2021-01-05 21:07:59.833492,2020-03-20 00:00:00.000000,0.06202725,0.16279098,0.21905889,6,16,22,2,4,7,0.02008691,0.04895078,0.07612697,0.38329064,0.53155385,0.67615629
22091,0,USLouisianaSt.Helena,Louisiana,St. Helena,2021-01-05 21:07:59.833492,2020-03-21 00:00:00.000000,0.06950796,0.18064161,0.25627445,7,18,25,2,5,8,0.02197584,0.05823118,0.08127397,0.37224691,0.48373972,0.65804493
22091,0,USLouisianaSt.Helena,Louisiana,St. Helena,2021-01-05 21:07:59.833492,2020-03-22 00:00:00.000000,0.07541076,0.19853182,0.29011443,7,20,29,2,6,9,0.02398674,0.06611193,0.08989446,0.34472908,0.44821903,0.63525457
22091,0,USLouisianaSt.Helena,Louisiana,St. Helena,2021-01-05 21:07:59.833492,2020-03-23 00:00:00.000000,0.08963485,0.21633066,0.30537639,9,21,30,2,7,10,0.02673656,0.07285434,0.10063761,0.33663839,0.44159801,0.60084480
22091,0,USLouisianaSt.Helena,Louisiana,St. Helena,2021-01-05 21:07:59.833492,2020-03-24 00:00:00.000000,0.10217622,0.23443485,0.33844015,10,23,34,3,8,11,0.03130891,0.08088829,0.11513010,0.33420816,0.43554520,0.55857959
22091,0,USLouisianaSt.Helena,Louisiana,St. Helena,2021-01-05 21:07:59.833492,2020-03-25 00:00:00.000000,0.11184841,0.25669138,0.37273266,11,26,37,3,9,12,0.03705149,0.08951206,0.12808103,0.33322735,0.42712793,0.54248182
22091,0,USLouisianaSt.Helena,Louisiana,St. Helena,2021-01-05 21:07:59.833492,2020-03-26 00:00:00.000000,0.12146153,0.28144328,0.40863883,12,28,41,4,9,14,0.04239745,0.09833295,0.14483060,0.32284028,0.41784226,0.53661981
22091,0,USLouisianaSt.Helena,Louisiana,St. Helena,2021-01-05 21:07:59.833492,2020-03-27 00:00:00.000000,0.13131443,0.30589296,0.44652360,13,30,45,4,10,16,0.04760360,0.10670256,0.16181255,0.30600068,0.40649507,0.52422988
22091,0,USLouisianaSt.Helena,Louisiana,St. Helena,2021-01-05 21:07:59.833492,2020-03-28 00:00:00.000000,0.14324980,0.32603062,0.48646449,14,33,49,5,11,18,0.05212960,0.11671172,0.17826773,0.28301510,0.38887268,0.52270444
22091,0,USLouisianaSt.Helena,Louisiana,St. Helena,2021-01-05 21:07:59.833492,2020-03-29 00:00:00.000000,0.15679097,0.34125853,0.52825770,15,34,53,5,12,19,0.05651214,0.12616687,0.19543805,0.25863965,0.36786139,0.51882088
22091,0,USLouisianaSt.Helena,Louisiana,St. Helena,2021-01-05 21:07:59.833492,2020-03-30 00:00:00.000000,0.18403776,0.36518884,0.56701782,18,37,57,6,13,21,0.06101968,0.13610300,0.21341467,0.24720338,0.34995415,0.50654938
22091,0,USLouisianaSt.Helena,Louisiana,St. Helena,2021-01-05 21:07:59.833492,2020-03-31 00:00:00.000000,0.20813850,0.38253787,0.60487057,21,38,61,6,14,23,0.06699058,0.14792956,0.23139316,0.24369110,0.33736954,0.49000810
22091,0,USLouisianaSt.Helena,Louisiana,St. Helena,2021-01-05 21:07:59.833492,2020-04-01 00:00:00.000000,0.23643153,0.39183859,0.63922013,23,39,64,7,15,24,0.07628714,0.15470569,0.24388844,0.23949108,0.32848586,0.48029487
22091,0,USLouisianaSt.Helena,Louisiana,St. Helena,2021-01-05 21:07:59.833492,2020-04-02 00:00:00.000000,0.26376684,0.41141344,0.67052483,26,41,67,8,16,25,0.08666250,0.16212535,0.25630089,0.23379908,0.32729906,0.47182269
22091,0,USLouisianaSt.Helena,Louisiana,St. Helena,2021-01-05 21:07:59.833492,2020-04-03 00:00:00.000000,0.27230169,0.43214950,0.70103405,27,43,71,9,17,27,0.09816825,0.16845619,0.27060455,0.22577948,0.32293238,0.46206591
22091,0,USLouisianaSt.Helena,Louisiana,St. Helena,2021-01-05 21:07:59.833492,2020-04-04 00:00:00.000000,0.28159409,0.45304262,0.73144839,28,45,74,11,17,28,0.11038753,0.17431815,0.28467412,0.21650794,0.31502041,0.44845176
22091,0,USLouisianaSt.Helena,Louisiana,St. Helena,2021-01-05 21:07:59.833492,2020-04-05 00:00:00.000000,0.29984911,0.47453333,0.76141200,30,48,77,12,18,30,0.12167241,0.18447257,0.29857555,0.20737846,0.31129902,0.42615078
22091,0,USLouisianaSt.Helena,Louisiana,St. Helena,2021-01-05 21:07:59.833492,2020-04-06 00:00:00.000000,0.30558870,0.48481317,0.77367929,30,49,78,12,19,31,0.12750638,0.19380644,0.31234251,0.19926429,0.30215626,0.41319659
22091,0,USLouisianaSt.Helena,Louisiana,St. Helena,2021-01-05 21:07:59.833492,2020-04-07 00:00:00.000000,0.30810705,0.49160280,0.78448970,31,49,79,13,20,33,0.12895258,0.20081032,0.32701491,0.19328306,0.29557859,0.39655215
22091,0,USLouisianaSt.Helena,Louisiana,St. Helena,2021-01-05 21:07:59.833492,2020-04-08 00:00:00.000000,0.31173025,0.49705123,0.79344402,31,50,80,13,20,34,0.13004466,0.20713828,0.33997407,0.18871875,0.28784597,0.38408306
22091,0,USLouisianaSt.Helena,Louisiana,St. Helena,2021-01-05 21:07:59.833492,2020-04-09 00:00:00.000000,0.31383108,0.50219411,0.81625996,31,50,82,13,21,35,0.13413233,0.21320026,0.35161366,0.18519950,0.27586160,0.37762467
22091,0,USLouisianaSt.Helena,Louisiana,St. Helena,2021-01-05 21:07:59.833492,2020-04-10 00:00:00.000000,0.31543376,0.50835540,0.85254045,31,51,86,13,22,36,0.13679692,0.21839473,0.36227814,0.18179390,0.26317367,0.36729762
22091,0,USLouisianaSt.Helena,Louisiana,St. Helena,2021-01-05 21:07:59.833492,2020-04-11 00:00:00.000000,0.31600095,0.51435774,0.88440503,32,52,89,13,22,37,0.13790815,0.22205534,0.37218939,0.17763170,0.25756303,0.34946919
22091,0,USLouisianaSt.Helena,Louisiana,St. Helena,2021-01-05 21:07:59.833492,2020-04-12 00:00:00.000000,0.31345380,0.51678213,0.90811152,31,52,92,14,22,38,0.13854012,0.22489230,0.38482242,0.17242799,0.25357191,0.34133133
22091,0,USLouisianaSt.Helena,Louisiana,St. Helena,2021-01-05 21:07:59.833492,2020-04-13 00:00:00.000000,0.32082390,0.52384410,0.94637379,32,53,95,13,23,40,0.13811351,0.22910019,0.39900468,0.16659835,0.24911401,0.33676860
22091,0,USLouisianaSt.Helena,Louisiana,St. Helena,2021-01-05 21:07:59.833492,2020-04-14 00:00:00.000000,0.32760320,0.53381352,0.98362247,33,54,99,14,23,41,0.13877122,0.23082077,0.41446787,0.16117139,0.24360834,0.33189448
22091,0,USLouisianaSt.Helena,Louisiana,St. Helena,2021-01-05 21:07:59.833492,2020-04-15 00:00:00.000000,0.33410841,0.53770056,1.02075256,33,54,103,14,23,43,0.14019225,0.23426481,0.43065196,0.15707179,0.23431571,0.32534313
22091,0,USLouisianaSt.Helena,Louisiana,St. Helena,2021-01-05 21:07:59.833492,2020-04-16 00:00:00.000000,0.34048281,0.53591649,1.05726173,34,54,107,14,24,45,0.14404787,0.24037342,0.44724977,0.15464523,0.22757126,0.31966407
22091,0,USLouisianaSt.Helena,Louisiana,St. Helena,2021-01-05 21:07:59.833492,2020-04-17 00:00:00.000000,0.34677133,0.53713086,1.09224057,35,54,110,14,24,47,0.14580211,0.24222521,0.46399159,0.15394843,0.21093937,0.31953415
22091,0,USLouisianaSt.Helena,Louisiana,St. Helena,2021-01-05 21:07:59.833492,2020-04-18 00:00:00.000000,0.35305321,0.54564362,1.12542079,35,55,114,14,24,48,0.14761308,0.24457241,0.48055148,0.15533708,0.22218133,0.31766622
22091,0,USLouisianaSt.Helena,Louisiana,St. Helena,2021-01-05 21:07:59.833492,2020-04-19 00:00:00.000000,0.35948428,0.54926412,1.15721788,36,55,117,15,25,50,0.14944444,0.24753571,0.49667612,0.15789769,0.22928453,0.31571781
22091,0,USLouisianaSt.Helena,Louisiana,St. Helena,2021-01-05 21:07:59.833492,2020-04-20 00:00:00.000000,0.36354085,0.55587495,1.16633544,36,56,118,15,25,51,0.15133980,0.24803057,0.51228068,0.15873418,0.23623204,0.31998937
22091,0,USLouisianaSt.Helena,Louisiana,St. Helena,2021-01-05 21:07:59.833492,2020-04-21 00:00:00.000000,0.36806812,0.56726044,1.17373088,37,57,118,15,25,53,0.15362666,0.25003281,0.52361343,0.16008697,0.23432049,0.31921643
22091,0,USLouisianaSt.Helena,Louisiana,St. Helena,2021-01-05 21:07:59.833492,2020-04-22 00:00:00.000000,0.37038980,0.57606562,1.19417995,37,58,120,15,25,54,0.15377586,0.25278804,0.53571537,0.16027907,0.22397810,0.31997359
22091,0,USLouisianaSt.Helena,Louisiana,St. Helena,2021-01-05 21:07:59.833492,2020-04-23 00:00:00.000000,0.36895234,0.58306935,1.22551582,37,59,124,15,26,55,0.15331634,0.25709028,0.54529955,0.16059791,0.21610870,0.31657962
22091,0,USLouisianaSt.Helena,Louisiana,St. Helena,2021-01-05 21:07:59.833492,2020-04-24 00:00:00.000000,0.37148756,0.59269522,1.25554070,37,60,127,15,26,56,0.15333098,0.26227827,0.55302852,0.16165924,0.21859401,0.31367747
22091,0,USLouisianaSt.Helena,Louisiana,St. Helena,2021-01-05 21:07:59.833492,2020-04-25 00:00:00.000000,0.36954472,0.60247270,1.28454431,37,61,130,15,27,56,0.15427334,0.27018979,0.55943188,0.16462439,0.22181963,0.29347599
22091,0,USLouisianaSt.Helena,Louisiana,St. Helena,2021-01-05 21:07:59.833492,2020-04-26 00:00:00.000000,0.36729617,0.61262208,1.31280522,37,62,133,15,28,57,0.15675260,0.27709323,0.56486414,0.17220621,0.22983447,0.29021301
22091,0,USLouisianaSt.Helena,Louisiana,St. Helena,2021-01-05 21:07:59.833492,2020-04-27 00:00:00.000000,0.38788200,0.62213535,1.35844161,39,63,137,16,28,58,0.15930755,0.28403546,0.57461937,0.18563511,0.23395047,0.29010604
22091,0,USLouisianaSt.Helena,Louisiana,St. Helena,2021-01-05 21:07:59.833492,2020-04-28 00:00:00.000000,0.40775971,0.63690532,1.40364905,41,64,142,16,29,59,0.16256222,0.28744770,0.59080870,0.18969159,0.24143240,0.28839658
22091,0,USLouisianaSt.Helena,Louisiana,St. Helena,2021-01-05 21:07:59.833492,2020-04-29 00:00:00.000000,0.42470020,0.64431941,1.44888842,43,65,146,16,29,61,0.16643684,0.28877986,0.60860099,0.18882094,0.24295164,0.28746588
22091,0,USLouisianaSt.Helena,Louisiana,St. Helena,2021-01-05 21:07:59.833492,2020-04-30 00:00:00.000000,0.44423153,0.66293316,1.49390802,45,67,151,17,30,63,0.17093122,0.29920986,0.62742801,0.18816441,0.24993743,0.29449454
22091,0,USLouisianaSt.Helena,Louisiana,St. Helena,2021-01-05 21:07:59.833492,2020-05-01 00:00:00.000000,0.46420079,0.67952583,1.53824261,47,68,155,17,31,65,0.17612337,0.30727793,0.64688450,0.18745618,0.25712711,0.31385376
22091,0,USLouisianaSt.Helena,Louisiana,St. Helena,2021-01-05 21:07:59.833492,2020-05-02 00:00:00.000000,0.48437361,0.69347924,1.57349803,49,70,159,18,31,67,0.18202064,0.31244423,0.66663464,0.18646116,0.26249829,0.32681074
22091,0,USLouisianaSt.Helena,Louisiana,St. Helena,2021-01-05 21:07:59.833492,2020-05-03 00:00:00.000000,0.50462034,0.72349151,1.59607428,51,73,161,19,31,69,0.18855330,0.31460028,0.68629238,0.19122812,0.26705461,0.33160563
22091,0,USLouisianaSt.Helena,Louisiana,St. Helena,2021-01-05 21:07:59.833492,2020-05-04 00:00:00.000000,0.52421536,0.74466439,1.59862350,53,75,161,19,32,71,0.19557060,0.31641167,0.70529356,0.20069624,0.26519092,0.33541624
22091,0,USLouisianaSt.Helena,Louisiana,St. Helena,2021-01-05 21:07:59.833492,2020-05-05 00:00:00.000000,0.54190926,0.76344083,1.59912815,54,77,162,20,32,72,0.20292816,0.32241516,0.72037368,0.20428651,0.26827599,0.34332149
22091,0,USLouisianaSt.Helena,Louisiana,St. Helena,2021-01-05 21:07:59.833492,2020-05-06 00:00:00.000000,0.55248708,0.78190931,1.59809593,55,79,161,21,33,74,0.20866359,0.33411305,0.73179203,0.19587473,0.27226212,0.34722190
22091,0,USLouisianaSt.Helena,Louisiana,St. Helena,2021-01-05 21:07:59.833492,2020-05-07 00:00:00.000000,0.56574851,0.79183922,1.59830383,57,80,161,21,34,74,0.21648977,0.34164249,0.73796452,0.18810913,0.27604166,0.34951259
22091,0,USLouisianaSt.Helena,Louisiana,St. Helena,2021-01-05 21:07:59.833492,2020-05-08 00:00:00.000000,0.57641173,0.80123633,1.60343404,58,81,162,22,35,75,0.22534198,0.34864816,0.74145978,0.18494431,0.28020428,0.35340465
22091,0,USLouisianaSt.Helena,Louisiana,St. Helena,2021-01-05 21:07:59.833492,2020-05-09 00:00:00.000000,0.58383850,0.81622649,1.60188724,59,82,162,23,36,75,0.23449583,0.35649089,0.74226390,0.18774244,0.28735334,0.35409496
22091,0,USLouisianaSt.Helena,Louisiana,St. Helena,2021-01-05 21:07:59.833492,2020-05-10 00:00:00.000000,0.59391934,0.83472736,1.60045923,60,84,162,24,37,75,0.24386852,0.36596510,0.74240623,0.19196451,0.29369278,0.36262978
22091,0,USLouisianaSt.Helena,Louisiana,St. Helena,2021-01-05 21:07:59.833492,2020-05-11 00:00:00.000000,0.60372713,0.83780540,1.57311235,61,84,159,25,38,75,0.25329225,0.37692181,0.74215145,0.19410376,0.30076676,0.36489646
22091,0,USLouisianaSt.Helena,Louisiana,St. Helena,2021-01-05 21:07:59.833492,2020-05-12 00:00:00.000000,0.62449503,0.84646587,1.56926366,63,85,158,26,39,75,0.25939025,0.38630014,0.74291701,0.19565702,0.30660190,0.36570815
22091,0,USLouisianaSt.Helena,Louisiana,St. Helena,2021-01-05 21:07:59.833492,2020-05-13 00:00:00.000000,0.63726525,0.87211415,1.58103407,64,88,160,26,39,75,0.26432393,0.39309534,0.74353978,0.20167686,0.30866579,0.36780532
22091,0,USLouisianaSt.Helena,Louisiana,St. Helena,2021-01-05 21:07:59.833492,2020-05-14 00:00:00.000000,0.64140889,0.89105325,1.59856095,64,90,161,27,40,74,0.26878106,0.39867194,0.73652872,0.20631556,0.31123159,0.37895285
22091,0,USLouisianaSt.Helena,Louisiana,St. Helena,2021-01-05 21:07:59.833492,2020-05-15 00:00:00.000000,0.64602308,0.91196410,1.63747148,65,92,165,27,41,73,0.27271278,0.40765185,0.72983603,0.21767207,0.31518586,0.39114627
22091,0,USLouisianaSt.Helena,Louisiana,St. Helena,2021-01-05 21:07:59.833492,2020-05-16 00:00:00.000000,0.65293698,0.94427630,1.66603201,66,95,168,28,41,73,0.28197305,0.41114641,0.72560786,0.21899252,0.31765708,0.39136629
22091,0,USLouisianaSt.Helena,Louisiana,St. Helena,2021-01-05 21:07:59.833492,2020-05-17 00:00:00.000000,0.65757319,0.96643631,1.69187792,66,97,171,29,41,74,0.28760943,0.41443077,0.73468232,0.21969861,0.31703689,0.39673884
22091,0,USLouisianaSt.Helena,Louisiana,St. Helena,2021-01-05 21:07:59.833492,2020-05-18 00:00:00.000000,0.67661111,0.98863344,1.73690251,68,100,175,29,42,76,0.28890319,0.42125407,0.75371585,0.22433888,0.31544450,0.39975698
22091,0,USLouisianaSt.Helena,Louisiana,St. Helena,2021-01-05 21:07:59.833492,2020-05-19 00:00:00.000000,0.68420910,1.02406389,1.78537108,69,103,180,29,44,78,0.29147505,0.43704800,0.77304787,0.22405911,0.31171771,0.40147192
22091,0,USLouisianaSt.Helena,Louisiana,St. Helena,2021-01-05 21:07:59.833492,2020-05-20 00:00:00.000000,0.69689053,1.04661445,1.84102632,70,106,186,30,44,78,0.29883741,0.43877302,0.77628230,0.22404751,0.31011444,0.40412502
22091,0,USLouisianaSt.Helena,Louisiana,St. Helena,2021-01-05 21:07:59.833492,2020-05-21 00:00:00.000000,0.69355238,1.07956567,1.89755563,70,109,192,31,44,80,0.30692620,0.44371979,0.79543448,0.22707390,0.31307080,0.41015148
22091,0,USLouisianaSt.Helena,Louisiana,St. Helena,2021-01-05 21:07:59.833492,2020-05-22 00:00:00.000000,0.69100660,1.11059211,1.95484867,70,112,198,31,46,83,0.30934599,0.46368219,0.81927208,0.23959027,0.31462984,0.42385344
22091,0,USLouisianaSt.Helena,Louisiana,St. Helena,2021-01-05 21:07:59.833492,2020-05-23 00:00:00.000000,0.69008741,1.14490299,2.01310475,69,116,203,31,49,85,0.30879758,0.48447931,0.84391124,0.24085204,0.31588828,0.43851198
22091,0,USLouisianaSt.Helena,Louisiana,St. Helena,2021-01-05 21:07:59.833492,2020-05-24 00:00:00.000000,0.69290646,1.20739303,2.07257708,70,122,209,31,51,88,0.30934234,0.50466153,0.86921283,0.24744465,0.32108701,0.44905857
22091,0,USLouisianaSt.Helena,Louisiana,St. Helena,2021-01-05 21:07:59.833492,2020-05-25 00:00:00.000000,0.72665114,1.27578549,2.13063799,73,129,215,31,52,90,0.31410927,0.51558899,0.89506893,0.24864477,0.32350574,0.45898713
22091,0,USLouisianaSt.Helena,Louisiana,St. Helena,2021-01-05 21:07:59.833492,2020-05-26 00:00:00.000000,0.77094000,1.34844741,2.18898200,78,136,221,32,53,93,0.31935970,0.53225219,0.92118863,0.25312200,0.32406213,0.46203985
22091,0,USLouisianaSt.Helena,Louisiana,St. Helena,2021-01-05 21:07:59.833492,2020-05-27 00:00:00.000000,0.81721205,1.44196324,2.23365091,82,146,226,33,56,96,0.33311877,0.55451786,0.94765415,0.25975070,0.32474329,0.46248471
22091,0,USLouisianaSt.Helena,Louisiana,St. Helena,2021-01-05 21:07:59.833492,2020-05-28 00:00:00.000000,0.81546546,1.50457913,2.27900607,82,152,230,35,58,98,0.35006859,0.58210401,0.97450441,0.26647090,0.32712473,0.45852869
22091,0,USLouisianaSt.Helena,Louisiana,St. Helena,2021-01-05 21:07:59.833492,2020-05-29 00:00:00.000000,0.80818440,1.57965072,2.34950735,81,160,238,37,61,101,0.36935417,0.60910501,1.00175223,0.27145363,0.34038627,0.44445005
22091,0,USLouisianaSt.Helena,Louisiana,St. Helena,2021-01-05 21:07:59.833492,2020-05-30 00:00:00.000000,0.80433742,1.67735779,2.43501497,81,169,246,36,66,103,0.36460464,0.65664788,1.02450873,0.27135444,0.36219946,0.44399390
22091,0,USLouisianaSt.Helena,Louisiana,St. Helena,2021-01-05 21:07:59.833492,2020-05-31 00:00:00.000000,0.81965198,1.77144598,2.50455519,83,179,253,36,71,105,0.36042348,0.70561331,1.04570262,0.29258267,0.36836221,0.44630646
22091,0,USLouisianaSt.Helena,Louisiana,St. Helena,2021-01-05 21:07:59.833492,2020-06-01 00:00:00.000000,0.86107425,1.84170973,2.58666373,87,186,262,36,74,108,0.36047800,0.73466050,1.06748818,0.31107335,0.37581480,0.45287271
22091,0,USLouisianaSt.Helena,Louisiana,St. Helena,2021-01-05 21:07:59.833492,2020-06-02 00:00:00.000000,0.90466444,1.90185437,2.67681915,91,192,271,37,78,111,0.36726300,0.77351416,1.10523625,0.31963654,0.37939280,0.46662760
22091,0,USLouisianaSt.Helena,Louisiana,St. Helena,2021-01-05 21:07:59.833492,2020-06-03 00:00:00.000000,0.95010015,1.96004530,2.77190716,96,198,280,38,81,116,0.37855930,0.80173951,1.15085889,0.32133868,0.38880872,0.46943695
22091,0,USLouisianaSt.Helena,Louisiana,St. Helena,2021-01-05 21:07:59.833492,2020-06-04 00:00:00.000000,0.99612372,2.02231016,2.87154840,100,204,290,39,84,120,0.39278652,0.83155898,1.19067216,0.32592191,0.38854979,0.46960671
22091,0,USLouisianaSt.Helena,Louisiana,St. Helena,2021-01-05 21:07:59.833492,2020-06-05 00:00:00.000000,1.04078866,2.11673278,2.97325810,105,214,301,41,87,124,0.40895021,0.86277823,1.23083819,0.31944464,0.39877572,0.47621185
22091,0,USLouisianaSt.Helena,Louisiana,St. Helena,2021-01-05 21:07:59.833492,2020-06-06 00:00:00.000000,1.08642827,2.21525330,3.07614425,110,224,311,43,90,128,0.42644009,0.89607736,1.27311810,0.32229636,0.41063004,0.47628188
22091,0,USLouisianaSt.Helena,Louisiana,St. Helena,2021-01-05 21:07:59.833492,2020-06-07 00:00:00.000000,1.13020832,2.31012295,3.18052632,114,234,322,45,93,135,0.44488105,0.92344055,1.33522969,0.33808422,0.42054846,0.48145427
22091,0,USLouisianaSt.Helena,Louisiana,St. Helena,2021-01-05 21:07:59.833492,2020-06-08 00:00:00.000000,1.17009579,2.42959872,3.28517235,118,246,332,47,96,142,0.46400792,0.95519484,1.40938489,0.33867234,0.42596759,0.48132049
22091,0,USLouisianaSt.Helena,Louisiana,St. Helena,2021-01-05 21:07:59.833492,2020-06-09 00:00:00.000000,1.21173861,2.52629471,3.42959952,122,255,347,49,100,147,0.48740678,0.99129179,1.45903942,0.33793610,0.42777757,0.49663722
22091,0,USLouisianaSt.Helena,Louisiana,St. Helena,2021-01-05 21:07:59.833492,2020-06-10 00:00:00.000000,1.28421921,2.62259350,3.58685605,130,265,363,52,103,152,0.51331825,1.02419146,1.50267090,0.33270641,0.42673860,0.49941275
22091,0,USLouisianaSt.Helena,Louisiana,St. Helena,2021-01-05 21:07:59.833492,2020-06-11 00:00:00.000000,1.36790723,2.74175963,3.73441035,138,277,378,55,108,156,0.54520139,1.07007525,1.54510640,0.33031633,0.42065566,0.50022033
22091,0,USLouisianaSt.Helena,Louisiana,St. Helena,2021-01-05 21:07:59.833492,2020-06-12 00:00:00.000000,1.45494603,2.87703443,3.88745536,147,291,393,58,112,162,0.58110599,1.11282766,1.60399346,0.34314452,0.41138716,0.49750732
22091,0,USLouisianaSt.Helena,Louisiana,St. Helena,2021-01-05 21:07:59.833492,2020-06-13 00:00:00.000000,1.53514170,3.00048293,4.01859353,155,304,407,61,118,169,0.61117435,1.17290021,1.67037608,0.34175131,0.40875794,0.48591551
22091,0,USLouisianaSt.Helena,Louisiana,St. Helena,2021-01-05 21:07:59.833492,2020-06-14 00:00:00.000000,1.60989701,3.09229685,4.13729052,163,313,419,64,124,176,0.63209888,1.22538180,1.73732808,0.34082875,0.40857272,0.50842545
22091,0,USLouisianaSt.Helena,Louisiana,St. Helena,2021-01-05 21:07:59.833492,2020-06-15 00:00:00.000000,1.65940476,3.19149239,4.23286853,168,323,428,66,129,182,0.65530753,1.27328966,1.80499801,0.34032303,0.40900237,0.51963746
22091,0,USLouisianaSt.Helena,Louisiana,St. Helena,2021-01-05 21:07:59.833492,2020-06-16 00:00:00.000000,1.71305277,3.31057262,4.32245721,173,335,437,69,134,189,0.68192621,1.32731050,1.87273579,0.34005358,0.40354276,0.51973157
22091,0,USLouisianaSt.Helena,Louisiana,St. Helena,2021-01-05 21:07:59.833492,2020-06-17 00:00:00.000000,1.76850786,3.40923948,4.41147857,179,345,446,71,139,196,0.70829955,1.37739090,1.94068004,0.33561531,0.39621492,0.51956208
22091,0,USLouisianaSt.Helena,Louisiana,St. Helena,2021-01-05 21:07:59.833492,2020-06-18 00:00:00.000000,1.82624084,3.50286145,4.54142120,185,354,460,74,144,203,0.74001050,1.42513699,2.00831256,0.32550353,0.39107216,0.51881609
22091,0,USLouisianaSt.Helena,Louisiana,St. Helena,2021-01-05 21:07:59.833492,2020-06-19 00:00:00.000000,1.88726165,3.59377997,4.66539504,191,364,472,78,149,209,0.77423495,1.47825215,2.06720531,0.30443704,0.39102657,0.50613437
22091,0,USLouisianaSt.Helena,Louisiana,St. Helena,2021-01-05 21:07:59.833492,2020-06-20 00:00:00.000000,1.95287527,3.68202679,4.76980673,197,373,483,82,155,213,0.80992119,1.53029302,2.10404935,0.29557511,0.39033623,0.49032184
22091,0,USLouisianaSt.Helena,Louisiana,St. Helena,2021-01-05 21:07:59.833492,2020-06-21 00:00:00.000000,2.03721739,3.73837134,4.83150887,206,378,489,85,158,217,0.84563068,1.56900238,2.14222729,0.29501241,0.38426837,0.48358809
22091,0,USLouisianaSt.Helena,Louisiana,St. Helena,2021-01-05 21:07:59.833492,2020-06-22 00:00:00.000000,2.12247794,3.79757654,4.90281143,215,384,496,89,162,224,0.88071357,1.60856311,2.21536874,0.28733885,0.38567078,0.48147091
22091,0,USLouisianaSt.Helena,Louisiana,St. Helena,2021-01-05 21:07:59.833492,2020-06-23 00:00:00.000000,2.18831388,3.88182964,5.04070211,221,393,510,92,167,227,0.91014943,1.65029935,2.24525198,0.27620965,0.36602896,0.48765041
22091,0,USLouisianaSt.Helena,Louisiana,St. Helena,2021-01-05 21:07:59.833492,2020-06-24 00:00:00.000000,2.25231979,3.94413967,5.17216118,228,399,524,95,171,229,0.93966970,1.69158271,2.26863067,0.27322406,0.35998888,0.49778775
22091,0,USLouisianaSt.Helena,Louisiana,St. Helena,2021-01-05 21:07:59.833492,2020-06-25 00:00:00.000000,2.31201039,4.06438500,5.27714978,234,411,534,98,174,232,0.96894825,1.72389031,2.29042867,0.27267343,0.35772900,0.49586081
22091,0,USLouisianaSt.Helena,Louisiana,St. Helena,2021-01-05 21:07:59.833492,2020-06-26 00:00:00.000000,2.36162898,4.15446835,5.35425850,239,420,542,101,176,237,0.99728158,1.74518958,2.34628823,0.27401919,0.36703319,0.49256572
22091,0,USLouisianaSt.Helena,Louisiana,St. Helena,2021-01-05 21:07:59.833492,2020-06-27 00:00:00.000000,2.41245089,4.24322567,5.48163944,244,429,555,104,179,242,1.03517383,1.77190127,2.39555155,0.27667031,0.38116730,0.49068277
22091,0,USLouisianaSt.Helena,Louisiana,St. Helena,2021-01-05 21:07:59.833492,2020-06-28 00:00:00.000000,2.47327202,4.33701427,5.63240141,250,439,570,108,181,247,1.07470055,1.79418193,2.44025929,0.27442396,0.38807315,0.49119337
22091,0,USLouisianaSt.Helena,Louisiana,St. Helena,2021-01-05 21:07:59.833492,2020-06-29 00:00:00.000000,2.59755901,4.46178218,5.79072710,263,452,586,110,185,254,1.09387578,1.83245712,2.50815175,0.27190365,0.39251422,0.50888212
22091,0,USLouisianaSt.Helena,Louisiana,St. Helena,2021-01-05 21:07:59.833492,2020-06-30 00:00:00.000000,2.71198077,4.58412605,5.95244424,274,464,603,112,192,261,1.11306614,1.90195689,2.57794283,0.27131063,0.39470908,0.52706763
22091,0,USLouisianaSt.Helena,Louisiana,St. Helena,2021-01-05 21:07:59.833492,2020-07-01 00:00:00.000000,2.83165555,4.67875645,6.11748135,286,474,619,117,199,268,1.15506163,1.96427933,2.64956935,0.27166575,0.39802738,0.53623415
22091,0,USLouisianaSt.Helena,Louisiana,St. Helena,2021-01-05 21:07:59.833492,2020-07-02 00:00:00.000000,2.90790458,4.83093870,6.28713830,294,489,637,121,204,275,1.20228347,2.02327520,2.72317368,0.27711842,0.40015898,0.53996269
22091,0,USLouisianaSt.Helena,Louisiana,St. Helena,2021-01-05 21:07:59.833492,2020-07-03 00:00:00.000000,3.01228399,4.97598127,6.47589985,305,504,656,127,210,283,1.25351050,2.07740918,2.79934484,0.27911834,0.40489989,0.54292522
22091,0,USLouisianaSt.Helena,Louisiana,St. Helena,2021-01-05 21:07:59.833492,2020-07-04 00:00:00.000000,3.13969778,5.08830776,6.69757764,318,515,678,132,215,291,1.30832153,2.13013726,2.87939065,0.29100712,0.40317861,0.55086805
22091,0,USLouisianaSt.Helena,Louisiana,St. Helena,2021-01-05 21:07:59.833492,2020-07-05 00:00:00.000000,3.27761193,5.21789680,6.93485245,332,528,702,136,221,300,1.34635140,2.18407967,2.96532092,0.31202522,0.40271402,0.55523089
22091,0,USLouisianaSt.Helena,Louisiana,St. Helena,2021-01-05 21:07:59.833492,2020-07-06 00:00:00.000000,3.44622043,5.35045654,7.20265760,349,542,729,139,228,309,1.37680159,2.25690715,3.05861009,0.31665598,0.40440146,0.53093189
22091,0,USLouisianaSt.Helena,Louisiana,St. Helena,2021-01-05 21:07:59.833492,2020-07-07 00:00:00.000000,3.53767949,5.48196547,7.48789710,358,555,758,142,234,317,1.40698012,2.31284830,3.13514295,0.32006011,0.40553081,0.52115831
22091,0,USLouisianaSt.Helena,Louisiana,St. Helena,2021-01-05 21:07:59.833492,2020-07-08 00:00:00.000000,3.60095689,5.63243445,7.75863348,364,570,786,149,238,326,1.47321741,2.35356367,3.21819387,0.31797536,0.40427006,0.51272219
22091,0,USLouisianaSt.Helena,Louisiana,St. Helena,2021-01-05 21:07:59.833492,2020-07-09 00:00:00.000000,3.66306983,5.75714121,7.96063026,371,583,806,156,242,338,1.54527864,2.39657417,3.33707407,0.31772791,0.40265201,0.52006283
22091,0,USLouisianaSt.Helena,Louisiana,St. Helena,2021-01-05 21:07:59.833492,2020-07-10 00:00:00.000000,3.72466541,5.87720098,8.05727494,377,595,816,164,246,346,1.62068601,2.43207956,3.42239121,0.31811371,0.40150132,0.52200710
22091,0,USLouisianaSt.Helena,Louisiana,St. Helena,2021-01-05 21:07:59.833492,2020-07-11 00:00:00.000000,3.78652121,5.95993314,8.16433488,383,603,827,168,253,355,1.65925946,2.50616282,3.50762632,0.32145094,0.39038335,0.52620173
22091,0,USLouisianaSt.Helena,Louisiana,St. Helena,2021-01-05 21:07:59.833492,2020-07-12 00:00:00.000000,3.91289038,6.07975283,8.31765710,396,616,842,171,261,364,1.68880345,2.57753266,3.59945150,0.31881426,0.39336395,0.52887338
22091,0,USLouisianaSt.Helena,Louisiana,St. Helena,2021-01-05 21:07:59.833492,2020-07-13 00:00:00.000000,3.94921948,6.23187569,8.48091963,400,631,859,174,267,369,1.71829656,2.63823441,3.64423094,0.32026692,0.38600824,0.52972401
22091,0,USLouisianaSt.Helena,Louisiana,St. Helena,2021-01-05 21:07:59.833492,2020-07-14 00:00:00.000000,4.00449918,6.41124132,8.63967203,405,649,875,177,273,375,1.74861164,2.70423135,3.70221357,0.32300545,0.38475442,0.52883991
22091,0,USLouisianaSt.Helena,Louisiana,St. Helena,2021-01-05 21:07:59.833492,2020-07-15 00:00:00.000000,4.09212896,6.52433232,8.79479470,414,661,891,180,278,381,1.78163193,2.74379301,3.76455329,0.32393336,0.38199698,0.52609266
22091,0,USLouisianaSt.Helena,Louisiana,St. Helena,2021-01-05 21:07:59.833492,2020-07-16 00:00:00.000000,4.17560161,6.66602725,8.94591807,423,675,906,184,283,387,1.81764228,2.79457193,3.82446936,0.32773842,0.38158902,0.52183718
22091,0,USLouisianaSt.Helena,Louisiana,St. Helena,2021-01-05 21:07:59.833492,2020-07-17 00:00:00.000000,4.20534371,6.72792589,9.06454335,426,681,918,187,290,393,1.84741894,2.86574738,3.88214253,0.33388660,0.37810988,0.51599599
22091,0,USLouisianaSt.Helena,Louisiana,St. Helena,2021-01-05 21:07:59.833492,2020-07-18 00:00:00.000000,4.22931037,6.78375412,9.17099471,428,687,929,188,295,399,1.86010857,2.92085083,3.94481565,0.33576734,0.37248500,0.50946155
22091,0,USLouisianaSt.Helena,Louisiana,St. Helena,2021-01-05 21:07:59.833492,2020-07-19 00:00:00.000000,4.27200559,6.80189763,9.26350627,432,689,938,192,301,407,1.90164685,2.97916199,4.01791693,0.32383712,0.36596777,0.50402092
22091,0,USLouisianaSt.Helena,Louisiana,St. Helena,2021-01-05 21:07:59.833492,2020-07-20 00:00:00.000000,4.34222638,6.86689306,9.27032801,439,695,939,198,307,413,1.95694094,3.03177728,4.08087257,0.30500226,0.36163207,0.50042714
22091,0,USLouisianaSt.Helena,Louisiana,St. Helena,2021-01-05 21:07:59.833492,2020-07-21 00:00:00.000000,4.34670206,6.88709515,9.35243804,440,697,947,201,310,420,1.98468558,3.06714439,4.15247828,0.29818563,0.35979915,0.50338635
22091,0,USLouisianaSt.Helena,Louisiana,St. Helena,2021-01-05 21:07:59.833492,2020-07-22 00:00:00.000000,4.34991016,6.97434446,9.43160653,440,706,955,201,313,428,1.98845311,3.09417254,4.22907557,0.30030198,0.35699216,0.51467094
22091,0,USLouisianaSt.Helena,Louisiana,St. Helena,2021-01-05 21:07:59.833492,2020-07-23 00:00:00.000000,4.35191514,7.00167084,9.50304235,440,709,962,201,316,435,1.99023993,3.12023912,4.29785445,0.30075667,0.35657081,0.51585622
22091,0,USLouisianaSt.Helena,Louisiana,St. Helena,2021-01-05 21:07:59.833492,2020-07-24 00:00:00.000000,4.35292233,7.02813192,9.65594130,441,712,978,201,318,441,1.99062985,3.14565409,4.35968611,0.30272431,0.35533399,0.52202736
22091,0,USLouisianaSt.Helena,Louisiana,St. Helena,2021-01-05 21:07:59.833492,2020-07-25 00:00:00.000000,4.35329102,7.02167405,9.73389895,441,711,986,201,318,447,1.99022060,3.13902872,4.41457897,0.30804334,0.35715493,0.52918715
22091,0,USLouisianaSt.Helena,Louisiana,St. Helena,2021-01-05 21:07:59.833492,2020-07-26 00:00:00.000000,4.35339359,7.04676883,9.73869119,441,713,986,201,317,452,1.98966786,3.13183961,4.46188374,0.31512992,0.36424963,0.53211499
22091,0,USLouisianaSt.Helena,Louisiana,St. Helena,2021-01-05 21:07:59.833492,2020-07-27 00:00:00.000000,4.34961483,7.09872840,9.79932589,440,719,992,201,316,455,1.98967071,3.12725778,4.49551020,0.32251090,0.36844181,0.53137744
22091,0,USLouisianaSt.Helena,Louisiana,St. Helena,2021-01-05 21:07:59.833492,2020-07-28 00:00:00.000000,4.34572468,7.23358414,9.83420107,440,732,996,201,319,458,1.98959198,3.15204808,4.52173889,0.32435455,0.37361037,0.52170900
22091,0,USLouisianaSt.Helena,Louisiana,St. Helena,2021-01-05 21:07:59.833492,2020-07-29 00:00:00.000000,4.34220562,7.28688566,9.84667847,439,738,997,201,322,460,1.99036084,3.17833786,4.54191147,0.32344179,0.37695509,0.49939803
22091,0,USLouisianaSt.Helena,Louisiana,St. Helena,2021-01-05 21:07:59.833492,2020-07-30 00:00:00.000000,4.34164523,7.32887001,9.85574071,439,742,998,201,322,460,1.99285073,3.17817000,4.54260378,0.32399477,0.38131007,0.48267710
22091,0,USLouisianaSt.Helena,Louisiana,St. Helena,2021-01-05 21:07:59.833492,2020-07-31 00:00:00.000000,4.37319983,7.39534392,9.88000264,443,749,1001,202,326,463,1.99846786,3.21888071,4.57507938,0.32511310,0.38848047,0.45940058
22091,0,USLouisianaSt.Helena,Louisiana,St. Helena,2021-01-05 21:07:59.833492,2020-08-01 00:00:00.000000,4.39725298,7.51048151,9.97918150,445,760,1011,203,327,465,2.00938893,3.23586018,4.59490501,0.31433730,0.39099979,0.48637844
22091,0,USLouisianaSt.Helena,Louisiana,St. Helena,2021-01-05 21:07:59.833492,2020-08-02 00:00:00.000000,4.49172527,7.60890807,10.11465338,455,770,1024,204,331,468,2.02217019,3.27019677,4.62465159,0.31394354,0.39531773,0.49593320
22091,0,USLouisianaSt.Helena,Louisiana,St. Helena,2021-01-05 21:07:59.833492,2020-08-03 00:00:00.000000,4.60583265,7.61794878,10.24000564,466,771,1037,205,334,471,2.03205627,3.29809936,4.65678476,0.31381166,0.39674466,0.51058552
22091,0,USLouisianaSt.Helena,Louisiana,St. Helena,2021-01-05 21:07:59.833492,2020-08-04 00:00:00.000000,4.72754730,7.58937253,10.35414295,478,768,1049,207,335,476,2.05020782,3.31413982,4.69862239,0.30805423,0.39985238,0.50817477
22091,0,USLouisianaSt.Helena,Louisiana,St. Helena,2021-01-05 21:07:59.833492,2020-08-05 00:00:00.000000,4.85386028,7.64013445,10.46788709,491,774,1060,210,337,480,2.07411294,3.33075527,4.74673767,0.30645527,0.40432366,0.50492129
22091,0,USLouisianaSt.Helena,Louisiana,St. Helena,2021-01-05 21:07:59.833492,2020-08-06 00:00:00.000000,4.98374989,7.68199944,10.58158784,504,778,1072,213,339,486,2.10503890,3.35272803,4.79818509,0.30641591,0.40861400,0.51716371
22091,0,USLouisianaSt.Helena,Louisiana,St. Helena,2021-01-05 21:07:59.833492,2020-08-07 00:00:00.000000,5.11806542,7.72382257,10.63447602,518,782,1077,216,341,491,2.13430694,3.36612001,4.85011164,0.30645641,0.40762204,0.51628699
22091,0,USLouisianaSt.Helena,Louisiana,St. Helena,2021-01-05 21:07:59.833492,2020-08-08 00:00:00.000000,5.25806507,7.77963903,10.66069895,532,788,1080,220,340,494,2.17360436,3.36421308,4.88381322,0.31077126,0.40417412,0.54390106
22091,0,USLouisianaSt.Helena,Louisiana,St. Helena,2021-01-05 21:07:59.833492,2020-08-09 00:00:00.000000,5.40302525,7.78207684,10.68085915,547,788,1082,226,343,497,2.23125087,3.39081156,4.91292121,0.30652372,0.40691513,0.56247141
22091,0,USLouisianaSt.Helena,Louisiana,St. Helena,2021-01-05 21:07:59.833492,2020-08-10 00:00:00.000000,5.56010537,7.80444959,10.73278933,563,790,1087,232,349,497,2.29136783,3.45231702,4.91459630,0.29931804,0.40453207,0.57179577
22091,0,USLouisianaSt.Helena,Louisiana,St. Helena,2021-01-05 21:07:59.833492,2020-08-11 00:00:00.000000,5.71767250,7.79910772,10.70254511,579,790,1084,238,352,496,2.35504451,3.48330393,4.90229688,0.29212962,0.40530082,0.57761847
22091,0,USLouisianaSt.Helena,Louisiana,St. Helena,2021-01-05 21:07:59.833492,2020-08-12 00:00:00.000000,5.86649955,7.79983344,10.59910247,594,790,1073,245,357,494,2.42103569,3.53289077,4.88019934,0.26928874,0.39672827,0.56608604
22091,0,USLouisianaSt.Helena,Louisiana,St. Helena,2021-01-05 21:07:59.833492,2020-08-13 00:00:00.000000,5.93347460,7.77012177,10.49395343,601,787,1063,252,360,492,2.48813823,3.56153379,4.86096990,0.26563553,0.40128629,0.55371955
22091,0,USLouisianaSt.Helena,Louisiana,St. Helena,2021-01-05 21:07:59.833492,2020-08-14 00:00:00.000000,5.98871155,7.82650665,10.46973924,606,792,1060,253,362,495,2.49749690,3.57830562,4.88746248,0.26133925,0.39833576,0.55118429
22091,0,USLouisianaSt.Helena,Louisiana,St. Helena,2021-01-05 21:07:59.833492,2020-08-15 00:00:00.000000,6.02904732,7.76552103,10.50399063,610,786,1064,252,364,495,2.48744915,3.59947087,4.89323935,0.24557941,0.38791692,0.54655348
22091,0,USLouisianaSt.Helena,Louisiana,St. Helena,2021-01-05 21:07:59.833492,2020-08-16 00:00:00.000000,6.05819511,7.72020758,10.41692056,613,782,1055,250,365,494,2.47662729,3.60771528,4.87637683,0.24485248,0.37472802,0.53516931
22091,0,USLouisianaSt.Helena,Louisiana,St. Helena,2021-01-05 21:07:59.833492,2020-08-17 00:00:00.000000,6.08911921,7.69647163,10.24408330,616,779,1037,250,363,490,2.47619459,3.58773730,4.83924121,0.24460031,0.34815058,0.51124633
22091,0,USLouisianaSt.Helena,Louisiana,St. Helena,2021-01-05 21:07:59.833492,2020-08-18 00:00:00.000000,6.01871359,7.65777637,9.89369797,609,775,1002,253,362,483,2.50065250,3.57387542,4.77597960,0.24439432,0.33200278,0.49208676
22091,0,USLouisianaSt.Helena,Louisiana,St. Helena,2021-01-05 21:07:59.833492,2020-08-19 00:00:00.000000,5.90311843,7.58242073,9.67640559,598,768,980,255,362,478,2.52394391,3.57308342,4.72078632,0.24372425,0.32781655,0.48115339
22091,0,USLouisianaSt.Helena,Louisiana,St. Helena,2021-01-05 21:07:59.833492,2020-08-20 00:00:00.000000,5.78502993,7.55165570,9.59675404,586,765,972,257,358,470,2.54537644,3.53944654,4.64628363,0.22769827,0.31564312,0.47267190
22091,0,USLouisianaSt.Helena,Louisiana,St. Helena,2021-01-05 21:07:59.833492,2020-08-21 00:00:00.000000,5.66273365,7.50574903,9.48193670,573,760,960,259,355,465,2.56420165,3.51176659,4.59759410,0.20430054,0.30933407,0.45763079
22091,0,USLouisianaSt.Helena,Louisiana,St. Helena,2021-01-05 21:07:59.833492,2020-08-22 00:00:00.000000,5.59433028,7.38833125,9.34582107,566,748,946,261,352,456,2.57903010,3.48309642,4.50283826,0.19592390,0.30288872,0.43598954
22091,0,USLouisianaSt.Helena,Louisiana,St. Helena,2021-01-05 21:07:59.833492,2020-08-23 00:00:00.000000,5.53794894,7.23632747,9.15756821,561,733,927,259,348,447,2.56524315,3.44381841,4.41899676,0.19453804,0.29018234,0.39070587
22091,0,USLouisianaSt.Helena,Louisiana,St. Helena,2021-01-05 21:07:59.833492,2020-08-24 00:00:00.000000,5.40655117,7.06584205,8.93613759,547,715,905,259,347,439,2.55938587,3.42485670,4.33998674,0.19589814,0.27719406,0.36878252
22091,0,USLouisianaSt.Helena,Louisiana,St. Helena,2021-01-05 21:07:59.833492,2020-08-25 00:00:00.000000,5.23702552,6.91381580,8.71342961,530,700,882,253,342,431,2.50563288,3.38204337,4.25457217,0.19673413,0.26395692,0.37240423
22091,0,USLouisianaSt.Helena,Louisiana,St. Helena,2021-01-05 21:07:59.833492,2020-08-26 00:00:00.000000,5.04259918,6.74737429,8.49159234,510,683,860,247,335,421,2.43995465,3.30830273,4.16431656,0.19350821,0.25886210,0.36662974
22091,0,USLouisianaSt.Helena,Louisiana,St. Helena,2021-01-05 21:07:59.833492,2020-08-27 00:00:00.000000,4.83324186,6.57141135,8.27113206,489,665,838,240,329,412,2.37200878,3.24742284,4.07066370,0.19471246,0.25398236,0.35878091
22091,0,USLouisianaSt.Helena,Louisiana,St. Helena,2021-01-05 21:07:59.833492,2020-08-28 00:00:00.000000,4.61772489,6.28513414,8.05139830,467,636,815,233,318,402,2.30729237,3.14593874,3.97618422,0.19206296,0.24560118,0.32971235
22091,0,USLouisianaSt.Helena,Louisiana,St. Helena,2021-01-05 21:07:59.833492,2020-08-29 00:00:00.000000,4.45023397,6.03571675,7.83000827,450,611,793,227,307,393,2.24788522,3.03096054,3.88099201,0.19100339,0.23638298,0.32933221
22091,0,USLouisianaSt.Helena,Louisiana,St. Helena,2021-01-05 21:07:59.833492,2020-08-30 00:00:00.000000,4.29298020,5.85471538,7.61354473,434,593,771,219,294,383,2.16996748,2.90594564,3.78465010,0.18955264,0.23102110,0.32819426
22091,0,USLouisianaSt.Helena,Louisiana,St. Helena,2021-01-05 21:07:59.833492,2020-08-31 00:00:00.000000,4.14366866,5.63075200,7.36598244,419,570,746,211,284,373,2.08947409,2.80343022,3.68662524,0.19030149,0.22536649,0.32543713
22091,0,USLouisianaSt.Helena,Louisiana,St. Helena,2021-01-05 21:07:59.833492,2020-09-01 00:00:00.000000,3.97612651,5.40456206,7.12469395,402,547,721,202,275,363,2.00037456,2.71456229,3.58598137,0.18868691,0.22144895,0.32119330
22091,0,USLouisianaSt.Helena,Louisiana,St. Helena,2021-01-05 21:07:59.833492,2020-09-02 00:00:00.000000,3.75203118,5.18232687,6.89055736,380,525,698,193,264,352,1.91255986,2.61214728,3.48271920,0.19261913,0.21853997,0.31775077
22091,0,USLouisianaSt.Helena,Louisiana,St. Helena,2021-01-05 21:07:59.833492,2020-09-03 00:00:00.000000,3.52140742,4.96493225,6.66657433,356,503,675,186,254,342,1.84184878,2.50912543,3.37840377,0.19546747,0.21773837,0.31655345
22091,0,USLouisianaSt.Helena,Louisiana,St. Helena,2021-01-05 21:07:59.833492,2020-09-04 00:00:00.000000,3.30705930,4.73714173,6.47126225,335,479,655,175,243,331,1.72995286,2.40652031,3.27458220,0.19288551,0.21475554,0.31879658
22091,0,USLouisianaSt.Helena,Louisiana,St. Helena,2021-01-05 21:07:59.833492,2020-09-05 00:00:00.000000,3.10884340,4.53672842,6.28795041,314,459,637,166,232,319,1.64285471,2.29901854,3.15192480,0.19168276,0.21352314,0.32442327
22091,0,USLouisianaSt.Helena,Louisiana,St. Helena,2021-01-05 21:07:59.833492,2020-09-06 00:00:00.000000,2.93572031,4.34408533,6.11321275,297,440,619,158,222,305,1.56199331,2.19965353,3.01701977,0.19110934,0.21407850,0.32889077
22091,0,USLouisianaSt.Helena,Louisiana,St. Helena,2021-01-05 21:07:59.833492,2020-09-07 00:00:00.000000,2.77667884,4.13446071,5.93035131,281,418,600,150,213,295,1.48509330,2.11121150,2.92083411,0.18792698,0.21355880,0.33123070
22091,0,USLouisianaSt.Helena,Louisiana,St. Helena,2021-01-05 21:07:59.833492,2020-09-08 00:00:00.000000,2.62657415,3.95546325,5.75380490,266,400,582,142,204,287,1.40954077,2.01871602,2.83835197,0.18694447,0.21408231,0.33103300
22091,0,USLouisianaSt.Helena,Louisiana,St. Helena,2021-01-05 21:07:59.833492,2020-09-09 00:00:00.000000,2.48421361,3.77811285,5.58261983,251,382,565,135,196,279,1.33621425,1.93459650,2.75783092,0.18826371,0.21553358,0.32806783
22091,0,USLouisianaSt.Helena,Louisiana,St. Helena,2021-01-05 21:07:59.833492,2020-09-10 00:00:00.000000,2.34976827,3.61427519,5.41643385,238,366,548,128,187,271,1.26565442,1.84670500,2.67941011,0.18701864,0.21799492,0.32258395
22091,0,USLouisianaSt.Helena,Louisiana,St. Helena,2021-01-05 21:07:59.833492,2020-09-11 00:00:00.000000,2.22409607,3.44857390,5.25513178,225,349,532,121,179,263,1.19821882,1.76746936,2.60312899,0.18625321,0.22105208,0.32009036
22091,0,USLouisianaSt.Helena,Louisiana,St. Helena,2021-01-05 21:07:59.833492,2020-09-12 00:00:00.000000,2.10084717,3.29563889,5.10721052,212,333,517,114,171,256,1.13427493,1.69055963,2.52897609,0.18609398,0.22717650,0.32751629
22091,0,USLouisianaSt.Helena,Louisiana,St. Helena,2021-01-05 21:07:59.833492,2020-09-13 00:00:00.000000,2.00064895,3.15617512,4.98633351,202,319,505,108,163,248,1.07447687,1.60992535,2.45696754,0.18731035,0.23993018,0.33110155
22091,0,USLouisianaSt.Helena,Louisiana,St. Helena,2021-01-05 21:07:59.833492,2020-09-14 00:00:00.000000,1.92403726,3.04418805,4.85991258,194,308,492,103,156,241,1.01984942,1.54910060,2.38734060,0.19166725,0.25425392,0.33161472
22091,0,USLouisianaSt.Helena,Louisiana,St. Helena,2021-01-05 21:07:59.833492,2020-09-15 00:00:00.000000,1.85613449,2.95008215,4.73725466,188,298,479,98,151,235,0.97250677,1.49616384,2.32238981,0.19835716,0.26607565,0.33148186
22091,0,USLouisianaSt.Helena,Louisiana,St. Helena,2021-01-05 21:07:59.833492,2020-09-16 00:00:00.000000,1.79426605,2.87065086,4.61825524,181,290,467,94,146,229,0.93148098,1.44594020,2.26182535,0.21187131,0.27407562,0.33119370
22091,0,USLouisianaSt.Helena,Louisiana,St. Helena,2021-01-05 21:07:59.833492,2020-09-17 00:00:00.000000,1.73718705,2.79371941,4.50436353,176,283,456,90,140,223,0.89548567,1.38190946,2.20500696,0.22613142,0.27977942,0.33671253
22091,0,USLouisianaSt.Helena,Louisiana,St. Helena,2021-01-05 21:07:59.833492,2020-09-18 00:00:00.000000,1.68508920,2.73326028,4.39923392,170,276,445,86,134,217,0.85729555,1.32619960,2.15135201,0.22693620,0.28764924,0.34247556
22091,0,USLouisianaSt.Helena,Louisiana,St. Helena,2021-01-05 21:07:59.833492,2020-09-19 00:00:00.000000,1.63996065,2.67468184,4.30568804,166,270,436,83,129,212,0.82811882,1.27621229,2.10051235,0.23375480,0.30115182,0.34919205
22091,0,USLouisianaSt.Helena,Louisiana,St. Helena,2021-01-05 21:07:59.833492,2020-09-20 00:00:00.000000,1.59095818,2.62839425,4.22068035,161,266,427,81,124,207,0.80212080,1.22648051,2.05248838,0.25752903,0.31367347,0.35544919
22091,0,USLouisianaSt.Helena,Louisiana,St. Helena,2021-01-05 21:07:59.833492,2020-09-21 00:00:00.000000,1.53196000,2.56541441,4.17219587,155,259,422,78,120,203,0.77248303,1.19210054,2.00778456,0.27475631,0.32229751,0.36481888
22091,0,USLouisianaSt.Helena,Louisiana,St. Helena,2021-01-05 21:07:59.833492,2020-09-22 00:00:00.000000,1.47907761,2.51054705,4.12630367,149,254,418,75,117,199,0.74921429,1.16000258,1.96532408,0.28695914,0.33098441,0.38870328
22091,0,USLouisianaSt.Helena,Louisiana,St. Helena,2021-01-05 21:07:59.833492,2020-09-23 00:00:00.000000,1.43129262,2.46124343,4.08249103,145,249,413,74,115,195,0.73217348,1.13605257,1.92664978,0.29095819,0.33511000,0.39964041
22091,0,USLouisianaSt.Helena,Louisiana,St. Helena,2021-01-05 21:07:59.833492,2020-09-24 00:00:00.000000,1.38750841,2.41592821,4.03989731,140,244,409,72,113,191,0.71984245,1.11599561,1.89227242,0.29328829,0.33614556,0.40265661
22091,0,USLouisianaSt.Helena,Louisiana,St. Helena,2021-01-05 21:07:59.833492,2020-09-25 00:00:00.000000,1.38275187,2.37363289,3.99784437,140,240,405,72,110,188,0.71168899,1.09392436,1.86166277,0.29425701,0.33828190,0.40998139
22091,0,USLouisianaSt.Helena,Louisiana,St. Helena,2021-01-05 21:07:59.833492,2020-09-26 00:00:00.000000,1.38339199,2.33664925,3.95593436,140,236,400,71,108,185,0.70778072,1.07347646,1.83366043,0.29535516,0.34057353,0.42474173
22091,0,USLouisianaSt.Helena,Louisiana,St. Helena,2021-01-05 21:07:59.833492,2020-09-27 00:00:00.000000,1.38503065,2.31171611,3.91407886,140,234,396,71,106,183,0.70763825,1.05446134,1.80723981,0.29641703,0.35339923,0.43293113
22091,0,USLouisianaSt.Helena,Louisiana,St. Helena,2021-01-05 21:07:59.833492,2020-09-28 00:00:00.000000,1.38103050,2.30325982,3.85319374,139,233,390,71,104,180,0.70767719,1.03124404,1.78189502,0.29728213,0.37100819,0.44488133
22091,0,USLouisianaSt.Helena,Louisiana,St. Helena,2021-01-05 21:07:59.833492,2020-09-29 00:00:00.000000,1.37737340,2.32220383,3.79256976,139,235,384,69,102,178,0.68872488,1.01426578,1.75721245,0.29348329,0.40881555,0.45757143
22091,0,USLouisianaSt.Helena,Louisiana,St. Helena,2021-01-05 21:07:59.833492,2020-09-30 00:00:00.000000,1.37367247,2.33581288,3.73211826,139,236,378,68,101,175,0.67828577,1.00133696,1.73309356,0.29387231,0.42288885,0.48967348
22091,0,USLouisianaSt.Helena,Louisiana,St. Helena,2021-01-05 21:07:59.833492,2020-10-01 00:00:00.000000,1.36992864,2.31857369,3.67213372,138,234,372,68,101,173,0.67622437,1.00369341,1.70951642,0.29794546,0.43356949,0.49599871
22091,0,USLouisianaSt.Helena,Louisiana,St. Helena,2021-01-05 21:07:59.833492,2020-10-02 00:00:00.000000,1.35099129,2.31681374,3.61295329,136,234,366,68,102,170,0.67409702,1.01249617,1.68653521,0.29960515,0.43654418,0.50063842
22091,0,USLouisianaSt.Helena,Louisiana,St. Helena,2021-01-05 21:07:59.833492,2020-10-03 00:00:00.000000,1.33033350,2.31955178,3.55511554,134,235,360,68,103,168,0.67195161,1.02514622,1.66428078,0.30325206,0.44322121,0.49940165
22091,0,USLouisianaSt.Helena,Louisiana,St. Helena,2021-01-05 21:07:59.833492,2020-10-04 00:00:00.000000,1.31683627,2.34068264,3.49963533,133,237,354,67,105,166,0.66985041,1.03986676,1.64294992,0.30857716,0.44928256,0.51187280
22091,0,USLouisianaSt.Helena,Louisiana,St. Helena,2021-01-05 21:07:59.833492,2020-10-05 00:00:00.000000,1.34251596,2.38053404,3.49069916,136,241,353,67,106,164,0.66789573,1.05262692,1.62277894,0.31777406,0.45711416,0.52170079
22091,0,USLouisianaSt.Helena,Louisiana,St. Helena,2021-01-05 21:07:59.833492,2020-10-06 00:00:00.000000,1.34537546,2.40151693,3.51224765,136,243,355,67,107,163,0.66509285,1.06013954,1.60985714,0.33208901,0.46194536,0.53115983
22091,0,USLouisianaSt.Helena,Louisiana,St. Helena,2021-01-05 21:07:59.833492,2020-10-07 00:00:00.000000,1.34512880,2.41050115,3.54098924,136,244,358,67,107,161,0.66228348,1.06207314,1.59235733,0.35496034,0.48459527,0.59316930
22091,0,USLouisianaSt.Helena,Louisiana,St. Helena,2021-01-05 21:07:59.833492,2020-10-08 00:00:00.000000,1.35553850,2.43526440,3.57804665,137,246,362,66,108,158,0.66060840,1.06901037,1.56761778,0.38394185,0.49893705,0.63608832
22091,0,USLouisianaSt.Helena,Louisiana,St. Helena,2021-01-05 21:07:59.833492,2020-10-09 00:00:00.000000,1.37744380,2.44952906,3.62549203,139,248,367,67,108,157,0.66175020,1.07150622,1.54985019,0.38528992,0.52082716,0.64344708
22091,0,USLouisianaSt.Helena,Louisiana,St. Helena,2021-01-05 21:07:59.833492,2020-10-10 00:00:00.000000,1.40824842,2.48297167,3.68597953,142,251,373,67,108,158,0.66689852,1.07059225,1.55953849,0.39014923,0.54309237,0.67155981
22091,0,USLouisianaSt.Helena,Louisiana,St. Helena,2021-01-05 21:07:59.833492,2020-10-11 00:00:00.000000,1.41733590,2.54708193,3.76175562,143,258,381,67,110,159,0.66823208,1.08965835,1.57423580,0.40858739,0.56688955,0.70226761
22091,0,USLouisianaSt.Helena,Louisiana,St. Helena,2021-01-05 21:07:59.833492,2020-10-12 00:00:00.000000,1.42125681,2.58701845,3.82559709,144,262,387,67,111,161,0.67004020,1.10141639,1.59443765,0.44957579,0.57977674,0.73652317
22091,0,USLouisianaSt.Helena,Louisiana,St. Helena,2021-01-05 21:07:59.833492,2020-10-13 00:00:00.000000,1.44567527,2.63512377,3.90323166,146,266,395,68,113,163,0.67163139,1.12225661,1.61699220,0.48509644,0.58225010,0.74256553
22091,0,USLouisianaSt.Helena,Louisiana,St. Helena,2021-01-05 21:07:59.833492,2020-10-14 00:00:00.000000,1.47106945,2.70208314,3.98989856,149,273,404,68,115,166,0.67717892,1.14176158,1.64292220,0.50708517,0.58941365,0.74288406
22091,0,USLouisianaSt.Helena,Louisiana,St. Helena,2021-01-05 21:07:59.833492,2020-10-15 00:00:00.000000,1.49800728,2.75334113,4.08141075,151,278,413,69,117,169,0.68234897,1.15967132,1.67241450,0.51551894,0.59882412,0.74406283
22091,0,USLouisianaSt.Helena,Louisiana,St. Helena,2021-01-05 21:07:59.833492,2020-10-16 00:00:00.000000,1.52769847,2.77233245,4.17536822,154,280,423,69,119,172,0.68613338,1.18329564,1.70504565,0.52945453,0.61028879,0.74617777
22091,0,USLouisianaSt.Helena,Louisiana,St. Helena,2021-01-05 21:07:59.833492,2020-10-17 00:00:00.000000,1.56195123,2.82418809,4.27090918,158,286,432,69,122,177,0.68903609,1.21002004,1.75016585,0.54872446,0.63367142,0.76941646
22091,0,USLouisianaSt.Helena,Louisiana,St. Helena,2021-01-05 21:07:59.833492,2020-10-18 00:00:00.000000,1.59379450,2.90185584,4.39899587,161,294,445,70,124,182,0.69150051,1.23237675,1.80432573,0.56883778,0.65795670,0.80365182
22091,0,USLouisianaSt.Helena,Louisiana,St. Helena,2021-01-05 21:07:59.833492,2020-10-19 00:00:00.000000,1.60950035,2.98793140,4.52012278,163,302,457,70,127,188,0.69420157,1.25585191,1.85635589,0.57780630,0.67917553,0.82381743
22091,0,USLouisianaSt.Helena,Louisiana,St. Helena,2021-01-05 21:07:59.833492,2020-10-20 00:00:00.000000,1.63441565,3.09070858,4.64285358,165,313,470,70,129,193,0.69863869,1.28228999,1.91419629,0.57782757,0.70875970,0.87255883
22091,0,USLouisianaSt.Helena,Louisiana,St. Helena,2021-01-05 21:07:59.833492,2020-10-21 00:00:00.000000,1.65901969,3.16877605,4.76699814,168,321,482,71,132,199,0.70722984,1.31025082,1.97146530,0.58039931,0.72309140,0.90807657
22091,0,USLouisianaSt.Helena,Louisiana,St. Helena,2021-01-05 21:07:59.833492,2020-10-22 00:00:00.000000,1.68855298,3.24750750,4.89096494,171,329,495,73,135,205,0.72244327,1.33645286,2.02837210,0.58997459,0.73050469,0.92033390
22091,0,USLouisianaSt.Helena,Louisiana,St. Helena,2021-01-05 21:07:59.833492,2020-10-23 00:00:00.000000,1.72335581,3.32898405,5.01265256,174,337,507,75,139,211,0.74569528,1.37285092,2.08501497,0.61122268,0.73513943,0.92573037
22091,0,USLouisianaSt.Helena,Louisiana,St. Helena,2021-01-05 21:07:59.833492,2020-10-24 00:00:00.000000,1.76402980,3.42353374,5.12566372,178,346,519,78,143,216,0.77410750,1.41777739,2.14124577,0.64063662,0.74725542,0.92670778
22091,0,USLouisianaSt.Helena,Louisiana,St. Helena,2021-01-05 21:07:59.833492,2020-10-25 00:00:00.000000,1.81085721,3.56347025,5.26276631,183,361,533,81,148,222,0.80599081,1.46113470,2.19544356,0.66887050,0.77229310,0.94382302
22091,0,USLouisianaSt.Helena,Louisiana,St. Helena,2021-01-05 21:07:59.833492,2020-10-26 00:00:00.000000,1.86066714,3.70638639,5.42413168,188,375,549,85,152,227,0.84033577,1.50601988,2.24815064,0.67763380,0.78990177,0.97270857
22091,0,USLouisianaSt.Helena,Louisiana,St. Helena,2021-01-05 21:07:59.833492,2020-10-27 00:00:00.000000,1.91501277,3.82664794,5.53247966,194,387,560,88,157,233,0.87625658,1.55508652,2.30287902,0.68105235,0.80130145,0.98733452
22091,0,USLouisianaSt.Helena,Louisiana,St. Helena,2021-01-05 21:07:59.833492,2020-10-28 00:00:00.000000,1.97245109,3.95888695,5.63746253,199,401,571,92,163,239,0.91348752,1.61208980,2.35897111,0.68126375,0.80787688,0.99058680
22091,0,USLouisianaSt.Helena,Louisiana,St. Helena,2021-01-05 21:07:59.833492,2020-10-29 00:00:00.000000,2.03160014,4.11426770,5.76669233,205,416,584,96,170,244,0.95185927,1.67787050,2.41602739,0.69111994,0.81960613,1.03377761
22091,0,USLouisianaSt.Helena,Louisiana,St. Helena,2021-01-05 21:07:59.833492,2020-10-30 00:00:00.000000,2.09036626,4.27327548,5.90177338,211,432,597,100,176,250,0.99125866,1.74123189,2.47574895,0.73208942,0.83145016,1.05966768
22091,0,USLouisianaSt.Helena,Louisiana,St. Helena,2021-01-05 21:07:59.833492,2020-10-31 00:00:00.000000,2.14831563,4.44072599,6.12744578,217,449,620,104,182,256,1.03160437,1.80091004,2.53432028,0.74340672,0.85746635,1.04759570
22091,0,USLouisianaSt.Helena,Louisiana,St. Helena,2021-01-05 21:07:59.833492,2020-11-01 00:00:00.000000,2.20679588,4.60191173,6.38140081,223,466,646,108,189,263,1.07283367,1.87261890,2.59574389,0.76209093,0.88072145,1.02655238
22091,0,USLouisianaSt.Helena,Louisiana,St. Helena,2021-01-05 21:07:59.833492,2020-11-02 00:00:00.000000,2.35687964,4.81250425,6.49972397,238,487,658,112,198,274,1.11490202,1.95865340,2.70739276,0.75661872,0.89752905,1.03366912
22091,0,USLouisianaSt.Helena,Louisiana,St. Helena,2021-01-05 21:07:59.833492,2020-11-03 00:00:00.000000,2.50701471,5.00893232,6.59670620,254,507,668,118,206,284,1.16995233,2.03943094,2.81218448,0.75653290,0.90820755,1.04038414
22091,0,USLouisianaSt.Helena,Louisiana,St. Helena,2021-01-05 21:07:59.833492,2020-11-04 00:00:00.000000,2.66242075,5.20489621,6.79684695,269,527,688,124,215,294,1.23336309,2.13121727,2.90683639,0.75816638,0.90988517,1.04336920
22091,0,USLouisianaSt.Helena,Louisiana,St. Helena,2021-01-05 21:07:59.833492,2020-11-05 00:00:00.000000,2.82195223,5.39793611,7.04127954,285,546,713,131,225,299,1.30235968,2.22674507,2.95633217,0.75773218,0.91837346,1.06189320
22091,0,USLouisianaSt.Helena,Louisiana,St. Helena,2021-01-05 21:07:59.833492,2020-11-06 00:00:00.000000,2.98682457,5.58902882,7.20706545,302,566,730,139,234,304,1.37526493,2.31320595,3.00181939,0.75711277,0.92657647,1.08776137
22091,0,USLouisianaSt.Helena,Louisiana,St. Helena,2021-01-05 21:07:59.833492,2020-11-07 00:00:00.000000,3.16564766,5.77693694,7.38776651,320,585,748,147,242,308,1.45105308,2.39632761,3.04403799,0.76681934,0.93827281,1.14105280
22091,0,USLouisianaSt.Helena,Louisiana,St. Helena,2021-01-05 21:07:59.833492,2020-11-08 00:00:00.000000,3.37061765,5.96570239,7.65586560,341,604,775,154,250,316,1.52906730,2.47407973,3.12483210,0.77797503,0.94862204,1.16751003
22091,0,USLouisianaSt.Helena,Louisiana,St. Helena,2021-01-05 21:07:59.833492,2020-11-09 00:00:00.000000,3.53635264,6.17548987,7.90398296,358,625,800,161,257,328,1.59678198,2.54599626,3.24665687,0.77746062,0.96022008,1.17403049
22091,0,USLouisianaSt.Helena,Louisiana,St. Helena,2021-01-05 21:07:59.833492,2020-11-10 00:00:00.000000,3.73546996,6.35532998,8.15085169,378,643,825,166,265,340,1.64276114,2.62375691,3.36535855,0.79479603,0.95825222,1.17419980
22091,0,USLouisianaSt.Helena,Louisiana,St. Helena,2021-01-05 21:07:59.833492,2020-11-11 00:00:00.000000,3.93756041,6.52700995,8.39461256,398,661,850,171,274,352,1.69333909,2.70479044,3.48147219,0.80824513,0.96280307,1.18822131
22091,0,USLouisianaSt.Helena,Louisiana,St. Helena,2021-01-05 21:07:59.833492,2020-11-12 00:00:00.000000,4.14202763,6.71766072,8.63413311,419,680,874,177,282,364,1.74742719,2.78364760,3.59519845,0.81171235,0.96575284,1.16842100
22091,0,USLouisianaSt.Helena,Louisiana,St. Helena,2021-01-05 21:07:59.833492,2020-11-13 00:00:00.000000,4.34828464,6.89824755,8.86828676,440,698,898,183,289,375,1.80706490,2.86212476,3.70653889,0.81843513,0.96762742,1.16264104
22091,0,USLouisianaSt.Helena,Louisiana,St. Helena,2021-01-05 21:07:59.833492,2020-11-14 00:00:00.000000,4.55572881,7.05994368,9.09595028,461,715,921,190,297,385,1.87536834,2.94074099,3.80621724,0.81770205,0.96854368,1.13831669
22091,0,USLouisianaSt.Helena,Louisiana,St. Helena,2021-01-05 21:07:59.833492,2020-11-15 00:00:00.000000,4.72945929,7.16970452,9.31600581,479,726,943,197,305,396,1.94791109,3.01958644,3.91390049,0.81489313,0.98341155,1.15298215
22091,0,USLouisianaSt.Helena,Louisiana,St. Helena,2021-01-05 21:07:59.833492,2020-11-16 00:00:00.000000,4.85054249,7.34117985,9.57701818,491,743,970,204,314,407,2.02307847,3.10009759,4.02669234,0.81196925,0.98811873,1.20562951
22091,0,USLouisianaSt.Helena,Louisiana,St. Helena,2021-01-05 21:07:59.833492,2020-11-17 00:00:00.000000,4.95981831,7.53458100,9.82822627,502,763,995,211,321,418,2.08746755,3.17159222,4.13459508,0.80232284,0.98771737,1.23744744
22091,0,USLouisianaSt.Helena,Louisiana,St. Helena,2021-01-05 21:07:59.833492,2020-11-18 00:00:00.000000,5.06395794,7.70066923,10.06967683,513,780,1020,217,327,429,2.14483196,3.23265241,4.24208334,0.81050310,0.98501266,1.24603247
22091,0,USLouisianaSt.Helena,Louisiana,St. Helena,2021-01-05 21:07:59.833492,2020-11-19 00:00:00.000000,5.16330575,7.86832335,10.30023188,523,797,1043,222,334,440,2.19752570,3.29735161,4.34825435,0.81035875,0.97702961,1.24659124
22091,0,USLouisianaSt.Helena,Louisiana,St. Helena,2021-01-05 21:07:59.833492,2020-11-20 00:00:00.000000,5.25796073,7.97492837,10.51720336,532,808,1065,227,341,451,2.24666715,3.36617707,4.45249066,0.81106802,0.96548408,1.24566018
22091,0,USLouisianaSt.Helena,Louisiana,St. Helena,2021-01-05 21:07:59.833492,2020-11-21 00:00:00.000000,5.34752823,8.06200520,10.68986097,541,816,1083,232,347,458,2.29281150,3.42589544,4.52881455,0.79794635,0.95097088,1.23562677
22091,0,USLouisianaSt.Helena,Louisiana,St. Helena,2021-01-05 21:07:59.833492,2020-11-22 00:00:00.000000,5.43178046,8.12031103,10.74323629,550,822,1088,236,353,463,2.33628737,3.48739884,4.57552946,0.79339781,0.92129602,1.22009430
22091,0,USLouisianaSt.Helena,Louisiana,St. Helena,2021-01-05 21:07:59.833492,2020-11-23 00:00:00.000000,5.51040546,8.15671791,10.79436538,558,826,1093,240,357,472,2.37722937,3.53317534,4.66169314,0.78727671,0.90373099,1.21828293
22091,0,USLouisianaSt.Helena,Louisiana,St. Helena,2021-01-05 21:07:59.833492,2020-11-24 00:00:00.000000,5.58316769,8.19013429,10.93211322,565,829,1107,244,362,480,2.41560765,3.57490856,4.74693707,0.76529175,0.89955756,1.21966617
22091,0,USLouisianaSt.Helena,Louisiana,St. Helena,2021-01-05 21:07:59.833492,2020-11-25 00:00:00.000000,5.64979390,8.26966993,11.05300133,572,837,1119,248,365,488,2.45140150,3.60802902,4.82134538,0.75823417,0.90129519,1.21394316
22091,0,USLouisianaSt.Helena,Louisiana,St. Helena,2021-01-05 21:07:59.833492,2020-11-26 00:00:00.000000,5.71002892,8.30789704,11.15634446,578,841,1130,251,367,495,2.48454729,3.63039797,4.88568906,0.75288713,0.91068537,1.19980077
22091,0,USLouisianaSt.Helena,Louisiana,St. Helena,2021-01-05 21:07:59.833492,2020-11-27 00:00:00.000000,5.76363814,8.28578069,11.24157083,583,839,1138,254,369,500,2.51496009,3.65083868,4.94045732,0.74918874,0.91532440,1.20440991
22091,0,USLouisianaSt.Helena,Louisiana,St. Helena,2021-01-05 21:07:59.833492,2020-11-28 00:00:00.000000,5.81041233,8.25238502,11.30822806,588,836,1145,257,372,505,2.54254703,3.67385904,4.98595508,0.74697072,0.92384800,1.19604300
22091,0,USLouisianaSt.Helena,Louisiana,St. Helena,2021-01-05 21:07:59.833492,2020-11-29 00:00:00.000000,5.85017130,8.21990829,11.35598805,592,832,1150,260,374,508,2.56721561,3.69803416,5.02237241,0.74090233,0.92803607,1.22991989
22091,0,USLouisianaSt.Helena,Louisiana,St. Helena,2021-01-05 21:07:59.833492,2020-11-30 00:00:00.000000,5.88101780,8.20063758,11.38087448,595,830,1153,262,376,511,2.58887909,3.71262892,5.04983405,0.73885617,0.91411771,1.25062799
22091,0,USLouisianaSt.Helena,Louisiana,St. Helena,2021-01-05 21:07:59.833492,2020-12-01 00:00:00.000000,5.90458633,8.16830225,11.37284783,598,827,1152,264,376,513,2.60730159,3.71457067,5.07077091,0.73894337,0.91204143,1.24774062
22091,0,USLouisianaSt.Helena,Louisiana,St. Helena,2021-01-05 21:07:59.833492,2020-12-02 00:00:00.000000,5.92073267,8.12042307,11.32745633,599,822,1147,265,377,515,2.62247545,3.72872471,5.08466325,0.74050104,0.92913114,1.24537969
22091,0,USLouisianaSt.Helena,Louisiana,St. Helena,2021-01-05 21:07:59.833492,2020-12-03 00:00:00.000000,5.92944374,8.05588510,11.26441332,600,816,1141,266,376,515,2.63438518,3.71458895,5.09115940,0.73367965,0.95732877,1.24513894
22091,0,USLouisianaSt.Helena,Louisiana,St. Helena,2021-01-05 21:07:59.833492,2020-12-04 00:00:00.000000,5.93073511,8.00430676,11.18422295,600,810,1133,267,374,515,2.64301662,3.69966748,5.09004373,0.71221519,0.96008070,1.23941609
22091,0,USLouisianaSt.Helena,Louisiana,St. Helena,2021-01-05 21:07:59.833492,2020-12-05 00:00:00.000000,5.92465421,7.96832207,11.08749101,600,807,1123,268,374,514,2.64836272,3.69834259,5.08121300,0.70122351,0.95267056,1.20381488
22091,0,USLouisianaSt.Helena,Louisiana,St. Helena,2021-01-05 21:07:59.833492,2020-12-06 00:00:00.000000,5.91128191,7.93285716,10.97491581,598,803,1111,268,372,513,2.65042702,3.68008533,5.06463118,0.69736468,0.95439814,1.22996124
22091,0,USLouisianaSt.Helena,Louisiana,St. Helena,2021-01-05 21:07:59.833492,2020-12-07 00:00:00.000000,5.87941838,7.90795214,10.86548557,595,801,1100,268,370,509,2.64922575,3.65506739,5.03329411,0.69685323,0.95884957,1.27310590
22091,0,USLouisianaSt.Helena,Louisiana,St. Helena,2021-01-05 21:07:59.833492,2020-12-08 00:00:00.000000,5.84052592,7.83785992,10.74184480,591,794,1088,267,367,506,2.64251066,3.63051282,4.99690919,0.69832763,0.94221657,1.30130783
22091,0,USLouisianaSt.Helena,Louisiana,St. Helena,2021-01-05 21:07:59.833492,2020-12-09 00:00:00.000000,5.79441479,7.77163737,10.60513210,587,787,1074,266,365,502,2.63119801,3.61225017,4.95514305,0.70201701,0.97919830,1.31721903
22091,0,USLouisianaSt.Helena,Louisiana,St. Helena,2021-01-05 21:07:59.833492,2020-12-10 00:00:00.000000,5.74149495,7.66256013,10.45615335,581,776,1059,265,363,497,2.61589119,3.58745836,4.90784847,0.70919057,0.96502074,1.31180749
22091,0,USLouisianaSt.Helena,Louisiana,St. Helena,2021-01-05 21:07:59.833492,2020-12-11 00:00:00.000000,5.68214703,7.55112942,10.29577183,575,765,1043,263,359,491,2.59700747,3.55159074,4.85502117,0.68298047,0.98106674,1.29874810
22091,0,USLouisianaSt.Helena,Louisiana,St. Helena,2021-01-05 21:07:59.833492,2020-12-12 00:00:00.000000,5.61674011,7.43813661,10.12489502,569,753,1025,260,355,486,2.57485457,3.50798667,4.79676707,0.68773249,0.96245783,1.33827757
22091,0,USLouisianaSt.Helena,Louisiana,St. Helena,2021-01-05 21:07:59.833492,2020-12-13 00:00:00.000000,5.54564178,7.33277596,9.94446214,561,742,1007,258,351,479,2.54967676,3.47281596,4.73327697,0.68291682,0.97872622,1.37994749
22091,0,USLouisianaSt.Helena,Louisiana,St. Helena,2021-01-05 21:07:59.833492,2020-12-14 00:00:00.000000,5.36817306,7.19686376,9.76678300,543,729,989,255,346,472,2.52168265,3.42275283,4.66480680,0.68280449,0.98795673,1.41245550
22091,0,USLouisianaSt.Helena,Louisiana,St. Helena,2021-01-05 21:07:59.833492,2020-12-15 00:00:00.000000,5.19860724,7.09346190,9.61460229,526,718,974,252,341,466,2.49352706,3.37277217,4.60872400,0.69142658,0.99392918,1.43486174
22091,0,USLouisianaSt.Helena,Louisiana,St. Helena,2021-01-05 21:07:59.833492,2020-12-16 00:00:00.000000,5.11018598,6.99643776,9.39901924,517,708,952,249,336,459,2.46444800,3.31701093,4.53483505,0.70387223,0.99321246,1.44553517
22091,0,USLouisianaSt.Helena,Louisiana,St. Helena,2021-01-05 21:07:59.833492,2020-12-17 00:00:00.000000,5.01817980,6.89282600,9.17702181,508,698,929,246,331,452,2.43402453,3.27284529,4.46332399,0.71984904,1.00402346,1.44093324
22091,0,USLouisianaSt.Helena,Louisiana,St. Helena,2021-01-05 21:07:59.833492,2020-12-18 00:00:00.000000,4.92144245,6.77345266,8.94890575,498,686,906,243,327,444,2.40204915,3.22891929,4.38294715,0.74283396,1.00963616,1.41495345
22091,0,USLouisianaSt.Helena,Louisiana,St. Helena,2021-01-05 21:07:59.833492,2020-12-19 00:00:00.000000,4.78360540,6.63234684,8.71463653,484,671,882,239,321,435,2.36844847,3.17591984,4.29527513,0.76475835,0.99650331,1.38322026
22091,0,USLouisianaSt.Helena,Louisiana,St. Helena,2021-01-05 21:07:59.833492,2020-12-20 00:00:00.000000,4.69313683,6.48569248,8.47715629,475,657,858,236,316,425,2.33323378,3.12211431,4.20072847,0.77938383,0.98426876,1.31999176
22091,0,USLouisianaSt.Helena,Louisiana,St. Helena,2021-01-05 21:07:59.833492,2020-12-21 00:00:00.000000,4.59325427,6.37930245,8.32232768,465,646,843,230,310,415,2.27277534,3.06775632,4.10027594,0.79147123,0.97785287,1.29817123
22091,0,USLouisianaSt.Helena,Louisiana,St. Helena,2021-01-05 21:07:59.833492,2020-12-22 00:00:00.000000,4.47160663,6.27283685,8.19769839,453,635,830,226,304,404,2.23437197,3.00289700,3.99555177,0.80356396,0.97948111,1.30427324
22091,0,USLouisianaSt.Helena,Louisiana,St. Helena,2021-01-05 21:07:59.833492,2020-12-23 00:00:00.000000,4.34777404,6.15152397,8.04673127,440,623,815,223,298,393,2.20121622,2.94197092,3.88747357,0.80752548,0.98325190,1.30760264
22091,0,USLouisianaSt.Helena,Louisiana,St. Helena,2021-01-05 21:07:59.833492,2020-12-24 00:00:00.000000,4.22252167,5.98353933,7.79574140,427,606,789,218,290,382,2.15245122,2.86628806,3.77683794,0.81582006,0.99409064,1.30924510
22091,0,USLouisianaSt.Helena,Louisiana,St. Helena,2021-01-05 21:07:59.833492,2020-12-25 00:00:00.000000,4.09602234,5.76859256,7.54536948,415,584,764,213,284,371,2.10364398,2.80696718,3.66434553,0.81533274,1.00518116,1.30967883
22091,0,USLouisianaSt.Helena,Louisiana,St. Helena,2021-01-05 21:07:59.833492,2020-12-26 00:00:00.000000,3.94596122,5.62876252,7.29670605,399,570,739,206,275,359,2.04223850,2.72151244,3.55061868,0.80936131,1.01456083,1.30882489
22091,0,USLouisianaSt.Helena,Louisiana,St. Helena,2021-01-05 21:07:59.833492,2020-12-27 00:00:00.000000,3.80476470,5.48704981,7.05123348,385,555,714,199,266,348,1.96616413,2.63447140,3.43621394,0.79601004,1.01605479,1.30623194
22091,0,USLouisianaSt.Helena,Louisiana,St. Helena,2021-01-05 21:07:59.833492,2020-12-28 00:00:00.000000,3.66472700,5.32503250,6.79318782,371,539,688,191,259,336,1.89389583,2.56162922,3.32213506,0.77444470,1.03642866,1.30164796
22091,0,USLouisianaSt.Helena,Louisiana,St. Helena,2021-01-05 21:07:59.833492,2020-12-29 00:00:00.000000,3.52879807,5.17364103,6.54052129,357,524,662,184,252,325,1.82431078,2.49186066,3.21218592,0.75605670,1.05629088,1.29675593
22091,0,USLouisianaSt.Helena,Louisiana,St. Helena,2021-01-05 21:07:59.833492,2020-12-30 00:00:00.000000,3.39616313,4.98608767,6.37837094,344,505,646,178,244,317,1.75710699,2.41240823,3.13589930,0.74014138,1.06410915,1.33293560
22091,0,USLouisianaSt.Helena,Louisiana,St. Helena,2021-01-05 21:07:59.833492,2020-12-31 00:00:00.000000,3.26681727,4.77459593,6.21475586,330,483,629,171,234,307,1.69198001,2.31681840,3.03652573,0.72900913,1.06365878,1.41202136
22091,0,USLouisianaSt.Helena,Louisiana,St. Helena,2021-01-05 21:07:59.833492,2021-01-01 00:00:00.000000,3.14075963,4.58027148,6.04961681,318,464,612,165,227,297,1.62873002,2.24260561,2.93575150,0.72230000,1.07540608,1.44691957
22091,0,USLouisianaSt.Helena,Louisiana,St. Helena,2021-01-05 21:07:59.833492,2021-01-02 00:00:00.000000,3.01800486,4.40968793,5.88406218,305,446,596,158,219,287,1.56722892,2.16760871,2.83501584,0.71854802,1.08070525,1.46152571
22091,0,USLouisianaSt.Helena,Louisiana,St. Helena,2021-01-05 21:07:59.833492,2021-01-03 00:00:00.000000,2.89675983,4.24521842,5.71851631,293,430,579,152,213,277,1.50739700,2.10648027,2.73476629,0.71654386,1.07841906,1.46747916
22091,0,USLouisianaSt.Helena,Louisiana,St. Helena,2021-01-05 21:07:59.833492,2021-01-04 00:00:00.000000,2.77112501,4.06168107,5.55337534,280,411,562,146,205,267,1.44918657,2.03049690,2.63537947,0.71550389,1.08242280,1.47002290
22091,0,USLouisianaSt.Helena,Louisiana,St. Helena,2021-01-05 21:07:59.833492,2021-01-05 00:00:00.000000,2.64881063,3.88262563,5.38900778,268,393,546,141,198,258,1.39257045,1.96108567,2.55273202,0.69887013,1.06709086,1.47117921
22091,0,USLouisianaSt.Helena,Louisiana,St. Helena,2021-01-05 21:07:59.833492,2021-01-06 00:00:00.000000,2.52996471,3.71986713,5.22575502,256,376,529,135,194,251,1.33753395,1.91769274,2.48593418,0.70059981,1.06401891,1.47173379
22091,0,USLouisianaSt.Helena,Louisiana,St. Helena,2021-01-05 21:07:59.833492,2021-01-07 00:00:00.000000,2.41469927,3.56927883,5.06393183,244,361,513,130,188,245,1.28406929,1.86141748,2.41893380,0.70319415,1.06164616,1.47201073
22091,0,USLouisianaSt.Helena,Louisiana,St. Helena,2021-01-05 21:07:59.833492,2021-01-08 00:00:00.000000,2.30309544,3.40016345,4.90382692,233,344,496,124,181,238,1.23217183,1.79402574,2.35192961,0.70515108,1.05624378,1.47215311
22091,0,USLouisianaSt.Helena,Louisiana,St. Helena,2021-01-05 21:07:59.833492,2021-01-09 00:00:00.000000,2.19520746,3.24968279,4.75448410,222,329,481,119,174,231,1.18183749,1.72629823,2.28509871,0.70653675,1.05708798,1.47222789
22091,0,USLouisianaSt.Helena,Louisiana,St. Helena,2021-01-05 21:07:59.833492,2021-01-10 00:00:00.000000,2.09106591,3.10919080,4.59083593,211,315,465,114,168,224,1.13306115,1.65996567,2.21859967,0.70750396,1.05783878,1.47226785
22091,0,USLouisianaSt.Helena,Louisiana,St. Helena,2021-01-05 21:07:59.833492,2021-01-11 00:00:00.000000,1.99068043,2.97339478,4.43872150,201,301,449,109,161,218,1.08521984,1.59059608,2.15257477,0.70817458,1.05835886,1.47228951
22091,0,USLouisianaSt.Helena,Louisiana,St. Helena,2021-01-05 21:07:59.833492,2021-01-12 00:00:00.000000,1.89404214,2.83669343,4.28913899,191,287,434,104,154,211,1.03362990,1.52243175,2.08715180,0.70863758,1.05871945,1.47230142
22091,0,USLouisianaSt.Helena,Louisiana,St. Helena,2021-01-05 21:07:59.833492,2021-01-13 00:00:00.000000,1.80112587,2.70156125,4.14225874,182,273,419,99,147,204,0.98405827,1.46056538,2.02101745,0.70895632,1.05896984,1.47230806
22091,0,USLouisianaSt.Helena,Louisiana,St. Helena,2021-01-05 21:07:59.833492,2021-01-14 00:00:00.000000,1.71189214,2.57181989,3.99823019,173,260,405,94,141,197,0.93647302,1.39731759,1.94605539,0.70917530,1.05914401,1.47231182
22091,0,USLouisianaSt.Helena,Louisiana,St. Helena,2021-01-05 21:07:59.833492,2021-01-15 00:00:00.000000,1.62628900,2.45124644,3.85668621,164,248,390,90,134,189,0.89083655,1.33130548,1.87263663,0.70932554,1.05926539,1.47231398
22091,0,USLouisianaSt.Helena,Louisiana,St. Helena,2021-01-05 21:07:59.833492,2021-01-16 00:00:00.000000,1.54425373,2.33992917,3.76050134,156,237,381,85,128,182,0.84710665,1.26783049,1.80084711,0.70942853,1.05935013,1.47231523
22091,0,USLouisianaSt.Helena,Louisiana,St. Helena,2021-01-05 21:07:59.833492,2021-01-17 00:00:00.000000,1.46571444,2.23676054,3.60763992,148,226,365,81,122,175,0.80523742,1.21302307,1.73075850,0.70949908,1.05940939,1.47231598
