FIPS,HR_UID,nameid,province,region,analysisTime,dates,pointprevalence_025,pointprevalence_50,pointprevalence_975,pointinfections_025,pointinfections_50,pointinfections_975,pointinfectious_025,pointinfectious_50,pointinfectious_975,pointinfectiousprevalence_05,pointinfectiousprevalence_50,pointinfectiousprevalence_95,infectrate_025,infectrate_50,infectrate_975
37071,0,USNorthCarolinaGaston,North Carolina,Gaston,2021-01-05 14:29:37.918799,2020-03-09 00:00:00.000000,0.00055687,0.00304226,0.00685079,1,6,15,0,2,7,0.00010206,0.00119101,0.00351059,0.42101772,0.52596092,0.73311918
37071,0,USNorthCarolinaGaston,North Carolina,Gaston,2021-01-05 14:29:37.918799,2020-03-10 00:00:00.000000,0.00084834,0.00404241,0.00824425,1,9,18,0,2,8,0.00018814,0.00131425,0.00361743,0.42096085,0.52595690,0.73311917
37071,0,USNorthCarolinaGaston,North Carolina,Gaston,2021-01-05 14:29:37.918799,2020-03-11 00:00:00.000000,0.00123319,0.00497930,0.01032907,2,11,23,0,3,8,0.00032289,0.00155977,0.00399361,0.42082218,0.52595009,0.73311915
37071,0,USNorthCarolinaGaston,North Carolina,Gaston,2021-01-05 14:29:37.918799,2020-03-12 00:00:00.000000,0.00164748,0.00601376,0.01225448,3,13,27,0,4,10,0.00043920,0.00190183,0.00468020,0.42048475,0.52593851,0.73311912
37071,0,USNorthCarolinaGaston,North Carolina,Gaston,2021-01-05 14:29:37.918799,2020-03-13 00:00:00.000000,0.00209582,0.00714522,0.01430296,4,16,32,1,5,12,0.00061244,0.00228669,0.00547974,0.41966795,0.52591861,0.73311907
37071,0,USNorthCarolinaGaston,North Carolina,Gaston,2021-01-05 14:29:37.918799,2020-03-14 00:00:00.000000,0.00258228,0.00822865,0.01651001,5,18,37,1,6,14,0.00079241,0.00272121,0.00640867,0.41771539,0.52588373,0.73311899
37071,0,USNorthCarolinaGaston,North Carolina,Gaston,2021-01-05 14:29:37.918799,2020-03-15 00:00:00.000000,0.00311062,0.00938569,0.01888952,6,21,42,2,7,16,0.00093008,0.00320818,0.00750747,0.41318459,0.52500536,0.73311886
37071,0,USNorthCarolinaGaston,North Carolina,Gaston,2021-01-05 14:29:37.918799,2020-03-16 00:00:00.000000,0.00367741,0.01062554,0.02051719,8,23,46,2,8,19,0.00109565,0.00371956,0.00874665,0.41037342,0.52207269,0.73311864
37071,0,USNorthCarolinaGaston,North Carolina,Gaston,2021-01-05 14:29:37.918799,2020-03-17 00:00:00.000000,0.00435700,0.01256244,0.02289274,9,28,51,3,9,22,0.00141108,0.00435410,0.01017917,0.40985175,0.51077592,0.73311825
37071,0,USNorthCarolinaGaston,North Carolina,Gaston,2021-01-05 14:29:37.918799,2020-03-18 00:00:00.000000,0.00536210,0.01382222,0.02573032,12,31,57,4,11,25,0.00181572,0.00499886,0.01156735,0.37317895,0.50849658,0.73311745
37071,0,USNorthCarolinaGaston,North Carolina,Gaston,2021-01-05 14:29:37.918799,2020-03-19 00:00:00.000000,0.00641430,0.01509003,0.02785145,14,33,62,4,12,28,0.00222137,0.00572858,0.01268621,0.34913325,0.49667720,0.73311527
37071,0,USNorthCarolinaGaston,North Carolina,Gaston,2021-01-05 14:29:37.918799,2020-03-20 00:00:00.000000,0.00750692,0.01688171,0.03003400,16,37,67,6,14,31,0.00272590,0.00650418,0.01384666,0.32227341,0.47985631,0.73310523
37071,0,USNorthCarolinaGaston,North Carolina,Gaston,2021-01-05 14:29:37.918799,2020-03-21 00:00:00.000000,0.00862831,0.01844863,0.03208776,19,41,72,7,16,33,0.00330577,0.00722395,0.01507671,0.29617069,0.45096500,0.73302743
37071,0,USNorthCarolinaGaston,North Carolina,Gaston,2021-01-05 14:29:37.918799,2020-03-22 00:00:00.000000,0.00978627,0.02008385,0.03411753,21,45,76,8,17,35,0.00393441,0.00798116,0.01598283,0.28640278,0.44044453,0.73222278
37071,0,USNorthCarolinaGaston,North Carolina,Gaston,2021-01-05 14:29:37.918799,2020-03-23 00:00:00.000000,0.01080090,0.02185977,0.03744123,24,49,84,10,19,38,0.00456833,0.00881547,0.01736312,0.27692142,0.41703922,0.72341138
37071,0,USNorthCarolinaGaston,North Carolina,Gaston,2021-01-05 14:29:37.918799,2020-03-24 00:00:00.000000,0.01248028,0.02368670,0.04086272,28,53,91,11,21,43,0.00514458,0.00978336,0.01926989,0.25548346,0.39962355,0.69544825
37071,0,USNorthCarolinaGaston,North Carolina,Gaston,2021-01-05 14:29:37.918799,2020-03-25 00:00:00.000000,0.01426974,0.02559768,0.04476692,32,57,100,12,23,46,0.00570583,0.01059425,0.02074163,0.24739793,0.39435699,0.63848158
37071,0,USNorthCarolinaGaston,North Carolina,Gaston,2021-01-05 14:29:37.918799,2020-03-26 00:00:00.000000,0.01616512,0.02746952,0.04880327,36,61,109,14,25,49,0.00626755,0.01146381,0.02219698,0.23449394,0.38389506,0.63695767
37071,0,USNorthCarolinaGaston,North Carolina,Gaston,2021-01-05 14:29:37.918799,2020-03-27 00:00:00.000000,0.01721986,0.02891168,0.05218692,38,64,117,15,27,54,0.00683976,0.01235010,0.02418058,0.22589179,0.36406772,0.62084794
37071,0,USNorthCarolinaGaston,North Carolina,Gaston,2021-01-05 14:29:37.918799,2020-03-28 00:00:00.000000,0.01811046,0.03106569,0.05636839,40,69,126,16,29,57,0.00743136,0.01328797,0.02542474,0.22051639,0.36043108,0.56850869
37071,0,USNorthCarolinaGaston,North Carolina,Gaston,2021-01-05 14:29:37.918799,2020-03-29 00:00:00.000000,0.01894249,0.03306714,0.06078029,42,74,136,18,31,60,0.00804761,0.01415529,0.02677534,0.21765590,0.35189837,0.52559083
37071,0,USNorthCarolinaGaston,North Carolina,Gaston,2021-01-05 14:29:37.918799,2020-03-30 00:00:00.000000,0.01999560,0.03509328,0.06430197,44,78,144,20,34,63,0.00894886,0.01527029,0.02835797,0.21639692,0.34479463,0.50087088
37071,0,USNorthCarolinaGaston,North Carolina,Gaston,2021-01-05 14:29:37.918799,2020-03-31 00:00:00.000000,0.02104489,0.03693278,0.06809252,47,82,152,21,36,67,0.00968910,0.01631071,0.02997589,0.21138781,0.33954497,0.48979659
37071,0,USNorthCarolinaGaston,North Carolina,Gaston,2021-01-05 14:29:37.918799,2020-04-01 00:00:00.000000,0.02302992,0.03933223,0.07209737,51,88,161,23,39,70,0.01045909,0.01746222,0.03159997,0.20793086,0.33309531,0.48680899
37071,0,USNorthCarolinaGaston,North Carolina,Gaston,2021-01-05 14:29:37.918799,2020-04-02 00:00:00.000000,0.02468078,0.04132171,0.07630381,55,92,171,25,42,75,0.01139914,0.01871785,0.03373074,0.20543157,0.32278368,0.48398444
37071,0,USNorthCarolinaGaston,North Carolina,Gaston,2021-01-05 14:29:37.918799,2020-04-03 00:00:00.000000,0.02493444,0.04363867,0.08069543,55,97,181,27,44,81,0.01216463,0.01975639,0.03621521,0.19752983,0.31224414,0.48040643
37071,0,USNorthCarolinaGaston,North Carolina,Gaston,2021-01-05 14:29:37.918799,2020-04-04 00:00:00.000000,0.02520833,0.04477446,0.08517793,56,100,191,28,46,86,0.01255430,0.02063874,0.03865738,0.19502621,0.30033509,0.47582367
37071,0,USNorthCarolinaGaston,North Carolina,Gaston,2021-01-05 14:29:37.918799,2020-04-05 00:00:00.000000,0.02608279,0.04604587,0.08971268,58,103,201,28,48,91,0.01283185,0.02181174,0.04084317,0.19414482,0.28445098,0.46296566
37071,0,USNorthCarolinaGaston,North Carolina,Gaston,2021-01-05 14:29:37.918799,2020-04-06 00:00:00.000000,0.02747775,0.04790288,0.09238074,61,107,207,30,51,95,0.01337614,0.02296600,0.04264305,0.18618005,0.27864851,0.43572211
37071,0,USNorthCarolinaGaston,North Carolina,Gaston,2021-01-05 14:29:37.918799,2020-04-07 00:00:00.000000,0.02883464,0.04969321,0.09345231,64,111,209,31,53,99,0.01398503,0.02386631,0.04409924,0.18526204,0.27514302,0.42977124
37071,0,USNorthCarolinaGaston,North Carolina,Gaston,2021-01-05 14:29:37.918799,2020-04-08 00:00:00.000000,0.02997218,0.05262730,0.09452914,67,118,212,32,55,103,0.01460096,0.02462160,0.04610902,0.18824413,0.26877568,0.40922751
37071,0,USNorthCarolinaGaston,North Carolina,Gaston,2021-01-05 14:29:37.918799,2020-04-09 00:00:00.000000,0.03056365,0.05398254,0.09574607,68,121,214,33,57,109,0.01474511,0.02573067,0.04861437,0.19196435,0.26358774,0.39956145
37071,0,USNorthCarolinaGaston,North Carolina,Gaston,2021-01-05 14:29:37.918799,2020-04-10 00:00:00.000000,0.03114669,0.05597116,0.09712323,69,125,218,33,59,114,0.01487870,0.02671995,0.05118812,0.18687277,0.26155508,0.39404991
37071,0,USNorthCarolinaGaston,North Carolina,Gaston,2021-01-05 14:29:37.918799,2020-04-11 00:00:00.000000,0.03169945,0.05827030,0.09862953,71,130,221,33,62,120,0.01503954,0.02768778,0.05379725,0.17070914,0.25655803,0.37054491
37071,0,USNorthCarolinaGaston,North Carolina,Gaston,2021-01-05 14:29:37.918799,2020-04-12 00:00:00.000000,0.03219446,0.05935321,0.10021930,72,133,225,34,63,126,0.01533392,0.02837433,0.05637521,0.16370268,0.24621528,0.35683928
37071,0,USNorthCarolinaGaston,North Carolina,Gaston,2021-01-05 14:29:37.918799,2020-04-13 00:00:00.000000,0.03263736,0.06034482,0.10326907,73,135,231,35,65,132,0.01577302,0.02912502,0.05883405,0.15754924,0.24388567,0.35768841
37071,0,USNorthCarolinaGaston,North Carolina,Gaston,2021-01-05 14:29:37.918799,2020-04-14 00:00:00.000000,0.03300429,0.06120067,0.10635042,74,137,238,36,67,137,0.01631529,0.02999614,0.06116690,0.15022592,0.24350299,0.35915040
37071,0,USNorthCarolinaGaston,North Carolina,Gaston,2021-01-05 14:29:37.918799,2020-04-15 00:00:00.000000,0.03470370,0.06131856,0.10949038,77,137,245,38,69,142,0.01703491,0.03078543,0.06333992,0.14842543,0.23921655,0.35331900
37071,0,USNorthCarolinaGaston,North Carolina,Gaston,2021-01-05 14:29:37.918799,2020-04-16 00:00:00.000000,0.03628736,0.06254844,0.11267661,81,140,252,40,72,146,0.01795673,0.03221768,0.06535550,0.14934913,0.23523821,0.35384866
37071,0,USNorthCarolinaGaston,North Carolina,Gaston,2021-01-05 14:29:37.918799,2020-04-17 00:00:00.000000,0.03645412,0.06292524,0.11590126,81,141,260,40,74,150,0.01824007,0.03319842,0.06722243,0.15025729,0.23116516,0.35348121
37071,0,USNorthCarolinaGaston,North Carolina,Gaston,2021-01-05 14:29:37.918799,2020-04-18 00:00:00.000000,0.03678269,0.06345091,0.11915814,82,142,267,42,76,154,0.01892260,0.03386206,0.06893522,0.15318902,0.22941898,0.35598699
37071,0,USNorthCarolinaGaston,North Carolina,Gaston,2021-01-05 14:29:37.918799,2020-04-19 00:00:00.000000,0.03734198,0.06468640,0.12244181,83,145,274,44,76,158,0.01960262,0.03409413,0.07047353,0.14612064,0.23281311,0.35917943
37071,0,USNorthCarolinaGaston,North Carolina,Gaston,2021-01-05 14:29:37.918799,2020-04-20 00:00:00.000000,0.03852340,0.06657078,0.12420944,86,149,278,45,77,161,0.02028300,0.03457418,0.07182337,0.14125600,0.23407814,0.36021570
37071,0,USNorthCarolinaGaston,North Carolina,Gaston,2021-01-05 14:29:37.918799,2020-04-21 00:00:00.000000,0.03975050,0.06778737,0.12596161,89,152,282,46,79,163,0.02090192,0.03531015,0.07285856,0.13895155,0.23465413,0.36025504
37071,0,USNorthCarolinaGaston,North Carolina,Gaston,2021-01-05 14:29:37.918799,2020-04-22 00:00:00.000000,0.04101849,0.06903394,0.12772286,92,155,286,48,79,165,0.02147648,0.03544497,0.07363213,0.13978557,0.23596473,0.35987422
37071,0,USNorthCarolinaGaston,North Carolina,Gaston,2021-01-05 14:29:37.918799,2020-04-23 00:00:00.000000,0.04131798,0.07101462,0.12960249,92,159,290,49,81,166,0.02201901,0.03614389,0.07418249,0.14303521,0.24018734,0.36197171
37071,0,USNorthCarolinaGaston,North Carolina,Gaston,2021-01-05 14:29:37.918799,2020-04-24 00:00:00.000000,0.04050278,0.07265866,0.13162530,90,163,295,50,82,167,0.02253844,0.03692185,0.07452915,0.14632502,0.24227765,0.36553338
37071,0,USNorthCarolinaGaston,North Carolina,Gaston,2021-01-05 14:29:37.918799,2020-04-25 00:00:00.000000,0.03974635,0.07420717,0.13368837,89,166,300,51,84,167,0.02304129,0.03776255,0.07468322,0.14181389,0.24498689,0.37127991
37071,0,USNorthCarolinaGaston,North Carolina,Gaston,2021-01-05 14:29:37.918799,2020-04-26 00:00:00.000000,0.03903205,0.07613562,0.13570693,87,170,304,51,86,167,0.02300461,0.03850517,0.07466446,0.14116319,0.25040440,0.41757383
37071,0,USNorthCarolinaGaston,North Carolina,Gaston,2021-01-05 14:29:37.918799,2020-04-27 00:00:00.000000,0.04042070,0.07764882,0.13815509,90,174,310,50,88,167,0.02256796,0.03925649,0.07450689,0.14180296,0.25208964,0.42491511
37071,0,USNorthCarolinaGaston,North Carolina,Gaston,2021-01-05 14:29:37.918799,2020-04-28 00:00:00.000000,0.04210886,0.07958448,0.14277585,94,178,320,50,91,166,0.02249811,0.04063905,0.07422649,0.14486758,0.25467749,0.42889790
37071,0,USNorthCarolinaGaston,North Carolina,Gaston,2021-01-05 14:29:37.918799,2020-04-29 00:00:00.000000,0.04410190,0.08287258,0.14789905,99,186,332,50,92,165,0.02265967,0.04141346,0.07387546,0.14836414,0.25532082,0.45093614
37071,0,USNorthCarolinaGaston,North Carolina,Gaston,2021-01-05 14:29:37.918799,2020-04-30 00:00:00.000000,0.04653978,0.08513848,0.15330580,104,191,344,51,94,166,0.02296595,0.04210725,0.07396630,0.15423185,0.25653728,0.46683022
37071,0,USNorthCarolinaGaston,North Carolina,Gaston,2021-01-05 14:29:37.918799,2020-05-01 00:00:00.000000,0.04819103,0.08750890,0.15896800,108,196,356,52,97,170,0.02336322,0.04325216,0.07594382,0.16028453,0.26117011,0.47552660
37071,0,USNorthCarolinaGaston,North Carolina,Gaston,2021-01-05 14:29:37.918799,2020-05-02 00:00:00.000000,0.04810694,0.09108020,0.16490410,108,204,370,53,100,174,0.02380893,0.04456015,0.07778202,0.16574622,0.26224105,0.44802179
37071,0,USNorthCarolinaGaston,North Carolina,Gaston,2021-01-05 14:29:37.918799,2020-05-03 00:00:00.000000,0.04959809,0.09367745,0.17332839,111,210,389,55,102,178,0.02451849,0.04583253,0.07946960,0.16728165,0.26921106,0.43133458
37071,0,USNorthCarolinaGaston,North Carolina,Gaston,2021-01-05 14:29:37.918799,2020-05-04 00:00:00.000000,0.05109832,0.09584026,0.18271659,114,215,410,57,106,183,0.02571525,0.04746584,0.08155649,0.16353294,0.27794190,0.43413197
37071,0,USNorthCarolinaGaston,North Carolina,Gaston,2021-01-05 14:29:37.918799,2020-05-05 00:00:00.000000,0.05274229,0.09855708,0.19253846,118,221,432,59,108,192,0.02672109,0.04834705,0.08576283,0.17817300,0.28027473,0.43559047
37071,0,USNorthCarolinaGaston,North Carolina,Gaston,2021-01-05 14:29:37.918799,2020-05-06 00:00:00.000000,0.05491957,0.10129072,0.19963866,123,227,448,62,111,202,0.02767052,0.04968573,0.09024895,0.19244566,0.29296735,0.43630841
37071,0,USNorthCarolinaGaston,North Carolina,Gaston,2021-01-05 14:29:37.918799,2020-05-07 00:00:00.000000,0.05798932,0.10320217,0.20503109,130,231,460,64,114,213,0.02871856,0.05094927,0.09500426,0.20010099,0.30232071,0.43658220
37071,0,USNorthCarolinaGaston,North Carolina,Gaston,2021-01-05 14:29:37.918799,2020-05-08 00:00:00.000000,0.06040577,0.10532580,0.21464088,135,236,481,66,118,224,0.02967554,0.05262090,0.10000551,0.20370672,0.30846481,0.43676341
37071,0,USNorthCarolinaGaston,North Carolina,Gaston,2021-01-05 14:29:37.918799,2020-05-09 00:00:00.000000,0.06106875,0.11154951,0.22467768,137,250,504,68,121,236,0.03056963,0.05421486,0.10515233,0.19190199,0.31825483,0.44768913
37071,0,USNorthCarolinaGaston,North Carolina,Gaston,2021-01-05 14:29:37.918799,2020-05-10 00:00:00.000000,0.06287622,0.11780876,0.23567943,141,264,529,69,125,243,0.03106238,0.05596330,0.10829074,0.17837275,0.32266423,0.48039978
37071,0,USNorthCarolinaGaston,North Carolina,Gaston,2021-01-05 14:29:37.918799,2020-05-11 00:00:00.000000,0.06545629,0.12170031,0.25006089,146,273,561,70,129,257,0.03146696,0.05754707,0.11452889,0.20388546,0.33146865,0.51279111
37071,0,USNorthCarolinaGaston,North Carolina,Gaston,2021-01-05 14:29:37.918799,2020-05-12 00:00:00.000000,0.06815862,0.12482770,0.25914639,153,280,581,74,132,269,0.03308036,0.05905087,0.12024726,0.21853126,0.33627556,0.53783478
37071,0,USNorthCarolinaGaston,North Carolina,Gaston,2021-01-05 14:29:37.918799,2020-05-13 00:00:00.000000,0.07100156,0.12831027,0.26974788,159,288,605,77,138,280,0.03444903,0.06148858,0.12507551,0.21955579,0.34727159,0.55420567
37071,0,USNorthCarolinaGaston,North Carolina,Gaston,2021-01-05 14:29:37.918799,2020-05-14 00:00:00.000000,0.07419304,0.13381332,0.28178211,166,300,632,80,144,291,0.03570644,0.06442763,0.12988247,0.22204327,0.34737019,0.56384667
37071,0,USNorthCarolinaGaston,North Carolina,Gaston,2021-01-05 14:29:37.918799,2020-05-15 00:00:00.000000,0.07823639,0.14095298,0.29372439,175,316,659,83,151,303,0.03704816,0.06731571,0.13532499,0.22768855,0.36454849,0.57062944
37071,0,USNorthCarolinaGaston,North Carolina,Gaston,2021-01-05 14:29:37.918799,2020-05-16 00:00:00.000000,0.08285144,0.14754957,0.30580505,186,331,686,86,158,322,0.03847920,0.07047369,0.14369214,0.23848183,0.38140606,0.57259238
37071,0,USNorthCarolinaGaston,North Carolina,Gaston,2021-01-05 14:29:37.918799,2020-05-17 00:00:00.000000,0.08806882,0.15495915,0.32312557,197,347,725,89,166,342,0.04002640,0.07393267,0.15250927,0.25361237,0.38386923,0.57532488
37071,0,USNorthCarolinaGaston,North Carolina,Gaston,2021-01-05 14:29:37.918799,2020-05-18 00:00:00.000000,0.09235280,0.16327047,0.34421275,207,366,772,93,174,363,0.04173865,0.07785394,0.16168517,0.26766712,0.39410020,0.57921297
37071,0,USNorthCarolinaGaston,North Carolina,Gaston,2021-01-05 14:29:37.918799,2020-05-19 00:00:00.000000,0.09699135,0.17064815,0.36659192,217,383,823,97,187,380,0.04328406,0.08329132,0.16957985,0.27661454,0.39932567,0.58303419
37071,0,USNorthCarolinaGaston,North Carolina,Gaston,2021-01-05 14:29:37.918799,2020-05-20 00:00:00.000000,0.10211098,0.18297651,0.39033985,229,410,876,100,196,398,0.04497013,0.08747381,0.17726482,0.28116385,0.41078188,0.58500349
37071,0,USNorthCarolinaGaston,North Carolina,Gaston,2021-01-05 14:29:37.918799,2020-05-21 00:00:00.000000,0.10808818,0.19417503,0.41553364,242,435,932,106,207,415,0.04731647,0.09258972,0.18516569,0.28365375,0.41958898,0.58789320
37071,0,USNorthCarolinaGaston,North Carolina,Gaston,2021-01-05 14:29:37.918799,2020-05-22 00:00:00.000000,0.11537970,0.20667934,0.44222513,259,464,992,112,221,433,0.04988292,0.09853679,0.19323570,0.28638950,0.43019043,0.59904026
37071,0,USNorthCarolinaGaston,North Carolina,Gaston,2021-01-05 14:29:37.918799,2020-05-23 00:00:00.000000,0.12402413,0.22118373,0.47024099,278,496,1055,118,236,452,0.05280600,0.10536920,0.20139010,0.30919775,0.44466807,0.63054468
37071,0,USNorthCarolinaGaston,North Carolina,Gaston,2021-01-05 14:29:37.918799,2020-05-24 00:00:00.000000,0.13374146,0.23670209,0.49935253,300,531,1121,126,250,470,0.05618860,0.11158862,0.20951422,0.30914978,0.46280786,0.63690489
37071,0,USNorthCarolinaGaston,North Carolina,Gaston,2021-01-05 14:29:37.918799,2020-05-25 00:00:00.000000,0.14468822,0.25647560,0.52991481,324,575,1189,134,263,488,0.06006026,0.11733794,0.21749592,0.32022723,0.46791975,0.63563501
37071,0,USNorthCarolinaGaston,North Carolina,Gaston,2021-01-05 14:29:37.918799,2020-05-26 00:00:00.000000,0.15662301,0.27941135,0.55822949,351,627,1253,144,279,506,0.06446478,0.12452199,0.22540118,0.31780630,0.47514918,0.63344620
37071,0,USNorthCarolinaGaston,North Carolina,Gaston,2021-01-05 14:29:37.918799,2020-05-27 00:00:00.000000,0.16970625,0.30430103,0.57428278,381,683,1289,155,300,531,0.06939717,0.13377216,0.23693311,0.31290551,0.48512988,0.64058463
37071,0,USNorthCarolinaGaston,North Carolina,Gaston,2021-01-05 14:29:37.918799,2020-05-28 00:00:00.000000,0.18404377,0.32852513,0.59449101,413,737,1334,168,324,568,0.07493046,0.14432860,0.25304795,0.31267067,0.49390391,0.65458538
37071,0,USNorthCarolinaGaston,North Carolina,Gaston,2021-01-05 14:29:37.918799,2020-05-29 00:00:00.000000,0.19923181,0.35310497,0.62850344,447,792,1411,181,346,606,0.08104500,0.15447264,0.26999227,0.32179495,0.50243334,0.66957486
37071,0,USNorthCarolinaGaston,North Carolina,Gaston,2021-01-05 14:29:37.918799,2020-05-30 00:00:00.000000,0.21381659,0.38221448,0.66317503,480,858,1489,197,369,644,0.08780031,0.16446052,0.28726679,0.34540290,0.50587885,0.67745262
37071,0,USNorthCarolinaGaston,North Carolina,Gaston,2021-01-05 14:29:37.918799,2020-05-31 00:00:00.000000,0.23002775,0.41509067,0.70723947,516,931,1587,213,400,684,0.09529748,0.17849686,0.30489162,0.37191486,0.50857280,0.67904230
37071,0,USNorthCarolinaGaston,North Carolina,Gaston,2021-01-05 14:29:37.918799,2020-06-01 00:00:00.000000,0.24566480,0.44766666,0.74405082,551,1005,1670,232,436,725,0.10367759,0.19437981,0.32300369,0.36961584,0.51592255,0.68695940
37071,0,USNorthCarolinaGaston,North Carolina,Gaston,2021-01-05 14:29:37.918799,2020-06-02 00:00:00.000000,0.26599858,0.48122420,0.77650667,597,1080,1743,260,467,765,0.11583476,0.20836738,0.34114622,0.37292344,0.51713858,0.68884307
37071,0,USNorthCarolinaGaston,North Carolina,Gaston,2021-01-05 14:29:37.918799,2020-06-03 00:00:00.000000,0.29809746,0.51984787,0.84378672,669,1167,1894,290,504,814,0.12924518,0.22447928,0.36261987,0.37020111,0.51665806,0.68856540
37071,0,USNorthCarolinaGaston,North Carolina,Gaston,2021-01-05 14:29:37.918799,2020-06-04 00:00:00.000000,0.32925878,0.56330903,0.91380156,739,1264,2051,310,546,868,0.13815961,0.24328954,0.38674998,0.36675998,0.52611085,0.68544636
37071,0,USNorthCarolinaGaston,North Carolina,Gaston,2021-01-05 14:29:37.918799,2020-06-05 00:00:00.000000,0.36029079,0.61212238,0.98614528,808,1374,2214,339,586,932,0.15119997,0.26105758,0.41547234,0.36419520,0.53044962,0.68786699
37071,0,USNorthCarolinaGaston,North Carolina,Gaston,2021-01-05 14:29:37.918799,2020-06-06 00:00:00.000000,0.39324712,0.65685153,1.06186180,882,1474,2384,376,621,1003,0.16748168,0.27700080,0.44684388,0.37403239,0.53006089,0.68503389
37071,0,USNorthCarolinaGaston,North Carolina,Gaston,2021-01-05 14:29:37.918799,2020-06-07 00:00:00.000000,0.42901711,0.70126970,1.12836916,963,1574,2533,409,660,1077,0.18245510,0.29409268,0.47981380,0.37932922,0.53391839,0.68389730
37071,0,USNorthCarolinaGaston,North Carolina,Gaston,2021-01-05 14:29:37.918799,2020-06-08 00:00:00.000000,0.46976760,0.75687702,1.20181506,1054,1699,2698,440,704,1142,0.19598158,0.31383584,0.50886544,0.38162647,0.53150530,0.68810228
37071,0,USNorthCarolinaGaston,North Carolina,Gaston,2021-01-05 14:29:37.918799,2020-06-09 00:00:00.000000,0.51401839,0.81929078,1.29589929,1154,1839,2909,472,765,1243,0.21061861,0.34089173,0.55394136,0.38251453,0.52678031,0.66821602
37071,0,USNorthCarolinaGaston,North Carolina,Gaston,2021-01-05 14:29:37.918799,2020-06-10 00:00:00.000000,0.56219890,0.87940425,1.39351274,1262,1974,3128,508,831,1352,0.22626402,0.37017313,0.60231547,0.38281009,0.52411960,0.66424782
37071,0,USNorthCarolinaGaston,North Carolina,Gaston,2021-01-05 14:29:37.918799,2020-06-11 00:00:00.000000,0.60844167,0.94463271,1.48153196,1366,2120,3326,553,903,1457,0.24646572,0.40237126,0.64928412,0.37990278,0.50972952,0.65375920
37071,0,USNorthCarolinaGaston,North Carolina,Gaston,2021-01-05 14:29:37.918799,2020-06-12 00:00:00.000000,0.66410325,1.00954508,1.55881685,1491,2266,3499,605,978,1566,0.26978406,0.43596593,0.69757149,0.35778771,0.50796129,0.64983132
37071,0,USNorthCarolinaGaston,North Carolina,Gaston,2021-01-05 14:29:37.918799,2020-06-13 00:00:00.000000,0.72154366,1.07430732,1.64067312,1620,2412,3683,650,1048,1672,0.28951562,0.46702020,0.74486493,0.34136251,0.50395569,0.65499889
37071,0,USNorthCarolinaGaston,North Carolina,Gaston,2021-01-05 14:29:37.918799,2020-06-14 00:00:00.000000,0.77210369,1.16617804,1.74867555,1733,2618,3926,702,1119,1775,0.31295524,0.49852428,0.79059927,0.33266168,0.48941459,0.64099454
37071,0,USNorthCarolinaGaston,North Carolina,Gaston,2021-01-05 14:29:37.918799,2020-06-15 00:00:00.000000,0.82457548,1.25256062,1.85567830,1851,2812,4166,757,1201,1894,0.33716327,0.53506566,0.84373347,0.32920328,0.48627465,0.64124550
37071,0,USNorthCarolinaGaston,North Carolina,Gaston,2021-01-05 14:29:37.918799,2020-06-16 00:00:00.000000,0.88024575,1.32317985,1.96309519,1976,2970,4407,806,1283,2017,0.35928396,0.57173708,0.89833044,0.32801121,0.47342332,0.64097319
37071,0,USNorthCarolinaGaston,North Carolina,Gaston,2021-01-05 14:29:37.918799,2020-06-17 00:00:00.000000,0.93919028,1.38061541,2.07580342,2108,3099,4660,864,1367,2144,0.38488742,0.60912131,0.95489026,0.32171267,0.46100972,0.63936725
37071,0,USNorthCarolinaGaston,North Carolina,Gaston,2021-01-05 14:29:37.918799,2020-06-18 00:00:00.000000,0.99483466,1.45818586,2.19429024,2233,3274,4926,928,1449,2276,0.41342317,0.64538673,1.01392766,0.30750175,0.45084310,0.62377405
37071,0,USNorthCarolinaGaston,North Carolina,Gaston,2021-01-05 14:29:37.918799,2020-06-19 00:00:00.000000,1.04952896,1.54151992,2.29187277,2356,3461,5145,997,1549,2415,0.44422320,0.69010444,1.07575247,0.29967453,0.44003438,0.59364486
37071,0,USNorthCarolinaGaston,North Carolina,Gaston,2021-01-05 14:29:37.918799,2020-06-20 00:00:00.000000,1.10688965,1.63073307,2.38034749,2485,3661,5344,1072,1626,2560,0.47760942,0.72454430,1.14018484,0.29937648,0.42731049,0.56210282
37071,0,USNorthCarolinaGaston,North Carolina,Gaston,2021-01-05 14:29:37.918799,2020-06-21 00:00:00.000000,1.16707803,1.71911842,2.46436633,2620,3859,5533,1154,1706,2705,0.51401883,0.75996641,1.20514151,0.29651530,0.41668893,0.55426358
37071,0,USNorthCarolinaGaston,North Carolina,Gaston,2021-01-05 14:29:37.918799,2020-06-22 00:00:00.000000,1.23044361,1.81735135,2.54883492,2762,4080,5722,1239,1797,2843,0.55223065,0.80065653,1.26640145,0.29258612,0.40648013,0.53225909
37071,0,USNorthCarolinaGaston,North Carolina,Gaston,2021-01-05 14:29:37.918799,2020-06-23 00:00:00.000000,1.29070675,1.90594803,2.63391389,2898,4279,5913,1309,1889,2970,0.58312162,0.84143019,1.32295103,0.29254822,0.39937637,0.52664069
37071,0,USNorthCarolinaGaston,North Carolina,Gaston,2021-01-05 14:29:37.918799,2020-06-24 00:00:00.000000,1.34952261,1.99944557,2.71944740,3030,4489,6105,1381,2000,3103,0.61532801,0.89082153,1.38219286,0.29260507,0.39027482,0.51874796
37071,0,USNorthCarolinaGaston,North Carolina,Gaston,2021-01-05 14:29:37.918799,2020-06-25 00:00:00.000000,1.40794925,2.08324380,2.85496104,3161,4677,6410,1457,2111,3295,0.64901068,0.94037385,1.46787719,0.29058736,0.38270746,0.50094998
37071,0,USNorthCarolinaGaston,North Carolina,Gaston,2021-01-05 14:29:37.918799,2020-06-26 00:00:00.000000,1.46654725,2.15628269,3.01147116,3292,4841,6761,1536,2211,3493,0.68418726,0.98488179,1.55612638,0.28239357,0.37554266,0.49262738
37071,0,USNorthCarolinaGaston,North Carolina,Gaston,2021-01-05 14:29:37.918799,2020-06-27 00:00:00.000000,1.52575316,2.22949624,3.17376726,3425,5005,7126,1617,2309,3693,0.72025211,1.02853872,1.64487074,0.27915573,0.37138789,0.48228798
37071,0,USNorthCarolinaGaston,North Carolina,Gaston,2021-01-05 14:29:37.918799,2020-06-28 00:00:00.000000,1.58612367,2.30532532,3.33938872,3561,5176,7497,1682,2393,3884,0.74917987,1.06592648,1.73019417,0.27740673,0.36069488,0.47063953
37071,0,USNorthCarolinaGaston,North Carolina,Gaston,2021-01-05 14:29:37.918799,2020-06-29 00:00:00.000000,1.64938601,2.38819599,3.50026067,3703,5362,7859,1732,2484,4058,0.77148384,1.10637395,1.80747064,0.26585173,0.35438418,0.45532775
37071,0,USNorthCarolinaGaston,North Carolina,Gaston,2021-01-05 14:29:37.918799,2020-06-30 00:00:00.000000,1.71421052,2.48744314,3.64085258,3848,5585,8174,1787,2559,4206,0.79596883,1.13987171,1.87345367,0.26012634,0.34307657,0.44924183
37071,0,USNorthCarolinaGaston,North Carolina,Gaston,2021-01-05 14:29:37.918799,2020-07-01 00:00:00.000000,1.74988611,2.58752035,3.67082498,3929,5809,8242,1845,2671,4328,0.82192320,1.19002032,1.92790000,0.22973545,0.33970858,0.44781792
37071,0,USNorthCarolinaGaston,North Carolina,Gaston,2021-01-05 14:29:37.918799,2020-07-02 00:00:00.000000,1.75576987,2.67557402,3.68307753,3942,6007,8269,1904,2752,4427,0.84822747,1.22594472,1.97207863,0.20970456,0.33332335,0.44738787
37071,0,USNorthCarolinaGaston,North Carolina,Gaston,2021-01-05 14:29:37.918799,2020-07-03 00:00:00.000000,1.76187946,2.75152345,3.70511247,3955,6177,8319,1961,2849,4506,0.87370176,1.26892099,2.00712062,0.20335597,0.31723658,0.44596420
37071,0,USNorthCarolinaGaston,North Carolina,Gaston,2021-01-05 14:29:37.918799,2020-07-04 00:00:00.000000,1.77123349,2.80897031,3.85281806,3976,6306,8650,2015,2948,4621,0.89766870,1.31310584,2.05820405,0.19870657,0.30714737,0.42577986
37071,0,USNorthCarolinaGaston,North Carolina,Gaston,2021-01-05 14:29:37.918799,2020-07-05 00:00:00.000000,1.78692647,2.86863298,3.99985769,4012,6440,8980,2065,3040,4774,0.92006433,1.35435514,2.12667076,0.19343206,0.29395839,0.40374262
37071,0,USNorthCarolinaGaston,North Carolina,Gaston,2021-01-05 14:29:37.918799,2020-07-06 00:00:00.000000,1.80868051,2.89704988,4.06668193,4061,6504,9130,2113,3102,4896,0.94115022,1.38192863,2.18091416,0.19149798,0.28987849,0.40049531
37071,0,USNorthCarolinaGaston,North Carolina,Gaston,2021-01-05 14:29:37.918799,2020-07-07 00:00:00.000000,1.83289759,2.95408297,4.10144011,4115,6632,9208,2158,3145,4987,0.96121213,1.40079671,2.22122932,0.19175461,0.28109521,0.39646000
37071,0,USNorthCarolinaGaston,North Carolina,Gaston,2021-01-05 14:29:37.918799,2020-07-08 00:00:00.000000,1.85480140,2.97223050,4.12553197,4164,6673,9263,2201,3222,5048,0.98055909,1.43534292,2.24857914,0.18929158,0.26941648,0.38259463
37071,0,USNorthCarolinaGaston,North Carolina,Gaston,2021-01-05 14:29:37.918799,2020-07-09 00:00:00.000000,1.86282650,2.97536217,4.14061143,4182,6680,9296,2244,3289,5088,0.99942686,1.46493433,2.26649970,0.17553380,0.25864954,0.35151492
37071,0,USNorthCarolinaGaston,North Carolina,Gaston,2021-01-05 14:29:37.918799,2020-07-10 00:00:00.000000,1.87269076,3.01819561,4.14821658,4204,6776,9313,2285,3330,5184,1.01798000,1.48327913,2.30887664,0.17064887,0.24763451,0.33097717
37071,0,USNorthCarolinaGaston,North Carolina,Gaston,2021-01-05 14:29:37.918799,2020-07-11 00:00:00.000000,1.90301097,3.02593011,4.14977591,4272,6794,9317,2326,3335,5276,1.03631433,1.48552173,2.34986627,0.16757161,0.23955244,0.32620900
37071,0,USNorthCarolinaGaston,North Carolina,Gaston,2021-01-05 14:29:37.918799,2020-07-12 00:00:00.000000,1.93200520,3.02885922,4.14614145,4337,6800,9309,2353,3380,5326,1.04812851,1.50562215,2.37242995,0.16355730,0.23297141,0.31948777
37071,0,USNorthCarolinaGaston,North Carolina,Gaston,2021-01-05 14:29:37.918799,2020-07-13 00:00:00.000000,1.95671540,3.02226787,4.17076219,4393,6785,9364,2353,3418,5301,1.04825259,1.52273091,2.36109339,0.15885846,0.22644906,0.31316366
37071,0,USNorthCarolinaGaston,North Carolina,Gaston,2021-01-05 14:29:37.918799,2020-07-14 00:00:00.000000,1.97309215,3.02838714,4.20346607,4430,6799,9438,2363,3410,5270,1.05254922,1.51890055,2.34747582,0.15759196,0.22043469,0.30143373
37071,0,USNorthCarolinaGaston,North Carolina,Gaston,2021-01-05 14:29:37.918799,2020-07-15 00:00:00.000000,1.98175005,2.98496441,4.23070297,4449,6702,9499,2385,3397,5236,1.06235216,1.51311101,2.33218943,0.15731211,0.21175395,0.30027360
37071,0,USNorthCarolinaGaston,North Carolina,Gaston,2021-01-05 14:29:37.918799,2020-07-16 00:00:00.000000,1.98557390,2.93576442,4.23754577,4458,6591,9514,2360,3363,5199,1.05143106,1.49793176,2.31563498,0.15164854,0.20479098,0.29948808
37071,0,USNorthCarolinaGaston,North Carolina,Gaston,2021-01-05 14:29:37.918799,2020-07-17 00:00:00.000000,1.98635324,2.90724437,4.20726270,4459,6527,9446,2329,3348,5159,1.03748024,1.49126512,2.29799146,0.14688572,0.20028704,0.29782667
37071,0,USNorthCarolinaGaston,North Carolina,Gaston,2021-01-05 14:29:37.918799,2020-07-18 00:00:00.000000,1.98447066,2.86458552,4.15884740,4455,6431,9337,2291,3340,5117,1.02079133,1.48757083,2.27926191,0.14635468,0.19573717,0.28658783
37071,0,USNorthCarolinaGaston,North Carolina,Gaston,2021-01-05 14:29:37.918799,2020-07-19 00:00:00.000000,1.97080078,2.81911736,4.10443236,4425,6329,9215,2251,3316,5073,1.00265906,1.47722894,2.25948376,0.14588126,0.19190800,0.27264738
37071,0,USNorthCarolinaGaston,North Carolina,Gaston,2021-01-05 14:29:37.918799,2020-07-20 00:00:00.000000,1.91095604,2.78314046,4.04557101,4290,6248,9083,2208,3297,5026,0.98360175,1.46843167,2.23867092,0.13859550,0.19022279,0.27157251
37071,0,USNorthCarolinaGaston,North Carolina,Gaston,2021-01-05 14:29:37.918799,2020-07-21 00:00:00.000000,1.85240278,2.75636184,3.98213185,4159,6188,8941,2165,3269,4977,0.96447631,1.45612645,2.21679372,0.13524551,0.18929596,0.26203174
37071,0,USNorthCarolinaGaston,North Carolina,Gaston,2021-01-05 14:29:37.918799,2020-07-22 00:00:00.000000,1.79525458,2.73096004,3.91312269,4030,6131,8786,2122,3238,4925,0.94534437,1.44257066,2.19373084,0.13662433,0.18863019,0.25905805
37071,0,USNorthCarolinaGaston,North Carolina,Gaston,2021-01-05 14:29:37.918799,2020-07-23 00:00:00.000000,1.76729384,2.67509685,3.83822131,3968,6006,8617,2079,3203,4870,0.92618307,1.42675021,2.16935261,0.13598211,0.18772250,0.25880119
37071,0,USNorthCarolinaGaston,North Carolina,Gaston,2021-01-05 14:29:37.918799,2020-07-24 00:00:00.000000,1.75237816,2.63813367,3.75842249,3934,5923,8438,2036,3172,4812,0.90712357,1.41312327,2.14355778,0.13202432,0.18439846,0.25834826
37071,0,USNorthCarolinaGaston,North Carolina,Gaston,2021-01-05 14:29:37.918799,2020-07-25 00:00:00.000000,1.73545226,2.58764892,3.67552932,3896,5810,8252,1994,3145,4755,0.88825494,1.40077377,2.11814191,0.12939216,0.18374889,0.25464656
37071,0,USNorthCarolinaGaston,North Carolina,Gaston,2021-01-05 14:29:37.918799,2020-07-26 00:00:00.000000,1.71606683,2.53135084,3.59125216,3853,5683,8063,1952,3116,4699,0.86963299,1.38788311,2.09311315,0.12789544,0.18197649,0.25347817
37071,0,USNorthCarolinaGaston,North Carolina,Gaston,2021-01-05 14:29:37.918799,2020-07-27 00:00:00.000000,1.68968053,2.46727326,3.50826498,3793,5539,7877,1911,3059,4641,0.85129171,1.36278378,2.06732865,0.12489347,0.17950534,0.24503223
37071,0,USNorthCarolinaGaston,North Carolina,Gaston,2021-01-05 14:29:37.918799,2020-07-28 00:00:00.000000,1.64411759,2.40364945,3.42640712,3691,5396,7693,1870,2999,4580,0.83319715,1.33575618,2.04019895,0.12427546,0.17845025,0.23822710
37071,0,USNorthCarolinaGaston,North Carolina,Gaston,2021-01-05 14:29:37.918799,2020-07-29 00:00:00.000000,1.59596919,2.33919505,3.34799710,3583,5252,7517,1835,2942,4516,0.81728860,1.31064490,2.01141472,0.12429404,0.17793312,0.23483122
37071,0,USNorthCarolinaGaston,North Carolina,Gaston,2021-01-05 14:29:37.918799,2020-07-30 00:00:00.000000,1.55193305,2.29133581,3.27748899,3484,5144,7358,1805,2891,4448,0.80398970,1.28760366,1.98125433,0.12433576,0.17834035,0.23345572
37071,0,USNorthCarolinaGaston,North Carolina,Gaston,2021-01-05 14:29:37.918799,2020-07-31 00:00:00.000000,1.51624911,2.24726277,3.21822313,3404,5045,7225,1777,2833,4378,0.79154919,1.26206645,1.95014590,0.12449791,0.17778352,0.23758468
37071,0,USNorthCarolinaGaston,North Carolina,Gaston,2021-01-05 14:29:37.918799,2020-08-01 00:00:00.000000,1.49049149,2.19966185,3.16680612,3346,4938,7110,1750,2776,4307,0.77973160,1.23666617,1.91844884,0.12491763,0.17675789,0.24375271
37071,0,USNorthCarolinaGaston,North Carolina,Gaston,2021-01-05 14:29:37.918799,2020-08-02 00:00:00.000000,1.46834539,2.16046942,3.11884347,3296,4850,7002,1724,2718,4235,0.76826695,1.21078551,1.88635587,0.12586598,0.17663452,0.25383018
37071,0,USNorthCarolinaGaston,North Carolina,Gaston,2021-01-05 14:29:37.918799,2020-08-03 00:00:00.000000,1.44347759,2.11871834,3.07100224,3241,4757,6895,1699,2646,4162,0.75694146,1.17861079,1.85374988,0.12759130,0.17519724,0.25603618
37071,0,USNorthCarolinaGaston,North Carolina,Gaston,2021-01-05 14:29:37.918799,2020-08-04 00:00:00.000000,1.41857998,2.07830699,3.02412161,3185,4666,6790,1673,2599,4087,0.74526527,1.15766428,1.82033745,0.12715655,0.17591179,0.25330380
37071,0,USNorthCarolinaGaston,North Carolina,Gaston,2021-01-05 14:29:37.918799,2020-08-05 00:00:00.000000,1.39382619,2.04361666,2.97795775,3129,4588,6686,1646,2570,4010,0.73332124,1.14498836,1.78620335,0.12674804,0.17701426,0.26063179
37071,0,USNorthCarolinaGaston,North Carolina,Gaston,2021-01-05 14:29:37.918799,2020-08-06 00:00:00.000000,1.36951395,1.99943175,2.93240529,3074,4489,6584,1619,2527,3935,0.72121413,1.12557852,1.75257849,0.12645503,0.17934881,0.26448049
37071,0,USNorthCarolinaGaston,North Carolina,Gaston,2021-01-05 14:29:37.918799,2020-08-07 00:00:00.000000,1.34220153,1.96477887,2.88743930,3013,4411,6483,1592,2479,3874,0.70906717,1.10431262,1.72577224,0.12669278,0.18202667,0.26313155
37071,0,USNorthCarolinaGaston,North Carolina,Gaston,2021-01-05 14:29:37.918799,2020-08-08 00:00:00.000000,1.32094315,1.92976243,2.84354744,2965,4332,6384,1565,2430,3815,0.69706175,1.08243839,1.69946083,0.12835171,0.18513583,0.26146168
37071,0,USNorthCarolinaGaston,North Carolina,Gaston,2021-01-05 14:29:37.918799,2020-08-09 00:00:00.000000,1.30127401,1.89756415,2.80413969,2921,4260,6296,1539,2380,3757,0.68554780,1.06008819,1.67359416,0.12898901,0.18847836,0.25947408
37071,0,USNorthCarolinaGaston,North Carolina,Gaston,2021-01-05 14:29:37.918799,2020-08-10 00:00:00.000000,1.27771114,1.86733653,2.78301935,2868,4192,6248,1515,2319,3700,0.67515183,1.03303604,1.64817289,0.12923168,0.18945704,0.26113896
37071,0,USNorthCarolinaGaston,North Carolina,Gaston,2021-01-05 14:29:37.918799,2020-08-11 00:00:00.000000,1.24549483,1.84063686,2.77940107,2796,4132,6240,1496,2265,3645,0.66648873,1.00904356,1.62350198,0.12936389,0.18996649,0.27364812
37071,0,USNorthCarolinaGaston,North Carolina,Gaston,2021-01-05 14:29:37.918799,2020-08-12 00:00:00.000000,1.20847229,1.80615717,2.73734642,2713,4055,6146,1481,2241,3591,0.65971287,0.99839448,1.59962181,0.12950227,0.18960706,0.28487773
37071,0,USNorthCarolinaGaston,North Carolina,Gaston,2021-01-05 14:29:37.918799,2020-08-13 00:00:00.000000,1.17743237,1.76882300,2.67963700,2643,3971,6016,1452,2197,3539,0.64677176,0.97862660,1.57658252,0.12975396,0.19232407,0.29107583
37071,0,USNorthCarolinaGaston,North Carolina,Gaston,2021-01-05 14:29:37.918799,2020-08-14 00:00:00.000000,1.15732476,1.73619026,2.62529584,2598,3898,5894,1413,2125,3490,0.62949565,0.94683855,1.55453278,0.13048562,0.19335612,0.29900272
37071,0,USNorthCarolinaGaston,North Carolina,Gaston,2021-01-05 14:29:37.918799,2020-08-15 00:00:00.000000,1.12234823,1.70393950,2.57608849,2519,3825,5784,1385,2069,3443,0.61706237,0.92177180,1.53372860,0.13359849,0.19747592,0.30797579
37071,0,USNorthCarolinaGaston,North Carolina,Gaston,2021-01-05 14:29:37.918799,2020-08-16 00:00:00.000000,1.11402777,1.68367086,2.53266267,2501,3780,5686,1368,2040,3400,0.60971919,0.90888867,1.51442449,0.14734128,0.20455428,0.31833292
37071,0,USNorthCarolinaGaston,North Carolina,Gaston,2021-01-05 14:29:37.918799,2020-08-17 00:00:00.000000,1.11919443,1.65446180,2.49298617,2512,3714,5597,1361,2009,3360,0.60654271,0.89508587,1.49672048,0.15552145,0.20811215,0.32421076
37071,0,USNorthCarolinaGaston,North Carolina,Gaston,2021-01-05 14:29:37.918799,2020-08-18 00:00:00.000000,1.13041484,1.63197826,2.45583236,2538,3664,5514,1361,1980,3323,0.60636172,0.88196577,1.48026899,0.15447865,0.21282026,0.32577677
37071,0,USNorthCarolinaGaston,North Carolina,Gaston,2021-01-05 14:29:37.918799,2020-08-19 00:00:00.000000,1.13697442,1.62217810,2.42015808,2552,3642,5433,1372,1960,3289,0.61114710,0.87300911,1.46495644,0.15529375,0.21526747,0.32767236
37071,0,USNorthCarolinaGaston,North Carolina,Gaston,2021-01-05 14:29:37.918799,2020-08-20 00:00:00.000000,1.13160249,1.61085769,2.38563994,2540,3616,5356,1372,1940,3257,0.61146042,0.86426638,1.45066436,0.15547778,0.21923693,0.33280674
37071,0,USNorthCarolinaGaston,North Carolina,Gaston,2021-01-05 14:29:37.918799,2020-08-21 00:00:00.000000,1.12878275,1.60180325,2.35248457,2534,3596,5282,1364,1914,3227,0.60772126,0.85284298,1.43736209,0.15616152,0.22530852,0.32633407
37071,0,USNorthCarolinaGaston,North Carolina,Gaston,2021-01-05 14:29:37.918799,2020-08-22 00:00:00.000000,1.13003766,1.59474418,2.32129610,2537,3580,5211,1356,1903,3199,0.60410787,0.84782061,1.42513235,0.15828224,0.22715808,0.32407586
37071,0,USNorthCarolinaGaston,North Carolina,Gaston,2021-01-05 14:29:37.918799,2020-08-23 00:00:00.000000,1.12838676,1.58366911,2.31384993,2533,3555,5195,1351,1890,3175,0.60187624,0.84206213,1.41410814,0.16479432,0.23416128,0.32215079
37071,0,USNorthCarolinaGaston,North Carolina,Gaston,2021-01-05 14:29:37.918799,2020-08-24 00:00:00.000000,1.10336792,1.58135680,2.33136630,2477,3550,5234,1350,1877,3153,0.60126711,0.83599503,1.40434693,0.17989720,0.23822681,0.32767081
37071,0,USNorthCarolinaGaston,North Carolina,Gaston,2021-01-05 14:29:37.918799,2020-08-25 00:00:00.000000,1.11009897,1.58690454,2.34936550,2492,3563,5275,1353,1866,3133,0.60285258,0.83111946,1.39573373,0.18396433,0.24187753,0.33839572
37071,0,USNorthCarolinaGaston,North Carolina,Gaston,2021-01-05 14:29:37.918799,2020-08-26 00:00:00.000000,1.11761442,1.59063564,2.36748864,2509,3571,5315,1369,1859,3116,0.61010650,0.82815540,1.38805835,0.18444865,0.24778916,0.34636379
37071,0,USNorthCarolinaGaston,North Carolina,Gaston,2021-01-05 14:29:37.918799,2020-08-27 00:00:00.000000,1.11023029,1.59339934,2.38565647,2492,3577,5356,1386,1849,3100,0.61737898,0.82387798,1.38108040,0.18548989,0.25069944,0.35077590
37071,0,USNorthCarolinaGaston,North Carolina,Gaston,2021-01-05 14:29:37.918799,2020-08-28 00:00:00.000000,1.12216822,1.60532125,2.40385124,2519,3604,5397,1385,1841,3086,0.61693209,0.82018369,1.37458226,0.18712445,0.25279352,0.35425560
37071,0,USNorthCarolinaGaston,North Carolina,Gaston,2021-01-05 14:29:37.918799,2020-08-29 00:00:00.000000,1.12915323,1.61653931,2.42209625,2535,3629,5438,1380,1835,3072,0.61489923,0.81756326,1.36838513,0.18944690,0.25645370,0.35607460
37071,0,USNorthCarolinaGaston,North Carolina,Gaston,2021-01-05 14:29:37.918799,2020-08-30 00:00:00.000000,1.13859427,1.62493436,2.44042545,2556,3648,5479,1388,1832,3058,0.61830518,0.81631081,1.36234613,0.19239336,0.26113641,0.36313728
37071,0,USNorthCarolinaGaston,North Carolina,Gaston,2021-01-05 14:29:37.918799,2020-08-31 00:00:00.000000,1.15056800,1.63238039,2.45860114,2583,3665,5520,1386,1844,3045,0.61768220,0.82140974,1.35634645,0.19471293,0.26532458,0.36636785
37071,0,USNorthCarolinaGaston,North Carolina,Gaston,2021-01-05 14:29:37.918799,2020-09-01 00:00:00.000000,1.17334260,1.64154291,2.47766369,2634,3685,5563,1370,1850,3031,0.61020368,0.82422067,1.35024732,0.19492157,0.27176761,0.36729402
37071,0,USNorthCarolinaGaston,North Carolina,Gaston,2021-01-05 14:29:37.918799,2020-09-02 00:00:00.000000,1.19627433,1.66168920,2.49840767,2685,3730,5609,1368,1857,3020,0.60972006,0.82736730,1.34546539,0.19526797,0.27415028,0.38408152
37071,0,USNorthCarolinaGaston,North Carolina,Gaston,2021-01-05 14:29:37.918799,2020-09-03 00:00:00.000000,1.20591545,1.67336991,2.51935781,2707,3757,5656,1369,1865,3018,0.60985443,0.83075196,1.34458220,0.19593844,0.27510112,0.37959004
37071,0,USNorthCarolinaGaston,North Carolina,Gaston,2021-01-05 14:29:37.918799,2020-09-04 00:00:00.000000,1.20060983,1.69136473,2.54002536,2695,3797,5703,1370,1866,3023,0.61052078,0.83138476,1.34664309,0.19735901,0.28318626,0.40206137
37071,0,USNorthCarolinaGaston,North Carolina,Gaston,2021-01-05 14:29:37.918799,2020-09-05 00:00:00.000000,1.19230987,1.70111266,2.56045903,2677,3819,5748,1373,1877,3031,0.61156684,0.83612646,1.35022657,0.20447175,0.28616587,0.41415213
37071,0,USNorthCarolinaGaston,North Carolina,Gaston,2021-01-05 14:29:37.918799,2020-09-06 00:00:00.000000,1.18492821,1.71771842,2.58081942,2660,3856,5794,1376,1892,3041,0.61289093,0.84308361,1.35447333,0.20672768,0.29420621,0.41793395
37071,0,USNorthCarolinaGaston,North Carolina,Gaston,2021-01-05 14:29:37.918799,2020-09-07 00:00:00.000000,1.17824727,1.74577356,2.60212091,2645,3919,5842,1379,1927,3051,0.61437766,0.85825142,1.35894919,0.21277614,0.30001636,0.41839326
37071,0,USNorthCarolinaGaston,North Carolina,Gaston,2021-01-05 14:29:37.918799,2020-09-08 00:00:00.000000,1.17362094,1.76966259,2.62524943,2635,3973,5894,1383,1939,3061,0.61607694,0.86397302,1.36354489,0.21494793,0.30794410,0.41827913
37071,0,USNorthCarolinaGaston,North Carolina,Gaston,2021-01-05 14:29:37.918799,2020-09-09 00:00:00.000000,1.17234599,1.79354563,2.65610496,2632,4027,5963,1387,1939,3071,0.61789334,0.86400528,1.36814568,0.21880688,0.31599685,0.43567676
37071,0,USNorthCarolinaGaston,North Carolina,Gaston,2021-01-05 14:29:37.918799,2020-09-10 00:00:00.000000,1.17501071,1.81220438,2.70671760,2638,4068,6077,1391,1965,3082,0.61995580,0.87540028,1.37275286,0.22320876,0.31730013,0.43624009
37071,0,USNorthCarolinaGaston,North Carolina,Gaston,2021-01-05 14:29:37.918799,2020-09-11 00:00:00.000000,1.18240028,1.84054176,2.71189887,2654,4132,6088,1397,2000,3093,0.62259280,0.89119142,1.37780194,0.22663109,0.31699721,0.43463188
37071,0,USNorthCarolinaGaston,North Carolina,Gaston,2021-01-05 14:29:37.918799,2020-09-12 00:00:00.000000,1.19478642,1.87092730,2.71374888,2682,4200,6093,1406,2048,3117,0.62639119,0.91237861,1.38831056,0.23330040,0.31904967,0.43162209
37071,0,USNorthCarolinaGaston,North Carolina,Gaston,2021-01-05 14:29:37.918799,2020-09-13 00:00:00.000000,1.21198268,1.90912775,2.72307552,2721,4286,6114,1421,2084,3166,0.63306755,0.92836285,1.41044291,0.23430742,0.32311523,0.42844282
37071,0,USNorthCarolinaGaston,North Carolina,Gaston,2021-01-05 14:29:37.918799,2020-09-14 00:00:00.000000,1.23881876,1.95252921,2.78780741,2781,4383,6259,1444,2122,3216,0.64340999,0.94552925,1.43262325,0.23506728,0.32676022,0.43396387
37071,0,USNorthCarolinaGaston,North Carolina,Gaston,2021-01-05 14:29:37.918799,2020-09-15 00:00:00.000000,1.28322864,1.98800562,2.85459672,2881,4463,6409,1469,2168,3265,0.65434803,0.96560188,1.45450258,0.23577973,0.32428095,0.42951738
37071,0,USNorthCarolinaGaston,North Carolina,Gaston,2021-01-05 14:29:37.918799,2020-09-16 00:00:00.000000,1.32938355,2.00182075,2.92351384,2984,4494,6564,1494,2218,3314,0.66582927,0.98813415,1.47631517,0.23769077,0.32669399,0.43007612
37071,0,USNorthCarolinaGaston,North Carolina,Gaston,2021-01-05 14:29:37.918799,2020-09-17 00:00:00.000000,1.37719177,2.03385695,2.99419080,3092,4566,6722,1531,2263,3365,0.68214087,1.00823844,1.49879436,0.23984476,0.32882140,0.43531626
37071,0,USNorthCarolinaGaston,North Carolina,Gaston,2021-01-05 14:29:37.918799,2020-09-18 00:00:00.000000,1.41019495,2.08187110,3.06601241,3166,4674,6884,1574,2325,3433,0.70136192,1.03551086,1.52921507,0.24147087,0.34009892,0.44783524
37071,0,USNorthCarolinaGaston,North Carolina,Gaston,2021-01-05 14:29:37.918799,2020-09-19 00:00:00.000000,1.44230895,2.13159182,3.13798416,3238,4786,7045,1604,2366,3505,0.71455781,1.05416911,1.56149085,0.24741751,0.35075855,0.47643339
37071,0,USNorthCarolinaGaston,North Carolina,Gaston,2021-01-05 14:29:37.918799,2020-09-20 00:00:00.000000,1.47881723,2.16921349,3.20837140,3320,4870,7203,1634,2412,3584,0.72795502,1.07431461,1.59631851,0.25454352,0.36082862,0.50162708
37071,0,USNorthCarolinaGaston,North Carolina,Gaston,2021-01-05 14:29:37.918799,2020-09-21 00:00:00.000000,1.51018187,2.20856095,3.27328767,3390,4958,7349,1679,2459,3670,0.74814480,1.09526802,1.63459903,0.26110495,0.36868521,0.52301735
37071,0,USNorthCarolinaGaston,North Carolina,Gaston,2021-01-05 14:29:37.918799,2020-09-22 00:00:00.000000,1.52845971,2.24742527,3.35739898,3431,5046,7538,1703,2516,3764,0.75885245,1.12073360,1.67661032,0.26173682,0.36565985,0.52166717
37071,0,USNorthCarolinaGaston,North Carolina,Gaston,2021-01-05 14:29:37.918799,2020-09-23 00:00:00.000000,1.54860471,2.29766434,3.45056289,3477,5158,7747,1731,2576,3866,0.77100130,1.14729824,1.72205920,0.26269963,0.36792450,0.51787170
37071,0,USNorthCarolinaGaston,North Carolina,Gaston,2021-01-05 14:29:37.918799,2020-09-24 00:00:00.000000,1.57220007,2.36025590,3.54281710,3530,5299,7954,1762,2640,3974,0.78513774,1.17583316,1.77036884,0.26641287,0.37162490,0.51102334
37071,0,USNorthCarolinaGaston,North Carolina,Gaston,2021-01-05 14:29:37.918799,2020-09-25 00:00:00.000000,1.60217778,2.42301449,3.63390637,3597,5440,8159,1800,2709,4088,0.80178941,1.20678882,1.82095328,0.26720240,0.37629333,0.50295455
37071,0,USNorthCarolinaGaston,North Carolina,Gaston,2021-01-05 14:29:37.918799,2020-09-26 00:00:00.000000,1.64140800,2.48950304,3.72397366,3685,5589,8361,1853,2779,4205,0.82566189,1.23770879,1.87321000,0.26931439,0.38067534,0.49404142
37071,0,USNorthCarolinaGaston,North Carolina,Gaston,2021-01-05 14:29:37.918799,2020-09-27 00:00:00.000000,1.70607174,2.57565058,3.81359601,3830,5783,8562,1916,2859,4324,0.85346182,1.27371930,1.92623860,0.27251863,0.38710900,0.49403569
37071,0,USNorthCarolinaGaston,North Carolina,Gaston,2021-01-05 14:29:37.918799,2020-09-28 00:00:00.000000,1.77285501,2.66484809,3.90337328,3980,5983,8764,1985,2938,4441,0.88443246,1.30867318,1.97836343,0.27856426,0.38787989,0.49612344
37071,0,USNorthCarolinaGaston,North Carolina,Gaston,2021-01-05 14:29:37.918799,2020-09-29 00:00:00.000000,1.84173729,2.75657439,3.99368554,4135,6189,8966,2060,3028,4553,0.91750852,1.34867100,2.02785677,0.28068428,0.38694610,0.50114453
37071,0,USNorthCarolinaGaston,North Carolina,Gaston,2021-01-05 14:29:37.918799,2020-09-30 00:00:00.000000,1.91216299,2.84108237,4.08471228,4293,6379,9171,2136,3126,4655,0.95164533,1.39252159,2.07358747,0.28718754,0.38893100,0.49796837
37071,0,USNorthCarolinaGaston,North Carolina,Gaston,2021-01-05 14:29:37.918799,2020-10-01 00:00:00.000000,1.98333400,2.92027500,4.17643046,4453,6556,9377,2200,3198,4750,0.98004849,1.42442098,2.11591042,0.28718683,0.38888128,0.49788169
37071,0,USNorthCarolinaGaston,North Carolina,Gaston,2021-01-05 14:29:37.918799,2020-10-02 00:00:00.000000,2.05409551,3.01058233,4.26847172,4612,6759,9583,2262,3275,4840,1.00748711,1.45887867,2.15582387,0.28718814,0.38794168,0.50325675
37071,0,USNorthCarolinaGaston,North Carolina,Gaston,2021-01-05 14:29:37.918799,2020-10-03 00:00:00.000000,2.12337121,3.08463911,4.35962497,4767,6925,9788,2335,3366,4928,1.04026177,1.49956776,2.19484329,0.28727057,0.38705486,0.51034596
37071,0,USNorthCarolinaGaston,North Carolina,Gaston,2021-01-05 14:29:37.918799,2020-10-04 00:00:00.000000,2.19057813,3.19904609,4.44684064,4918,7182,9984,2401,3453,5020,1.06958283,1.53824350,2.23608824,0.28727493,0.38243038,0.50087278
37071,0,USNorthCarolinaGaston,North Carolina,Gaston,2021-01-05 14:29:37.918799,2020-10-05 00:00:00.000000,2.25539929,3.26464814,4.52604064,5064,7330,10162,2436,3528,5155,1.08516108,1.57143867,2.29607721,0.28731516,0.37804925,0.49564724
37071,0,USNorthCarolinaGaston,North Carolina,Gaston,2021-01-05 14:29:37.918799,2020-10-06 00:00:00.000000,2.29090965,3.34386129,4.59723142,5143,7507,10322,2473,3610,5324,1.10171728,1.60804651,2.37153344,0.28930529,0.37453746,0.49517700
37071,0,USNorthCarolinaGaston,North Carolina,Gaston,2021-01-05 14:29:37.918799,2020-10-07 00:00:00.000000,2.32060410,3.40502270,4.67497802,5210,7645,10496,2513,3715,5489,1.11938764,1.65469883,2.44502848,0.27600302,0.36376319,0.49419431
37071,0,USNorthCarolinaGaston,North Carolina,Gaston,2021-01-05 14:29:37.918799,2020-10-08 00:00:00.000000,2.35084007,3.46525980,4.75411394,5278,7780,10674,2555,3799,5631,1.13808672,1.69237224,2.50832419,0.26498225,0.36083098,0.48987682
37071,0,USNorthCarolinaGaston,North Carolina,Gaston,2021-01-05 14:29:37.918799,2020-10-09 00:00:00.000000,2.38303332,3.53249032,4.87911401,5350,7931,10955,2610,3910,5734,1.16260751,1.74165548,2.55385604,0.25606197,0.35607607,0.47165341
37071,0,USNorthCarolinaGaston,North Carolina,Gaston,2021-01-05 14:29:37.918799,2020-10-10 00:00:00.000000,2.41716445,3.59838883,5.00363102,5427,8079,11234,2691,4002,5845,1.19888118,1.78247808,2.60362362,0.25440442,0.34833709,0.45142236
37071,0,USNorthCarolinaGaston,North Carolina,Gaston,2021-01-05 14:29:37.918799,2020-10-11 00:00:00.000000,2.45219310,3.64433865,5.12747954,5505,8182,11512,2765,4096,5969,1.23156379,1.82433193,2.65880409,0.25414843,0.34460692,0.44347493
37071,0,USNorthCarolinaGaston,North Carolina,Gaston,2021-01-05 14:29:37.918799,2020-10-12 00:00:00.000000,2.48748214,3.71525076,5.22742394,5585,8341,11737,2832,4199,6078,1.26151082,1.87033209,2.70715182,0.25281979,0.34158619,0.44340296
37071,0,USNorthCarolinaGaston,North Carolina,Gaston,2021-01-05 14:29:37.918799,2020-10-13 00:00:00.000000,2.52271301,3.78833692,5.25428644,5664,8505,11797,2894,4308,6175,1.28911716,1.91910277,2.75031051,0.24262806,0.34139130,0.44323333
37071,0,USNorthCarolinaGaston,North Carolina,Gaston,2021-01-05 14:29:37.918799,2020-10-14 00:00:00.000000,2.55155948,3.84155600,5.27837397,5728,8625,11851,2951,4390,6264,1.31458128,1.95525810,2.78984700,0.24106258,0.33728549,0.44476948
37071,0,USNorthCarolinaGaston,North Carolina,Gaston,2021-01-05 14:29:37.918799,2020-10-15 00:00:00.000000,2.57600015,3.87153230,5.30595727,5783,8692,11913,2999,4445,6346,1.33587846,1.98001295,2.82678193,0.23163852,0.33169829,0.44251786
37071,0,USNorthCarolinaGaston,North Carolina,Gaston,2021-01-05 14:29:37.918799,2020-10-16 00:00:00.000000,2.60034685,3.90099109,5.34447442,5838,8758,11999,3049,4487,6425,1.35822157,1.99880930,2.86176258,0.22438451,0.32708653,0.44103187
37071,0,USNorthCarolinaGaston,North Carolina,Gaston,2021-01-05 14:29:37.918799,2020-10-17 00:00:00.000000,2.62493057,3.95185247,5.40075380,5893,8873,12126,3088,4524,6500,1.37556454,2.01518047,2.89517659,0.22086927,0.32177678,0.43026544
37071,0,USNorthCarolinaGaston,North Carolina,Gaston,2021-01-05 14:29:37.918799,2020-10-18 00:00:00.000000,2.65032419,4.02376830,5.47406898,5950,9034,12290,3120,4577,6572,1.38982523,2.03892871,2.92721343,0.21955294,0.31514746,0.41455336
37071,0,USNorthCarolinaGaston,North Carolina,Gaston,2021-01-05 14:29:37.918799,2020-10-19 00:00:00.000000,2.67603206,4.03974333,5.55731986,6008,9070,12477,3157,4631,6641,1.40615745,2.06286510,2.95785686,0.22343044,0.31258159,0.40396889
37071,0,USNorthCarolinaGaston,North Carolina,Gaston,2021-01-05 14:29:37.918799,2020-10-20 00:00:00.000000,2.68439411,4.04716269,5.64489312,6027,9087,12674,3194,4668,6707,1.42264319,2.07907682,2.98730676,0.22637256,0.30946974,0.39844995
37071,0,USNorthCarolinaGaston,North Carolina,Gaston,2021-01-05 14:29:37.918799,2020-10-21 00:00:00.000000,2.66143440,4.05122895,5.73388242,5975,9096,12874,3230,4708,6766,1.43861633,2.09688654,3.01372169,0.22842318,0.30566114,0.39160910
37071,0,USNorthCarolinaGaston,North Carolina,Gaston,2021-01-05 14:29:37.918799,2020-10-22 00:00:00.000000,2.68631396,4.04972297,5.82297784,6031,9092,13074,3221,4732,6812,1.43478398,2.10773473,3.03398626,0.22207700,0.30705097,0.38994583
37071,0,USNorthCarolinaGaston,North Carolina,Gaston,2021-01-05 14:29:37.918799,2020-10-23 00:00:00.000000,2.71080704,4.05293211,5.91127084,6086,9100,13272,3191,4780,6842,1.42132966,2.12910047,3.04742989,0.22088680,0.30748607,0.38821573
37071,0,USNorthCarolinaGaston,North Carolina,Gaston,2021-01-05 14:29:37.918799,2020-10-24 00:00:00.000000,2.73472508,4.03966000,5.99712913,6140,9070,13465,3189,4826,6860,1.42045680,2.14974395,3.05533412,0.22202480,0.30417677,0.38384660
37071,0,USNorthCarolinaGaston,North Carolina,Gaston,2021-01-05 14:29:37.918799,2020-10-25 00:00:00.000000,2.75760063,4.04995470,5.97106607,6191,9093,13406,3188,4838,6868,1.42022126,2.15494501,3.05899679,0.22349753,0.29686992,0.37707726
37071,0,USNorthCarolinaGaston,North Carolina,Gaston,2021-01-05 14:29:37.918799,2020-10-26 00:00:00.000000,2.74348927,4.05884814,5.90465326,6159,9113,13257,3189,4841,6869,1.42049825,2.15650907,3.05941828,0.22525123,0.29253033,0.37633283
37071,0,USNorthCarolinaGaston,North Carolina,Gaston,2021-01-05 14:29:37.918799,2020-10-27 00:00:00.000000,2.70428306,4.05356659,5.83002259,6071,9101,13090,3191,4833,6927,1.42151372,2.15274196,3.08534403,0.21908843,0.29426638,0.38050977
37071,0,USNorthCarolinaGaston,North Carolina,Gaston,2021-01-05 14:29:37.918799,2020-10-28 00:00:00.000000,2.66735921,4.05822611,5.75166942,5988,9111,12914,3177,4801,7005,1.41505703,2.13835385,3.12027133,0.22131679,0.29551094,0.38595669
37071,0,USNorthCarolinaGaston,North Carolina,Gaston,2021-01-05 14:29:37.918799,2020-10-29 00:00:00.000000,2.63328489,4.06137316,5.67353641,5912,9118,12738,3172,4724,7075,1.41282016,2.10435848,3.15136565,0.22359208,0.30045089,0.39233164
37071,0,USNorthCarolinaGaston,North Carolina,Gaston,2021-01-05 14:29:37.918799,2020-10-30 00:00:00.000000,2.60189959,4.04587022,5.61069860,5842,9084,12597,3188,4694,7138,1.42006108,2.09083381,3.17931364,0.22517773,0.29969629,0.39712640
37071,0,USNorthCarolinaGaston,North Carolina,Gaston,2021-01-05 14:29:37.918799,2020-10-31 00:00:00.000000,2.57270105,4.05125516,5.58846974,5776,9096,12547,3189,4717,7195,1.42045776,2.10086006,3.20486943,0.22827923,0.29819909,0.41263347
37071,0,USNorthCarolinaGaston,North Carolina,Gaston,2021-01-05 14:29:37.918799,2020-11-01 00:00:00.000000,2.54545585,4.07038511,5.60061681,5715,9139,12575,3185,4739,7249,1.41864022,2.11066547,3.22875261,0.22961385,0.30064087,0.41370171
37071,0,USNorthCarolinaGaston,North Carolina,Gaston,2021-01-05 14:29:37.918799,2020-11-02 00:00:00.000000,2.52017595,4.10226833,5.63826279,5658,9210,12659,3180,4769,7300,1.41637787,2.12439245,3.25143970,0.22756221,0.30210916,0.41504703
37071,0,USNorthCarolinaGaston,North Carolina,Gaston,2021-01-05 14:29:37.918799,2020-11-03 00:00:00.000000,2.50282904,4.15050766,5.67516391,5619,9319,12742,3173,4773,7349,1.41331245,2.12589061,3.27320218,0.22702238,0.30349719,0.43011695
37071,0,USNorthCarolinaGaston,North Carolina,Gaston,2021-01-05 14:29:37.918799,2020-11-04 00:00:00.000000,2.50434860,4.13896970,5.71122835,5622,9293,12823,3163,4759,7396,1.40898314,2.11975965,3.29428374,0.22748748,0.30692818,0.43981136
37071,0,USNorthCarolinaGaston,North Carolina,Gaston,2021-01-05 14:29:37.918799,2020-11-05 00:00:00.000000,2.53019226,4.15548615,5.74598623,5681,9330,12901,3149,4756,7442,1.40266864,2.11841496,3.31483601,0.22967030,0.31750542,0.44222316
37071,0,USNorthCarolinaGaston,North Carolina,Gaston,2021-01-05 14:29:37.918799,2020-11-06 00:00:00.000000,2.57043267,4.19797212,5.77859429,5771,9425,12974,3131,4769,7487,1.39457602,2.12417273,3.33495561,0.23456015,0.32450830,0.45550031
37071,0,USNorthCarolinaGaston,North Carolina,Gaston,2021-01-05 14:29:37.918799,2020-11-07 00:00:00.000000,2.61618173,4.21830019,5.80807755,5874,9471,13040,3110,4790,7499,1.38519630,2.13340210,3.34002760,0.24311782,0.33050189,0.47506628
37071,0,USNorthCarolinaGaston,North Carolina,Gaston,2021-01-05 14:29:37.918799,2020-11-08 00:00:00.000000,2.66497960,4.25028853,5.83399529,5983,9543,13099,3088,4817,7492,1.37537276,2.14572006,3.33689332,0.24174426,0.33504590,0.49892269
37071,0,USNorthCarolinaGaston,North Carolina,Gaston,2021-01-05 14:29:37.918799,2020-11-09 00:00:00.000000,2.71555912,4.30011461,5.85794010,6097,9655,13152,3151,4835,7499,1.40366911,2.15353438,3.34029828,0.24967933,0.34267195,0.50235079
37071,0,USNorthCarolinaGaston,North Carolina,Gaston,2021-01-05 14:29:37.918799,2020-11-10 00:00:00.000000,2.76688046,4.31694155,5.87963058,6212,9692,13201,3236,4870,7519,1.44136196,2.16913791,3.34917570,0.25049169,0.34597917,0.50729996
37071,0,USNorthCarolinaGaston,North Carolina,Gaston,2021-01-05 14:29:37.918799,2020-11-11 00:00:00.000000,2.81888513,4.34575012,5.89988109,6329,9757,13246,3236,4909,7548,1.44142254,2.18651338,3.36199448,0.25437629,0.35303348,0.50893977
37071,0,USNorthCarolinaGaston,North Carolina,Gaston,2021-01-05 14:29:37.918799,2020-11-12 00:00:00.000000,2.87171073,4.35098468,5.91968488,6447,9769,13291,3236,4951,7583,1.44144107,2.20544477,3.37745614,0.25573458,0.36558738,0.50941128
37071,0,USNorthCarolinaGaston,North Carolina,Gaston,2021-01-05 14:29:37.918799,2020-11-13 00:00:00.000000,2.88253012,4.39533948,5.94092231,6472,9868,13339,3236,4997,7621,1.44146629,2.22556786,3.39457479,0.25896432,0.37600541,0.50900559
37071,0,USNorthCarolinaGaston,North Carolina,Gaston,2021-01-05 14:29:37.918799,2020-11-14 00:00:00.000000,2.88234446,4.45517055,5.96750783,6471,10003,13398,3236,5033,7662,1.44156558,2.24172284,3.41263333,0.26583328,0.38941267,0.51449406
37071,0,USNorthCarolinaGaston,North Carolina,Gaston,2021-01-05 14:29:37.918799,2020-11-15 00:00:00.000000,2.88225805,4.52717582,6.00650910,6471,10164,13486,3288,5075,7705,1.46462206,2.26032566,3.43172444,0.26805231,0.39811665,0.53416252
37071,0,USNorthCarolinaGaston,North Carolina,Gaston,2021-01-05 14:29:37.918799,2020-11-16 00:00:00.000000,2.89033771,4.62426727,6.09844715,6489,10382,13692,3386,5152,7757,1.50816517,2.29472629,3.45501000,0.29027275,0.40170207,0.53226854
37071,0,USNorthCarolinaGaston,North Carolina,Gaston,2021-01-05 14:29:37.918799,2020-11-17 00:00:00.000000,2.97798048,4.71421489,6.22415869,6686,10584,13975,3496,5227,7819,1.55729906,2.32802136,3.48282731,0.28918291,0.40902498,0.53813789
37071,0,USNorthCarolinaGaston,North Carolina,Gaston,2021-01-05 14:29:37.918799,2020-11-18 00:00:00.000000,3.00402909,4.84213782,6.35223135,6744,10872,14262,3615,5317,7889,1.61026747,2.36849737,3.51363138,0.28794028,0.41612546,0.54628062
37071,0,USNorthCarolinaGaston,North Carolina,Gaston,2021-01-05 14:29:37.918799,2020-11-19 00:00:00.000000,3.06739900,4.94019748,6.47985466,6887,11092,14549,3655,5421,7962,1.62788285,2.41443885,3.54619594,0.28723571,0.42357288,0.55713676
37071,0,USNorthCarolinaGaston,North Carolina,Gaston,2021-01-05 14:29:37.918799,2020-11-20 00:00:00.000000,3.13478661,5.02241874,6.60417267,7038,11276,14828,3698,5508,8063,1.64732452,2.45332025,3.59151693,0.28957702,0.43339541,0.57294038
37071,0,USNorthCarolinaGaston,North Carolina,Gaston,2021-01-05 14:29:37.918799,2020-11-21 00:00:00.000000,3.21045577,5.11995200,6.73380285,7208,11495,15119,3697,5630,8330,1.64684742,2.50751249,3.71008556,0.30781130,0.43979441,0.58839069
37071,0,USNorthCarolinaGaston,North Carolina,Gaston,2021-01-05 14:29:37.918799,2020-11-22 00:00:00.000000,3.29355293,5.24043228,6.89959488,7394,11766,15491,3697,5793,8616,1.64685732,2.58049116,3.83775173,0.32991239,0.44557313,0.60729973
37071,0,USNorthCarolinaGaston,North Carolina,Gaston,2021-01-05 14:29:37.918799,2020-11-23 00:00:00.000000,3.37967437,5.38481772,7.06084141,7588,12090,15853,3713,5913,8918,1.65410534,2.63363660,3.97201898,0.34348201,0.46188541,0.61716144
37071,0,USNorthCarolinaGaston,North Carolina,Gaston,2021-01-05 14:29:37.918799,2020-11-24 00:00:00.000000,3.46765726,5.50919341,7.24800681,7785,12369,16273,3747,6081,9231,1.66924438,2.70855504,4.11168057,0.35477231,0.46370501,0.62245264
37071,0,USNorthCarolinaGaston,North Carolina,Gaston,2021-01-05 14:29:37.918799,2020-11-25 00:00:00.000000,3.55741592,5.64464909,7.49355760,7987,12673,16825,3797,6271,9554,1.69109813,2.79331665,4.25533484,0.36656725,0.46451717,0.62164906
37071,0,USNorthCarolinaGaston,North Carolina,Gaston,2021-01-05 14:29:37.918799,2020-11-26 00:00:00.000000,3.64959797,5.82187454,7.71589729,8194,13071,17324,3863,6461,9883,1.72077058,2.87769362,4.40197408,0.37143616,0.47243225,0.62119115
37071,0,USNorthCarolinaGaston,North Carolina,Gaston,2021-01-05 14:29:37.918799,2020-11-27 00:00:00.000000,3.74437591,5.99795494,7.92011657,8407,13467,17782,3954,6664,10218,1.76104860,2.96818819,4.55086226,0.37168935,0.47990504,0.62323546
37071,0,USNorthCarolinaGaston,North Carolina,Gaston,2021-01-05 14:29:37.918799,2020-11-28 00:00:00.000000,3.84025609,6.15300585,8.11275797,8622,13815,18215,4117,6844,10556,1.83406043,3.04850475,4.70150795,0.35890955,0.48972213,0.66331595
37071,0,USNorthCarolinaGaston,North Carolina,Gaston,2021-01-05 14:29:37.918799,2020-11-29 00:00:00.000000,3.95396886,6.29953717,8.33373328,8877,14144,18711,4340,7012,10898,1.93313201,3.12317890,4.85375284,0.34727075,0.49793763,0.67174782
37071,0,USNorthCarolinaGaston,North Carolina,Gaston,2021-01-05 14:29:37.918799,2020-11-30 00:00:00.000000,4.17557494,6.42173054,8.58511762,9375,14418,19276,4505,7182,11205,2.00679337,3.19910811,4.99055301,0.34651135,0.50379240,0.67634079
37071,0,USNorthCarolinaGaston,North Carolina,Gaston,2021-01-05 14:29:37.918799,2020-12-01 00:00:00.000000,4.40282494,6.56026404,8.83934962,9885,14729,19846,4640,7353,11446,2.06673972,3.27500139,5.09779578,0.34886280,0.50708794,0.70479882
37071,0,USNorthCarolinaGaston,North Carolina,Gaston,2021-01-05 14:29:37.918799,2020-12-02 00:00:00.000000,4.60499307,6.73506694,9.09490580,10339,15122,20420,4789,7650,11686,2.13321587,3.40757259,5.20475379,0.35092835,0.51321136,0.75161790
37071,0,USNorthCarolinaGaston,North Carolina,Gaston,2021-01-05 14:29:37.918799,2020-12-03 00:00:00.000000,4.71980581,6.94097416,9.35052114,10597,15584,20994,4950,7894,11925,2.20478732,3.51586072,5.31113542,0.35451758,0.51751229,0.76893006
37071,0,USNorthCarolinaGaston,North Carolina,Gaston,2021-01-05 14:29:37.918799,2020-12-04 00:00:00.000000,4.80498787,7.15950824,9.78273415,10788,16075,21965,5120,8055,12162,2.28036112,3.58787069,5.41667851,0.36947497,0.52650235,0.77391143
37071,0,USNorthCarolinaGaston,North Carolina,Gaston,2021-01-05 14:29:37.918799,2020-12-05 00:00:00.000000,4.88390518,7.30636704,10.23816196,10965,16404,22987,5297,8209,12396,2.35943827,3.65619702,5.52120554,0.38453122,0.52893787,0.78099427
37071,0,USNorthCarolinaGaston,North Carolina,Gaston,2021-01-05 14:29:37.918799,2020-12-06 00:00:00.000000,4.95901728,7.51692841,10.69710906,11134,16877,24018,5482,8402,12629,2.44185130,3.74213331,5.62486496,0.38734461,0.53716958,0.78259340
37071,0,USNorthCarolinaGaston,North Carolina,Gaston,2021-01-05 14:29:37.918799,2020-12-07 00:00:00.000000,5.05893118,7.70333529,11.13967547,11358,17296,25011,5704,8584,12863,2.54078575,3.82318651,5.72895176,0.39985222,0.53847948,0.78279534
37071,0,USNorthCarolinaGaston,North Carolina,Gaston,2021-01-05 14:29:37.918799,2020-12-08 00:00:00.000000,5.16508792,7.95723709,11.44907433,11597,17866,25706,5946,8859,13108,2.64842938,3.94587524,5.83804757,0.38984637,0.54874050,0.79273061
37071,0,USNorthCarolinaGaston,North Carolina,Gaston,2021-01-05 14:29:37.918799,2020-12-09 00:00:00.000000,5.27549325,8.11536503,11.77489908,11845,18221,26438,6196,9126,13385,2.75968423,4.06490160,5.96160197,0.39130354,0.56033076,0.80072356
37071,0,USNorthCarolinaGaston,North Carolina,Gaston,2021-01-05 14:29:37.918799,2020-12-10 00:00:00.000000,5.38522137,8.34207649,12.11538574,12091,18730,27202,6432,9334,13713,2.86509193,4.15734431,6.10745601,0.39127893,0.57300356,0.80473288
37071,0,USNorthCarolinaGaston,North Carolina,Gaston,2021-01-05 14:29:37.918799,2020-12-11 00:00:00.000000,5.49366021,8.66286815,12.54331639,12334,19450,28163,6519,9567,14091,2.90376079,4.26112037,6.27615591,0.40443341,0.58758922,0.80541945
37071,0,USNorthCarolinaGaston,North Carolina,Gaston,2021-01-05 14:29:37.918799,2020-12-12 00:00:00.000000,5.59846954,8.91012316,13.10765471,12570,20005,29430,6672,9795,14515,2.97173430,4.36288673,6.46487784,0.42390398,0.58747079,0.86161028
37071,0,USNorthCarolinaGaston,North Carolina,Gaston,2021-01-05 14:29:37.918799,2020-12-13 00:00:00.000000,5.69832485,9.17119550,13.70948798,12794,20591,30781,6847,10087,14979,3.04989115,4.49263277,6.67135022,0.41466210,0.59781288,0.89055716
37071,0,USNorthCarolinaGaston,North Carolina,Gaston,2021-01-05 14:29:37.918799,2020-12-14 00:00:00.000000,5.80721771,9.42863996,14.17628995,13038,21170,31829,6978,10399,15480,3.10798408,4.63157333,6.89481325,0.42148437,0.61546292,0.93376071
37071,0,USNorthCarolinaGaston,North Carolina,Gaston,2021-01-05 14:29:37.918799,2020-12-15 00:00:00.000000,5.94570832,9.73235984,14.53748339,13349,21851,32640,7105,10636,16019,3.16446093,4.73729103,7.13490603,0.42094657,0.62271218,1.01001122
37071,0,USNorthCarolinaGaston,North Carolina,Gaston,2021-01-05 14:29:37.918799,2020-12-16 00:00:00.000000,6.08084717,10.06694718,14.88210114,13653,22603,33414,7228,10858,16593,3.21941809,4.83625882,7.39054844,0.42079807,0.63091070,1.03257880
37071,0,USNorthCarolinaGaston,North Carolina,Gaston,2021-01-05 14:29:37.918799,2020-12-17 00:00:00.000000,6.21525542,10.38497770,15.20183249,13955,23317,34132,7348,11145,17197,3.27300938,4.96413912,7.65919600,0.41464744,0.65104180,1.05429470
37071,0,USNorthCarolinaGaston,North Carolina,Gaston,2021-01-05 14:29:37.918799,2020-12-18 00:00:00.000000,6.35615723,10.72111749,15.48946334,14271,24072,34778,7466,11542,17821,3.32538716,5.14063797,7.93721156,0.41871213,0.67055235,1.08592798
37071,0,USNorthCarolinaGaston,North Carolina,Gaston,2021-01-05 14:29:37.918799,2020-12-19 00:00:00.000000,6.52657878,11.07756080,15.74259005,14654,24872,35346,7601,11906,18457,3.38544623,5.30302783,8.22055744,0.43068884,0.67909520,1.13530902
37071,0,USNorthCarolinaGaston,North Carolina,Gaston,2021-01-05 14:29:37.918799,2020-12-20 00:00:00.000000,6.75658231,11.41858404,15.95893903,15170,25638,35832,7862,12101,19097,3.50160809,5.38969162,8.50538865,0.46275390,0.67938952,1.20018402
37071,0,USNorthCarolinaGaston,North Carolina,Gaston,2021-01-05 14:29:37.918799,2020-12-21 00:00:00.000000,7.06790638,11.69304991,16.32675729,15869,26254,36658,8166,12410,19732,3.63720474,5.52729794,8.78845656,0.47505776,0.69277148,1.26548322
37071,0,USNorthCarolinaGaston,North Carolina,Gaston,2021-01-05 14:29:37.918799,2020-12-22 00:00:00.000000,7.29740610,12.01294975,16.72399468,16384,26972,37550,8441,12816,20359,3.75954199,5.70815922,9.06776266,0.47752831,0.69961521,1.27844795
37071,0,USNorthCarolinaGaston,North Carolina,Gaston,2021-01-05 14:29:37.918799,2020-12-23 00:00:00.000000,7.57138238,12.31202101,17.12342464,16999,27644,38447,8639,13117,20972,3.84771154,5.84244089,9.34067601,0.47764521,0.70741881,1.27924864
37071,0,USNorthCarolinaGaston,North Carolina,Gaston,2021-01-05 14:29:37.918799,2020-12-24 00:00:00.000000,7.81617101,12.64750310,17.52710861,17549,28397,39353,8861,13547,21562,3.94684110,6.03389182,9.60361435,0.47784722,0.72209963,1.32688891
37071,0,USNorthCarolinaGaston,North Carolina,Gaston,2021-01-05 14:29:37.918799,2020-12-25 00:00:00.000000,8.03011947,12.90409593,17.93945629,18029,28973,40279,9116,13983,22122,4.06036812,6.22777057,9.85300873,0.47483088,0.75255660,1.34332573
37071,0,USNorthCarolinaGaston,North Carolina,Gaston,2021-01-05 14:29:37.918799,2020-12-26 00:00:00.000000,8.40253166,13.19186235,18.35992657,18866,29619,41223,9414,14346,22643,4.19279391,6.38972216,10.08489634,0.47164949,0.75752017,1.39185265
37071,0,USNorthCarolinaGaston,North Carolina,Gaston,2021-01-05 14:29:37.918799,2020-12-27 00:00:00.000000,8.82064195,13.44752938,18.77808032,19804,30193,42162,9786,14784,23114,4.35882845,6.58477220,10.29455458,0.47279580,0.75672549,1.39498568
37071,0,USNorthCarolinaGaston,North Carolina,Gaston,2021-01-05 14:29:37.918799,2020-12-28 00:00:00.000000,9.19962366,13.61656456,19.17698637,20655,30573,43057,10107,15131,23523,4.50171598,6.73942186,10.47661426,0.46304649,0.74755498,1.39637043
37071,0,USNorthCarolinaGaston,North Carolina,Gaston,2021-01-05 14:29:37.918799,2020-12-29 00:00:00.000000,9.47147355,13.85680316,19.54193199,21266,31112,43877,10485,15359,23858,4.67006756,6.84071076,10.62581946,0.44733674,0.74900701,1.39521003
37071,0,USNorthCarolinaGaston,North Carolina,Gaston,2021-01-05 14:29:37.918799,2020-12-30 00:00:00.000000,9.72176046,14.08316211,19.86166454,21828,31620,44595,10876,15643,24113,4.84399056,6.96712279,10.73938987,0.45182298,0.74667357,1.38841957
37071,0,USNorthCarolinaGaston,North Carolina,Gaston,2021-01-05 14:29:37.918799,2020-12-31 00:00:00.000000,10.03267357,14.31514913,20.12881658,22526,32141,45195,11274,15916,24287,5.02139951,7.08864226,10.81705369,0.44018581,0.76025982,1.36576863
37071,0,USNorthCarolinaGaston,North Carolina,Gaston,2021-01-05 14:29:37.918799,2021-01-01 00:00:00.000000,10.30280111,14.39979563,20.19095371,23132,32331,45334,11553,16070,24384,5.14587537,7.15733250,10.86032749,0.43234693,0.76895881,1.38097046
37071,0,USNorthCarolinaGaston,North Carolina,Gaston,2021-01-05 14:29:37.918799,2021-01-02 00:00:00.000000,10.37799405,14.61654748,19.90327563,23301,32818,44688,11707,16139,24409,5.21407066,7.18836994,10.87155406,0.44873759,0.78197840,1.41431210
37071,0,USNorthCarolinaGaston,North Carolina,Gaston,2021-01-05 14:29:37.918799,2021-01-03 00:00:00.000000,10.39657117,14.63762818,19.91573086,23343,32865,44716,11842,16410,24368,5.27436032,7.30867162,10.85325225,0.45154212,0.78779929,1.42305180
37071,0,USNorthCarolinaGaston,North Carolina,Gaston,2021-01-05 14:29:37.918799,2021-01-04 00:00:00.000000,10.49332653,14.63218209,19.84018207,23560,32853,44546,12190,16863,24266,5.42915462,7.51071744,10.80777460,0.43789559,0.78057291,1.42789246
37071,0,USNorthCarolinaGaston,North Carolina,Gaston,2021-01-05 14:29:37.918799,2021-01-05 00:00:00.000000,10.56808345,14.66184190,19.72050942,23728,32920,44278,12126,17164,24263,5.40085196,7.64475677,10.80636380,0.42925853,0.79113412,1.44826175
37071,0,USNorthCarolinaGaston,North Carolina,Gaston,2021-01-05 14:29:37.918799,2021-01-06 00:00:00.000000,10.30030011,14.70377397,19.49353908,23127,33014,43768,12106,17287,24401,5.39196608,7.69953057,10.86798497,0.42790163,0.78214176,1.48397926
37071,0,USNorthCarolinaGaston,North Carolina,Gaston,2021-01-05 14:29:37.918799,2021-01-07 00:00:00.000000,10.20950237,14.60964972,19.58627949,22923,32802,43976,12145,17436,24493,5.40953762,7.76562382,10.90865655,0.42770463,0.78054562,1.51074028
37071,0,USNorthCarolinaGaston,North Carolina,Gaston,2021-01-05 14:29:37.918799,2021-01-08 00:00:00.000000,10.12487057,14.55354181,19.56680558,22733,32676,43933,12163,17330,24517,5.41749541,7.71850259,10.91942843,0.42768339,0.78203460,1.52838897
37071,0,USNorthCarolinaGaston,North Carolina,Gaston,2021-01-05 14:29:37.918799,2021-01-09 00:00:00.000000,10.02906078,14.41521712,19.40883821,22518,32366,43578,12160,17190,24395,5.41590296,7.65603618,10.86539114,0.42768627,0.78268573,1.53906291
37071,0,USNorthCarolinaGaston,North Carolina,Gaston,2021-01-05 14:29:37.918799,2021-01-10 00:00:00.000000,9.92284814,14.25027657,19.37633676,22279,31996,43505,12135,17239,23812,5.40486819,7.67816013,10.60541147,0.42769068,0.78296829,1.54518406
37071,0,USNorthCarolinaGaston,North Carolina,Gaston,2021-01-05 14:29:37.918799,2021-01-11 00:00:00.000000,9.81398499,14.18251299,19.41010124,22035,31843,43581,12089,17149,23540,5.38454628,7.63813711,10.48445465,0.42769386,0.78309077,1.54858831
37071,0,USNorthCarolinaGaston,North Carolina,Gaston,2021-01-05 14:29:37.918799,2021-01-12 00:00:00.000000,9.69791339,14.03825499,19.12536158,21774,31519,42941,11929,17193,23817,5.31305911,7.65746330,10.60770647,0.42769589,0.78314397,1.55044972
37071,0,USNorthCarolinaGaston,North Carolina,Gaston,2021-01-05 14:29:37.918799,2021-01-13 00:00:00.000000,9.57309418,13.67182341,19.57526701,21494,30697,43952,11702,17065,23697,5.21217564,7.60057788,10.55429747,0.42769716,0.78316715,1.55145832
37071,0,USNorthCarolinaGaston,North Carolina,Gaston,2021-01-05 14:29:37.918799,2021-01-14 00:00:00.000000,9.31487932,13.47458876,19.94478132,20914,30254,44781,11472,16937,23534,5.10977151,7.54340175,10.48188466,0.42769793,0.78317729,1.55200229
37071,0,USNorthCarolinaGaston,North Carolina,Gaston,2021-01-05 14:29:37.918799,2021-01-15 00:00:00.000000,8.98655220,13.13297882,20.04986193,20177,29487,45017,11239,16643,24139,5.00563896,7.41265547,10.75110330,0.42769840,0.78318174,1.55229501
37071,0,USNorthCarolinaGaston,North Carolina,Gaston,2021-01-05 14:29:37.918799,2021-01-16 00:00:00.000000,8.88342967,12.82903570,19.82929577,19945,28804,44522,10868,16457,24418,4.84054964,7.32959916,10.87525976,0.42769869,0.78318371,1.55245239
37071,0,USNorthCarolinaGaston,North Carolina,Gaston,2021-01-05 14:29:37.918799,2021-01-17 00:00:00.000000,8.48719124,12.58595324,19.92394351,19056,28259,44735,10443,16208,24789,4.65115808,7.21872868,11.04056044,0.42769887,0.78318458,1.55253699
