0 Divergences 
Failed validation 
Computed from 80 by 296 log-likelihood matrix

         Estimate       SE
elpd_loo  -602.07    42.34
p_loo       41.76        -

There has been a warning during the calculation. Please check the results.
------

Pareto k diagnostic values:
                         Count   Pct.
(-Inf, 0.5]   (good)      277   93.6%
 (0.5, 0.7]   (ok)         13    4.4%
   (0.7, 1]   (bad)         2    0.7%
   (1, Inf)   (very bad)    4    1.4%

           mean     sd  hdi_3%  hdi_97%  ...  ess_sd  ess_bulk  ess_tail  r_hat
pa        0.277  0.052   0.189    0.350  ...   112.0      91.0      53.0   0.98
pu        0.875  0.023   0.829    0.899  ...    49.0      22.0      91.0   1.10
mu        0.133  0.022   0.091    0.164  ...    11.0      11.0      59.0   1.16
mus       0.167  0.035   0.101    0.235  ...    68.0      77.0      32.0   1.00
gamma     0.198  0.038   0.133    0.272  ...    95.0     104.0      77.0   1.01
Is_begin  0.877  0.732   0.005    2.336  ...    17.0      11.0      22.0   1.15
Ia_begin  0.557  0.548   0.004    1.590  ...    54.0      31.0      43.0   1.05
E_begin   0.503  0.502   0.001    1.564  ...    38.0      22.0      40.0   1.10

[8 rows x 11 columns]