FIPS,HR_UID,nameid,province,region,analysisTime,dates,pointprevalence_025,pointprevalence_50,pointprevalence_975,pointinfections_025,pointinfections_50,pointinfections_975,pointinfectious_025,pointinfectious_50,pointinfectious_975,pointinfectiousprevalence_05,pointinfectiousprevalence_50,pointinfectiousprevalence_95,infectrate_025,infectrate_50,infectrate_975
21075,0,USKentuckyFulton,Kentucky,Fulton,2021-01-05 20:59:47.873721,2020-03-09 00:00:00.000000,0.00734328,0.03446394,0.14389268,0,2,8,0,1,3,0.00382136,0.01913855,0.06396063,0.37424375,0.51472192,0.69511221
21075,0,USKentuckyFulton,Kentucky,Fulton,2021-01-05 20:59:47.873721,2020-03-10 00:00:00.000000,0.00812544,0.03770033,0.16396821,0,2,9,0,1,3,0.00406945,0.01917292,0.06218953,0.37423962,0.51472191,0.69511155
21075,0,USKentuckyFulton,Kentucky,Fulton,2021-01-05 20:59:47.873721,2020-03-11 00:00:00.000000,0.00897332,0.04136409,0.17917027,0,2,10,0,1,3,0.00440741,0.01961338,0.06491929,0.37423171,0.51472187,0.69510986
21075,0,USKentuckyFulton,Kentucky,Fulton,2021-01-05 20:59:47.873721,2020-03-12 00:00:00.000000,0.00989990,0.04553950,0.18988618,0,2,11,0,1,4,0.00462767,0.02064767,0.07019370,0.37421657,0.51472179,0.69510550
21075,0,USKentuckyFulton,Kentucky,Fulton,2021-01-05 20:59:47.873721,2020-03-13 00:00:00.000000,0.01079938,0.04913333,0.20139860,0,2,12,0,1,4,0.00475773,0.02213826,0.07689257,0.37418762,0.51472161,0.69509418
21075,0,USKentuckyFulton,Kentucky,Fulton,2021-01-05 20:59:47.873721,2020-03-14 00:00:00.000000,0.01134047,0.05198331,0.21370982,0,3,12,0,1,5,0.00494654,0.02347924,0.08438205,0.37413242,0.51472117,0.69506493
21075,0,USKentuckyFulton,Kentucky,Fulton,2021-01-05 20:59:47.873721,2020-03-15 00:00:00.000000,0.01189751,0.05507706,0.22689729,0,3,13,0,1,5,0.00538701,0.02478248,0.09230120,0.37402755,0.51350464,0.69487845
21075,0,USKentuckyFulton,Kentucky,Fulton,2021-01-05 20:59:47.873721,2020-03-16 00:00:00.000000,0.01247247,0.05753648,0.24099416,0,3,14,0,1,5,0.00596064,0.02655173,0.10039576,0.37382970,0.51344987,0.68835902
21075,0,USKentuckyFulton,Kentucky,Fulton,2021-01-05 20:59:47.873721,2020-03-17 00:00:00.000000,0.01343083,0.06095863,0.25594212,0,3,15,0,1,6,0.00656961,0.02781524,0.10852886,0.37352984,0.51052838,0.68603536
21075,0,USKentuckyFulton,Kentucky,Fulton,2021-01-05 20:59:47.873721,2020-03-18 00:00:00.000000,0.01458509,0.06599850,0.27171280,0,3,16,0,1,6,0.00721124,0.02915071,0.11655102,0.37276328,0.49778391,0.68326803
21075,0,USKentuckyFulton,Kentucky,Fulton,2021-01-05 20:59:47.873721,2020-03-19 00:00:00.000000,0.01565149,0.07204065,0.28804202,0,4,17,0,1,7,0.00787055,0.03078817,0.12430811,0.36944846,0.47910274,0.66766922
21075,0,USKentuckyFulton,Kentucky,Fulton,2021-01-05 20:59:47.873721,2020-03-20 00:00:00.000000,0.01652333,0.07858372,0.30419953,0,4,18,0,2,7,0.00851040,0.03356700,0.13166319,0.35076829,0.45907666,0.66095387
21075,0,USKentuckyFulton,Kentucky,Fulton,2021-01-05 20:59:47.873721,2020-03-21 00:00:00.000000,0.01718767,0.08538939,0.31922660,1,5,19,0,2,8,0.00907973,0.03676699,0.13852304,0.31743486,0.43643754,0.65823172
21075,0,USKentuckyFulton,Kentucky,Fulton,2021-01-05 20:59:47.873721,2020-03-22 00:00:00.000000,0.01771350,0.09206123,0.33314160,1,5,19,0,2,8,0.00954974,0.04016211,0.14485067,0.30804156,0.41062071,0.65055859
21075,0,USKentuckyFulton,Kentucky,Fulton,2021-01-05 20:59:47.873721,2020-03-23 00:00:00.000000,0.01816437,0.09571488,0.34671132,1,5,20,0,2,8,0.00992881,0.04311983,0.15065811,0.29503427,0.39743074,0.62299122
21075,0,USKentuckyFulton,Kentucky,Fulton,2021-01-05 20:59:47.873721,2020-03-24 00:00:00.000000,0.01857277,0.10136576,0.36043652,1,6,21,0,2,9,0.01024207,0.04546338,0.15704453,0.27797144,0.38349237,0.61632126
21075,0,USKentuckyFulton,Kentucky,Fulton,2021-01-05 20:59:47.873721,2020-03-25 00:00:00.000000,0.01894578,0.10571494,0.37448751,1,6,22,0,2,9,0.01051223,0.04878647,0.16501137,0.27534422,0.36980603,0.60481110
21075,0,USKentuckyFulton,Kentucky,Fulton,2021-01-05 20:59:47.873721,2020-03-26 00:00:00.000000,0.01926895,0.10815285,0.38036274,1,6,22,0,3,10,0.01075214,0.05213643,0.17222469,0.25607734,0.35878033,0.59994880
21075,0,USKentuckyFulton,Kentucky,Fulton,2021-01-05 20:59:47.873721,2020-03-27 00:00:00.000000,0.01951076,0.11019530,0.38332208,1,6,22,0,3,10,0.01095975,0.05398339,0.17880554,0.23070989,0.35387883,0.59786710
21075,0,USKentuckyFulton,Kentucky,Fulton,2021-01-05 20:59:47.873721,2020-03-28 00:00:00.000000,0.01964234,0.11507781,0.38464416,1,6,22,0,3,11,0.01082188,0.05562348,0.18487830,0.21798940,0.33629345,0.59412351
21075,0,USKentuckyFulton,Kentucky,Fulton,2021-01-05 20:59:47.873721,2020-03-29 00:00:00.000000,0.01966506,0.11947878,0.38491498,1,7,22,0,3,11,0.01067777,0.05707204,0.19053651,0.20962584,0.32383326,0.57180820
21075,0,USKentuckyFulton,Kentucky,Fulton,2021-01-05 20:59:47.873721,2020-03-30 00:00:00.000000,0.01948246,0.12293769,0.38459687,1,7,22,0,3,11,0.01053090,0.05834842,0.19588476,0.20543002,0.30417351,0.50329559
21075,0,USKentuckyFulton,Kentucky,Fulton,2021-01-05 20:59:47.873721,2020-03-31 00:00:00.000000,0.01948234,0.12928953,0.38497177,1,7,22,0,3,11,0.01038337,0.06193640,0.20103312,0.20326207,0.29839935,0.46121506
21075,0,USKentuckyFulton,Kentucky,Fulton,2021-01-05 20:59:47.873721,2020-04-01 00:00:00.000000,0.01932888,0.13062924,0.39357247,1,7,23,0,3,12,0.01023641,0.06453146,0.20606702,0.20181571,0.28945937,0.45991232
21075,0,USKentuckyFulton,Kentucky,Fulton,2021-01-05 20:59:47.873721,2020-04-02 00:00:00.000000,0.01916043,0.13154947,0.40211244,1,7,24,0,3,12,0.01009064,0.06409021,0.21104109,0.18349358,0.28266571,0.45678782
21075,0,USKentuckyFulton,Kentucky,Fulton,2021-01-05 20:59:47.873721,2020-04-03 00:00:00.000000,0.01898192,0.13007009,0.40999846,1,7,24,0,3,12,0.00994608,0.06383390,0.21596473,0.16657133,0.27111759,0.44451581
21075,0,USKentuckyFulton,Kentucky,Fulton,2021-01-05 20:59:47.873721,2020-04-04 00:00:00.000000,0.01878197,0.12755163,0.41186129,1,7,24,0,3,13,0.00994768,0.06426897,0.22073959,0.16115211,0.26319007,0.44003173
21075,0,USKentuckyFulton,Kentucky,Fulton,2021-01-05 20:59:47.873721,2020-04-05 00:00:00.000000,0.01849906,0.12428938,0.40808245,1,7,24,0,3,13,0.01003913,0.06287031,0.22507129,0.15776168,0.24365808,0.42935175
21075,0,USKentuckyFulton,Kentucky,Fulton,2021-01-05 20:59:47.873721,2020-04-06 00:00:00.000000,0.03396839,0.14649186,0.42594077,2,8,25,0,3,13,0.01007449,0.06260896,0.22868150,0.15581673,0.23525149,0.39996142
21075,0,USKentuckyFulton,Kentucky,Fulton,2021-01-05 20:59:47.873721,2020-04-07 00:00:00.000000,0.04435110,0.17568889,0.44276271,2,10,26,0,3,14,0.01536455,0.06540798,0.23454777,0.15478345,0.23182714,0.39517562
21075,0,USKentuckyFulton,Kentucky,Fulton,2021-01-05 20:59:47.873721,2020-04-08 00:00:00.000000,0.05438811,0.19807665,0.45945789,3,11,27,1,4,14,0.01866795,0.07580915,0.24072489,0.15429394,0.22653240,0.38147064
21075,0,USKentuckyFulton,Kentucky,Fulton,2021-01-05 20:59:47.873721,2020-04-09 00:00:00.000000,0.06559952,0.21686286,0.47549095,3,12,28,1,5,14,0.02278478,0.08821875,0.24833863,0.15408432,0.22629149,0.36629056
21075,0,USKentuckyFulton,Kentucky,Fulton,2021-01-05 20:59:47.873721,2020-04-10 00:00:00.000000,0.07652754,0.23655974,0.49072733,4,14,29,1,6,15,0.02728633,0.10061520,0.25658376,0.15410947,0.21702984,0.35766948
21075,0,USKentuckyFulton,Kentucky,Fulton,2021-01-05 20:59:47.873721,2020-04-11 00:00:00.000000,0.08719988,0.26058514,0.53275560,5,15,31,1,6,15,0.03194090,0.11279139,0.26495619,0.15442208,0.20924488,0.34623441
21075,0,USKentuckyFulton,Kentucky,Fulton,2021-01-05 20:59:47.873721,2020-04-12 00:00:00.000000,0.09760468,0.27950731,0.56039994,5,16,33,2,7,16,0.03660744,0.12135245,0.27325850,0.14007876,0.20329818,0.33170850
21075,0,USKentuckyFulton,Kentucky,Fulton,2021-01-05 20:59:47.873721,2020-04-13 00:00:00.000000,0.10892088,0.31209222,0.58679263,6,18,35,2,7,17,0.04117969,0.13109369,0.28638465,0.13152473,0.19769455,0.31806906
21075,0,USKentuckyFulton,Kentucky,Fulton,2021-01-05 20:59:47.873721,2020-04-14 00:00:00.000000,0.11990768,0.33438164,0.61520633,7,19,36,2,8,17,0.04701028,0.14147840,0.29465634,0.12946873,0.19521567,0.31593344
21075,0,USKentuckyFulton,Kentucky,Fulton,2021-01-05 20:59:47.873721,2020-04-15 00:00:00.000000,0.13144751,0.34451312,0.64470649,7,20,38,3,9,18,0.05348408,0.15328693,0.31370171,0.12907924,0.19284231,0.31333068
21075,0,USKentuckyFulton,Kentucky,Fulton,2021-01-05 20:59:47.873721,2020-04-16 00:00:00.000000,0.14643897,0.35781469,0.67334967,8,21,40,3,9,19,0.06026859,0.16536933,0.32934009,0.12930577,0.18941243,0.30583857
21075,0,USKentuckyFulton,Kentucky,Fulton,2021-01-05 20:59:47.873721,2020-04-17 00:00:00.000000,0.15717877,0.37035932,0.69965500,9,22,41,4,10,20,0.06709031,0.17716344,0.34195653,0.13004560,0.18257304,0.29766777
21075,0,USKentuckyFulton,Kentucky,Fulton,2021-01-05 20:59:47.873721,2020-04-18 00:00:00.000000,0.16887468,0.38656651,0.72325606,10,23,43,4,11,21,0.07347059,0.18802967,0.35188353,0.11630360,0.17853201,0.29873167
21075,0,USKentuckyFulton,Kentucky,Fulton,2021-01-05 20:59:47.873721,2020-04-19 00:00:00.000000,0.17973490,0.40140311,0.78798150,10,23,47,4,11,21,0.07978778,0.20025452,0.36736881,0.11511045,0.17845831,0.28144235
21075,0,USKentuckyFulton,Kentucky,Fulton,2021-01-05 20:59:47.873721,2020-04-20 00:00:00.000000,0.18920207,0.42229832,0.80628704,11,25,48,5,12,22,0.08626365,0.20942649,0.38118261,0.11471124,0.17778067,0.27163454
21075,0,USKentuckyFulton,Kentucky,Fulton,2021-01-05 20:59:47.873721,2020-04-21 00:00:00.000000,0.19802267,0.43544884,0.82227339,11,25,49,5,13,23,0.09295721,0.22088534,0.39467916,0.11452695,0.17506002,0.26980653
21075,0,USKentuckyFulton,Kentucky,Fulton,2021-01-05 20:59:47.873721,2020-04-22 00:00:00.000000,0.20637618,0.45179365,0.83654661,12,26,49,5,13,24,0.09874862,0.23084351,0.40824781,0.11444825,0.17350026,0.26974069
21075,0,USKentuckyFulton,Kentucky,Fulton,2021-01-05 20:59:47.873721,2020-04-23 00:00:00.000000,0.21418394,0.45733409,0.84836406,12,27,50,6,14,25,0.10410358,0.23617602,0.42577216,0.11352485,0.17249760,0.26995098
21075,0,USKentuckyFulton,Kentucky,Fulton,2021-01-05 20:59:47.873721,2020-04-24 00:00:00.000000,0.22147485,0.48152937,0.85429253,13,28,50,6,14,26,0.10907047,0.24097863,0.43733680,0.11016934,0.17059108,0.25941793
21075,0,USKentuckyFulton,Kentucky,Fulton,2021-01-05 20:59:47.873721,2020-04-25 00:00:00.000000,0.22801396,0.50409762,0.85468733,13,30,51,6,14,26,0.11368781,0.24480725,0.44762380,0.10800712,0.16604254,0.24929039
21075,0,USKentuckyFulton,Kentucky,Fulton,2021-01-05 20:59:47.873721,2020-04-26 00:00:00.000000,0.22174227,0.51864919,0.85326310,13,30,50,7,14,27,0.11798750,0.25082006,0.45257915,0.10427168,0.16086966,0.24124524
21075,0,USKentuckyFulton,Kentucky,Fulton,2021-01-05 20:59:47.873721,2020-04-27 00:00:00.000000,0.20938781,0.50559202,0.83386471,12,30,49,7,15,27,0.12124222,0.25540526,0.46111128,0.10331091,0.16087250,0.23773219
21075,0,USKentuckyFulton,Kentucky,Fulton,2021-01-05 20:59:47.873721,2020-04-28 00:00:00.000000,0.19863052,0.49126823,0.81453487,11,29,48,6,15,27,0.11629697,0.26068882,0.46272739,0.10214910,0.15630379,0.23761013
21075,0,USKentuckyFulton,Kentucky,Fulton,2021-01-05 20:59:47.873721,2020-04-29 00:00:00.000000,0.18769656,0.47890437,0.79448590,11,28,47,6,15,27,0.11312847,0.25983897,0.45933259,0.10179463,0.15423345,0.23674319
21075,0,USKentuckyFulton,Kentucky,Fulton,2021-01-05 20:59:47.873721,2020-04-30 00:00:00.000000,0.17689129,0.46743460,0.77639574,10,27,46,6,15,27,0.10852143,0.25666152,0.45235222,0.10314086,0.15339856,0.22671086
21075,0,USKentuckyFulton,Kentucky,Fulton,2021-01-05 20:59:47.873721,2020-05-01 00:00:00.000000,0.16640813,0.44832593,0.76591439,9,26,45,6,15,26,0.10309472,0.25286318,0.44285225,0.10322759,0.15302873,0.22494276
21075,0,USKentuckyFulton,Kentucky,Fulton,2021-01-05 20:59:47.873721,2020-05-02 00:00:00.000000,0.15633345,0.42835047,0.75477824,9,25,45,5,14,25,0.09728531,0.24815182,0.43190298,0.10344961,0.15305799,0.22092519
21075,0,USKentuckyFulton,Kentucky,Fulton,2021-01-05 20:59:47.873721,2020-05-03 00:00:00.000000,0.14729946,0.41005366,0.74730199,8,24,44,5,14,25,0.09140453,0.24311601,0.42339910,0.10388928,0.15516722,0.22092611
21075,0,USKentuckyFulton,Kentucky,Fulton,2021-01-05 20:59:47.873721,2020-05-04 00:00:00.000000,0.17259022,0.42116526,0.78669355,10,25,46,5,14,25,0.08567632,0.23964648,0.42169339,0.10288595,0.15428471,0.22161691
21075,0,USKentuckyFulton,Kentucky,Fulton,2021-01-05 20:59:47.873721,2020-05-05 00:00:00.000000,0.19196862,0.43942032,0.82741147,11,26,49,5,14,25,0.08692839,0.23769153,0.42691690,0.09464329,0.15502780,0.23086511
21075,0,USKentuckyFulton,Kentucky,Fulton,2021-01-05 20:59:47.873721,2020-05-06 00:00:00.000000,0.21304935,0.45046973,0.86854913,12,26,51,5,14,26,0.09249315,0.23970760,0.43583535,0.09728537,0.15519628,0.23473569
21075,0,USKentuckyFulton,Kentucky,Fulton,2021-01-05 20:59:47.873721,2020-05-07 00:00:00.000000,0.22618316,0.45113915,0.87451733,13,26,52,6,14,26,0.10066876,0.23807867,0.45135388,0.09986451,0.15288907,0.23150283
21075,0,USKentuckyFulton,Kentucky,Fulton,2021-01-05 20:59:47.873721,2020-05-08 00:00:00.000000,0.23243868,0.46533447,0.90852001,13,27,54,6,14,27,0.10772164,0.23885594,0.46152615,0.09830362,0.15157970,0.23433107
21075,0,USKentuckyFulton,Kentucky,Fulton,2021-01-05 20:59:47.873721,2020-05-09 00:00:00.000000,0.24964038,0.47753523,0.94273350,14,28,56,6,14,28,0.11173500,0.24188352,0.47679942,0.09693664,0.15094121,0.23439672
21075,0,USKentuckyFulton,Kentucky,Fulton,2021-01-05 20:59:47.873721,2020-05-10 00:00:00.000000,0.25106484,0.48699050,0.97691235,14,29,58,7,14,28,0.11733282,0.24557915,0.47226256,0.09548341,0.15257602,0.23443567
21075,0,USKentuckyFulton,Kentucky,Fulton,2021-01-05 20:59:47.873721,2020-05-11 00:00:00.000000,0.27277714,0.49652555,0.98559223,16,29,58,7,14,28,0.12587752,0.25115678,0.47379431,0.09292476,0.15185444,0.23371239
21075,0,USKentuckyFulton,Kentucky,Fulton,2021-01-05 20:59:47.873721,2020-05-12 00:00:00.000000,0.27483206,0.51144928,0.99227722,16,30,59,8,15,28,0.13752410,0.25770841,0.47826329,0.09125303,0.14895929,0.23085413
21075,0,USKentuckyFulton,Kentucky,Fulton,2021-01-05 20:59:47.873721,2020-05-13 00:00:00.000000,0.29273661,0.52334572,0.99557859,17,31,59,9,15,28,0.15133114,0.26411026,0.48141617,0.09035629,0.14752494,0.22659313
21075,0,USKentuckyFulton,Kentucky,Fulton,2021-01-05 20:59:47.873721,2020-05-14 00:00:00.000000,0.30504902,0.53087073,0.99646798,18,31,59,9,16,28,0.15354625,0.26864251,0.48372530,0.09015561,0.14924652,0.22785260
21075,0,USKentuckyFulton,Kentucky,Fulton,2021-01-05 20:59:47.873721,2020-05-15 00:00:00.000000,0.30734632,0.54657310,0.99602040,18,32,59,9,16,28,0.16518477,0.27368276,0.48572931,0.09075807,0.14883795,0.22924592
21075,0,USKentuckyFulton,Kentucky,Fulton,2021-01-05 20:59:47.873721,2020-05-16 00:00:00.000000,0.29751542,0.55108952,0.99860546,17,32,59,10,16,29,0.17178009,0.28174643,0.48822106,0.09190830,0.14903640,0.22282594
21075,0,USKentuckyFulton,Kentucky,Fulton,2021-01-05 20:59:47.873721,2020-05-17 00:00:00.000000,0.28922419,0.55512259,1.03495885,17,33,61,10,17,29,0.17342531,0.29468010,0.49206290,0.09276100,0.15033177,0.22761644
21075,0,USKentuckyFulton,Kentucky,Fulton,2021-01-05 20:59:47.873721,2020-05-18 00:00:00.000000,0.27846938,0.57729299,1.05406146,16,34,62,9,17,29,0.16613700,0.29737249,0.49760704,0.09494335,0.15543422,0.23511583
21075,0,USKentuckyFulton,Kentucky,Fulton,2021-01-05 20:59:47.873721,2020-05-19 00:00:00.000000,0.28606872,0.59684502,1.03157242,17,35,61,9,18,30,0.15986171,0.30932115,0.50610846,0.09508713,0.15688399,0.23904670
21075,0,USKentuckyFulton,Kentucky,Fulton,2021-01-05 20:59:47.873721,2020-05-20 00:00:00.000000,0.31609599,0.60504924,1.01033119,18,36,60,9,18,30,0.16211076,0.31403050,0.51677479,0.09534303,0.15882991,0.24043731
21075,0,USKentuckyFulton,Kentucky,Fulton,2021-01-05 20:59:47.873721,2020-05-21 00:00:00.000000,0.33158298,0.61824739,1.04201749,19,36,62,9,19,31,0.16290387,0.31972790,0.52898521,0.09574129,0.16107158,0.23986170
21075,0,USKentuckyFulton,Kentucky,Fulton,2021-01-05 20:59:47.873721,2020-05-22 00:00:00.000000,0.33586754,0.62868022,1.14288483,20,37,68,9,19,32,0.15665721,0.32096630,0.54229081,0.09613240,0.16401863,0.23908528
21075,0,USKentuckyFulton,Kentucky,Fulton,2021-01-05 20:59:47.873721,2020-05-23 00:00:00.000000,0.33965225,0.63759460,1.16444877,20,38,69,9,19,33,0.15546586,0.32687461,0.56811235,0.09423550,0.16666160,0.23925504
21075,0,USKentuckyFulton,Kentucky,Fulton,2021-01-05 20:59:47.873721,2020-05-24 00:00:00.000000,0.34292487,0.65395371,1.18566006,20,39,70,10,20,34,0.16812323,0.33566318,0.57880882,0.09282009,0.16803066,0.23943086
21075,0,USKentuckyFulton,Kentucky,Fulton,2021-01-05 20:59:47.873721,2020-05-25 00:00:00.000000,0.36725866,0.65947499,1.20628795,21,39,72,10,20,37,0.17345483,0.34704979,0.63045262,0.09210661,0.16662789,0.24683963
21075,0,USKentuckyFulton,Kentucky,Fulton,2021-01-05 20:59:47.873721,2020-05-26 00:00:00.000000,0.39120667,0.70511447,1.22414646,23,42,73,10,20,39,0.18024976,0.34852581,0.66115939,0.09144903,0.16699012,0.25162025
21075,0,USKentuckyFulton,Kentucky,Fulton,2021-01-05 20:59:47.873721,2020-05-27 00:00:00.000000,0.40573677,0.71466537,1.22653156,24,42,73,11,20,40,0.18978993,0.35085779,0.67415418,0.09099585,0.16660226,0.25195580
21075,0,USKentuckyFulton,Kentucky,Fulton,2021-01-05 20:59:47.873721,2020-05-28 00:00:00.000000,0.40604140,0.74782642,1.22844705,24,44,73,11,21,40,0.19303126,0.36516830,0.67873853,0.09079199,0.16759632,0.25282409
21075,0,USKentuckyFulton,Kentucky,Fulton,2021-01-05 20:59:47.873721,2020-05-29 00:00:00.000000,0.40690746,0.77235140,1.27336644,24,46,76,11,22,40,0.19403518,0.37624083,0.68204885,0.09074895,0.16598182,0.25044951
21075,0,USKentuckyFulton,Kentucky,Fulton,2021-01-05 20:59:47.873721,2020-05-30 00:00:00.000000,0.40810670,0.79872046,1.32085777,24,47,78,11,22,40,0.19446477,0.38244068,0.68443847,0.09092028,0.16746030,0.25107076
21075,0,USKentuckyFulton,Kentucky,Fulton,2021-01-05 20:59:47.873721,2020-05-31 00:00:00.000000,0.40946639,0.82043789,1.37563187,24,48,82,11,23,41,0.19459244,0.39458083,0.69152997,0.09185044,0.16718478,0.24733612
21075,0,USKentuckyFulton,Kentucky,Fulton,2021-01-05 20:59:47.873721,2020-06-01 00:00:00.000000,0.41077883,0.83128595,1.41436150,24,49,84,11,23,42,0.19459164,0.39783651,0.71350851,0.09392207,0.16650773,0.25125693
21075,0,USKentuckyFulton,Kentucky,Fulton,2021-01-05 20:59:47.873721,2020-06-02 00:00:00.000000,0.41209175,0.83893809,1.41064513,24,50,84,11,24,44,0.19252019,0.41261007,0.73922442,0.09370352,0.16984754,0.25437550
21075,0,USKentuckyFulton,Kentucky,Fulton,2021-01-05 20:59:47.873721,2020-06-03 00:00:00.000000,0.41384421,0.83822612,1.40069670,24,50,83,11,25,45,0.18958097,0.43115716,0.76334836,0.09161783,0.17455756,0.26118558
21075,0,USKentuckyFulton,Kentucky,Fulton,2021-01-05 20:59:47.873721,2020-06-04 00:00:00.000000,0.41115693,0.84507185,1.39805805,24,50,83,12,26,46,0.20306946,0.44519575,0.78352775,0.09141935,0.17709760,0.27575996
21075,0,USKentuckyFulton,Kentucky,Fulton,2021-01-05 20:59:47.873721,2020-06-05 00:00:00.000000,0.40752337,0.87275540,1.42350788,24,52,84,12,26,47,0.21745171,0.44824034,0.80311517,0.09094832,0.18024858,0.28631100
21075,0,USKentuckyFulton,Kentucky,Fulton,2021-01-05 20:59:47.873721,2020-06-06 00:00:00.000000,0.41197070,0.89419168,1.46851778,24,53,87,13,27,48,0.22456969,0.45909821,0.81821987,0.09079405,0.17947120,0.29064589
21075,0,USKentuckyFulton,Kentucky,Fulton,2021-01-05 20:59:47.873721,2020-06-07 00:00:00.000000,0.40293247,0.89129123,1.52959923,24,53,91,12,28,47,0.21716330,0.47374298,0.80408209,0.09092770,0.18102289,0.29511937
21075,0,USKentuckyFulton,Kentucky,Fulton,2021-01-05 20:59:47.873721,2020-06-08 00:00:00.000000,0.41683079,0.89910010,1.57830636,24,53,94,12,28,48,0.21001130,0.48502124,0.80737720,0.08896475,0.18209437,0.30084941
21075,0,USKentuckyFulton,Kentucky,Fulton,2021-01-05 20:59:47.873721,2020-06-09 00:00:00.000000,0.41322161,0.90227402,1.56481192,24,53,93,12,29,50,0.20523729,0.49226236,0.84140558,0.08822717,0.18037588,0.30484667
21075,0,USKentuckyFulton,Kentucky,Fulton,2021-01-05 20:59:47.873721,2020-06-10 00:00:00.000000,0.40961748,0.91075607,1.57500835,24,54,94,12,29,52,0.20230129,0.49483182,0.87601552,0.08820667,0.17936288,0.29696743
21075,0,USKentuckyFulton,Kentucky,Fulton,2021-01-05 20:59:47.873721,2020-06-11 00:00:00.000000,0.40620514,0.91509210,1.60600273,24,54,95,12,29,52,0.20869199,0.49325912,0.88208839,0.08857628,0.18179050,0.27775605
21075,0,USKentuckyFulton,Kentucky,Fulton,2021-01-05 20:59:47.873721,2020-06-12 00:00:00.000000,0.40315769,0.93265406,1.63722043,24,55,97,13,29,52,0.22258082,0.49356120,0.88589189,0.08999196,0.18611898,0.27732602
21075,0,USKentuckyFulton,Kentucky,Fulton,2021-01-05 20:59:47.873721,2020-06-13 00:00:00.000000,0.40063177,0.92927031,1.67091032,23,55,99,13,29,52,0.22393496,0.49534357,0.88764586,0.09453698,0.19122441,0.29100564
21075,0,USKentuckyFulton,Kentucky,Fulton,2021-01-05 20:59:47.873721,2020-06-14 00:00:00.000000,0.39874637,0.92331912,1.71606637,23,55,102,13,30,53,0.22236387,0.50729708,0.88826375,0.09541663,0.19367611,0.30181124
21075,0,USKentuckyFulton,Kentucky,Fulton,2021-01-05 20:59:47.873721,2020-06-15 00:00:00.000000,0.44228713,0.93736316,1.73506192,26,55,103,13,30,53,0.22103739,0.51544059,0.89819475,0.09532908,0.19778648,0.29247554
21075,0,USKentuckyFulton,Kentucky,Fulton,2021-01-05 20:59:47.873721,2020-06-16 00:00:00.000000,0.48654195,0.96403088,1.76244954,29,57,105,13,31,55,0.23108619,0.52412499,0.92797050,0.09533343,0.20020011,0.30381694
21075,0,USKentuckyFulton,Kentucky,Fulton,2021-01-05 20:59:47.873721,2020-06-17 00:00:00.000000,0.52485455,1.00023122,1.78987716,31,59,106,14,32,57,0.24802745,0.53717069,0.96255461,0.09556454,0.20486210,0.30430023
21075,0,USKentuckyFulton,Kentucky,Fulton,2021-01-05 20:59:47.873721,2020-06-18 00:00:00.000000,0.52920497,1.03988882,1.81763798,31,62,108,15,32,58,0.26592883,0.54795353,0.97305830,0.10068923,0.20877379,0.30700930
21075,0,USKentuckyFulton,Kentucky,Fulton,2021-01-05 20:59:47.873721,2020-06-19 00:00:00.000000,0.52516866,1.04893726,1.84568065,31,62,110,16,33,58,0.27077884,0.56621036,0.97316972,0.10315539,0.21604645,0.32303764
21075,0,USKentuckyFulton,Kentucky,Fulton,2021-01-05 20:59:47.873721,2020-06-20 00:00:00.000000,0.52288544,1.08372645,1.87540642,31,64,111,16,34,58,0.27619087,0.58294669,0.97289146,0.10344391,0.21817516,0.32932829
21075,0,USKentuckyFulton,Kentucky,Fulton,2021-01-05 20:59:47.873721,2020-06-21 00:00:00.000000,0.52346266,1.13270094,1.90887900,31,67,113,16,35,58,0.28191902,0.58936382,0.97287611,0.10348548,0.22250669,0.33149811
21075,0,USKentuckyFulton,Kentucky,Fulton,2021-01-05 20:59:47.873721,2020-06-22 00:00:00.000000,0.55040687,1.17411789,1.96409511,32,70,117,16,36,58,0.27398143,0.60541934,0.98386086,0.10350432,0.22734650,0.33219634
21075,0,USKentuckyFulton,Kentucky,Fulton,2021-01-05 20:59:47.873721,2020-06-23 00:00:00.000000,0.55872165,1.21212338,2.02102696,33,72,120,16,36,59,0.26872786,0.61477600,1.00151474,0.10352020,0.22679870,0.33235428
21075,0,USKentuckyFulton,Kentucky,Fulton,2021-01-05 20:59:47.873721,2020-06-24 00:00:00.000000,0.56893497,1.25522283,2.07912963,33,74,124,15,37,61,0.26796138,0.62542804,1.02482126,0.10353121,0.23556617,0.34711341
21075,0,USKentuckyFulton,Kentucky,Fulton,2021-01-05 20:59:47.873721,2020-06-25 00:00:00.000000,0.58037426,1.29843354,2.13801033,34,77,127,16,38,63,0.27010150,0.63982758,1.06806356,0.10353451,0.23847648,0.34338838
21075,0,USKentuckyFulton,Kentucky,Fulton,2021-01-05 20:59:47.873721,2020-06-26 00:00:00.000000,0.59268545,1.32552741,2.21682840,35,79,132,16,39,66,0.27388670,0.65959296,1.11246925,0.10352989,0.24344213,0.35678891
21075,0,USKentuckyFulton,Kentucky,Fulton,2021-01-05 20:59:47.873721,2020-06-27 00:00:00.000000,0.59561581,1.34266954,2.31535269,35,80,138,16,39,69,0.27867774,0.67000166,1.15793828,0.10352376,0.25566066,0.36721328
21075,0,USKentuckyFulton,Kentucky,Fulton,2021-01-05 20:59:47.873721,2020-06-28 00:00:00.000000,0.59036869,1.36656711,2.41516651,35,81,144,16,40,71,0.28431674,0.68227799,1.20437976,0.10355317,0.25753930,0.37383682
21075,0,USKentuckyFulton,Kentucky,Fulton,2021-01-05 20:59:47.873721,2020-06-29 00:00:00.000000,0.59661815,1.38180395,2.51981744,35,82,150,17,41,74,0.29112257,0.69989422,1.25170039,0.10383669,0.26458593,0.37734998
21075,0,USKentuckyFulton,Kentucky,Fulton,2021-01-05 20:59:47.873721,2020-06-30 00:00:00.000000,0.58072396,1.42284505,2.55883273,34,84,152,17,42,77,0.29562976,0.71931271,1.30243315,0.10525729,0.27205102,0.37910611
21075,0,USKentuckyFulton,Kentucky,Fulton,2021-01-05 20:59:47.873721,2020-07-01 00:00:00.000000,0.56494666,1.43708760,2.66432777,33,85,159,17,44,80,0.29888132,0.73805275,1.35572987,0.10818331,0.27595633,0.37993612
21075,0,USKentuckyFulton,Kentucky,Fulton,2021-01-05 20:59:47.873721,2020-07-02 00:00:00.000000,0.54951920,1.50683966,2.77087067,32,89,165,17,45,84,0.30137829,0.76286748,1.41098348,0.11326437,0.28196705,0.40314891
21075,0,USKentuckyFulton,Kentucky,Fulton,2021-01-05 20:59:47.873721,2020-07-03 00:00:00.000000,0.53461066,1.56646316,2.87855624,31,93,171,18,46,86,0.30339950,0.78458121,1.45401943,0.12919948,0.28706014,0.41879478
21075,0,USKentuckyFulton,Kentucky,Fulton,2021-01-05 20:59:47.873721,2020-07-04 00:00:00.000000,0.52038061,1.59826480,2.98756735,31,95,178,18,48,87,0.30511222,0.81713686,1.47363420,0.13568660,0.29200683,0.43246047
21075,0,USKentuckyFulton,Kentucky,Fulton,2021-01-05 20:59:47.873721,2020-07-05 00:00:00.000000,0.50704335,1.62302922,3.09826847,30,96,184,18,49,91,0.30661937,0.83248331,1.53374139,0.13867254,0.29853569,0.43634857
21075,0,USKentuckyFulton,Kentucky,Fulton,2021-01-05 20:59:47.873721,2020-07-06 00:00:00.000000,0.54622406,1.68175614,3.19695725,32,100,190,18,51,95,0.30798441,0.86195157,1.59489196,0.14285540,0.30882392,0.44815372
21075,0,USKentuckyFulton,Kentucky,Fulton,2021-01-05 20:59:47.873721,2020-07-07 00:00:00.000000,0.62596644,1.75830883,3.29801334,37,104,196,18,52,98,0.30593689,0.88132616,1.65530627,0.14306823,0.31644144,0.44990733
21075,0,USKentuckyFulton,Kentucky,Fulton,2021-01-05 20:59:47.873721,2020-07-08 00:00:00.000000,0.70747126,1.84720324,3.40061653,42,110,202,18,54,102,0.31606132,0.91566047,1.71574344,0.14334737,0.32615674,0.47704192
21075,0,USKentuckyFulton,Kentucky,Fulton,2021-01-05 20:59:47.873721,2020-07-09 00:00:00.000000,0.78867885,1.92914295,3.52470723,47,115,210,21,56,106,0.35455694,0.94766246,1.77654276,0.14386697,0.33067051,0.47363824
21075,0,USKentuckyFulton,Kentucky,Fulton,2021-01-05 20:59:47.873721,2020-07-10 00:00:00.000000,0.86695853,2.02864557,3.69965318,51,121,220,22,57,109,0.37525802,0.97105570,1.83787051,0.14431368,0.34082872,0.47836857
21075,0,USKentuckyFulton,Kentucky,Fulton,2021-01-05 20:59:47.873721,2020-07-11 00:00:00.000000,0.93062125,2.10915748,3.88945823,55,125,232,23,59,113,0.39692343,0.99900810,1.89980353,0.14549085,0.35933114,0.50568698
21075,0,USKentuckyFulton,Kentucky,Fulton,2021-01-05 20:59:47.873721,2020-07-12 00:00:00.000000,0.97876359,2.19356629,4.00692215,58,130,239,25,62,117,0.41929321,1.04941192,1.96226764,0.14608052,0.36410978,0.50883538
21075,0,USKentuckyFulton,Kentucky,Fulton,2021-01-05 20:59:47.873721,2020-07-13 00:00:00.000000,1.04644904,2.31316311,4.12235279,62,138,246,26,66,120,0.44215361,1.10649290,2.02467188,0.14649162,0.36557804,0.51134170
21075,0,USKentuckyFulton,Kentucky,Fulton,2021-01-05 20:59:47.873721,2020-07-14 00:00:00.000000,1.11399170,2.42695904,4.37007174,66,144,260,28,68,125,0.46935817,1.15046529,2.09945594,0.14691440,0.37551056,0.52336872
21075,0,USKentuckyFulton,Kentucky,Fulton,2021-01-05 20:59:47.873721,2020-07-15 00:00:00.000000,1.17503343,2.55777096,4.51834333,70,152,269,29,72,130,0.49907313,1.21234685,2.18817093,0.14764248,0.38136600,0.54513479
21075,0,USKentuckyFulton,Kentucky,Fulton,2021-01-05 20:59:47.873721,2020-07-16 00:00:00.000000,1.22361575,2.71841077,4.81174058,73,162,287,31,76,134,0.53039962,1.28129651,2.25009091,0.14936196,0.38336401,0.53012019
21075,0,USKentuckyFulton,Kentucky,Fulton,2021-01-05 20:59:47.873721,2020-07-17 00:00:00.000000,1.30819773,2.89086632,5.11798378,78,172,305,33,80,138,0.56309536,1.35315860,2.31289482,0.15305306,0.38954009,0.54098636
21075,0,USKentuckyFulton,Kentucky,Fulton,2021-01-05 20:59:47.873721,2020-07-18 00:00:00.000000,1.40402323,3.03806457,5.43602926,83,181,324,35,84,146,0.60108072,1.41788312,2.45599859,0.15819946,0.39080256,0.54590710
21075,0,USKentuckyFulton,Kentucky,Fulton,2021-01-05 20:59:47.873721,2020-07-19 00:00:00.000000,1.40984036,3.16860253,5.76252899,84,189,343,39,89,149,0.66739160,1.49141578,2.51247503,0.16219027,0.39494473,0.58400008
21075,0,USKentuckyFulton,Kentucky,Fulton,2021-01-05 20:59:47.873721,2020-07-20 00:00:00.000000,1.56720935,3.34581857,5.98291692,93,199,357,43,93,156,0.72914303,1.56971649,2.62347885,0.16414881,0.39580717,0.59018247
21075,0,USKentuckyFulton,Kentucky,Fulton,2021-01-05 20:59:47.873721,2020-07-21 00:00:00.000000,1.69282776,3.49782937,6.29378096,101,208,375,46,98,165,0.77134833,1.65478986,2.77858546,0.16490612,0.39544795,0.59048669
21075,0,USKentuckyFulton,Kentucky,Fulton,2021-01-05 20:59:47.873721,2020-07-22 00:00:00.000000,1.79901095,3.68676439,6.60921336,107,220,394,49,106,174,0.82349766,1.78061791,2.92823272,0.16551325,0.39789475,0.59043849
21075,0,USKentuckyFulton,Kentucky,Fulton,2021-01-05 20:59:47.873721,2020-07-23 00:00:00.000000,1.90169682,3.87894727,6.92245851,113,231,413,52,112,183,0.87992633,1.87847109,3.07517672,0.16833538,0.39591679,0.59027364
21075,0,USKentuckyFulton,Kentucky,Fulton,2021-01-05 20:59:47.873721,2020-07-24 00:00:00.000000,2.00476349,4.07028822,7.22055601,119,242,430,55,117,192,0.93755778,1.96537254,3.22106511,0.17825077,0.39375958,0.58267530
21075,0,USKentuckyFulton,Kentucky,Fulton,2021-01-05 20:59:47.873721,2020-07-25 00:00:00.000000,2.10722104,4.25771342,7.47897636,125,254,446,59,120,200,0.99499158,2.02394939,3.36647643,0.18480575,0.38413806,0.52490532
21075,0,USKentuckyFulton,Kentucky,Fulton,2021-01-05 20:59:47.873721,2020-07-26 00:00:00.000000,2.20927811,4.43773632,7.60579323,131,264,453,62,126,209,1.05116118,2.11411850,3.51032329,0.18541839,0.37883315,0.51341505
21075,0,USKentuckyFulton,Kentucky,Fulton,2021-01-05 20:59:47.873721,2020-07-27 00:00:00.000000,2.37156561,4.59734849,7.73638480,141,274,461,65,132,217,1.10557945,2.21411483,3.64863046,0.18355675,0.37978920,0.52285857
21075,0,USKentuckyFulton,Kentucky,Fulton,2021-01-05 20:59:47.873721,2020-07-28 00:00:00.000000,2.53333295,4.74553370,7.95342726,151,283,474,68,138,224,1.14249961,2.31839412,3.76777218,0.17766388,0.37361572,0.52429555
21075,0,USKentuckyFulton,Kentucky,Fulton,2021-01-05 20:59:47.873721,2020-07-29 00:00:00.000000,2.63898091,4.95742746,8.03452498,157,295,479,69,144,230,1.17088705,2.42241775,3.86700701,0.17027121,0.36679829,0.52356298
21075,0,USKentuckyFulton,Kentucky,Fulton,2021-01-05 20:59:47.873721,2020-07-30 00:00:00.000000,2.71048317,5.17448448,8.09051638,161,308,482,72,150,237,1.20705187,2.52274467,3.98375242,0.17717131,0.34677554,0.52036927
21075,0,USKentuckyFulton,Kentucky,Fulton,2021-01-05 20:59:47.873721,2020-07-31 00:00:00.000000,2.78187975,5.33190828,8.18958328,166,318,488,76,156,244,1.28185633,2.62695832,4.09880367,0.17540956,0.33418097,0.50452266
21075,0,USKentuckyFulton,Kentucky,Fulton,2021-01-05 20:59:47.873721,2020-08-01 00:00:00.000000,2.84505563,5.43827184,8.22873189,169,324,491,80,163,253,1.35633431,2.74299978,4.23979113,0.16292949,0.32287946,0.49217731
21075,0,USKentuckyFulton,Kentucky,Fulton,2021-01-05 20:59:47.873721,2020-08-02 00:00:00.000000,2.87936994,5.48232971,8.42921043,171,327,503,85,168,262,1.42478187,2.82637910,4.38955084,0.16086914,0.30672252,0.45487220
21075,0,USKentuckyFulton,Kentucky,Fulton,2021-01-05 20:59:47.873721,2020-08-03 00:00:00.000000,2.91356898,5.50196525,8.58222542,173,328,512,88,173,270,1.48774281,2.90632188,4.53550863,0.16372472,0.28719006,0.43255264
21075,0,USKentuckyFulton,Kentucky,Fulton,2021-01-05 20:59:47.873721,2020-08-04 00:00:00.000000,2.94434176,5.49945712,8.52811308,175,328,509,90,174,271,1.51510824,2.93136279,4.54599723,0.16564335,0.27370416,0.41141834
21075,0,USKentuckyFulton,Kentucky,Fulton,2021-01-05 20:59:47.873721,2020-08-05 00:00:00.000000,2.97155713,5.47534207,8.62816251,177,326,515,90,174,270,1.52073304,2.91515546,4.53887575,0.15531044,0.25997452,0.39986124
21075,0,USKentuckyFulton,Kentucky,Fulton,2021-01-05 20:59:47.873721,2020-08-06 00:00:00.000000,2.99388579,5.44825690,8.63543099,178,325,515,90,172,269,1.51305311,2.88505912,4.51629079,0.15514608,0.24901441,0.39138827
21075,0,USKentuckyFulton,Kentucky,Fulton,2021-01-05 20:59:47.873721,2020-08-07 00:00:00.000000,3.00912146,5.36268315,8.51264216,179,320,508,89,172,267,1.49704398,2.88995686,4.47837744,0.15475851,0.24146920,0.38057467
21075,0,USKentuckyFulton,Kentucky,Fulton,2021-01-05 20:59:47.873721,2020-08-08 00:00:00.000000,2.95245122,5.24889107,8.31456458,176,313,496,88,171,264,1.47491512,2.87861272,4.42559416,0.15385543,0.23193166,0.36305006
21075,0,USKentuckyFulton,Kentucky,Fulton,2021-01-05 20:59:47.873721,2020-08-09 00:00:00.000000,2.84737841,5.15999829,8.06833852,169,308,481,86,170,260,1.44560027,2.85129766,4.35935817,0.15156416,0.21954537,0.35608595
21075,0,USKentuckyFulton,Kentucky,Fulton,2021-01-05 20:59:47.873721,2020-08-10 00:00:00.000000,2.75560907,5.02939664,7.88093162,164,300,470,84,168,256,1.40981955,2.83016009,4.30169616,0.14077955,0.21118671,0.34504901
21075,0,USKentuckyFulton,Kentucky,Fulton,2021-01-05 20:59:47.873721,2020-08-11 00:00:00.000000,2.76952064,4.94272524,7.72257030,165,295,460,83,167,256,1.40579832,2.80124903,4.30495486,0.13712132,0.21008519,0.33491275
21075,0,USKentuckyFulton,Kentucky,Fulton,2021-01-05 20:59:47.873721,2020-08-12 00:00:00.000000,2.78128342,4.89796545,7.56236093,166,292,451,84,164,256,1.40768191,2.75774350,4.29274161,0.13443778,0.20740134,0.32823635
21075,0,USKentuckyFulton,Kentucky,Fulton,2021-01-05 20:59:47.873721,2020-08-13 00:00:00.000000,2.75737820,4.80850780,7.41268361,164,287,442,84,162,254,1.41182317,2.72289222,4.26898709,0.13071396,0.20626024,0.31595156
21075,0,USKentuckyFulton,Kentucky,Fulton,2021-01-05 20:59:47.873721,2020-08-14 00:00:00.000000,2.67321485,4.71884278,7.24921705,159,281,432,84,159,252,1.41656334,2.67625838,4.23679344,0.12334900,0.20176462,0.30500180
21075,0,USKentuckyFulton,Kentucky,Fulton,2021-01-05 20:59:47.873721,2020-08-15 00:00:00.000000,2.54855302,4.61853893,7.10398867,152,275,424,84,158,250,1.42131164,2.65680658,4.19822092,0.11806248,0.19973411,0.29381439
21075,0,USKentuckyFulton,Kentucky,Fulton,2021-01-05 20:59:47.873721,2020-08-16 00:00:00.000000,2.42685912,4.49843757,6.96954386,144,268,416,82,156,247,1.38503777,2.62546145,4.15459034,0.11481468,0.19987404,0.28189327
21075,0,USKentuckyFulton,Kentucky,Fulton,2021-01-05 20:59:47.873721,2020-08-17 00:00:00.000000,2.31783511,4.36557478,6.83993407,138,260,408,79,154,245,1.33063266,2.58635650,4.10672089,0.11340877,0.19996461,0.27075692
21075,0,USKentuckyFulton,Kentucky,Fulton,2021-01-05 20:59:47.873721,2020-08-18 00:00:00.000000,2.21423819,4.25051865,6.73190048,132,253,401,76,151,242,1.27812774,2.53433170,4.05831834,0.11259201,0.19753302,0.26672611
21075,0,USKentuckyFulton,Kentucky,Fulton,2021-01-05 20:59:47.873721,2020-08-19 00:00:00.000000,2.11669143,4.15524618,6.62290844,126,248,395,73,147,239,1.22628651,2.47457636,4.00529740,0.11150795,0.19753488,0.26884463
21075,0,USKentuckyFulton,Kentucky,Fulton,2021-01-05 20:59:47.873721,2020-08-20 00:00:00.000000,2.02546867,4.06382054,6.49140640,120,242,387,70,143,233,1.17388218,2.40536547,3.91415572,0.10970258,0.19777370,0.26884243
21075,0,USKentuckyFulton,Kentucky,Fulton,2021-01-05 20:59:47.873721,2020-08-21 00:00:00.000000,1.94088657,3.97723711,6.34239171,115,237,378,66,139,228,1.11972584,2.33362460,3.82787207,0.10767553,0.19748897,0.28291838
21075,0,USKentuckyFulton,Kentucky,Fulton,2021-01-05 20:59:47.873721,2020-08-22 00:00:00.000000,1.86328618,3.93499074,6.22535031,111,234,371,63,134,223,1.06462314,2.26102164,3.74945576,0.10882241,0.19778788,0.31079634
21075,0,USKentuckyFulton,Kentucky,Fulton,2021-01-05 20:59:47.873721,2020-08-23 00:00:00.000000,1.79286615,3.83670293,6.13030727,107,229,365,60,131,219,1.01006640,2.20507724,3.68160141,0.11587654,0.19975704,0.32355235
21075,0,USKentuckyFulton,Kentucky,Fulton,2021-01-05 20:59:47.873721,2020-08-24 00:00:00.000000,1.73505719,3.73736422,6.09659498,103,223,363,57,128,216,0.95719794,2.15785576,3.62108407,0.11369511,0.20163731,0.33383297
21075,0,USKentuckyFulton,Kentucky,Fulton,2021-01-05 20:59:47.873721,2020-08-25 00:00:00.000000,1.68358081,3.71830030,6.07714448,100,221,362,53,125,211,0.90194371,2.09922034,3.54133055,0.10809720,0.20745771,0.34132099
21075,0,USKentuckyFulton,Kentucky,Fulton,2021-01-05 20:59:47.873721,2020-08-26 00:00:00.000000,1.63754068,3.65704480,6.06316462,97,218,361,50,121,205,0.84688197,2.04010592,3.45116255,0.11122591,0.20554557,0.34625248
21075,0,USKentuckyFulton,Kentucky,Fulton,2021-01-05 20:59:47.873721,2020-08-27 00:00:00.000000,1.58569181,3.55735636,6.00459644,94,212,358,47,117,200,0.80315642,1.97596058,3.35588346,0.11684617,0.21253698,0.34203610
21075,0,USKentuckyFulton,Kentucky,Fulton,2021-01-05 20:59:47.873721,2020-08-28 00:00:00.000000,1.48132626,3.44126786,5.86655802,88,205,350,46,114,194,0.77735813,1.91325218,3.25878021,0.12524063,0.21717338,0.34952094
21075,0,USKentuckyFulton,Kentucky,Fulton,2021-01-05 20:59:47.873721,2020-08-29 00:00:00.000000,1.42271025,3.40023343,5.74379919,84,202,342,44,111,188,0.75299384,1.87107319,3.16206484,0.13403424,0.22357211,0.34853222
21075,0,USKentuckyFulton,Kentucky,Fulton,2021-01-05 20:59:47.873721,2020-08-30 00:00:00.000000,1.38280493,3.37879856,5.63690472,82,201,336,43,109,184,0.72996808,1.83170990,3.08433470,0.14263576,0.22756727,0.34981619
21075,0,USKentuckyFulton,Kentucky,Fulton,2021-01-05 20:59:47.873721,2020-08-31 00:00:00.000000,1.35538053,3.35570353,5.55479545,80,200,331,42,107,183,0.70852623,1.79742744,3.07744138,0.14810212,0.23783214,0.35121958
21075,0,USKentuckyFulton,Kentucky,Fulton,2021-01-05 20:59:47.873721,2020-09-01 00:00:00.000000,1.33100888,3.30086670,5.47557625,79,197,326,40,105,183,0.68429236,1.76958470,3.07176777,0.15583640,0.24479998,0.35409999
21075,0,USKentuckyFulton,Kentucky,Fulton,2021-01-05 20:59:47.873721,2020-09-02 00:00:00.000000,1.30976514,3.24528069,5.39869938,78,193,322,39,104,180,0.65975118,1.74507923,3.02588904,0.16176161,0.25150665,0.35727481
21075,0,USKentuckyFulton,Kentucky,Fulton,2021-01-05 20:59:47.873721,2020-09-03 00:00:00.000000,1.29140081,3.22393168,5.34648265,77,192,319,38,104,178,0.64164005,1.74248060,2.98402599,0.16418869,0.26501260,0.36837387
21075,0,USKentuckyFulton,Kentucky,Fulton,2021-01-05 20:59:47.873721,2020-09-04 00:00:00.000000,1.27611203,3.17717819,5.33912564,76,189,318,37,104,175,0.63068415,1.74240924,2.94553298,0.16461004,0.27597364,0.37661224
21075,0,USKentuckyFulton,Kentucky,Fulton,2021-01-05 20:59:47.873721,2020-09-05 00:00:00.000000,1.26474064,3.13332251,5.33679495,75,187,318,37,103,173,0.62123056,1.73033427,2.91063543,0.16644957,0.29043196,0.38733975
21075,0,USKentuckyFulton,Kentucky,Fulton,2021-01-05 20:59:47.873721,2020-09-06 00:00:00.000000,1.25847622,3.10628740,5.34657984,75,185,319,36,101,171,0.61343404,1.70856350,2.88073274,0.17293365,0.30642485,0.39559201
21075,0,USKentuckyFulton,Kentucky,Fulton,2021-01-05 20:59:47.873721,2020-09-07 00:00:00.000000,1.24059690,3.12678046,5.33045588,74,186,318,36,100,170,0.60765764,1.68697926,2.85774531,0.17499329,0.31892583,0.41494187
21075,0,USKentuckyFulton,Kentucky,Fulton,2021-01-05 20:59:47.873721,2020-09-08 00:00:00.000000,1.22957658,3.18894075,5.36882976,73,190,320,35,100,170,0.60068675,1.69135938,2.85264432,0.17580301,0.33038701,0.47689008
21075,0,USKentuckyFulton,Kentucky,Fulton,2021-01-05 20:59:47.873721,2020-09-09 00:00:00.000000,1.22618647,3.27127787,5.47005713,73,195,326,35,102,170,0.59441717,1.71218184,2.86194795,0.17712412,0.33788352,0.49370928
21075,0,USKentuckyFulton,Kentucky,Fulton,2021-01-05 20:59:47.873721,2020-09-10 00:00:00.000000,1.23251788,3.34311887,5.57380530,73,199,332,35,103,172,0.59026995,1.73845817,2.88329644,0.17931417,0.34913129,0.50330836
21075,0,USKentuckyFulton,Kentucky,Fulton,2021-01-05 20:59:47.873721,2020-09-11 00:00:00.000000,1.24839593,3.40396763,5.71215558,74,203,340,35,105,174,0.58944891,1.76395912,2.91569320,0.18301620,0.35878748,0.50772291
21075,0,USKentuckyFulton,Kentucky,Fulton,2021-01-05 20:59:47.873721,2020-09-12 00:00:00.000000,1.27563770,3.50626332,5.91741363,76,209,353,35,107,177,0.59256237,1.79472886,2.98202924,0.18941819,0.36760693,0.52339721
21075,0,USKentuckyFulton,Kentucky,Fulton,2021-01-05 20:59:47.873721,2020-09-13 00:00:00.000000,1.31066981,3.55516384,6.04766977,78,212,360,35,108,184,0.59931144,1.81012543,3.09083610,0.20012474,0.37727817,0.53017098
21075,0,USKentuckyFulton,Kentucky,Fulton,2021-01-05 20:59:47.873721,2020-09-14 00:00:00.000000,1.45154765,3.65750411,6.18168468,86,218,368,36,110,191,0.60888305,1.85354904,3.20017438,0.21530292,0.39130818,0.55934836
21075,0,USKentuckyFulton,Kentucky,Fulton,2021-01-05 20:59:47.873721,2020-09-15 00:00:00.000000,1.60767043,3.79203560,6.38759364,95,226,381,38,114,197,0.65070895,1.91537676,3.31006110,0.22005401,0.39815982,0.57488256
21075,0,USKentuckyFulton,Kentucky,Fulton,2021-01-05 20:59:47.873721,2020-09-16 00:00:00.000000,1.77149981,3.88624245,6.62592284,105,231,395,42,116,204,0.70949795,1.95827620,3.41833559,0.22579592,0.40321284,0.62423503
21075,0,USKentuckyFulton,Kentucky,Fulton,2021-01-05 20:59:47.873721,2020-09-17 00:00:00.000000,1.94138684,4.00283308,6.85446582,115,238,409,46,120,210,0.77724277,2.01549332,3.52357768,0.23360570,0.41907352,0.66061694
21075,0,USKentuckyFulton,Kentucky,Fulton,2021-01-05 20:59:47.873721,2020-09-18 00:00:00.000000,2.11721553,4.16511751,7.11359706,126,248,424,50,123,216,0.84933356,2.06558543,3.62256435,0.24159968,0.42760040,0.67770560
21075,0,USKentuckyFulton,Kentucky,Fulton,2021-01-05 20:59:47.873721,2020-09-19 00:00:00.000000,2.29649440,4.29456692,7.37041725,137,256,439,55,126,221,0.92295957,2.12140799,3.70418474,0.23777317,0.44277535,0.68646690
21075,0,USKentuckyFulton,Kentucky,Fulton,2021-01-05 20:59:47.873721,2020-09-20 00:00:00.000000,2.48358544,4.49946578,7.73065805,148,268,461,59,130,225,1.00445505,2.18330018,3.77058008,0.23340900,0.44847297,0.69210943
21075,0,USKentuckyFulton,Kentucky,Fulton,2021-01-05 20:59:47.873721,2020-09-21 00:00:00.000000,2.65600176,4.65653259,8.02837675,158,277,479,65,134,230,1.09040235,2.25635086,3.85858901,0.23426569,0.45190090,0.71317771
21075,0,USKentuckyFulton,Kentucky,Fulton,2021-01-05 20:59:47.873721,2020-09-22 00:00:00.000000,2.80528544,4.78953392,8.31709111,167,285,496,69,138,237,1.17091018,2.31708827,3.97975185,0.23739228,0.45821782,0.77006027
21075,0,USKentuckyFulton,Kentucky,Fulton,2021-01-05 20:59:47.873721,2020-09-23 00:00:00.000000,2.96453719,4.98381759,8.59396088,176,297,512,75,145,248,1.26157412,2.43700601,4.15980456,0.23680954,0.45945051,0.77352705
21075,0,USKentuckyFulton,Kentucky,Fulton,2021-01-05 20:59:47.873721,2020-09-24 00:00:00.000000,3.10193218,5.15657494,8.85294704,185,307,528,80,150,258,1.35013179,2.52107318,4.32667492,0.23553736,0.45889495,0.77455945
21075,0,USKentuckyFulton,Kentucky,Fulton,2021-01-05 20:59:47.873721,2020-09-25 00:00:00.000000,3.16832194,5.33292362,9.08560487,189,318,542,85,153,267,1.43785656,2.57554205,4.47476084,0.23494710,0.46638465,0.77354735
21075,0,USKentuckyFulton,Kentucky,Fulton,2021-01-05 20:59:47.873721,2020-09-26 00:00:00.000000,3.32972014,5.52682637,9.28550703,198,329,554,90,158,274,1.52383346,2.65273172,4.59937706,0.23575357,0.46272816,0.74300523
21075,0,USKentuckyFulton,Kentucky,Fulton,2021-01-05 20:59:47.873721,2020-09-27 00:00:00.000000,3.44251187,5.72779212,9.40095051,205,341,561,96,164,280,1.61780901,2.75536032,4.70573630,0.24452024,0.46406898,0.70022821
21075,0,USKentuckyFulton,Kentucky,Fulton,2021-01-05 20:59:47.873721,2020-09-28 00:00:00.000000,3.58137256,5.90751741,9.42312963,213,352,562,103,169,290,1.72576050,2.84519262,4.87388499,0.23875625,0.46204180,0.68085743
21075,0,USKentuckyFulton,Kentucky,Fulton,2021-01-05 20:59:47.873721,2020-09-29 00:00:00.000000,3.72420209,6.07356530,9.66423277,222,362,576,107,172,301,1.80524483,2.88593947,5.04870919,0.22098029,0.46207838,0.62092969
21075,0,USKentuckyFulton,Kentucky,Fulton,2021-01-05 20:59:47.873721,2020-09-30 00:00:00.000000,3.86725945,6.20128738,9.90454955,230,370,591,111,176,306,1.86890883,2.95792976,5.13836039,0.20989389,0.45831179,0.61879863
21075,0,USKentuckyFulton,Kentucky,Fulton,2021-01-05 20:59:47.873721,2020-10-01 00:00:00.000000,3.96344088,6.27351632,10.10334852,236,374,603,114,181,309,1.92378895,3.04415051,5.18672094,0.20178442,0.43985613,0.61807734
21075,0,USKentuckyFulton,Kentucky,Fulton,2021-01-05 20:59:47.873721,2020-10-02 00:00:00.000000,4.05326360,6.33887891,10.16823868,241,378,606,117,187,311,1.97073218,3.13464996,5.22617821,0.19600996,0.42185355,0.61397256
21075,0,USKentuckyFulton,Kentucky,Fulton,2021-01-05 20:59:47.873721,2020-10-03 00:00:00.000000,4.14456473,6.48412050,10.11463636,247,387,603,118,192,313,1.98553966,3.21791670,5.25613304,0.19238876,0.40802590,0.60735470
21075,0,USKentuckyFulton,Kentucky,Fulton,2021-01-05 20:59:47.873721,2020-10-04 00:00:00.000000,4.23704641,6.57125787,10.01712898,252,392,597,120,196,320,2.02590700,3.29346874,5.36185977,0.19030098,0.39711147,0.59367082
21075,0,USKentuckyFulton,Kentucky,Fulton,2021-01-05 20:59:47.873721,2020-10-05 00:00:00.000000,4.29992094,6.60150632,10.15448480,256,394,606,123,200,325,2.06729276,3.35233627,5.45597133,0.18910089,0.38451305,0.57319957
21075,0,USKentuckyFulton,Kentucky,Fulton,2021-01-05 20:59:47.873721,2020-10-06 00:00:00.000000,4.29100508,6.63659111,10.27275971,256,396,613,125,203,326,2.10077978,3.41615343,5.46193638,0.18819238,0.37831810,0.57139354
21075,0,USKentuckyFulton,Kentucky,Fulton,2021-01-05 20:59:47.873721,2020-10-07 00:00:00.000000,4.27634550,6.67835057,10.23104033,255,398,610,126,208,326,2.12277954,3.49903469,5.46577874,0.18663589,0.37187386,0.55086498
21075,0,USKentuckyFulton,Kentucky,Fulton,2021-01-05 20:59:47.873721,2020-10-08 00:00:00.000000,4.25330715,6.70321831,10.16290220,253,400,606,127,213,328,2.13340626,3.57820896,5.50845464,0.18011883,0.36339614,0.52591898
21075,0,USKentuckyFulton,Kentucky,Fulton,2021-01-05 20:59:47.873721,2020-10-09 00:00:00.000000,4.21745604,6.69262626,10.09308551,251,399,602,127,214,330,2.13512278,3.59541465,5.53608513,0.17266246,0.34888259,0.50103883
21075,0,USKentuckyFulton,Kentucky,Fulton,2021-01-05 20:59:47.873721,2020-10-10 00:00:00.000000,4.17440862,6.65388315,10.01996789,249,397,598,127,216,331,2.13051864,3.62283420,5.55067513,0.15239393,0.33608754,0.49107785
21075,0,USKentuckyFulton,Kentucky,Fulton,2021-01-05 20:59:47.873721,2020-10-11 00:00:00.000000,4.12820053,6.60859228,9.94278059,246,394,593,126,217,329,2.12132185,3.64819218,5.51310296,0.15053424,0.32174220,0.46506489
21075,0,USKentuckyFulton,Kentucky,Fulton,2021-01-05 20:59:47.873721,2020-10-12 00:00:00.000000,4.05247123,6.54859001,9.78559375,241,390,584,125,216,323,2.10721964,3.62245206,5.41784351,0.14996369,0.31308171,0.44933732
21075,0,USKentuckyFulton,Kentucky,Fulton,2021-01-05 20:59:47.873721,2020-10-13 00:00:00.000000,3.97583582,6.44432061,9.62319356,237,384,574,124,214,317,2.07824962,3.60091385,5.31102505,0.14981792,0.30596062,0.44053269
21075,0,USKentuckyFulton,Kentucky,Fulton,2021-01-05 20:59:47.873721,2020-10-14 00:00:00.000000,3.89818279,6.35254668,9.45466972,232,379,564,121,212,310,2.03681160,3.55288228,5.19482817,0.14994851,0.31053686,0.42339610
21075,0,USKentuckyFulton,Kentucky,Fulton,2021-01-05 20:59:47.873721,2020-10-15 00:00:00.000000,3.81992430,6.24559567,9.28115233,228,372,553,118,210,302,1.98698685,3.51923238,5.07160898,0.15062378,0.30979395,0.41300594
21075,0,USKentuckyFulton,Kentucky,Fulton,2021-01-05 20:59:47.873721,2020-10-16 00:00:00.000000,3.74112005,6.09011019,9.04221129,223,363,539,115,205,300,1.93157748,3.44568698,5.03203483,0.15267744,0.30613646,0.39928713
21075,0,USKentuckyFulton,Kentucky,Fulton,2021-01-05 20:59:47.873721,2020-10-17 00:00:00.000000,3.63565017,5.93580243,8.78609436,217,354,524,111,199,295,1.87217308,3.34074123,4.94894190,0.15690949,0.30380705,0.39573406
21075,0,USKentuckyFulton,Kentucky,Fulton,2021-01-05 20:59:47.873721,2020-10-18 00:00:00.000000,3.49592970,5.81200113,8.54923314,208,346,510,108,195,290,1.80981793,3.27372947,4.86162096,0.15396324,0.29905324,0.38908137
21075,0,USKentuckyFulton,Kentucky,Fulton,2021-01-05 20:59:47.873721,2020-10-19 00:00:00.000000,3.43089143,5.68847937,8.30326008,204,339,495,104,193,286,1.74551966,3.24258185,4.79903804,0.14814846,0.29389982,0.38498952
21075,0,USKentuckyFulton,Kentucky,Fulton,2021-01-05 20:59:47.873721,2020-10-20 00:00:00.000000,3.36838214,5.59763584,8.06021400,201,334,481,101,190,283,1.69633513,3.18402749,4.75460848,0.14415803,0.29034832,0.40292661
21075,0,USKentuckyFulton,Kentucky,Fulton,2021-01-05 20:59:47.873721,2020-10-21 00:00:00.000000,3.27760533,5.49950038,7.82243670,195,328,466,98,186,280,1.65671645,3.12958759,4.69225896,0.14285314,0.29057999,0.40452235
21075,0,USKentuckyFulton,Kentucky,Fulton,2021-01-05 20:59:47.873721,2020-10-22 00:00:00.000000,3.17861829,5.34973017,7.59288851,189,319,453,96,183,275,1.62335386,3.07188610,4.61166284,0.14263568,0.29118972,0.40707276
21075,0,USKentuckyFulton,Kentucky,Fulton,2021-01-05 20:59:47.873721,2020-10-23 00:00:00.000000,3.08209553,5.23413128,7.43755535,183,312,443,95,180,269,1.59424246,3.01751583,4.52248413,0.14279658,0.29513846,0.41161521
21075,0,USKentuckyFulton,Kentucky,Fulton,2021-01-05 20:59:47.873721,2020-10-24 00:00:00.000000,2.98879085,5.15064282,7.32052749,178,307,436,93,177,264,1.56823633,2.97798461,4.42985275,0.14322505,0.30258371,0.42389738
21075,0,USKentuckyFulton,Kentucky,Fulton,2021-01-05 20:59:47.873721,2020-10-25 00:00:00.000000,2.89978947,5.04799282,7.20897250,173,301,430,92,172,257,1.54494869,2.89554082,4.31705872,0.14410026,0.31194794,0.44564554
21075,0,USKentuckyFulton,Kentucky,Fulton,2021-01-05 20:59:47.873721,2020-10-26 00:00:00.000000,2.83941189,4.89123986,7.08582445,169,291,422,91,170,251,1.52498791,2.85060981,4.21088064,0.14606049,0.32005275,0.44903272
21075,0,USKentuckyFulton,Kentucky,Fulton,2021-01-05 20:59:47.873721,2020-10-27 00:00:00.000000,2.78947822,4.79516882,6.96494456,166,286,415,89,167,248,1.49651472,2.80494646,4.16733967,0.15016254,0.33410211,0.46012019
21075,0,USKentuckyFulton,Kentucky,Fulton,2021-01-05 20:59:47.873721,2020-10-28 00:00:00.000000,2.75546866,4.72158812,6.84671987,164,281,408,86,165,246,1.44449095,2.76848372,4.12528215,0.15816092,0.34172207,0.47257754
21075,0,USKentuckyFulton,Kentucky,Fulton,2021-01-05 20:59:47.873721,2020-10-29 00:00:00.000000,2.68842577,4.65562732,6.79049970,160,277,405,83,162,243,1.39310711,2.71757944,4.08395317,0.15747890,0.34602022,0.48140298
21075,0,USKentuckyFulton,Kentucky,Fulton,2021-01-05 20:59:47.873721,2020-10-30 00:00:00.000000,2.63048808,4.57563023,6.80353783,157,273,406,80,157,240,1.34751933,2.63722292,4.03408123,0.15728700,0.34806913,0.49167546
21075,0,USKentuckyFulton,Kentucky,Fulton,2021-01-05 20:59:47.873721,2020-10-31 00:00:00.000000,2.59446386,4.48209293,6.81309479,154,267,406,79,153,236,1.32356370,2.56840343,3.96891159,0.15785929,0.35534455,0.51043544
21075,0,USKentuckyFulton,Kentucky,Fulton,2021-01-05 20:59:47.873721,2020-11-01 00:00:00.000000,2.57092084,4.44728601,6.88754419,153,265,411,78,150,233,1.31418215,2.51361659,3.90925671,0.16172796,0.36818870,0.52057838
21075,0,USKentuckyFulton,Kentucky,Fulton,2021-01-05 20:59:47.873721,2020-11-02 00:00:00.000000,2.56778617,4.45027689,6.92702092,153,265,413,78,147,230,1.30879823,2.47044674,3.85757207,0.17308635,0.37735887,0.54818626
21075,0,USKentuckyFulton,Kentucky,Fulton,2021-01-05 20:59:47.873721,2020-11-03 00:00:00.000000,2.57437774,4.40607731,6.95470507,153,262,415,77,146,228,1.29836612,2.46008536,3.82357024,0.18182017,0.39084086,0.56918256
21075,0,USKentuckyFulton,Kentucky,Fulton,2021-01-05 20:59:47.873721,2020-11-04 00:00:00.000000,2.59257327,4.43702331,6.86326437,154,264,409,76,145,227,1.28517422,2.43788718,3.80555165,0.18409791,0.40534190,0.57916450
21075,0,USKentuckyFulton,Kentucky,Fulton,2021-01-05 20:59:47.873721,2020-11-05 00:00:00.000000,2.62049883,4.46095282,6.77729902,156,266,404,75,145,226,1.27056131,2.43972398,3.80083008,0.18451958,0.42193889,0.60399623
21075,0,USKentuckyFulton,Kentucky,Fulton,2021-01-05 20:59:47.873721,2020-11-06 00:00:00.000000,2.65502406,4.47338686,6.69544690,158,267,399,74,145,226,1.25538648,2.44470005,3.79571529,0.19014402,0.43207258,0.60793053
21075,0,USKentuckyFulton,Kentucky,Fulton,2021-01-05 20:59:47.873721,2020-11-07 00:00:00.000000,2.69462660,4.51083529,6.71963941,160,269,401,74,147,223,1.24036556,2.46600048,3.74466156,0.19359848,0.44331701,0.60861317
21075,0,USKentuckyFulton,Kentucky,Fulton,2021-01-05 20:59:47.873721,2020-11-08 00:00:00.000000,2.73964642,4.58126046,6.76333641,163,273,403,74,146,220,1.24808717,2.44616775,3.70098497,0.19526072,0.45143546,0.62025613
21075,0,USKentuckyFulton,Kentucky,Fulton,2021-01-05 20:59:47.873721,2020-11-09 00:00:00.000000,2.77876276,4.67085795,6.89369942,165,278,411,75,145,222,1.26285213,2.43688915,3.72224947,0.19607745,0.46199935,0.62078490
21075,0,USKentuckyFulton,Kentucky,Fulton,2021-01-05 20:59:47.873721,2020-11-10 00:00:00.000000,2.82925097,4.62695748,7.02359328,168,276,419,76,146,223,1.27886992,2.45914245,3.74990383,0.19646969,0.46881732,0.64668923
21075,0,USKentuckyFulton,Kentucky,Fulton,2021-01-05 20:59:47.873721,2020-11-11 00:00:00.000000,2.84565247,4.58792572,7.15514306,169,273,427,77,146,225,1.29775687,2.45547883,3.78323201,0.19678909,0.47792551,0.65564713
21075,0,USKentuckyFulton,Kentucky,Fulton,2021-01-05 20:59:47.873721,2020-11-12 00:00:00.000000,2.86693360,4.59641436,7.28959938,171,274,435,78,146,228,1.32106893,2.45635484,3.82173231,0.20115479,0.48242197,0.67567814
21075,0,USKentuckyFulton,Kentucky,Fulton,2021-01-05 20:59:47.873721,2020-11-13 00:00:00.000000,2.88192557,4.59728608,7.42924636,172,274,443,80,147,230,1.34985214,2.47804618,3.86555198,0.21703809,0.49258330,0.70011756
21075,0,USKentuckyFulton,Kentucky,Fulton,2021-01-05 20:59:47.873721,2020-11-14 00:00:00.000000,2.90110254,4.66432167,7.51271758,173,278,448,82,149,233,1.38435353,2.51220126,3.91549937,0.22592228,0.50528440,0.74241149
21075,0,USKentuckyFulton,Kentucky,Fulton,2021-01-05 20:59:47.873721,2020-11-15 00:00:00.000000,2.92456520,4.74244617,7.56973002,174,283,451,85,150,237,1.42413946,2.52028564,3.97231472,0.22764072,0.51546372,0.76262019
21075,0,USKentuckyFulton,Kentucky,Fulton,2021-01-05 20:59:47.873721,2020-11-16 00:00:00.000000,2.92166721,4.77629708,7.61946359,174,285,454,87,151,240,1.45951445,2.54603854,4.03610936,0.22795445,0.51720324,0.76995109
21075,0,USKentuckyFulton,Kentucky,Fulton,2021-01-05 20:59:47.873721,2020-11-17 00:00:00.000000,2.91972937,4.85161328,7.66263994,174,289,457,87,153,245,1.47412909,2.57720536,4.10522069,0.22799167,0.51664165,0.77169550
21075,0,USKentuckyFulton,Kentucky,Fulton,2021-01-05 20:59:47.873721,2020-11-18 00:00:00.000000,2.92758070,4.98037548,7.69975765,174,297,459,88,154,249,1.48241190,2.59138243,4.17918262,0.22794739,0.52418009,0.74719617
21075,0,USKentuckyFulton,Kentucky,Fulton,2021-01-05 20:59:47.873721,2020-11-19 00:00:00.000000,2.94895610,5.08023784,7.73103535,176,303,461,88,157,254,1.48229536,2.63084276,4.25707292,0.22779773,0.52687183,0.75570310
21075,0,USKentuckyFulton,Kentucky,Fulton,2021-01-05 20:59:47.873721,2020-11-20 00:00:00.000000,2.97226139,5.09319153,7.75634889,177,304,462,88,158,258,1.48112598,2.65229273,4.33779054,0.21502241,0.54019794,0.75122544
21075,0,USKentuckyFulton,Kentucky,Fulton,2021-01-05 20:59:47.873721,2020-11-21 00:00:00.000000,3.00118919,5.07604205,7.78002581,179,302,464,88,161,263,1.47919275,2.70678821,4.41964812,0.21217750,0.54661678,0.77529398
21075,0,USKentuckyFulton,Kentucky,Fulton,2021-01-05 20:59:47.873721,2020-11-22 00:00:00.000000,3.03658319,5.12458243,7.86017487,181,305,469,88,163,268,1.47666783,2.73598434,4.50250383,0.21177248,0.54763615,0.78270219
21075,0,USKentuckyFulton,Kentucky,Fulton,2021-01-05 20:59:47.873721,2020-11-23 00:00:00.000000,3.01171399,5.18873638,7.93403176,179,309,473,87,164,271,1.47364855,2.75632371,4.54385310,0.21150575,0.55193595,0.78841187
21075,0,USKentuckyFulton,Kentucky,Fulton,2021-01-05 20:59:47.873721,2020-11-24 00:00:00.000000,2.99568848,5.22641943,7.99716461,178,311,477,88,165,272,1.48480366,2.77443490,4.56478279,0.20782765,0.55248504,0.86290736
21075,0,USKentuckyFulton,Kentucky,Fulton,2021-01-05 20:59:47.873721,2020-11-25 00:00:00.000000,3.04155235,5.22688370,8.00951513,181,311,478,89,166,273,1.50386003,2.78260522,4.58145407,0.20790597,0.55324078,0.91942494
21075,0,USKentuckyFulton,Kentucky,Fulton,2021-01-05 20:59:47.873721,2020-11-26 00:00:00.000000,3.02782545,5.26007027,8.05761809,180,313,480,90,167,274,1.51372978,2.80278472,4.59457999,0.20721688,0.55296316,0.92008420
21075,0,USKentuckyFulton,Kentucky,Fulton,2021-01-05 20:59:47.873721,2020-11-27 00:00:00.000000,3.01047873,5.32494855,8.16793960,179,317,487,89,168,274,1.50613527,2.82639471,4.60409242,0.20292066,0.55468179,0.92045115
21075,0,USKentuckyFulton,Kentucky,Fulton,2021-01-05 20:59:47.873721,2020-11-28 00:00:00.000000,3.00521817,5.37167577,8.28346546,179,320,494,89,170,275,1.50700651,2.85356937,4.60994097,0.20272696,0.55164856,0.95379860
21075,0,USKentuckyFulton,Kentucky,Fulton,2021-01-05 20:59:47.873721,2020-11-29 00:00:00.000000,3.02829069,5.40079732,8.41070151,180,322,502,90,172,275,1.51319075,2.89018354,4.61201797,0.20482568,0.55066637,0.97138255
21075,0,USKentuckyFulton,Kentucky,Fulton,2021-01-05 20:59:47.873721,2020-11-30 00:00:00.000000,3.05978925,5.39418731,8.53573578,182,321,509,90,174,273,1.52228149,2.93179937,4.58967644,0.20504702,0.54699619,0.97161438
21075,0,USKentuckyFulton,Kentucky,Fulton,2021-01-05 20:59:47.873721,2020-12-01 00:00:00.000000,3.09044379,5.45934125,8.60382056,184,325,513,91,176,272,1.53460631,2.95007350,4.56959897,0.19979557,0.55304712,0.97161340
21075,0,USKentuckyFulton,Kentucky,Fulton,2021-01-05 20:59:47.873721,2020-12-02 00:00:00.000000,3.07758692,5.51016586,8.65698175,183,328,516,92,177,271,1.54855145,2.97521753,4.54801422,0.19542868,0.56376731,0.97141042
21075,0,USKentuckyFulton,Kentucky,Fulton,2021-01-05 20:59:47.873721,2020-12-03 00:00:00.000000,3.02937653,5.48750790,8.69045982,180,327,518,91,176,269,1.53115775,2.96259194,4.52231579,0.20857914,0.56607220,0.97056951
21075,0,USKentuckyFulton,Kentucky,Fulton,2021-01-05 20:59:47.873721,2020-12-04 00:00:00.000000,2.98547081,5.46184843,8.70718759,178,326,519,89,176,269,1.50661677,2.95950492,4.51961990,0.22586981,0.56715648,1.00940586
21075,0,USKentuckyFulton,Kentucky,Fulton,2021-01-05 20:59:47.873721,2020-12-05 00:00:00.000000,2.96459760,5.43787660,8.71161639,176,324,519,88,174,271,1.48289119,2.92626465,4.55008232,0.23816052,0.56862591,1.03545431
21075,0,USKentuckyFulton,Kentucky,Fulton,2021-01-05 20:59:47.873721,2020-12-06 00:00:00.000000,3.00726759,5.45283864,8.70577399,179,325,519,87,175,273,1.46022374,2.93195603,4.57837085,0.24487880,0.56058624,1.04423077
21075,0,USKentuckyFulton,Kentucky,Fulton,2021-01-05 20:59:47.873721,2020-12-07 00:00:00.000000,2.98685329,5.44883188,8.69797189,178,325,519,85,174,277,1.43872090,2.92957523,4.65427652,0.24791545,0.55777702,1.04522187
21075,0,USKentuckyFulton,Kentucky,Fulton,2021-01-05 20:59:47.873721,2020-12-08 00:00:00.000000,2.91557992,5.43006494,8.69126390,174,324,518,85,175,281,1.43880043,2.94603745,4.72220061,0.24915945,0.56449746,1.03875789
21075,0,USKentuckyFulton,Kentucky,Fulton,2021-01-05 20:59:47.873721,2020-12-09 00:00:00.000000,2.84289744,5.41755645,8.78904867,169,323,524,84,176,282,1.41204714,2.95138035,4.73987365,0.24960592,0.57136436,1.04823171
21075,0,USKentuckyFulton,Kentucky,Fulton,2021-01-05 20:59:47.873721,2020-12-10 00:00:00.000000,2.78888486,5.48734223,8.87593180,166,327,529,82,176,283,1.38480709,2.96130639,4.75251630,0.24959511,0.57793803,1.08184980
21075,0,USKentuckyFulton,Kentucky,Fulton,2021-01-05 20:59:47.873721,2020-12-11 00:00:00.000000,2.74134118,5.51197865,8.95149034,163,329,534,81,175,284,1.35876101,2.94769820,4.77311149,0.24915959,0.60547383,1.13157996
21075,0,USKentuckyFulton,Kentucky,Fulton,2021-01-05 20:59:47.873721,2020-12-12 00:00:00.000000,2.70019267,5.53299114,9.01722669,161,330,538,79,177,287,1.33430850,2.97207418,4.82385308,0.24859583,0.61830253,1.16511858
21075,0,USKentuckyFulton,Kentucky,Fulton,2021-01-05 20:59:47.873721,2020-12-13 00:00:00.000000,2.66764145,5.52282726,9.08810416,159,329,542,78,179,290,1.31212407,3.01155493,4.87002563,0.25114536,0.64271513,1.16732291
21075,0,USKentuckyFulton,Kentucky,Fulton,2021-01-05 20:59:47.873721,2020-12-14 00:00:00.000000,2.67702975,5.52715102,9.16525316,159,329,547,77,181,293,1.29306266,3.04258191,4.91392392,0.25026882,0.63270502,1.14957628
21075,0,USKentuckyFulton,Kentucky,Fulton,2021-01-05 20:59:47.873721,2020-12-15 00:00:00.000000,2.69607333,5.53412050,9.22818409,160,330,550,76,182,295,1.28479851,3.06196870,4.95739556,0.25205109,0.62968989,1.14912136
21075,0,USKentuckyFulton,Kentucky,Fulton,2021-01-05 20:59:47.873721,2020-12-16 00:00:00.000000,2.72438752,5.53739523,9.27707664,162,330,553,76,183,298,1.28483110,3.06640745,4.99818454,0.25235874,0.63071653,1.22866856
21075,0,USKentuckyFulton,Kentucky,Fulton,2021-01-05 20:59:47.873721,2020-12-17 00:00:00.000000,2.75914699,5.53081115,9.31164070,164,330,555,77,182,300,1.29128865,3.06287316,5.03468238,0.25355198,0.63369897,1.22473308
21075,0,USKentuckyFulton,Kentucky,Fulton,2021-01-05 20:59:47.873721,2020-12-18 00:00:00.000000,2.79818447,5.53846176,9.45831876,167,330,564,77,182,302,1.30257152,3.05895301,5.06574295,0.25571768,0.65515965,1.23979647
21075,0,USKentuckyFulton,Kentucky,Fulton,2021-01-05 20:59:47.873721,2020-12-19 00:00:00.000000,2.84148144,5.57223866,9.67110412,169,332,577,78,184,303,1.31735309,3.08567017,5.08861479,0.26004981,0.67919371,1.22459567
21075,0,USKentuckyFulton,Kentucky,Fulton,2021-01-05 20:59:47.873721,2020-12-20 00:00:00.000000,2.89751066,5.64701756,9.83470139,172,337,587,79,183,304,1.33491830,3.07867138,5.09491137,0.26550837,0.68479734,1.22119512
21075,0,USKentuckyFulton,Kentucky,Fulton,2021-01-05 20:59:47.873721,2020-12-21 00:00:00.000000,2.98292702,5.66504653,9.69003967,178,338,578,80,182,305,1.35673321,3.05348126,5.12185199,0.27125933,0.69454889,1.29069518
21075,0,USKentuckyFulton,Kentucky,Fulton,2021-01-05 20:59:47.873721,2020-12-22 00:00:00.000000,3.08863950,5.66766327,9.52976922,184,338,568,82,182,304,1.38730098,3.06553281,5.10499280,0.27430181,0.70239141,1.43939988
21075,0,USKentuckyFulton,Kentucky,Fulton,2021-01-05 20:59:47.873721,2020-12-23 00:00:00.000000,3.20100739,5.65888554,9.35864652,191,337,558,85,185,303,1.42720939,3.11018635,5.09000552,0.27243141,0.74784104,1.47685503
21075,0,USKentuckyFulton,Kentucky,Fulton,2021-01-05 20:59:47.873721,2020-12-24 00:00:00.000000,3.31737801,5.71898017,9.17763655,198,341,547,87,187,304,1.47366910,3.13444521,5.10239229,0.27352451,0.74509745,1.50238507
21075,0,USKentuckyFulton,Kentucky,Fulton,2021-01-05 20:59:47.873721,2020-12-25 00:00:00.000000,3.35244739,5.74604249,9.01334780,200,342,538,90,187,299,1.52444787,3.13994746,5.02099942,0.27486704,0.74884159,1.51315187
21075,0,USKentuckyFulton,Kentucky,Fulton,2021-01-05 20:59:47.873721,2020-12-26 00:00:00.000000,3.36661182,5.76401588,8.99362207,200,344,536,94,187,296,1.57837873,3.14638807,4.96715087,0.27605430,0.72612457,1.50080334
21075,0,USKentuckyFulton,Kentucky,Fulton,2021-01-05 20:59:47.873721,2020-12-27 00:00:00.000000,3.37795460,5.76002142,8.96081715,201,343,534,97,187,294,1.63515097,3.14208191,4.94051720,0.27755989,0.72062157,1.46031065
21075,0,USKentuckyFulton,Kentucky,Fulton,2021-01-05 20:59:47.873721,2020-12-28 00:00:00.000000,3.37437525,5.69162942,8.90725345,201,339,531,101,187,293,1.69488828,3.14442613,4.91003471,0.27971971,0.72528418,1.47766484
21075,0,USKentuckyFulton,Kentucky,Fulton,2021-01-05 20:59:47.873721,2020-12-29 00:00:00.000000,3.36956370,5.60648146,8.89146758,201,334,530,104,185,290,1.74861646,3.10124590,4.86349337,0.28268877,0.72397447,1.51898444
21075,0,USKentuckyFulton,Kentucky,Fulton,2021-01-05 20:59:47.873721,2020-12-30 00:00:00.000000,3.36489811,5.51201859,8.68868888,200,329,518,107,181,289,1.79897863,3.03633343,4.84216400,0.28642850,0.70570049,1.51127338
21075,0,USKentuckyFulton,Kentucky,Fulton,2021-01-05 20:59:47.873721,2020-12-31 00:00:00.000000,3.29198178,5.41324786,8.48680532,196,323,506,105,178,289,1.77572646,2.98922032,4.84639201,0.29063588,0.69468691,1.49748903
21075,0,USKentuckyFulton,Kentucky,Fulton,2021-01-05 20:59:47.873721,2021-01-01 00:00:00.000000,3.18130370,5.31233204,8.34198686,189,317,497,102,176,288,1.72389087,2.95752193,4.83974805,0.29479669,0.71613989,1.47904919
21075,0,USKentuckyFulton,Kentucky,Fulton,2021-01-05 20:59:47.873721,2021-01-02 00:00:00.000000,3.06727390,5.20937804,8.22899680,183,310,491,99,172,287,1.67009653,2.89397457,4.82303973,0.29748687,0.73724777,1.45942401
21075,0,USKentuckyFulton,Kentucky,Fulton,2021-01-05 20:59:47.873721,2021-01-03 00:00:00.000000,3.04084868,5.11677347,8.44986654,181,305,504,96,169,289,1.61448339,2.83322164,4.84855371,0.28871446,0.75595222,1.45227700
21075,0,USKentuckyFulton,Kentucky,Fulton,2021-01-05 20:59:47.873721,2021-01-04 00:00:00.000000,3.02363891,5.03966538,8.57710407,180,300,511,92,164,287,1.55717116,2.76201500,4.81419260,0.28355701,0.76705090,1.54664877
21075,0,USKentuckyFulton,Kentucky,Fulton,2021-01-05 20:59:47.873721,2021-01-05 00:00:00.000000,2.98856812,4.97712784,8.78981861,178,297,524,89,162,293,1.49852059,2.72250557,4.92526413,0.28060730,0.73562247,1.68336283
21075,0,USKentuckyFulton,Kentucky,Fulton,2021-01-05 20:59:47.873721,2021-01-06 00:00:00.000000,2.94286910,4.97446112,8.99155211,175,296,536,85,160,300,1.43913251,2.69598665,5.04126797,0.27897012,0.72431440,1.84218393
21075,0,USKentuckyFulton,Kentucky,Fulton,2021-01-05 20:59:47.873721,2021-01-07 00:00:00.000000,2.89273711,4.85336169,8.82582216,172,289,526,82,159,302,1.37974383,2.67535234,5.07529659,0.27809806,0.73591572,1.85245318
21075,0,USKentuckyFulton,Kentucky,Fulton,2021-01-05 20:59:47.873721,2021-01-08 00:00:00.000000,2.84031972,4.72876456,8.92211919,169,282,532,78,156,304,1.32103354,2.62562258,5.09633295,0.27764855,0.73526719,1.85245509
21075,0,USKentuckyFulton,Kentucky,Fulton,2021-01-05 20:59:47.873721,2021-01-09 00:00:00.000000,2.78658229,4.61678729,9.05044051,166,275,540,75,153,310,1.26917325,2.57836157,5.21010146,0.27742066,0.73502311,1.85245558
21075,0,USKentuckyFulton,Kentucky,Fulton,2021-01-05 20:59:47.873721,2021-01-10 00:00:00.000000,2.73205121,4.52720078,9.16548552,163,270,547,74,152,315,1.24648696,2.54999254,5.29111880,0.27730575,0.73493065,1.85245571
21075,0,USKentuckyFulton,Kentucky,Fulton,2021-01-05 20:59:47.873721,2021-01-11 00:00:00.000000,2.67703536,4.40451559,9.26660734,159,262,553,73,149,317,1.22306146,2.50741218,5.31507082,0.27724783,0.73489527,1.85245574
21075,0,USKentuckyFulton,Kentucky,Fulton,2021-01-05 20:59:47.873721,2021-01-12 00:00:00.000000,2.62172897,4.28278140,9.35323604,156,255,558,71,145,318,1.19919058,2.44482030,5.33050443,0.27721858,0.73488155,1.85245575
21075,0,USKentuckyFulton,Kentucky,Fulton,2021-01-05 20:59:47.873721,2021-01-13 00:00:00.000000,2.56371112,4.15345839,9.42488843,153,247,562,70,142,318,1.17504878,2.38415124,5.33757549,0.27720378,0.73487615,1.85245575
21075,0,USKentuckyFulton,Kentucky,Fulton,2021-01-05 20:59:47.873721,2021-01-14 00:00:00.000000,2.46752970,4.04382090,9.48117566,147,241,565,68,139,318,1.15074483,2.32995776,5.33641046,0.27719627,0.73487398,1.85245575
21075,0,USKentuckyFulton,Kentucky,Fulton,2021-01-05 20:59:47.873721,2021-01-15 00:00:00.000000,2.36812348,3.94213127,9.52180888,141,235,568,67,134,317,1.12635153,2.25665928,5.32713480,0.27719245,0.73487310,1.85245575
21075,0,USKentuckyFulton,Kentucky,Fulton,2021-01-05 20:59:47.873721,2021-01-16 00:00:00.000000,2.27175371,3.84115834,9.54660311,135,229,569,65,130,316,1.10192196,2.18372105,5.30989016,0.27719051,0.73487273,1.85245575
21075,0,USKentuckyFulton,Kentucky,Fulton,2021-01-05 20:59:47.873721,2021-01-17 00:00:00.000000,2.17846862,3.74875158,9.55547924,130,223,570,64,127,318,1.07749827,2.12950964,5.33864998,0.27718952,0.73487258,1.85245575
