FIPS,HR_UID,nameid,province,region,analysisTime,dates,pointprevalence_025,pointprevalence_50,pointprevalence_975,pointinfections_025,pointinfections_50,pointinfections_975,pointinfectious_025,pointinfectious_50,pointinfectious_975,pointinfectiousprevalence_05,pointinfectiousprevalence_50,pointinfectiousprevalence_95,infectrate_025,infectrate_50,infectrate_975
53019,0,USWashingtonFerry,Washington,Ferry,2021-01-05 06:21:45.135516,2020-03-09 00:00:00.000000,0.00538412,0.04011262,0.14161493,0,3,10,0,1,6,0.00268380,0.02194359,0.08364816,0.40132156,0.53565012,0.73906213
53019,0,USWashingtonFerry,Washington,Ferry,2021-01-05 06:21:45.135516,2020-03-10 00:00:00.000000,0.00606826,0.04365246,0.14793239,0,3,11,0,1,6,0.00271468,0.02149355,0.08134489,0.40076843,0.53564854,0.73906216
53019,0,USWashingtonFerry,Washington,Ferry,2021-01-05 06:21:45.135516,2020-03-11 00:00:00.000000,0.00676000,0.04793046,0.16372395,0,3,12,0,1,6,0.00291379,0.02289042,0.08281799,0.39979656,0.53564426,0.73906214
53019,0,USWashingtonFerry,Washington,Ferry,2021-01-05 06:21:45.135516,2020-03-12 00:00:00.000000,0.00747924,0.05082533,0.17177339,0,3,13,0,1,6,0.00320614,0.02550376,0.08975716,0.39810059,0.53563261,0.73906193
53019,0,USWashingtonFerry,Washington,Ferry,2021-01-05 06:21:45.135516,2020-03-13 00:00:00.000000,0.00824008,0.05452504,0.17987304,0,4,13,0,2,6,0.00355487,0.02782123,0.09156512,0.39517613,0.53560089,0.73906105
53019,0,USWashingtonFerry,Washington,Ferry,2021-01-05 06:21:45.135516,2020-03-14 00:00:00.000000,0.00905360,0.05834289,0.19400020,0,4,14,0,2,7,0.00394309,0.02847758,0.09573543,0.39023572,0.53551461,0.73905774
53019,0,USWashingtonFerry,Washington,Ferry,2021-01-05 06:21:45.135516,2020-03-15 00:00:00.000000,0.00992936,0.06324052,0.20721625,0,4,15,0,2,7,0.00436438,0.03030405,0.10155638,0.38217265,0.53517952,0.73904485
53019,0,USWashingtonFerry,Washington,Ferry,2021-01-05 06:21:45.135516,2020-03-16 00:00:00.000000,0.02054243,0.08407548,0.23869363,1,6,18,0,2,8,0.00481776,0.03404682,0.10780238,0.36972841,0.53092507,0.73898852
53019,0,USWashingtonFerry,Washington,Ferry,2021-01-05 06:21:45.135516,2020-03-17 00:00:00.000000,0.02947132,0.09906177,0.28803554,2,7,21,0,3,9,0.00717075,0.04072700,0.12374740,0.35209422,0.52820488,0.73870641
53019,0,USWashingtonFerry,Washington,Ferry,2021-01-05 06:21:45.135516,2020-03-18 00:00:00.000000,0.03936582,0.12086090,0.33521186,3,9,25,0,3,10,0.01226365,0.04835031,0.14304472,0.32992548,0.51847505,0.73713682
53019,0,USWashingtonFerry,Washington,Ferry,2021-01-05 06:21:45.135516,2020-03-19 00:00:00.000000,0.04998672,0.14050092,0.38713139,3,10,29,1,4,13,0.01795683,0.05743175,0.17137230,0.30592709,0.49646365,0.72807720
53019,0,USWashingtonFerry,Washington,Ferry,2021-01-05 06:21:45.135516,2020-03-20 00:00:00.000000,0.06133130,0.15611764,0.43495518,4,11,33,1,5,15,0.02356037,0.06843336,0.19982129,0.28336712,0.46392117,0.70142071
53019,0,USWashingtonFerry,Washington,Ferry,2021-01-05 06:21:45.135516,2020-03-21 00:00:00.000000,0.07335438,0.17429623,0.47772338,5,13,36,2,6,17,0.02968680,0.07985802,0.22857619,0.27537892,0.44657431,0.65799757
53019,0,USWashingtonFerry,Washington,Ferry,2021-01-05 06:21:45.135516,2020-03-22 00:00:00.000000,0.08299924,0.19838532,0.52020905,6,15,39,2,6,19,0.03605297,0.09112725,0.25615183,0.27277219,0.42396656,0.61438829
53019,0,USWashingtonFerry,Washington,Ferry,2021-01-05 06:21:45.135516,2020-03-23 00:00:00.000000,0.08487400,0.20656966,0.52726212,6,15,40,3,7,21,0.03947029,0.10050200,0.28260466,0.24680663,0.40435822,0.57267868
53019,0,USWashingtonFerry,Washington,Ferry,2021-01-05 06:21:45.135516,2020-03-24 00:00:00.000000,0.08721790,0.21117167,0.53456719,6,16,40,3,8,22,0.04188338,0.10926464,0.29910414,0.23962562,0.38000895,0.53671508
53019,0,USWashingtonFerry,Washington,Ferry,2021-01-05 06:21:45.135516,2020-03-25 00:00:00.000000,0.09231846,0.21445087,0.53963413,7,16,41,3,8,23,0.04541454,0.11533867,0.30980609,0.23603988,0.36990861,0.52439840
53019,0,USWashingtonFerry,Washington,Ferry,2021-01-05 06:21:45.135516,2020-03-26 00:00:00.000000,0.09762350,0.21782821,0.54137016,7,16,41,3,9,24,0.04863766,0.11850983,0.31687317,0.21234826,0.35957924,0.52309535
53019,0,USWashingtonFerry,Washington,Ferry,2021-01-05 06:21:45.135516,2020-03-27 00:00:00.000000,0.10315578,0.21975443,0.53801828,7,16,41,3,9,24,0.05175158,0.12050905,0.32112330,0.20639445,0.34299310,0.50491376
53019,0,USWashingtonFerry,Washington,Ferry,2021-01-05 06:21:45.135516,2020-03-28 00:00:00.000000,0.10283598,0.22060622,0.52963988,7,16,40,4,9,24,0.05487411,0.12094242,0.32247858,0.19657901,0.33233872,0.48834496
53019,0,USWashingtonFerry,Washington,Ferry,2021-01-05 06:21:45.135516,2020-03-29 00:00:00.000000,0.09841825,0.22114474,0.51830798,7,16,39,4,9,24,0.05512307,0.12262888,0.32087720,0.19350816,0.32327343,0.48737848
53019,0,USWashingtonFerry,Washington,Ferry,2021-01-05 06:21:45.135516,2020-03-30 00:00:00.000000,0.09411529,0.22077486,0.50583971,7,16,38,4,9,24,0.05289341,0.12505635,0.31684465,0.18560803,0.31547314,0.46887995
53019,0,USWashingtonFerry,Washington,Ferry,2021-01-05 06:21:45.135516,2020-03-31 00:00:00.000000,0.08998839,0.21974511,0.49322505,6,16,37,3,9,23,0.05065604,0.12377248,0.31118286,0.18019889,0.31055755,0.46677520
53019,0,USWashingtonFerry,Washington,Ferry,2021-01-05 06:21:45.135516,2020-04-01 00:00:00.000000,0.08840520,0.22179305,0.48827991,6,16,37,3,9,23,0.04846863,0.12392075,0.30461128,0.15508871,0.30520539,0.46556245
53019,0,USWashingtonFerry,Washington,Ferry,2021-01-05 06:21:45.135516,2020-04-02 00:00:00.000000,0.08794899,0.21841829,0.48040611,6,16,36,3,9,22,0.04717586,0.12418106,0.29764729,0.15790856,0.29962566,0.45326014
53019,0,USWashingtonFerry,Washington,Ferry,2021-01-05 06:21:45.135516,2020-04-03 00:00:00.000000,0.08703013,0.21463077,0.46289862,6,16,35,3,9,22,0.04728342,0.12514663,0.29060231,0.15283360,0.29757301,0.43610941
53019,0,USWashingtonFerry,Washington,Ferry,2021-01-05 06:21:45.135516,2020-04-04 00:00:00.000000,0.08604969,0.21267337,0.44651025,6,16,34,3,9,21,0.04727167,0.12491751,0.28360063,0.14839109,0.28618983,0.42099784
53019,0,USWashingtonFerry,Washington,Ferry,2021-01-05 06:21:45.135516,2020-04-05 00:00:00.000000,0.08488874,0.21080456,0.45325612,6,16,34,3,9,21,0.04623878,0.12233619,0.27658432,0.14823783,0.27348970,0.42049934
53019,0,USWashingtonFerry,Washington,Ferry,2021-01-05 06:21:45.135516,2020-04-06 00:00:00.000000,0.08361401,0.20815696,0.45445180,6,15,34,3,9,21,0.04573807,0.12218773,0.27740218,0.14815303,0.26586613,0.42032194
53019,0,USWashingtonFerry,Washington,Ferry,2021-01-05 06:21:45.135516,2020-04-07 00:00:00.000000,0.08228932,0.20051630,0.45082559,6,15,34,3,9,21,0.04516386,0.12015706,0.28435679,0.14808673,0.25916469,0.42294914
53019,0,USWashingtonFerry,Washington,Ferry,2021-01-05 06:21:45.135516,2020-04-08 00:00:00.000000,0.08094694,0.19449015,0.45900002,6,14,35,3,8,21,0.04453590,0.11638148,0.28563662,0.14768201,0.25489496,0.42005436
53019,0,USWashingtonFerry,Washington,Ferry,2021-01-05 06:21:45.135516,2020-04-09 00:00:00.000000,0.07959931,0.18838008,0.45187184,6,14,34,3,8,21,0.04387302,0.11046651,0.28070406,0.14328433,0.25058407,0.42027892
53019,0,USWashingtonFerry,Washington,Ferry,2021-01-05 06:21:45.135516,2020-04-10 00:00:00.000000,0.07735502,0.18363349,0.44824432,5,14,34,3,8,21,0.04318883,0.10820843,0.27896460,0.13621064,0.24915928,0.42070588
53019,0,USWashingtonFerry,Washington,Ferry,2021-01-05 06:21:45.135516,2020-04-11 00:00:00.000000,0.07273904,0.18086631,0.45108230,5,13,34,3,8,21,0.04249198,0.10539318,0.28398033,0.13277481,0.22845407,0.42076919
53019,0,USWashingtonFerry,Washington,Ferry,2021-01-05 06:21:45.135516,2020-04-12 00:00:00.000000,0.06834413,0.17770866,0.45467264,5,13,34,3,7,21,0.04178801,0.10488520,0.28815857,0.12640947,0.22400826,0.42023953
53019,0,USWashingtonFerry,Washington,Ferry,2021-01-05 06:21:45.135516,2020-04-13 00:00:00.000000,0.06416356,0.17698561,0.45683848,4,13,34,3,7,22,0.03958435,0.10375744,0.29008307,0.12051239,0.22089148,0.41823268
53019,0,USWashingtonFerry,Washington,Ferry,2021-01-05 06:21:45.135516,2020-04-14 00:00:00.000000,0.05993484,0.17657265,0.45806377,4,13,34,2,7,22,0.03713172,0.10165605,0.28922038,0.11838864,0.22090830,0.41285115
53019,0,USWashingtonFerry,Washington,Ferry,2021-01-05 06:21:45.135516,2020-04-15 00:00:00.000000,0.05586586,0.17413887,0.45822535,4,13,34,2,7,21,0.03475416,0.10030259,0.28626266,0.11773442,0.22057789,0.40109685
53019,0,USWashingtonFerry,Washington,Ferry,2021-01-05 06:21:45.135516,2020-04-16 00:00:00.000000,0.05293201,0.16949115,0.44975225,4,12,34,2,7,21,0.03245913,0.09845182,0.28202021,0.11861544,0.22045506,0.38653812
53019,0,USWashingtonFerry,Washington,Ferry,2021-01-05 06:21:45.135516,2020-04-17 00:00:00.000000,0.04958687,0.16361716,0.44700072,3,12,34,2,7,21,0.03024306,0.09675085,0.27703571,0.12407314,0.21499426,0.36191164
53019,0,USWashingtonFerry,Washington,Ferry,2021-01-05 06:21:45.135516,2020-04-18 00:00:00.000000,0.04646362,0.15905807,0.43945486,3,12,33,2,7,20,0.02918080,0.09402192,0.27159924,0.12741591,0.21265999,0.34742505
53019,0,USWashingtonFerry,Washington,Ferry,2021-01-05 06:21:45.135516,2020-04-19 00:00:00.000000,0.04357602,0.15450402,0.42845476,3,11,32,2,6,20,0.02830109,0.09013170,0.26751623,0.12365458,0.20842096,0.33931655
53019,0,USWashingtonFerry,Washington,Ferry,2021-01-05 06:21:45.135516,2020-04-20 00:00:00.000000,0.04092610,0.14788366,0.41609402,3,11,31,2,6,20,0.02698255,0.08812547,0.26277723,0.11089409,0.20048294,0.33567726
53019,0,USWashingtonFerry,Washington,Ferry,2021-01-05 06:21:45.135516,2020-04-21 00:00:00.000000,0.03850319,0.13995818,0.40320831,2,10,30,1,6,19,0.02531887,0.08584222,0.25660494,0.11021642,0.19665768,0.33411163
53019,0,USWashingtonFerry,Washington,Ferry,2021-01-05 06:21:45.135516,2020-04-22 00:00:00.000000,0.03625537,0.13285259,0.39008419,2,10,29,1,6,19,0.02378340,0.08421469,0.24958870,0.11037512,0.19432997,0.35291873
53019,0,USWashingtonFerry,Washington,Ferry,2021-01-05 06:21:45.135516,2020-04-23 00:00:00.000000,0.03415735,0.12560105,0.37679930,2,9,28,1,6,18,0.02236126,0.08239726,0.24210685,0.11084004,0.19461551,0.33582035
53019,0,USWashingtonFerry,Washington,Ferry,2021-01-05 06:21:45.135516,2020-04-24 00:00:00.000000,0.03213481,0.12028462,0.36334205,2,9,27,1,5,17,0.02084082,0.07801747,0.23436103,0.11199565,0.19076450,0.33473658
53019,0,USWashingtonFerry,Washington,Ferry,2021-01-05 06:21:45.135516,2020-04-25 00:00:00.000000,0.02948809,0.11303468,0.34974076,2,8,26,1,5,17,0.01911372,0.07280202,0.22643950,0.11475093,0.19199532,0.32903359
53019,0,USWashingtonFerry,Washington,Ferry,2021-01-05 06:21:45.135516,2020-04-26 00:00:00.000000,0.02743340,0.10646145,0.33608605,2,8,25,1,5,16,0.01753467,0.06907405,0.21838835,0.11390681,0.18812285,0.32975849
53019,0,USWashingtonFerry,Washington,Ferry,2021-01-05 06:21:45.135516,2020-04-27 00:00:00.000000,0.02627922,0.10124940,0.32244636,2,7,24,1,4,16,0.01608993,0.06555425,0.21025502,0.10797965,0.18749533,0.32992761
53019,0,USWashingtonFerry,Washington,Ferry,2021-01-05 06:21:45.135516,2020-04-28 00:00:00.000000,0.02540493,0.09636232,0.30875274,1,7,23,1,4,15,0.01476855,0.06236373,0.20208415,0.10443326,0.18995255,0.33035772
53019,0,USWashingtonFerry,Washington,Ferry,2021-01-05 06:21:45.135516,2020-04-29 00:00:00.000000,0.02468117,0.09121142,0.30057982,1,6,22,1,4,14,0.01363725,0.05929734,0.19387801,0.10662878,0.18520575,0.33219492
53019,0,USWashingtonFerry,Washington,Ferry,2021-01-05 06:21:45.135516,2020-04-30 00:00:00.000000,0.02345765,0.08617662,0.29766825,1,6,22,1,4,14,0.01318330,0.05635027,0.18554987,0.10684998,0.18684397,0.33866593
53019,0,USWashingtonFerry,Washington,Ferry,2021-01-05 06:21:45.135516,2020-05-01 00:00:00.000000,0.02227269,0.08265429,0.29534341,1,6,22,0,4,13,0.01280022,0.05348349,0.17705901,0.09881719,0.18610213,0.33979214
53019,0,USWashingtonFerry,Washington,Ferry,2021-01-05 06:21:45.135516,2020-05-02 00:00:00.000000,0.02114894,0.07933574,0.29342492,1,6,22,0,3,12,0.01246986,0.05064592,0.16851798,0.09843568,0.18852437,0.33766063
53019,0,USWashingtonFerry,Washington,Ferry,2021-01-05 06:21:45.135516,2020-05-03 00:00:00.000000,0.02008270,0.07596586,0.29174429,1,5,22,0,3,12,0.01218687,0.04823425,0.16008189,0.09866662,0.18716698,0.33963570
53019,0,USWashingtonFerry,Washington,Ferry,2021-01-05 06:21:45.135516,2020-05-04 00:00:00.000000,0.01882857,0.07323787,0.29014753,1,5,22,0,3,11,0.01183786,0.04668355,0.15187425,0.09702589,0.18253407,0.33999967
53019,0,USWashingtonFerry,Washington,Ferry,2021-01-05 06:21:45.135516,2020-05-05 00:00:00.000000,0.01760486,0.07074565,0.28847113,1,5,22,0,3,11,0.01105056,0.04514787,0.14924887,0.09610550,0.18533516,0.33866321
53019,0,USWashingtonFerry,Washington,Ferry,2021-01-05 06:21:45.135516,2020-05-06 00:00:00.000000,0.01647758,0.06789574,0.28423951,1,5,21,0,3,11,0.01032444,0.04343483,0.14830014,0.09575640,0.18208826,0.33409492
53019,0,USWashingtonFerry,Washington,Ferry,2021-01-05 06:21:45.135516,2020-05-07 00:00:00.000000,0.01544313,0.06451926,0.26966089,1,4,20,0,3,11,0.00965507,0.04101622,0.14728583,0.09390439,0.17943957,0.32420093
53019,0,USWashingtonFerry,Washington,Ferry,2021-01-05 06:21:45.135516,2020-05-08 00:00:00.000000,0.01449755,0.06118896,0.25495649,1,4,19,0,2,11,0.00903939,0.03867729,0.14605530,0.09267801,0.18203760,0.30891482
53019,0,USWashingtonFerry,Washington,Ferry,2021-01-05 06:21:45.135516,2020-05-09 00:00:00.000000,0.01363485,0.05800608,0.24056363,1,4,18,0,2,11,0.00847488,0.03643724,0.14442488,0.09146802,0.18315470,0.30653986
53019,0,USWashingtonFerry,Washington,Ferry,2021-01-05 06:21:45.135516,2020-05-10 00:00:00.000000,0.01260094,0.05584085,0.22674483,0,4,17,0,2,10,0.00795864,0.03517107,0.14227637,0.09100677,0.18374786,0.30349499
53019,0,USWashingtonFerry,Washington,Ferry,2021-01-05 06:21:45.135516,2020-05-11 00:00:00.000000,0.01147228,0.05360979,0.21359377,0,4,16,0,2,10,0.00748680,0.03352921,0.13963281,0.08746087,0.18286117,0.29353895
53019,0,USWashingtonFerry,Washington,Ferry,2021-01-05 06:21:45.135516,2020-05-12 00:00:00.000000,0.01045508,0.05189353,0.20113483,0,3,15,0,2,10,0.00705461,0.03190731,0.13661535,0.08464301,0.18164333,0.28988575
53019,0,USWashingtonFerry,Washington,Ferry,2021-01-05 06:21:45.135516,2020-05-13 00:00:00.000000,0.00953559,0.05052951,0.18936277,0,3,14,0,2,10,0.00664499,0.03080674,0.13336260,0.08421409,0.18038663,0.29706225
53019,0,USWashingtonFerry,Washington,Ferry,2021-01-05 06:21:45.135516,2020-05-14 00:00:00.000000,0.00870128,0.04849129,0.17821784,0,3,13,0,2,9,0.00598640,0.02983098,0.12998676,0.08428879,0.17734647,0.29987271
53019,0,USWashingtonFerry,Washington,Ferry,2021-01-05 06:21:45.135516,2020-05-15 00:00:00.000000,0.00794122,0.04721908,0.17039774,0,3,12,0,2,9,0.00540378,0.02889500,0.12656299,0.08455507,0.17614565,0.30248374
53019,0,USWashingtonFerry,Washington,Ferry,2021-01-05 06:21:45.135516,2020-05-16 00:00:00.000000,0.00724680,0.04533406,0.16605873,0,3,12,0,2,9,0.00488659,0.02779586,0.12313141,0.08508435,0.17350145,0.30608144
53019,0,USWashingtonFerry,Washington,Ferry,2021-01-05 06:21:45.135516,2020-05-17 00:00:00.000000,0.00661174,0.04324788,0.16181859,0,3,12,0,2,9,0.00442478,0.02677550,0.11970237,0.08411716,0.17682451,0.30929128
53019,0,USWashingtonFerry,Washington,Ferry,2021-01-05 06:21:45.135516,2020-05-18 00:00:00.000000,0.00603124,0.04089376,0.15768743,0,3,12,0,1,8,0.00401025,0.02601106,0.11432494,0.08361797,0.17227652,0.31209412
53019,0,USWashingtonFerry,Washington,Ferry,2021-01-05 06:21:45.135516,2020-05-19 00:00:00.000000,0.00550101,0.03860785,0.15366152,0,2,11,0,1,8,0.00363672,0.02488884,0.10759811,0.08345763,0.17019539,0.31975853
53019,0,USWashingtonFerry,Washington,Ferry,2021-01-05 06:21:45.135516,2020-05-20 00:00:00.000000,0.00500892,0.03638576,0.14973638,0,2,11,0,1,7,0.00329922,0.02389680,0.10125671,0.08335972,0.16937373,0.31171550
53019,0,USWashingtonFerry,Washington,Ferry,2021-01-05 06:21:45.135516,2020-05-21 00:00:00.000000,0.00454620,0.03454374,0.14590746,0,2,11,0,1,7,0.00299375,0.02283704,0.09526753,0.08332688,0.16979574,0.31185266
53019,0,USWashingtonFerry,Washington,Ferry,2021-01-05 06:21:45.135516,2020-05-22 00:00:00.000000,0.00412656,0.03213979,0.14217152,0,2,10,0,1,6,0.00271697,0.02142534,0.08952754,0.08541748,0.17531073,0.31195918
53019,0,USWashingtonFerry,Washington,Ferry,2021-01-05 06:21:45.135516,2020-05-23 00:00:00.000000,0.00374613,0.03010392,0.13838081,0,2,10,0,1,6,0.00246603,0.02009573,0.08403750,0.08581343,0.17840780,0.31223527
53019,0,USWashingtonFerry,Washington,Ferry,2021-01-05 06:21:45.135516,2020-05-24 00:00:00.000000,0.00340191,0.02821923,0.12934316,0,2,9,0,1,6,0.00223853,0.01888398,0.08104949,0.08463573,0.17868126,0.31325225
53019,0,USWashingtonFerry,Washington,Ferry,2021-01-05 06:21:45.135516,2020-05-25 00:00:00.000000,0.00309159,0.02663126,0.12083510,0,2,9,0,1,6,0.00203249,0.01738654,0.07897181,0.08415738,0.17452198,0.31681467
53019,0,USWashingtonFerry,Washington,Ferry,2021-01-05 06:21:45.135516,2020-05-26 00:00:00.000000,0.00281194,0.02536226,0.11501936,0,1,8,0,1,5,0.00184640,0.01618040,0.07694516,0.08397004,0.17307949,0.31662273
53019,0,USWashingtonFerry,Washington,Ferry,2021-01-05 06:21:45.135516,2020-05-27 00:00:00.000000,0.00255867,0.02504286,0.11222123,0,1,8,0,1,5,0.00167857,0.01525966,0.07249000,0.08389198,0.17146452,0.31024903
53019,0,USWashingtonFerry,Washington,Ferry,2021-01-05 06:21:45.135516,2020-05-28 00:00:00.000000,0.00232815,0.02434111,0.10945892,0,1,8,0,1,5,0.00152687,0.01445365,0.06772822,0.08385214,0.17582736,0.30749479
53019,0,USWashingtonFerry,Washington,Ferry,2021-01-05 06:21:45.135516,2020-05-29 00:00:00.000000,0.00211755,0.02341873,0.10673367,0,1,8,0,1,4,0.00138918,0.01380540,0.06326227,0.08383922,0.17612843,0.31173917
53019,0,USWashingtonFerry,Washington,Ferry,2021-01-05 06:21:45.135516,2020-05-30 00:00:00.000000,0.00192475,0.02251264,0.10402762,0,1,7,0,1,4,0.00126372,0.01322318,0.06071608,0.08384138,0.17610319,0.31763186
53019,0,USWashingtonFerry,Washington,Ferry,2021-01-05 06:21:45.135516,2020-05-31 00:00:00.000000,0.00174851,0.02139762,0.10129857,0,1,7,0,0,4,0.00114905,0.01296994,0.05919816,0.07953497,0.17381129,0.32074943
53019,0,USWashingtonFerry,Washington,Ferry,2021-01-05 06:21:45.135516,2020-06-01 00:00:00.000000,0.00158853,0.01993501,0.09849479,0,1,7,0,0,4,0.00104421,0.01246971,0.05767931,0.07617862,0.17246469,0.32147252
53019,0,USWashingtonFerry,Washington,Ferry,2021-01-05 06:21:45.135516,2020-06-02 00:00:00.000000,0.00144509,0.01856487,0.09561641,0,1,7,0,0,4,0.00094875,0.01195266,0.05613706,0.07544638,0.17263655,0.32115986
53019,0,USWashingtonFerry,Washington,Ferry,2021-01-05 06:21:45.135516,2020-06-03 00:00:00.000000,0.00131806,0.01728893,0.09271347,0,1,7,0,0,4,0.00086260,0.01114461,0.05456041,0.07538821,0.17252848,0.30924762
53019,0,USWashingtonFerry,Washington,Ferry,2021-01-05 06:21:45.135516,2020-06-04 00:00:00.000000,0.00120608,0.01606133,0.09039888,0,1,6,0,0,4,0.00078572,0.01038359,0.05295968,0.07585997,0.17071639,0.31071569
53019,0,USWashingtonFerry,Washington,Ferry,2021-01-05 06:21:45.135516,2020-06-05 00:00:00.000000,0.00110684,0.01492272,0.09121124,0,1,6,0,0,3,0.00071765,0.00967221,0.05134996,0.07754362,0.17216825,0.31719071
53019,0,USWashingtonFerry,Washington,Ferry,2021-01-05 06:21:45.135516,2020-06-06 00:00:00.000000,0.00101720,0.01388548,0.09134862,0,1,6,0,0,3,0.00065738,0.00901138,0.05040857,0.07978062,0.17412432,0.32448077
53019,0,USWashingtonFerry,Washington,Ferry,2021-01-05 06:21:45.135516,2020-06-07 00:00:00.000000,0.00093274,0.01293523,0.08858220,0,0,6,0,0,3,0.00060368,0.00840019,0.05083878,0.08077354,0.17543672,0.32899072
53019,0,USWashingtonFerry,Washington,Ferry,2021-01-05 06:21:45.135516,2020-06-08 00:00:00.000000,0.00085731,0.01206188,0.08602246,0,0,6,0,0,3,0.00055542,0.00783529,0.05136236,0.08100542,0.17589334,0.33013978
53019,0,USWashingtonFerry,Washington,Ferry,2021-01-05 06:21:45.135516,2020-06-09 00:00:00.000000,0.00078964,0.01148450,0.08352157,0,0,6,0,0,3,0.00051169,0.00731551,0.05049530,0.08104496,0.17463041,0.33019255
53019,0,USWashingtonFerry,Washington,Ferry,2021-01-05 06:21:45.135516,2020-06-10 00:00:00.000000,0.00072821,0.01099095,0.08111327,0,0,6,0,0,3,0.00047181,0.00696004,0.04870561,0.08101873,0.17116148,0.33173839
53019,0,USWashingtonFerry,Washington,Ferry,2021-01-05 06:21:45.135516,2020-06-11 00:00:00.000000,0.00067266,0.01051180,0.08019768,0,0,6,0,0,3,0.00043527,0.00667311,0.04679323,0.08073856,0.17106308,0.33215492
53019,0,USWashingtonFerry,Washington,Ferry,2021-01-05 06:21:45.135516,2020-06-12 00:00:00.000000,0.00062279,0.01005245,0.08272466,0,0,6,0,0,3,0.00040171,0.00639724,0.04615928,0.07866286,0.16866806,0.33307167
53019,0,USWashingtonFerry,Washington,Ferry,2021-01-05 06:21:45.135516,2020-06-13 00:00:00.000000,0.00057791,0.00972329,0.08018046,0,0,6,0,0,3,0.00037080,0.00613044,0.04492747,0.07144763,0.16707674,0.33679888
53019,0,USWashingtonFerry,Washington,Ferry,2021-01-05 06:21:45.135516,2020-06-14 00:00:00.000000,0.00053438,0.00938976,0.07785449,0,0,5,0,0,3,0.00034230,0.00587071,0.04375184,0.06635938,0.16823060,0.35410709
53019,0,USWashingtonFerry,Washington,Ferry,2021-01-05 06:21:45.135516,2020-06-15 00:00:00.000000,0.00049322,0.00906266,0.07584714,0,0,5,0,0,3,0.00031599,0.00567075,0.04262585,0.06537128,0.16987469,0.37320313
53019,0,USWashingtonFerry,Washington,Ferry,2021-01-05 06:21:45.135516,2020-06-16 00:00:00.000000,0.00045520,0.00874881,0.07427991,0,0,5,0,0,3,0.00029167,0.00550349,0.04153529,0.06518245,0.16957250,0.38315025
53019,0,USWashingtonFerry,Washington,Ferry,2021-01-05 06:21:45.135516,2020-06-17 00:00:00.000000,0.00042009,0.00848396,0.07306195,0,0,5,0,0,3,0.00026920,0.00529634,0.04041844,0.06509768,0.16790019,0.38340771
53019,0,USWashingtonFerry,Washington,Ferry,2021-01-05 06:21:45.135516,2020-06-18 00:00:00.000000,0.00038766,0.00833474,0.07214400,0,0,5,0,0,2,0.00024845,0.00507344,0.03931841,0.06501819,0.16801632,0.37721636
53019,0,USWashingtonFerry,Washington,Ferry,2021-01-05 06:21:45.135516,2020-06-19 00:00:00.000000,0.00035717,0.00820793,0.07137973,0,0,5,0,0,2,0.00022928,0.00489327,0.03822792,0.06491227,0.16914288,0.36713992
53019,0,USWashingtonFerry,Washington,Ferry,2021-01-05 06:21:45.135516,2020-06-20 00:00:00.000000,0.00032550,0.00796970,0.07069192,0,0,5,0,0,2,0.00021139,0.00474582,0.03714539,0.06479016,0.16679757,0.36351070
53019,0,USWashingtonFerry,Washington,Ferry,2021-01-05 06:21:45.135516,2020-06-21 00:00:00.000000,0.00029523,0.00750251,0.07004245,0,0,5,0,0,2,0.00019360,0.00462060,0.03627937,0.06471317,0.16386056,0.36335762
53019,0,USWashingtonFerry,Washington,Ferry,2021-01-05 06:21:45.135516,2020-06-22 00:00:00.000000,0.00783995,0.03766269,0.11501217,0,2,8,0,0,2,0.00017625,0.00451019,0.03590255,0.06478943,0.16148914,0.36702014
53019,0,USWashingtonFerry,Washington,Ferry,2021-01-05 06:21:45.135516,2020-06-23 00:00:00.000000,0.01468387,0.06554541,0.20426228,1,4,15,0,1,3,0.00262830,0.01378727,0.04651778,0.06515046,0.16538571,0.37723681
53019,0,USWashingtonFerry,Washington,Ferry,2021-01-05 06:21:45.135516,2020-06-24 00:00:00.000000,0.01976403,0.08922637,0.30701730,1,6,23,0,1,6,0.00596661,0.02480436,0.08574093,0.06594348,0.16517579,0.37086087
53019,0,USWashingtonFerry,Washington,Ferry,2021-01-05 06:21:45.135516,2020-06-25 00:00:00.000000,0.02518438,0.11465163,0.40838863,1,8,31,0,2,8,0.00918877,0.03883978,0.10920510,0.06733523,0.16403096,0.36255428
53019,0,USWashingtonFerry,Washington,Ferry,2021-01-05 06:21:45.135516,2020-06-26 00:00:00.000000,0.03097724,0.14055282,0.50601760,2,10,38,0,3,12,0.01200055,0.05185959,0.15800147,0.06946785,0.16119546,0.36219122
53019,0,USWashingtonFerry,Washington,Ferry,2021-01-05 06:21:45.135516,2020-06-27 00:00:00.000000,0.03630943,0.16344607,0.59849220,2,12,45,1,4,15,0.01496116,0.06553139,0.20820720,0.07234702,0.15856766,0.35536144
53019,0,USWashingtonFerry,Washington,Ferry,2021-01-05 06:21:45.135516,2020-06-28 00:00:00.000000,0.04113175,0.18710849,0.68510624,3,14,52,1,6,19,0.01808437,0.08068084,0.25829627,0.07289498,0.15864889,0.34915415
53019,0,USWashingtonFerry,Washington,Ferry,2021-01-05 06:21:45.135516,2020-06-29 00:00:00.000000,0.06274808,0.22966920,0.69747881,4,17,53,1,7,23,0.02096052,0.09529242,0.30730287,0.07045286,0.15858919,0.34600615
53019,0,USWashingtonFerry,Washington,Ferry,2021-01-05 06:21:45.135516,2020-06-30 00:00:00.000000,0.08682035,0.26464753,0.74221993,6,20,56,2,8,25,0.02852785,0.11782043,0.34069191,0.07007616,0.15858306,0.33111962
53019,0,USWashingtonFerry,Washington,Ferry,2021-01-05 06:21:45.135516,2020-07-01 00:00:00.000000,0.09732328,0.29168976,0.76935999,7,22,58,3,10,27,0.04005137,0.13776204,0.36371989,0.06999599,0.15858087,0.32604439
53019,0,USWashingtonFerry,Washington,Ferry,2021-01-05 06:21:45.135516,2020-07-02 00:00:00.000000,0.10545233,0.31120834,0.78235061,8,23,59,3,11,28,0.04549460,0.15339731,0.37984564,0.06647123,0.15857006,0.33342536
53019,0,USWashingtonFerry,Washington,Ferry,2021-01-05 06:21:45.135516,2020-07-03 00:00:00.000000,0.11316515,0.33170707,0.79263476,8,25,60,4,13,30,0.05267808,0.17188289,0.39421857,0.06406362,0.16079489,0.34373030
53019,0,USWashingtonFerry,Washington,Ferry,2021-01-05 06:21:45.135516,2020-07-04 00:00:00.000000,0.12036007,0.36832362,0.88281274,9,28,67,4,14,33,0.05705498,0.18921126,0.43278146,0.06370388,0.16035030,0.33455899
53019,0,USWashingtonFerry,Washington,Ferry,2021-01-05 06:21:45.135516,2020-07-05 00:00:00.000000,0.12700408,0.39231114,0.96644918,9,29,73,4,15,34,0.06117573,0.20191688,0.44633690,0.06365242,0.16350840,0.33869121
53019,0,USWashingtonFerry,Washington,Ferry,2021-01-05 06:21:45.135516,2020-07-06 00:00:00.000000,0.18022107,0.44739011,0.95632843,13,34,72,4,16,37,0.06501914,0.21357620,0.48548419,0.06365757,0.16344429,0.32412078
53019,0,USWashingtonFerry,Washington,Ferry,2021-01-05 06:21:45.135516,2020-07-07 00:00:00.000000,0.19299588,0.49148575,0.94840803,14,37,72,6,16,39,0.08358893,0.22117160,0.51820801,0.06375177,0.16565961,0.32672374
53019,0,USWashingtonFerry,Washington,Ferry,2021-01-05 06:21:45.135516,2020-07-08 00:00:00.000000,0.24548272,0.51751193,0.96374115,18,39,73,7,19,39,0.10163513,0.25351547,0.51388951,0.06407950,0.16663866,0.32867767
53019,0,USWashingtonFerry,Washington,Ferry,2021-01-05 06:21:45.135516,2020-07-09 00:00:00.000000,0.26225513,0.55066242,1.08453376,20,41,82,9,20,39,0.12315170,0.27323745,0.51557355,0.06489173,0.16408053,0.32962763
53019,0,USWashingtonFerry,Washington,Ferry,2021-01-05 06:21:45.135516,2020-07-10 00:00:00.000000,0.26949796,0.57057143,1.12447296,20,43,85,10,21,41,0.14174412,0.28540438,0.54484409,0.06662303,0.16152333,0.32639988
53019,0,USWashingtonFerry,Washington,Ferry,2021-01-05 06:21:45.135516,2020-07-11 00:00:00.000000,0.26189886,0.59773533,1.22734012,19,45,93,11,22,45,0.14729585,0.29635224,0.59588106,0.06983801,0.15943042,0.32805139
53019,0,USWashingtonFerry,Washington,Ferry,2021-01-05 06:21:45.135516,2020-07-12 00:00:00.000000,0.27285101,0.61746702,1.32705110,20,47,101,11,24,49,0.15007635,0.31591036,0.65508796,0.07468038,0.15641838,0.32964960
53019,0,USWashingtonFerry,Washington,Ferry,2021-01-05 06:21:45.135516,2020-07-13 00:00:00.000000,0.32326608,0.63185173,1.32038909,24,48,100,11,25,55,0.14597645,0.33207802,0.72384690,0.07937808,0.15294976,0.33090677
53019,0,USWashingtonFerry,Washington,Ferry,2021-01-05 06:21:45.135516,2020-07-14 00:00:00.000000,0.35213267,0.70333014,1.31049173,26,53,99,12,26,57,0.16432468,0.34612047,0.75863109,0.07922420,0.15591097,0.33372037
53019,0,USWashingtonFerry,Washington,Ferry,2021-01-05 06:21:45.135516,2020-07-15 00:00:00.000000,0.36773093,0.73528995,1.29410270,28,56,98,14,27,58,0.18908373,0.35709903,0.77031452,0.07935039,0.16017855,0.32950440
53019,0,USWashingtonFerry,Washington,Ferry,2021-01-05 06:21:45.135516,2020-07-16 00:00:00.000000,0.38339019,0.76325552,1.28382874,29,58,97,15,29,58,0.20894576,0.38037267,0.77124264,0.07815955,0.16378996,0.32761862
53019,0,USWashingtonFerry,Washington,Ferry,2021-01-05 06:21:45.135516,2020-07-17 00:00:00.000000,0.38705716,0.79333308,1.30071478,29,60,99,16,30,58,0.21900064,0.40494509,0.76537006,0.07293583,0.16783630,0.32782349
53019,0,USWashingtonFerry,Washington,Ferry,2021-01-05 06:21:45.135516,2020-07-18 00:00:00.000000,0.40372246,0.81512659,1.37276928,30,62,104,17,33,57,0.22408813,0.43391622,0.75652586,0.07091730,0.16878419,0.32797910
53019,0,USWashingtonFerry,Washington,Ferry,2021-01-05 06:21:45.135516,2020-07-19 00:00:00.000000,0.38172261,0.85522147,1.41259236,29,65,107,17,35,56,0.22335026,0.46042973,0.74620552,0.07051482,0.16718020,0.32831680
53019,0,USWashingtonFerry,Washington,Ferry,2021-01-05 06:21:45.135516,2020-07-20 00:00:00.000000,0.44308412,0.89021203,1.44887796,33,67,110,17,36,59,0.22457171,0.48228397,0.77627684,0.07047039,0.16403265,0.32018820
53019,0,USWashingtonFerry,Washington,Ferry,2021-01-05 06:21:45.135516,2020-07-21 00:00:00.000000,0.52829698,0.91928009,1.48443492,40,70,113,18,37,60,0.24420259,0.48624340,0.79411571,0.07048774,0.15756426,0.31915426
53019,0,USWashingtonFerry,Washington,Ferry,2021-01-05 06:21:45.135516,2020-07-22 00:00:00.000000,0.56442773,0.96311622,1.51842887,43,73,115,19,38,62,0.25878557,0.49974280,0.81353049,0.07053605,0.15621165,0.31912893
53019,0,USWashingtonFerry,Washington,Ferry,2021-01-05 06:21:45.135516,2020-07-23 00:00:00.000000,0.59066210,0.99096399,1.55297680,45,75,118,20,40,67,0.27152877,0.53058988,0.88095310,0.07063846,0.15796437,0.31862896
53019,0,USWashingtonFerry,Washington,Ferry,2021-01-05 06:21:45.135516,2020-07-24 00:00:00.000000,0.60915060,1.05402040,1.58657493,46,80,121,21,41,69,0.28424376,0.54552479,0.91075226,0.07085099,0.15725679,0.31723507
53019,0,USWashingtonFerry,Washington,Ferry,2021-01-05 06:21:45.135516,2020-07-25 00:00:00.000000,0.63639512,1.07036368,1.65632043,48,81,126,22,43,71,0.29656116,0.57252167,0.93133650,0.07127565,0.15224604,0.31452806
53019,0,USWashingtonFerry,Washington,Ferry,2021-01-05 06:21:45.135516,2020-07-26 00:00:00.000000,0.65547659,1.05621272,1.75084586,49,80,133,23,45,72,0.30810794,0.59606442,0.95083244,0.06359356,0.14617158,0.31002082
53019,0,USWashingtonFerry,Washington,Ferry,2021-01-05 06:21:45.135516,2020-07-27 00:00:00.000000,0.64272217,1.06392130,1.71443171,49,81,130,24,46,73,0.31842204,0.60759918,0.96860558,0.06170594,0.13963293,0.30395830
53019,0,USWashingtonFerry,Washington,Ferry,2021-01-05 06:21:45.135516,2020-07-28 00:00:00.000000,0.62584489,1.05152903,1.71308666,47,80,130,24,47,75,0.32007698,0.62309083,0.98873550,0.06141860,0.13640493,0.29766814
53019,0,USWashingtonFerry,Washington,Ferry,2021-01-05 06:21:45.135516,2020-07-29 00:00:00.000000,0.58785593,1.05247595,1.73802278,44,80,132,24,47,76,0.31672092,0.62101614,1.00841498,0.06125172,0.13413706,0.29237848
53019,0,USWashingtonFerry,Washington,Ferry,2021-01-05 06:21:45.135516,2020-07-30 00:00:00.000000,0.55109877,1.03484117,1.75633692,42,78,133,23,46,78,0.31055487,0.61491695,1.02597771,0.06227669,0.13703025,0.28794525
53019,0,USWashingtonFerry,Washington,Ferry,2021-01-05 06:21:45.135516,2020-07-31 00:00:00.000000,0.54881488,1.02279020,1.71488154,41,78,130,23,45,79,0.30286653,0.59798601,1.04070870,0.05998292,0.13472077,0.28303482
53019,0,USWashingtonFerry,Washington,Ferry,2021-01-05 06:21:45.135516,2020-08-01 00:00:00.000000,0.52673033,1.02421486,1.66974806,40,78,127,22,44,79,0.29492995,0.58149688,1.04273180,0.05843090,0.13508530,0.27592101
53019,0,USWashingtonFerry,Washington,Ferry,2021-01-05 06:21:45.135516,2020-08-02 00:00:00.000000,0.50680220,0.99608864,1.62512331,38,75,123,21,44,79,0.28735915,0.58256765,1.03636705,0.05766576,0.13610443,0.26567369
53019,0,USWashingtonFerry,Washington,Ferry,2021-01-05 06:21:45.135516,2020-08-03 00:00:00.000000,0.47808952,0.97984163,1.57234062,36,74,119,21,43,78,0.28035264,0.57485773,1.02743988,0.05761405,0.13588758,0.24676732
53019,0,USWashingtonFerry,Washington,Ferry,2021-01-05 06:21:45.135516,2020-08-04 00:00:00.000000,0.45121743,0.93458500,1.52079187,34,71,115,20,43,76,0.27012445,0.56427026,1.00625285,0.05758183,0.13522240,0.22019274
53019,0,USWashingtonFerry,Washington,Ferry,2021-01-05 06:21:45.135516,2020-08-05 00:00:00.000000,0.42587882,0.89841748,1.47033050,32,68,112,19,41,74,0.25849632,0.55032229,0.97836432,0.05756415,0.13167435,0.21876316
53019,0,USWashingtonFerry,Washington,Ferry,2021-01-05 06:21:45.135516,2020-08-06 00:00:00.000000,0.40239056,0.87332161,1.42125305,30,66,108,18,40,72,0.24495514,0.52874014,0.94683980,0.05755258,0.12619127,0.21712653
53019,0,USWashingtonFerry,Washington,Ferry,2021-01-05 06:21:45.135516,2020-08-07 00:00:00.000000,0.38480647,0.83099099,1.37356635,29,63,104,17,38,69,0.23149573,0.50837907,0.91329161,0.05754141,0.12755082,0.21636991
53019,0,USWashingtonFerry,Washington,Ferry,2021-01-05 06:21:45.135516,2020-08-08 00:00:00.000000,0.37555855,0.78948826,1.32728149,28,60,101,16,37,66,0.21893568,0.49098383,0.87694587,0.05761478,0.12479864,0.21509771
53019,0,USWashingtonFerry,Washington,Ferry,2021-01-05 06:21:45.135516,2020-08-09 00:00:00.000000,0.36555464,0.77141728,1.28260845,27,58,97,15,35,63,0.20738530,0.46935981,0.83685417,0.05894769,0.11808680,0.21343050
53019,0,USWashingtonFerry,Washington,Ferry,2021-01-05 06:21:45.135516,2020-08-10 00:00:00.000000,0.36374056,0.74248236,1.25033238,27,56,95,15,33,60,0.19686985,0.44510061,0.79499217,0.05852958,0.11613534,0.21153604
53019,0,USWashingtonFerry,Washington,Ferry,2021-01-05 06:21:45.135516,2020-08-11 00:00:00.000000,0.36127956,0.71072447,1.20667513,27,54,92,14,32,58,0.18785922,0.42713072,0.76123382,0.05968542,0.11528719,0.20929728
53019,0,USWashingtonFerry,Washington,Ferry,2021-01-05 06:21:45.135516,2020-08-12 00:00:00.000000,0.34516906,0.68123445,1.16303447,26,51,88,14,31,55,0.18396842,0.41226101,0.73210276,0.05940993,0.11488894,0.21089534
53019,0,USWashingtonFerry,Washington,Ferry,2021-01-05 06:21:45.135516,2020-08-13 00:00:00.000000,0.32995216,0.65866005,1.12047778,25,50,85,13,29,53,0.17649924,0.39202015,0.70503759,0.06039463,0.11401775,0.21379492
53019,0,USWashingtonFerry,Washington,Ferry,2021-01-05 06:21:45.135516,2020-08-14 00:00:00.000000,0.31550100,0.63722471,1.08012098,24,48,82,12,28,51,0.17015569,0.37866411,0.67917033,0.06344431,0.11376546,0.21695766
53019,0,USWashingtonFerry,Washington,Ferry,2021-01-05 06:21:45.135516,2020-08-15 00:00:00.000000,0.30154190,0.60350462,1.04232041,22,46,79,12,27,49,0.16259677,0.36539075,0.65450274,0.06570668,0.11383452,0.21946698
53019,0,USWashingtonFerry,Washington,Ferry,2021-01-05 06:21:45.135516,2020-08-16 00:00:00.000000,0.28843193,0.58301131,1.00989360,21,44,77,11,26,48,0.15611832,0.35079082,0.63118702,0.06496874,0.11426510,0.22086028
53019,0,USWashingtonFerry,Washington,Ferry,2021-01-05 06:21:45.135516,2020-08-17 00:00:00.000000,0.28749729,0.56326926,0.96263229,21,42,73,11,26,46,0.15165607,0.34192157,0.60930675,0.06500350,0.11418157,0.21935696
53019,0,USWashingtonFerry,Washington,Ferry,2021-01-05 06:21:45.135516,2020-08-18 00:00:00.000000,0.28752203,0.55589887,0.94537363,21,42,72,11,25,44,0.14907329,0.32990114,0.58956339,0.06582741,0.11425290,0.21664990
53019,0,USWashingtonFerry,Washington,Ferry,2021-01-05 06:21:45.135516,2020-08-19 00:00:00.000000,0.28854180,0.54488501,0.92587596,22,41,70,11,24,43,0.14766865,0.32055492,0.57186839,0.06735052,0.11424465,0.21291777
53019,0,USWashingtonFerry,Washington,Ferry,2021-01-05 06:21:45.135516,2020-08-20 00:00:00.000000,0.29018105,0.53101597,0.90216526,22,40,68,11,24,42,0.14699050,0.31479910,0.56007544,0.06817517,0.11570086,0.20830046
53019,0,USWashingtonFerry,Washington,Ferry,2021-01-05 06:21:45.135516,2020-08-21 00:00:00.000000,0.29215945,0.50300311,0.87499408,22,38,66,11,23,42,0.14674021,0.30357308,0.55142329,0.06816347,0.11593822,0.20327296
53019,0,USWashingtonFerry,Washington,Ferry,2021-01-05 06:21:45.135516,2020-08-22 00:00:00.000000,0.28900660,0.49455907,0.86431871,22,37,65,11,22,41,0.14670152,0.29135971,0.54289002,0.06817187,0.11769822,0.21153519
53019,0,USWashingtonFerry,Washington,Ferry,2021-01-05 06:21:45.135516,2020-08-23 00:00:00.000000,0.28186496,0.48178364,0.83405779,21,36,63,11,21,40,0.14670341,0.28053250,0.53458354,0.06826581,0.11822560,0.21207256
53019,0,USWashingtonFerry,Washington,Ferry,2021-01-05 06:21:45.135516,2020-08-24 00:00:00.000000,0.29572046,0.48114999,0.82566094,22,36,62,11,20,40,0.14725858,0.27392655,0.52657652,0.06872406,0.11726907,0.21539690
53019,0,USWashingtonFerry,Washington,Ferry,2021-01-05 06:21:45.135516,2020-08-25 00:00:00.000000,0.29704037,0.49069058,0.82008223,22,37,62,11,20,39,0.15434765,0.26992733,0.51912143,0.06916165,0.11558232,0.21325840
53019,0,USWashingtonFerry,Washington,Ferry,2021-01-05 06:21:45.135516,2020-08-26 00:00:00.000000,0.29034035,0.49027074,0.81344224,22,37,62,12,21,38,0.15925810,0.27606955,0.51015075,0.06925240,0.11774588,0.20695630
53019,0,USWashingtonFerry,Washington,Ferry,2021-01-05 06:21:45.135516,2020-08-27 00:00:00.000000,0.28709990,0.49637115,0.80645572,21,37,61,11,21,38,0.15653282,0.28334270,0.50778031,0.06894786,0.11772385,0.20398123
53019,0,USWashingtonFerry,Washington,Ferry,2021-01-05 06:21:45.135516,2020-08-28 00:00:00.000000,0.28357857,0.49335181,0.81290219,21,37,62,11,21,38,0.15391933,0.28318309,0.50458614,0.06850581,0.11894218,0.20364874
53019,0,USWashingtonFerry,Washington,Ferry,2021-01-05 06:21:45.135516,2020-08-29 00:00:00.000000,0.27983636,0.49902173,0.83183817,21,38,63,11,21,38,0.15149129,0.27945771,0.50086912,0.06833924,0.12005775,0.20338655
53019,0,USWashingtonFerry,Washington,Ferry,2021-01-05 06:21:45.135516,2020-08-30 00:00:00.000000,0.27594219,0.50357567,0.85472405,21,38,65,11,21,37,0.14675125,0.27680650,0.49701612,0.06640444,0.11939513,0.20307393
53019,0,USWashingtonFerry,Washington,Ferry,2021-01-05 06:21:45.135516,2020-08-31 00:00:00.000000,0.27322951,0.48878605,0.82601009,20,37,62,10,21,37,0.14244267,0.28591549,0.49326345,0.06431790,0.12001939,0.20312929
53019,0,USWashingtonFerry,Washington,Ferry,2021-01-05 06:21:45.135516,2020-09-01 00:00:00.000000,0.27041705,0.49006066,0.80330514,20,37,61,10,21,37,0.13999080,0.28005308,0.48679853,0.06406046,0.11823929,0.20315587
53019,0,USWashingtonFerry,Washington,Ferry,2021-01-05 06:21:45.135516,2020-09-02 00:00:00.000000,0.26760445,0.48366637,0.78446083,20,36,59,10,21,36,0.13843776,0.28029925,0.47880731,0.06416366,0.11836287,0.20318706
53019,0,USWashingtonFerry,Washington,Ferry,2021-01-05 06:21:45.135516,2020-09-03 00:00:00.000000,0.26500550,0.48443190,0.77065752,20,36,58,10,20,35,0.13413773,0.27531826,0.47001167,0.06445301,0.11755510,0.20331782
53019,0,USWashingtonFerry,Washington,Ferry,2021-01-05 06:21:45.135516,2020-09-04 00:00:00.000000,0.25412858,0.48179631,0.76050371,19,36,58,10,20,35,0.13284286,0.27483001,0.46084883,0.06520006,0.11704968,0.20429554
53019,0,USWashingtonFerry,Washington,Ferry,2021-01-05 06:21:45.135516,2020-09-05 00:00:00.000000,0.25080423,0.47191847,0.75184299,19,35,57,10,20,34,0.13159996,0.26927445,0.45153527,0.06558901,0.11758482,0.20505576
53019,0,USWashingtonFerry,Washington,Ferry,2021-01-05 06:21:45.135516,2020-09-06 00:00:00.000000,0.24901336,0.45899618,0.74391648,18,35,56,9,20,33,0.13039836,0.26488242,0.44189554,0.06680782,0.11838672,0.20596225
53019,0,USWashingtonFerry,Washington,Ferry,2021-01-05 06:21:45.135516,2020-09-07 00:00:00.000000,0.23464460,0.45230395,0.73157244,17,34,55,9,19,32,0.12912997,0.26067607,0.43153011,0.06871534,0.11849146,0.20592790
53019,0,USWashingtonFerry,Washington,Ferry,2021-01-05 06:21:45.135516,2020-09-08 00:00:00.000000,0.23232671,0.45516993,0.71996215,17,34,54,9,19,32,0.12862379,0.25768245,0.42982935,0.06875835,0.12047001,0.20508489
53019,0,USWashingtonFerry,Washington,Ferry,2021-01-05 06:21:45.135516,2020-09-09 00:00:00.000000,0.23663300,0.44375062,0.71178639,18,33,54,9,19,32,0.12120636,0.25660255,0.42817409,0.06877586,0.12097890,0.20296254
53019,0,USWashingtonFerry,Washington,Ferry,2021-01-05 06:21:45.135516,2020-09-10 00:00:00.000000,0.24007590,0.43798122,0.73167638,18,33,55,9,19,34,0.12184974,0.25503221,0.45647644,0.06885479,0.12083115,0.20393472
53019,0,USWashingtonFerry,Washington,Ferry,2021-01-05 06:21:45.135516,2020-09-11 00:00:00.000000,0.24099995,0.41822358,0.78189595,18,31,59,9,19,35,0.12316104,0.25130818,0.47153569,0.07059989,0.12226401,0.20225474
53019,0,USWashingtonFerry,Washington,Ferry,2021-01-05 06:21:45.135516,2020-09-12 00:00:00.000000,0.23712331,0.40240896,0.83154922,18,30,63,9,18,37,0.12511766,0.24603039,0.48601340,0.06872912,0.12153839,0.20048921
53019,0,USWashingtonFerry,Washington,Ferry,2021-01-05 06:21:45.135516,2020-09-13 00:00:00.000000,0.23357093,0.38545383,0.87981336,17,29,67,9,17,38,0.12420977,0.23430394,0.50041719,0.07151216,0.12261839,0.20103343
53019,0,USWashingtonFerry,Washington,Ferry,2021-01-05 06:21:45.135516,2020-09-14 00:00:00.000000,0.22671049,0.38449201,0.85380296,17,29,65,9,17,39,0.11875959,0.22363457,0.51463651,0.07475931,0.12469544,0.20183235
53019,0,USWashingtonFerry,Washington,Ferry,2021-01-05 06:21:45.135516,2020-09-15 00:00:00.000000,0.22444579,0.38150731,0.84558419,17,29,64,8,16,40,0.11324187,0.21960921,0.52775343,0.07825196,0.12792968,0.20306904
53019,0,USWashingtonFerry,Washington,Ferry,2021-01-05 06:21:45.135516,2020-09-16 00:00:00.000000,0.21964714,0.38437820,0.86668708,16,29,66,9,16,39,0.11848785,0.21878608,0.51580029,0.08023834,0.12717789,0.20898570
53019,0,USWashingtonFerry,Washington,Ferry,2021-01-05 06:21:45.135516,2020-09-17 00:00:00.000000,0.21580339,0.38167299,0.93219681,16,29,71,9,16,38,0.12410967,0.21797948,0.50277792,0.08199812,0.12909291,0.21326661
53019,0,USWashingtonFerry,Washington,Ferry,2021-01-05 06:21:45.135516,2020-09-18 00:00:00.000000,0.21308378,0.38635408,0.99679893,16,29,76,9,16,41,0.12152962,0.21759073,0.53911099,0.08286867,0.13058003,0.21621694
53019,0,USWashingtonFerry,Washington,Ferry,2021-01-05 06:21:45.135516,2020-09-19 00:00:00.000000,0.20963061,0.38462536,1.05916893,15,29,80,9,16,44,0.11893943,0.21718203,0.57790249,0.08494004,0.13073101,0.21845610
53019,0,USWashingtonFerry,Washington,Ferry,2021-01-05 06:21:45.135516,2020-09-20 00:00:00.000000,0.20019592,0.38619328,1.11680919,15,29,85,8,16,47,0.11645112,0.21535560,0.61678830,0.08516834,0.13468434,0.22360481
53019,0,USWashingtonFerry,Washington,Ferry,2021-01-05 06:21:45.135516,2020-09-21 00:00:00.000000,0.18376226,0.36876838,1.08105935,14,28,82,8,16,49,0.11413050,0.21252245,0.65436668,0.08510909,0.13773437,0.22365613
53019,0,USWashingtonFerry,Washington,Ferry,2021-01-05 06:21:45.135516,2020-09-22 00:00:00.000000,0.16819856,0.35152131,1.04128573,12,26,79,8,15,50,0.10758449,0.20835216,0.66510670,0.08532182,0.13962657,0.22913781
53019,0,USWashingtonFerry,Washington,Ferry,2021-01-05 06:21:45.135516,2020-09-23 00:00:00.000000,0.15330505,0.32924398,0.99785544,11,25,76,7,15,50,0.09945855,0.20178495,0.65898972,0.08536869,0.14303010,0.23577992
53019,0,USWashingtonFerry,Washington,Ferry,2021-01-05 06:21:45.135516,2020-09-24 00:00:00.000000,0.13937629,0.31100157,0.95443712,10,23,72,6,14,49,0.09124687,0.19301553,0.64292402,0.08547682,0.14442033,0.24150420
53019,0,USWashingtonFerry,Washington,Ferry,2021-01-05 06:21:45.135516,2020-09-25 00:00:00.000000,0.12654226,0.28860920,0.91329376,9,22,69,6,14,47,0.08330526,0.18358264,0.62162129,0.08573989,0.14970929,0.25769351
53019,0,USWashingtonFerry,Washington,Ferry,2021-01-05 06:21:45.135516,2020-09-26 00:00:00.000000,0.11617490,0.26847300,0.87518364,8,20,66,5,13,45,0.07582724,0.17302802,0.59797792,0.08648394,0.15210346,0.25632079
53019,0,USWashingtonFerry,Washington,Ferry,2021-01-05 06:21:45.135516,2020-09-27 00:00:00.000000,0.10752126,0.25288036,0.83940875,8,19,64,5,12,43,0.06889945,0.16303105,0.57406063,0.08864191,0.15587602,0.25394045
53019,0,USWashingtonFerry,Washington,Ferry,2021-01-05 06:21:45.135516,2020-09-28 00:00:00.000000,0.11143458,0.26332582,0.81716011,8,20,62,4,11,42,0.06254445,0.15300559,0.55086551,0.09360582,0.15918674,0.25326143
53019,0,USWashingtonFerry,Washington,Ferry,2021-01-05 06:21:45.135516,2020-09-29 00:00:00.000000,0.11585890,0.27797116,0.79694430,8,21,60,4,11,40,0.06032923,0.14911896,0.53188768,0.10393043,0.16208775,0.26965935
53019,0,USWashingtonFerry,Washington,Ferry,2021-01-05 06:21:45.135516,2020-09-30 00:00:00.000000,0.12098914,0.28824226,0.77889276,9,21,59,4,11,39,0.06054542,0.15033841,0.51592431,0.10423654,0.16436656,0.28254779
53019,0,USWashingtonFerry,Washington,Ferry,2021-01-05 06:21:45.135516,2020-10-01 00:00:00.000000,0.12632473,0.29223817,0.76271245,9,22,58,4,12,38,0.06214889,0.15955176,0.50217789,0.10429270,0.17317278,0.27927107
53019,0,USWashingtonFerry,Washington,Ferry,2021-01-05 06:21:45.135516,2020-10-02 00:00:00.000000,0.12787458,0.29619258,0.74825106,9,22,57,4,12,37,0.06451156,0.16000310,0.49014414,0.10420422,0.17640727,0.26276989
53019,0,USWashingtonFerry,Washington,Ferry,2021-01-05 06:21:45.135516,2020-10-03 00:00:00.000000,0.13147618,0.30060511,0.73538305,10,22,56,5,12,36,0.06726704,0.16539355,0.47951493,0.10406692,0.18097536,0.26603769
53019,0,USWashingtonFerry,Washington,Ferry,2021-01-05 06:21:45.135516,2020-10-04 00:00:00.000000,0.13700128,0.30226274,0.77416579,10,23,59,5,13,35,0.07021410,0.17129633,0.47009356,0.10409640,0.18462421,0.27121517
53019,0,USWashingtonFerry,Washington,Ferry,2021-01-05 06:21:45.135516,2020-10-05 00:00:00.000000,0.14855043,0.31832156,0.76221137,11,24,58,5,13,35,0.07196556,0.17305490,0.46173960,0.10500451,0.18774173,0.27945352
53019,0,USWashingtonFerry,Washington,Ferry,2021-01-05 06:21:45.135516,2020-10-06 00:00:00.000000,0.15288395,0.32235368,0.74128635,11,24,56,5,13,34,0.07287194,0.17485232,0.45381999,0.10524448,0.19057840,0.28774644
53019,0,USWashingtonFerry,Washington,Ferry,2021-01-05 06:21:45.135516,2020-10-07 00:00:00.000000,0.15285677,0.34051635,0.76023762,11,25,57,5,13,34,0.07432745,0.18053088,0.44644621,0.10529944,0.19354367,0.29569554
53019,0,USWashingtonFerry,Washington,Ferry,2021-01-05 06:21:45.135516,2020-10-08 00:00:00.000000,0.16171392,0.35632591,0.80371872,12,27,61,5,14,34,0.07627735,0.18433591,0.44716401,0.10532432,0.19574167,0.32174348
53019,0,USWashingtonFerry,Washington,Ferry,2021-01-05 06:21:45.135516,2020-10-09 00:00:00.000000,0.17048291,0.37299665,0.79159107,13,28,60,6,14,34,0.07933012,0.19302922,0.45542614,0.10544131,0.20168694,0.32409083
53019,0,USWashingtonFerry,Washington,Ferry,2021-01-05 06:21:45.135516,2020-10-10 00:00:00.000000,0.17472357,0.37948420,0.77900540,13,28,59,6,15,35,0.08282116,0.20406800,0.46574643,0.10935316,0.21044620,0.32860155
53019,0,USWashingtonFerry,Washington,Ferry,2021-01-05 06:21:45.135516,2020-10-11 00:00:00.000000,0.17449612,0.39540136,0.76687815,13,30,58,6,16,35,0.08625794,0.21062868,0.46544297,0.12118584,0.22121113,0.34126493
53019,0,USWashingtonFerry,Washington,Ferry,2021-01-05 06:21:45.135516,2020-10-12 00:00:00.000000,0.20406659,0.41087910,0.77302757,15,31,58,6,16,35,0.08959211,0.21824047,0.47045646,0.12501711,0.22819872,0.34817426
53019,0,USWashingtonFerry,Washington,Ferry,2021-01-05 06:21:45.135516,2020-10-13 00:00:00.000000,0.21059479,0.42684323,0.78433010,16,32,59,7,17,36,0.09482932,0.22559909,0.47399496,0.13237223,0.22786225,0.35142555
53019,0,USWashingtonFerry,Washington,Ferry,2021-01-05 06:21:45.135516,2020-10-14 00:00:00.000000,0.22597161,0.45083470,0.82933208,17,34,63,7,17,36,0.10382423,0.23273975,0.47902944,0.14120623,0.23731453,0.36361749
53019,0,USWashingtonFerry,Washington,Ferry,2021-01-05 06:21:45.135516,2020-10-15 00:00:00.000000,0.22346296,0.46755855,0.83653542,17,35,63,8,18,36,0.11498769,0.23759157,0.47969560,0.14183015,0.24314769,0.37199989
53019,0,USWashingtonFerry,Washington,Ferry,2021-01-05 06:21:45.135516,2020-10-16 00:00:00.000000,0.22532264,0.49125436,0.83475949,17,37,63,8,18,36,0.11769280,0.24224752,0.47770742,0.14404783,0.25361051,0.38826332
53019,0,USWashingtonFerry,Washington,Ferry,2021-01-05 06:21:45.135516,2020-10-17 00:00:00.000000,0.22755407,0.50619777,0.87656281,17,38,66,9,19,40,0.12083329,0.25959895,0.52565081,0.15214364,0.26088410,0.39137652
53019,0,USWashingtonFerry,Washington,Ferry,2021-01-05 06:21:45.135516,2020-10-18 00:00:00.000000,0.23070596,0.51511392,0.88895260,17,39,67,9,20,40,0.12772365,0.27219074,0.52897116,0.16862119,0.27169736,0.39057844
53019,0,USWashingtonFerry,Washington,Ferry,2021-01-05 06:21:45.135516,2020-10-19 00:00:00.000000,0.25705191,0.53966881,0.94524945,19,41,72,9,21,40,0.12928981,0.27833611,0.53114138,0.18170278,0.27753342,0.41290010
53019,0,USWashingtonFerry,Washington,Ferry,2021-01-05 06:21:45.135516,2020-10-20 00:00:00.000000,0.29366490,0.55947941,1.00233386,22,42,76,10,22,40,0.13861567,0.29157510,0.53722473,0.18827787,0.28887706,0.45682160
53019,0,USWashingtonFerry,Washington,Ferry,2021-01-05 06:21:45.135516,2020-10-21 00:00:00.000000,0.32169176,0.57763904,1.04761980,24,44,79,11,22,41,0.15120380,0.29960611,0.54573495,0.18959446,0.29620009,0.47106780
53019,0,USWashingtonFerry,Washington,Ferry,2021-01-05 06:21:45.135516,2020-10-22 00:00:00.000000,0.33976349,0.60059824,1.07548026,25,45,82,12,23,43,0.16492391,0.30614549,0.57572006,0.19613425,0.32115119,0.47423080
53019,0,USWashingtonFerry,Washington,Ferry,2021-01-05 06:21:45.135516,2020-10-23 00:00:00.000000,0.35995805,0.61187340,1.11381066,27,46,84,13,24,44,0.17668551,0.31984948,0.58992740,0.21243435,0.33037559,0.48523296
53019,0,USWashingtonFerry,Washington,Ferry,2021-01-05 06:21:45.135516,2020-10-24 00:00:00.000000,0.37591286,0.63742249,1.17015027,28,48,89,14,25,46,0.18574464,0.33661142,0.60313136,0.22572731,0.35039814,0.50128933
53019,0,USWashingtonFerry,Washington,Ferry,2021-01-05 06:21:45.135516,2020-10-25 00:00:00.000000,0.38775831,0.66719731,1.23027033,29,50,93,14,26,48,0.18941797,0.34950278,0.63346461,0.23204497,0.36583669,0.52185356
53019,0,USWashingtonFerry,Washington,Ferry,2021-01-05 06:21:45.135516,2020-10-26 00:00:00.000000,0.41742451,0.72772527,1.27269137,31,55,97,14,28,50,0.19447568,0.36728044,0.66545028,0.24510727,0.37507305,0.55473242
53019,0,USWashingtonFerry,Washington,Ferry,2021-01-05 06:21:45.135516,2020-10-27 00:00:00.000000,0.45155338,0.77310674,1.33862988,34,58,102,15,29,52,0.20843179,0.39303509,0.69417406,0.25703235,0.38822953,0.56382393
53019,0,USWashingtonFerry,Washington,Ferry,2021-01-05 06:21:45.135516,2020-10-28 00:00:00.000000,0.47072413,0.81788714,1.42926053,35,62,109,17,31,55,0.22304061,0.41405321,0.72176992,0.26314686,0.39362353,0.56974794
53019,0,USWashingtonFerry,Washington,Ferry,2021-01-05 06:21:45.135516,2020-10-29 00:00:00.000000,0.49203752,0.87597209,1.52668717,37,66,116,17,33,57,0.23425460,0.43796230,0.75035166,0.26650785,0.40242186,0.57988608
53019,0,USWashingtonFerry,Washington,Ferry,2021-01-05 06:21:45.135516,2020-10-30 00:00:00.000000,0.51086980,0.91403663,1.63153515,38,69,124,18,34,61,0.24047352,0.45746870,0.80089296,0.27602217,0.44452411,0.60420805
53019,0,USWashingtonFerry,Washington,Ferry,2021-01-05 06:21:45.135516,2020-10-31 00:00:00.000000,0.52994032,0.98030939,1.74438473,40,74,133,18,37,65,0.24623815,0.48640482,0.86077520,0.29194841,0.46484193,0.65666676
53019,0,USWashingtonFerry,Washington,Ferry,2021-01-05 06:21:45.135516,2020-11-01 00:00:00.000000,0.54997210,1.04765002,1.85462374,41,79,141,19,39,70,0.25873852,0.51576136,0.92608730,0.30589866,0.49469290,0.68959355
53019,0,USWashingtonFerry,Washington,Ferry,2021-01-05 06:21:45.135516,2020-11-02 00:00:00.000000,0.61411292,1.12413524,1.98792721,46,85,151,21,43,75,0.28275376,0.56476045,0.99645672,0.31102619,0.51850121,0.71900444
53019,0,USWashingtonFerry,Washington,Ferry,2021-01-05 06:21:45.135516,2020-11-03 00:00:00.000000,0.66338792,1.23674254,2.13297112,50,94,162,24,46,80,0.32626250,0.61312398,1.05240975,0.31996279,0.54825593,0.72579292
53019,0,USWashingtonFerry,Washington,Ferry,2021-01-05 06:21:45.135516,2020-11-04 00:00:00.000000,0.77101199,1.32778429,2.32590941,58,101,177,26,50,85,0.34797204,0.66188110,1.12052932,0.33086851,0.56743957,0.78096708
53019,0,USWashingtonFerry,Washington,Ferry,2021-01-05 06:21:45.135516,2020-11-05 00:00:00.000000,0.86084972,1.50890762,2.53346128,65,115,193,28,54,93,0.37717245,0.70930160,1.22414980,0.33641760,0.58460158,0.84125137
53019,0,USWashingtonFerry,Washington,Ferry,2021-01-05 06:21:45.135516,2020-11-06 00:00:00.000000,0.95835381,1.66080102,2.76188317,73,126,210,32,59,101,0.43156524,0.77920851,1.33604784,0.34921408,0.60954454,0.87172703
53019,0,USWashingtonFerry,Washington,Ferry,2021-01-05 06:21:45.135516,2020-11-07 00:00:00.000000,1.06433371,1.83017834,3.01766577,81,139,230,36,64,111,0.47256263,0.83999147,1.45656786,0.41236411,0.64883584,0.89054377
53019,0,USWashingtonFerry,Washington,Ferry,2021-01-05 06:21:45.135516,2020-11-08 00:00:00.000000,1.17934496,2.00767756,3.30288745,89,153,251,39,71,120,0.51701282,0.93431145,1.58623533,0.43582499,0.67437324,0.91085248
53019,0,USWashingtonFerry,Washington,Ferry,2021-01-05 06:21:45.135516,2020-11-09 00:00:00.000000,1.32344856,2.25436444,3.65190936,100,171,278,43,79,131,0.56544117,1.03876298,1.72696508,0.47284689,0.69313570,0.92111255
53019,0,USWashingtonFerry,Washington,Ferry,2021-01-05 06:21:45.135516,2020-11-10 00:00:00.000000,1.48022729,2.53238488,4.09091336,112,193,312,47,88,144,0.62214142,1.15810339,1.89333349,0.48905320,0.71797945,0.92439530
53019,0,USWashingtonFerry,Washington,Ferry,2021-01-05 06:21:45.135516,2020-11-11 00:00:00.000000,1.66385165,2.78079713,4.60116958,126,212,350,52,98,163,0.68760465,1.29191149,2.14244367,0.51268674,0.72796839,0.91840957
53019,0,USWashingtonFerry,Washington,Ferry,2021-01-05 06:21:45.135516,2020-11-12 00:00:00.000000,1.89570557,3.07589672,5.16398334,144,234,393,60,109,180,0.79525706,1.43281519,2.36437617,0.54524362,0.75887535,0.93479737
53019,0,USWashingtonFerry,Washington,Ferry,2021-01-05 06:21:45.135516,2020-11-13 00:00:00.000000,2.15548156,3.46644570,5.78324149,164,264,441,70,124,197,0.92405785,1.62616878,2.59006446,0.57400259,0.78089832,0.94685105
53019,0,USWashingtonFerry,Washington,Ferry,2021-01-05 06:21:45.135516,2020-11-14 00:00:00.000000,2.45167495,3.79380967,6.47272101,186,289,493,79,141,216,1.04764571,1.85172549,2.84345587,0.58666796,0.80403912,0.97513407
53019,0,USWashingtonFerry,Washington,Ferry,2021-01-05 06:21:45.135516,2020-11-15 00:00:00.000000,2.78229251,4.28291003,7.23072975,212,326,551,90,157,238,1.18991384,2.06980396,3.12406839,0.60195877,0.82207346,0.98629322
53019,0,USWashingtonFerry,Washington,Ferry,2021-01-05 06:21:45.135516,2020-11-16 00:00:00.000000,3.06318762,4.87767309,8.04484170,233,372,613,103,175,261,1.35097609,2.30282333,3.42897355,0.61363575,0.83332148,0.99397816
53019,0,USWashingtonFerry,Washington,Ferry,2021-01-05 06:21:45.135516,2020-11-17 00:00:00.000000,3.42724819,5.51986272,8.93341663,261,420,681,116,196,285,1.52586022,2.57657838,3.74816157,0.61742413,0.83914808,1.00196945
53019,0,USWashingtonFerry,Washington,Ferry,2021-01-05 06:21:45.135516,2020-11-18 00:00:00.000000,3.82817515,6.17400935,9.89783770,291,470,754,128,220,314,1.68650650,2.89172495,4.12810252,0.60409433,0.83664009,1.02287097
53019,0,USWashingtonFerry,Washington,Ferry,2021-01-05 06:21:45.135516,2020-11-19 00:00:00.000000,4.26742136,6.84932683,10.81885683,325,522,825,140,246,349,1.84248573,3.22557670,4.58491848,0.59109673,0.83490832,1.00800064
53019,0,USWashingtonFerry,Washington,Ferry,2021-01-05 06:21:45.135516,2020-11-20 00:00:00.000000,4.74778476,7.60138485,11.69444361,362,579,891,153,273,387,2.01235622,3.58241472,5.08048467,0.58214730,0.82239611,0.99342235
53019,0,USWashingtonFerry,Washington,Ferry,2021-01-05 06:21:45.135516,2020-11-21 00:00:00.000000,5.18190778,8.39203240,12.55150632,395,640,957,167,303,428,2.19494094,3.97706011,5.61544875,0.58517038,0.79891132,0.98727060
53019,0,USWashingtonFerry,Washington,Ferry,2021-01-05 06:21:45.135516,2020-11-22 00:00:00.000000,5.58718985,9.03286958,13.38629939,426,688,1020,185,333,472,2.43355181,4.37721747,6.18972851,0.58047686,0.76685387,0.96603662
53019,0,USWashingtonFerry,Washington,Ferry,2021-01-05 06:21:45.135516,2020-11-23 00:00:00.000000,6.06223908,9.84116951,14.19867752,462,750,1082,205,366,518,2.70044739,4.80539356,6.80242877,0.53941207,0.73272657,0.94748169
53019,0,USWashingtonFerry,Washington,Ferry,2021-01-05 06:21:45.135516,2020-11-24 00:00:00.000000,6.46357198,10.79454595,15.16372913,492,823,1156,227,397,567,2.98452987,5.20794109,7.44304867,0.49413507,0.70188875,0.90509139
53019,0,USWashingtonFerry,Washington,Ferry,2021-01-05 06:21:45.135516,2020-11-25 00:00:00.000000,6.79524472,11.64578718,15.99708885,518,888,1220,244,427,610,3.20792318,5.60392555,8.00975456,0.48018118,0.66076618,0.87829727
53019,0,USWashingtonFerry,Washington,Ferry,2021-01-05 06:21:45.135516,2020-11-26 00:00:00.000000,7.08393191,12.25900585,16.91746952,540,934,1290,265,456,648,3.47598821,5.98181848,8.50330192,0.46534332,0.63028320,0.85419626
53019,0,USWashingtonFerry,Washington,Ferry,2021-01-05 06:21:45.135516,2020-11-27 00:00:00.000000,7.46841073,12.67084114,17.52535705,569,966,1336,281,486,692,3.68769087,6.38519865,9.08290794,0.41806546,0.57925906,0.81795923
53019,0,USWashingtonFerry,Washington,Ferry,2021-01-05 06:21:45.135516,2020-11-28 00:00:00.000000,7.87799907,13.08696690,17.68785954,600,998,1349,295,511,726,3.86984311,6.70290080,9.52415418,0.36172362,0.51414721,0.75416788
53019,0,USWashingtonFerry,Washington,Ferry,2021-01-05 06:21:45.135516,2020-11-29 00:00:00.000000,8.18608590,13.16850964,17.74267546,624,1004,1353,302,528,754,3.96691652,6.93581563,9.89017871,0.30505626,0.45310385,0.63426037
53019,0,USWashingtonFerry,Washington,Ferry,2021-01-05 06:21:45.135516,2020-11-30 00:00:00.000000,8.07884918,13.24380009,18.24848345,616,1010,1391,306,542,770,4.02374507,7.11872127,10.09845863,0.27599910,0.38715743,0.55430010
53019,0,USWashingtonFerry,Washington,Ferry,2021-01-05 06:21:45.135516,2020-12-01 00:00:00.000000,7.91816100,13.06988726,17.80046826,603,996,1357,307,548,781,4.02796536,7.19170970,10.25125415,0.23439443,0.34781980,0.50710108
53019,0,USWashingtonFerry,Washington,Ferry,2021-01-05 06:21:45.135516,2020-12-02 00:00:00.000000,7.56024246,12.81129496,17.28552881,576,977,1318,303,547,782,3.97537169,7.17847893,10.25500752,0.20268373,0.30629948,0.44068579
53019,0,USWashingtonFerry,Washington,Ferry,2021-01-05 06:21:45.135516,2020-12-03 00:00:00.000000,7.12865409,12.36057502,16.81688089,543,942,1282,293,544,783,3.85331873,7.14483990,10.27485129,0.19525072,0.27623010,0.43049095
53019,0,USWashingtonFerry,Washington,Ferry,2021-01-05 06:21:45.135516,2020-12-04 00:00:00.000000,6.69120447,11.79550737,16.29890497,510,899,1243,280,536,777,3.67790572,7.03743234,10.19435303,0.18918820,0.26156062,0.40368406
53019,0,USWashingtonFerry,Washington,Ferry,2021-01-05 06:21:45.135516,2020-12-05 00:00:00.000000,6.26020136,11.18128193,15.76804913,477,852,1202,265,517,763,3.47724326,6.78955892,10.01154243,0.18384513,0.25419437,0.38186284
53019,0,USWashingtonFerry,Washington,Ferry,2021-01-05 06:21:45.135516,2020-12-06 00:00:00.000000,5.84476010,10.56520867,15.22958114,445,805,1161,249,497,743,3.26824056,6.52487971,9.75041267,0.17215999,0.24711620,0.37556797
53019,0,USWashingtonFerry,Washington,Ferry,2021-01-05 06:21:45.135516,2020-12-07 00:00:00.000000,5.46680686,9.96938083,14.69640413,416,760,1120,235,478,719,3.09416179,6.27236792,9.43870247,0.16943086,0.23933394,0.36918027
53019,0,USWashingtonFerry,Washington,Ferry,2021-01-05 06:21:45.135516,2020-12-08 00:00:00.000000,5.11144791,9.42391899,14.15482089,389,718,1079,222,457,693,2.91740625,5.99442705,9.09075792,0.16168185,0.23586692,0.36321500
53019,0,USWashingtonFerry,Washington,Ferry,2021-01-05 06:21:45.135516,2020-12-09 00:00:00.000000,4.78087644,8.96185152,13.58405602,364,683,1036,209,430,665,2.74250475,5.64732901,8.72091975,0.15507974,0.23674636,0.35801925
53019,0,USWashingtonFerry,Washington,Ferry,2021-01-05 06:21:45.135516,2020-12-10 00:00:00.000000,4.48067518,8.46842460,12.99985210,341,645,991,196,404,635,2.57305737,5.30776121,8.33744209,0.15078686,0.23935232,0.35369902
53019,0,USWashingtonFerry,Washington,Ferry,2021-01-05 06:21:45.135516,2020-12-11 00:00:00.000000,4.23137777,7.96422719,12.42072993,322,607,947,183,382,606,2.41109613,5.00968810,7.94581252,0.14868090,0.23884923,0.35019617
53019,0,USWashingtonFerry,Washington,Ferry,2021-01-05 06:21:45.135516,2020-12-12 00:00:00.000000,4.03540539,7.47683537,11.84644519,307,570,903,172,358,575,2.25778972,4.70104709,7.55123670,0.14765610,0.23907837,0.35368588
53019,0,USWashingtonFerry,Washington,Ferry,2021-01-05 06:21:45.135516,2020-12-13 00:00:00.000000,3.86538093,7.04170875,11.26912957,294,537,859,161,338,546,2.11365941,4.43797266,7.15905818,0.14745805,0.24193601,0.36408035
53019,0,USWashingtonFerry,Washington,Ferry,2021-01-05 06:21:45.135516,2020-12-14 00:00:00.000000,3.70282823,6.67863547,10.68886445,282,509,815,152,322,518,1.99387156,4.23143304,6.79441472,0.14760862,0.25106379,0.36571527
53019,0,USWashingtonFerry,Washington,Ferry,2021-01-05 06:21:45.135516,2020-12-15 00:00:00.000000,3.55077125,6.29427015,10.10584490,270,480,770,145,306,499,1.90637193,4.02199554,6.55347374,0.14814619,0.25436269,0.36980172
53019,0,USWashingtonFerry,Washington,Ferry,2021-01-05 06:21:45.135516,2020-12-16 00:00:00.000000,3.40673952,5.95853559,9.62233567,259,454,733,139,290,485,1.82582411,3.80229092,6.36449881,0.14947811,0.25909393,0.38059514
53019,0,USWashingtonFerry,Washington,Ferry,2021-01-05 06:21:45.135516,2020-12-17 00:00:00.000000,3.26076240,5.64565232,9.27386284,248,430,707,133,271,471,1.75045545,3.56498281,6.18204885,0.15359130,0.26413162,0.38796087
53019,0,USWashingtonFerry,Washington,Ferry,2021-01-05 06:21:45.135516,2020-12-18 00:00:00.000000,3.05358538,5.45030990,8.94149892,232,415,681,128,256,457,1.67898950,3.36628091,6.00351275,0.15799177,0.26268178,0.39866365
53019,0,USWashingtonFerry,Washington,Ferry,2021-01-05 06:21:45.135516,2020-12-19 00:00:00.000000,2.87443021,5.24072634,8.60601594,219,399,656,122,241,444,1.61088599,3.16798145,5.82757787,0.16148522,0.27113899,0.41503558
53019,0,USWashingtonFerry,Washington,Ferry,2021-01-05 06:21:45.135516,2020-12-20 00:00:00.000000,2.71846093,5.07651894,8.24025511,207,387,628,118,232,431,1.54783605,3.05066756,5.65365703,0.16621561,0.27688152,0.42764615
53019,0,USWashingtonFerry,Washington,Ferry,2021-01-05 06:21:45.135516,2020-12-21 00:00:00.000000,2.52070660,4.84883150,7.93416882,192,369,605,113,222,418,1.49236780,2.91393144,5.48155368,0.17619017,0.28035254,0.43336202
53019,0,USWashingtonFerry,Washington,Ferry,2021-01-05 06:21:45.135516,2020-12-22 00:00:00.000000,2.36876450,4.66274329,7.68937796,180,355,586,106,214,405,1.39881308,2.81102642,5.31419151,0.17478066,0.28829615,0.44872495
53019,0,USWashingtonFerry,Washington,Ferry,2021-01-05 06:21:45.135516,2020-12-23 00:00:00.000000,2.26879210,4.50589584,7.44868342,173,343,568,102,206,392,1.33847983,2.71121452,5.15029796,0.17051844,0.29388760,0.48954152
53019,0,USWashingtonFerry,Washington,Ferry,2021-01-05 06:21:45.135516,2020-12-24 00:00:00.000000,2.13821949,4.33056538,7.21344212,163,330,550,97,201,380,1.27881315,2.63786765,4.98936074,0.16834851,0.29375228,0.49924533
53019,0,USWashingtonFerry,Washington,Ferry,2021-01-05 06:21:45.135516,2020-12-25 00:00:00.000000,2.01748081,4.17617257,6.98827144,153,318,532,90,196,368,1.19244167,2.57317836,4.83162125,0.16540204,0.29500091,0.50688456
53019,0,USWashingtonFerry,Washington,Ferry,2021-01-05 06:21:45.135516,2020-12-26 00:00:00.000000,1.90577818,4.06962267,6.79113996,145,310,517,85,190,353,1.11923814,2.50407708,4.63713046,0.16657038,0.30627508,0.52897974
53019,0,USWashingtonFerry,Washington,Ferry,2021-01-05 06:21:45.135516,2020-12-27 00:00:00.000000,1.86635271,3.94183254,6.63347049,142,300,505,81,183,336,1.06696144,2.40615456,4.41042280,0.16663737,0.30638882,0.52588965
53019,0,USWashingtonFerry,Washington,Ferry,2021-01-05 06:21:45.135516,2020-12-28 00:00:00.000000,1.75303532,3.76707592,6.49044761,133,287,495,78,175,319,1.03121762,2.30518654,4.19185062,0.16692571,0.31235384,0.52642071
53019,0,USWashingtonFerry,Washington,Ferry,2021-01-05 06:21:45.135516,2020-12-29 00:00:00.000000,1.68967199,3.64056107,6.36142462,128,277,485,76,168,313,0.99893239,2.21265250,4.10788290,0.16698699,0.31242877,0.52920763
53019,0,USWashingtonFerry,Washington,Ferry,2021-01-05 06:21:45.135516,2020-12-30 00:00:00.000000,1.59652584,3.45883572,6.23598792,121,263,475,73,162,313,0.96305538,2.12500929,4.11396707,0.16693608,0.31635862,0.53026495
53019,0,USWashingtonFerry,Washington,Ferry,2021-01-05 06:21:45.135516,2020-12-31 00:00:00.000000,1.49450362,3.29770626,6.10962686,113,251,465,68,153,313,0.89743827,2.01450012,4.11395004,0.16680598,0.31682904,0.53099131
53019,0,USWashingtonFerry,Washington,Ferry,2021-01-05 06:21:45.135516,2021-01-01 00:00:00.000000,1.39973562,3.15608659,5.99216795,106,240,457,64,146,308,0.84233648,1.92444925,4.04105492,0.16644642,0.32181082,0.53660595
53019,0,USWashingtonFerry,Washington,Ferry,2021-01-05 06:21:45.135516,2021-01-02 00:00:00.000000,1.31937802,2.98499248,5.88863469,100,227,449,60,139,302,0.79803533,1.83281295,3.96387281,0.16533016,0.32346242,0.53750051
53019,0,USWashingtonFerry,Washington,Ferry,2021-01-05 06:21:45.135516,2021-01-03 00:00:00.000000,1.26762681,2.84676905,5.79302376,96,217,441,58,132,296,0.76118394,1.74165108,3.89389660,0.16182061,0.31867298,0.54629641
53019,0,USWashingtonFerry,Washington,Ferry,2021-01-05 06:21:45.135516,2021-01-04 00:00:00.000000,1.21953886,2.69489782,5.69905608,93,205,434,55,128,292,0.72904930,1.68050488,3.83003244,0.15667797,0.32123704,0.54879305
53019,0,USWashingtonFerry,Washington,Ferry,2021-01-05 06:21:45.135516,2021-01-05 00:00:00.000000,1.17416596,2.54921125,5.57146803,89,194,424,53,125,287,0.69998232,1.64670397,3.76953060,0.15806336,0.32115749,0.55003498
53019,0,USWashingtonFerry,Washington,Ferry,2021-01-05 06:21:45.135516,2021-01-06 00:00:00.000000,1.13095400,2.42246342,5.32862465,86,184,406,51,120,282,0.67008143,1.57620455,3.71008932,0.15410649,0.31890114,0.56465493
53019,0,USWashingtonFerry,Washington,Ferry,2021-01-05 06:21:45.135516,2021-01-07 00:00:00.000000,1.08959062,2.32241838,5.09357745,83,177,388,47,112,278,0.62932312,1.47886500,3.65001850,0.15316530,0.31901463,0.56512231
53019,0,USWashingtonFerry,Washington,Ferry,2021-01-05 06:21:45.135516,2021-01-08 00:00:00.000000,1.02533096,2.20234973,4.86723129,78,167,371,45,105,273,0.59121462,1.38637520,3.58716651,0.15299173,0.31905398,0.56518594
53019,0,USWashingtonFerry,Washington,Ferry,2021-01-05 06:21:45.135516,2021-01-09 00:00:00.000000,0.98826515,2.06143107,4.64976163,75,157,354,42,101,268,0.55545627,1.32704017,3.52193967,0.15296473,0.31906761,0.59677212
53019,0,USWashingtonFerry,Washington,Ferry,2021-01-05 06:21:45.135516,2021-01-10 00:00:00.000000,0.92249180,1.94161900,4.44110950,70,148,338,39,96,263,0.52187910,1.26202788,3.45556005,0.15296291,0.31907236,0.59692909
53019,0,USWashingtonFerry,Washington,Ferry,2021-01-05 06:21:45.135516,2021-01-11 00:00:00.000000,0.86324045,1.87900643,4.24110743,65,143,323,37,90,256,0.49033463,1.19066453,3.36126635,0.15296455,0.31907404,0.59699776
53019,0,USWashingtonFerry,Washington,Ferry,2021-01-05 06:21:45.135516,2021-01-12 00:00:00.000000,0.79600233,1.77530485,4.10804688,60,135,313,35,86,244,0.46069119,1.12874853,3.21128972,0.15296610,0.31907465,0.59702826
53019,0,USWashingtonFerry,Washington,Ferry,2021-01-05 06:21:45.135516,2021-01-13 00:00:00.000000,0.74652193,1.67440215,4.00088369,56,127,305,33,81,233,0.43520604,1.07198169,3.06727244,0.15296718,0.31907487,0.59704194
53019,0,USWashingtonFerry,Washington,Ferry,2021-01-05 06:21:45.135516,2021-01-14 00:00:00.000000,0.70008207,1.60686212,3.89468482,53,122,297,31,78,223,0.41360371,1.02893322,2.92862932,0.15296788,0.31907496,0.59704812
53019,0,USWashingtonFerry,Washington,Ferry,2021-01-05 06:21:45.135516,2021-01-15 00:00:00.000000,0.65650027,1.53645934,3.78965054,50,117,289,30,74,213,0.40106357,0.97739922,2.79483238,0.15296833,0.31907500,0.59705092
53019,0,USWashingtonFerry,Washington,Ferry,2021-01-05 06:21:45.135516,2021-01-16 00:00:00.000000,0.61248836,1.44804801,3.77114015,46,110,287,29,70,203,0.38769725,0.92827496,2.66671598,0.15296862,0.31907502,0.59705219
53019,0,USWashingtonFerry,Washington,Ferry,2021-01-05 06:21:45.135516,2021-01-17 00:00:00.000000,0.55510703,1.38268747,3.92379791,42,105,299,26,66,194,0.35369947,0.87750562,2.54411017,0.15296880,0.31907503,0.59705277
