FIPS,HR_UID,nameid,province,region,analysisTime,dates,pointprevalence_025,pointprevalence_50,pointprevalence_975,pointinfections_025,pointinfections_50,pointinfections_975,pointinfectious_025,pointinfectious_50,pointinfectious_975,pointinfectiousprevalence_05,pointinfectiousprevalence_50,pointinfectiousprevalence_95,infectrate_025,infectrate_50,infectrate_975
0,0,Maldives,,,2021-01-05 03:48:12.183018,2020-03-09 00:00:00.000000,0.00019896,0.00081850,0.00167978,1,4,9,0,1,3,0.00006426,0.00027225,0.00073495,0.56879506,0.75328526,1.00167338
0,0,Maldives,,,2021-01-05 03:48:12.183018,2020-03-10 00:00:00.000000,0.00028977,0.00109572,0.00206707,1,5,11,0,1,4,0.00008989,0.00036054,0.00086984,0.56879937,0.75282246,1.00167275
0,0,Maldives,,,2021-01-05 03:48:12.183018,2020-03-11 00:00:00.000000,0.00039194,0.00143879,0.00248839,2,7,13,0,2,5,0.00013053,0.00049138,0.00103322,0.56880921,0.75189501,1.00167108
0,0,Maldives,,,2021-01-05 03:48:12.183018,2020-03-12 00:00:00.000000,0.00050766,0.00179520,0.00308778,2,9,16,0,3,6,0.00018140,0.00063983,0.00122031,0.56883191,0.75044940,1.00166645
0,0,Maldives,,,2021-01-05 03:48:12.183018,2020-03-13 00:00:00.000000,0.00063913,0.00225242,0.00360886,3,12,19,1,4,7,0.00024109,0.00079577,0.00144480,0.56888467,0.75001632,1.00165322
0,0,Maldives,,,2021-01-05 03:48:12.183018,2020-03-14 00:00:00.000000,0.00078867,0.00268475,0.00426916,4,14,23,1,5,9,0.00030693,0.00098343,0.00170082,0.56900781,0.74951506,1.00161426
0,0,Maldives,,,2021-01-05 03:48:12.183018,2020-03-15 00:00:00.000000,0.00095885,0.00312595,0.00505914,5,16,27,2,6,10,0.00038052,0.00121520,0.00200608,0.56929489,0.74860297,1.00149678
0,0,Maldives,,,2021-01-05 03:48:12.183018,2020-03-16 00:00:00.000000,0.00125524,0.00379649,0.00589803,6,20,31,2,7,12,0.00046400,0.00145456,0.00238766,0.56995722,0.74700709,1.00113821
0,0,Maldives,,,2021-01-05 03:48:12.183018,2020-03-17 00:00:00.000000,0.00157831,0.00442605,0.00705264,8,23,38,3,9,15,0.00060894,0.00174580,0.00283475,0.57144396,0.73967042,1.00005816
0,0,Maldives,,,2021-01-05 03:48:12.183018,2020-03-18 00:00:00.000000,0.00194416,0.00512308,0.00835519,10,27,45,4,11,18,0.00077097,0.00204515,0.00333764,0.59375362,0.73445860,1.00775276
0,0,Maldives,,,2021-01-05 03:48:12.183018,2020-03-19 00:00:00.000000,0.00235570,0.00590675,0.00982170,12,31,53,5,12,21,0.00096012,0.00238254,0.00393947,0.58568624,0.73606737,0.99157491
0,0,Maldives,,,2021-01-05 03:48:12.183018,2020-03-20 00:00:00.000000,0.00281538,0.00674087,0.01143248,15,36,61,6,14,25,0.00113804,0.00277444,0.00469877,0.57244678,0.72527650,0.98332245
0,0,Maldives,,,2021-01-05 03:48:12.183018,2020-03-21 00:00:00.000000,0.00333161,0.00772135,0.01308445,18,41,70,7,17,29,0.00133258,0.00325769,0.00551068,0.56412610,0.72663129,1.03785202
0,0,Maldives,,,2021-01-05 03:48:12.183018,2020-03-22 00:00:00.000000,0.00391424,0.00880668,0.01472571,21,47,79,8,20,34,0.00156010,0.00373164,0.00638195,0.55227110,0.72958609,1.03996535
0,0,Maldives,,,2021-01-05 03:48:12.183018,2020-03-23 00:00:00.000000,0.00468650,0.01034405,0.01622411,25,55,87,10,23,39,0.00186888,0.00429258,0.00729249,0.53442262,0.72667034,1.09345067
0,0,Maldives,,,2021-01-05 03:48:12.183018,2020-03-24 00:00:00.000000,0.00530457,0.01205301,0.01906992,28,65,103,12,26,44,0.00225476,0.00493037,0.00830937,0.52962981,0.72421091,1.12420968
0,0,Maldives,,,2021-01-05 03:48:12.183018,2020-03-25 00:00:00.000000,0.00633218,0.01394325,0.02151048,34,75,116,14,30,51,0.00272958,0.00565451,0.00946182,0.53185558,0.71885317,1.12815954
0,0,Maldives,,,2021-01-05 03:48:12.183018,2020-03-26 00:00:00.000000,0.00755978,0.01590679,0.02443110,40,85,132,17,35,58,0.00320008,0.00655473,0.01088777,0.53793243,0.73044055,1.11426001
0,0,Maldives,,,2021-01-05 03:48:12.183018,2020-03-27 00:00:00.000000,0.00884809,0.01821004,0.02781105,47,98,150,20,40,68,0.00385068,0.00746590,0.01266010,0.54709752,0.73570721,1.08271677
0,0,Maldives,,,2021-01-05 03:48:12.183018,2020-03-28 00:00:00.000000,0.01029294,0.02062625,0.03146741,55,111,170,24,46,79,0.00445048,0.00857579,0.01465605,0.56302583,0.74253469,1.09161631
0,0,Maldives,,,2021-01-05 03:48:12.183018,2020-03-29 00:00:00.000000,0.01198402,0.02351796,0.03545656,64,127,191,28,53,90,0.00522894,0.00982302,0.01672547,0.57318830,0.75098933,1.11490164
0,0,Maldives,,,2021-01-05 03:48:12.183018,2020-03-30 00:00:00.000000,0.01393840,0.02634750,0.03993359,75,142,215,33,60,102,0.00618131,0.01122249,0.01899001,0.58555618,0.76053823,1.12825066
0,0,Maldives,,,2021-01-05 03:48:12.183018,2020-03-31 00:00:00.000000,0.01622282,0.03028201,0.04538783,87,163,245,38,69,116,0.00718876,0.01284201,0.02149266,0.59587933,0.77939667,1.17744815
0,0,Maldives,,,2021-01-05 03:48:12.183018,2020-04-01 00:00:00.000000,0.01909792,0.03441602,0.05204046,103,186,281,45,78,131,0.00836252,0.01460490,0.02424530,0.60100038,0.80165263,1.20911042
0,0,Maldives,,,2021-01-05 03:48:12.183018,2020-04-02 00:00:00.000000,0.02248957,0.03970498,0.05801768,121,214,313,52,90,147,0.00971867,0.01667794,0.02730809,0.63263620,0.80010482,1.19372707
0,0,Maldives,,,2021-01-05 03:48:12.183018,2020-04-03 00:00:00.000000,0.02631583,0.04516994,0.06416864,142,244,346,60,102,166,0.01126825,0.01892288,0.03072414,0.63437134,0.81450599,1.14027505
0,0,Maldives,,,2021-01-05 03:48:12.183018,2020-04-04 00:00:00.000000,0.03067991,0.05134046,0.07176940,165,277,387,70,115,186,0.01302587,0.02145756,0.03454268,0.65034822,0.82179019,1.10156178
0,0,Maldives,,,2021-01-05 03:48:12.183018,2020-04-05 00:00:00.000000,0.03569452,0.05896337,0.08083193,192,318,436,80,132,207,0.01498177,0.02443428,0.03836038,0.65976394,0.85046605,1.14778823
0,0,Maldives,,,2021-01-05 03:48:12.183018,2020-04-06 00:00:00.000000,0.04134187,0.06733368,0.09245100,223,363,499,91,150,230,0.01693707,0.02777313,0.04255485,0.68115295,0.85888023,1.16253881
0,0,Maldives,,,2021-01-05 03:48:12.183018,2020-04-07 00:00:00.000000,0.04740595,0.07719486,0.10753110,256,417,581,104,171,256,0.01935105,0.03163498,0.04749567,0.70050712,0.86021107,1.17043116
0,0,Maldives,,,2021-01-05 03:48:12.183018,2020-04-08 00:00:00.000000,0.05367396,0.08764466,0.12487573,290,473,675,120,195,290,0.02220340,0.03609936,0.05369193,0.70964958,0.86726681,1.18172677
0,0,Maldives,,,2021-01-05 03:48:12.183018,2020-04-09 00:00:00.000000,0.06090291,0.09974875,0.14484567,329,539,782,137,225,332,0.02542176,0.04168869,0.06145669,0.71196988,0.87054453,1.11890599
0,0,Maldives,,,2021-01-05 03:48:12.183018,2020-04-10 00:00:00.000000,0.07031873,0.11420333,0.16784644,380,617,907,157,260,385,0.02906528,0.04820968,0.07133178,0.71695494,0.88163727,1.09021038
0,0,Maldives,,,2021-01-05 03:48:12.183018,2020-04-11 00:00:00.000000,0.08122749,0.13022869,0.19434020,439,703,1050,179,299,439,0.03319565,0.05540732,0.08136811,0.71877979,0.88849803,1.12895089
0,0,Maldives,,,2021-01-05 03:48:12.183018,2020-04-12 00:00:00.000000,0.09366403,0.14854108,0.22485632,506,802,1215,204,341,500,0.03788039,0.06324087,0.09266658,0.73523618,0.89867209,1.18478219
0,0,Maldives,,,2021-01-05 03:48:12.183018,2020-04-13 00:00:00.000000,0.10805753,0.16981617,0.25923507,584,917,1401,233,391,585,0.04319481,0.07235733,0.10829016,0.74430388,0.90095406,1.20086333
0,0,Maldives,,,2021-01-05 03:48:12.183018,2020-04-14 00:00:00.000000,0.12453384,0.19363327,0.29894111,673,1046,1615,265,448,684,0.04920602,0.08303755,0.12666526,0.74658015,0.90457518,1.20313601
0,0,Maldives,,,2021-01-05 03:48:12.183018,2020-04-15 00:00:00.000000,0.14106911,0.22092508,0.34234152,762,1194,1850,302,513,800,0.05601704,0.09491797,0.14816233,0.74374909,0.90704287,1.20343238
0,0,Maldives,,,2021-01-05 03:48:12.183018,2020-04-16 00:00:00.000000,0.15945681,0.25243842,0.39134740,861,1364,2115,344,584,925,0.06373906,0.10819750,0.17112682,0.73431242,0.90644234,1.18325787
0,0,Maldives,,,2021-01-05 03:48:12.183018,2020-04-17 00:00:00.000000,0.18427728,0.28985254,0.44859274,996,1566,2424,391,669,1067,0.07249565,0.12377020,0.19745378,0.73475056,0.91047245,1.14722495
0,0,Maldives,,,2021-01-05 03:48:12.183018,2020-04-18 00:00:00.000000,0.21086441,0.33259900,0.51556507,1139,1797,2786,445,776,1231,0.08242602,0.14371780,0.22776920,0.73261836,0.90387866,1.09462507
0,0,Maldives,,,2021-01-05 03:48:12.183018,2020-04-19 00:00:00.000000,0.23958402,0.37961197,0.58561665,1295,2051,3165,506,887,1419,0.09368874,0.16414005,0.26261832,0.69185918,0.89678383,1.01989503
0,0,Maldives,,,2021-01-05 03:48:12.183018,2020-04-20 00:00:00.000000,0.27315783,0.43479926,0.66059811,1476,2350,3570,575,1017,1635,0.10646683,0.18822720,0.30264781,0.65564101,0.88320267,0.99881140
0,0,Maldives,,,2021-01-05 03:48:12.183018,2020-04-21 00:00:00.000000,0.31045619,0.49633039,0.74344210,1678,2682,4018,655,1169,1859,0.12119865,0.21641249,0.34393402,0.65017182,0.86245021,1.00381548
0,0,Maldives,,,2021-01-05 03:48:12.183018,2020-04-22 00:00:00.000000,0.35140296,0.57215322,0.83461024,1899,3092,4511,745,1349,2089,0.13800684,0.24957177,0.38654844,0.62039800,0.84917927,1.00178506
0,0,Maldives,,,2021-01-05 03:48:12.183018,2020-04-23 00:00:00.000000,0.39647506,0.65497923,0.92699095,2143,3540,5010,849,1542,2341,0.15710617,0.28533325,0.43319617,0.59386059,0.83657264,0.98467349
0,0,Maldives,,,2021-01-05 03:48:12.183018,2020-04-24 00:00:00.000000,0.44520344,0.74261266,1.03059344,2406,4014,5570,966,1759,2663,0.17877263,0.32549108,0.49271544,0.57566494,0.81819085,0.96445927
0,0,Maldives,,,2021-01-05 03:48:12.183018,2020-04-25 00:00:00.000000,0.50568791,0.83482483,1.12713561,2733,4512,6092,1099,1985,3014,0.20333243,0.36731372,0.55759092,0.53207424,0.79139327,0.92497435
0,0,Maldives,,,2021-01-05 03:48:12.183018,2020-04-26 00:00:00.000000,0.54972412,0.92911995,1.24816341,2971,5022,6746,1249,2241,3392,0.23106539,0.41476058,0.62768559,0.48105799,0.73681302,0.91424489
0,0,Maldives,,,2021-01-05 03:48:12.183018,2020-04-27 00:00:00.000000,0.58235956,1.01376067,1.41699306,3147,5479,7659,1384,2484,3718,0.25621757,0.45967275,0.68794446,0.46009201,0.65537411,0.91214531
0,0,Maldives,,,2021-01-05 03:48:12.183018,2020-04-28 00:00:00.000000,0.61557411,1.10256421,1.54366167,3327,5959,8344,1472,2726,4045,0.27243401,0.50432884,0.74846901,0.43370960,0.58009772,0.90862552
0,0,Maldives,,,2021-01-05 03:48:12.183018,2020-04-29 00:00:00.000000,0.64101849,1.17400683,1.70608948,3464,6346,9222,1552,2986,4410,0.28726109,0.55251650,0.81592794,0.35638376,0.51857797,0.86920886
0,0,Maldives,,,2021-01-05 03:48:12.183018,2020-04-30 00:00:00.000000,0.65186337,1.22493173,1.76563285,3523,6621,9543,1627,3270,4800,0.30109512,0.60498843,0.88809215,0.32099704,0.46015918,0.71666767
0,0,Maldives,,,2021-01-05 03:48:12.183018,2020-05-01 00:00:00.000000,0.65870112,1.27012888,1.83523868,3560,6865,9920,1706,3516,5146,0.31567218,0.65051745,0.95215586,0.29153114,0.40752688,0.62001208
0,0,Maldives,,,2021-01-05 03:48:12.183018,2020-05-02 00:00:00.000000,0.66344900,1.29872745,1.89043143,3586,7020,10218,1757,3684,5431,0.32514417,0.68155944,1.00484149,0.26559742,0.37324911,0.51400434
0,0,Maldives,,,2021-01-05 03:48:12.183018,2020-05-03 00:00:00.000000,0.67134476,1.32672673,1.92327330,3628,7171,10396,1804,3810,5682,0.33376660,0.70500237,1.05118091,0.25001996,0.34735034,0.43400931
0,0,Maldives,,,2021-01-05 03:48:12.183018,2020-05-04 00:00:00.000000,0.68626028,1.35716979,1.94479927,3709,7336,10512,1848,3892,5887,0.34199336,0.72019423,1.08910957,0.24365909,0.32997143,0.42097997
0,0,Maldives,,,2021-01-05 03:48:12.183018,2020-05-05 00:00:00.000000,0.70056365,1.37347647,1.95840896,3786,7424,10586,1882,3986,6039,0.34822988,0.73746993,1.11734748,0.22781596,0.31856852,0.40067481
0,0,Maldives,,,2021-01-05 03:48:12.183018,2020-05-06 00:00:00.000000,0.71292469,1.38424703,1.97705730,3853,7482,10686,1908,4096,6150,0.35307992,0.75789131,1.13783445,0.22332402,0.31268384,0.39050732
0,0,Maldives,,,2021-01-05 03:48:12.183018,2020-05-07 00:00:00.000000,0.72112966,1.38852253,1.97824718,3898,7505,10693,1928,4198,6225,0.35685137,0.77663963,1.15169812,0.21856405,0.29488105,0.37582530
0,0,Maldives,,,2021-01-05 03:48:12.183018,2020-05-08 00:00:00.000000,0.72598698,1.40625897,1.96964564,3924,7601,10646,1943,4259,6266,0.35963323,0.78801355,1.15938267,0.20981889,0.28191209,0.36955140
0,0,Maldives,,,2021-01-05 03:48:12.183018,2020-05-09 00:00:00.000000,0.72946865,1.41846643,1.97397295,3943,7667,10670,1953,4291,6276,0.36136957,0.79388597,1.16123784,0.20644584,0.27664490,0.36382304
0,0,Maldives,,,2021-01-05 03:48:12.183018,2020-05-10 00:00:00.000000,0.73235838,1.41325877,1.99443701,3958,7639,10780,1956,4312,6259,0.36193284,0.79772667,1.15793715,0.20350937,0.26995083,0.35307600
0,0,Maldives,,,2021-01-05 03:48:12.183018,2020-05-11 00:00:00.000000,0.73450587,1.40986690,1.98021253,3970,7620,10703,1952,4313,6218,0.36118382,0.79805830,1.15045369,0.20041705,0.27123823,0.33519724
0,0,Maldives,,,2021-01-05 03:48:12.183018,2020-05-12 00:00:00.000000,0.73032945,1.40137573,1.96415036,3947,7575,10617,1940,4342,6160,0.35906449,0.80333026,1.13960981,0.19903633,0.26874031,0.32975350
0,0,Maldives,,,2021-01-05 03:48:12.183018,2020-05-13 00:00:00.000000,0.71785028,1.39175966,1.94069932,3880,7523,10490,1922,4347,6089,0.35559979,0.80436907,1.12651054,0.20499350,0.26420675,0.32568619
0,0,Maldives,,,2021-01-05 03:48:12.183018,2020-05-14 00:00:00.000000,0.70395963,1.38224350,1.91743831,3805,7471,10364,1897,4338,6075,0.35095152,0.80261712,1.12387708,0.20515890,0.25695714,0.32949880
0,0,Maldives,,,2021-01-05 03:48:12.183018,2020-05-15 00:00:00.000000,0.69582932,1.37277348,1.88919018,3761,7420,10211,1867,4316,6069,0.34542059,0.79858160,1.12286898,0.20567577,0.25203665,0.32534778
0,0,Maldives,,,2021-01-05 03:48:12.183018,2020-05-16 00:00:00.000000,0.69883942,1.35970384,1.85387917,3777,7349,10020,1848,4267,5977,0.34188876,0.78951538,1.10585585,0.20473049,0.24907716,0.31722986
0,0,Maldives,,,2021-01-05 03:48:12.183018,2020-05-17 00:00:00.000000,0.70065887,1.34402128,1.80991389,3787,7264,9783,1856,4271,5931,0.34337832,0.79023783,1.09724235,0.20235144,0.24729966,0.32029550
0,0,Maldives,,,2021-01-05 03:48:12.183018,2020-05-18 00:00:00.000000,0.69410488,1.33383278,1.78544291,3751,7209,9651,1863,4235,5906,0.34474192,0.78352919,1.09278766,0.19308689,0.24605730,0.32536513
0,0,Maldives,,,2021-01-05 03:48:12.183018,2020-05-19 00:00:00.000000,0.68407691,1.31505554,1.78268111,3697,7108,9636,1861,4215,5880,0.34436656,0.77992150,1.08796274,0.18743511,0.24113737,0.32619534
0,0,Maldives,,,2021-01-05 03:48:12.183018,2020-05-20 00:00:00.000000,0.67371585,1.29654751,1.77482678,3641,7008,9593,1849,4156,5850,0.34220521,0.76894779,1.08242800,0.18301974,0.23472432,0.32631448
0,0,Maldives,,,2021-01-05 03:48:12.183018,2020-05-21 00:00:00.000000,0.66335700,1.27235929,1.75089271,3585,6877,9464,1831,4085,5812,0.33888045,0.75577173,1.07530736,0.18251325,0.23269834,0.33198864
0,0,Maldives,,,2021-01-05 03:48:12.183018,2020-05-22 00:00:00.000000,0.65324409,1.24976844,1.72763088,3531,6755,9338,1810,4008,5757,0.33485358,0.74158673,1.06511999,0.18366578,0.23053444,0.33019541
0,0,Maldives,,,2021-01-05 03:48:12.183018,2020-05-23 00:00:00.000000,0.64352622,1.22820808,1.71152013,3478,6638,9251,1786,3946,5679,0.33044130,0.73009844,1.05064310,0.17272683,0.22315086,0.32181622
0,0,Maldives,,,2021-01-05 03:48:12.183018,2020-05-24 00:00:00.000000,0.63423791,1.20231886,1.69307570,3428,6499,9151,1761,3874,5589,0.32586036,0.71684037,1.03410323,0.16979788,0.22242340,0.31930365
0,0,Maldives,,,2021-01-05 03:48:12.183018,2020-05-25 00:00:00.000000,0.62514802,1.17520340,1.66183475,3379,6352,8982,1736,3812,5495,0.32125523,0.70537258,1.01675525,0.16906802,0.21592300,0.31275304
0,0,Maldives,,,2021-01-05 03:48:12.183018,2020-05-26 00:00:00.000000,0.61630058,1.14070548,1.62228166,3331,6165,8769,1711,3772,5401,0.31666971,0.69793988,0.99919696,0.16904394,0.21120281,0.31080943
0,0,Maldives,,,2021-01-05 03:48:12.183018,2020-05-27 00:00:00.000000,0.60457830,1.10836028,1.57491447,3267,5991,8513,1687,3677,5302,0.31214512,0.68024905,0.98087387,0.16036211,0.20845675,0.30944918
0,0,Maldives,,,2021-01-05 03:48:12.183018,2020-05-28 00:00:00.000000,0.58195837,1.07397118,1.51992642,3145,5805,8215,1663,3574,5215,0.30767417,0.66130423,0.96484675,0.15616151,0.20399925,0.29871565
0,0,Maldives,,,2021-01-05 03:48:12.183018,2020-05-29 00:00:00.000000,0.56119450,1.03960328,1.46598570,3033,5619,7924,1638,3479,5077,0.30319482,0.64374440,0.93932705,0.14857437,0.19777869,0.29078056
0,0,Maldives,,,2021-01-05 03:48:12.183018,2020-05-30 00:00:00.000000,0.54171482,0.99835277,1.43650662,2928,5396,7764,1613,3371,4946,0.29855298,0.62365664,0.91500842,0.14462255,0.19236765,0.28607826
0,0,Maldives,,,2021-01-05 03:48:12.183018,2020-05-31 00:00:00.000000,0.52327946,0.95947467,1.41812450,2828,5186,7665,1586,3277,4802,0.29344460,0.60641166,0.88841752,0.14440596,0.18932323,0.27449444
0,0,Maldives,,,2021-01-05 03:48:12.183018,2020-06-01 00:00:00.000000,0.50592028,0.92663409,1.39907220,2734,5008,7562,1553,3184,4649,0.28743906,0.58907929,0.86016251,0.14365955,0.18668260,0.26197729
0,0,Maldives,,,2021-01-05 03:48:12.183018,2020-06-02 00:00:00.000000,0.48957627,0.89787935,1.37950856,2646,4853,7456,1514,3076,4491,0.28024274,0.56909451,0.83100929,0.14162134,0.18168079,0.26251048
0,0,Maldives,,,2021-01-05 03:48:12.183018,2020-06-03 00:00:00.000000,0.47436203,0.86512980,1.35870257,2564,4676,7344,1469,2954,4373,0.27186539,0.54654056,0.80910175,0.13953143,0.18080409,0.25159111
0,0,Maldives,,,2021-01-05 03:48:12.183018,2020-06-04 00:00:00.000000,0.46042951,0.82604452,1.33387596,2488,4465,7210,1419,2861,4314,0.26256828,0.52945931,0.79823167,0.13849301,0.18052200,0.25154577
0,0,Maldives,,,2021-01-05 03:48:12.183018,2020-06-05 00:00:00.000000,0.44791552,0.79297473,1.30098104,2421,4286,7032,1365,2725,4228,0.25267383,0.50425866,0.78232585,0.13553830,0.18164174,0.25172769
0,0,Maldives,,,2021-01-05 03:48:12.183018,2020-06-06 00:00:00.000000,0.43686058,0.77155090,1.25580779,2361,4170,6788,1310,2623,4121,0.24246155,0.48525663,0.76248686,0.13154940,0.18285788,0.25190378
0,0,Maldives,,,2021-01-05 03:48:12.183018,2020-06-07 00:00:00.000000,0.41563928,0.74234454,1.21095333,2246,4012,6545,1254,2533,4001,0.23214278,0.46862937,0.74025008,0.12561679,0.18289106,0.26168540
0,0,Maldives,,,2021-01-05 03:48:12.183018,2020-06-08 00:00:00.000000,0.39359918,0.71389959,1.16682356,2127,3858,6307,1199,2464,3874,0.22186864,0.45591864,0.71673892,0.12428104,0.18001088,0.27135272
0,0,Maldives,,,2021-01-05 03:48:12.183018,2020-06-09 00:00:00.000000,0.37266534,0.68906790,1.12382302,2014,3724,6074,1144,2382,3744,0.21174499,0.44070687,0.69267106,0.12520030,0.18146586,0.27408659
0,0,Maldives,,,2021-01-05 03:48:12.183018,2020-06-10 00:00:00.000000,0.35284171,0.66919462,1.08213081,1907,3617,5849,1091,2287,3613,0.20184543,0.42319043,0.66854736,0.12903503,0.18730468,0.27152109
0,0,Maldives,,,2021-01-05 03:48:12.183018,2020-06-11 00:00:00.000000,0.33426000,0.64809773,1.04192827,1806,3503,5632,1039,2203,3484,0.19222361,0.40767864,0.64469740,0.13859711,0.19115339,0.27368166
0,0,Maldives,,,2021-01-05 03:48:12.183018,2020-06-12 00:00:00.000000,0.31759715,0.62574204,1.00346023,1716,3382,5424,988,2143,3358,0.18292531,0.39663382,0.62135313,0.14554109,0.19276896,0.27645131
0,0,Maldives,,,2021-01-05 03:48:12.183018,2020-06-13 00:00:00.000000,0.30481140,0.61335077,0.96703037,1647,3315,5227,940,2090,3236,0.17401358,0.38680512,0.59870679,0.14756274,0.19955652,0.27939704
0,0,Maldives,,,2021-01-05 03:48:12.183018,2020-06-14 00:00:00.000000,0.29662872,0.59734554,0.93434908,1603,3228,5050,895,2029,3118,0.16564943,0.37543859,0.57694296,0.15045474,0.21035711,0.28178675
0,0,Maldives,,,2021-01-05 03:48:12.183018,2020-06-15 00:00:00.000000,0.28879866,0.57971511,0.91258523,1561,3133,4932,855,1964,3006,0.15823943,0.36334545,0.55621954,0.15818669,0.21999533,0.28547825
0,0,Maldives,,,2021-01-05 03:48:12.183018,2020-06-16 00:00:00.000000,0.28357368,0.56453929,0.88805569,1532,3051,4800,822,1904,2900,0.15220491,0.35235999,0.53663352,0.16270312,0.22617251,0.29185099
0,0,Maldives,,,2021-01-05 03:48:12.183018,2020-06-17 00:00:00.000000,0.28113973,0.55588708,0.86283868,1519,3004,4664,797,1854,2801,0.14754961,0.34314862,0.51823706,0.16328524,0.22875811,0.29888932
0,0,Maldives,,,2021-01-05 03:48:12.183018,2020-06-18 00:00:00.000000,0.28093699,0.54440344,0.83773107,1518,2942,4528,779,1807,2709,0.14427361,0.33437810,0.50117234,0.16479604,0.23587933,0.30204380
0,0,Maldives,,,2021-01-05 03:48:12.183018,2020-06-19 00:00:00.000000,0.27613324,0.53591048,0.81311397,1492,2896,4395,769,1767,2625,0.14226556,0.32699831,0.48576423,0.16628739,0.24820565,0.31994576
0,0,Maldives,,,2021-01-05 03:48:12.183018,2020-06-20 00:00:00.000000,0.26854077,0.52716705,0.79081035,1451,2849,4274,763,1748,2598,0.14116581,0.32348932,0.48077296,0.17851372,0.25215854,0.33679954
0,0,Maldives,,,2021-01-05 03:48:12.183018,2020-06-21 00:00:00.000000,0.26176434,0.51936849,0.78402649,1414,2807,4237,749,1728,2589,0.13872196,0.31968361,0.47908604,0.19042524,0.26220361,0.35625618
0,0,Maldives,,,2021-01-05 03:48:12.183018,2020-06-22 00:00:00.000000,0.25854766,0.51919442,0.78129981,1397,2806,4223,729,1698,2580,0.13498716,0.31417849,0.47746737,0.21050637,0.27458602,0.37391322
0,0,Maldives,,,2021-01-05 03:48:12.183018,2020-06-23 00:00:00.000000,0.26130691,0.52303451,0.78089364,1412,2827,4221,714,1670,2572,0.13225842,0.30911818,0.47589990,0.21455144,0.28718236,0.38817108
0,0,Maldives,,,2021-01-05 03:48:12.183018,2020-06-24 00:00:00.000000,0.26212097,0.52054399,0.78170614,1416,2813,4225,710,1649,2563,0.13152283,0.30522496,0.47433024,0.21674828,0.30351899,0.39440545
0,0,Maldives,,,2021-01-05 03:48:12.183018,2020-06-25 00:00:00.000000,0.25675132,0.52706318,0.78307766,1387,2848,4232,716,1629,2554,0.13250314,0.30142576,0.47259299,0.21943591,0.31187487,0.39619373
0,0,Maldives,,,2021-01-05 03:48:12.183018,2020-06-26 00:00:00.000000,0.25552258,0.52688201,0.78465426,1381,2848,4241,727,1626,2543,0.13455268,0.30086844,0.47052282,0.23540892,0.33000512,0.42912105
0,0,Maldives,,,2021-01-05 03:48:12.183018,2020-06-27 00:00:00.000000,0.26059669,0.53150458,0.78883656,1408,2873,4263,741,1633,2530,0.13722746,0.30225744,0.46812622,0.24051562,0.34525184,0.44791024
0,0,Maldives,,,2021-01-05 03:48:12.183018,2020-06-28 00:00:00.000000,0.26629979,0.54209336,0.79908424,1439,2930,4319,758,1637,2524,0.14027605,0.30298743,0.46701279,0.24621039,0.35245857,0.45441383
0,0,Maldives,,,2021-01-05 03:48:12.183018,2020-06-29 00:00:00.000000,0.27357664,0.55420251,0.81793271,1478,2995,4421,768,1652,2550,0.14216510,0.30579831,0.47175346,0.26555173,0.36485662,0.46972945
0,0,Maldives,,,2021-01-05 03:48:12.183018,2020-06-30 00:00:00.000000,0.28156769,0.57014573,0.84502581,1521,3081,4567,780,1674,2583,0.14443031,0.30978911,0.47794455,0.27270165,0.38097124,0.46877090
0,0,Maldives,,,2021-01-05 03:48:12.183018,2020-07-01 00:00:00.000000,0.29082252,0.59220698,0.87709100,1572,3201,4741,800,1707,2669,0.14802277,0.31591647,0.49392419,0.27574281,0.39945844,0.49892362
0,0,Maldives,,,2021-01-05 03:48:12.183018,2020-07-02 00:00:00.000000,0.30286841,0.61156297,0.91015243,1637,3305,4919,828,1747,2764,0.15320641,0.32323139,0.51144181,0.27736440,0.40703255,0.53180627
0,0,Maldives,,,2021-01-05 03:48:12.183018,2020-07-03 00:00:00.000000,0.31932182,0.63206127,0.94342399,1726,3416,5099,864,1791,2865,0.15990239,0.33139551,0.53008764,0.27953632,0.41262604,0.54803587
0,0,Maldives,,,2021-01-05 03:48:12.183018,2020-07-04 00:00:00.000000,0.33698319,0.65012179,0.96901271,1821,3514,5237,904,1856,2969,0.16726651,0.34339995,0.54942687,0.29035878,0.42635382,0.56911552
0,0,Maldives,,,2021-01-05 03:48:12.183018,2020-07-05 00:00:00.000000,0.35927704,0.67485766,0.99014705,1942,3647,5352,946,1918,3074,0.17519438,0.35488568,0.56874280,0.32010014,0.43864387,0.57947431
0,0,Maldives,,,2021-01-05 03:48:12.183018,2020-07-06 00:00:00.000000,0.38489977,0.70332919,1.01523941,2080,3801,5487,986,2016,3173,0.18245710,0.37304824,0.58705603,0.34684256,0.44576033,0.60474287
0,0,Maldives,,,2021-01-05 03:48:12.183018,2020-07-07 00:00:00.000000,0.41342277,0.74368267,1.05072911,2234,4019,5679,1028,2102,3264,0.19027059,0.38904895,0.60389064,0.34218606,0.44962795,0.61799196
0,0,Maldives,,,2021-01-05 03:48:12.183018,2020-07-08 00:00:00.000000,0.44448472,0.78050362,1.07358920,2402,4218,5803,1075,2170,3348,0.19895179,0.40158141,0.61943138,0.33986712,0.45600612,0.62406705
0,0,Maldives,,,2021-01-05 03:48:12.183018,2020-07-09 00:00:00.000000,0.47369953,0.82017659,1.10770965,2560,4433,5987,1127,2236,3427,0.20852963,0.41377032,0.63413319,0.33971138,0.46717385,0.60546177
0,0,Maldives,,,2021-01-05 03:48:12.183018,2020-07-10 00:00:00.000000,0.49937532,0.86109571,1.15335791,2699,4654,6234,1183,2331,3504,0.21902299,0.43126818,0.64841617,0.34056332,0.48033423,0.60038504
0,0,Maldives,,,2021-01-05 03:48:12.183018,2020-07-11 00:00:00.000000,0.52713903,0.89851922,1.20399207,2849,4856,6508,1245,2432,3581,0.23040695,0.44994791,0.66260489,0.34218050,0.49344547,0.60529118
0,0,Maldives,,,2021-01-05 03:48:12.183018,2020-07-12 00:00:00.000000,0.55709579,0.93524566,1.28674860,3011,5055,6955,1311,2541,3695,0.24270748,0.47008887,0.68368694,0.34455081,0.50214570,0.61059872
0,0,Maldives,,,2021-01-05 03:48:12.183018,2020-07-13 00:00:00.000000,0.58865433,0.97685053,1.38138567,3181,5280,7466,1383,2698,3883,0.25596218,0.49921778,0.71839649,0.34770645,0.50645640,0.60427131
0,0,Maldives,,,2021-01-05 03:48:12.183018,2020-07-14 00:00:00.000000,0.62229199,1.02456071,1.47896690,3363,5538,7994,1459,2851,4119,0.27009792,0.52750122,0.76218485,0.35304270,0.50918867,0.60919020
0,0,Maldives,,,2021-01-05 03:48:12.183018,2020-07-15 00:00:00.000000,0.65817613,1.08303630,1.57946112,3557,5854,8537,1541,2998,4303,0.28517584,0.55478015,0.79620308,0.36706836,0.51228399,0.61807067
0,0,Maldives,,,2021-01-05 03:48:12.183018,2020-07-16 00:00:00.000000,0.69109186,1.13964460,1.66642779,3735,6160,9007,1628,3155,4548,0.30131976,0.58375393,0.84152966,0.37703660,0.51344206,0.61452343
0,0,Maldives,,,2021-01-05 03:48:12.183018,2020-07-17 00:00:00.000000,0.72926733,1.21080418,1.75757062,3941,6544,9500,1724,3298,4804,0.31896033,0.61025213,0.88879307,0.41773888,0.51429853,0.61821795
0,0,Maldives,,,2021-01-05 03:48:12.183018,2020-07-18 00:00:00.000000,0.77025661,1.28761437,1.85307805,4163,6960,10016,1831,3497,5070,0.33884614,0.64695777,0.93808644,0.44361388,0.52101545,0.61795631
0,0,Maldives,,,2021-01-05 03:48:12.183018,2020-07-19 00:00:00.000000,0.81420900,1.36693148,1.95324793,4401,7388,10558,1952,3687,5349,0.36120403,0.68217809,0.98961647,0.46353997,0.53521231,0.64580847
0,0,Maldives,,,2021-01-05 03:48:12.183018,2020-07-20 00:00:00.000000,0.88403773,1.45170049,2.05968913,4778,7847,11133,2086,3887,5639,0.38595217,0.71911883,1.04337023,0.45567561,0.54547250,0.68261021
0,0,Maldives,,,2021-01-05 03:48:12.183018,2020-07-21 00:00:00.000000,0.96728153,1.54115650,2.19126580,5228,8330,11844,2231,4111,5965,0.41281191,0.76069597,1.10353526,0.44672425,0.55802751,0.69910653
0,0,Maldives,,,2021-01-05 03:48:12.183018,2020-07-22 00:00:00.000000,1.04692915,1.63366692,2.35130056,5659,8830,12709,2387,4348,6392,0.44165652,0.80454599,1.18270040,0.44284179,0.56888337,0.70306446
0,0,Maldives,,,2021-01-05 03:48:12.183018,2020-07-23 00:00:00.000000,1.11738150,1.73941326,2.51858479,6039,9402,13614,2553,4623,6770,0.47237741,0.85535640,1.25249791,0.44304721,0.57170419,0.70079381
0,0,Maldives,,,2021-01-05 03:48:12.183018,2020-07-24 00:00:00.000000,1.19021227,1.86194668,2.68521453,6433,10064,14514,2728,4948,7244,0.50482410,0.91539341,1.34019112,0.44668287,0.57070203,0.72985895
0,0,Maldives,,,2021-01-05 03:48:12.183018,2020-07-25 00:00:00.000000,1.26496658,1.99205786,2.80681618,6837,10767,15172,2912,5349,7826,0.53879274,0.98957024,1.44787131,0.44820410,0.56640125,0.74063473
0,0,Maldives,,,2021-01-05 03:48:12.183018,2020-07-26 00:00:00.000000,1.33076396,2.13899287,2.95452964,7193,11562,15970,3103,5731,8329,0.57408023,1.06026013,1.54094969,0.42647935,0.55460009,0.71585065
0,0,Maldives,,,2021-01-05 03:48:12.183018,2020-07-27 00:00:00.000000,1.39511800,2.28255697,3.10309374,7541,12338,16773,3300,6101,8842,0.61057348,1.12871156,1.63588348,0.43986258,0.54233696,0.68775829
0,0,Maldives,,,2021-01-05 03:48:12.183018,2020-07-28 00:00:00.000000,1.45768212,2.42605678,3.25950714,7879,13113,17619,3505,6456,9324,0.64844756,1.19447928,1.72496617,0.40406373,0.53479432,0.67632209
0,0,Maldives,,,2021-01-05 03:48:12.183018,2020-07-29 00:00:00.000000,1.51768891,2.58857163,3.54953172,8203,13992,19186,3717,6856,9877,0.68776392,1.26836882,1.82734363,0.38327222,0.52531403,0.66300753
0,0,Maldives,,,2021-01-05 03:48:12.183018,2020-07-30 00:00:00.000000,1.57600793,2.73777925,3.79660641,8518,14798,20522,3938,7317,10419,0.72862870,1.35374164,1.92759560,0.37151110,0.49895882,0.65155625
0,0,Maldives,,,2021-01-05 03:48:12.183018,2020-07-31 00:00:00.000000,1.63340458,2.87401541,3.96854108,8829,15535,21451,4168,7807,10946,0.77109544,1.44440435,2.02514627,0.35890894,0.47462264,0.63753026
0,0,Maldives,,,2021-01-05 03:48:12.183018,2020-08-01 00:00:00.000000,1.69064748,2.97484291,4.07886406,9138,16080,22047,4405,8181,11462,0.81506018,1.51351584,2.12051224,0.34850196,0.45030342,0.62903905
0,0,Maldives,,,2021-01-05 03:48:12.183018,2020-08-02 00:00:00.000000,1.74830450,3.05829193,4.19733730,9450,16531,22688,4649,8581,11968,0.86017040,1.58759402,2.21422371,0.33869371,0.42688667,0.58897363
0,0,Maldives,,,2021-01-05 03:48:12.183018,2020-08-03 00:00:00.000000,1.80726372,3.15096933,4.37891382,9769,17032,23669,4896,8993,12452,0.90579798,1.66374419,2.30377589,0.32947144,0.41241462,0.52862884
0,0,Maldives,,,2021-01-05 03:48:12.183018,2020-08-04 00:00:00.000000,1.86736465,3.24130623,4.44424202,10093,17520,24022,5140,9425,12865,0.95090301,1.74378672,2.38007768,0.31815497,0.39799721,0.52045204
0,0,Maldives,,,2021-01-05 03:48:12.183018,2020-08-05 00:00:00.000000,1.91360937,3.36144279,4.50253152,10343,18170,24338,5164,9713,13247,0.95551079,1.79695351,2.45086319,0.30788466,0.39230697,0.49135848
0,0,Maldives,,,2021-01-05 03:48:12.183018,2020-08-06 00:00:00.000000,1.91287000,3.47104600,4.55418584,10339,18762,24617,5175,9976,13588,0.95739385,1.84569379,2.51381826,0.30663400,0.38080669,0.45000096
0,0,Maldives,,,2021-01-05 03:48:12.183018,2020-08-07 00:00:00.000000,1.91207662,3.50747122,4.61632793,10335,18959,24953,5178,10237,13882,0.95805796,1.89400836,2.56822004,0.30717503,0.36836918,0.44930490
0,0,Maldives,,,2021-01-05 03:48:12.183018,2020-08-08 00:00:00.000000,1.91143924,3.53669571,4.65368344,10332,19117,25155,5179,10457,14133,0.95812061,1.93466706,2.61475319,0.29829054,0.35742931,0.43548695
0,0,Maldives,,,2021-01-05 03:48:12.183018,2020-08-09 00:00:00.000000,1.91108337,3.56835880,4.71101945,10330,19288,25465,5178,10644,14338,0.95795577,1.96916254,2.65257911,0.27581705,0.35526329,0.42377615
0,0,Maldives,,,2021-01-05 03:48:12.183018,2020-08-10 00:00:00.000000,1.91114554,3.58430490,4.80905801,10330,19374,25994,5177,10806,14593,0.95776792,1.99928240,2.69978398,0.26803269,0.35473541,0.41389122
0,0,Maldives,,,2021-01-05 03:48:12.183018,2020-08-11 00:00:00.000000,1.91161865,3.56549649,4.86434019,10333,19273,26293,5176,10887,14856,0.95767674,2.01422968,2.74852123,0.26583284,0.35511698,0.41046199
0,0,Maldives,,,2021-01-05 03:48:12.183018,2020-08-12 00:00:00.000000,1.91290170,3.57212598,4.91578779,10340,19308,26571,5176,10923,14952,0.95773370,2.02090212,2.76620281,0.26799253,0.35314216,0.40853361
0,0,Maldives,,,2021-01-05 03:48:12.183018,2020-08-13 00:00:00.000000,1.91616984,3.58398192,4.96385867,10357,19372,26831,5178,10983,15071,0.95805485,2.03198259,2.78816129,0.27308961,0.34446392,0.41017924
0,0,Maldives,,,2021-01-05 03:48:12.183018,2020-08-14 00:00:00.000000,1.92346274,3.60251663,5.00864595,10397,19473,27073,5183,11065,15154,0.95898146,2.04701950,2.80364243,0.27473113,0.34010047,0.40962002
0,0,Maldives,,,2021-01-05 03:48:12.183018,2020-08-15 00:00:00.000000,1.93573529,3.62169474,5.05013087,10463,19576,27298,5195,11146,15214,0.96117882,2.06207460,2.81465312,0.27380739,0.33802658,0.41129805
0,0,Maldives,,,2021-01-05 03:48:12.183018,2020-08-16 00:00:00.000000,1.95139536,3.62930371,5.07601035,10548,19617,27437,5217,11186,15459,0.96520393,2.06948058,2.86000162,0.26930829,0.33760008,0.41360375
0,0,Maldives,,,2021-01-05 03:48:12.183018,2020-08-17 00:00:00.000000,1.96823509,3.65173432,5.07452982,10639,19739,27429,5248,11185,15710,0.97091910,2.06931151,2.90636964,0.26706877,0.33743417,0.41204628
0,0,Maldives,,,2021-01-05 03:48:12.183018,2020-08-18 00:00:00.000000,1.98522740,3.68879533,5.06462788,10730,19939,27376,5285,11262,15963,0.97778327,2.08350348,2.95329690,0.26053477,0.33789328,0.41227432
0,0,Maldives,,,2021-01-05 03:48:12.183018,2020-08-19 00:00:00.000000,2.00178632,3.72507818,5.04783646,10820,20135,27285,5325,11237,16207,0.98529741,2.07899910,2.99841804,0.26043463,0.33764358,0.41238956
0,0,Maldives,,,2021-01-05 03:48:12.183018,2020-08-20 00:00:00.000000,2.01617503,3.72116001,5.08960220,10898,20114,27511,5367,11308,16334,0.99303062,2.09212603,3.02183769,0.26019674,0.33634753,0.41061719
0,0,Maldives,,,2021-01-05 03:48:12.183018,2020-08-21 00:00:00.000000,2.02342167,3.71280437,5.12738828,10937,20069,27715,5407,11312,16450,1.00035772,2.09287777,3.04336047,0.26372321,0.33251765,0.40502578
0,0,Maldives,,,2021-01-05 03:48:12.183018,2020-08-22 00:00:00.000000,2.01814856,3.70574356,5.14545408,10908,20031,27813,5436,11305,16554,1.00579722,2.09143831,3.06265906,0.26250385,0.32979358,0.40010007
0,0,Maldives,,,2021-01-05 03:48:12.183018,2020-08-23 00:00:00.000000,2.00402237,3.71526824,5.10839483,10832,20082,27613,5444,11337,16624,1.00730302,2.09741949,3.07553387,0.24395693,0.32677329,0.39290426
0,0,Maldives,,,2021-01-05 03:48:12.183018,2020-08-24 00:00:00.000000,1.98617637,3.71628392,5.01607314,10736,20088,27113,5430,11334,16627,1.00462997,2.09680553,3.07599793,0.22909784,0.32033757,0.38574657
0,0,Maldives,,,2021-01-05 03:48:12.183018,2020-08-25 00:00:00.000000,1.96636338,3.70591899,4.96014945,10629,20032,26811,5399,11297,16564,0.99891446,2.08997293,3.06448247,0.22196792,0.31221923,0.37486659
0,0,Maldives,,,2021-01-05 03:48:12.183018,2020-08-26 00:00:00.000000,1.94520130,3.68140883,4.88431206,10514,19899,26401,5357,11252,16455,0.99121336,2.08172369,3.04419094,0.21263693,0.30335674,0.37462700
0,0,Maldives,,,2021-01-05 03:48:12.183018,2020-08-27 00:00:00.000000,1.92278229,3.63568447,4.78148717,10393,19652,25845,5309,11156,16312,0.98220971,2.06401247,3.01782771,0.20050472,0.29690040,0.36796759
0,0,Maldives,,,2021-01-05 03:48:12.183018,2020-08-28 00:00:00.000000,1.89885653,3.56165664,4.67253707,10264,19252,25257,5255,11036,16147,0.97226011,2.04176019,2.98729511,0.19801932,0.28981876,0.34917205
0,0,Maldives,,,2021-01-05 03:48:12.183018,2020-08-29 00:00:00.000000,1.87286450,3.44051282,4.56051015,10123,18597,24651,5197,10920,15966,0.96147510,2.02035919,2.95388361,0.19169495,0.28484760,0.34925465
0,0,Maldives,,,2021-01-05 03:48:12.183018,2020-08-30 00:00:00.000000,1.84399892,3.36902899,4.44703281,9967,18211,24038,5133,10760,15740,0.94976965,1.99070908,2.91205454,0.18858567,0.27628245,0.33659151
0,0,Maldives,,,2021-01-05 03:48:12.183018,2020-08-31 00:00:00.000000,1.81122708,3.30787979,4.33324605,9790,17880,23423,5064,10545,15458,0.93690162,1.95087732,2.85989515,0.19010344,0.26960877,0.33344567
0,0,Maldives,,,2021-01-05 03:48:12.183018,2020-09-01 00:00:00.000000,1.77475198,3.23588802,4.22799872,9593,17491,22854,4986,10333,15180,0.92249428,1.91175256,2.80841164,0.18815713,0.26535019,0.33108443
0,0,Maldives,,,2021-01-05 03:48:12.183018,2020-09-02 00:00:00.000000,1.73591565,3.15933855,4.14455171,9383,17077,22403,4899,10170,14935,0.90638346,1.88159230,2.76312192,0.18937577,0.26203886,0.32800789
0,0,Maldives,,,2021-01-05 03:48:12.183018,2020-09-03 00:00:00.000000,1.69559532,3.07946677,4.05978990,9165,16645,21944,4804,9991,14625,0.88875261,1.84838161,2.70569562,0.19103467,0.25974934,0.32424459
0,0,Maldives,,,2021-01-05 03:48:12.183018,2020-09-04 00:00:00.000000,1.65284811,2.99593311,3.97379969,8934,16194,21480,4701,9850,14144,0.86985439,1.82232149,2.61681206,0.19299814,0.25977042,0.32407687
0,0,Maldives,,,2021-01-05 03:48:12.183018,2020-09-05 00:00:00.000000,1.60803324,2.90964016,3.88765425,8692,15727,21014,4593,9596,13708,0.84972501,1.77532632,2.53604375,0.19509329,0.25925585,0.32387605
0,0,Maldives,,,2021-01-05 03:48:12.183018,2020-09-06 00:00:00.000000,1.56198894,2.84752948,3.80229854,8443,15392,20553,4478,9321,13333,0.82845801,1.72450554,2.46665846,0.18942674,0.25679372,0.32285094
0,0,Maldives,,,2021-01-05 03:48:12.183018,2020-09-07 00:00:00.000000,1.50201007,2.77783406,3.71794887,8118,15015,20097,4358,9133,12958,0.80630240,1.68960550,2.39723982,0.18753622,0.25392756,0.31718635
0,0,Maldives,,,2021-01-05 03:48:12.183018,2020-09-08 00:00:00.000000,1.44009992,2.70854940,3.63492023,7784,14640,19648,4236,8935,12585,0.78367437,1.65311464,2.32822831,0.18714879,0.25030954,0.30586144
0,0,Maldives,,,2021-01-05 03:48:12.183018,2020-09-09 00:00:00.000000,1.38010029,2.62073740,3.55341480,7460,14166,19207,4112,8733,12216,0.76071796,1.61569469,2.26007678,0.18725121,0.24810561,0.30763693
0,0,Maldives,,,2021-01-05 03:48:12.183018,2020-09-10 00:00:00.000000,1.32225703,2.53801031,3.47368882,7147,13719,18776,3987,8503,11855,0.73770442,1.57314196,2.19322034,0.18772415,0.24764271,0.30878750
0,0,Maldives,,,2021-01-05 03:48:12.183018,2020-09-11 00:00:00.000000,1.26679854,2.46282336,3.39605480,6847,13312,18357,3866,8244,11503,0.71523150,1.52520025,2.12810903,0.18877362,0.25216039,0.30972498
0,0,Maldives,,,2021-01-05 03:48:12.183018,2020-09-12 00:00:00.000000,1.21411241,2.38334873,3.31305432,6562,12883,17908,3749,7990,11166,0.69357410,1.47832212,2.06583234,0.19084212,0.25441944,0.31085981
0,0,Maldives,,,2021-01-05 03:48:12.183018,2020-09-13 00:00:00.000000,1.16468692,2.30948866,3.24223349,6295,12483,17525,3637,7746,10858,0.67294712,1.43314298,2.00873888,0.19101069,0.25431475,0.31348780
0,0,Maldives,,,2021-01-05 03:48:12.183018,2020-09-14 00:00:00.000000,1.11924609,2.24347816,3.15122836,6049,12126,17033,3532,7514,10576,0.65345623,1.39015303,1.95672253,0.18777300,0.25628806,0.31961957
0,0,Maldives,,,2021-01-05 03:48:12.183018,2020-09-15 00:00:00.000000,1.07755003,2.17662990,3.07949889,5824,11765,16645,3432,7295,10333,0.63500264,1.34960769,1.91160741,0.18903356,0.25824057,0.32122861
0,0,Maldives,,,2021-01-05 03:48:12.183018,2020-09-16 00:00:00.000000,1.03917640,2.11424776,3.00958142,5617,11428,16268,3337,7087,9996,0.61750794,1.31113349,1.84943385,0.19366165,0.26096005,0.32152902
0,0,Maldives,,,2021-01-05 03:48:12.183018,2020-09-17 00:00:00.000000,1.00356848,2.06194482,2.93956736,5424,11145,15889,3244,6888,9739,0.60015332,1.27430143,1.80188458,0.20254535,0.26654893,0.32080066
0,0,Maldives,,,2021-01-05 03:48:12.183018,2020-09-18 00:00:00.000000,0.97022092,1.98731005,2.86885163,5244,10742,15507,3133,6697,9518,0.57967972,1.23899958,1.76086484,0.20801192,0.26733558,0.32214811
0,0,Maldives,,,2021-01-05 03:48:12.183018,2020-09-19 00:00:00.000000,0.94434170,1.94913691,2.78894584,5104,10535,15075,3036,6497,9318,0.56177084,1.20195524,1.72397222,0.21167415,0.26595575,0.32546150
0,0,Maldives,,,2021-01-05 03:48:12.183018,2020-09-20 00:00:00.000000,0.92005624,1.90698295,2.70681392,4973,10308,14631,2949,6325,9143,0.54570427,1.17016593,1.69159950,0.21379155,0.27249837,0.32843875
0,0,Maldives,,,2021-01-05 03:48:12.183018,2020-09-21 00:00:00.000000,0.89695603,1.86244422,2.62509351,4848,10067,14189,2869,6146,8995,0.53087712,1.13715799,1.66410103,0.21708711,0.26983499,0.34519503
0,0,Maldives,,,2021-01-05 03:48:12.183018,2020-09-22 00:00:00.000000,0.87465543,1.81884205,2.54463671,4727,9831,13754,2794,5926,8769,0.51698955,1.09631845,1.62234449,0.21917857,0.27498568,0.34853621
0,0,Maldives,,,2021-01-05 03:48:12.183018,2020-09-23 00:00:00.000000,0.85308552,1.77875563,2.46618842,4611,9614,13330,2723,5751,8526,0.50379221,1.06403570,1.57744019,0.22174583,0.27773505,0.35084069
0,0,Maldives,,,2021-01-05 03:48:12.183018,2020-09-24 00:00:00.000000,0.83219563,1.74107072,2.42904173,4498,9411,13129,2654,5606,8290,0.49113724,1.03722164,1.53377297,0.21988663,0.28053861,0.35106886
0,0,Maldives,,,2021-01-05 03:48:12.183018,2020-09-25 00:00:00.000000,0.81780885,1.71547915,2.37827005,4420,9272,12855,2588,5463,8073,0.47893765,1.01078297,1.49350456,0.22399686,0.28239979,0.35457541
0,0,Maldives,,,2021-01-05 03:48:12.183018,2020-09-26 00:00:00.000000,0.81086180,1.68599676,2.33344070,4383,9113,12613,2525,5341,7879,0.46714670,0.98818893,1.45762671,0.22034642,0.28704911,0.35707338
0,0,Maldives,,,2021-01-05 03:48:12.183018,2020-09-27 00:00:00.000000,0.80568651,1.65165451,2.29188694,4355,8927,12388,2463,5252,7707,0.45576328,0.97175200,1.42580540,0.21979940,0.29360452,0.35857728
0,0,Maldives,,,2021-01-05 03:48:12.183018,2020-09-28 00:00:00.000000,0.80150458,1.62010050,2.25185631,4332,8757,12172,2404,5169,7552,0.44480526,0.95644350,1.39713868,0.22345048,0.29387693,0.35954856
0,0,Maldives,,,2021-01-05 03:48:12.183018,2020-09-29 00:00:00.000000,0.79783040,1.58848071,2.22452105,4312,8586,12024,2346,5088,7408,0.43414080,0.94137204,1.37064900,0.22877747,0.29633836,0.36055389
0,0,Maldives,,,2021-01-05 03:48:12.183018,2020-09-30 00:00:00.000000,0.79444867,1.55468625,2.19979227,4294,8403,11890,2290,4990,7273,0.42376717,0.92318741,1.34566759,0.22579166,0.29888886,0.36221607
0,0,Maldives,,,2021-01-05 03:48:12.183018,2020-10-01 00:00:00.000000,0.79127611,1.52207132,2.17408416,4277,8227,11751,2236,4874,7175,0.41371366,0.90179472,1.32748155,0.22354009,0.30032904,0.36371160
0,0,Maldives,,,2021-01-05 03:48:12.183018,2020-10-02 00:00:00.000000,0.78833354,1.49153230,2.14674643,4261,8062,11604,2184,4762,7095,0.40412365,0.88105220,1.31270314,0.22499690,0.29910963,0.36636087
0,0,Maldives,,,2021-01-05 03:48:12.183018,2020-10-03 00:00:00.000000,0.78314618,1.46046702,2.11694012,4233,7894,11442,2137,4669,7012,0.39539115,0.86393884,1.29733128,0.22738628,0.29826128,0.37103458
0,0,Maldives,,,2021-01-05 03:48:12.183018,2020-10-04 00:00:00.000000,0.75674132,1.43187625,2.08396125,4090,7739,11264,2120,4565,6924,0.39237071,0.84466849,1.28101233,0.22759900,0.29719789,0.37563339
0,0,Maldives,,,2021-01-05 03:48:12.183018,2020-10-05 00:00:00.000000,0.73020810,1.40880507,2.04758439,3947,7615,11068,2113,4487,6829,0.39094901,0.83025484,1.26336424,0.22284902,0.29092375,0.38013771
0,0,Maldives,,,2021-01-05 03:48:12.183018,2020-10-06 00:00:00.000000,0.70387958,1.38390164,2.00872953,3804,7480,10858,2052,4396,6724,0.37973067,0.81329351,1.24410297,0.22104640,0.29264605,0.38373229
0,0,Maldives,,,2021-01-05 03:48:12.183018,2020-10-07 00:00:00.000000,0.67813541,1.36361058,1.96837944,3665,7370,10639,2016,4299,6612,0.37309438,0.79540525,1.22327780,0.22173517,0.29664479,0.38587878
0,0,Maldives,,,2021-01-05 03:48:12.183018,2020-10-08 00:00:00.000000,0.65338286,1.34154271,1.92740015,3531,7251,10418,1997,4224,6492,0.36950973,0.78158844,1.20116069,0.21695957,0.30110750,0.38529563
0,0,Maldives,,,2021-01-05 03:48:12.183018,2020-10-09 00:00:00.000000,0.64197375,1.31836690,1.88648475,3470,7126,10197,1979,4148,6368,0.36621587,0.76754611,1.17812654,0.21289916,0.30100773,0.38084977
0,0,Maldives,,,2021-01-05 03:48:12.183018,2020-10-10 00:00:00.000000,0.63653165,1.29047397,1.84628114,3440,6975,9979,1962,4054,6240,0.36307819,0.75012395,1.15456750,0.22227913,0.29936508,0.38217562
0,0,Maldives,,,2021-01-05 03:48:12.183018,2020-10-11 00:00:00.000000,0.63089011,1.25936989,1.80756820,3410,6807,9770,1945,3971,6112,0.36000039,0.73473233,1.13087276,0.22894928,0.30211577,0.38964796
0,0,Maldives,,,2021-01-05 03:48:12.183018,2020-10-12 00:00:00.000000,0.62443099,1.23357801,1.77133793,3375,6668,9574,1929,3918,5986,0.35689500,0.72498644,1.10746015,0.22562596,0.30291023,0.40809917
0,0,Maldives,,,2021-01-05 03:48:12.183018,2020-10-13 00:00:00.000000,0.61740443,1.21249012,1.73832141,3337,6554,9396,1911,3872,5863,0.35355180,0.71648150,1.08481609,0.22507424,0.30784655,0.42284591
0,0,Maldives,,,2021-01-05 03:48:12.183018,2020-10-14 00:00:00.000000,0.60970199,1.19557884,1.71314781,3295,6462,9260,1890,3832,5748,0.34973217,0.70909488,1.06340778,0.22514669,0.30670074,0.42842055
0,0,Maldives,,,2021-01-05 03:48:12.183018,2020-10-15 00:00:00.000000,0.59859355,1.17889860,1.69251559,3235,6372,9148,1848,3798,5640,0.34201343,0.70269260,1.04350937,0.22650465,0.31210414,0.43247281
0,0,Maldives,,,2021-01-05 03:48:12.183018,2020-10-16 00:00:00.000000,0.58794483,1.16234156,1.66741197,3178,6282,9013,1811,3763,5541,0.33515080,0.69629496,1.02514265,0.23652664,0.31640810,0.43591619
0,0,Maldives,,,2021-01-05 03:48:12.183018,2020-10-17 00:00:00.000000,0.57763212,1.14591025,1.63961850,3122,6194,8862,1777,3669,5450,0.32882558,0.67877859,1.00837740,0.25362433,0.32406680,0.43966310
0,0,Maldives,,,2021-01-05 03:48:12.183018,2020-10-18 00:00:00.000000,0.56761517,1.12968305,1.63124046,3068,6106,8817,1745,3608,5373,0.32284833,0.66757872,0.99408546,0.25599444,0.32651883,0.44399106
0,0,Maldives,,,2021-01-05 03:48:12.183018,2020-10-19 00:00:00.000000,0.55829654,1.10844953,1.62974756,3017,5991,8809,1714,3556,5317,0.31711846,0.65794603,0.98371978,0.25263467,0.32970223,0.44929040
0,0,Maldives,,,2021-01-05 03:48:12.183018,2020-10-20 00:00:00.000000,0.54929590,1.09763093,1.63003192,2969,5933,8811,1684,3484,5282,0.31169888,0.64468433,0.97723495,0.24786271,0.33145809,0.46247953
0,0,Maldives,,,2021-01-05 03:48:12.183018,2020-10-21 00:00:00.000000,0.54058229,1.08086585,1.63087447,2922,5842,8815,1656,3427,5262,0.30652553,0.63417220,0.97350011,0.24530020,0.33988322,0.46301988
0,0,Maldives,,,2021-01-05 03:48:12.183018,2020-10-22 00:00:00.000000,0.53227002,1.06851909,1.62826456,2877,5775,8801,1630,3403,5251,0.30155025,0.62964051,0.97151521,0.24523781,0.34738330,0.46757761
0,0,Maldives,,,2021-01-05 03:48:12.183018,2020-10-23 00:00:00.000000,0.52459708,1.05576079,1.61382965,2835,5706,8723,1604,3332,5246,0.29677657,0.61650413,0.97052195,0.24763387,0.35977804,0.47541614
0,0,Maldives,,,2021-01-05 03:48:12.183018,2020-10-24 00:00:00.000000,0.51928963,1.04509335,1.60041490,2806,5649,8650,1579,3285,5242,0.29227763,0.60786295,0.96986336,0.24974680,0.36525005,0.47995225
0,0,Maldives,,,2021-01-05 03:48:12.183018,2020-10-25 00:00:00.000000,0.51773609,1.04611072,1.58819687,2798,5654,8584,1559,3259,5237,0.28855284,0.60308540,0.96898904,0.25259188,0.37397466,0.48856223
0,0,Maldives,,,2021-01-05 03:48:12.183018,2020-10-26 00:00:00.000000,0.51718386,1.04567238,1.57660610,2795,5652,8522,1547,3270,5230,0.28625671,0.60495208,0.96768364,0.26024544,0.38315387,0.49726901
0,0,Maldives,,,2021-01-05 03:48:12.183018,2020-10-27 00:00:00.000000,0.51909844,1.04800153,1.56588274,2805,5664,8464,1540,3273,5220,0.28499761,0.60559122,0.96584523,0.27830912,0.38649907,0.49957342
0,0,Maldives,,,2021-01-05 03:48:12.183018,2020-10-28 00:00:00.000000,0.52381968,1.05287165,1.59086884,2831,5691,8599,1537,3264,5208,0.28436514,0.60395066,0.96359144,0.29932871,0.39265317,0.50025603
0,0,Maldives,,,2021-01-05 03:48:12.183018,2020-10-29 00:00:00.000000,0.53049315,1.05183355,1.60835728,2867,5685,8693,1535,3244,5194,0.28409821,0.60019754,0.96099745,0.29963674,0.39649351,0.49882640
0,0,Maldives,,,2021-01-05 03:48:12.183018,2020-10-30 00:00:00.000000,0.53732143,1.04734308,1.60322347,2904,5661,8666,1536,3241,5178,0.28416756,0.59965999,0.95808357,0.30161537,0.40224796,0.49967323
0,0,Maldives,,,2021-01-05 03:48:12.183018,2020-10-31 00:00:00.000000,0.54495582,1.05234636,1.59702937,2945,5688,8632,1541,3273,5161,0.28520517,0.60557603,0.95480853,0.31164498,0.40474910,0.52629804
0,0,Maldives,,,2021-01-05 03:48:12.183018,2020-11-01 00:00:00.000000,0.55455292,1.05788167,1.58856366,2997,5718,8586,1558,3312,5140,0.28824109,0.61280470,0.95107128,0.31004443,0.41571549,0.53509736
0,0,Maldives,,,2021-01-05 03:48:12.183018,2020-11-02 00:00:00.000000,0.56651996,1.07048738,1.57892175,3062,5786,8534,1583,3335,5117,0.29294326,0.61698317,0.94675571,0.31325254,0.42658023,0.54121399
0,0,Maldives,,,2021-01-05 03:48:12.183018,2020-11-03 00:00:00.000000,0.58020061,1.08884956,1.56843552,3136,5885,8478,1614,3358,5090,0.29867241,0.62131841,0.94180767,0.32162618,0.45033878,0.54927453
0,0,Maldives,,,2021-01-05 03:48:12.183018,2020-11-04 00:00:00.000000,0.59510007,1.10407826,1.55741918,3216,5968,8418,1648,3387,5180,0.30491773,0.62664556,0.95833154,0.33429552,0.45390845,0.56105213
0,0,Maldives,,,2021-01-05 03:48:12.183018,2020-11-05 00:00:00.000000,0.61082345,1.11774832,1.59310800,3301,6041,8611,1682,3409,5265,0.31132752,0.63068147,0.97411571,0.33309348,0.45508462,0.57384110
0,0,Maldives,,,2021-01-05 03:48:12.183018,2020-11-06 00:00:00.000000,0.61769529,1.13320543,1.63216378,3338,6125,8822,1717,3441,5243,0.31764961,0.63662817,0.96998565,0.33653845,0.45613006,0.58545341
0,0,Maldives,,,2021-01-05 03:48:12.183018,2020-11-07 00:00:00.000000,0.62212580,1.15199938,1.66325805,3362,6227,8990,1749,3483,5242,0.32358066,0.64443607,0.96977064,0.34583188,0.45381198,0.58504410
0,0,Maldives,,,2021-01-05 03:48:12.183018,2020-11-08 00:00:00.000000,0.62852408,1.17438709,1.68207994,3397,6348,9092,1756,3533,5272,0.32503391,0.65369383,0.97546449,0.36315107,0.45241572,0.58171333
0,0,Maldives,,,2021-01-05 03:48:12.183018,2020-11-09 00:00:00.000000,0.63591624,1.19779218,1.71908379,3437,6474,9292,1766,3575,5331,0.32674251,0.66145143,0.98634697,0.37223405,0.46327662,0.57680571
0,0,Maldives,,,2021-01-05 03:48:12.183018,2020-11-10 00:00:00.000000,0.64392003,1.22183627,1.76380634,3480,6604,9534,1789,3633,5410,0.33098123,0.67212809,1.00094766,0.37922976,0.46986701,0.58005407
0,0,Maldives,,,2021-01-05 03:48:12.183018,2020-11-11 00:00:00.000000,0.65195554,1.24446399,1.80752843,3524,6726,9770,1834,3701,5503,0.33946764,0.68478027,1.01810029,0.38059529,0.47404957,0.59498205
0,0,Maldives,,,2021-01-05 03:48:12.183018,2020-11-12 00:00:00.000000,0.65970579,1.25942488,1.84975081,3565,6807,9998,1881,3771,5605,0.34803837,0.69771442,1.03700964,0.38095049,0.47297230,0.57700968
0,0,Maldives,,,2021-01-05 03:48:12.183018,2020-11-13 00:00:00.000000,0.66696083,1.28079382,1.88932013,3605,6923,10212,1920,3847,5714,0.35524107,0.71170998,1.05714567,0.37719441,0.46575111,0.57421113
0,0,Maldives,,,2021-01-05 03:48:12.183018,2020-11-14 00:00:00.000000,0.67606973,1.30109017,1.92394418,3654,7032,10399,1948,3924,5827,0.36040147,0.72597897,1.07815219,0.35453578,0.45503044,0.58173077
0,0,Maldives,,,2021-01-05 03:48:12.183018,2020-11-15 00:00:00.000000,0.68840713,1.31443127,1.95123827,3721,7105,10547,1978,3982,5944,0.36607415,0.73673089,1.09975999,0.34852277,0.44163842,0.55478109
0,0,Maldives,,,2021-01-05 03:48:12.183018,2020-11-16 00:00:00.000000,0.70096411,1.33706429,1.96988755,3789,7227,10648,2012,4044,6058,0.37232333,0.74816262,1.12083132,0.33969010,0.41872809,0.54797350
0,0,Maldives,,,2021-01-05 03:48:12.183018,2020-11-17 00:00:00.000000,0.71375235,1.35865666,1.97913341,3858,7344,10698,2048,4109,6136,0.37893224,0.76028334,1.13525335,0.31041992,0.39287558,0.54060150
0,0,Maldives,,,2021-01-05 03:48:12.183018,2020-11-18 00:00:00.000000,0.72576826,1.37666318,1.97951989,3923,7441,10700,2069,4163,6169,0.38285966,0.77023455,1.14141795,0.28527044,0.38310917,0.53091222
0,0,Maldives,,,2021-01-05 03:48:12.183018,2020-11-19 00:00:00.000000,0.72490646,1.37548687,1.97100803,3918,7435,10654,2078,4165,6152,0.38448665,0.77059856,1.13824539,0.26298115,0.37246585,0.52192085
0,0,Maldives,,,2021-01-05 03:48:12.183018,2020-11-20 00:00:00.000000,0.71873084,1.35105332,1.95028314,3885,7303,10542,2081,4157,6116,0.38499163,0.76911327,1.13157823,0.24744819,0.35808758,0.51125761
0,0,Maldives,,,2021-01-05 03:48:12.183018,2020-11-21 00:00:00.000000,0.70704562,1.32309147,1.91190028,3821,7151,10334,2075,4147,6051,0.38392704,0.76732984,1.11943764,0.22653133,0.32520680,0.51084984
0,0,Maldives,,,2021-01-05 03:48:12.183018,2020-11-22 00:00:00.000000,0.69121473,1.30242386,1.85968098,3736,7040,10052,2034,4155,6013,0.37633243,0.76873256,1.11249978,0.21864868,0.30466577,0.49274002
0,0,Maldives,,,2021-01-05 03:48:12.183018,2020-11-23 00:00:00.000000,0.65582473,1.27475028,1.80103116,3545,6890,9735,1954,4104,5915,0.36167368,0.75940596,1.09436796,0.21179137,0.28820953,0.44545077
0,0,Maldives,,,2021-01-05 03:48:12.183018,2020-11-24 00:00:00.000000,0.62530773,1.23640954,1.74057117,3380,6683,9408,1866,4000,5766,0.34524635,0.74006542,1.06677659,0.20641423,0.27861011,0.43519468
0,0,Maldives,,,2021-01-05 03:48:12.183018,2020-11-25 00:00:00.000000,0.60616935,1.19564845,1.68515936,3276,6462,9108,1811,3892,5584,0.33512484,0.72002804,1.03303742,0.20091610,0.27374365,0.43241566
0,0,Maldives,,,2021-01-05 03:48:12.183018,2020-11-26 00:00:00.000000,0.58684868,1.15428041,1.62319450,3172,6239,8774,1762,3792,5382,0.32603262,0.70154939,0.99575543,0.20029522,0.26967815,0.41814695
0,0,Maldives,,,2021-01-05 03:48:12.183018,2020-11-27 00:00:00.000000,0.56769267,1.12357220,1.57787464,3068,6073,8529,1710,3692,5183,0.31635935,0.68308753,0.95886682,0.19981695,0.26823876,0.40088955
0,0,Maldives,,,2021-01-05 03:48:12.183018,2020-11-28 00:00:00.000000,0.54881645,1.08937999,1.54077172,2966,5888,8328,1656,3575,5036,0.30639418,0.66150383,0.93175736,0.19134900,0.26031039,0.39024249
0,0,Maldives,,,2021-01-05 03:48:12.183018,2020-11-29 00:00:00.000000,0.52875526,1.05997270,1.49497354,2858,5729,8080,1601,3456,4988,0.29635589,0.63948325,0.92295185,0.18662614,0.25783775,0.36773420
0,0,Maldives,,,2021-01-05 03:48:12.183018,2020-11-30 00:00:00.000000,0.50596889,1.02851455,1.44720258,2734,5559,7822,1548,3378,4892,0.28638526,0.62497501,0.90501789,0.18213310,0.25953146,0.34751071
0,0,Maldives,,,2021-01-05 03:48:12.183018,2020-12-01 00:00:00.000000,0.48246698,1.00208145,1.39950813,2607,5416,7564,1494,3289,4738,0.27652494,0.60851327,0.87664446,0.17603867,0.25894316,0.33461545
0,0,Maldives,,,2021-01-05 03:48:12.183018,2020-12-02 00:00:00.000000,0.45973119,0.96919731,1.35243992,2485,5238,7310,1442,3184,4566,0.26685424,0.58912022,0.84480944,0.17313759,0.25613923,0.33602016
0,0,Maldives,,,2021-01-05 03:48:12.183018,2020-12-03 00:00:00.000000,0.44041336,0.94141708,1.30547847,2380,5088,7056,1391,3085,4427,0.25743306,0.57081316,0.81913872,0.17236132,0.26119470,0.33658187
0,0,Maldives,,,2021-01-05 03:48:12.183018,2020-12-04 00:00:00.000000,0.42700577,0.91070972,1.26026670,2308,4922,6812,1342,3013,4295,0.24832039,0.55755742,0.79464169,0.17226013,0.25969698,0.33362001
0,0,Maldives,,,2021-01-05 03:48:12.183018,2020-12-05 00:00:00.000000,0.41533220,0.87935442,1.22035995,2245,4753,6596,1295,2943,4199,0.23960163,0.54454814,0.77691122,0.17286741,0.26348624,0.34397596
0,0,Maldives,,,2021-01-05 03:48:12.183018,2020-12-06 00:00:00.000000,0.40441609,0.84613126,1.18686214,2186,4573,6415,1250,2858,4099,0.23141986,0.52880119,0.75843588,0.17462623,0.26732454,0.35285013
0,0,Maldives,,,2021-01-05 03:48:12.183018,2020-12-07 00:00:00.000000,0.39372305,0.81257492,1.15496095,2128,4392,6243,1210,2758,3996,0.22396633,0.51033901,0.73936821,0.18406870,0.27166824,0.36040470
0,0,Maldives,,,2021-01-05 03:48:12.183018,2020-12-08 00:00:00.000000,0.38350151,0.79153873,1.12451079,2072,4278,6078,1175,2641,3891,0.21739495,0.48869207,0.71991687,0.18748882,0.28238050,0.36555142
0,0,Maldives,,,2021-01-05 03:48:12.183018,2020-12-09 00:00:00.000000,0.37361902,0.76882564,1.10142167,2019,4155,5953,1144,2535,3784,0.21166081,0.46914366,0.70014546,0.18729977,0.28098105,0.36941897
0,0,Maldives,,,2021-01-05 03:48:12.183018,2020-12-10 00:00:00.000000,0.36403476,0.74284359,1.06927391,1967,4015,5779,1116,2459,3676,0.20661641,0.45497532,0.68013351,0.19093706,0.28789990,0.37104368
0,0,Maldives,,,2021-01-05 03:48:12.183018,2020-12-11 00:00:00.000000,0.35472437,0.71955572,1.03801652,1917,3889,5610,1092,2381,3567,0.20213234,0.44051750,0.65998807,0.19954053,0.29411441,0.39949682
0,0,Maldives,,,2021-01-05 03:48:12.183018,2020-12-12 00:00:00.000000,0.34567543,0.69732142,1.01080041,1868,3769,5463,1072,2317,3458,0.19835510,0.42877978,0.63990129,0.21439587,0.30455594,0.41250362
0,0,Maldives,,,2021-01-05 03:48:12.183018,2020-12-13 00:00:00.000000,0.33688627,0.67571463,0.98421734,1821,3652,5320,1056,2250,3353,0.19538132,0.41636918,0.62041283,0.23535022,0.31451833,0.41771959
0,0,Maldives,,,2021-01-05 03:48:12.183018,2020-12-14 00:00:00.000000,0.32847878,0.66259909,0.96302821,1775,3581,5205,1043,2181,3267,0.19298426,0.40361285,0.60440571,0.24676230,0.32255854,0.44362314
0,0,Maldives,,,2021-01-05 03:48:12.183018,2020-12-15 00:00:00.000000,0.32036678,0.65153475,0.94533101,1731,3521,5109,1022,2120,3197,0.18919966,0.39225488,0.59148012,0.25383450,0.33592190,0.44581790
0,0,Maldives,,,2021-01-05 03:48:12.183018,2020-12-16 00:00:00.000000,0.31266640,0.64384046,0.92162699,1690,3480,4981,997,2090,3127,0.18447090,0.38669826,0.57859595,0.25591218,0.34595244,0.45155060
0,0,Maldives,,,2021-01-05 03:48:12.183018,2020-12-17 00:00:00.000000,0.30618687,0.63961978,0.90469152,1655,3457,4890,972,2066,3080,0.17994082,0.38228988,0.56988001,0.26435125,0.35444029,0.45740134
0,0,Maldives,,,2021-01-05 03:48:12.183018,2020-12-18 00:00:00.000000,0.30110616,0.63717264,0.89411515,1627,3444,4833,950,2046,3039,0.17583941,0.37852466,0.56233685,0.27503258,0.37076407,0.46357137
0,0,Maldives,,,2021-01-05 03:48:12.183018,2020-12-19 00:00:00.000000,0.29704739,0.63754537,0.88438512,1605,3446,4780,931,2005,3003,0.17234453,0.37097512,0.55560553,0.28661708,0.38118318,0.47920783
0,0,Maldives,,,2021-01-05 03:48:12.183018,2020-12-20 00:00:00.000000,0.29434118,0.63288383,0.88851105,1591,3421,4802,915,1982,2969,0.16944773,0.36685020,0.54926756,0.30015236,0.39299885,0.50290427
0,0,Maldives,,,2021-01-05 03:48:12.183018,2020-12-21 00:00:00.000000,0.29297188,0.62785663,0.90043200,1583,3393,4867,903,1973,2946,0.16722434,0.36503649,0.54518838,0.30372088,0.40286149,0.54526445
0,0,Maldives,,,2021-01-05 03:48:12.183018,2020-12-22 00:00:00.000000,0.29847785,0.62070419,0.89596687,1613,3355,4843,895,1943,2931,0.16571320,0.35963688,0.54235726,0.30424597,0.41967545,0.58978269
0,0,Maldives,,,2021-01-05 03:48:12.183018,2020-12-23 00:00:00.000000,0.30983765,0.61783325,0.89130309,1674,3339,4817,890,1930,2925,0.16481871,0.35710689,0.54126552,0.30513025,0.43774186,0.61911653
0,0,Maldives,,,2021-01-05 03:48:12.183018,2020-12-24 00:00:00.000000,0.32485849,0.61137949,0.88652170,1755,3304,4792,888,1885,2924,0.16435426,0.34889172,0.54104766,0.30620363,0.44845382,0.63756315
0,0,Maldives,,,2021-01-05 03:48:12.183018,2020-12-25 00:00:00.000000,0.33599237,0.61200973,0.89727374,1816,3308,4850,887,1857,2926,0.16413618,0.34361651,0.54140142,0.30749625,0.46367807,0.65362398
0,0,Maldives,,,2021-01-05 03:48:12.183018,2020-12-26 00:00:00.000000,0.33130493,0.63589071,0.92358471,1790,3437,4992,888,1875,2967,0.16434841,0.34688123,0.54900373,0.30352187,0.46956651,0.69147500
0,0,Maldives,,,2021-01-05 03:48:12.183018,2020-12-27 00:00:00.000000,0.32987355,0.65602628,0.95200283,1783,3546,5145,935,1901,2972,0.17313558,0.35186450,0.54990780,0.29704146,0.46983612,0.70173082
0,0,Maldives,,,2021-01-05 03:48:12.183018,2020-12-28 00:00:00.000000,0.33221418,0.66632488,0.98212812,1795,3601,5308,927,1974,3039,0.17155240,0.36526486,0.56225940,0.29870631,0.48365553,0.70535525
0,0,Maldives,,,2021-01-05 03:48:12.183018,2020-12-29 00:00:00.000000,0.33654828,0.67763983,1.01434835,1819,3662,5482,919,2002,3132,0.17016725,0.37045262,0.57944680,0.30451582,0.48667900,0.70818676
0,0,Maldives,,,2021-01-05 03:48:12.183018,2020-12-30 00:00:00.000000,0.33450294,0.70020136,1.04889344,1808,3784,5669,913,2055,3232,0.16892115,0.38034627,0.59802814,0.29332820,0.49605336,0.71902298
0,0,Maldives,,,2021-01-05 03:48:12.183018,2020-12-31 00:00:00.000000,0.33245324,0.72043292,1.08545255,1797,3894,5867,906,2106,3340,0.16776921,0.38964761,0.61803885,0.28291095,0.50078320,0.72940743
0,0,Maldives,,,2021-01-05 03:48:12.183018,2021-01-01 00:00:00.000000,0.33029757,0.74723892,1.12405967,1785,4039,6076,900,2148,3456,0.16667299,0.39740982,0.63941786,0.28683620,0.49322648,0.74052891
0,0,Maldives,,,2021-01-05 03:48:12.183018,2021-01-02 00:00:00.000000,0.32783142,0.77304759,1.16548289,1772,4178,6299,895,2207,3577,0.16559042,0.40845738,0.66186860,0.30076280,0.49443478,0.76882569
0,0,Maldives,,,2021-01-05 03:48:12.183018,2021-01-03 00:00:00.000000,0.32468349,0.79293050,1.20902046,1755,4286,6535,888,2267,3702,0.16445761,0.41949632,0.68495819,0.30421177,0.49694384,0.79348174
0,0,Maldives,,,2021-01-05 03:48:12.183018,2021-01-04 00:00:00.000000,0.31931159,0.79677443,1.25456551,1726,4306,6781,881,2350,3833,0.16316236,0.43478333,0.70917512,0.32083569,0.49309104,0.80272389
0,0,Maldives,,,2021-01-05 03:48:12.183018,2021-01-05 00:00:00.000000,0.31301446,0.78712088,1.36227132,1691,4254,7363,881,2400,3972,0.16315119,0.44403275,0.73483429,0.32099341,0.49745078,0.81586249
0,0,Maldives,,,2021-01-05 03:48:12.183018,2021-01-06 00:00:00.000000,0.30612980,0.77391184,1.48017873,1654,4183,8000,888,2459,4121,0.16430321,0.45496694,0.76241750,0.32106466,0.49988840,0.83494247
0,0,Maldives,,,2021-01-05 03:48:12.183018,2021-01-07 00:00:00.000000,0.30015277,0.77300979,1.60771482,1622,4178,8690,894,2518,4399,0.16556572,0.46585808,0.81399181,0.32110798,0.50197179,0.83817578
0,0,Maldives,,,2021-01-05 03:48:12.183018,2021-01-08 00:00:00.000000,0.31027428,0.80775504,1.74548278,1677,4366,9435,902,2516,4778,0.16689227,0.46550999,0.88403480,0.32113821,0.50266789,0.84027692
0,0,Maldives,,,2021-01-05 03:48:12.183018,2021-01-09 00:00:00.000000,0.32201041,0.81250203,1.89411365,1740,4391,10238,909,2505,5188,0.16825752,0.46349329,0.95994327,0.32116081,0.50289407,0.84162051
0,0,Maldives,,,2021-01-05 03:48:12.183018,2021-01-10 00:00:00.000000,0.33418200,0.81766046,2.05425839,1806,4419,11104,917,2504,5632,0.16970935,0.46337898,1.04200000,0.32117835,0.50296686,0.84247154
0,0,Maldives,,,2021-01-05 03:48:12.183018,2021-01-11 00:00:00.000000,0.34617647,0.85078170,2.22643239,1871,4598,12034,926,2509,6111,0.17134716,0.46425405,1.13054281,0.32119221,0.50299018,0.84300774
0,0,Maldives,,,2021-01-05 03:48:12.183018,2021-01-12 00:00:00.000000,0.33722400,0.87292282,2.41022932,1822,4718,13028,935,2592,6626,0.17300471,0.47955872,1.22587633,0.32120328,0.50299762,0.84334464
0,0,Maldives,,,2021-01-05 03:48:12.183018,2021-01-13 00:00:00.000000,0.32849724,0.87625347,2.59616036,1775,4736,14033,944,2636,7105,0.17467891,0.48769295,1.31448366,0.32121215,0.50299997,0.84355606
0,0,Maldives,,,2021-01-05 03:48:12.183018,2021-01-14 00:00:00.000000,0.31999272,0.89198036,2.74111496,1729,4821,14816,953,2663,7511,0.17636805,0.49275176,1.38956854,0.32121929,0.50300070,0.84368867
0,0,Maldives,,,2021-01-05 03:48:12.183018,2021-01-15 00:00:00.000000,0.32218200,0.90811340,2.89243143,1741,4908,15634,967,2694,7936,0.17893947,0.49853076,1.46818157,0.32122503,0.50300092,0.84377185
0,0,Maldives,,,2021-01-05 03:48:12.183018,2021-01-16 00:00:00.000000,0.31830799,0.92033227,3.05017068,1720,4974,16487,970,2744,8380,0.17955019,0.50778033,1.55038436,0.32122966,0.50300098,0.84382404
0,0,Maldives,,,2021-01-05 03:48:12.183018,2021-01-17 00:00:00.000000,0.31142726,0.94344978,3.21436355,1683,5099,17374,978,2809,8844,0.18098532,0.51967286,1.63622440,0.32123338,0.50300100,0.84385680
0,0,Maldives,,,2021-01-05 03:48:12.183018,2021-01-18 00:00:00.000000,0.30468846,0.96717394,3.38500674,1646,5227,18297,986,2874,9327,0.18243031,0.53183400,1.72559785,0.32123638,0.50300100,0.84387737
