FIPS,HR_UID,nameid,province,region,analysisTime,dates,pointprevalence_025,pointprevalence_50,pointprevalence_975,pointinfections_025,pointinfections_50,pointinfections_975,pointinfectious_025,pointinfectious_50,pointinfectious_975,pointinfectiousprevalence_05,pointinfectiousprevalence_50,pointinfectiousprevalence_95,infectrate_025,infectrate_50,infectrate_975
48285,0,USTexasLavaca,Texas,Lavaca,2021-01-05 08:30:20.662087,2020-03-09 00:00:00.000000,0.00155279,0.01591858,0.05371903,0,3,10,0,1,6,0.00083554,0.00905301,0.03310051,0.35283476,0.47563707,0.67289573
48285,0,USTexasLavaca,Texas,Lavaca,2021-01-05 08:30:20.662087,2020-03-10 00:00:00.000000,0.00164125,0.01631627,0.05729500,0,3,11,0,1,6,0.00083354,0.00919364,0.03414849,0.35283141,0.47562724,0.67288758
48285,0,USTexasLavaca,Texas,Lavaca,2021-01-05 08:30:20.662087,2020-03-11 00:00:00.000000,0.00175156,0.01713906,0.06246788,0,3,12,0,1,7,0.00089174,0.00959040,0.03629074,0.35282526,0.47559955,0.67287361
48285,0,USTexasLavaca,Texas,Lavaca,2021-01-05 08:30:20.662087,2020-03-12 00:00:00.000000,0.00187182,0.01819407,0.06942974,0,3,13,0,2,8,0.00097045,0.01031890,0.03986146,0.35281401,0.47552159,0.67284983
48285,0,USTexasLavaca,Texas,Lavaca,2021-01-05 08:30:20.662087,2020-03-13 00:00:00.000000,0.00199669,0.01906665,0.07706026,0,3,15,0,2,9,0.00105619,0.01084968,0.04473208,0.35279351,0.47530252,0.67280996
48285,0,USTexasLavaca,Texas,Lavaca,2021-01-05 08:30:20.662087,2020-03-14 00:00:00.000000,0.00212501,0.02088349,0.08540525,0,4,17,0,2,9,0.00118214,0.01110058,0.04843110,0.35275641,0.47012842,0.67274471
48285,0,USTexasLavaca,Texas,Lavaca,2021-01-05 08:30:20.662087,2020-03-15 00:00:00.000000,0.00226028,0.02233970,0.09121881,0,4,18,0,2,10,0.00127366,0.01219615,0.05162147,0.35269014,0.46826398,0.67264197
48285,0,USTexasLavaca,Texas,Lavaca,2021-01-05 08:30:20.662087,2020-03-16 00:00:00.000000,0.00612628,0.03113791,0.10379295,1,6,20,0,2,11,0.00132219,0.01338891,0.05498986,0.33353434,0.46224418,0.67248949
48285,0,USTexasLavaca,Texas,Lavaca,2021-01-05 08:30:20.662087,2020-03-17 00:00:00.000000,0.00927260,0.04102358,0.11508718,1,8,23,0,3,12,0.00280243,0.01668145,0.06116381,0.32584073,0.45638987,0.67228080
48285,0,USTexasLavaca,Texas,Lavaca,2021-01-05 08:30:20.662087,2020-03-18 00:00:00.000000,0.01211605,0.05148108,0.12930161,2,10,26,0,4,13,0.00491143,0.02167751,0.06864687,0.31377227,0.44765087,0.66833103
48285,0,USTexasLavaca,Texas,Lavaca,2021-01-05 08:30:20.662087,2020-03-19 00:00:00.000000,0.01530948,0.05946315,0.14581232,3,11,29,1,5,15,0.00700111,0.02895057,0.07690422,0.29668115,0.42063534,0.66398538
48285,0,USTexasLavaca,Texas,Lavaca,2021-01-05 08:30:20.662087,2020-03-20 00:00:00.000000,0.01886490,0.06862337,0.16044440,3,13,32,1,7,17,0.00893005,0.03473984,0.08691966,0.27556584,0.39717249,0.65531149
48285,0,USTexasLavaca,Texas,Lavaca,2021-01-05 08:30:20.662087,2020-03-21 00:00:00.000000,0.02281236,0.07716247,0.17215974,4,15,34,2,8,19,0.01108333,0.04009473,0.09479698,0.26213188,0.37514224,0.64404291
48285,0,USTexasLavaca,Texas,Lavaca,2021-01-05 08:30:20.662087,2020-03-22 00:00:00.000000,0.02605035,0.08611120,0.18246930,5,17,36,2,8,20,0.01300284,0.04365345,0.10292067,0.24945715,0.35741812,0.61590636
48285,0,USTexasLavaca,Texas,Lavaca,2021-01-05 08:30:20.662087,2020-03-23 00:00:00.000000,0.03056131,0.09187433,0.20227993,6,18,40,2,9,22,0.01462360,0.04784912,0.10959528,0.23373343,0.34456910,0.58546609
48285,0,USTexasLavaca,Texas,Lavaca,2021-01-05 08:30:20.662087,2020-03-24 00:00:00.000000,0.03447177,0.10335262,0.22149180,6,20,44,3,10,23,0.01772660,0.05337780,0.11546434,0.22184891,0.33082561,0.56487448
48285,0,USTexasLavaca,Texas,Lavaca,2021-01-05 08:30:20.662087,2020-03-25 00:00:00.000000,0.04146960,0.11112983,0.24027166,8,22,48,3,12,25,0.01975889,0.06029915,0.12883744,0.21379627,0.31319890,0.51491642
48285,0,USTexasLavaca,Texas,Lavaca,2021-01-05 08:30:20.662087,2020-03-26 00:00:00.000000,0.04713355,0.12110338,0.24489639,9,24,49,4,13,28,0.02366161,0.06815380,0.14207589,0.20520718,0.30322942,0.49916290
48285,0,USTexasLavaca,Texas,Lavaca,2021-01-05 08:30:20.662087,2020-03-27 00:00:00.000000,0.04789415,0.13200505,0.25914504,9,26,52,5,14,30,0.02708962,0.07351642,0.14957190,0.17378291,0.28800514,0.43610132
48285,0,USTexasLavaca,Texas,Lavaca,2021-01-05 08:30:20.662087,2020-03-28 00:00:00.000000,0.05266063,0.14008082,0.27417108,10,28,55,5,15,30,0.02739698,0.07756554,0.15272031,0.15895329,0.27086923,0.42477382
48285,0,USTexasLavaca,Texas,Lavaca,2021-01-05 08:30:20.662087,2020-03-29 00:00:00.000000,0.05769830,0.14418483,0.28674544,11,29,57,6,16,31,0.02989651,0.08192246,0.15827676,0.15756635,0.25947072,0.41442886
48285,0,USTexasLavaca,Texas,Lavaca,2021-01-05 08:30:20.662087,2020-03-30 00:00:00.000000,0.07168209,0.14809983,0.28837818,14,29,58,6,17,32,0.03288295,0.08442307,0.16287269,0.15746302,0.25196352,0.40631809
48285,0,USTexasLavaca,Texas,Lavaca,2021-01-05 08:30:20.662087,2020-03-31 00:00:00.000000,0.07543233,0.15262570,0.29296851,15,30,59,7,18,34,0.03870446,0.09022180,0.17087968,0.15745896,0.24318030,0.38336269
48285,0,USTexasLavaca,Texas,Lavaca,2021-01-05 08:30:20.662087,2020-04-01 00:00:00.000000,0.07923496,0.15776057,0.30230507,15,31,60,8,19,36,0.04164875,0.09456304,0.18174838,0.15747055,0.23312331,0.36489154
48285,0,USTexasLavaca,Texas,Lavaca,2021-01-05 08:30:20.662087,2020-04-02 00:00:00.000000,0.08274983,0.16327968,0.30987462,16,32,62,9,20,37,0.04481551,0.09941315,0.18782399,0.15629429,0.22552602,0.35323012
48285,0,USTexasLavaca,Texas,Lavaca,2021-01-05 08:30:20.662087,2020-04-03 00:00:00.000000,0.08359255,0.16672040,0.31866721,16,33,64,9,20,38,0.04742628,0.10130374,0.18981947,0.15112502,0.21819010,0.32517658
48285,0,USTexasLavaca,Texas,Lavaca,2021-01-05 08:30:20.662087,2020-04-04 00:00:00.000000,0.08395109,0.16796190,0.32416750,16,33,65,9,21,38,0.04922446,0.10592839,0.19212765,0.14847196,0.21084695,0.30970134
48285,0,USTexasLavaca,Texas,Lavaca,2021-01-05 08:30:20.662087,2020-04-05 00:00:00.000000,0.08430146,0.16762817,0.32774478,16,33,66,10,21,39,0.05062464,0.10517798,0.19762176,0.14593172,0.20443509,0.29886806
48285,0,USTexasLavaca,Texas,Lavaca,2021-01-05 08:30:20.662087,2020-04-06 00:00:00.000000,0.08974945,0.17267721,0.32569030,18,34,65,10,21,40,0.05119958,0.10587641,0.20202402,0.13933753,0.19874749,0.29237117
48285,0,USTexasLavaca,Texas,Lavaca,2021-01-05 08:30:20.662087,2020-04-07 00:00:00.000000,0.09106285,0.17598723,0.31514367,18,35,63,10,21,40,0.05292390,0.10703264,0.20186454,0.13392478,0.19368973,0.28251088
48285,0,USTexasLavaca,Texas,Lavaca,2021-01-05 08:30:20.662087,2020-04-08 00:00:00.000000,0.09400764,0.17779413,0.30305541,18,35,61,11,22,40,0.05486352,0.10978705,0.20314219,0.12870645,0.19112425,0.27721195
48285,0,USTexasLavaca,Texas,Lavaca,2021-01-05 08:30:20.662087,2020-04-09 00:00:00.000000,0.09686263,0.17477397,0.30262939,19,35,60,11,21,40,0.05674515,0.10894823,0.20338962,0.12486100,0.18459531,0.27424207
48285,0,USTexasLavaca,Texas,Lavaca,2021-01-05 08:30:20.662087,2020-04-10 00:00:00.000000,0.09966596,0.17251466,0.29995559,20,34,60,11,22,41,0.05854897,0.11101673,0.20618053,0.12374010,0.18055412,0.26855757
48285,0,USTexasLavaca,Texas,Lavaca,2021-01-05 08:30:20.662087,2020-04-11 00:00:00.000000,0.10083802,0.17212995,0.29508507,20,34,59,12,23,41,0.05993504,0.11417620,0.20489120,0.11710773,0.17804180,0.26108454
48285,0,USTexasLavaca,Texas,Lavaca,2021-01-05 08:30:20.662087,2020-04-12 00:00:00.000000,0.10234965,0.17380086,0.29303041,20,35,59,12,22,40,0.06145100,0.11032615,0.20197711,0.11509007,0.17378037,0.26562593
48285,0,USTexasLavaca,Texas,Lavaca,2021-01-05 08:30:20.662087,2020-04-13 00:00:00.000000,0.10504680,0.17554248,0.29283217,21,35,59,12,22,39,0.06185425,0.10984097,0.19801664,0.11503255,0.16923501,0.26209886
48285,0,USTexasLavaca,Texas,Lavaca,2021-01-05 08:30:20.662087,2020-04-14 00:00:00.000000,0.10481802,0.17630963,0.29546206,21,35,59,12,21,39,0.06075376,0.10834782,0.19464930,0.11501479,0.16869560,0.25984089
48285,0,USTexasLavaca,Texas,Lavaca,2021-01-05 08:30:20.662087,2020-04-15 00:00:00.000000,0.10167118,0.17639490,0.30064105,20,35,60,12,22,39,0.06134989,0.11030818,0.19515390,0.11430808,0.16766788,0.25765650
48285,0,USTexasLavaca,Texas,Lavaca,2021-01-05 08:30:20.662087,2020-04-16 00:00:00.000000,0.09875509,0.17675667,0.30578792,19,35,61,12,22,39,0.06290316,0.10981351,0.19743213,0.11469346,0.16484436,0.24623729
48285,0,USTexasLavaca,Texas,Lavaca,2021-01-05 08:30:20.662087,2020-04-17 00:00:00.000000,0.09602117,0.17628605,0.30999271,19,35,62,12,21,40,0.06439631,0.10763809,0.20091540,0.11169021,0.16019254,0.24618763
48285,0,USTexasLavaca,Texas,Lavaca,2021-01-05 08:30:20.662087,2020-04-18 00:00:00.000000,0.09345071,0.17520275,0.29816609,18,35,60,13,21,41,0.06462189,0.10681450,0.20420445,0.10934359,0.16087446,0.24594626
48285,0,USTexasLavaca,Texas,Lavaca,2021-01-05 08:30:20.662087,2020-04-19 00:00:00.000000,0.09102739,0.17159947,0.29991167,18,34,60,12,21,41,0.06285820,0.10764139,0.20721318,0.10715774,0.16111830,0.24266760
48285,0,USTexasLavaca,Texas,Lavaca,2021-01-05 08:30:20.662087,2020-04-20 00:00:00.000000,0.09517523,0.16905630,0.30428771,19,34,61,12,21,41,0.06119435,0.10533183,0.20495259,0.10654547,0.16162311,0.23269741
48285,0,USTexasLavaca,Texas,Lavaca,2021-01-05 08:30:20.662087,2020-04-21 00:00:00.000000,0.09927092,0.16454707,0.30914963,20,33,62,12,21,41,0.06194540,0.10453020,0.20833090,0.10622034,0.16170945,0.22950298
48285,0,USTexasLavaca,Texas,Lavaca,2021-01-05 08:30:20.662087,2020-04-22 00:00:00.000000,0.09863089,0.16144644,0.31399051,19,32,63,12,20,42,0.06146980,0.10210499,0.21165761,0.10445818,0.16038722,0.22043522
48285,0,USTexasLavaca,Texas,Lavaca,2021-01-05 08:30:20.662087,2020-04-23 00:00:00.000000,0.09857976,0.16296230,0.31877286,19,32,64,12,20,43,0.06374753,0.10372252,0.21498159,0.10389601,0.15645473,0.21961344
48285,0,USTexasLavaca,Texas,Lavaca,2021-01-05 08:30:20.662087,2020-04-24 00:00:00.000000,0.09512534,0.16628411,0.32346978,19,33,65,12,20,43,0.06103582,0.10300803,0.21828477,0.10969954,0.15614547,0.21982880
48285,0,USTexasLavaca,Texas,Lavaca,2021-01-05 08:30:20.662087,2020-04-25 00:00:00.000000,0.09207470,0.16897254,0.32804604,18,34,66,12,20,44,0.06098647,0.10388600,0.22154449,0.11095616,0.15801709,0.23349191
48285,0,USTexasLavaca,Texas,Lavaca,2021-01-05 08:30:20.662087,2020-04-26 00:00:00.000000,0.08971268,0.16886163,0.33242177,18,34,66,12,21,45,0.06049586,0.10464786,0.22420335,0.10655989,0.15923257,0.23559489
48285,0,USTexasLavaca,Texas,Lavaca,2021-01-05 08:30:20.662087,2020-04-27 00:00:00.000000,0.08778858,0.16651389,0.33264279,17,33,67,11,20,45,0.05856139,0.10304501,0.22622711,0.10428812,0.15970930,0.23598847
48285,0,USTexasLavaca,Texas,Lavaca,2021-01-05 08:30:20.662087,2020-04-28 00:00:00.000000,0.08610221,0.16563585,0.33237681,17,33,66,11,20,45,0.05831366,0.10295758,0.22790490,0.10368422,0.15875782,0.23521256
48285,0,USTexasLavaca,Texas,Lavaca,2021-01-05 08:30:20.662087,2020-04-29 00:00:00.000000,0.08591796,0.16578100,0.33145256,17,33,66,11,20,46,0.05871225,0.10211041,0.22937524,0.10396893,0.15964810,0.22960332
48285,0,USTexasLavaca,Texas,Lavaca,2021-01-05 08:30:20.662087,2020-04-30 00:00:00.000000,0.08701468,0.16373090,0.32984282,17,32,66,11,20,46,0.05784321,0.10169904,0.22901849,0.10384617,0.16445710,0.22151285
48285,0,USTexasLavaca,Texas,Lavaca,2021-01-05 08:30:20.662087,2020-05-01 00:00:00.000000,0.08746426,0.16012851,0.32673094,17,32,65,11,20,45,0.05626615,0.10277153,0.22607770,0.09589857,0.16492891,0.21372149
48285,0,USTexasLavaca,Texas,Lavaca,2021-01-05 08:30:20.662087,2020-05-02 00:00:00.000000,0.08513664,0.15857220,0.32077631,17,31,64,11,20,44,0.05471713,0.10235739,0.22223518,0.09425891,0.16320576,0.20935725
48285,0,USTexasLavaca,Texas,Lavaca,2021-01-05 08:30:20.662087,2020-05-03 00:00:00.000000,0.08302950,0.15946718,0.31227831,16,32,62,10,20,43,0.05322860,0.10394467,0.21825895,0.09425087,0.16193421,0.22225845
48285,0,USTexasLavaca,Texas,Lavaca,2021-01-05 08:30:20.662087,2020-05-04 00:00:00.000000,0.09059568,0.16166333,0.30459184,18,32,61,10,21,43,0.05184914,0.10435094,0.21415210,0.09433046,0.16245360,0.22762811
48285,0,USTexasLavaca,Texas,Lavaca,2021-01-05 08:30:20.662087,2020-05-05 00:00:00.000000,0.08502737,0.16056338,0.29682613,17,32,59,10,20,42,0.05076403,0.10384220,0.20990387,0.09448134,0.16213601,0.23115356
48285,0,USTexasLavaca,Texas,Lavaca,2021-01-05 08:30:20.662087,2020-05-06 00:00:00.000000,0.08110661,0.16180027,0.28993355,16,32,58,10,20,41,0.05282639,0.10202322,0.20560823,0.09475274,0.16294777,0.22891102
48285,0,USTexasLavaca,Texas,Lavaca,2021-01-05 08:30:20.662087,2020-05-07 00:00:00.000000,0.08180570,0.16198046,0.28633353,16,32,57,10,20,40,0.05183788,0.10236144,0.20146201,0.09606048,0.16520507,0.23591950
48285,0,USTexasLavaca,Texas,Lavaca,2021-01-05 08:30:20.662087,2020-05-08 00:00:00.000000,0.08260597,0.16289160,0.28594826,16,32,57,9,20,39,0.04894815,0.10315534,0.19767109,0.09930663,0.17005702,0.25061412
48285,0,USTexasLavaca,Texas,Lavaca,2021-01-05 08:30:20.662087,2020-05-09 00:00:00.000000,0.08344650,0.16268786,0.28647721,16,32,57,9,20,39,0.04938072,0.10268955,0.19419971,0.10398725,0.17209713,0.25484963
48285,0,USTexasLavaca,Texas,Lavaca,2021-01-05 08:30:20.662087,2020-05-10 00:00:00.000000,0.08430799,0.16392080,0.28738883,16,33,57,10,20,38,0.04985259,0.10324106,0.19095664,0.10408797,0.17530306,0.26684873
48285,0,USTexasLavaca,Texas,Lavaca,2021-01-05 08:30:20.662087,2020-05-11 00:00:00.000000,0.09573585,0.16404810,0.29932028,19,33,60,10,21,37,0.05033329,0.10446226,0.18788015,0.10564467,0.17657097,0.27433718
48285,0,USTexasLavaca,Texas,Lavaca,2021-01-05 08:30:20.662087,2020-05-12 00:00:00.000000,0.09449965,0.16381757,0.30528371,19,33,61,11,21,37,0.05501046,0.10559173,0.18696104,0.10920131,0.17805578,0.28558226
48285,0,USTexasLavaca,Texas,Lavaca,2021-01-05 08:30:20.662087,2020-05-13 00:00:00.000000,0.09240895,0.16397745,0.31683562,18,33,63,11,21,39,0.05693098,0.10630581,0.19417054,0.10940213,0.18161443,0.28625241
48285,0,USTexasLavaca,Texas,Lavaca,2021-01-05 08:30:20.662087,2020-05-14 00:00:00.000000,0.09142516,0.16393520,0.32904280,18,33,66,11,21,40,0.05513002,0.10581736,0.20128137,0.10979019,0.18504679,0.28472752
48285,0,USTexasLavaca,Texas,Lavaca,2021-01-05 08:30:20.662087,2020-05-15 00:00:00.000000,0.09041198,0.16441968,0.34185045,18,33,68,11,21,41,0.05528224,0.10561115,0.20828353,0.11868022,0.19043244,0.28122175
48285,0,USTexasLavaca,Texas,Lavaca,2021-01-05 08:30:20.662087,2020-05-16 00:00:00.000000,0.08784841,0.16368007,0.35539568,17,32,71,10,20,43,0.05421350,0.10416703,0.21511084,0.12311395,0.19172738,0.29722535
48285,0,USTexasLavaca,Texas,Lavaca,2021-01-05 08:30:20.662087,2020-05-17 00:00:00.000000,0.08785766,0.16662087,0.37026131,17,33,74,10,20,44,0.05352627,0.10247030,0.22165052,0.12397840,0.19374431,0.30018507
48285,0,USTexasLavaca,Texas,Lavaca,2021-01-05 08:30:20.662087,2020-05-18 00:00:00.000000,0.09212990,0.16960403,0.37515971,18,34,75,10,21,45,0.05347543,0.10434860,0.22767140,0.12661191,0.19649801,0.31228411
48285,0,USTexasLavaca,Texas,Lavaca,2021-01-05 08:30:20.662087,2020-05-19 00:00:00.000000,0.09669582,0.17494640,0.37746940,19,35,76,10,21,46,0.05331957,0.10783097,0.23045144,0.12756231,0.20081641,0.31745493
48285,0,USTexasLavaca,Texas,Lavaca,2021-01-05 08:30:20.662087,2020-05-20 00:00:00.000000,0.09849891,0.18231417,0.38177156,19,36,76,11,22,46,0.05784520,0.11067974,0.23153232,0.12836747,0.21006107,0.32058426
48285,0,USTexasLavaca,Texas,Lavaca,2021-01-05 08:30:20.662087,2020-05-21 00:00:00.000000,0.10160896,0.18996985,0.38912693,20,38,78,11,22,48,0.05845687,0.11240020,0.24170299,0.13473357,0.21708889,0.32730704
48285,0,USTexasLavaca,Texas,Lavaca,2021-01-05 08:30:20.662087,2020-05-22 00:00:00.000000,0.10558877,0.19271908,0.40369302,21,38,81,12,23,50,0.05987218,0.11470459,0.25189314,0.13864889,0.22627264,0.34030352
48285,0,USTexasLavaca,Texas,Lavaca,2021-01-05 08:30:20.662087,2020-05-23 00:00:00.000000,0.10994281,0.20191282,0.43142816,22,40,86,12,24,52,0.06191977,0.11925440,0.26063840,0.14101276,0.23231950,0.34803427
48285,0,USTexasLavaca,Texas,Lavaca,2021-01-05 08:30:20.662087,2020-05-24 00:00:00.000000,0.10984180,0.21001837,0.45885863,22,42,92,12,24,53,0.06433778,0.12156194,0.26748613,0.15993036,0.23883317,0.35140965
48285,0,USTexasLavaca,Texas,Lavaca,2021-01-05 08:30:20.662087,2020-05-25 00:00:00.000000,0.11161258,0.21623522,0.46294825,22,43,93,13,24,55,0.06562452,0.12292530,0.27518495,0.17758735,0.25165061,0.35394407
48285,0,USTexasLavaca,Texas,Lavaca,2021-01-05 08:30:20.662087,2020-05-26 00:00:00.000000,0.11362094,0.22063024,0.46794830,22,44,94,13,25,56,0.06649876,0.12879696,0.28201201,0.17867756,0.26983645,0.35708677
48285,0,USTexasLavaca,Texas,Lavaca,2021-01-05 08:30:20.662087,2020-05-27 00:00:00.000000,0.11635435,0.22844146,0.48202019,23,46,97,13,28,58,0.06743181,0.13898095,0.28851658,0.18184633,0.28082174,0.38957342
48285,0,USTexasLavaca,Texas,Lavaca,2021-01-05 08:30:20.662087,2020-05-28 00:00:00.000000,0.12100152,0.24184759,0.50016034,24,48,100,13,29,59,0.06879156,0.14634360,0.29499593,0.19216051,0.29127012,0.40912616
48285,0,USTexasLavaca,Texas,Lavaca,2021-01-05 08:30:20.662087,2020-05-29 00:00:00.000000,0.12350811,0.25739135,0.51898489,24,51,104,14,31,61,0.07098442,0.15424168,0.30318788,0.20265111,0.30327872,0.42121833
48285,0,USTexasLavaca,Texas,Lavaca,2021-01-05 08:30:20.662087,2020-05-30 00:00:00.000000,0.12280077,0.27315668,0.53897931,24,55,108,15,32,63,0.07458687,0.15986625,0.31522373,0.22370873,0.31522310,0.44957512
48285,0,USTexasLavaca,Texas,Lavaca,2021-01-05 08:30:20.662087,2020-05-31 00:00:00.000000,0.12282208,0.28787439,0.56060048,24,58,112,14,33,66,0.07414053,0.16812729,0.33145659,0.21318336,0.32569394,0.48714777
48285,0,USTexasLavaca,Texas,Lavaca,2021-01-05 08:30:20.662087,2020-06-01 00:00:00.000000,0.12706856,0.30451649,0.56685157,25,61,114,14,35,71,0.07394647,0.17783164,0.35500951,0.21030320,0.33352188,0.50183555
48285,0,USTexasLavaca,Texas,Lavaca,2021-01-05 08:30:20.662087,2020-06-02 00:00:00.000000,0.14022615,0.33137277,0.59547543,28,66,120,15,37,75,0.07526369,0.18729115,0.37392834,0.21121774,0.34000067,0.50597634
48285,0,USTexasLavaca,Texas,Lavaca,2021-01-05 08:30:20.662087,2020-06-03 00:00:00.000000,0.14945446,0.36042421,0.63044980,30,72,127,16,40,76,0.08109845,0.20230250,0.38084267,0.21786855,0.35737394,0.50792134
48285,0,USTexasLavaca,Texas,Lavaca,2021-01-05 08:30:20.662087,2020-06-04 00:00:00.000000,0.15931183,0.38626746,0.65789681,32,77,132,17,43,78,0.08904671,0.21685862,0.38728194,0.25181394,0.37564134,0.51048433
48285,0,USTexasLavaca,Texas,Lavaca,2021-01-05 08:30:20.662087,2020-06-05 00:00:00.000000,0.16985694,0.41394991,0.68854512,34,83,138,19,47,79,0.09492263,0.23562343,0.39502541,0.27694694,0.39143509,0.52917423
48285,0,USTexasLavaca,Texas,Lavaca,2021-01-05 08:30:20.662087,2020-06-06 00:00:00.000000,0.18113563,0.45072177,0.72708575,36,90,146,20,51,81,0.10119963,0.25451620,0.40490934,0.28130314,0.40935936,0.56086919
48285,0,USTexasLavaca,Texas,Lavaca,2021-01-05 08:30:20.662087,2020-06-07 00:00:00.000000,0.19335643,0.49070200,0.80157356,38,98,161,21,55,86,0.10791120,0.27359182,0.42879236,0.29607903,0.42528702,0.60477548
48285,0,USTexasLavaca,Texas,Lavaca,2021-01-05 08:30:20.662087,2020-06-08 00:00:00.000000,0.22518866,0.53863282,0.87221484,45,108,175,23,59,92,0.11514844,0.29717981,0.46122478,0.31165721,0.43586115,0.62750844
48285,0,USTexasLavaca,Texas,Lavaca,2021-01-05 08:30:20.662087,2020-06-09 00:00:00.000000,0.25963045,0.58093703,0.96520404,52,117,194,26,64,100,0.13004148,0.31958104,0.49897121,0.32800435,0.45247736,0.66138026
48285,0,USTexasLavaca,Texas,Lavaca,2021-01-05 08:30:20.662087,2020-06-10 00:00:00.000000,0.29899125,0.64015448,1.05916967,60,129,213,30,69,109,0.14966654,0.34302121,0.54158937,0.32842231,0.46510716,0.69497063
48285,0,USTexasLavaca,Texas,Lavaca,2021-01-05 08:30:20.662087,2020-06-11 00:00:00.000000,0.34204634,0.70141346,1.16129291,68,141,234,34,76,118,0.17244079,0.37832164,0.58967327,0.32892233,0.48023254,0.68709609
48285,0,USTexasLavaca,Texas,Lavaca,2021-01-05 08:30:20.662087,2020-06-12 00:00:00.000000,0.36470805,0.74731521,1.27110082,73,150,256,39,83,129,0.19783812,0.41526625,0.64413015,0.34534019,0.49465274,0.70377465
48285,0,USTexasLavaca,Texas,Lavaca,2021-01-05 08:30:20.662087,2020-06-13 00:00:00.000000,0.42751344,0.81276464,1.38845456,86,163,279,45,90,146,0.22550735,0.45002845,0.72551925,0.35833962,0.50695106,0.70255894
48285,0,USTexasLavaca,Texas,Lavaca,2021-01-05 08:30:20.662087,2020-06-14 00:00:00.000000,0.48623950,0.88720626,1.51327154,97,178,304,49,100,163,0.24798545,0.49715888,0.81118376,0.35882457,0.51303944,0.70006151
48285,0,USTexasLavaca,Texas,Lavaca,2021-01-05 08:30:20.662087,2020-06-15 00:00:00.000000,0.53852570,0.98354716,1.65841713,108,198,334,53,110,179,0.26579855,0.54628680,0.89247912,0.36281118,0.52562663,0.69634096
48285,0,USTexasLavaca,Texas,Lavaca,2021-01-05 08:30:20.662087,2020-06-16 00:00:00.000000,0.58805737,1.05765970,1.85270089,118,213,373,58,119,198,0.29222127,0.59049931,0.98448928,0.38997966,0.53246277,0.69177404
48285,0,USTexasLavaca,Texas,Lavaca,2021-01-05 08:30:20.662087,2020-06-17 00:00:00.000000,0.66586115,1.15185388,2.01967471,134,232,407,65,129,220,0.32439758,0.64421561,1.09202855,0.39371526,0.54165255,0.69844200
48285,0,USTexasLavaca,Texas,Lavaca,2021-01-05 08:30:20.662087,2020-06-18 00:00:00.000000,0.75166770,1.28637769,2.20507185,151,259,444,73,140,243,0.36225423,0.69694213,1.20918858,0.41085617,0.54830279,0.68585238
48285,0,USTexasLavaca,Texas,Lavaca,2021-01-05 08:30:20.662087,2020-06-19 00:00:00.000000,0.83441749,1.39326053,2.44529734,168,280,492,81,154,265,0.40404956,0.76802626,1.31897629,0.42383141,0.55056419,0.68576841
48285,0,USTexasLavaca,Texas,Lavaca,2021-01-05 08:30:20.662087,2020-06-20 00:00:00.000000,0.92018543,1.52024673,2.70803652,185,306,545,90,171,286,0.44939319,0.84886291,1.42103865,0.42635836,0.55496945,0.68568712
48285,0,USTexasLavaca,Texas,Lavaca,2021-01-05 08:30:20.662087,2020-06-21 00:00:00.000000,1.00832997,1.67717439,2.92642464,203,338,589,100,190,318,0.49705820,0.94319316,1.57858052,0.41830265,0.55194371,0.69820372
48285,0,USTexasLavaca,Texas,Lavaca,2021-01-05 08:30:20.662087,2020-06-22 00:00:00.000000,1.08511044,1.81726229,3.17437218,218,366,639,110,207,354,0.54637155,1.02745263,1.75661487,0.42281817,0.54435489,0.70794748
48285,0,USTexasLavaca,Texas,Lavaca,2021-01-05 08:30:20.662087,2020-06-23 00:00:00.000000,1.17029683,1.98681217,3.47891622,235,400,701,119,226,392,0.59201163,1.12276336,1.94653588,0.43956623,0.54421381,0.70645483
48285,0,USTexasLavaca,Texas,Lavaca,2021-01-05 08:30:20.662087,2020-06-24 00:00:00.000000,1.26658519,2.15263662,3.80656254,255,433,767,130,241,433,0.64990030,1.19644810,2.15278372,0.43277622,0.54701656,0.69983377
48285,0,USTexasLavaca,Texas,Lavaca,2021-01-05 08:30:20.662087,2020-06-25 00:00:00.000000,1.37976538,2.36839900,4.16017871,278,477,838,145,262,478,0.72169559,1.30357963,2.37369642,0.42987960,0.54903626,0.69282277
48285,0,USTexasLavaca,Texas,Lavaca,2021-01-05 08:30:20.662087,2020-06-26 00:00:00.000000,1.51411989,2.60834277,4.54295760,305,525,915,162,287,519,0.80623149,1.42408060,2.57893673,0.44515090,0.55199930,0.71143938
48285,0,USTexasLavaca,Texas,Lavaca,2021-01-05 08:30:20.662087,2020-06-27 00:00:00.000000,1.68126618,2.86300949,4.95852611,338,577,999,182,313,558,0.90468460,1.55393744,2.77249458,0.44033203,0.55467990,0.69971435
48285,0,USTexasLavaca,Texas,Lavaca,2021-01-05 08:30:20.662087,2020-06-28 00:00:00.000000,1.89378667,3.09986334,5.41025363,381,624,1090,205,341,599,1.01790712,1.69686546,2.97352217,0.43731782,0.55030873,0.69124136
48285,0,USTexasLavaca,Texas,Lavaca,2021-01-05 08:30:20.662087,2020-06-29 00:00:00.000000,2.13121160,3.35554886,5.75528953,429,676,1159,231,373,641,1.14669975,1.85354452,3.18252220,0.43636242,0.54970686,0.69792460
48285,0,USTexasLavaca,Texas,Lavaca,2021-01-05 08:30:20.662087,2020-06-30 00:00:00.000000,2.33723980,3.63038736,5.99930361,471,731,1209,255,403,685,1.26932358,2.00342874,3.40230013,0.43661058,0.54321730,0.70091767
48285,0,USTexasLavaca,Texas,Lavaca,2021-01-05 08:30:20.662087,2020-07-01 00:00:00.000000,2.53949081,3.92305187,6.24057113,511,790,1257,278,435,732,1.38071472,2.16247597,3.63328355,0.42791699,0.53975046,0.70219825
48285,0,USTexasLavaca,Texas,Lavaca,2021-01-05 08:30:20.662087,2020-07-02 00:00:00.000000,2.75336751,4.24268431,6.44512551,554,855,1298,302,473,765,1.50057424,2.34860151,3.79620809,0.40658224,0.53526715,0.70271057
48285,0,USTexasLavaca,Texas,Lavaca,2021-01-05 08:30:20.662087,2020-07-03 00:00:00.000000,2.99726323,4.55538823,6.92054498,604,918,1394,328,511,810,1.62785928,2.53830687,4.02126751,0.39149522,0.51707628,0.70279538
48285,0,USTexasLavaca,Texas,Lavaca,2021-01-05 08:30:20.662087,2020-07-04 00:00:00.000000,3.26649933,4.85760947,7.30445190,658,979,1472,354,543,878,1.75732665,2.69531433,4.35977831,0.38603415,0.50864003,0.67306598
48285,0,USTexasLavaca,Texas,Lavaca,2021-01-05 08:30:20.662087,2020-07-05 00:00:00.000000,3.57912905,5.20757539,7.64573355,721,1049,1540,379,587,937,1.88244058,2.91616981,4.65224792,0.37497634,0.50297101,0.62322727
48285,0,USTexasLavaca,Texas,Lavaca,2021-01-05 08:30:20.662087,2020-07-06 00:00:00.000000,3.90851646,5.50963076,7.98895898,787,1110,1610,404,626,989,2.00547570,3.10813197,4.90742428,0.36958464,0.48682848,0.62213964
48285,0,USTexasLavaca,Texas,Lavaca,2021-01-05 08:30:20.662087,2020-07-07 00:00:00.000000,4.17117285,5.77739826,8.33710420,840,1164,1680,438,672,1037,2.17539930,3.33531036,5.14842634,0.36096296,0.48000100,0.60183706
48285,0,USTexasLavaca,Texas,Lavaca,2021-01-05 08:30:20.662087,2020-07-08 00:00:00.000000,4.27460798,6.10313688,8.67282708,861,1230,1747,473,720,1084,2.35035958,3.57630512,5.38108431,0.34002691,0.47392107,0.60095372
48285,0,USTexasLavaca,Texas,Lavaca,2021-01-05 08:30:20.662087,2020-07-09 00:00:00.000000,4.37770492,6.40386905,8.78012316,882,1290,1769,505,755,1129,2.50624084,3.74822242,5.60535200,0.31023188,0.45847935,0.59846905
48285,0,USTexasLavaca,Texas,Lavaca,2021-01-05 08:30:20.662087,2020-07-10 00:00:00.000000,4.57271970,6.56939031,8.64794839,921,1323,1742,535,792,1160,2.65467728,3.93112318,5.75764620,0.27976596,0.43936688,0.56671870
48285,0,USTexasLavaca,Texas,Lavaca,2021-01-05 08:30:20.662087,2020-07-11 00:00:00.000000,4.72294967,6.72878530,8.76735397,951,1356,1766,560,820,1151,2.78032655,4.06898724,5.71359147,0.25090500,0.41105273,0.54273635
48285,0,USTexasLavaca,Texas,Lavaca,2021-01-05 08:30:20.662087,2020-07-12 00:00:00.000000,4.82036465,6.90172293,9.05551174,971,1390,1825,573,833,1178,2.84775753,4.13371360,5.84794077,0.21687538,0.38315135,0.50915915
48285,0,USTexasLavaca,Texas,Lavaca,2021-01-05 08:30:20.662087,2020-07-13 00:00:00.000000,4.89864215,6.82533817,9.23203086,987,1375,1860,592,857,1165,2.93894497,4.25545693,5.78306744,0.20199425,0.34791649,0.45277903
48285,0,USTexasLavaca,Texas,Lavaca,2021-01-05 08:30:20.662087,2020-07-14 00:00:00.000000,4.93830550,6.79041837,9.04660527,995,1368,1823,602,866,1220,2.99043726,4.29732958,6.05811309,0.19969084,0.32409016,0.42839299
48285,0,USTexasLavaca,Texas,Lavaca,2021-01-05 08:30:20.662087,2020-07-15 00:00:00.000000,4.90330466,6.77316267,8.81015829,988,1365,1775,608,868,1232,3.01691663,4.31004858,6.11368241,0.19322940,0.29563847,0.40281011
48285,0,USTexasLavaca,Texas,Lavaca,2021-01-05 08:30:20.662087,2020-07-16 00:00:00.000000,4.83792749,6.67118550,8.85277446,975,1344,1784,600,857,1195,2.98041810,4.25365791,5.93013073,0.18062698,0.27678409,0.38419788
48285,0,USTexasLavaca,Texas,Lavaca,2021-01-05 08:30:20.662087,2020-07-17 00:00:00.000000,4.68507031,6.50408561,8.52295501,944,1310,1717,591,842,1142,2.93649223,4.18043177,5.66900935,0.16001683,0.25064477,0.35393611
48285,0,USTexasLavaca,Texas,Lavaca,2021-01-05 08:30:20.662087,2020-07-18 00:00:00.000000,4.45621512,6.30370999,8.31374361,898,1270,1675,570,825,1089,2.82822889,4.09662054,5.40343735,0.14963425,0.23107132,0.33275188
48285,0,USTexasLavaca,Texas,Lavaca,2021-01-05 08:30:20.662087,2020-07-19 00:00:00.000000,4.20983857,6.05944022,8.04501500,848,1221,1621,543,804,1085,2.69503199,3.99153640,5.38394331,0.14926023,0.21807688,0.30413266
48285,0,USTexasLavaca,Texas,Lavaca,2021-01-05 08:30:20.662087,2020-07-20 00:00:00.000000,3.94112210,5.81570345,7.74423400,794,1172,1560,516,776,1068,2.56187957,3.85377374,5.29923373,0.14688347,0.20958659,0.27363447
48285,0,USTexasLavaca,Texas,Lavaca,2021-01-05 08:30:20.662087,2020-07-21 00:00:00.000000,3.67215246,5.49076236,7.42298148,740,1106,1496,486,743,1028,2.41300141,3.68822837,5.10546681,0.14656016,0.20426110,0.27228328
48285,0,USTexasLavaca,Texas,Lavaca,2021-01-05 08:30:20.662087,2020-07-22 00:00:00.000000,3.40143782,5.15359862,7.09823776,685,1038,1430,452,709,970,2.24582910,3.52127347,4.81625915,0.14724092,0.19925373,0.26403189
48285,0,USTexasLavaca,Texas,Lavaca,2021-01-05 08:30:20.662087,2020-07-23 00:00:00.000000,3.13383936,4.87459015,6.75151155,631,982,1360,419,673,927,2.08000180,3.33955947,4.60289666,0.14616036,0.19385534,0.25309526
48285,0,USTexasLavaca,Texas,Lavaca,2021-01-05 08:30:20.662087,2020-07-24 00:00:00.000000,2.87667034,4.60502520,6.40473608,579,928,1290,386,639,889,1.91662501,3.17097576,4.41487902,0.14251623,0.18815356,0.25604753
48285,0,USTexasLavaca,Texas,Lavaca,2021-01-05 08:30:20.662087,2020-07-25 00:00:00.000000,2.63486511,4.32767105,6.06760424,531,872,1222,354,599,853,1.75914225,2.97704120,4.23546260,0.13907986,0.18382011,0.23804624
48285,0,USTexasLavaca,Texas,Lavaca,2021-01-05 08:30:20.662087,2020-07-26 00:00:00.000000,2.41201369,4.04833613,5.74354633,486,815,1157,324,563,819,1.61091225,2.79625147,4.06474398,0.13350057,0.18062540,0.24263270
48285,0,USTexasLavaca,Texas,Lavaca,2021-01-05 08:30:20.662087,2020-07-27 00:00:00.000000,2.21473325,3.76328104,5.44547576,446,758,1097,296,530,786,1.47351800,2.63445121,3.90129464,0.12847856,0.17798112,0.25084786
48285,0,USTexasLavaca,Texas,Lavaca,2021-01-05 08:30:20.662087,2020-07-28 00:00:00.000000,2.03638020,3.52169660,5.16240599,410,709,1040,272,499,754,1.35295851,2.47646146,3.74187218,0.12465702,0.17465468,0.25218268
48285,0,USTexasLavaca,Texas,Lavaca,2021-01-05 08:30:20.662087,2020-07-29 00:00:00.000000,1.87504974,3.29622874,4.89458125,377,664,986,250,464,722,1.24443774,2.30497581,3.58700370,0.12274933,0.17430329,0.25391055
48285,0,USTexasLavaca,Texas,Lavaca,2021-01-05 08:30:20.662087,2020-07-30 00:00:00.000000,1.72846633,3.07022323,4.64113696,348,618,935,230,433,687,1.14593434,2.15032325,3.41330841,0.11820397,0.17315229,0.25326957
48285,0,USTexasLavaca,Texas,Lavaca,2021-01-05 08:30:20.662087,2020-07-31 00:00:00.000000,1.59508549,2.84484731,4.40144144,321,573,887,212,404,652,1.05627514,2.00538117,3.23734791,0.11749676,0.17272910,0.24853144
48285,0,USTexasLavaca,Texas,Lavaca,2021-01-05 08:30:20.662087,2020-08-01 00:00:00.000000,1.46255243,2.66715261,4.17491650,294,537,841,196,376,618,0.97467664,1.86768180,3.07063874,0.11693445,0.17368672,0.24583607
48285,0,USTexasLavaca,Texas,Lavaca,2021-01-05 08:30:20.662087,2020-08-02 00:00:00.000000,1.35226099,2.50155354,3.96078011,272,504,798,181,350,587,0.90052584,1.73752720,2.91282270,0.11379406,0.17344904,0.24364269
48285,0,USTexasLavaca,Texas,Lavaca,2021-01-05 08:30:20.662087,2020-08-03 00:00:00.000000,1.26161829,2.38722412,3.74732151,254,481,755,167,327,556,0.83332191,1.62531047,2.76347571,0.11157055,0.17461150,0.24881281
48285,0,USTexasLavaca,Texas,Lavaca,2021-01-05 08:30:20.662087,2020-08-04 00:00:00.000000,1.17950299,2.26430292,3.54481700,237,456,714,155,303,527,0.77347135,1.50815431,2.61785260,0.11156655,0.17928683,0.25401517
48285,0,USTexasLavaca,Texas,Lavaca,2021-01-05 08:30:20.662087,2020-08-05 00:00:00.000000,1.10135601,2.12190768,3.35234682,221,427,675,145,284,499,0.72023783,1.41212711,2.47784023,0.11182749,0.17983943,0.26761514
48285,0,USTexasLavaca,Texas,Lavaca,2021-01-05 08:30:20.662087,2020-08-06 00:00:00.000000,1.03938385,1.99435832,3.16909657,209,401,638,135,273,472,0.67250041,1.35630270,2.34421474,0.11544386,0.18234322,0.27324000
48285,0,USTexasLavaca,Texas,Lavaca,2021-01-05 08:30:20.662087,2020-08-07 00:00:00.000000,0.98782654,1.89026009,2.99523417,199,380,603,126,260,446,0.62935854,1.29064956,2.21718832,0.12253788,0.18959655,0.27466316
48285,0,USTexasLavaca,Texas,Lavaca,2021-01-05 08:30:20.662087,2020-08-08 00:00:00.000000,0.94279992,1.77669527,2.83074679,190,358,570,118,243,422,0.59030275,1.20729960,2.09668280,0.13344023,0.19501950,0.28072196
48285,0,USTexasLavaca,Texas,Lavaca,2021-01-05 08:30:20.662087,2020-08-09 00:00:00.000000,0.90307623,1.66898897,2.67526334,182,336,539,111,225,399,0.55529526,1.11793382,1.98246492,0.13587952,0.20056415,0.29245821
48285,0,USTexasLavaca,Texas,Lavaca,2021-01-05 08:30:20.662087,2020-08-10 00:00:00.000000,0.86044135,1.59626232,2.53402580,173,321,510,105,214,377,0.52490031,1.06195212,1.87421428,0.14306832,0.20983886,0.30957460
48285,0,USTexasLavaca,Texas,Lavaca,2021-01-05 08:30:20.662087,2020-08-11 00:00:00.000000,0.82129547,1.54703468,2.41074777,165,311,485,98,202,357,0.49056571,1.00518588,1.77373623,0.14782739,0.22263871,0.31675833
48285,0,USTexasLavaca,Texas,Lavaca,2021-01-05 08:30:20.662087,2020-08-12 00:00:00.000000,0.78541707,1.48876810,2.37343011,158,300,478,94,195,338,0.46810094,0.96942123,1.67959973,0.15280361,0.23822687,0.31934607
48285,0,USTexasLavaca,Texas,Lavaca,2021-01-05 08:30:20.662087,2020-08-13 00:00:00.000000,0.75521872,1.42564511,2.33997598,152,287,471,90,188,324,0.44728031,0.93651651,1.60932794,0.16747734,0.24060474,0.33108270
48285,0,USTexasLavaca,Texas,Lavaca,2021-01-05 08:30:20.662087,2020-08-14 00:00:00.000000,0.73471863,1.37787956,2.30869649,148,277,465,86,183,311,0.42946678,0.90838829,1.54506802,0.16916310,0.25440221,0.35953234
48285,0,USTexasLavaca,Texas,Lavaca,2021-01-05 08:30:20.662087,2020-08-15 00:00:00.000000,0.72827730,1.32819837,2.27862668,146,267,459,83,178,299,0.41598600,0.88732546,1.48517548,0.17652626,0.26275836,0.39550520
48285,0,USTexasLavaca,Texas,Lavaca,2021-01-05 08:30:20.662087,2020-08-16 00:00:00.000000,0.73580816,1.26718585,2.24953486,148,255,453,83,172,289,0.41319005,0.85615219,1.43574562,0.17915287,0.27912749,0.41496656
48285,0,USTexasLavaca,Texas,Lavaca,2021-01-05 08:30:20.662087,2020-08-17 00:00:00.000000,0.75624891,1.24960175,2.21431858,152,251,446,83,165,281,0.41399461,0.82072721,1.39647557,0.18123315,0.29130199,0.43330780
48285,0,USTexasLavaca,Texas,Lavaca,2021-01-05 08:30:20.662087,2020-08-18 00:00:00.000000,0.78158524,1.22466374,2.18784809,157,246,440,84,161,274,0.41824876,0.80091315,1.36441165,0.18488451,0.30735754,0.43755514
48285,0,USTexasLavaca,Texas,Lavaca,2021-01-05 08:30:20.662087,2020-08-19 00:00:00.000000,0.76916988,1.21017826,2.14573148,155,243,432,86,156,270,0.43081726,0.77636308,1.34276995,0.20074352,0.32197079,0.45880389
48285,0,USTexasLavaca,Texas,Lavaca,2021-01-05 08:30:20.662087,2020-08-20 00:00:00.000000,0.75824880,1.21311033,2.09316059,152,244,421,87,153,268,0.43579226,0.76172714,1.32994929,0.20713097,0.34132861,0.46446867
48285,0,USTexasLavaca,Texas,Lavaca,2021-01-05 08:30:20.662087,2020-08-21 00:00:00.000000,0.74941718,1.20681176,2.04684602,151,243,412,86,151,267,0.42893776,0.75396629,1.32606131,0.22205275,0.36621550,0.50583467
48285,0,USTexasLavaca,Texas,Lavaca,2021-01-05 08:30:20.662087,2020-08-22 00:00:00.000000,0.74307731,1.22850049,2.03229840,149,247,409,85,152,268,0.42358684,0.75767950,1.33016528,0.25431804,0.38929905,0.57768284
48285,0,USTexasLavaca,Texas,Lavaca,2021-01-05 08:30:20.662087,2020-08-23 00:00:00.000000,0.74424216,1.28003033,2.04773429,149,257,412,84,152,259,0.41958205,0.75729963,1.28542611,0.27824533,0.41428894,0.61600335
48285,0,USTexasLavaca,Texas,Lavaca,2021-01-05 08:30:20.662087,2020-08-24 00:00:00.000000,0.71800247,1.31683207,2.08652303,144,265,420,85,154,262,0.42186521,0.76889574,1.30109551,0.28124213,0.44522698,0.64844638
48285,0,USTexasLavaca,Texas,Lavaca,2021-01-05 08:30:20.662087,2020-08-25 00:00:00.000000,0.73318813,1.37432365,2.14466148,147,276,432,88,157,262,0.43872944,0.78283996,1.30462884,0.31812706,0.46542749,0.70091270
48285,0,USTexasLavaca,Texas,Lavaca,2021-01-05 08:30:20.662087,2020-08-26 00:00:00.000000,0.81126715,1.42241726,2.24334912,163,286,452,93,164,265,0.46380070,0.81529731,1.31747050,0.35940976,0.49079564,0.73276685
48285,0,USTexasLavaca,Texas,Lavaca,2021-01-05 08:30:20.662087,2020-08-27 00:00:00.000000,0.89954608,1.47359398,2.34675280,181,296,472,99,173,269,0.49382464,0.85859145,1.33670119,0.37063473,0.51610510,0.77614643
48285,0,USTexasLavaca,Texas,Lavaca,2021-01-05 08:30:20.662087,2020-08-28 00:00:00.000000,0.99533009,1.56122212,2.45729328,200,314,495,106,182,274,0.52608229,0.90676057,1.36064944,0.38285449,0.53759256,0.84405101
48285,0,USTexasLavaca,Texas,Lavaca,2021-01-05 08:30:20.662087,2020-08-29 00:00:00.000000,1.02117663,1.67112889,2.58290367,205,336,520,113,192,284,0.56133026,0.95580612,1.40963107,0.40293801,0.58497279,0.90444220
48285,0,USTexasLavaca,Texas,Lavaca,2021-01-05 08:30:20.662087,2020-08-30 00:00:00.000000,1.04859712,1.77943850,2.72273973,211,358,548,120,204,296,0.59991517,1.01556512,1.46946489,0.42651498,0.62132937,0.92839119
48285,0,USTexasLavaca,Texas,Lavaca,2021-01-05 08:30:20.662087,2020-08-31 00:00:00.000000,1.10423227,1.89045372,2.87941795,222,381,580,129,217,310,0.64259361,1.07935707,1.54037460,0.47331672,0.65741393,0.93318805
48285,0,USTexasLavaca,Texas,Lavaca,2021-01-05 08:30:20.662087,2020-09-01 00:00:00.000000,1.23072247,2.08720735,3.04500602,248,420,613,138,232,326,0.68842775,1.15130530,1.62075431,0.52173476,0.69384948,0.96763946
48285,0,USTexasLavaca,Texas,Lavaca,2021-01-05 08:30:20.662087,2020-09-02 00:00:00.000000,1.39212333,2.27587506,3.23251147,280,458,651,150,254,344,0.74902821,1.26248296,1.71138867,0.54225003,0.72077088,0.96311788
48285,0,USTexasLavaca,Texas,Lavaca,2021-01-05 08:30:20.662087,2020-09-03 00:00:00.000000,1.57446743,2.49864057,3.56079312,317,503,717,167,276,372,0.82936646,1.37213893,1.84736322,0.54789834,0.76145911,1.02358336
48285,0,USTexasLavaca,Texas,Lavaca,2021-01-05 08:30:20.662087,2020-09-04 00:00:00.000000,1.74042439,2.70372218,3.92299147,350,544,790,187,304,409,0.92996232,1.50977213,2.02953064,0.56764890,0.79200422,1.07115977
48285,0,USTexasLavaca,Texas,Lavaca,2021-01-05 08:30:20.662087,2020-09-05 00:00:00.000000,1.94761268,2.97342537,4.31794355,392,599,870,211,331,448,1.04844110,1.64463371,2.22742812,0.58587934,0.83336532,1.10783499
48285,0,USTexasLavaca,Texas,Lavaca,2021-01-05 08:30:20.662087,2020-09-06 00:00:00.000000,2.17838244,3.28519359,4.74577657,439,662,956,238,365,494,1.18271280,1.81167920,2.45410496,0.61693320,0.86276330,1.12980296
48285,0,USTexasLavaca,Texas,Lavaca,2021-01-05 08:30:20.662087,2020-09-07 00:00:00.000000,2.39695926,3.63103841,5.23291788,483,731,1054,267,400,556,1.32501878,1.98744548,2.75909014,0.65133961,0.88112328,1.14753526
48285,0,USTexasLavaca,Texas,Lavaca,2021-01-05 08:30:20.662087,2020-09-08 00:00:00.000000,2.61037085,4.01927982,5.75409872,526,810,1159,298,441,606,1.47873360,2.18948523,3.00917029,0.70174717,0.89151256,1.14895524
48285,0,USTexasLavaca,Texas,Lavaca,2021-01-05 08:30:20.662087,2020-09-09 00:00:00.000000,2.87401842,4.46983759,6.39645141,579,900,1289,332,485,668,1.64851251,2.40980425,3.31523967,0.72477381,0.90300625,1.15180866
48285,0,USTexasLavaca,Texas,Lavaca,2021-01-05 08:30:20.662087,2020-09-10 00:00:00.000000,3.18925492,4.89873560,7.06629734,642,987,1424,366,533,747,1.81611218,2.64902997,3.70748813,0.73256499,0.90401376,1.14102805
48285,0,USTexasLavaca,Texas,Lavaca,2021-01-05 08:30:20.662087,2020-09-11 00:00:00.000000,3.56715281,5.37557409,7.67215981,718,1083,1546,402,587,834,1.99888580,2.91717426,4.13989474,0.76485263,0.90210465,1.13195325
48285,0,USTexasLavaca,Texas,Lavaca,2021-01-05 08:30:20.662087,2020-09-12 00:00:00.000000,3.98918915,5.95338394,8.46735923,803,1199,1706,444,649,929,2.20338400,3.22083873,4.61236429,0.73816713,0.90370811,1.10243078
48285,0,USTexasLavaca,Texas,Lavaca,2021-01-05 08:30:20.662087,2020-09-13 00:00:00.000000,4.45630727,6.47252713,9.29728474,898,1304,1873,495,718,1032,2.45690685,3.56541488,5.12472304,0.75142387,0.90436912,1.08778473
48285,0,USTexasLavaca,Texas,Lavaca,2021-01-05 08:30:20.662087,2020-09-14 00:00:00.000000,4.90537600,7.00668988,10.14363522,988,1412,2044,553,787,1143,2.74412097,3.90858423,5.67625323,0.70439496,0.89511309,1.08127438
48285,0,USTexasLavaca,Texas,Lavaca,2021-01-05 08:30:20.662087,2020-09-15 00:00:00.000000,5.38755637,7.67437614,11.03006822,1085,1546,2222,613,854,1262,3.04357650,4.24051877,6.26549758,0.69234282,0.88488418,1.08159282
48285,0,USTexasLavaca,Texas,Lavaca,2021-01-05 08:30:20.662087,2020-09-16 00:00:00.000000,5.90196915,8.25318605,11.96531864,1189,1663,2411,668,923,1383,3.31638831,4.58281745,6.86250517,0.64626584,0.87892877,1.07812617
48285,0,USTexasLavaca,Texas,Lavaca,2021-01-05 08:30:20.662087,2020-09-17 00:00:00.000000,6.52432548,8.88703541,12.77276665,1314,1791,2574,727,998,1494,3.61105998,4.95336972,7.41703601,0.62513283,0.86792169,1.07462095
48285,0,USTexasLavaca,Texas,Lavaca,2021-01-05 08:30:20.662087,2020-09-18 00:00:00.000000,7.07584760,9.55455477,13.34779715,1426,1925,2690,802,1088,1587,3.98149226,5.40109805,7.87818222,0.49660605,0.84811276,1.05365144
48285,0,USTexasLavaca,Texas,Lavaca,2021-01-05 08:30:20.662087,2020-09-19 00:00:00.000000,7.56752337,10.14054307,13.96607884,1525,2043,2814,868,1165,1736,4.30824886,5.78131734,8.61496018,0.44686374,0.79332503,1.00581129
48285,0,USTexasLavaca,Texas,Lavaca,2021-01-05 08:30:20.662087,2020-09-20 00:00:00.000000,7.94900110,10.66047563,14.24444078,1602,2148,2870,929,1251,1820,4.61244210,6.20948916,9.03140743,0.37648036,0.65191269,0.91930965
48285,0,USTexasLavaca,Texas,Lavaca,2021-01-05 08:30:20.662087,2020-09-21 00:00:00.000000,8.15531877,10.83482134,14.41773360,1643,2183,2905,978,1288,1881,4.85516597,6.39186431,9.33787112,0.34858491,0.53476671,0.84163589
48285,0,USTexasLavaca,Texas,Lavaca,2021-01-05 08:30:20.662087,2020-09-22 00:00:00.000000,8.14601923,10.74402808,14.32342717,1641,2165,2886,1024,1316,1931,5.08252397,6.53221282,9.58282400,0.31820308,0.45112203,0.74789773
48285,0,USTexasLavaca,Texas,Lavaca,2021-01-05 08:30:20.662087,2020-09-23 00:00:00.000000,7.94775128,10.50724326,13.95938939,1601,2117,2813,1042,1336,1909,5.17168930,6.63217243,9.47548770,0.28542311,0.39293224,0.65560886
48285,0,USTexasLavaca,Texas,Lavaca,2021-01-05 08:30:20.662087,2020-09-24 00:00:00.000000,7.48402742,10.15056616,13.32501955,1508,2045,2685,1001,1324,1847,4.96713667,6.57227992,9.16933966,0.25130539,0.36169476,0.56067589
48285,0,USTexasLavaca,Texas,Lavaca,2021-01-05 08:30:20.662087,2020-09-25 00:00:00.000000,7.01531244,9.90931060,12.89552108,1413,1997,2598,944,1301,1768,4.68719875,6.45770370,8.77438981,0.24704051,0.34956820,0.47769842
48285,0,USTexasLavaca,Texas,Lavaca,2021-01-05 08:30:20.662087,2020-09-26 00:00:00.000000,6.61313966,9.35999891,12.50656549,1332,1886,2520,887,1254,1724,4.40606918,6.22568065,8.55424996,0.23079245,0.33105674,0.42181676
48285,0,USTexasLavaca,Texas,Lavaca,2021-01-05 08:30:20.662087,2020-09-27 00:00:00.000000,6.17272457,8.76938199,11.99359959,1244,1767,2417,830,1198,1684,4.12126327,5.94762310,8.36034306,0.22222743,0.31976122,0.40812636
48285,0,USTexasLavaca,Texas,Lavaca,2021-01-05 08:30:20.662087,2020-09-28 00:00:00.000000,5.66691549,8.32379757,11.36347047,1142,1677,2290,772,1143,1605,3.83207883,5.67361522,7.96369092,0.22216560,0.31353905,0.39894388
48285,0,USTexasLavaca,Texas,Lavaca,2021-01-05 08:30:20.662087,2020-09-29 00:00:00.000000,5.18827354,7.80156733,10.75563115,1045,1572,2167,714,1083,1551,3.54752754,5.37603607,7.69880745,0.22215746,0.31236208,0.39510917
48285,0,USTexasLavaca,Texas,Lavaca,2021-01-05 08:30:20.662087,2020-09-30 00:00:00.000000,4.74233378,7.35352377,10.17278850,955,1482,2050,659,1020,1496,3.27409521,5.06571383,7.42390855,0.22216004,0.31180314,0.38935187
48285,0,USTexasLavaca,Texas,Lavaca,2021-01-05 08:30:20.662087,2020-10-01 00:00:00.000000,4.36038307,6.94500457,9.61712513,878,1399,1938,608,976,1437,3.01827543,4.84347819,7.13248980,0.22837400,0.31286318,0.38266056
48285,0,USTexasLavaca,Texas,Lavaca,2021-01-05 08:30:20.662087,2020-10-02 00:00:00.000000,4.03472093,6.54333580,9.09062864,813,1318,1832,568,929,1360,2.81892545,4.61257283,6.75151128,0.23099341,0.31267794,0.39337377
48285,0,USTexasLavaca,Texas,Lavaca,2021-01-05 08:30:20.662087,2020-10-03 00:00:00.000000,3.73541646,6.19504860,8.59366719,752,1248,1731,526,881,1287,2.61020804,4.37441443,6.38793724,0.24026829,0.31328603,0.41087876
48285,0,USTexasLavaca,Texas,Lavaca,2021-01-05 08:30:20.662087,2020-10-04 00:00:00.000000,3.46119959,5.81102138,8.15128487,697,1171,1642,487,833,1233,2.41767711,4.13458400,6.12058563,0.24014947,0.31213305,0.41432786
48285,0,USTexasLavaca,Texas,Lavaca,2021-01-05 08:30:20.662087,2020-10-05 00:00:00.000000,3.20453256,5.49654953,7.82712312,645,1107,1577,451,780,1187,2.24042318,3.87328252,5.89123918,0.24135931,0.31478159,0.40228105
48285,0,USTexasLavaca,Texas,Lavaca,2021-01-05 08:30:20.662087,2020-10-06 00:00:00.000000,2.97126824,5.14930914,7.51283379,598,1037,1514,418,731,1141,2.07549309,3.62852113,5.66486304,0.24226815,0.32079265,0.42730470
48285,0,USTexasLavaca,Texas,Lavaca,2021-01-05 08:30:20.662087,2020-10-07 00:00:00.000000,2.76549165,4.85992566,7.20792677,557,979,1452,387,682,1096,1.92396036,3.38396496,5.44206905,0.24413315,0.32670684,0.43162995
48285,0,USTexasLavaca,Texas,Lavaca,2021-01-05 08:30:20.662087,2020-10-08 00:00:00.000000,2.59491987,4.59045202,6.91352745,522,925,1393,360,639,1052,1.78808225,3.17442890,5.22453270,0.25613209,0.33297470,0.44704288
48285,0,USTexasLavaca,Texas,Lavaca,2021-01-05 08:30:20.662087,2020-10-09 00:00:00.000000,2.45937601,4.34809740,6.63087787,495,876,1336,336,600,1009,1.67174039,2.98079165,5.00676829,0.26244702,0.34145399,0.48024353
48285,0,USTexasLavaca,Texas,Lavaca,2021-01-05 08:30:20.662087,2020-10-10 00:00:00.000000,2.34914633,4.09323641,6.36146229,473,824,1282,317,567,954,1.57639526,2.81431439,4.73746736,0.26554385,0.35240116,0.50941270
48285,0,USTexasLavaca,Texas,Lavaca,2021-01-05 08:30:20.662087,2020-10-11 00:00:00.000000,2.25449958,3.85864970,6.10700467,454,777,1230,302,535,902,1.49868097,2.65786140,4.47855227,0.27733151,0.36537348,0.55981326
48285,0,USTexasLavaca,Texas,Lavaca,2021-01-05 08:30:20.662087,2020-10-12 00:00:00.000000,2.16446612,3.68647766,5.87642012,436,742,1184,288,506,852,1.43331612,2.51121549,4.23051065,0.28583063,0.38480544,0.56275375
48285,0,USTexasLavaca,Texas,Lavaca,2021-01-05 08:30:20.662087,2020-10-13 00:00:00.000000,2.08115513,3.51416344,5.66619603,419,708,1141,276,479,805,1.37404727,2.38136255,3.99450769,0.28864057,0.39926622,0.58979129
48285,0,USTexasLavaca,Texas,Lavaca,2021-01-05 08:30:20.662087,2020-10-14 00:00:00.000000,2.00341118,3.35400009,5.47993222,403,675,1104,265,458,759,1.31935035,2.27708317,3.77024856,0.29167843,0.41469694,0.59963884
48285,0,USTexasLavaca,Texas,Lavaca,2021-01-05 08:30:20.662087,2020-10-15 00:00:00.000000,1.93300321,3.25297195,5.33356647,389,655,1074,255,439,721,1.26853783,2.18043247,3.57887855,0.30030473,0.43106508,0.63070113
48285,0,USTexasLavaca,Texas,Lavaca,2021-01-05 08:30:20.662087,2020-10-16 00:00:00.000000,1.87390787,3.10477005,5.23473058,377,625,1055,246,420,701,1.22207341,2.08803224,3.47892551,0.31891248,0.44599135,0.65418472
48285,0,USTexasLavaca,Texas,Lavaca,2021-01-05 08:30:20.662087,2020-10-17 00:00:00.000000,1.82890602,3.03926630,5.16002745,368,612,1039,238,409,681,1.18171556,2.03018174,3.38304208,0.33441527,0.46043818,0.73907349
48285,0,USTexasLavaca,Texas,Lavaca,2021-01-05 08:30:20.662087,2020-10-18 00:00:00.000000,1.78230423,2.95286638,5.09492231,359,595,1026,227,399,663,1.12946277,1.97995516,3.29313055,0.33153063,0.49364722,0.76283457
48285,0,USTexasLavaca,Texas,Lavaca,2021-01-05 08:30:20.662087,2020-10-19 00:00:00.000000,1.75706535,2.89078764,5.02783901,354,582,1013,217,391,646,1.07820815,1.94422472,3.20984027,0.33006359,0.52227218,0.76490554
48285,0,USTexasLavaca,Texas,Lavaca,2021-01-05 08:30:20.662087,2020-10-20 00:00:00.000000,1.74055696,2.86951871,4.96159634,350,578,999,209,375,631,1.03825005,1.86312051,3.13561467,0.35216278,0.55091432,0.82017223
48285,0,USTexasLavaca,Texas,Lavaca,2021-01-05 08:30:20.662087,2020-10-21 00:00:00.000000,1.73837939,2.84886692,4.86667208,350,574,980,203,364,618,1.00944762,1.81008182,3.06798672,0.35919767,0.58257432,0.85968751
48285,0,USTexasLavaca,Texas,Lavaca,2021-01-05 08:30:20.662087,2020-10-22 00:00:00.000000,1.72502697,2.83143528,4.67780169,347,570,942,200,367,605,0.99327723,1.82225276,3.00491444,0.37077869,0.60046528,0.87552792
48285,0,USTexasLavaca,Texas,Lavaca,2021-01-05 08:30:20.662087,2020-10-23 00:00:00.000000,1.70678989,2.78863608,4.49519131,343,562,905,200,364,593,0.99668873,1.80703523,2.94629139,0.39614462,0.63038879,0.91725713
48285,0,USTexasLavaca,Texas,Lavaca,2021-01-05 08:30:20.662087,2020-10-24 00:00:00.000000,1.71888646,2.75903791,4.31929720,346,556,870,202,357,583,1.00662986,1.77405946,2.89363715,0.40735740,0.65177200,0.92501151
48285,0,USTexasLavaca,Texas,Lavaca,2021-01-05 08:30:20.662087,2020-10-25 00:00:00.000000,1.74518423,2.74883684,4.17777888,351,554,841,205,351,574,1.01982869,1.74207786,2.84981767,0.43872127,0.66855680,0.93884685
48285,0,USTexasLavaca,Texas,Lavaca,2021-01-05 08:30:20.662087,2020-10-26 00:00:00.000000,1.75051128,2.76171575,4.21295027,352,556,849,208,353,559,1.03459930,1.75497030,2.77412358,0.50549867,0.68794704,0.97284442
48285,0,USTexasLavaca,Texas,Lavaca,2021-01-05 08:30:20.662087,2020-10-27 00:00:00.000000,1.73901611,2.81659913,4.32359204,350,567,871,211,351,563,1.05152883,1.74619998,2.79387449,0.51495005,0.71292467,1.00420762
48285,0,USTexasLavaca,Texas,Lavaca,2021-01-05 08:30:20.662087,2020-10-28 00:00:00.000000,1.72772202,2.84614035,4.28017781,348,573,862,215,352,564,1.06937973,1.75007366,2.80019855,0.54749585,0.72885016,1.00532099
48285,0,USTexasLavaca,Texas,Lavaca,2021-01-05 08:30:20.662087,2020-10-29 00:00:00.000000,1.72112320,2.89797720,4.26593147,346,584,859,215,353,567,1.06715054,1.75217669,2.81458312,0.57272978,0.74537632,1.00573056
48285,0,USTexasLavaca,Texas,Lavaca,2021-01-05 08:30:20.662087,2020-10-30 00:00:00.000000,1.72646935,2.91578944,4.30845123,347,587,868,214,352,570,1.06199026,1.75121087,2.83301002,0.59097916,0.78303226,1.07740887
48285,0,USTexasLavaca,Texas,Lavaca,2021-01-05 08:30:20.662087,2020-10-31 00:00:00.000000,1.75258811,2.92234329,4.37474220,353,588,881,214,356,575,1.06222371,1.76924107,2.85554437,0.64989578,0.80274627,1.10275881
48285,0,USTexasLavaca,Texas,Lavaca,2021-01-05 08:30:20.662087,2020-11-01 00:00:00.000000,1.80256516,2.92884213,4.44276746,363,590,895,216,363,582,1.07266920,1.80380489,2.88976589,0.65966315,0.83756296,1.17840519
48285,0,USTexasLavaca,Texas,Lavaca,2021-01-05 08:30:20.662087,2020-11-02 00:00:00.000000,1.87272582,2.97491642,4.51958866,377,599,910,218,373,591,1.08326059,1.85425982,2.93608933,0.66177164,0.85288436,1.22008086
48285,0,USTexasLavaca,Texas,Lavaca,2021-01-05 08:30:20.662087,2020-11-03 00:00:00.000000,1.94626093,3.04451636,4.59598143,392,613,926,215,380,608,1.06972625,1.88594753,3.02020165,0.66055322,0.87177788,1.21958288
48285,0,USTexasLavaca,Texas,Lavaca,2021-01-05 08:30:20.662087,2020-11-04 00:00:00.000000,1.91841063,3.12446552,4.66908962,386,629,941,212,383,619,1.05401234,1.90231965,3.07386593,0.66331921,0.88321700,1.24814364
48285,0,USTexasLavaca,Texas,Lavaca,2021-01-05 08:30:20.662087,2020-11-05 00:00:00.000000,1.92248401,3.14581259,4.73538257,387,634,954,210,390,629,1.04266505,1.93912135,3.12492104,0.67159984,0.88939232,1.26565505
48285,0,USTexasLavaca,Texas,Lavaca,2021-01-05 08:30:20.662087,2020-11-06 00:00:00.000000,1.98484348,3.19726456,4.79300561,400,644,965,215,399,639,1.06954265,1.98339006,3.17115137,0.66683414,0.89703139,1.29020545
48285,0,USTexasLavaca,Texas,Lavaca,2021-01-05 08:30:20.662087,2020-11-07 00:00:00.000000,2.00081531,3.24548794,4.82204405,403,654,971,222,406,647,1.10213961,2.01893545,3.21178987,0.66531705,0.90435381,1.29398189
48285,0,USTexasLavaca,Texas,Lavaca,2021-01-05 08:30:20.662087,2020-11-08 00:00:00.000000,2.01568112,3.28526580,4.87950698,406,662,983,226,413,654,1.12375991,2.05193810,3.24672733,0.66556816,0.90006442,1.29974540
48285,0,USTexasLavaca,Texas,Lavaca,2021-01-05 08:30:20.662087,2020-11-09 00:00:00.000000,2.05523056,3.30402202,4.90862721,414,665,989,228,412,660,1.13178745,2.04575520,3.27593711,0.64649259,0.90685083,1.30130468
48285,0,USTexasLavaca,Texas,Lavaca,2021-01-05 08:30:20.662087,2020-11-10 00:00:00.000000,2.09737459,3.37252036,4.92436394,422,679,992,231,410,664,1.14896550,2.03887476,3.29582647,0.64640190,0.90197358,1.30171748
48285,0,USTexasLavaca,Texas,Lavaca,2021-01-05 08:30:20.662087,2020-11-11 00:00:00.000000,2.14497233,3.45007257,4.99732909,432,695,1007,236,416,666,1.17133797,2.06612997,3.30850367,0.64834658,0.90134880,1.30266107
48285,0,USTexasLavaca,Texas,Lavaca,2021-01-05 08:30:20.662087,2020-11-12 00:00:00.000000,2.19315412,3.46137640,5.04269826,442,697,1016,241,422,668,1.19701538,2.09463303,3.31462402,0.65259583,0.89710476,1.30659286
48285,0,USTexasLavaca,Texas,Lavaca,2021-01-05 08:30:20.662087,2020-11-13 00:00:00.000000,2.18606043,3.48228036,5.05463402,440,701,1018,247,432,683,1.22590606,2.14459612,3.39169552,0.65988081,0.88523054,1.32303931
48285,0,USTexasLavaca,Texas,Lavaca,2021-01-05 08:30:20.662087,2020-11-14 00:00:00.000000,2.17595716,3.49942525,5.05688611,438,705,1019,252,437,689,1.25185114,2.16919254,3.42267216,0.66899679,0.88728313,1.32268784
48285,0,USTexasLavaca,Texas,Lavaca,2021-01-05 08:30:20.662087,2020-11-15 00:00:00.000000,2.16040966,3.52414494,5.05101324,435,710,1017,251,446,691,1.24725178,2.21464834,3.43133489,0.66475835,0.87501800,1.37509193
48285,0,USTexasLavaca,Texas,Lavaca,2021-01-05 08:30:20.662087,2020-11-16 00:00:00.000000,2.13766006,3.54370972,5.02911416,430,714,1013,249,454,693,1.24024747,2.25406355,3.43957528,0.67211893,0.87444850,1.43346011
48285,0,USTexasLavaca,Texas,Lavaca,2021-01-05 08:30:20.662087,2020-11-17 00:00:00.000000,2.10486223,3.54679318,5.00050093,424,714,1007,247,455,695,1.22979457,2.26241478,3.44911675,0.63363600,0.87567357,1.45004284
48285,0,USTexasLavaca,Texas,Lavaca,2021-01-05 08:30:20.662087,2020-11-18 00:00:00.000000,2.06557902,3.57093721,4.99376272,416,719,1006,244,460,697,1.21447212,2.28382503,3.46184493,0.60754691,0.87321640,1.45334324
48285,0,USTexasLavaca,Texas,Lavaca,2021-01-05 08:30:20.662087,2020-11-19 00:00:00.000000,2.02390937,3.59567601,5.00678744,407,724,1009,242,456,700,1.20096151,2.26598778,3.47708155,0.60901635,0.87571570,1.45453639
48285,0,USTexasLavaca,Texas,Lavaca,2021-01-05 08:30:20.662087,2020-11-20 00:00:00.000000,2.04517319,3.60076455,5.01200040,412,725,1010,247,456,703,1.22727510,2.26324738,3.48867196,0.62190497,0.87763034,1.41510162
48285,0,USTexasLavaca,Texas,Lavaca,2021-01-05 08:30:20.662087,2020-11-21 00:00:00.000000,2.05454582,3.52434542,5.06256276,414,710,1020,251,459,704,1.24728462,2.27760029,3.49451653,0.64254903,0.86980612,1.32281503
48285,0,USTexasLavaca,Texas,Lavaca,2021-01-05 08:30:20.662087,2020-11-22 00:00:00.000000,2.04512107,3.49612142,5.12215157,412,704,1032,252,457,704,1.25368445,2.27059238,3.49408780,0.62850592,0.86159422,1.35289640
48285,0,USTexasLavaca,Texas,Lavaca,2021-01-05 08:30:20.662087,2020-11-23 00:00:00.000000,2.01637717,3.47832763,5.17458804,406,701,1042,251,454,704,1.24754677,2.25662172,3.49498034,0.65127691,0.85167521,1.42014290
48285,0,USTexasLavaca,Texas,Lavaca,2021-01-05 08:30:20.662087,2020-11-24 00:00:00.000000,2.02260710,3.47087836,5.05839056,407,699,1019,247,450,707,1.22854078,2.23441280,3.51073408,0.60753286,0.85460195,1.41904169
48285,0,USTexasLavaca,Texas,Lavaca,2021-01-05 08:30:20.662087,2020-11-25 00:00:00.000000,2.02751459,3.43127669,4.93903946,408,691,995,242,447,696,1.20505032,2.22187288,3.45776921,0.57045503,0.85504749,1.41864241
48285,0,USTexasLavaca,Texas,Lavaca,2021-01-05 08:30:20.662087,2020-11-26 00:00:00.000000,2.03106735,3.37906025,4.85977944,409,681,979,237,444,692,1.17917908,2.20486385,3.43379102,0.56436381,0.85021528,1.43711169
48285,0,USTexasLavaca,Texas,Lavaca,2021-01-05 08:30:20.662087,2020-11-27 00:00:00.000000,2.03324049,3.32741486,4.79802760,409,670,966,232,439,685,1.15117372,2.17928993,3.40236350,0.55527905,0.84936213,1.41801511
48285,0,USTexasLavaca,Texas,Lavaca,2021-01-05 08:30:20.662087,2020-11-28 00:00:00.000000,2.03403898,3.27687788,4.73592440,409,660,954,225,432,678,1.12109685,2.14696087,3.36535616,0.55489302,0.86104380,1.41528514
48285,0,USTexasLavaca,Texas,Lavaca,2021-01-05 08:30:20.662087,2020-11-29 00:00:00.000000,2.02778376,3.24147781,4.66624708,408,653,940,219,426,669,1.08941314,2.11555114,3.32308090,0.55481261,0.85436713,1.41151668
48285,0,USTexasLavaca,Texas,Lavaca,2021-01-05 08:30:20.662087,2020-11-30 00:00:00.000000,1.93475242,3.21353420,4.59386670,389,647,925,219,421,660,1.08893201,2.08927215,3.27588391,0.53923595,0.83383403,1.45293945
48285,0,USTexasLavaca,Texas,Lavaca,2021-01-05 08:30:20.662087,2020-12-01 00:00:00.000000,1.84361466,3.15154193,4.51520506,371,635,909,219,413,646,1.08862353,2.05114544,3.20711652,0.52688122,0.83761228,1.45463109
48285,0,USTexasLavaca,Texas,Lavaca,2021-01-05 08:30:20.662087,2020-12-02 00:00:00.000000,1.75595342,3.08727036,4.41548555,353,622,889,214,405,632,1.06607201,2.01346351,3.13892839,0.52124955,0.82507900,1.45512923
48285,0,USTexasLavaca,Texas,Lavaca,2021-01-05 08:30:20.662087,2020-12-03 00:00:00.000000,1.67330029,3.01728975,4.28807682,337,608,864,204,397,619,1.01580472,1.97120527,3.07206407,0.51855432,0.80640076,1.45517290
48285,0,USTexasLavaca,Texas,Lavaca,2021-01-05 08:30:20.662087,2020-12-04 00:00:00.000000,1.59590612,2.94672702,4.15702992,321,593,837,195,388,605,0.96793943,1.92927792,3.00553104,0.51728431,0.80279355,1.44654167
48285,0,USTexasLavaca,Texas,Lavaca,2021-01-05 08:30:20.662087,2020-12-05 00:00:00.000000,1.52276561,2.86688026,4.02463496,306,577,811,185,379,592,0.92287129,1.88207686,2.93866525,0.51107928,0.79705778,1.42826213
48285,0,USTexasLavaca,Texas,Lavaca,2021-01-05 08:30:20.662087,2020-12-06 00:00:00.000000,1.45395072,2.80003942,3.92388498,293,564,790,177,368,578,0.88036953,1.82961371,2.87120092,0.51127909,0.78778387,1.41338431
48285,0,USTexasLavaca,Texas,Lavaca,2021-01-05 08:30:20.662087,2020-12-07 00:00:00.000000,1.39411655,2.73274795,3.84668123,280,550,775,169,358,564,0.84030866,1.77680765,2.80316062,0.49949597,0.79456447,1.40301743
48285,0,USTexasLavaca,Texas,Lavaca,2021-01-05 08:30:20.662087,2020-12-08 00:00:00.000000,1.36652495,2.66515768,3.76582248,275,537,758,162,347,552,0.80398046,1.72421820,2.73984950,0.49439264,0.79509814,1.39880206
48285,0,USTexasLavaca,Texas,Lavaca,2021-01-05 08:30:20.662087,2020-12-09 00:00:00.000000,1.36155004,2.59754273,3.68642183,274,523,742,157,334,539,0.78082361,1.66087820,2.67759650,0.49043280,0.80112593,1.39384184
48285,0,USTexasLavaca,Texas,Lavaca,2021-01-05 08:30:20.662087,2020-12-10 00:00:00.000000,1.35901183,2.53710570,3.64952384,273,511,735,155,329,526,0.77162920,1.63435569,2.61356690,0.48664616,0.80209506,1.39437196
48285,0,USTexasLavaca,Texas,Lavaca,2021-01-05 08:30:20.662087,2020-12-11 00:00:00.000000,1.35111344,2.43903201,3.58091519,272,491,721,154,320,513,0.76826716,1.58953237,2.54575597,0.48145965,0.79990575,1.43879497
48285,0,USTexasLavaca,Texas,Lavaca,2021-01-05 08:30:20.662087,2020-12-12 00:00:00.000000,1.29523520,2.34545505,3.47401965,261,472,700,154,310,498,0.76737003,1.53819831,2.47339084,0.47196800,0.80009992,1.46215389
48285,0,USTexasLavaca,Texas,Lavaca,2021-01-05 08:30:20.662087,2020-12-13 00:00:00.000000,1.25838596,2.26110985,3.36342782,253,455,677,154,298,484,0.76743024,1.47865328,2.40607024,0.45435128,0.80417911,1.48619198
48285,0,USTexasLavaca,Texas,Lavaca,2021-01-05 08:30:20.662087,2020-12-14 00:00:00.000000,1.17956399,2.17768818,3.23152081,237,438,651,150,285,474,0.74494686,1.41806706,2.35601807,0.44531944,0.79764728,1.51979666
48285,0,USTexasLavaca,Texas,Lavaca,2021-01-05 08:30:20.662087,2020-12-15 00:00:00.000000,1.10322319,2.09722488,3.09928939,222,422,624,149,276,456,0.73962533,1.37083862,2.26279457,0.45615082,0.79417796,1.54330539
48285,0,USTexasLavaca,Texas,Lavaca,2021-01-05 08:30:20.662087,2020-12-16 00:00:00.000000,1.03097166,2.03705278,2.99314974,207,410,603,147,264,437,0.73244240,1.31392609,2.16998162,0.45576280,0.79200999,1.54775920
48285,0,USTexasLavaca,Texas,Lavaca,2021-01-05 08:30:20.662087,2020-12-17 00:00:00.000000,1.00092768,1.96383363,2.87796846,201,395,580,138,254,418,0.68477994,1.26460565,2.07852147,0.44871314,0.78182423,1.54898346
48285,0,USTexasLavaca,Texas,Lavaca,2021-01-05 08:30:20.662087,2020-12-18 00:00:00.000000,0.99666360,1.91409899,2.78859211,200,385,562,129,248,400,0.64009673,1.23086663,1.98879137,0.41318261,0.77814342,1.54463895
48285,0,USTexasLavaca,Texas,Lavaca,2021-01-05 08:30:20.662087,2020-12-19 00:00:00.000000,0.99736732,1.84871878,2.70002998,201,372,544,122,243,388,0.60912028,1.20682602,1.92549274,0.38910172,0.78377175,1.53381104
48285,0,USTexasLavaca,Texas,Lavaca,2021-01-05 08:30:20.662087,2020-12-20 00:00:00.000000,1.00138879,1.78597890,2.61246423,201,359,526,122,235,369,0.60937738,1.16883684,1.83498735,0.38935463,0.77130234,1.53305995
48285,0,USTexasLavaca,Texas,Lavaca,2021-01-05 08:30:20.662087,2020-12-21 00:00:00.000000,0.99922982,1.73895545,2.52179904,201,350,508,123,226,351,0.61180978,1.12152048,1.74536498,0.37928668,0.77047351,1.53339722
48285,0,USTexasLavaca,Texas,Lavaca,2021-01-05 08:30:20.662087,2020-12-22 00:00:00.000000,0.99800404,1.67407658,2.43246530,201,337,490,123,218,335,0.61133412,1.08561178,1.66570569,0.38137201,0.77979428,1.53356114
48285,0,USTexasLavaca,Texas,Lavaca,2021-01-05 08:30:20.662087,2020-12-23 00:00:00.000000,0.97104607,1.60167275,2.34444396,195,322,472,123,210,320,0.61034915,1.04315000,1.59105298,0.38531169,0.77873562,1.53361307
48285,0,USTexasLavaca,Texas,Lavaca,2021-01-05 08:30:20.662087,2020-12-24 00:00:00.000000,0.90536306,1.55655494,2.25802577,182,313,455,118,201,310,0.59011762,0.99954341,1.53836792,0.39048484,0.76842553,1.53368248
48285,0,USTexasLavaca,Texas,Lavaca,2021-01-05 08:30:20.662087,2020-12-25 00:00:00.000000,0.84510345,1.49163376,2.18897487,170,300,441,112,195,302,0.56039448,0.97185511,1.49963476,0.39621657,0.76648733,1.53349154
48285,0,USTexasLavaca,Texas,Lavaca,2021-01-05 08:30:20.662087,2020-12-26 00:00:00.000000,0.78967034,1.40681384,2.14446682,159,283,432,107,187,295,0.53157476,0.93065853,1.46610902,0.38841609,0.77314522,1.53662328
48285,0,USTexasLavaca,Texas,Lavaca,2021-01-05 08:30:20.662087,2020-12-27 00:00:00.000000,0.73808636,1.34128417,2.07939010,148,270,419,101,179,289,0.50403786,0.88954416,1.43742393,0.37729558,0.76468572,1.54970390
48285,0,USTexasLavaca,Texas,Lavaca,2021-01-05 08:30:20.662087,2020-12-28 00:00:00.000000,0.67738424,1.27367433,2.00992351,136,256,405,96,173,284,0.47750683,0.85934046,1.41039640,0.36564470,0.74560475,1.58893220
48285,0,USTexasLavaca,Texas,Lavaca,2021-01-05 08:30:20.662087,2020-12-29 00:00:00.000000,0.62056804,1.20673015,1.96647820,125,243,396,88,164,276,0.44124585,0.81779091,1.37080493,0.34178714,0.72848437,1.59737737
48285,0,USTexasLavaca,Texas,Lavaca,2021-01-05 08:30:20.662087,2020-12-30 00:00:00.000000,0.56706894,1.13836467,1.93072356,114,229,389,81,155,260,0.40521498,0.77023552,1.29285887,0.29406214,0.72148569,1.59769921
48285,0,USTexasLavaca,Texas,Lavaca,2021-01-05 08:30:20.662087,2020-12-31 00:00:00.000000,0.51740562,1.07855389,1.86647388,104,217,376,74,146,255,0.37082634,0.72512365,1.26881688,0.28186564,0.72141612,1.60960114
48285,0,USTexasLavaca,Texas,Lavaca,2021-01-05 08:30:20.662087,2021-01-01 00:00:00.000000,0.47170800,1.01796120,1.79029064,95,205,360,68,139,250,0.33866865,0.69433920,1.24518774,0.27961549,0.71207975,1.61308798
48285,0,USTexasLavaca,Texas,Lavaca,2021-01-05 08:30:20.662087,2021-01-02 00:00:00.000000,0.43007365,0.97516871,1.76257835,86,196,355,62,131,245,0.30894221,0.65238192,1.21909053,0.27871211,0.69625020,1.65073324
48285,0,USTexasLavaca,Texas,Lavaca,2021-01-05 08:30:20.662087,2021-01-03 00:00:00.000000,0.39301559,0.94307174,1.74507114,79,190,351,56,125,235,0.28173041,0.62072627,1.16938345,0.27842234,0.69384676,1.66547544
48285,0,USTexasLavaca,Texas,Lavaca,2021-01-05 08:30:20.662087,2021-01-04 00:00:00.000000,0.36127630,0.90375547,1.72664719,72,182,347,51,123,226,0.25726152,0.61320056,1.12292832,0.27831519,0.70542416,1.67291235
48285,0,USTexasLavaca,Texas,Lavaca,2021-01-05 08:30:20.662087,2021-01-05 00:00:00.000000,0.33380108,0.84972363,1.71323324,67,171,345,47,118,224,0.23592464,0.58954016,1.11148794,0.27827502,0.71591883,1.67704137
48285,0,USTexasLavaca,Texas,Lavaca,2021-01-05 08:30:20.662087,2021-01-06 00:00:00.000000,0.30918736,0.80634090,1.68183855,62,162,338,43,110,221,0.21744286,0.54908222,1.09947622,0.27825940,0.71926739,1.67782887
48285,0,USTexasLavaca,Texas,Lavaca,2021-01-05 08:30:20.662087,2021-01-07 00:00:00.000000,0.28677424,0.74702413,1.64584501,57,150,331,40,106,219,0.20110728,0.52754195,1.08692273,0.27825294,0.72154711,1.67789711
48285,0,USTexasLavaca,Texas,Lavaca,2021-01-05 08:30:20.662087,2021-01-08 00:00:00.000000,0.26618085,0.70917011,1.60977056,53,142,324,37,100,216,0.18637258,0.49823082,1.07385738,0.27825004,0.72447880,1.67792572
48285,0,USTexasLavaca,Texas,Lavaca,2021-01-05 08:30:20.662087,2021-01-09 00:00:00.000000,0.24716045,0.65952862,1.57367338,49,132,317,34,94,213,0.17290513,0.47082802,1.05913626,0.27824863,0.73132975,1.67794055
48285,0,USTexasLavaca,Texas,Lavaca,2021-01-05 08:30:20.662087,2021-01-10 00:00:00.000000,0.22954263,0.62146522,1.53760957,46,125,309,32,88,208,0.16050265,0.44100185,1.03689801,0.27824789,0.73272798,1.67794913
48285,0,USTexasLavaca,Texas,Lavaca,2021-01-05 08:30:20.662087,2021-01-11 00:00:00.000000,0.21319931,0.58556684,1.50163270,42,118,302,30,83,204,0.14903385,0.41210684,1.01243324,0.27824747,0.73293617,1.67795435
48285,0,USTexasLavaca,Texas,Lavaca,2021-01-05 08:30:20.662087,2021-01-12 00:00:00.000000,0.19454668,0.54830068,1.46579366,39,110,295,27,78,199,0.13840514,0.38711849,0.98911593,0.27824723,0.73296815,1.67795758
48285,0,USTexasLavaca,Texas,Lavaca,2021-01-05 08:30:20.662087,2021-01-13 00:00:00.000000,0.17435219,0.51578489,1.43014056,35,103,288,25,74,194,0.12854357,0.37183996,0.96586606,0.27824709,0.73302555,1.67795961
48285,0,USTexasLavaca,Texas,Lavaca,2021-01-05 08:30:20.662087,2021-01-14 00:00:00.000000,0.15625277,0.48764995,1.39471865,31,98,281,23,70,189,0.11571381,0.34903900,0.94271524,0.27824700,0.73307692,1.67796089
48285,0,USTexasLavaca,Texas,Lavaca,2021-01-05 08:30:20.662087,2021-01-15 00:00:00.000000,0.14003175,0.45388030,1.35957032,28,91,274,20,65,185,0.10335657,0.32708765,0.91969346,0.27824695,0.73311532,1.67796169
48285,0,USTexasLavaca,Texas,Lavaca,2021-01-05 08:30:20.662087,2021-01-16 00:00:00.000000,0.12549452,0.42582855,1.32473514,25,85,266,18,61,180,0.09179117,0.30601245,0.89682903,0.27824692,0.73314180,1.67796220
48285,0,USTexasLavaca,Texas,Lavaca,2021-01-05 08:30:20.662087,2021-01-17 00:00:00.000000,0.11246647,0.40284675,1.29024985,22,81,260,16,58,176,0.08151823,0.29023201,0.87414852,0.27824690,0.73315927,1.67796252
