FIPS,HR_UID,nameid,province,region,analysisTime,dates,pointprevalence_025,pointprevalence_50,pointprevalence_975,pointinfections_025,pointinfections_50,pointinfections_975,pointinfectious_025,pointinfectious_50,pointinfectious_975,pointinfectiousprevalence_05,pointinfectiousprevalence_50,pointinfectiousprevalence_95,infectrate_025,infectrate_50,infectrate_975
55005,0,USWisconsinBarron,Wisconsin,Barron,2021-01-05 05:50:32.072286,2020-03-09 00:00:00.000000,0.00144838,0.00756595,0.02251584,0,3,10,0,1,5,0.00088346,0.00440374,0.01234058,0.32569566,0.49062299,0.63181328
55005,0,USWisconsinBarron,Wisconsin,Barron,2021-01-05 05:50:32.072286,2020-03-10 00:00:00.000000,0.00147502,0.00801986,0.02354088,0,3,10,0,1,5,0.00085560,0.00433244,0.01210220,0.32569550,0.49062274,0.63180127
55005,0,USWisconsinBarron,Wisconsin,Barron,2021-01-05 05:50:32.072286,2020-03-11 00:00:00.000000,0.00165022,0.00859239,0.02514548,0,3,11,0,2,6,0.00086659,0.00450934,0.01346958,0.32569526,0.49062209,0.63177768
55005,0,USWisconsinBarron,Wisconsin,Barron,2021-01-05 05:50:32.072286,2020-03-12 00:00:00.000000,0.00185895,0.00911118,0.02709785,0,4,12,0,2,6,0.00093966,0.00471229,0.01470704,0.32569487,0.49062039,0.63173138
55005,0,USWisconsinBarron,Wisconsin,Barron,2021-01-05 05:50:32.072286,2020-03-13 00:00:00.000000,0.00208113,0.00967765,0.02921810,0,4,13,0,2,7,0.00101359,0.00501593,0.01582559,0.32569380,0.49061562,0.63163999
55005,0,USWisconsinBarron,Wisconsin,Barron,2021-01-05 05:50:32.072286,2020-03-14 00:00:00.000000,0.00229425,0.01029305,0.03150612,1,4,14,0,2,7,0.00109225,0.00534059,0.01676516,0.32568878,0.49060112,0.63144572
55005,0,USWisconsinBarron,Wisconsin,Barron,2021-01-05 05:50:32.072286,2020-03-15 00:00:00.000000,0.00245333,0.01100686,0.03395901,1,4,15,0,2,8,0.00117509,0.00586034,0.01779886,0.32565797,0.48928194,0.63014973
55005,0,USWisconsinBarron,Wisconsin,Barron,2021-01-05 05:50:32.072286,2020-03-16 00:00:00.000000,0.00388769,0.01408847,0.03970981,1,6,17,0,2,8,0.00126122,0.00614542,0.01918588,0.32545749,0.48776984,0.62472377
55005,0,USWisconsinBarron,Wisconsin,Barron,2021-01-05 05:50:32.072286,2020-03-17 00:00:00.000000,0.00521371,0.01727600,0.04541191,2,7,20,0,3,9,0.00176219,0.00775169,0.02179338,0.31907958,0.47870034,0.61413089
55005,0,USWisconsinBarron,Wisconsin,Barron,2021-01-05 05:50:32.072286,2020-03-18 00:00:00.000000,0.00662896,0.02096377,0.05094515,2,9,23,1,4,11,0.00275395,0.00954696,0.02524354,0.30582579,0.46024228,0.59552348
55005,0,USWisconsinBarron,Wisconsin,Barron,2021-01-05 05:50:32.072286,2020-03-19 00:00:00.000000,0.00815934,0.02380052,0.05611208,3,10,25,1,5,13,0.00352755,0.01126129,0.02902079,0.29214668,0.44560015,0.58852079
55005,0,USWisconsinBarron,Wisconsin,Barron,2021-01-05 05:50:32.072286,2020-03-20 00:00:00.000000,0.00961134,0.02720643,0.06363149,4,12,28,1,5,14,0.00431435,0.01307989,0.03273472,0.25949596,0.42533386,0.57357746
55005,0,USWisconsinBarron,Wisconsin,Barron,2021-01-05 05:50:32.072286,2020-03-21 00:00:00.000000,0.01085548,0.03119006,0.06977578,4,14,31,2,6,16,0.00513741,0.01516629,0.03602971,0.24566115,0.39389615,0.55100698
55005,0,USWisconsinBarron,Wisconsin,Barron,2021-01-05 05:50:32.072286,2020-03-22 00:00:00.000000,0.01206388,0.03510619,0.07329314,5,15,33,2,7,17,0.00598631,0.01727894,0.03883556,0.23579875,0.37150871,0.52911016
55005,0,USWisconsinBarron,Wisconsin,Barron,2021-01-05 05:50:32.072286,2020-03-23 00:00:00.000000,0.01530473,0.03890696,0.07941858,6,17,35,3,8,18,0.00681383,0.01963833,0.04139828,0.22437903,0.34754883,0.49833880
55005,0,USWisconsinBarron,Wisconsin,Barron,2021-01-05 05:50:32.072286,2020-03-24 00:00:00.000000,0.01722525,0.04311499,0.08727931,7,19,39,3,9,20,0.00778647,0.02204717,0.04481238,0.21630107,0.33201880,0.46418601
55005,0,USWisconsinBarron,Wisconsin,Barron,2021-01-05 05:50:32.072286,2020-03-25 00:00:00.000000,0.01929406,0.04715778,0.09486178,8,21,42,4,10,22,0.00897327,0.02412917,0.04924502,0.20960502,0.31463404,0.45697621
55005,0,USWisconsinBarron,Wisconsin,Barron,2021-01-05 05:50:32.072286,2020-03-26 00:00:00.000000,0.02139179,0.04932828,0.10008981,9,22,45,4,11,24,0.01092075,0.02635454,0.05378014,0.19308137,0.30542673,0.44520492
55005,0,USWisconsinBarron,Wisconsin,Barron,2021-01-05 05:50:32.072286,2020-03-27 00:00:00.000000,0.02351340,0.05385744,0.10381029,10,24,46,5,13,26,0.01231271,0.02915086,0.05764041,0.16993636,0.29676602,0.40274907
55005,0,USWisconsinBarron,Wisconsin,Barron,2021-01-05 05:50:32.072286,2020-03-28 00:00:00.000000,0.02565564,0.05580113,0.10707063,11,25,48,6,14,27,0.01361345,0.03111256,0.06068107,0.15797748,0.28228447,0.37590279
55005,0,USWisconsinBarron,Wisconsin,Barron,2021-01-05 05:50:32.072286,2020-03-29 00:00:00.000000,0.02781724,0.05809356,0.11010440,12,26,49,6,14,27,0.01493101,0.03252072,0.06154074,0.15364473,0.25816936,0.37334333
55005,0,USWisconsinBarron,Wisconsin,Barron,2021-01-05 05:50:32.072286,2020-03-30 00:00:00.000000,0.03108657,0.06142951,0.11047713,14,27,49,7,15,29,0.01621623,0.03374796,0.06415083,0.15224366,0.24453344,0.37141404
55005,0,USWisconsinBarron,Wisconsin,Barron,2021-01-05 05:50:32.072286,2020-03-31 00:00:00.000000,0.03373814,0.06393026,0.11211745,15,28,50,7,15,30,0.01717873,0.03472603,0.06706474,0.15179727,0.23964547,0.36597772
55005,0,USWisconsinBarron,Wisconsin,Barron,2021-01-05 05:50:32.072286,2020-04-01 00:00:00.000000,0.03633282,0.06520663,0.11411536,16,29,51,8,16,30,0.01814683,0.03556194,0.06837652,0.13998651,0.22920200,0.34549729
55005,0,USWisconsinBarron,Wisconsin,Barron,2021-01-05 05:50:32.072286,2020-04-02 00:00:00.000000,0.03740332,0.06560507,0.11394461,16,29,51,8,16,31,0.01908678,0.03719446,0.06940413,0.13834108,0.21769756,0.33057385
55005,0,USWisconsinBarron,Wisconsin,Barron,2021-01-05 05:50:32.072286,2020-04-03 00:00:00.000000,0.03837616,0.06567268,0.11614890,17,29,52,9,17,31,0.02026224,0.03802836,0.07018713,0.13416807,0.20698589,0.32910702
55005,0,USWisconsinBarron,Wisconsin,Barron,2021-01-05 05:50:32.072286,2020-04-04 00:00:00.000000,0.03893760,0.06775917,0.11664739,17,30,52,9,17,32,0.02079273,0.03828334,0.07163712,0.12609359,0.20007142,0.33057043
55005,0,USWisconsinBarron,Wisconsin,Barron,2021-01-05 05:50:32.072286,2020-04-05 00:00:00.000000,0.03939554,0.07026872,0.11684356,17,31,52,9,17,32,0.02155106,0.03920945,0.07132033,0.12168765,0.18698275,0.33425283
55005,0,USWisconsinBarron,Wisconsin,Barron,2021-01-05 05:50:32.072286,2020-04-06 00:00:00.000000,0.03795681,0.06808220,0.11298949,17,30,51,10,17,32,0.02225406,0.03948574,0.07242796,0.11712945,0.17867513,0.31475924
55005,0,USWisconsinBarron,Wisconsin,Barron,2021-01-05 05:50:32.072286,2020-04-07 00:00:00.000000,0.03644297,0.06589069,0.11039595,16,29,49,9,17,32,0.02177381,0.03907871,0.07206014,0.11378214,0.17325810,0.29597341
55005,0,USWisconsinBarron,Wisconsin,Barron,2021-01-05 05:50:32.072286,2020-04-08 00:00:00.000000,0.03457082,0.06341597,0.10836764,15,28,49,9,17,31,0.02067767,0.03874581,0.07055182,0.11201950,0.17188079,0.28943532
55005,0,USWisconsinBarron,Wisconsin,Barron,2021-01-05 05:50:32.072286,2020-04-09 00:00:00.000000,0.03269396,0.06090404,0.10889357,14,27,49,9,17,30,0.01996788,0.03771689,0.06837448,0.11115960,0.16829312,0.28843284
55005,0,USWisconsinBarron,Wisconsin,Barron,2021-01-05 05:50:32.072286,2020-04-10 00:00:00.000000,0.03087278,0.05701250,0.10927373,13,25,49,8,16,31,0.01919690,0.03631009,0.06867878,0.10838205,0.16272956,0.28780218
55005,0,USWisconsinBarron,Wisconsin,Barron,2021-01-05 05:50:32.072286,2020-04-11 00:00:00.000000,0.02913094,0.05388393,0.10655415,13,24,48,8,15,31,0.01825453,0.03469199,0.06910558,0.10713073,0.16201299,0.28715815
55005,0,USWisconsinBarron,Wisconsin,Barron,2021-01-05 05:50:32.072286,2020-04-12 00:00:00.000000,0.02674185,0.05211140,0.10136510,12,23,45,7,15,31,0.01644410,0.03327644,0.06941955,0.10215390,0.15665420,0.28572317
55005,0,USWisconsinBarron,Wisconsin,Barron,2021-01-05 05:50:32.072286,2020-04-13 00:00:00.000000,0.02549071,0.05171843,0.10136826,11,23,45,6,14,30,0.01478855,0.03202917,0.06810095,0.09824042,0.15346725,0.28083577
55005,0,USWisconsinBarron,Wisconsin,Barron,2021-01-05 05:50:32.072286,2020-04-14 00:00:00.000000,0.02450844,0.05266825,0.10133015,11,23,45,6,14,30,0.01419996,0.03184196,0.06685697,0.09559251,0.15259834,0.26742293
55005,0,USWisconsinBarron,Wisconsin,Barron,2021-01-05 05:50:32.072286,2020-04-15 00:00:00.000000,0.02385500,0.05281177,0.10146886,10,23,45,6,14,30,0.01407122,0.03201156,0.06648704,0.09366231,0.15255264,0.24894006
55005,0,USWisconsinBarron,Wisconsin,Barron,2021-01-05 05:50:32.072286,2020-04-16 00:00:00.000000,0.02417918,0.05346778,0.10155384,10,24,45,6,14,30,0.01412392,0.03211605,0.06644620,0.09005676,0.15194846,0.23895447
55005,0,USWisconsinBarron,Wisconsin,Barron,2021-01-05 05:50:32.072286,2020-04-17 00:00:00.000000,0.02453475,0.05354475,0.10153572,11,24,45,6,14,30,0.01426897,0.03220254,0.06647579,0.08875893,0.14630266,0.23748342
55005,0,USWisconsinBarron,Wisconsin,Barron,2021-01-05 05:50:32.072286,2020-04-18 00:00:00.000000,0.02489972,0.05323673,0.10143453,11,24,45,6,14,30,0.01445825,0.03234097,0.06647617,0.08819459,0.14100786,0.23866703
55005,0,USWisconsinBarron,Wisconsin,Barron,2021-01-05 05:50:32.072286,2020-04-19 00:00:00.000000,0.02526457,0.05364111,0.10128241,11,24,45,6,14,30,0.01466648,0.03258864,0.06642741,0.08675083,0.14039013,0.23985901
55005,0,USWisconsinBarron,Wisconsin,Barron,2021-01-05 05:50:32.072286,2020-04-20 00:00:00.000000,0.02812070,0.05401410,0.09730122,12,24,44,6,14,30,0.01488117,0.03301591,0.06633968,0.08654606,0.13729676,0.24003272
55005,0,USWisconsinBarron,Wisconsin,Barron,2021-01-05 05:50:32.072286,2020-04-21 00:00:00.000000,0.02930773,0.05360541,0.09559423,13,24,43,6,15,29,0.01531273,0.03322000,0.06469511,0.08650680,0.13493726,0.23940063
55005,0,USWisconsinBarron,Wisconsin,Barron,2021-01-05 05:50:32.072286,2020-04-22 00:00:00.000000,0.02946481,0.05568404,0.09351164,13,25,42,7,15,28,0.01576970,0.03345473,0.06338767,0.08666299,0.13403589,0.23951415
55005,0,USWisconsinBarron,Wisconsin,Barron,2021-01-05 05:50:32.072286,2020-04-23 00:00:00.000000,0.02835865,0.05707949,0.09456611,12,25,42,7,15,28,0.01636464,0.03364510,0.06238358,0.08646260,0.13317338,0.23789871
55005,0,USWisconsinBarron,Wisconsin,Barron,2021-01-05 05:50:32.072286,2020-04-24 00:00:00.000000,0.02726608,0.05646671,0.09584760,12,25,43,7,15,27,0.01701091,0.03479384,0.06110291,0.08128710,0.13416342,0.23385300
55005,0,USWisconsinBarron,Wisconsin,Barron,2021-01-05 05:50:32.072286,2020-04-25 00:00:00.000000,0.02624944,0.05587157,0.09683739,11,25,43,7,15,27,0.01713585,0.03517265,0.05968148,0.07543419,0.13153490,0.22703438
55005,0,USWisconsinBarron,Wisconsin,Barron,2021-01-05 05:50:32.072286,2020-04-26 00:00:00.000000,0.02529732,0.05611620,0.09749264,11,25,44,7,15,27,0.01649569,0.03480039,0.05985072,0.07323189,0.12986808,0.21624599
55005,0,USWisconsinBarron,Wisconsin,Barron,2021-01-05 05:50:32.072286,2020-04-27 00:00:00.000000,0.02553617,0.05589656,0.10276632,11,25,46,7,15,27,0.01589371,0.03501210,0.06040119,0.07300764,0.13066122,0.21114973
55005,0,USWisconsinBarron,Wisconsin,Barron,2021-01-05 05:50:32.072286,2020-04-28 00:00:00.000000,0.02703859,0.05613942,0.10783727,12,25,48,7,15,28,0.01581389,0.03508588,0.06251076,0.07268210,0.13010079,0.19884831
55005,0,USWisconsinBarron,Wisconsin,Barron,2021-01-05 05:50:32.072286,2020-04-29 00:00:00.000000,0.02748022,0.05579312,0.10680367,12,25,48,6,15,29,0.01511499,0.03497600,0.06530606,0.07226457,0.13073411,0.19108220
55005,0,USWisconsinBarron,Wisconsin,Barron,2021-01-05 05:50:32.072286,2020-04-30 00:00:00.000000,0.02576665,0.05515128,0.10535927,11,24,47,6,15,30,0.01457723,0.03492781,0.06837100,0.07168634,0.13026343,0.19065860
55005,0,USWisconsinBarron,Wisconsin,Barron,2021-01-05 05:50:32.072286,2020-05-01 00:00:00.000000,0.02423539,0.05447274,0.10398462,10,24,47,6,15,30,0.01420372,0.03419954,0.06797527,0.07089745,0.13149705,0.19236327
55005,0,USWisconsinBarron,Wisconsin,Barron,2021-01-05 05:50:32.072286,2020-05-02 00:00:00.000000,0.02309494,0.05440495,0.10519729,10,24,47,6,15,30,0.01387812,0.03359942,0.06706839,0.06986119,0.12901341,0.19424464
55005,0,USWisconsinBarron,Wisconsin,Barron,2021-01-05 05:50:32.072286,2020-05-03 00:00:00.000000,0.02399304,0.05546119,0.10703216,10,25,48,6,15,30,0.01361098,0.03413988,0.06752223,0.06578632,0.12965933,0.19333076
55005,0,USWisconsinBarron,Wisconsin,Barron,2021-01-05 05:50:32.072286,2020-05-04 00:00:00.000000,0.02567467,0.05509006,0.10547763,11,24,47,6,15,30,0.01343411,0.03480111,0.06819280,0.06357201,0.13041383,0.19335003
55005,0,USWisconsinBarron,Wisconsin,Barron,2021-01-05 05:50:32.072286,2020-05-05 00:00:00.000000,0.02973132,0.05520958,0.10432963,13,24,47,6,15,31,0.01490769,0.03465886,0.06909898,0.06302410,0.13172558,0.19313044
55005,0,USWisconsinBarron,Wisconsin,Barron,2021-01-05 05:50:32.072286,2020-05-06 00:00:00.000000,0.03358353,0.05586014,0.10288939,15,25,46,7,15,31,0.01699933,0.03489674,0.06928050,0.06314007,0.13151848,0.18525425
55005,0,USWisconsinBarron,Wisconsin,Barron,2021-01-05 05:50:32.072286,2020-05-07 00:00:00.000000,0.03427459,0.05562424,0.10673437,15,25,48,8,15,31,0.01771547,0.03427913,0.07000509,0.06230888,0.13030883,0.18736993
55005,0,USWisconsinBarron,Wisconsin,Barron,2021-01-05 05:50:32.072286,2020-05-08 00:00:00.000000,0.03342326,0.05551761,0.11107684,15,25,50,8,15,32,0.01853399,0.03408471,0.07158051,0.06250681,0.12714935,0.18436883
55005,0,USWisconsinBarron,Wisconsin,Barron,2021-01-05 05:50:32.072286,2020-05-09 00:00:00.000000,0.03267517,0.05594651,0.11500450,14,25,52,8,15,32,0.01938784,0.03392591,0.07241625,0.06209374,0.12737758,0.19450691
55005,0,USWisconsinBarron,Wisconsin,Barron,2021-01-05 05:50:32.072286,2020-05-10 00:00:00.000000,0.03212709,0.05588373,0.11810704,14,25,53,8,15,33,0.01965626,0.03379395,0.07322723,0.06180920,0.12634004,0.20040505
55005,0,USWisconsinBarron,Wisconsin,Barron,2021-01-05 05:50:32.072286,2020-05-11 00:00:00.000000,0.03181596,0.05673197,0.11534401,14,25,52,8,15,33,0.01943304,0.03372531,0.07443114,0.06183882,0.12776320,0.20070449
55005,0,USWisconsinBarron,Wisconsin,Barron,2021-01-05 05:50:32.072286,2020-05-12 00:00:00.000000,0.03143342,0.05602684,0.11225612,14,25,50,8,15,33,0.01884806,0.03335773,0.07455692,0.06234469,0.12852732,0.20062128
55005,0,USWisconsinBarron,Wisconsin,Barron,2021-01-05 05:50:32.072286,2020-05-13 00:00:00.000000,0.03034764,0.05632214,0.10929976,13,25,49,8,15,33,0.01816806,0.03371026,0.07489520,0.06350998,0.12998005,0.20357798
55005,0,USWisconsinBarron,Wisconsin,Barron,2021-01-05 05:50:32.072286,2020-05-14 00:00:00.000000,0.02918806,0.05842621,0.10813265,13,26,48,7,15,34,0.01747428,0.03459398,0.07534177,0.06448408,0.13182642,0.20443241
55005,0,USWisconsinBarron,Wisconsin,Barron,2021-01-05 05:50:32.072286,2020-05-15 00:00:00.000000,0.02812636,0.05939914,0.10792212,12,26,48,7,16,34,0.01680752,0.03544069,0.07549820,0.06469860,0.13016998,0.20416579
55005,0,USWisconsinBarron,Wisconsin,Barron,2021-01-05 05:50:32.072286,2020-05-16 00:00:00.000000,0.02717306,0.05975092,0.10766993,12,27,48,7,16,34,0.01618834,0.03573867,0.07549905,0.06857218,0.13024694,0.20335566
55005,0,USWisconsinBarron,Wisconsin,Barron,2021-01-05 05:50:32.072286,2020-05-17 00:00:00.000000,0.02632933,0.05909522,0.10861307,11,26,49,7,16,34,0.01562683,0.03611439,0.07541971,0.07285496,0.13002104,0.20228279
55005,0,USWisconsinBarron,Wisconsin,Barron,2021-01-05 05:50:32.072286,2020-05-18 00:00:00.000000,0.02871369,0.05952021,0.10715761,12,26,48,6,16,34,0.01512619,0.03564960,0.07530123,0.07827507,0.13182546,0.20303739
55005,0,USWisconsinBarron,Wisconsin,Barron,2021-01-05 05:50:32.072286,2020-05-19 00:00:00.000000,0.03141510,0.06120842,0.10691598,14,27,48,7,16,34,0.01585425,0.03574720,0.07516764,0.07780591,0.13280634,0.20366270
55005,0,USWisconsinBarron,Wisconsin,Barron,2021-01-05 05:50:32.072286,2020-05-20 00:00:00.000000,0.03238284,0.06267172,0.10668194,14,28,48,7,16,33,0.01713623,0.03577475,0.07502808,0.08023866,0.13410573,0.20246484
55005,0,USWisconsinBarron,Wisconsin,Barron,2021-01-05 05:50:32.072286,2020-05-21 00:00:00.000000,0.03210217,0.06228117,0.10644967,14,28,48,8,16,33,0.01856105,0.03700355,0.07488590,0.08315914,0.13450186,0.20379461
55005,0,USWisconsinBarron,Wisconsin,Barron,2021-01-05 05:50:32.072286,2020-05-22 00:00:00.000000,0.03184295,0.06198466,0.10621242,14,28,48,8,17,33,0.01839714,0.03786632,0.07474059,0.08609043,0.13646233,0.20541141
55005,0,USWisconsinBarron,Wisconsin,Barron,2021-01-05 05:50:32.072286,2020-05-23 00:00:00.000000,0.03160595,0.06145107,0.10596724,14,27,47,8,17,33,0.01824519,0.03831448,0.07458970,0.08563680,0.13768547,0.20692793
55005,0,USWisconsinBarron,Wisconsin,Barron,2021-01-05 05:50:32.072286,2020-05-24 00:00:00.000000,0.03139035,0.06137958,0.11019842,14,27,49,8,17,33,0.01810583,0.03836204,0.07443151,0.08422658,0.13418589,0.20928364
55005,0,USWisconsinBarron,Wisconsin,Barron,2021-01-05 05:50:32.072286,2020-05-25 00:00:00.000000,0.03127819,0.06210085,0.10706706,14,28,48,8,17,33,0.01797877,0.03762707,0.07426703,0.08391040,0.13249624,0.21115308
55005,0,USWisconsinBarron,Wisconsin,Barron,2021-01-05 05:50:32.072286,2020-05-26 00:00:00.000000,0.03018803,0.06244334,0.10410293,13,28,47,8,17,33,0.01931873,0.03797654,0.07379021,0.08389980,0.13453088,0.21154333
55005,0,USWisconsinBarron,Wisconsin,Barron,2021-01-05 05:50:32.072286,2020-05-27 00:00:00.000000,0.02925341,0.06231636,0.10417187,13,28,47,8,17,33,0.01914964,0.03808695,0.07317457,0.08421728,0.13494871,0.21408760
55005,0,USWisconsinBarron,Wisconsin,Barron,2021-01-05 05:50:32.072286,2020-05-28 00:00:00.000000,0.02845940,0.06114723,0.10500838,12,27,47,8,17,32,0.01852555,0.03796682,0.07121676,0.08641313,0.13471233,0.21752696
55005,0,USWisconsinBarron,Wisconsin,Barron,2021-01-05 05:50:32.072286,2020-05-29 00:00:00.000000,0.02779507,0.06033104,0.10622551,12,27,48,8,17,31,0.01799314,0.03761337,0.06960223,0.09202011,0.13558350,0.22206518
55005,0,USWisconsinBarron,Wisconsin,Barron,2021-01-05 05:50:32.072286,2020-05-30 00:00:00.000000,0.02725389,0.06048624,0.10777033,12,27,48,7,16,31,0.01754411,0.03684630,0.07029096,0.08695272,0.13802448,0.23951702
55005,0,USWisconsinBarron,Wisconsin,Barron,2021-01-05 05:50:32.072286,2020-05-31 00:00:00.000000,0.02728119,0.06151132,0.10942565,12,27,49,7,16,32,0.01716950,0.03626221,0.07074728,0.08429460,0.14041617,0.24135218
55005,0,USWisconsinBarron,Wisconsin,Barron,2021-01-05 05:50:32.072286,2020-06-01 00:00:00.000000,0.02704363,0.06164340,0.11040466,12,27,49,7,16,31,0.01685775,0.03700752,0.07026866,0.08395704,0.13973533,0.25980279
55005,0,USWisconsinBarron,Wisconsin,Barron,2021-01-05 05:50:32.072286,2020-06-02 00:00:00.000000,0.02684254,0.06370826,0.10862297,12,28,49,7,17,32,0.01638360,0.03784726,0.07083591,0.08522961,0.14287527,0.26094900
55005,0,USWisconsinBarron,Wisconsin,Barron,2021-01-05 05:50:32.072286,2020-06-03 00:00:00.000000,0.02666173,0.06365137,0.10844181,12,28,49,7,17,32,0.01586421,0.03826298,0.07272047,0.08676286,0.14534521,0.26167206
55005,0,USWisconsinBarron,Wisconsin,Barron,2021-01-05 05:50:32.072286,2020-06-04 00:00:00.000000,0.02652330,0.06333632,0.11250650,12,28,50,6,17,33,0.01534830,0.03875449,0.07318070,0.08859366,0.15081627,0.26371698
55005,0,USWisconsinBarron,Wisconsin,Barron,2021-01-05 05:50:32.072286,2020-06-05 00:00:00.000000,0.02645087,0.06272910,0.12368830,11,28,55,6,17,33,0.01485540,0.03822288,0.07367069,0.09074609,0.15704956,0.26624908
55005,0,USWisconsinBarron,Wisconsin,Barron,2021-01-05 05:50:32.072286,2020-06-06 00:00:00.000000,0.02646691,0.06577239,0.12905645,11,29,58,6,17,33,0.01439363,0.03810091,0.07421128,0.09322247,0.16133674,0.27160258
55005,0,USWisconsinBarron,Wisconsin,Barron,2021-01-05 05:50:32.072286,2020-06-07 00:00:00.000000,0.02658409,0.06751532,0.12761364,12,30,57,6,17,33,0.01396814,0.03824940,0.07480333,0.09601447,0.16661697,0.28897638
55005,0,USWisconsinBarron,Wisconsin,Barron,2021-01-05 05:50:32.072286,2020-06-08 00:00:00.000000,0.02836285,0.06691263,0.12625216,12,30,57,6,17,34,0.01358509,0.03880999,0.07537286,0.09903980,0.16892106,0.29576902
55005,0,USWisconsinBarron,Wisconsin,Barron,2021-01-05 05:50:32.072286,2020-06-09 00:00:00.000000,0.03021802,0.06757866,0.12537458,13,30,56,6,18,34,0.01361436,0.03979296,0.07547796,0.10226076,0.16788726,0.29765936
55005,0,USWisconsinBarron,Wisconsin,Barron,2021-01-05 05:50:32.072286,2020-06-10 00:00:00.000000,0.03218407,0.06796198,0.12481173,14,30,56,6,17,34,0.01411232,0.03973420,0.07538955,0.10301875,0.17055357,0.29802800
55005,0,USWisconsinBarron,Wisconsin,Barron,2021-01-05 05:50:32.072286,2020-06-11 00:00:00.000000,0.03418890,0.07011163,0.12442200,15,31,56,6,17,34,0.01497348,0.03957457,0.07528732,0.10384850,0.17760809,0.29704979
55005,0,USWisconsinBarron,Wisconsin,Barron,2021-01-05 05:50:32.072286,2020-06-12 00:00:00.000000,0.03456295,0.07091257,0.12817836,15,32,57,7,18,34,0.01589428,0.04190772,0.07546664,0.10570394,0.18243097,0.29236870
55005,0,USWisconsinBarron,Wisconsin,Barron,2021-01-05 05:50:32.072286,2020-06-13 00:00:00.000000,0.03474169,0.07326057,0.13025750,15,33,58,7,19,34,0.01683297,0.04275918,0.07621500,0.11243932,0.18315259,0.29187028
55005,0,USWisconsinBarron,Wisconsin,Barron,2021-01-05 05:50:32.072286,2020-06-14 00:00:00.000000,0.03520512,0.07489994,0.12792548,15,33,57,8,19,35,0.01776317,0.04378137,0.07743891,0.11619593,0.18908760,0.30781221
55005,0,USWisconsinBarron,Wisconsin,Barron,2021-01-05 05:50:32.072286,2020-06-15 00:00:00.000000,0.03591448,0.07642379,0.12858717,16,34,58,8,19,35,0.01866088,0.04359114,0.07893777,0.12135935,0.19501096,0.32774473
55005,0,USWisconsinBarron,Wisconsin,Barron,2021-01-05 05:50:32.072286,2020-06-16 00:00:00.000000,0.03592737,0.07751916,0.13405118,16,35,60,9,20,36,0.02139187,0.04429565,0.08115307,0.12694412,0.19650892,0.34145136
55005,0,USWisconsinBarron,Wisconsin,Barron,2021-01-05 05:50:32.072286,2020-06-17 00:00:00.000000,0.03520887,0.07686482,0.13601597,15,34,61,10,20,38,0.02212075,0.04477753,0.08404049,0.13109730,0.20297576,0.35070612
55005,0,USWisconsinBarron,Wisconsin,Barron,2021-01-05 05:50:32.072286,2020-06-18 00:00:00.000000,0.03459993,0.07739290,0.13636781,15,35,61,10,20,39,0.02250742,0.04582767,0.08646699,0.13686615,0.21048057,0.36380433
55005,0,USWisconsinBarron,Wisconsin,Barron,2021-01-05 05:50:32.072286,2020-06-19 00:00:00.000000,0.03413870,0.07893225,0.14086886,15,35,63,10,21,39,0.02268104,0.04655202,0.08800472,0.14124750,0.21961735,0.37311241
55005,0,USWisconsinBarron,Wisconsin,Barron,2021-01-05 05:50:32.072286,2020-06-20 00:00:00.000000,0.03381779,0.08300556,0.15042109,15,37,68,10,21,40,0.02261589,0.04703681,0.08990530,0.14939149,0.22958282,0.38615917
55005,0,USWisconsinBarron,Wisconsin,Barron,2021-01-05 05:50:32.072286,2020-06-21 00:00:00.000000,0.03546496,0.08637569,0.16105435,16,39,72,9,22,42,0.02203163,0.04895116,0.09304362,0.15539893,0.23687249,0.38981077
55005,0,USWisconsinBarron,Wisconsin,Barron,2021-01-05 05:50:32.072286,2020-06-22 00:00:00.000000,0.03668851,0.08818419,0.16456093,16,39,74,9,22,43,0.02183861,0.05081898,0.09545618,0.15894511,0.24629934,0.40756179
55005,0,USWisconsinBarron,Wisconsin,Barron,2021-01-05 05:50:32.072286,2020-06-23 00:00:00.000000,0.03763644,0.09048626,0.16933889,17,40,76,10,24,44,0.02269561,0.05311591,0.09832255,0.16402897,0.25697779,0.42411031
55005,0,USWisconsinBarron,Wisconsin,Barron,2021-01-05 05:50:32.072286,2020-06-24 00:00:00.000000,0.03916336,0.09526598,0.17483829,17,43,79,10,24,45,0.02358523,0.05457808,0.10161997,0.16923932,0.26433815,0.43249628
55005,0,USWisconsinBarron,Wisconsin,Barron,2021-01-05 05:50:32.072286,2020-06-25 00:00:00.000000,0.04065338,0.09966228,0.18113956,18,45,81,11,25,47,0.02481816,0.05617757,0.10502640,0.17513876,0.27374125,0.43591296
55005,0,USWisconsinBarron,Wisconsin,Barron,2021-01-05 05:50:32.072286,2020-06-26 00:00:00.000000,0.04183656,0.10488815,0.18803143,18,47,85,11,26,49,0.02609239,0.05847944,0.10869688,0.18004376,0.28180376,0.43718531
55005,0,USWisconsinBarron,Wisconsin,Barron,2021-01-05 05:50:32.072286,2020-06-27 00:00:00.000000,0.04351365,0.10940135,0.19516077,19,49,88,12,27,50,0.02683015,0.06182207,0.11178832,0.18909072,0.29801335,0.43929688
55005,0,USWisconsinBarron,Wisconsin,Barron,2021-01-05 05:50:32.072286,2020-06-28 00:00:00.000000,0.04573682,0.11450874,0.20261311,20,51,91,12,29,52,0.02762134,0.06559076,0.11559836,0.20266754,0.31421166,0.45175998
55005,0,USWisconsinBarron,Wisconsin,Barron,2021-01-05 05:50:32.072286,2020-06-29 00:00:00.000000,0.06062269,0.12179963,0.21367711,27,55,96,12,31,54,0.02850692,0.06897764,0.11970775,0.21740409,0.33159663,0.46409595
55005,0,USWisconsinBarron,Wisconsin,Barron,2021-01-05 05:50:32.072286,2020-06-30 00:00:00.000000,0.06361535,0.13140746,0.22809021,28,59,103,13,32,56,0.03088000,0.07243738,0.12562609,0.22699594,0.35143326,0.47616866
55005,0,USWisconsinBarron,Wisconsin,Barron,2021-01-05 05:50:32.072286,2020-07-01 00:00:00.000000,0.06816175,0.13794554,0.24406246,30,62,110,15,34,59,0.03481374,0.07674778,0.13165183,0.23296673,0.35388745,0.51617093
55005,0,USWisconsinBarron,Wisconsin,Barron,2021-01-05 05:50:32.072286,2020-07-02 00:00:00.000000,0.07423203,0.14908726,0.26168507,33,67,118,17,36,62,0.03906192,0.08108535,0.13903046,0.23833423,0.37901911,0.53207230
55005,0,USWisconsinBarron,Wisconsin,Barron,2021-01-05 05:50:32.072286,2020-07-03 00:00:00.000000,0.08463276,0.16236098,0.28123567,38,73,127,20,39,66,0.04436767,0.08730320,0.14687207,0.25327706,0.39434159,0.55625690
55005,0,USWisconsinBarron,Wisconsin,Barron,2021-01-05 05:50:32.072286,2020-07-04 00:00:00.000000,0.09465012,0.17379319,0.30305042,42,78,137,22,43,69,0.05053561,0.09589289,0.15413256,0.27345907,0.41618372,0.60777652
55005,0,USWisconsinBarron,Wisconsin,Barron,2021-01-05 05:50:32.072286,2020-07-05 00:00:00.000000,0.10199009,0.19059834,0.32083557,46,86,145,25,46,73,0.05614423,0.10205881,0.16268022,0.30113448,0.43830575,0.63606118
55005,0,USWisconsinBarron,Wisconsin,Barron,2021-01-05 05:50:32.072286,2020-07-06 00:00:00.000000,0.11236443,0.20284586,0.34870325,50,91,157,27,49,78,0.06154473,0.10988195,0.17325639,0.31826813,0.45320555,0.64841115
55005,0,USWisconsinBarron,Wisconsin,Barron,2021-01-05 05:50:32.072286,2020-07-07 00:00:00.000000,0.13146358,0.21614501,0.37596759,59,97,170,30,53,83,0.06728773,0.11803221,0.18477571,0.33458331,0.46473553,0.67192118
55005,0,USWisconsinBarron,Wisconsin,Barron,2021-01-05 05:50:32.072286,2020-07-08 00:00:00.000000,0.15296931,0.24188214,0.40466485,69,109,183,33,57,89,0.07358064,0.12818121,0.19714652,0.35425099,0.48039076,0.68060010
55005,0,USWisconsinBarron,Wisconsin,Barron,2021-01-05 05:50:32.072286,2020-07-09 00:00:00.000000,0.16682358,0.26477929,0.43670211,75,119,197,36,62,95,0.08062130,0.13843173,0.21079876,0.35429164,0.50629213,0.69426304
55005,0,USWisconsinBarron,Wisconsin,Barron,2021-01-05 05:50:32.072286,2020-07-10 00:00:00.000000,0.17764085,0.28894726,0.47298262,80,130,213,40,68,102,0.08849201,0.15084162,0.22663024,0.35755011,0.52405873,0.69781684
55005,0,USWisconsinBarron,Wisconsin,Barron,2021-01-05 05:50:32.072286,2020-07-11 00:00:00.000000,0.18848741,0.32304639,0.51189158,85,146,231,43,77,116,0.09575038,0.17150699,0.25671599,0.36746176,0.54385695,0.71280637
55005,0,USWisconsinBarron,Wisconsin,Barron,2021-01-05 05:50:32.072286,2020-07-12 00:00:00.000000,0.19968989,0.36186784,0.55754998,90,163,252,48,86,131,0.10760541,0.19049189,0.29141740,0.39522639,0.57076575,0.75126574
55005,0,USWisconsinBarron,Wisconsin,Barron,2021-01-05 05:50:32.072286,2020-07-13 00:00:00.000000,0.21790036,0.40595536,0.61553035,98,183,278,51,94,147,0.11415390,0.20886104,0.32511094,0.44004432,0.58492140,0.77254580
55005,0,USWisconsinBarron,Wisconsin,Barron,2021-01-05 05:50:32.072286,2020-07-14 00:00:00.000000,0.24309040,0.45329110,0.68331448,109,205,309,55,106,159,0.12329822,0.23500564,0.35352308,0.46108408,0.59493535,0.78526236
55005,0,USWisconsinBarron,Wisconsin,Barron,2021-01-05 05:50:32.072286,2020-07-15 00:00:00.000000,0.27150010,0.50992458,0.75777839,122,230,342,61,120,175,0.13629365,0.26581059,0.38874173,0.48376048,0.60168773,0.79948149
55005,0,USWisconsinBarron,Wisconsin,Barron,2021-01-05 05:50:32.072286,2020-07-16 00:00:00.000000,0.30266669,0.57279214,0.83902317,136,259,379,68,134,193,0.15205462,0.29743324,0.42750834,0.50591418,0.60663701,0.81387656
55005,0,USWisconsinBarron,Wisconsin,Barron,2021-01-05 05:50:32.072286,2020-07-17 00:00:00.000000,0.33812951,0.64359464,0.96572944,152,291,436,76,150,214,0.16971331,0.33242103,0.47432524,0.51131207,0.61387758,0.81542298
55005,0,USWisconsinBarron,Wisconsin,Barron,2021-01-05 05:50:32.072286,2020-07-18 00:00:00.000000,0.38620397,0.71595928,1.07631466,174,323,486,87,169,242,0.19435060,0.37443537,0.53557960,0.50286373,0.62514297,0.83328627
55005,0,USWisconsinBarron,Wisconsin,Barron,2021-01-05 05:50:32.072286,2020-07-19 00:00:00.000000,0.44558819,0.78424869,1.16973723,201,354,529,101,189,271,0.22441650,0.41903812,0.60013726,0.50076888,0.62371089,0.86709979
55005,0,USWisconsinBarron,Wisconsin,Barron,2021-01-05 05:50:32.072286,2020-07-20 00:00:00.000000,0.51761239,0.87714885,1.25970907,234,396,569,117,210,297,0.25897224,0.46461813,0.65850436,0.49124862,0.62452932,0.86924981
55005,0,USWisconsinBarron,Wisconsin,Barron,2021-01-05 05:50:32.072286,2020-07-21 00:00:00.000000,0.60350641,0.98228914,1.37190673,273,444,620,134,233,329,0.29785550,0.51676329,0.72929311,0.48950345,0.62204846,0.86966265
55005,0,USWisconsinBarron,Wisconsin,Barron,2021-01-05 05:50:32.072286,2020-07-22 00:00:00.000000,0.70425756,1.09984116,1.48581897,318,497,672,154,260,353,0.34220852,0.57535171,0.78099843,0.47834664,0.60899059,0.86961827
55005,0,USWisconsinBarron,Wisconsin,Barron,2021-01-05 05:50:32.072286,2020-07-23 00:00:00.000000,0.82174495,1.21904605,1.60470390,371,551,726,177,286,373,0.39234030,0.63238430,0.82655788,0.45339356,0.59801310,0.86912739
55005,0,USWisconsinBarron,Wisconsin,Barron,2021-01-05 05:50:32.072286,2020-07-24 00:00:00.000000,0.90316539,1.32882584,1.73027676,408,601,782,200,314,415,0.44393017,0.69462998,0.91845884,0.42520337,0.58422623,0.86726959
55005,0,USWisconsinBarron,Wisconsin,Barron,2021-01-05 05:50:32.072286,2020-07-25 00:00:00.000000,0.98806992,1.43151747,1.86196632,447,647,842,227,345,462,0.50239295,0.76311810,1.02157017,0.40087153,0.56355936,0.85952199
55005,0,USWisconsinBarron,Wisconsin,Barron,2021-01-05 05:50:32.072286,2020-07-26 00:00:00.000000,1.08169806,1.54056938,2.02423136,489,697,915,255,379,508,0.56571601,0.83849142,1.12360363,0.37146919,0.54417351,0.77448767
55005,0,USWisconsinBarron,Wisconsin,Barron,2021-01-05 05:50:32.072286,2020-07-27 00:00:00.000000,1.19253141,1.63394553,2.15350069,539,739,974,285,413,545,0.63072098,0.91324995,1.20677381,0.33491967,0.48158111,0.73264830
55005,0,USWisconsinBarron,Wisconsin,Barron,2021-01-05 05:50:32.072286,2020-07-28 00:00:00.000000,1.26504207,1.69911779,2.22304015,572,768,1005,311,432,579,0.68760787,0.95656368,1.28038184,0.22530298,0.41128533,0.60349811
55005,0,USWisconsinBarron,Wisconsin,Barron,2021-01-05 05:50:32.072286,2020-07-29 00:00:00.000000,1.32596337,1.74217819,2.25251989,599,788,1019,328,461,610,0.72660988,1.02089743,1.35008185,0.19601520,0.34572701,0.46718266
55005,0,USWisconsinBarron,Wisconsin,Barron,2021-01-05 05:50:32.072286,2020-07-30 00:00:00.000000,1.31873728,1.72635662,2.27400846,596,781,1028,340,482,643,0.75228725,1.06606411,1.42265720,0.17363857,0.29182963,0.39198335
55005,0,USWisconsinBarron,Wisconsin,Barron,2021-01-05 05:50:32.072286,2020-07-31 00:00:00.000000,1.28166300,1.70609664,2.27017562,579,771,1027,340,482,660,0.75347096,1.06623176,1.45960764,0.16269089,0.25261654,0.32928318
55005,0,USWisconsinBarron,Wisconsin,Barron,2021-01-05 05:50:32.072286,2020-08-01 00:00:00.000000,1.23686254,1.68007741,2.24000856,559,760,1013,337,482,668,0.74514591,1.06691033,1.47650180,0.15764904,0.21828448,0.29691096
55005,0,USWisconsinBarron,Wisconsin,Barron,2021-01-05 05:50:32.072286,2020-08-02 00:00:00.000000,1.19373790,1.64011405,2.17866132,540,742,985,330,472,657,0.73051711,1.04512511,1.45341796,0.15436185,0.20499549,0.27644970
55005,0,USWisconsinBarron,Wisconsin,Barron,2021-01-05 05:50:32.072286,2020-08-03 00:00:00.000000,1.15443620,1.59211345,2.13071397,522,720,964,321,460,654,0.71106981,1.01774183,1.44613831,0.14894266,0.20240594,0.27332169
55005,0,USWisconsinBarron,Wisconsin,Barron,2021-01-05 05:50:32.072286,2020-08-04 00:00:00.000000,1.11098342,1.53339107,2.08072939,502,693,941,311,447,644,0.68870872,0.98918090,1.42503288,0.14848438,0.19643787,0.26987661
55005,0,USWisconsinBarron,Wisconsin,Barron,2021-01-05 05:50:32.072286,2020-08-05 00:00:00.000000,1.06212757,1.47018587,2.03014142,480,665,918,300,430,629,0.66388126,0.95176525,1.39056922,0.14101433,0.19250127,0.26209408
55005,0,USWisconsinBarron,Wisconsin,Barron,2021-01-05 05:50:32.072286,2020-08-06 00:00:00.000000,1.01619317,1.39935315,1.96477721,459,633,888,282,416,611,0.62443522,0.92053436,1.35261527,0.13085660,0.18866660,0.25020314
55005,0,USWisconsinBarron,Wisconsin,Barron,2021-01-05 05:50:32.072286,2020-08-07 00:00:00.000000,0.95196467,1.34667659,1.92930367,430,609,872,263,400,593,0.58291809,0.88523138,1.31251689,0.12764517,0.18258493,0.24357037
55005,0,USWisconsinBarron,Wisconsin,Barron,2021-01-05 05:50:32.072286,2020-08-08 00:00:00.000000,0.90174671,1.28262819,1.86459608,407,580,843,245,381,572,0.54299414,0.84383120,1.26473389,0.12217991,0.17529096,0.22893371
55005,0,USWisconsinBarron,Wisconsin,Barron,2021-01-05 05:50:32.072286,2020-08-09 00:00:00.000000,0.85470696,1.21569494,1.80152266,386,550,815,229,366,547,0.50785097,0.81085021,1.21032162,0.11322362,0.17065805,0.22819977
55005,0,USWisconsinBarron,Wisconsin,Barron,2021-01-05 05:50:32.072286,2020-08-10 00:00:00.000000,0.79803592,1.13883548,1.73751646,361,515,786,211,349,522,0.46804117,0.77348174,1.15591945,0.10793011,0.16602999,0.22772399
55005,0,USWisconsinBarron,Wisconsin,Barron,2021-01-05 05:50:32.072286,2020-08-11 00:00:00.000000,0.73500634,1.07029333,1.65666848,332,484,749,195,329,499,0.43261940,0.72854324,1.10344430,0.10675877,0.16448897,0.22732299
55005,0,USWisconsinBarron,Wisconsin,Barron,2021-01-05 05:50:32.072286,2020-08-12 00:00:00.000000,0.67635559,1.01689617,1.56383074,306,460,707,181,309,477,0.40130107,0.68378874,1.05619348,0.10488919,0.16068382,0.22670626
55005,0,USWisconsinBarron,Wisconsin,Barron,2021-01-05 05:50:32.072286,2020-08-13 00:00:00.000000,0.62213712,0.96913395,1.47125662,281,438,665,169,293,458,0.37385730,0.64840437,1.01263901,0.10123386,0.15950307,0.22535163
55005,0,USWisconsinBarron,Wisconsin,Barron,2021-01-05 05:50:32.072286,2020-08-14 00:00:00.000000,0.57224760,0.92953768,1.38163462,258,420,625,158,278,438,0.34992857,0.61644726,0.96820633,0.09737981,0.15727411,0.22242875
55005,0,USWisconsinBarron,Wisconsin,Barron,2021-01-05 05:50:32.072286,2020-08-15 00:00:00.000000,0.53492264,0.89004383,1.29629584,242,402,586,148,265,418,0.32917664,0.58585070,0.92418425,0.09504341,0.15646841,0.21795674
55005,0,USWisconsinBarron,Wisconsin,Barron,2021-01-05 05:50:32.072286,2020-08-16 00:00:00.000000,0.50705568,0.84788916,1.22609559,229,383,554,140,252,398,0.31084484,0.55710653,0.88129157,0.09466383,0.15476592,0.21866990
55005,0,USWisconsinBarron,Wisconsin,Barron,2021-01-05 05:50:32.072286,2020-08-17 00:00:00.000000,0.47845886,0.80493138,1.18034821,216,364,534,133,238,380,0.29441724,0.52676705,0.83995104,0.09448044,0.15464504,0.21843821
55005,0,USWisconsinBarron,Wisconsin,Barron,2021-01-05 05:50:32.072286,2020-08-18 00:00:00.000000,0.44267157,0.75257301,1.13818547,200,340,514,126,226,362,0.27911760,0.49991644,0.80098235,0.09448500,0.15330715,0.21725017
55005,0,USWisconsinBarron,Wisconsin,Barron,2021-01-05 05:50:32.072286,2020-08-19 00:00:00.000000,0.41359501,0.71088993,1.09865397,187,321,497,119,213,345,0.26489752,0.47298453,0.76417552,0.09936950,0.15230700,0.21725841
55005,0,USWisconsinBarron,Wisconsin,Barron,2021-01-05 05:50:32.072286,2020-08-20 00:00:00.000000,0.38845741,0.66929331,1.06117143,175,302,480,113,201,329,0.25168593,0.44564606,0.72927753,0.10018187,0.15230479,0.21801655
55005,0,USWisconsinBarron,Wisconsin,Barron,2021-01-05 05:50:32.072286,2020-08-21 00:00:00.000000,0.35991864,0.62873813,1.02539964,162,284,463,106,191,314,0.23522016,0.42230942,0.69608782,0.10088375,0.15266020,0.21893798
55005,0,USWisconsinBarron,Wisconsin,Barron,2021-01-05 05:50:32.072286,2020-08-22 00:00:00.000000,0.33703046,0.59227935,0.99110458,152,267,448,99,179,300,0.22077400,0.39752953,0.66450511,0.10193263,0.15597796,0.22544926
55005,0,USWisconsinBarron,Wisconsin,Barron,2021-01-05 05:50:32.072286,2020-08-23 00:00:00.000000,0.31926122,0.56109532,0.95087793,144,253,430,93,169,288,0.20738251,0.37564784,0.63858016,0.10398367,0.16022005,0.22877510
55005,0,USWisconsinBarron,Wisconsin,Barron,2021-01-05 05:50:32.072286,2020-08-24 00:00:00.000000,0.30556204,0.53150648,0.90520183,138,240,409,87,161,278,0.19301118,0.35740185,0.61575152,0.10759076,0.15964733,0.23025719
55005,0,USWisconsinBarron,Wisconsin,Barron,2021-01-05 05:50:32.072286,2020-08-25 00:00:00.000000,0.29378379,0.50634653,0.86914197,132,229,393,81,154,269,0.18034110,0.34200593,0.59591645,0.11400556,0.16068505,0.23372711
55005,0,USWisconsinBarron,Wisconsin,Barron,2021-01-05 05:50:32.072286,2020-08-26 00:00:00.000000,0.28336135,0.48038753,0.84666742,128,217,383,76,146,261,0.16918905,0.32395808,0.57815085,0.11640929,0.16201915,0.23908205
55005,0,USWisconsinBarron,Wisconsin,Barron,2021-01-05 05:50:32.072286,2020-08-27 00:00:00.000000,0.27397255,0.45162135,0.82551685,123,204,373,72,139,254,0.15937704,0.30726461,0.56189173,0.11658344,0.16332088,0.24323149
55005,0,USWisconsinBarron,Wisconsin,Barron,2021-01-05 05:50:32.072286,2020-08-28 00:00:00.000000,0.26189122,0.42806919,0.79967652,118,193,361,68,133,247,0.15067315,0.29551969,0.54681657,0.11798271,0.16607009,0.25202908
55005,0,USWisconsinBarron,Wisconsin,Barron,2021-01-05 05:50:32.072286,2020-08-29 00:00:00.000000,0.25144839,0.41052532,0.77171412,113,185,349,64,128,241,0.14345633,0.28293869,0.53266810,0.12082163,0.16887407,0.26943290
55005,0,USWisconsinBarron,Wisconsin,Barron,2021-01-05 05:50:32.072286,2020-08-30 00:00:00.000000,0.24270539,0.39778491,0.74417307,109,179,336,62,122,234,0.13746616,0.27166284,0.51928323,0.12494993,0.17529678,0.28705388
55005,0,USWisconsinBarron,Wisconsin,Barron,2021-01-05 05:50:32.072286,2020-08-31 00:00:00.000000,0.23677658,0.38753731,0.71952691,107,175,325,60,117,228,0.13271876,0.25914955,0.50488732,0.13094115,0.18309047,0.30294809
55005,0,USWisconsinBarron,Wisconsin,Barron,2021-01-05 05:50:32.072286,2020-09-01 00:00:00.000000,0.22856541,0.37261269,0.69595057,103,168,314,57,112,220,0.12759428,0.24774208,0.48763212,0.13360262,0.19392528,0.31641376
55005,0,USWisconsinBarron,Wisconsin,Barron,2021-01-05 05:50:32.072286,2020-09-02 00:00:00.000000,0.22102018,0.36751743,0.67352544,99,166,304,55,108,213,0.12259084,0.24035735,0.47130145,0.13805649,0.19994852,0.32647583
55005,0,USWisconsinBarron,Wisconsin,Barron,2021-01-05 05:50:32.072286,2020-09-03 00:00:00.000000,0.21251732,0.36087422,0.65207532,96,163,295,54,106,206,0.11974457,0.23572880,0.45579494,0.14202404,0.20500270,0.33382227
55005,0,USWisconsinBarron,Wisconsin,Barron,2021-01-05 05:50:32.072286,2020-09-04 00:00:00.000000,0.20449215,0.35390572,0.63130305,92,160,285,53,103,199,0.11750584,0.22809954,0.44101664,0.14657201,0.21158517,0.33927866
55005,0,USWisconsinBarron,Wisconsin,Barron,2021-01-05 05:50:32.072286,2020-09-05 00:00:00.000000,0.19711459,0.34961002,0.61134021,89,158,276,52,101,193,0.11544076,0.22330968,0.42690153,0.15229692,0.22412208,0.37078720
55005,0,USWisconsinBarron,Wisconsin,Barron,2021-01-05 05:50:32.072286,2020-09-06 00:00:00.000000,0.19546457,0.34482693,0.59234734,88,156,268,51,98,186,0.11351183,0.21768274,0.41327553,0.15913786,0.23375787,0.38665371
55005,0,USWisconsinBarron,Wisconsin,Barron,2021-01-05 05:50:32.072286,2020-09-07 00:00:00.000000,0.19332107,0.34178170,0.57172358,87,154,258,50,96,181,0.11174058,0.21238039,0.40019884,0.16611455,0.24571448,0.41559080
55005,0,USWisconsinBarron,Wisconsin,Barron,2021-01-05 05:50:32.072286,2020-09-08 00:00:00.000000,0.19205646,0.34409814,0.55423388,86,155,250,49,95,175,0.11030476,0.21162788,0.38692553,0.17214132,0.25782729,0.42191998
55005,0,USWisconsinBarron,Wisconsin,Barron,2021-01-05 05:50:32.072286,2020-09-09 00:00:00.000000,0.19179504,0.34803441,0.54506200,86,157,246,49,95,169,0.10933355,0.21041461,0.37452719,0.17751126,0.26986314,0.42426759
55005,0,USWisconsinBarron,Wisconsin,Barron,2021-01-05 05:50:32.072286,2020-09-10 00:00:00.000000,0.19453342,0.34985163,0.54494630,88,158,246,49,95,165,0.10909865,0.21168487,0.36527287,0.18296570,0.28311853,0.42541156
55005,0,USWisconsinBarron,Wisconsin,Barron,2021-01-05 05:50:32.072286,2020-09-11 00:00:00.000000,0.20030352,0.35010908,0.54851764,90,158,248,49,95,163,0.10989824,0.21046984,0.36057825,0.19219018,0.29909350,0.43878525
55005,0,USWisconsinBarron,Wisconsin,Barron,2021-01-05 05:50:32.072286,2020-09-12 00:00:00.000000,0.20620208,0.36281083,0.55467071,93,164,250,49,97,162,0.10924713,0.21562301,0.35940098,0.19574165,0.32867334,0.44842334
55005,0,USWisconsinBarron,Wisconsin,Barron,2021-01-05 05:50:32.072286,2020-09-13 00:00:00.000000,0.21118917,0.37634970,0.56866997,95,170,257,49,98,163,0.10879454,0.21869476,0.36077049,0.20511700,0.33871759,0.49034081
55005,0,USWisconsinBarron,Wisconsin,Barron,2021-01-05 05:50:32.072286,2020-09-14 00:00:00.000000,0.22114963,0.39114535,0.58183253,100,176,263,49,102,164,0.10960798,0.22735280,0.36444751,0.22470528,0.35059214,0.51525094
55005,0,USWisconsinBarron,Wisconsin,Barron,2021-01-05 05:50:32.072286,2020-09-15 00:00:00.000000,0.23375540,0.40433759,0.59559346,105,182,269,52,105,167,0.11612765,0.23369700,0.37022227,0.25226872,0.35968281,0.52175076
55005,0,USWisconsinBarron,Wisconsin,Barron,2021-01-05 05:50:32.072286,2020-09-16 00:00:00.000000,0.24978178,0.41888238,0.60965952,113,189,275,57,108,170,0.12618168,0.23944711,0.37730134,0.26149894,0.37346596,0.53030139
55005,0,USWisconsinBarron,Wisconsin,Barron,2021-01-05 05:50:32.072286,2020-09-17 00:00:00.000000,0.26447239,0.43531068,0.62443635,119,196,282,61,110,174,0.13553051,0.24415828,0.38518496,0.26415254,0.38801856,0.54596118
55005,0,USWisconsinBarron,Wisconsin,Barron,2021-01-05 05:50:32.072286,2020-09-18 00:00:00.000000,0.28622122,0.46053598,0.64080443,129,208,289,66,115,178,0.14656706,0.25579122,0.39359236,0.26847246,0.41266468,0.58867087
55005,0,USWisconsinBarron,Wisconsin,Barron,2021-01-05 05:50:32.072286,2020-09-19 00:00:00.000000,0.31793400,0.48434965,0.67558585,143,219,305,71,121,182,0.15791016,0.26866768,0.40238188,0.29071444,0.43783679,0.61209495
55005,0,USWisconsinBarron,Wisconsin,Barron,2021-01-05 05:50:32.072286,2020-09-20 00:00:00.000000,0.34533980,0.51307740,0.71577378,156,232,323,77,128,186,0.17208657,0.28394816,0.41152847,0.31051535,0.44929078,0.62361411
55005,0,USWisconsinBarron,Wisconsin,Barron,2021-01-05 05:50:32.072286,2020-09-21 00:00:00.000000,0.37296868,0.54229765,0.75969271,168,245,343,85,136,190,0.18887011,0.30090273,0.42118631,0.31971928,0.46910719,0.63450109
55005,0,USWisconsinBarron,Wisconsin,Barron,2021-01-05 05:50:32.072286,2020-09-22 00:00:00.000000,0.39950707,0.57263541,0.81670214,180,259,369,92,144,197,0.20390036,0.31964327,0.43657104,0.33696936,0.47701101,0.64239411
55005,0,USWisconsinBarron,Wisconsin,Barron,2021-01-05 05:50:32.072286,2020-09-23 00:00:00.000000,0.42068022,0.61009097,0.86231922,190,276,390,97,154,212,0.21644541,0.34219050,0.47034091,0.35705624,0.48599763,0.65241955
55005,0,USWisconsinBarron,Wisconsin,Barron,2021-01-05 05:50:32.072286,2020-09-24 00:00:00.000000,0.45528907,0.65959503,0.90998491,205,298,411,103,164,229,0.22954878,0.36252779,0.50719286,0.36936956,0.49082990,0.66133815
55005,0,USWisconsinBarron,Wisconsin,Barron,2021-01-05 05:50:32.072286,2020-09-25 00:00:00.000000,0.49462302,0.70540372,0.95493924,223,319,432,112,175,245,0.24834010,0.38810377,0.54254875,0.37597413,0.51168331,0.67292710
55005,0,USWisconsinBarron,Wisconsin,Barron,2021-01-05 05:50:32.072286,2020-09-26 00:00:00.000000,0.53860157,0.76106522,1.00098478,243,344,452,119,189,258,0.26348435,0.41777811,0.57235563,0.38246220,0.51954848,0.67142282
55005,0,USWisconsinBarron,Wisconsin,Barron,2021-01-05 05:50:32.072286,2020-09-27 00:00:00.000000,0.58286306,0.82449933,1.05147388,263,373,475,126,203,271,0.27951306,0.44944655,0.60098660,0.39644807,0.53391719,0.67802216
55005,0,USWisconsinBarron,Wisconsin,Barron,2021-01-05 05:50:32.072286,2020-09-28 00:00:00.000000,0.63115682,0.88602499,1.12444019,285,400,508,134,217,290,0.29743207,0.47975512,0.64223894,0.42211873,0.54121627,0.68658508
55005,0,USWisconsinBarron,Wisconsin,Barron,2021-01-05 05:50:32.072286,2020-09-29 00:00:00.000000,0.69259374,0.95393753,1.23559956,313,431,559,144,232,309,0.31829103,0.51433737,0.68433354,0.43053936,0.55165066,0.76935318
55005,0,USWisconsinBarron,Wisconsin,Barron,2021-01-05 05:50:32.072286,2020-09-30 00:00:00.000000,0.74569709,1.02739676,1.33993936,337,464,606,158,250,337,0.34937269,0.55320959,0.74663538,0.43491285,0.55673601,0.80228840
55005,0,USWisconsinBarron,Wisconsin,Barron,2021-01-05 05:50:32.072286,2020-10-01 00:00:00.000000,0.80371689,1.10798605,1.47599906,363,501,667,175,268,369,0.38876119,0.59236861,0.81758501,0.44605849,0.56946615,0.80008880
55005,0,USWisconsinBarron,Wisconsin,Barron,2021-01-05 05:50:32.072286,2020-10-02 00:00:00.000000,0.87649264,1.20500265,1.61572916,396,545,731,191,286,399,0.42332747,0.63316485,0.88404953,0.46806850,0.58613545,0.77995428
55005,0,USWisconsinBarron,Wisconsin,Barron,2021-01-05 05:50:32.072286,2020-10-03 00:00:00.000000,0.95998441,1.31557847,1.76096216,434,595,796,206,309,435,0.45618809,0.68467581,0.96185725,0.50010019,0.60029658,0.78794784
55005,0,USWisconsinBarron,Wisconsin,Barron,2021-01-05 05:50:32.072286,2020-10-04 00:00:00.000000,1.06357952,1.43176761,1.91400234,481,647,865,222,340,475,0.49129605,0.75208462,1.05079585,0.50836300,0.61507397,0.78485882
55005,0,USWisconsinBarron,Wisconsin,Barron,2021-01-05 05:50:32.072286,2020-10-05 00:00:00.000000,1.17472608,1.56031801,2.08774553,531,705,944,239,372,520,0.53039926,0.82392666,1.14981903,0.51012309,0.63264148,0.79236018
55005,0,USWisconsinBarron,Wisconsin,Barron,2021-01-05 05:50:32.072286,2020-10-06 00:00:00.000000,1.32160382,1.71415304,2.29988972,597,775,1040,264,407,570,0.58451999,0.90099032,1.26124689,0.51586650,0.63669291,0.80676260
55005,0,USWisconsinBarron,Wisconsin,Barron,2021-01-05 05:50:32.072286,2020-10-07 00:00:00.000000,1.45412366,1.88142134,2.53076390,657,851,1145,300,443,623,0.66369076,0.97937888,1.37841401,0.53182369,0.63915076,0.85028979
55005,0,USWisconsinBarron,Wisconsin,Barron,2021-01-05 05:50:32.072286,2020-10-08 00:00:00.000000,1.56902207,2.08467085,2.78689145,709,943,1260,335,484,684,0.74202917,1.07119509,1.51191011,0.52588836,0.65011814,0.86777501
55005,0,USWisconsinBarron,Wisconsin,Barron,2021-01-05 05:50:32.072286,2020-10-09 00:00:00.000000,1.69112762,2.31361844,3.05182485,765,1046,1380,366,528,737,0.80990341,1.16890781,1.62936610,0.51071709,0.64939788,0.86636983
55005,0,USWisconsinBarron,Wisconsin,Barron,2021-01-05 05:50:32.072286,2020-10-10 00:00:00.000000,1.81995635,2.55269162,3.34931790,823,1154,1515,403,581,808,0.89098334,1.28515022,1.78635794,0.51481322,0.64742897,0.85139179
55005,0,USWisconsinBarron,Wisconsin,Barron,2021-01-05 05:50:32.072286,2020-10-11 00:00:00.000000,2.01742263,2.78286401,3.68308471,912,1259,1666,448,644,886,0.99095316,1.42408832,1.96023624,0.51972278,0.64703872,0.81423821
55005,0,USWisconsinBarron,Wisconsin,Barron,2021-01-05 05:50:32.072286,2020-10-12 00:00:00.000000,2.24817104,3.01986388,4.01926896,1017,1366,1818,495,709,996,1.09503913,1.56805625,2.20263647,0.51773436,0.64458430,0.78676403
55005,0,USWisconsinBarron,Wisconsin,Barron,2021-01-05 05:50:32.072286,2020-10-13 00:00:00.000000,2.50375588,3.26677102,4.37370572,1132,1478,1978,543,779,1119,1.20050279,1.72277260,2.47433262,0.49892950,0.64431789,0.77777948
55005,0,USWisconsinBarron,Wisconsin,Barron,2021-01-05 05:50:32.072286,2020-10-14 00:00:00.000000,2.68001155,3.56223421,4.84401561,1212,1611,2191,604,849,1255,1.33588089,1.87682798,2.77551500,0.49205805,0.63931531,0.76401171
55005,0,USWisconsinBarron,Wisconsin,Barron,2021-01-05 05:50:32.072286,2020-10-15 00:00:00.000000,2.94185538,3.89272725,5.34478269,1331,1761,2418,671,925,1403,1.48519644,2.04544816,3.10119039,0.48487358,0.62037482,0.74994294
55005,0,USWisconsinBarron,Wisconsin,Barron,2021-01-05 05:50:32.072286,2020-10-16 00:00:00.000000,3.12039589,4.14905478,5.60728019,1411,1877,2536,732,1011,1547,1.61909981,2.23625050,3.42063461,0.46486285,0.59758611,0.74224708
55005,0,USWisconsinBarron,Wisconsin,Barron,2021-01-05 05:50:32.072286,2020-10-17 00:00:00.000000,3.29469635,4.40082683,5.78254243,1490,1991,2616,778,1092,1626,1.72133954,2.41540175,3.59547638,0.43756702,0.56979272,0.71073219
55005,0,USWisconsinBarron,Wisconsin,Barron,2021-01-05 05:50:32.072286,2020-10-18 00:00:00.000000,3.46598586,4.69924163,6.03650273,1568,2126,2731,823,1186,1679,1.82119451,2.62147935,3.71288579,0.42852632,0.54635531,0.69025503
55005,0,USWisconsinBarron,Wisconsin,Barron,2021-01-05 05:50:32.072286,2020-10-19 00:00:00.000000,3.64408973,4.93397892,6.31319583,1648,2232,2856,868,1256,1725,1.91905342,2.77658129,3.81321227,0.41509718,0.52264003,0.66302424
55005,0,USWisconsinBarron,Wisconsin,Barron,2021-01-05 05:50:32.072286,2020-10-20 00:00:00.000000,3.82235436,5.19675691,6.70177354,1729,2351,3032,913,1323,1767,2.01873232,2.92435257,3.90622650,0.38398969,0.51177939,0.64106823
55005,0,USWisconsinBarron,Wisconsin,Barron,2021-01-05 05:50:32.072286,2020-10-21 00:00:00.000000,4.00316343,5.45152071,7.10657310,1811,2466,3215,958,1389,1821,2.11939778,3.07221280,4.02574815,0.39431459,0.50325346,0.63950138
55005,0,USWisconsinBarron,Wisconsin,Barron,2021-01-05 05:50:32.072286,2020-10-22 00:00:00.000000,4.18768574,5.71326438,7.51952206,1894,2584,3402,1004,1465,1934,2.22127472,3.24002049,4.27507099,0.40125960,0.49682057,0.61259454
55005,0,USWisconsinBarron,Wisconsin,Barron,2021-01-05 05:50:32.072286,2020-10-23 00:00:00.000000,4.37720511,5.99275331,7.93659932,1980,2711,3590,1051,1533,2047,2.32490835,3.38886800,4.52461733,0.38948785,0.48959638,0.60325929
55005,0,USWisconsinBarron,Wisconsin,Barron,2021-01-05 05:50:32.072286,2020-10-24 00:00:00.000000,4.57304081,6.17186256,8.13591075,2069,2792,3681,1099,1597,2159,2.43079517,3.53115506,4.77310814,0.38417140,0.48717580,0.60526892
55005,0,USWisconsinBarron,Wisconsin,Barron,2021-01-05 05:50:32.072286,2020-10-25 00:00:00.000000,4.77654416,6.41390033,8.43374102,2161,2901,3815,1148,1659,2269,2.53943296,3.66786161,5.01557335,0.38392441,0.49085888,0.61225791
55005,0,USWisconsinBarron,Wisconsin,Barron,2021-01-05 05:50:32.072286,2020-10-26 00:00:00.000000,5.00418750,6.68040183,8.73920670,2264,3022,3953,1200,1721,2373,2.65267374,3.80456815,5.24549682,0.38361317,0.49537710,0.63946149
55005,0,USWisconsinBarron,Wisconsin,Barron,2021-01-05 05:50:32.072286,2020-10-27 00:00:00.000000,5.21228011,6.95842282,9.09734847,2358,3148,4116,1253,1795,2470,2.77125097,3.96902101,5.46022562,0.39836329,0.50884726,0.65678821
55005,0,USWisconsinBarron,Wisconsin,Barron,2021-01-05 05:50:32.072286,2020-10-28 00:00:00.000000,5.44625381,7.22831503,9.54907100,2464,3270,4320,1310,1876,2560,2.89549877,4.14701972,5.65890351,0.41804300,0.53273380,0.66244973
55005,0,USWisconsinBarron,Wisconsin,Barron,2021-01-05 05:50:32.072286,2020-10-29 00:00:00.000000,5.70662435,7.48986281,10.22250558,2581,3388,4625,1369,1954,2662,3.02673353,4.32098872,5.88578094,0.42726374,0.54589547,0.67960168
55005,0,USWisconsinBarron,Wisconsin,Barron,2021-01-05 05:50:32.072286,2020-10-30 00:00:00.000000,6.02243107,7.95596842,10.96754389,2724,3599,4962,1426,2026,2803,3.15317654,4.47976683,6.19693741,0.43360808,0.56717906,0.71771897
55005,0,USWisconsinBarron,Wisconsin,Barron,2021-01-05 05:50:32.072286,2020-10-31 00:00:00.000000,6.41367545,8.30138896,11.54635855,2901,3755,5224,1479,2135,2972,3.26926441,4.71940404,6.56916639,0.46068507,0.60063977,0.77389663
55005,0,USWisconsinBarron,Wisconsin,Barron,2021-01-05 05:50:32.072286,2020-11-01 00:00:00.000000,6.80463881,8.69477798,12.33119633,3078,3933,5579,1536,2233,3148,3.39669122,4.93557420,6.95982604,0.47869624,0.62007434,0.80499361
55005,0,USWisconsinBarron,Wisconsin,Barron,2021-01-05 05:50:32.072286,2020-11-02 00:00:00.000000,7.13476769,9.18076559,13.14089369,3228,4153,5945,1600,2363,3305,3.53701383,5.22310321,7.30678686,0.49267899,0.63792505,0.81449896
55005,0,USWisconsinBarron,Wisconsin,Barron,2021-01-05 05:50:32.072286,2020-11-03 00:00:00.000000,7.48443415,9.80304937,13.96402228,3386,4435,6317,1668,2494,3472,3.68817205,5.51380952,7.67512028,0.49387348,0.65518077,0.81740103
55005,0,USWisconsinBarron,Wisconsin,Barron,2021-01-05 05:50:32.072286,2020-11-04 00:00:00.000000,7.86077124,10.47999128,14.57212779,3556,4741,6593,1746,2641,3676,3.85924546,5.83801475,8.12649238,0.51480394,0.67047341,0.81723562
55005,0,USWisconsinBarron,Wisconsin,Barron,2021-01-05 05:50:32.072286,2020-11-05 00:00:00.000000,8.37303570,11.07071323,15.10198787,3788,5008,6832,1840,2813,3881,4.06843950,6.21917904,8.57985507,0.51751673,0.67651382,0.81213971
55005,0,USWisconsinBarron,Wisconsin,Barron,2021-01-05 05:50:32.072286,2020-11-06 00:00:00.000000,8.95887821,11.81160461,15.60430958,4053,5344,7060,1953,2996,4044,4.31693094,6.62225143,8.93974268,0.54856174,0.68911648,0.85187119
55005,0,USWisconsinBarron,Wisconsin,Barron,2021-01-05 05:50:32.072286,2020-11-07 00:00:00.000000,9.57270570,12.53240790,16.02776201,4331,5670,7251,2077,3196,4207,4.59216831,7.06482555,9.29945954,0.55022120,0.69799002,0.88291547
55005,0,USWisconsinBarron,Wisconsin,Barron,2021-01-05 05:50:32.072286,2020-11-08 00:00:00.000000,10.21006852,13.28518298,16.67920025,4619,6010,7546,2209,3418,4463,4.88336916,7.55507141,9.86647748,0.55207217,0.70316660,0.88370330
55005,0,USWisconsinBarron,Wisconsin,Barron,2021-01-05 05:50:32.072286,2020-11-09 00:00:00.000000,10.86519138,14.00731605,17.59271652,4915,6337,7959,2345,3617,4719,5.18345000,7.99476879,10.43106454,0.55273738,0.71108700,0.89099388
55005,0,USWisconsinBarron,Wisconsin,Barron,2021-01-05 05:50:32.072286,2020-11-10 00:00:00.000000,11.52676684,14.62698966,18.40059980,5215,6617,8325,2482,3793,4971,5.48776770,8.38551966,10.98841901,0.55216416,0.70304934,0.88230545
55005,0,USWisconsinBarron,Wisconsin,Barron,2021-01-05 05:50:32.072286,2020-11-11 00:00:00.000000,12.17963386,15.29059796,18.95786340,5510,6918,8577,2620,3970,5190,5.79175440,8.77464969,11.47231604,0.55068711,0.70252765,0.87942404
55005,0,USWisconsinBarron,Wisconsin,Barron,2021-01-05 05:50:32.072286,2020-11-12 00:00:00.000000,12.64924873,15.87062740,19.50779241,5723,7180,8826,2755,4129,5402,6.09119608,9.12671251,11.93981165,0.52806298,0.68485465,0.87974231
55005,0,USWisconsinBarron,Wisconsin,Barron,2021-01-05 05:50:32.072286,2020-11-13 00:00:00.000000,12.88670951,16.20594135,20.23663316,5830,7332,9155,2886,4298,5671,6.37994120,9.50175480,12.53579726,0.41613643,0.65052046,0.86877751
55005,0,USWisconsinBarron,Wisconsin,Barron,2021-01-05 05:50:32.072286,2020-11-14 00:00:00.000000,12.94296417,16.41804206,20.65687929,5855,7428,9345,3001,4434,5904,6.63413993,9.80194741,13.05052443,0.36926451,0.58806304,0.80437142
55005,0,USWisconsinBarron,Wisconsin,Barron,2021-01-05 05:50:32.072286,2020-11-15 00:00:00.000000,12.72795730,16.40600686,20.88681089,5758,7422,9450,3079,4499,6085,6.80650542,9.94451325,13.45119821,0.36509766,0.49839728,0.74425043
55005,0,USWisconsinBarron,Wisconsin,Barron,2021-01-05 05:50:32.072286,2020-11-16 00:00:00.000000,12.40551850,16.00897301,20.75334727,5612,7243,9389,3100,4491,6206,6.85258312,9.92759825,13.71877405,0.34251890,0.43631845,0.59657371
55005,0,USWisconsinBarron,Wisconsin,Barron,2021-01-05 05:50:32.072286,2020-11-17 00:00:00.000000,11.87568687,15.35905633,20.41365731,5373,6949,9235,3066,4432,6233,6.77787941,9.79745257,13.77810860,0.31180867,0.40798490,0.53743584
55005,0,USWisconsinBarron,Wisconsin,Barron,2021-01-05 05:50:32.072286,2020-11-18 00:00:00.000000,11.24028093,14.73495580,19.76336471,5085,6666,8941,2993,4320,6170,6.61639715,9.54823713,13.63718875,0.28188034,0.38973681,0.50124210
55005,0,USWisconsinBarron,Wisconsin,Barron,2021-01-05 05:50:32.072286,2020-11-19 00:00:00.000000,10.57227841,14.01996098,18.97701585,4783,6343,8585,2895,4169,6041,6.39908808,9.21634737,13.35424210,0.26749428,0.38010180,0.49669114
55005,0,USWisconsinBarron,Wisconsin,Barron,2021-01-05 05:50:32.072286,2020-11-20 00:00:00.000000,9.89587515,13.26020105,18.26613530,4477,5999,8264,2780,4010,5873,6.14588776,8.86400358,12.98197266,0.25117054,0.37479822,0.47146197
55005,0,USWisconsinBarron,Wisconsin,Barron,2021-01-05 05:50:32.072286,2020-11-21 00:00:00.000000,9.23106783,12.54312734,17.52009736,4176,5675,7926,2654,3810,5680,5.86613806,8.42157657,12.55504074,0.24337303,0.36690801,0.45924060
55005,0,USWisconsinBarron,Wisconsin,Barron,2021-01-05 05:50:32.072286,2020-11-22 00:00:00.000000,8.58962449,11.84601551,16.74298853,3886,5359,7575,2517,3604,5471,5.56339139,7.96723410,12.09246454,0.23477697,0.36364832,0.45934297
55005,0,USWisconsinBarron,Wisconsin,Barron,2021-01-05 05:50:32.072286,2020-11-23 00:00:00.000000,7.98220095,11.17479611,15.94190104,3611,5055,7212,2372,3418,5249,5.24342927,7.55669421,11.60226815,0.23233590,0.35810529,0.46211181
55005,0,USWisconsinBarron,Wisconsin,Barron,2021-01-05 05:50:32.072286,2020-11-24 00:00:00.000000,7.41142070,10.52076324,15.13662662,3353,4760,6848,2224,3214,4977,4.91579560,7.10390739,11.00177347,0.23269359,0.36262274,0.46848511
55005,0,USWisconsinBarron,Wisconsin,Barron,2021-01-05 05:50:32.072286,2020-11-25 00:00:00.000000,6.88985061,9.91378667,14.34222191,3117,4485,6488,2076,3033,4705,4.58978250,6.70478613,10.39989286,0.23353067,0.36642090,0.47928965
55005,0,USWisconsinBarron,Wisconsin,Barron,2021-01-05 05:50:32.072286,2020-11-26 00:00:00.000000,6.44224157,9.32486428,13.41708811,2914,4218,6070,1932,2859,4446,4.27217397,6.31916997,9.82884907,0.23527221,0.36716981,0.50302358
55005,0,USWisconsinBarron,Wisconsin,Barron,2021-01-05 05:50:32.072286,2020-11-27 00:00:00.000000,6.07769398,8.77731007,12.54389943,2749,3971,5675,1794,2675,4189,3.96723288,5.91435183,9.26066708,0.24395177,0.37059326,0.51193861
55005,0,USWisconsinBarron,Wisconsin,Barron,2021-01-05 05:50:32.072286,2020-11-28 00:00:00.000000,5.76664913,8.28316551,11.73283908,2609,3747,5308,1663,2513,3926,3.67737636,5.55511394,8.67744767,0.25950509,0.38558492,0.53815916
55005,0,USWisconsinBarron,Wisconsin,Barron,2021-01-05 05:50:32.072286,2020-11-29 00:00:00.000000,5.48596258,7.83492582,11.00001948,2482,3544,4976,1540,2364,3676,3.40385639,5.22648203,8.12683566,0.26299418,0.40024281,0.55100580
55005,0,USWisconsinBarron,Wisconsin,Barron,2021-01-05 05:50:32.072286,2020-11-30 00:00:00.000000,5.19053019,7.44596329,10.36653803,2348,3368,4690,1424,2239,3458,3.14739594,4.94913877,7.64514022,0.27758520,0.41598803,0.55416864
55005,0,USWisconsinBarron,Wisconsin,Barron,2021-01-05 05:50:32.072286,2020-12-01 00:00:00.000000,4.89919295,7.08268006,9.84347338,2216,3204,4453,1317,2123,3309,2.91232055,4.69399362,7.31581290,0.28744857,0.44519262,0.58418740
55005,0,USWisconsinBarron,Wisconsin,Barron,2021-01-05 05:50:32.072286,2020-12-02 00:00:00.000000,4.62983708,6.74456265,9.42061140,2094,3051,4262,1222,2016,3166,2.70106903,4.45611031,6.99838000,0.30735726,0.47152782,0.61502396
55005,0,USWisconsinBarron,Wisconsin,Barron,2021-01-05 05:50:32.072286,2020-12-03 00:00:00.000000,4.37871828,6.39782756,9.07647140,1981,2894,4106,1140,1918,3027,2.52083601,4.24104464,6.69215272,0.31265519,0.49559940,0.63167674
55005,0,USWisconsinBarron,Wisconsin,Barron,2021-01-05 05:50:32.072286,2020-12-04 00:00:00.000000,4.14455843,6.14938878,8.66911893,1875,2782,3922,1074,1833,2893,2.37460635,4.05152118,6.39598380,0.32099552,0.52444440,0.69971193
55005,0,USWisconsinBarron,Wisconsin,Barron,2021-01-05 05:50:32.072286,2020-12-05 00:00:00.000000,3.92908421,5.89243533,8.24619173,1777,2665,3730,1024,1768,2764,2.26334857,3.90970903,6.11056950,0.33633415,0.55217753,0.73963726
55005,0,USWisconsinBarron,Wisconsin,Barron,2021-01-05 05:50:32.072286,2020-12-06 00:00:00.000000,3.74278859,5.67295871,7.91561769,1693,2566,3581,988,1709,2623,2.18504023,3.77763727,5.79854739,0.35694735,0.58719600,0.81588282
55005,0,USWisconsinBarron,Wisconsin,Barron,2021-01-05 05:50:32.072286,2020-12-07 00:00:00.000000,3.60625911,5.48508354,7.65991456,1631,2481,3465,962,1640,2510,2.12841448,3.62637400,5.54852338,0.38618348,0.63064028,0.82456645
55005,0,USWisconsinBarron,Wisconsin,Barron,2021-01-05 05:50:32.072286,2020-12-08 00:00:00.000000,3.50631420,5.39241935,7.45783837,1586,2439,3374,941,1585,2440,2.08144822,3.50515485,5.39431775,0.39101924,0.65295168,0.88471161
55005,0,USWisconsinBarron,Wisconsin,Barron,2021-01-05 05:50:32.072286,2020-12-09 00:00:00.000000,3.42593552,5.29456304,7.19071007,1550,2395,3253,923,1535,2331,2.04046375,3.39450044,5.15290339,0.39836319,0.66467914,0.94545342
55005,0,USWisconsinBarron,Wisconsin,Barron,2021-01-05 05:50:32.072286,2020-12-10 00:00:00.000000,3.35659710,5.14692700,7.07137975,1518,2328,3199,905,1487,2267,2.00232200,3.28674964,5.01104476,0.41286108,0.68949305,0.98417102
55005,0,USWisconsinBarron,Wisconsin,Barron,2021-01-05 05:50:32.072286,2020-12-11 00:00:00.000000,3.31558094,5.03679717,6.94145430,1500,2278,3140,889,1437,2203,1.96505665,3.17744321,4.86935467,0.42077152,0.71662332,1.02696312
55005,0,USWisconsinBarron,Wisconsin,Barron,2021-01-05 05:50:32.072286,2020-12-12 00:00:00.000000,3.30955017,4.92335982,6.77173278,1497,2227,3063,872,1397,2133,1.92812236,3.08876122,4.71500889,0.42703574,0.76450380,1.06505181
55005,0,USWisconsinBarron,Wisconsin,Barron,2021-01-05 05:50:32.072286,2020-12-13 00:00:00.000000,3.29995239,4.87565563,6.59915585,1493,2205,2985,856,1358,2071,1.89231120,3.00290406,4.57786949,0.42784758,0.78714875,1.08656732
55005,0,USWisconsinBarron,Wisconsin,Barron,2021-01-05 05:50:32.072286,2020-12-14 00:00:00.000000,3.27559926,4.75528681,6.45738291,1482,2151,2921,841,1345,2018,1.86054023,2.97282293,4.46195586,0.45909356,0.81469865,1.10151894
55005,0,USWisconsinBarron,Wisconsin,Barron,2021-01-05 05:50:32.072286,2020-12-15 00:00:00.000000,3.26231295,4.67215149,6.33052509,1476,2113,2864,829,1322,1978,1.83262783,2.92310273,4.37320949,0.45850924,0.84370839,1.11852085
55005,0,USWisconsinBarron,Wisconsin,Barron,2021-01-05 05:50:32.072286,2020-12-16 00:00:00.000000,3.23934502,4.61871932,6.20222132,1465,2089,2806,816,1293,1943,1.80484332,2.85959375,4.29618927,0.45955224,0.85856043,1.12785013
55005,0,USWisconsinBarron,Wisconsin,Barron,2021-01-05 05:50:32.072286,2020-12-17 00:00:00.000000,3.17048334,4.52363406,6.07129815,1434,2046,2746,807,1286,1900,1.78507901,2.84454032,4.19983699,0.46677884,0.85955286,1.16576947
55005,0,USWisconsinBarron,Wisconsin,Barron,2021-01-05 05:50:32.072286,2020-12-18 00:00:00.000000,3.10527576,4.40908448,5.93737009,1404,1994,2686,800,1248,1865,1.77015579,2.76004049,4.12308158,0.49839047,0.86257194,1.26038789
55005,0,USWisconsinBarron,Wisconsin,Barron,2021-01-05 05:50:32.072286,2020-12-19 00:00:00.000000,3.04226359,4.33425023,5.80057717,1376,1960,2624,793,1225,1831,1.75371899,2.70931892,4.04740509,0.53262232,0.86540959,1.38827413
55005,0,USWisconsinBarron,Wisconsin,Barron,2021-01-05 05:50:32.072286,2020-12-20 00:00:00.000000,2.99243242,4.28391340,5.66127136,1353,1938,2561,783,1203,1797,1.73254566,2.65948743,3.97311608,0.54423328,0.88544319,1.46070079
55005,0,USWisconsinBarron,Wisconsin,Barron,2021-01-05 05:50:32.072286,2020-12-21 00:00:00.000000,2.94613266,4.20724122,5.51721821,1332,1903,2496,773,1182,1754,1.71022774,2.61293359,3.87682989,0.54500769,0.88756422,1.47975438
55005,0,USWisconsinBarron,Wisconsin,Barron,2021-01-05 05:50:32.072286,2020-12-22 00:00:00.000000,2.89829465,4.11933764,5.38428487,1311,1863,2436,762,1159,1708,1.68614347,2.56219652,3.77715097,0.54516277,0.89425639,1.49002023
55005,0,USWisconsinBarron,Wisconsin,Barron,2021-01-05 05:50:32.072286,2020-12-23 00:00:00.000000,2.85817627,4.03720112,5.29402698,1293,1826,2395,751,1136,1662,1.66054905,2.51107520,3.67471894,0.54517353,0.87439246,1.52569584
55005,0,USWisconsinBarron,Wisconsin,Barron,2021-01-05 05:50:32.072286,2020-12-24 00:00:00.000000,2.77895215,3.94462945,5.15703841,1257,1784,2333,738,1117,1610,1.63269736,2.46984450,3.56003211,0.54474959,0.87912708,1.56496501
55005,0,USWisconsinBarron,Wisconsin,Barron,2021-01-05 05:50:32.072286,2020-12-25 00:00:00.000000,2.69922173,3.85440052,5.05092805,1221,1743,2285,718,1101,1567,1.58915677,2.43409335,3.46359490,0.54419202,0.87774821,1.53507836
55005,0,USWisconsinBarron,Wisconsin,Barron,2021-01-05 05:50:32.072286,2020-12-26 00:00:00.000000,2.62105408,3.77282576,4.96200180,1185,1706,2245,699,1077,1531,1.54546891,2.38168474,3.38482787,0.54392281,0.87885642,1.50975982
55005,0,USWisconsinBarron,Wisconsin,Barron,2021-01-05 05:50:32.072286,2020-12-27 00:00:00.000000,2.55245600,3.68280602,4.87634737,1154,1666,2206,679,1053,1504,1.50162345,2.32838790,3.32533248,0.53071570,0.88805192,1.56017880
55005,0,USWisconsinBarron,Wisconsin,Barron,2021-01-05 05:50:32.072286,2020-12-28 00:00:00.000000,2.49634915,3.56770753,4.75820183,1129,1614,2152,665,1032,1474,1.47082855,2.28286693,3.25976008,0.52685971,0.89965560,1.58225482
55005,0,USWisconsinBarron,Wisconsin,Barron,2021-01-05 05:50:32.072286,2020-12-29 00:00:00.000000,2.43559194,3.46827579,4.71144482,1101,1569,2131,651,1006,1449,1.44081371,2.22565453,3.20274533,0.52641837,0.89698311,1.64941240
55005,0,USWisconsinBarron,Wisconsin,Barron,2021-01-05 05:50:32.072286,2020-12-30 00:00:00.000000,2.37261926,3.33952552,4.61696823,1073,1510,2088,636,980,1413,1.40685840,2.16638188,3.12443703,0.52786606,0.89774990,1.68714557
55005,0,USWisconsinBarron,Wisconsin,Barron,2021-01-05 05:50:32.072286,2020-12-31 00:00:00.000000,2.30932645,3.25098600,4.51488835,1044,1470,2042,620,950,1377,1.37119231,2.10154007,3.04356136,0.54415889,0.89857613,1.76262194
55005,0,USWisconsinBarron,Wisconsin,Barron,2021-01-05 05:50:32.072286,2021-01-01 00:00:00.000000,2.24717192,3.15083904,4.40974018,1016,1425,1995,604,922,1351,1.33507964,2.03942560,2.98809573,0.54685581,0.89648425,1.78308073
55005,0,USWisconsinBarron,Wisconsin,Barron,2021-01-05 05:50:32.072286,2021-01-02 00:00:00.000000,2.15210287,3.04419549,4.30196394,973,1377,1946,581,897,1345,1.28626218,1.98297996,2.97295698,0.54054623,0.90713953,1.85170895
55005,0,USWisconsinBarron,Wisconsin,Barron,2021-01-05 05:50:32.072286,2021-01-03 00:00:00.000000,2.04768488,2.94653278,4.19167716,926,1333,1896,557,877,1326,1.23295693,1.93981541,2.93163844,0.55211985,0.90080506,2.03212280
55005,0,USWisconsinBarron,Wisconsin,Barron,2021-01-05 05:50:32.072286,2021-01-04 00:00:00.000000,1.94691833,2.86372270,4.07929157,880,1295,1845,534,847,1294,1.18095269,1.87372005,2.86057594,0.55164485,0.89138022,2.22772432
55005,0,USWisconsinBarron,Wisconsin,Barron,2021-01-05 05:50:32.072286,2021-01-05 00:00:00.000000,1.84983661,2.79326342,3.95520114,836,1263,1789,511,817,1255,1.13031823,1.80700395,2.77489270,0.54057181,0.89050425,2.30952012
55005,0,USWisconsinBarron,Wisconsin,Barron,2021-01-05 05:50:32.072286,2021-01-06 00:00:00.000000,1.75644985,2.70316733,3.79331337,794,1223,1716,489,794,1212,1.08110547,1.75713765,2.67943495,0.52243832,0.87562130,2.33015731
55005,0,USWisconsinBarron,Wisconsin,Barron,2021-01-05 05:50:32.072286,2021-01-07 00:00:00.000000,1.64988096,2.60058178,3.65824956,746,1176,1655,467,765,1166,1.03335293,1.69146914,2.57892592,0.50858369,0.87807395,2.33467218
55005,0,USWisconsinBarron,Wisconsin,Barron,2021-01-05 05:50:32.072286,2021-01-08 00:00:00.000000,1.57772092,2.48729993,3.60272590,713,1125,1630,446,728,1137,0.98708797,1.60941023,2.51396348,0.49886858,0.87930513,2.33564759
55005,0,USWisconsinBarron,Wisconsin,Barron,2021-01-05 05:50:32.072286,2021-01-09 00:00:00.000000,1.49510160,2.38492305,3.51442254,676,1079,1590,426,704,1122,0.94232827,1.55613100,2.48114948,0.49247378,0.87990107,2.33586671
55005,0,USWisconsinBarron,Wisconsin,Barron,2021-01-05 05:50:32.072286,2021-01-10 00:00:00.000000,1.41500562,2.27484704,3.40374638,640,1029,1539,403,673,1099,0.89196780,1.48884481,2.43072470,0.48844162,0.88020351,2.33592055
55005,0,USWisconsinBarron,Wisconsin,Barron,2021-01-05 05:50:32.072286,2021-01-11 00:00:00.000000,1.33857501,2.18624572,3.29390701,605,989,1490,377,637,1063,0.83376603,1.40959637,2.35108621,0.48596832,0.88042837,2.33593597
55005,0,USWisconsinBarron,Wisconsin,Barron,2021-01-05 05:50:32.072286,2021-01-12 00:00:00.000000,1.26571424,2.09160983,3.18514329,572,946,1441,360,606,1028,0.79623803,1.34047304,2.27232749,0.48447683,0.88053433,2.33594136
55005,0,USWisconsinBarron,Wisconsin,Barron,2021-01-05 05:50:32.072286,2021-01-13 00:00:00.000000,1.19636346,1.99991568,3.07767358,541,904,1392,343,584,992,0.76004109,1.29095683,2.19461200,0.48358660,0.88058409,2.33594361
55005,0,USWisconsinBarron,Wisconsin,Barron,2021-01-05 05:50:32.072286,2021-01-14 00:00:00.000000,1.13102854,1.91118801,2.97169549,511,864,1344,328,556,958,0.72516337,1.22990953,2.11808102,0.48305846,0.88060742,2.33594469
55005,0,USWisconsinBarron,Wisconsin,Barron,2021-01-05 05:50:32.072286,2021-01-15 00:00:00.000000,1.06884388,1.82232074,2.86738623,483,824,1297,308,534,924,0.68221207,1.18222351,2.04285747,0.48274624,0.88061835,2.33594523
55005,0,USWisconsinBarron,Wisconsin,Barron,2021-01-05 05:50:32.072286,2021-01-16 00:00:00.000000,1.00970579,1.74129360,2.76490314,456,787,1250,285,514,890,0.63131227,1.13630064,1.96904812,0.48256203,0.88062346,2.33594552
55005,0,USWisconsinBarron,Wisconsin,Barron,2021-01-05 05:50:32.072286,2021-01-17 00:00:00.000000,0.93563888,1.66284030,2.66438440,423,752,1205,264,495,858,0.58397269,1.09539083,1.89674504,0.48245346,0.88062586,2.33594568
