FIPS,HR_UID,nameid,province,region,analysisTime,dates,pointprevalence_025,pointprevalence_50,pointprevalence_975,pointinfections_025,pointinfections_50,pointinfections_975,pointinfectious_025,pointinfectious_50,pointinfectious_975,pointinfectiousprevalence_05,pointinfectiousprevalence_50,pointinfectiousprevalence_95,infectrate_025,infectrate_50,infectrate_975
8061,0,USColoradoKiowa,Colorado,Kiowa,2021-01-06 03:13:10.657443,2020-03-09 00:00:00.000000,0.00429670,0.05207166,0.35267013,0,0,4,0,0,2,0.00219002,0.03055474,0.18243330,0.42276306,0.53311303,0.75300490
8061,0,USColoradoKiowa,Colorado,Kiowa,2021-01-06 03:13:10.657443,2020-03-10 00:00:00.000000,0.00483661,0.05729583,0.36358855,0,0,5,0,0,2,0.00229650,0.03142346,0.18298887,0.42276252,0.53311290,0.75300489
8061,0,USColoradoKiowa,Colorado,Kiowa,2021-01-06 03:13:10.657443,2020-03-11 00:00:00.000000,0.00540196,0.06266619,0.37739752,0,0,5,0,0,2,0.00251490,0.03254951,0.18851889,0.42276114,0.53311258,0.75300486
8061,0,USColoradoKiowa,Colorado,Kiowa,2021-01-06 03:13:10.657443,2020-03-12 00:00:00.000000,0.00600909,0.06823584,0.39321904,0,0,5,0,0,2,0.00279376,0.03453163,0.19762041,0.42275759,0.53311171,0.75300475
8061,0,USColoradoKiowa,Colorado,Kiowa,2021-01-06 03:13:10.657443,2020-03-13 00:00:00.000000,0.00667021,0.07398537,0.42319790,0,1,5,0,0,2,0.00312002,0.03709691,0.20919223,0.42274842,0.53310944,0.75300432
8061,0,USColoradoKiowa,Colorado,Kiowa,2021-01-06 03:13:10.657443,2020-03-14 00:00:00.000000,0.00739548,0.07997784,0.45507522,0,1,6,0,0,3,0.00348755,0.04010456,0.22276167,0.42272470,0.53310344,0.75300253
8061,0,USColoradoKiowa,Colorado,Kiowa,2021-01-06 03:13:10.657443,2020-03-15 00:00:00.000000,0.00819419,0.08605223,0.48905381,0,1,6,0,0,3,0.00389376,0.04417196,0.23805933,0.42212066,0.53308764,0.75299426
8061,0,USColoradoKiowa,Colorado,Kiowa,2021-01-06 03:13:10.657443,2020-03-16 00:00:00.000000,0.00907544,0.09344935,0.52524668,0,1,7,0,0,3,0.00434038,0.04874762,0.25491018,0.41314401,0.53304591,0.75295321
8061,0,USColoradoKiowa,Colorado,Kiowa,2021-01-06 03:13:10.657443,2020-03-17 00:00:00.000000,0.01004845,0.10222419,0.56353237,0,1,7,0,0,3,0.00483081,0.05373581,0.27317408,0.41236596,0.53024443,0.71822727
8061,0,USColoradoKiowa,Colorado,Kiowa,2021-01-06 03:13:10.657443,2020-03-18 00:00:00.000000,0.01112269,0.11178727,0.60315864,0,1,8,0,0,4,0.00536951,0.05779877,0.29285324,0.38307711,0.52264277,0.69155706
8061,0,USColoradoKiowa,Colorado,Kiowa,2021-01-06 03:13:10.657443,2020-03-19 00:00:00.000000,0.01230871,0.12117164,0.64218489,0,1,9,0,0,4,0.00596159,0.06192211,0.31519405,0.34574133,0.52490931,0.68987819
8061,0,USColoradoKiowa,Colorado,Kiowa,2021-01-06 03:13:10.657443,2020-03-20 00:00:00.000000,0.01362448,0.13190639,0.67741399,0,1,9,0,0,4,0.00661270,0.06874256,0.33846252,0.32916781,0.50633426,0.68556438
8061,0,USColoradoKiowa,Colorado,Kiowa,2021-01-06 03:13:10.657443,2020-03-21 00:00:00.000000,0.01507943,0.14182955,0.71619372,0,1,10,0,1,5,0.00732900,0.07612420,0.36713530,0.29543086,0.48329599,0.67198428
8061,0,USColoradoKiowa,Colorado,Kiowa,2021-01-06 03:13:10.657443,2020-03-22 00:00:00.000000,0.01668922,0.15241644,0.75900780,0,2,10,0,1,5,0.00811806,0.08446473,0.39750636,0.29400821,0.45060934,0.64824503
8061,0,USColoradoKiowa,Colorado,Kiowa,2021-01-06 03:13:10.657443,2020-03-23 00:00:00.000000,0.01849270,0.16384859,0.77688500,0,2,10,0,1,6,0.00899313,0.09229939,0.42728060,0.29276009,0.44323117,0.64692927
8061,0,USColoradoKiowa,Colorado,Kiowa,2021-01-06 03:13:10.657443,2020-03-24 00:00:00.000000,0.02088138,0.17636187,0.79481332,0,2,11,0,1,6,0.00995980,0.09989633,0.43876885,0.28624752,0.42909808,0.64007071
8061,0,USColoradoKiowa,Colorado,Kiowa,2021-01-06 03:13:10.657443,2020-03-25 00:00:00.000000,0.02258917,0.19050095,0.81292156,0,2,11,0,1,6,0.01102822,0.10755121,0.44987189,0.28196922,0.42451698,0.62270063
8061,0,USColoradoKiowa,Colorado,Kiowa,2021-01-06 03:13:10.657443,2020-03-26 00:00:00.000000,0.02494868,0.20539986,0.83140305,0,2,11,0,1,6,0.01220947,0.11530857,0.46079701,0.27680137,0.41864776,0.60802375
8061,0,USColoradoKiowa,Colorado,Kiowa,2021-01-06 03:13:10.657443,2020-03-27 00:00:00.000000,0.02754212,0.22130848,0.84975296,0,3,11,0,1,6,0.01350474,0.12306258,0.47171019,0.26450172,0.40332817,0.60079015
8061,0,USColoradoKiowa,Colorado,Kiowa,2021-01-06 03:13:10.657443,2020-03-28 00:00:00.000000,0.03032493,0.23877877,0.86842275,0,3,12,0,1,6,0.01491648,0.13060835,0.48193450,0.23859129,0.37675874,0.58382680
8061,0,USColoradoKiowa,Colorado,Kiowa,2021-01-06 03:13:10.657443,2020-03-29 00:00:00.000000,0.03303072,0.25529236,0.88955861,0,3,12,0,1,6,0.01645535,0.13926647,0.49241502,0.21279718,0.36755722,0.55071023
8061,0,USColoradoKiowa,Colorado,Kiowa,2021-01-06 03:13:10.657443,2020-03-30 00:00:00.000000,0.03551775,0.27059237,0.91332613,0,3,12,0,2,7,0.01805985,0.14922270,0.50370100,0.19953059,0.35844958,0.52194035
8061,0,USColoradoKiowa,Colorado,Kiowa,2021-01-06 03:13:10.657443,2020-03-31 00:00:00.000000,0.03806114,0.28404349,0.93807080,0,3,13,0,2,7,0.01965565,0.15869403,0.51610427,0.19597541,0.34903150,0.50166152
8061,0,USColoradoKiowa,Colorado,Kiowa,2021-01-06 03:13:10.657443,2020-04-01 00:00:00.000000,0.04048028,0.28863474,0.94291927,0,4,13,0,2,7,0.02126741,0.16811597,0.52940864,0.19491326,0.34026860,0.50032562
8061,0,USColoradoKiowa,Colorado,Kiowa,2021-01-06 03:13:10.657443,2020-04-02 00:00:00.000000,0.04230788,0.29312374,0.96054158,0,4,13,0,2,7,0.02292172,0.17430667,0.53395010,0.19438439,0.33173537,0.49747867
8061,0,USColoradoKiowa,Colorado,Kiowa,2021-01-06 03:13:10.657443,2020-04-03 00:00:00.000000,0.04420517,0.30249019,0.97375109,0,4,13,0,2,7,0.02464865,0.18073122,0.54627781,0.19276035,0.32050329,0.46242854
8061,0,USColoradoKiowa,Colorado,Kiowa,2021-01-06 03:13:10.657443,2020-04-04 00:00:00.000000,0.04622492,0.31612601,1.00209231,0,4,14,0,2,7,0.02646644,0.18631522,0.55723824,0.18337247,0.31558164,0.45691601
8061,0,USColoradoKiowa,Colorado,Kiowa,2021-01-06 03:13:10.657443,2020-04-05 00:00:00.000000,0.04789421,0.33055166,1.02719183,0,4,14,0,2,7,0.02811586,0.19128555,0.56651996,0.17677833,0.30333448,0.44715050
8061,0,USColoradoKiowa,Colorado,Kiowa,2021-01-06 03:13:10.657443,2020-04-06 00:00:00.000000,0.04914976,0.34509101,1.04439649,0,4,14,0,2,8,0.02900458,0.19763497,0.57729052,0.17074758,0.29517665,0.45828230
8061,0,USColoradoKiowa,Colorado,Kiowa,2021-01-06 03:13:10.657443,2020-04-07 00:00:00.000000,0.05035724,0.35605333,1.07001974,0,5,15,0,2,8,0.02985509,0.20470606,0.59651385,0.16982451,0.29225389,0.45606036
8061,0,USColoradoKiowa,Colorado,Kiowa,2021-01-06 03:13:10.657443,2020-04-08 00:00:00.000000,0.05151236,0.36269518,1.08628442,0,5,15,0,2,8,0.03067060,0.21165627,0.61205333,0.16932160,0.28839627,0.45034738
8061,0,USColoradoKiowa,Colorado,Kiowa,2021-01-06 03:13:10.657443,2020-04-09 00:00:00.000000,0.05261099,0.36985051,1.10177541,0,5,15,0,3,8,0.03145196,0.22038180,0.62194799,0.16871037,0.28196478,0.44796344
8061,0,USColoradoKiowa,Colorado,Kiowa,2021-01-06 03:13:10.657443,2020-04-10 00:00:00.000000,0.05365439,0.36732132,1.11582009,0,5,15,0,3,8,0.03219858,0.22954289,0.63149825,0.16839868,0.27635657,0.42996805
8061,0,USColoradoKiowa,Colorado,Kiowa,2021-01-06 03:13:10.657443,2020-04-11 00:00:00.000000,0.05464721,0.36977022,1.12806744,0,5,15,0,3,9,0.03291036,0.23940777,0.64049636,0.16764552,0.27250269,0.39442854
8061,0,USColoradoKiowa,Colorado,Kiowa,2021-01-06 03:13:10.657443,2020-04-12 00:00:00.000000,0.05558366,0.37870340,1.13888473,0,5,16,0,3,9,0.03358843,0.24158800,0.64906684,0.16242749,0.26926258,0.39301701
8061,0,USColoradoKiowa,Colorado,Kiowa,2021-01-06 03:13:10.657443,2020-04-13 00:00:00.000000,0.05641905,0.38518047,1.15177428,0,5,16,0,3,9,0.03423202,0.23986232,0.66712382,0.15239169,0.26210482,0.38627759
8061,0,USColoradoKiowa,Colorado,Kiowa,2021-01-06 03:13:10.657443,2020-04-14 00:00:00.000000,0.05707518,0.38591375,1.16303740,0,5,16,0,3,9,0.03482947,0.24196703,0.68287037,0.14886281,0.25297809,0.38510389
8061,0,USColoradoKiowa,Colorado,Kiowa,2021-01-06 03:13:10.657443,2020-04-15 00:00:00.000000,0.05643874,0.38572620,1.16827455,0,5,16,0,3,9,0.03513741,0.24440620,0.69571625,0.14808895,0.25264210,0.38569463
8061,0,USColoradoKiowa,Colorado,Kiowa,2021-01-06 03:13:10.657443,2020-04-16 00:00:00.000000,0.05582464,0.38783057,1.17687598,0,5,16,0,3,9,0.03466223,0.24652403,0.70538215,0.14792906,0.24533803,0.38125058
8061,0,USColoradoKiowa,Colorado,Kiowa,2021-01-06 03:13:10.657443,2020-04-17 00:00:00.000000,0.05570596,0.38983399,1.18563727,0,5,16,0,3,10,0.03422752,0.24454389,0.71164568,0.14792240,0.24281984,0.37958221
8061,0,USColoradoKiowa,Colorado,Kiowa,2021-01-06 03:13:10.657443,2020-04-18 00:00:00.000000,0.05859271,0.39141844,1.19411870,0,5,16,0,3,10,0.03383646,0.24204743,0.71436304,0.14808450,0.23913350,0.37911092
8061,0,USColoradoKiowa,Colorado,Kiowa,2021-01-06 03:13:10.657443,2020-04-19 00:00:00.000000,0.05884321,0.39266069,1.20230974,0,5,16,0,3,10,0.03352603,0.24398206,0.71377543,0.14118790,0.23597074,0.37470566
8061,0,USColoradoKiowa,Colorado,Kiowa,2021-01-06 03:13:10.657443,2020-04-20 00:00:00.000000,0.05907063,0.39365331,1.20987506,0,5,17,0,3,9,0.03539990,0.24549032,0.71043071,0.13500872,0.23136080,0.36299539
8061,0,USColoradoKiowa,Colorado,Kiowa,2021-01-06 03:13:10.657443,2020-04-21 00:00:00.000000,0.05926325,0.38996246,1.21576345,0,5,17,0,3,9,0.03711576,0.24669540,0.70494994,0.13345301,0.23066325,0.36749174
8061,0,USColoradoKiowa,Colorado,Kiowa,2021-01-06 03:13:10.657443,2020-04-22 00:00:00.000000,0.05940372,0.38428015,1.21818136,0,5,17,0,3,9,0.03727051,0.24886376,0.70560085,0.13215511,0.22506243,0.37395650
8061,0,USColoradoKiowa,Colorado,Kiowa,2021-01-06 03:13:10.657443,2020-04-23 00:00:00.000000,0.05947138,0.38593280,1.21701335,0,5,17,0,3,9,0.03739878,0.25144686,0.70867183,0.13093440,0.22154296,0.38052337
8061,0,USColoradoKiowa,Colorado,Kiowa,2021-01-06 03:13:10.657443,2020-04-24 00:00:00.000000,0.05944551,0.38774222,1.21395610,0,5,17,0,3,9,0.03749264,0.25089008,0.71017282,0.12951032,0.21799867,0.38483945
8061,0,USColoradoKiowa,Colorado,Kiowa,2021-01-06 03:13:10.657443,2020-04-25 00:00:00.000000,0.05931210,0.37927687,1.21026924,0,5,17,0,3,9,0.03754205,0.24410465,0.71028074,0.12457989,0.21554165,0.36794377
8061,0,USColoradoKiowa,Colorado,Kiowa,2021-01-06 03:13:10.657443,2020-04-26 00:00:00.000000,0.05907028,0.37301056,1.20670724,0,5,16,0,3,9,0.03753740,0.24080862,0.70941972,0.11657092,0.21576955,0.32677971
8061,0,USColoradoKiowa,Colorado,Kiowa,2021-01-06 03:13:10.657443,2020-04-27 00:00:00.000000,0.05873223,0.36780895,1.20379080,0,5,16,0,3,9,0.03747271,0.23953171,0.70802852,0.10988536,0.21157798,0.32734642
8061,0,USColoradoKiowa,Colorado,Kiowa,2021-01-06 03:13:10.657443,2020-04-28 00:00:00.000000,0.05831795,0.36592718,1.20170766,0,5,16,0,3,9,0.03734748,0.23845450,0.70649149,0.10544890,0.20293011,0.34273071
8061,0,USColoradoKiowa,Colorado,Kiowa,2021-01-06 03:13:10.657443,2020-04-29 00:00:00.000000,0.05786778,0.36401327,1.20021009,0,5,16,0,3,9,0.03716657,0.23632702,0.70507899,0.10515008,0.19705795,0.34876320
8061,0,USColoradoKiowa,Colorado,Kiowa,2021-01-06 03:13:10.657443,2020-04-30 00:00:00.000000,0.05835778,0.36532694,1.19872061,0,5,16,0,3,9,0.03693851,0.23382515,0.70388801,0.10329162,0.19418183,0.35051834
8061,0,USColoradoKiowa,Colorado,Kiowa,2021-01-06 03:13:10.657443,2020-05-01 00:00:00.000000,0.05875348,0.35545132,1.19682791,0,4,16,0,3,9,0.03667376,0.23097126,0.70283218,0.10126257,0.19049665,0.35078376
8061,0,USColoradoKiowa,Colorado,Kiowa,2021-01-06 03:13:10.657443,2020-05-02 00:00:00.000000,0.05882456,0.35278437,1.19808609,0,4,16,0,3,9,0.03638389,0.23206555,0.70175630,0.10032012,0.18871075,0.33363706
8061,0,USColoradoKiowa,Colorado,Kiowa,2021-01-06 03:13:10.657443,2020-05-03 00:00:00.000000,0.05854648,0.34887557,1.19021028,0,4,16,0,3,9,0.03608296,0.23174523,0.70624731,0.09994911,0.18772909,0.33449708
8061,0,USColoradoKiowa,Colorado,Kiowa,2021-01-06 03:13:10.657443,2020-05-04 00:00:00.000000,0.05813532,0.34215323,1.17989191,0,4,16,0,3,9,0.03579534,0.22957030,0.70844220,0.09995560,0.18785942,0.33480996
8061,0,USColoradoKiowa,Colorado,Kiowa,2021-01-06 03:13:10.657443,2020-05-05 00:00:00.000000,0.05766525,0.33222869,1.16801636,0,4,16,0,3,9,0.03556529,0.22605297,0.70581356,0.10038226,0.18808766,0.33473198
8061,0,USColoradoKiowa,Colorado,Kiowa,2021-01-06 03:13:10.657443,2020-05-06 00:00:00.000000,0.05714292,0.33064203,1.15511229,0,4,16,0,3,9,0.03544810,0.22315935,0.69680046,0.10151813,0.18994811,0.32755926
8061,0,USColoradoKiowa,Colorado,Kiowa,2021-01-06 03:13:10.657443,2020-05-07 00:00:00.000000,0.05663553,0.32663478,1.14130448,0,4,16,0,3,9,0.03547211,0.21941758,0.69442762,0.10388159,0.18822233,0.32144109
8061,0,USColoradoKiowa,Colorado,Kiowa,2021-01-06 03:13:10.657443,2020-05-08 00:00:00.000000,0.05714587,0.32105179,1.15952522,0,4,16,0,3,9,0.03561797,0.21668101,0.68708348,0.10605839,0.18780180,0.31752926
8061,0,USColoradoKiowa,Colorado,Kiowa,2021-01-06 03:13:10.657443,2020-05-09 00:00:00.000000,0.05755341,0.31399416,1.16651630,0,4,16,0,3,9,0.03583732,0.21643902,0.69179616,0.10284836,0.18543603,0.31550212
8061,0,USColoradoKiowa,Colorado,Kiowa,2021-01-06 03:13:10.657443,2020-05-10 00:00:00.000000,0.05778906,0.31006719,1.15114440,0,4,16,0,2,9,0.03607407,0.21143998,0.68853500,0.10089218,0.18432257,0.30372857
8061,0,USColoradoKiowa,Colorado,Kiowa,2021-01-06 03:13:10.657443,2020-05-11 00:00:00.000000,0.05782457,0.30735202,1.12966890,0,4,15,0,2,9,0.03627687,0.20839555,0.68291309,0.09985908,0.17982094,0.30447447
8061,0,USColoradoKiowa,Colorado,Kiowa,2021-01-06 03:13:10.657443,2020-05-12 00:00:00.000000,0.05765791,0.30336516,1.10383146,0,4,15,0,2,9,0.03640772,0.20436902,0.67440885,0.08836230,0.17495005,0.30121612
8061,0,USColoradoKiowa,Colorado,Kiowa,2021-01-06 03:13:10.657443,2020-05-13 00:00:00.000000,0.05728011,0.30093506,1.09994521,0,4,15,0,2,9,0.03644352,0.19984376,0.66314168,0.08667753,0.16979572,0.30101838
8061,0,USColoradoKiowa,Colorado,Kiowa,2021-01-06 03:13:10.657443,2020-05-14 00:00:00.000000,0.05672047,0.29663201,1.11075281,0,4,15,0,2,9,0.03636846,0.19737276,0.65395372,0.08901207,0.17085296,0.30026670
8061,0,USColoradoKiowa,Colorado,Kiowa,2021-01-06 03:13:10.657443,2020-05-15 00:00:00.000000,0.05606254,0.29358561,1.12031097,0,4,15,0,2,9,0.03618051,0.19662429,0.66071068,0.09390974,0.17187283,0.29652045
8061,0,USColoradoKiowa,Colorado,Kiowa,2021-01-06 03:13:10.657443,2020-05-16 00:00:00.000000,0.05535869,0.29087176,1.12416730,0,4,15,0,2,9,0.03589968,0.19563340,0.66705571,0.09659479,0.16887807,0.28174508
8061,0,USColoradoKiowa,Colorado,Kiowa,2021-01-06 03:13:10.657443,2020-05-17 00:00:00.000000,0.05446579,0.28758931,1.11810452,0,4,15,0,2,9,0.03512025,0.19224472,0.67188837,0.09726904,0.17054424,0.27877735
8061,0,USColoradoKiowa,Colorado,Kiowa,2021-01-06 03:13:10.657443,2020-05-18 00:00:00.000000,0.05239781,0.27982915,1.10726221,0,3,15,0,2,9,0.03375510,0.18400589,0.67307296,0.09709040,0.16659193,0.27013658
8061,0,USColoradoKiowa,Colorado,Kiowa,2021-01-06 03:13:10.657443,2020-05-19 00:00:00.000000,0.05048059,0.27109727,1.09487744,0,3,15,0,2,9,0.03245418,0.17771764,0.67032304,0.09633702,0.16669115,0.27141081
8061,0,USColoradoKiowa,Colorado,Kiowa,2021-01-06 03:13:10.657443,2020-05-20 00:00:00.000000,0.04876469,0.25914993,1.08189399,0,3,15,0,2,9,0.03122581,0.17080131,0.66544737,0.09521040,0.16614917,0.27874683
8061,0,USColoradoKiowa,Colorado,Kiowa,2021-01-06 03:13:10.657443,2020-05-21 00:00:00.000000,0.04728082,0.24827171,1.06863360,0,3,15,0,2,9,0.03008629,0.16544955,0.65923762,0.09340460,0.16570384,0.27784397
8061,0,USColoradoKiowa,Colorado,Kiowa,2021-01-06 03:13:10.657443,2020-05-22 00:00:00.000000,0.04599980,0.24048299,1.05523501,0,3,14,0,2,9,0.02905257,0.16006283,0.65222291,0.09257490,0.16485775,0.27473856
8061,0,USColoradoKiowa,Colorado,Kiowa,2021-01-06 03:13:10.657443,2020-05-23 00:00:00.000000,0.04486137,0.23562646,1.04172645,0,3,14,0,2,9,0.02812898,0.15531349,0.64473099,0.08811005,0.16535495,0.26948718
8061,0,USColoradoKiowa,Colorado,Kiowa,2021-01-06 03:13:10.657443,2020-05-24 00:00:00.000000,0.04241538,0.22925711,1.02800397,0,3,14,0,2,8,0.02730500,0.15216053,0.63694877,0.08489399,0.16506418,0.27251509
8061,0,USColoradoKiowa,Colorado,Kiowa,2021-01-06 03:13:10.657443,2020-05-25 00:00:00.000000,0.03978240,0.22339564,1.01386400,0,3,14,0,2,8,0.02656344,0.14895811,0.62895113,0.08205117,0.16289628,0.27663359
8061,0,USColoradoKiowa,Colorado,Kiowa,2021-01-06 03:13:10.657443,2020-05-26 00:00:00.000000,0.03711146,0.21595786,0.99928486,0,3,14,0,2,8,0.02573730,0.14571265,0.62072446,0.08094326,0.16172315,0.27621210
8061,0,USColoradoKiowa,Colorado,Kiowa,2021-01-06 03:13:10.657443,2020-05-27 00:00:00.000000,0.03590449,0.20693616,0.97010029,0,2,13,0,2,8,0.02410734,0.14248662,0.61225261,0.08094179,0.16170575,0.28388173
8061,0,USColoradoKiowa,Colorado,Kiowa,2021-01-06 03:13:10.657443,2020-05-28 00:00:00.000000,0.03487233,0.19732201,0.93616134,0,2,13,0,1,8,0.02250731,0.13931046,0.60359022,0.07776360,0.16073088,0.28733631
8061,0,USColoradoKiowa,Colorado,Kiowa,2021-01-06 03:13:10.657443,2020-05-29 00:00:00.000000,0.03187363,0.19121081,0.90343185,0,2,12,0,1,8,0.02192633,0.13610679,0.59482799,0.07302431,0.15795420,0.28837206
8061,0,USColoradoKiowa,Colorado,Kiowa,2021-01-06 03:13:10.657443,2020-05-30 00:00:00.000000,0.02913834,0.18966206,0.87193125,0,2,12,0,1,8,0.02150089,0.13102078,0.58604264,0.07265341,0.15535248,0.28149465
8061,0,USColoradoKiowa,Colorado,Kiowa,2021-01-06 03:13:10.657443,2020-05-31 00:00:00.000000,0.02665322,0.18214815,0.84181352,0,2,11,0,1,8,0.01980970,0.12775370,0.57725262,0.07400901,0.15126208,0.26483358
8061,0,USColoradoKiowa,Colorado,Kiowa,2021-01-06 03:13:10.657443,2020-06-01 00:00:00.000000,0.02438792,0.17574459,0.81363528,0,2,11,0,1,7,0.01811535,0.12521682,0.56119497,0.07460630,0.14799889,0.26352804
8061,0,USColoradoKiowa,Colorado,Kiowa,2021-01-06 03:13:10.657443,2020-06-02 00:00:00.000000,0.02231835,0.17079793,0.78884489,0,2,11,0,1,7,0.01657034,0.12138504,0.54191394,0.07470367,0.15022024,0.26083310
8061,0,USColoradoKiowa,Colorado,Kiowa,2021-01-06 03:13:10.657443,2020-06-03 00:00:00.000000,0.02067658,0.16795722,0.76901569,0,2,10,0,1,7,0.01516034,0.11763822,0.52404276,0.07478744,0.14945784,0.25547674
8061,0,USColoradoKiowa,Colorado,Kiowa,2021-01-06 03:13:10.657443,2020-06-04 00:00:00.000000,0.01994967,0.16321469,0.75309198,0,2,10,0,1,7,0.01387262,0.11325090,0.50823236,0.07510050,0.14606835,0.25208822
8061,0,USColoradoKiowa,Colorado,Kiowa,2021-01-06 03:13:10.657443,2020-06-05 00:00:00.000000,0.02002047,0.15981894,0.73754454,0,2,10,0,1,6,0.01269625,0.10849535,0.49463571,0.07627514,0.14241795,0.25023458
8061,0,USColoradoKiowa,Colorado,Kiowa,2021-01-06 03:13:10.657443,2020-06-06 00:00:00.000000,0.02004351,0.15644952,0.71890546,0,2,10,0,1,6,0.01203485,0.10507317,0.48249578,0.07220776,0.14221274,0.23566486
8061,0,USColoradoKiowa,Colorado,Kiowa,2021-01-06 03:13:10.657443,2020-06-07 00:00:00.000000,0.02001357,0.15239553,0.69768112,0,2,9,0,1,6,0.01207901,0.10505225,0.47050469,0.06842251,0.14269329,0.23304285
8061,0,USColoradoKiowa,Colorado,Kiowa,2021-01-06 03:13:10.657443,2020-06-08 00:00:00.000000,0.01993400,0.14912972,0.67733828,0,2,9,0,1,6,0.01209969,0.10358822,0.45797166,0.06627907,0.14496019,0.23171066
8061,0,USColoradoKiowa,Colorado,Kiowa,2021-01-06 03:13:10.657443,2020-06-09 00:00:00.000000,0.01981215,0.14715356,0.66627281,0,2,9,0,1,6,0.01209429,0.10165651,0.44495999,0.06587706,0.14382920,0.23165036
8061,0,USColoradoKiowa,Colorado,Kiowa,2021-01-06 03:13:10.657443,2020-06-10 00:00:00.000000,0.01964952,0.14425285,0.65388663,0,2,9,0,1,6,0.01206294,0.09897395,0.43169463,0.06715842,0.14389250,0.23169385
8061,0,USColoradoKiowa,Colorado,Kiowa,2021-01-06 03:13:10.657443,2020-06-11 00:00:00.000000,0.01944307,0.13853856,0.64069087,0,1,9,0,1,5,0.01200610,0.09630839,0.41834710,0.07047239,0.14453317,0.23166130
8061,0,USColoradoKiowa,Colorado,Kiowa,2021-01-06 03:13:10.657443,2020-06-12 00:00:00.000000,0.01920744,0.13318588,0.62689465,0,1,8,0,1,5,0.01192340,0.09368322,0.40500831,0.07532374,0.14300384,0.23149383
8061,0,USColoradoKiowa,Colorado,Kiowa,2021-01-06 03:13:10.657443,2020-06-13 00:00:00.000000,0.01896003,0.12928274,0.61252712,0,1,8,0,1,5,0.01181787,0.09110927,0.39169859,0.07807954,0.14463587,0.22574586
8061,0,USColoradoKiowa,Colorado,Kiowa,2021-01-06 03:13:10.657443,2020-06-14 00:00:00.000000,0.01870879,0.12577169,0.59761044,0,1,8,0,1,5,0.01169539,0.08855332,0.37838632,0.07924295,0.14737477,0.22862511
8061,0,USColoradoKiowa,Colorado,Kiowa,2021-01-06 03:13:10.657443,2020-06-15 00:00:00.000000,0.01845887,0.12191771,0.58228554,0,1,8,0,1,5,0.01156153,0.08491684,0.36855114,0.08080519,0.14712481,0.23639685
8061,0,USColoradoKiowa,Colorado,Kiowa,2021-01-06 03:13:10.657443,2020-06-16 00:00:00.000000,0.01821468,0.11792843,0.56679095,0,1,7,0,1,5,0.01142098,0.08118014,0.36064234,0.07780899,0.14420480,0.23539029
8061,0,USColoradoKiowa,Colorado,Kiowa,2021-01-06 03:13:10.657443,2020-06-17 00:00:00.000000,0.01701277,0.11406594,0.55138833,0,1,7,0,1,4,0.01127767,0.07822082,0.35237331,0.07835571,0.14644311,0.23159413
8061,0,USColoradoKiowa,Colorado,Kiowa,2021-01-06 03:13:10.657443,2020-06-18 00:00:00.000000,0.01586734,0.10838276,0.53632243,0,1,7,0,1,4,0.01055414,0.07568188,0.34387179,0.07605233,0.14661294,0.22768553
8061,0,USColoradoKiowa,Colorado,Kiowa,2021-01-06 03:13:10.657443,2020-06-19 00:00:00.000000,0.01479795,0.10314784,0.52183157,0,1,7,0,1,4,0.00985512,0.07325460,0.33527054,0.07464426,0.14301733,0.23200110
8061,0,USColoradoKiowa,Colorado,Kiowa,2021-01-06 03:13:10.657443,2020-06-20 00:00:00.000000,0.01380457,0.10009899,0.50815917,0,1,7,0,0,4,0.00919846,0.06993156,0.33007376,0.07112068,0.14354708,0.24341879
8061,0,USColoradoKiowa,Colorado,Kiowa,2021-01-06 03:13:10.657443,2020-06-21 00:00:00.000000,0.01289189,0.09996124,0.49551049,0,1,6,0,0,4,0.00858401,0.06780494,0.32780615,0.07071910,0.14214408,0.24378497
8061,0,USColoradoKiowa,Colorado,Kiowa,2021-01-06 03:13:10.657443,2020-06-22 00:00:00.000000,0.01206585,0.09961599,0.48395401,0,1,6,0,0,4,0.00801266,0.06610843,0.32536025,0.07053873,0.14057652,0.24486630
8061,0,USColoradoKiowa,Colorado,Kiowa,2021-01-06 03:13:10.657443,2020-06-23 00:00:00.000000,0.01131998,0.09862126,0.47337303,0,1,6,0,0,4,0.00748627,0.06387449,0.32279053,0.07006784,0.13866555,0.25678463
8061,0,USColoradoKiowa,Colorado,Kiowa,2021-01-06 03:13:10.657443,2020-06-24 00:00:00.000000,0.01063961,0.09777858,0.46726234,0,1,6,0,0,4,0.00700464,0.06170934,0.32013787,0.06943642,0.13835029,0.26314825
8061,0,USColoradoKiowa,Colorado,Kiowa,2021-01-06 03:13:10.657443,2020-06-25 00:00:00.000000,0.01001477,0.09454499,0.46307219,0,1,6,0,0,4,0.00656448,0.05960960,0.31743041,0.06870917,0.13779779,0.26326913
8061,0,USColoradoKiowa,Colorado,Kiowa,2021-01-06 03:13:10.657443,2020-06-26 00:00:00.000000,0.00943957,0.09007446,0.45879905,0,1,6,0,0,4,0.00612257,0.05830810,0.31468396,0.06795944,0.13791064,0.26349696
8061,0,USColoradoKiowa,Colorado,Kiowa,2021-01-06 03:13:10.657443,2020-06-27 00:00:00.000000,0.00890882,0.08601905,0.45409361,0,1,6,0,0,4,0.00563526,0.05674403,0.30910417,0.06916393,0.13885848,0.26623457
8061,0,USColoradoKiowa,Colorado,Kiowa,2021-01-06 03:13:10.657443,2020-06-28 00:00:00.000000,0.00841740,0.08216941,0.44764388,0,1,6,0,0,4,0.00518999,0.05508114,0.30114069,0.06776379,0.13756731,0.26772457
8061,0,USColoradoKiowa,Colorado,Kiowa,2021-01-06 03:13:10.657443,2020-06-29 00:00:00.000000,0.00796100,0.07848427,0.43863490,0,1,6,0,0,4,0.00478143,0.05293549,0.29318199,0.06654217,0.13701346,0.26738540
8061,0,USColoradoKiowa,Colorado,Kiowa,2021-01-06 03:13:10.657443,2020-06-30 00:00:00.000000,0.00753682,0.07494525,0.42862263,0,1,6,0,0,4,0.00440549,0.05092355,0.28526893,0.06812431,0.13690722,0.26622671
8061,0,USColoradoKiowa,Colorado,Kiowa,2021-01-06 03:13:10.657443,2020-07-01 00:00:00.000000,0.00695956,0.07285793,0.41855058,0,1,5,0,0,3,0.00405917,0.04901433,0.27744977,0.06888466,0.13784618,0.26290383
8061,0,USColoradoKiowa,Colorado,Kiowa,2021-01-06 03:13:10.657443,2020-07-02 00:00:00.000000,0.00641306,0.07213434,0.40889632,0,1,5,0,0,3,0.00374013,0.04747422,0.26976481,0.06875772,0.13751596,0.26811931
8061,0,USColoradoKiowa,Colorado,Kiowa,2021-01-06 03:13:10.657443,2020-07-03 00:00:00.000000,0.00591014,0.07121192,0.40021039,0,1,5,0,0,3,0.00344631,0.04640173,0.26224266,0.06678112,0.13724157,0.26562325
8061,0,USColoradoKiowa,Colorado,Kiowa,2021-01-06 03:13:10.657443,2020-07-04 00:00:00.000000,0.00544736,0.07016296,0.39282546,0,0,5,0,0,3,0.00317579,0.04528944,0.25490651,0.06352187,0.13898918,0.26151193
8061,0,USColoradoKiowa,Colorado,Kiowa,2021-01-06 03:13:10.657443,2020-07-05 00:00:00.000000,0.00502153,0.06721709,0.38528512,0,0,5,0,0,3,0.00292679,0.04405956,0.24778756,0.06278871,0.13921638,0.25702194
8061,0,USColoradoKiowa,Colorado,Kiowa,2021-01-06 03:13:10.657443,2020-07-06 00:00:00.000000,0.00462964,0.06415220,0.37540462,0,0,5,0,0,3,0.00269763,0.04262926,0.24410075,0.06225315,0.13980123,0.25066458
8061,0,USColoradoKiowa,Colorado,Kiowa,2021-01-06 03:13:10.657443,2020-07-07 00:00:00.000000,0.00426894,0.06216458,0.37186147,0,0,5,0,0,3,0.00248673,0.04122674,0.24142873,0.06195237,0.14067232,0.24143430
8061,0,USColoradoKiowa,Colorado,Kiowa,2021-01-06 03:13:10.657443,2020-07-08 00:00:00.000000,0.00393706,0.06020308,0.36914571,0,0,5,0,0,3,0.00229263,0.03991888,0.23885667,0.06176571,0.14069019,0.23598606
8061,0,USColoradoKiowa,Colorado,Kiowa,2021-01-06 03:13:10.657443,2020-07-09 00:00:00.000000,0.00363290,0.05704679,0.36432446,0,0,5,0,0,3,0.00211400,0.03908730,0.23584849,0.06018775,0.13920583,0.24763023
8061,0,USColoradoKiowa,Colorado,Kiowa,2021-01-06 03:13:10.657443,2020-07-10 00:00:00.000000,0.00335837,0.05386196,0.35801487,0,0,5,0,0,3,0.00194989,0.03727238,0.23214606,0.05887175,0.13870052,0.25412759
8061,0,USColoradoKiowa,Colorado,Kiowa,2021-01-06 03:13:10.657443,2020-07-11 00:00:00.000000,0.00311198,0.05164583,0.35101152,0,0,4,0,0,3,0.00180022,0.03556300,0.22787232,0.05729177,0.13762170,0.25729438
8061,0,USColoradoKiowa,Colorado,Kiowa,2021-01-06 03:13:10.657443,2020-07-12 00:00:00.000000,0.00288695,0.05009589,0.34385332,0,0,4,0,0,3,0.00166465,0.03356116,0.22322641,0.05515038,0.13949267,0.26146579
8061,0,USColoradoKiowa,Colorado,Kiowa,2021-01-06 03:13:10.657443,2020-07-13 00:00:00.000000,0.00267977,0.04923554,0.33672870,0,0,4,0,0,3,0.00154147,0.03210192,0.21837024,0.05334826,0.13722523,0.26630488
8061,0,USColoradoKiowa,Colorado,Kiowa,2021-01-06 03:13:10.657443,2020-07-14 00:00:00.000000,0.00248834,0.04882141,0.32969106,0,0,4,0,0,3,0.00142894,0.03142757,0.21491673,0.05248972,0.13652154,0.26847039
8061,0,USColoradoKiowa,Colorado,Kiowa,2021-01-06 03:13:10.657443,2020-07-15 00:00:00.000000,0.00231094,0.04837940,0.32276196,0,0,4,0,0,2,0.00132561,0.03089941,0.21332216,0.05221309,0.13665197,0.26864902
8061,0,USColoradoKiowa,Colorado,Kiowa,2021-01-06 03:13:10.657443,2020-07-16 00:00:00.000000,0.00214586,0.04780537,0.31595215,0,0,4,0,0,2,0.00123035,0.02976408,0.21172596,0.05224093,0.13752864,0.26798220
8061,0,USColoradoKiowa,Colorado,Kiowa,2021-01-06 03:13:10.657443,2020-07-17 00:00:00.000000,0.00199114,0.04657147,0.30927094,0,0,4,0,0,2,0.00114216,0.02902539,0.21007724,0.05267404,0.14242026,0.26730626
8061,0,USColoradoKiowa,Colorado,Kiowa,2021-01-06 03:13:10.657443,2020-07-18 00:00:00.000000,0.00184452,0.04533026,0.30274370,0,0,4,0,0,2,0.00106009,0.02833645,0.20830570,0.05387771,0.13798490,0.26688290
8061,0,USColoradoKiowa,Colorado,Kiowa,2021-01-06 03:13:10.657443,2020-07-19 00:00:00.000000,0.00170465,0.04350936,0.29645965,0,0,4,0,0,2,0.00098310,0.02758953,0.20632313,0.05548228,0.13883452,0.26666795
8061,0,USColoradoKiowa,Colorado,Kiowa,2021-01-06 03:13:10.657443,2020-07-20 00:00:00.000000,0.00157174,0.04256701,0.29064559,0,0,4,0,0,2,0.00091027,0.02666174,0.20404600,0.05640030,0.14047784,0.26656727
8061,0,USColoradoKiowa,Colorado,Kiowa,2021-01-06 03:13:10.657443,2020-07-21 00:00:00.000000,0.00144647,0.04153119,0.28553164,0,0,4,0,0,2,0.00084115,0.02574399,0.20056243,0.05672476,0.14244656,0.26651583
8061,0,USColoradoKiowa,Colorado,Kiowa,2021-01-06 03:13:10.657443,2020-07-22 00:00:00.000000,0.00132953,0.03987199,0.28104076,0,0,3,0,0,2,0.00077605,0.02519954,0.19672386,0.05681622,0.14215428,0.26647598
8061,0,USColoradoKiowa,Colorado,Kiowa,2021-01-06 03:13:10.657443,2020-07-23 00:00:00.000000,0.00122103,0.03829623,0.27707693,0,0,3,0,0,2,0.00071485,0.02496353,0.19325434,0.05688619,0.14092913,0.26641517
8061,0,USColoradoKiowa,Colorado,Kiowa,2021-01-06 03:13:10.657443,2020-07-24 00:00:00.000000,0.00112075,0.03681171,0.27448396,0,0,3,0,0,2,0.00065762,0.02475111,0.19014832,0.05696471,0.13961291,0.27145945
8061,0,USColoradoKiowa,Colorado,Kiowa,2021-01-06 03:13:10.657443,2020-07-25 00:00:00.000000,0.00102833,0.03523898,0.27758723,0,0,3,0,0,2,0.00060438,0.02389495,0.18744118,0.05706258,0.13783241,0.27702086
8061,0,USColoradoKiowa,Colorado,Kiowa,2021-01-06 03:13:10.657443,2020-07-26 00:00:00.000000,0.00094340,0.03377142,0.28079411,0,0,3,0,0,2,0.00055506,0.02291974,0.18450569,0.05717006,0.13551875,0.28068649
8061,0,USColoradoKiowa,Colorado,Kiowa,2021-01-06 03:13:10.657443,2020-07-27 00:00:00.000000,0.00086585,0.03243157,0.28399005,0,0,3,0,0,2,0.00050953,0.02197908,0.18068372,0.05837213,0.13568612,0.28267499
8061,0,USColoradoKiowa,Colorado,Kiowa,2021-01-06 03:13:10.657443,2020-07-28 00:00:00.000000,0.00079620,0.03198231,0.27601380,0,0,3,0,0,2,0.00046770,0.02115265,0.18202216,0.06112856,0.13710864,0.28335915
8061,0,USColoradoKiowa,Colorado,Kiowa,2021-01-06 03:13:10.657443,2020-07-29 00:00:00.000000,0.00073418,0.03164732,0.28085483,0,0,3,0,0,2,0.00042963,0.02039107,0.18444669,0.06291810,0.13329891,0.28308653
8061,0,USColoradoKiowa,Colorado,Kiowa,2021-01-06 03:13:10.657443,2020-07-30 00:00:00.000000,0.00067853,0.03016853,0.28723684,0,0,4,0,0,2,0.00039531,0.01968142,0.18653249,0.06229490,0.13151104,0.28330648
8061,0,USColoradoKiowa,Colorado,Kiowa,2021-01-06 03:13:10.657443,2020-07-31 00:00:00.000000,0.00062870,0.02873270,0.29414410,0,0,4,0,0,2,0.00036444,0.01924163,0.18960082,0.06129783,0.13529678,0.28688029
8061,0,USColoradoKiowa,Colorado,Kiowa,2021-01-06 03:13:10.657443,2020-08-01 00:00:00.000000,0.00058436,0.02749490,0.30107637,0,0,4,0,0,2,0.00033673,0.01859802,0.19337393,0.06099442,0.13860849,0.28512710
8061,0,USColoradoKiowa,Colorado,Kiowa,2021-01-06 03:13:10.657443,2020-08-02 00:00:00.000000,0.00054495,0.02628978,0.30755187,0,0,4,0,0,2,0.00031193,0.01796152,0.19754649,0.06091393,0.13609467,0.27870173
8061,0,USColoradoKiowa,Colorado,Kiowa,2021-01-06 03:13:10.657443,2020-08-03 00:00:00.000000,0.00050963,0.02519871,0.31306082,0,0,4,0,0,2,0.00028982,0.01715510,0.20180476,0.06091588,0.13172319,0.27006668
8061,0,USColoradoKiowa,Colorado,Kiowa,2021-01-06 03:13:10.657443,2020-08-04 00:00:00.000000,0.00047758,0.02438362,0.31707983,0,0,4,0,0,2,0.00027006,0.01638228,0.20582265,0.05878171,0.13331515,0.26943661
8061,0,USColoradoKiowa,Colorado,Kiowa,2021-01-06 03:13:10.657443,2020-08-05 00:00:00.000000,0.00044817,0.02362200,0.31917086,0,0,4,0,0,2,0.00025229,0.01581694,0.20926222,0.06075113,0.13363801,0.26922920
8061,0,USColoradoKiowa,Colorado,Kiowa,2021-01-06 03:13:10.657443,2020-08-06 00:00:00.000000,0.00042092,0.02276056,0.31916616,0,0,4,0,0,2,0.00023617,0.01551449,0.21180348,0.06051037,0.12923659,0.26908306
8061,0,USColoradoKiowa,Colorado,Kiowa,2021-01-06 03:13:10.657443,2020-08-07 00:00:00.000000,0.00039541,0.02194662,0.31728608,0,0,4,0,0,2,0.00022142,0.01514919,0.21321674,0.06020999,0.12828904,0.26893849
8061,0,USColoradoKiowa,Colorado,Kiowa,2021-01-06 03:13:10.657443,2020-08-08 00:00:00.000000,0.00037100,0.02118073,0.31400853,0,0,4,0,0,3,0.00020779,0.01458521,0.21343882,0.05996753,0.12748145,0.27401489
8061,0,USColoradoKiowa,Colorado,Kiowa,2021-01-06 03:13:10.657443,2020-08-09 00:00:00.000000,0.00034676,0.02025986,0.30982323,0,0,4,0,0,2,0.00019499,0.01393618,0.21257752,0.05971897,0.12624711,0.27812206
8061,0,USColoradoKiowa,Colorado,Kiowa,2021-01-06 03:13:10.657443,2020-08-10 00:00:00.000000,0.00032269,0.01985028,0.30510173,0,0,4,0,0,2,0.00018267,0.01351474,0.21084115,0.05940448,0.12603042,0.27977676
8061,0,USColoradoKiowa,Colorado,Kiowa,2021-01-06 03:13:10.657443,2020-08-11 00:00:00.000000,0.00029957,0.01948442,0.30008974,0,0,4,0,0,2,0.00017064,0.01316029,0.20845870,0.05909144,0.12662642,0.27991481
8061,0,USColoradoKiowa,Colorado,Kiowa,2021-01-06 03:13:10.657443,2020-08-12 00:00:00.000000,0.00027776,0.01903328,0.29494020,0,0,4,0,0,2,0.00015897,0.01269539,0.20563193,0.05851713,0.12642230,0.27975353
8061,0,USColoradoKiowa,Colorado,Kiowa,2021-01-06 03:13:10.657443,2020-08-13 00:00:00.000000,0.00025745,0.01858380,0.28974583,0,0,4,0,0,2,0.00014778,0.01240794,0.20251877,0.05777119,0.12748330,0.28014560
8061,0,USColoradoKiowa,Colorado,Kiowa,2021-01-06 03:13:10.657443,2020-08-14 00:00:00.000000,0.00023897,0.01803883,0.28456051,0,0,4,0,0,2,0.00013720,0.01211680,0.19923433,0.05745174,0.12845210,0.27980655
8061,0,USColoradoKiowa,Colorado,Kiowa,2021-01-06 03:13:10.657443,2020-08-15 00:00:00.000000,0.00022307,0.01749374,0.27940508,0,0,3,0,0,2,0.00012737,0.01180942,0.19585820,0.05673197,0.12900948,0.27779764
8061,0,USColoradoKiowa,Colorado,Kiowa,2021-01-06 03:13:10.657443,2020-08-16 00:00:00.000000,0.00020980,0.01698057,0.27423400,0,0,3,0,0,2,0.00011851,0.01149021,0.19244049,0.05570488,0.13214618,0.27464960
8061,0,USColoradoKiowa,Colorado,Kiowa,2021-01-06 03:13:10.657443,2020-08-17 00:00:00.000000,0.00019816,0.01653083,0.26881756,0,0,3,0,0,2,0.00011079,0.01116607,0.18899549,0.05507104,0.13218533,0.28292352
8061,0,USColoradoKiowa,Colorado,Kiowa,2021-01-06 03:13:10.657443,2020-08-18 00:00:00.000000,0.00018755,0.01611400,0.26287118,0,0,3,0,0,2,0.00010405,0.01084147,0.18546336,0.05728499,0.13169128,0.29621522
8061,0,USColoradoKiowa,Colorado,Kiowa,2021-01-06 03:13:10.657443,2020-08-19 00:00:00.000000,0.00017772,0.01566488,0.25666982,0,0,3,0,0,2,0.00009806,0.01046067,0.18172506,0.05815048,0.13173551,0.29943583
8061,0,USColoradoKiowa,Colorado,Kiowa,2021-01-06 03:13:10.657443,2020-08-20 00:00:00.000000,0.00016853,0.01518284,0.25056911,0,0,3,0,0,2,0.00009265,0.01002156,0.17779156,0.05940705,0.13170008,0.30021974
8061,0,USColoradoKiowa,Colorado,Kiowa,2021-01-06 03:13:10.657443,2020-08-21 00:00:00.000000,0.00015989,0.01469986,0.24469870,0,0,3,0,0,2,0.00008768,0.00962902,0.17377842,0.06287334,0.13186556,0.28979578
8061,0,USColoradoKiowa,Colorado,Kiowa,2021-01-06 03:13:10.657443,2020-08-22 00:00:00.000000,0.00015174,0.01412356,0.23925290,0,0,3,0,0,2,0.00008308,0.00931650,0.16979772,0.06586404,0.13096145,0.27889221
8061,0,USColoradoKiowa,Colorado,Kiowa,2021-01-06 03:13:10.657443,2020-08-23 00:00:00.000000,0.00014404,0.01349540,0.23431188,0,0,3,0,0,2,0.00007877,0.00906178,0.16596299,0.06613022,0.12992653,0.27318294
8061,0,USColoradoKiowa,Colorado,Kiowa,2021-01-06 03:13:10.657443,2020-08-24 00:00:00.000000,0.00013675,0.01290071,0.22981600,0,0,3,0,0,2,0.00007473,0.00880965,0.16235859,0.06619744,0.13015245,0.26833378
8061,0,USColoradoKiowa,Colorado,Kiowa,2021-01-06 03:13:10.657443,2020-08-25 00:00:00.000000,0.00012986,0.01234564,0.22564686,0,0,3,0,0,2,0.00007092,0.00852259,0.15901392,0.06619900,0.13070507,0.26474031
8061,0,USColoradoKiowa,Colorado,Kiowa,2021-01-06 03:13:10.657443,2020-08-26 00:00:00.000000,0.00012333,0.01182724,0.22169372,0,0,3,0,0,2,0.00006732,0.00818984,0.15591024,0.06617512,0.13316741,0.26565437
8061,0,USColoradoKiowa,Colorado,Kiowa,2021-01-06 03:13:10.657443,2020-08-27 00:00:00.000000,0.00011716,0.01133869,0.21787945,0,0,3,0,0,2,0.00006392,0.00786067,0.15300456,0.06594225,0.13461849,0.26750769
8061,0,USColoradoKiowa,Colorado,Kiowa,2021-01-06 03:13:10.657443,2020-08-28 00:00:00.000000,0.00011131,0.01079916,0.21414357,0,0,3,0,0,2,0.00006070,0.00753673,0.15025009,0.06530814,0.13743941,0.27393467
8061,0,USColoradoKiowa,Colorado,Kiowa,2021-01-06 03:13:10.657443,2020-08-29 00:00:00.000000,0.00010578,0.01033540,0.21037615,0,0,2,0,0,2,0.00005766,0.00721839,0.14760302,0.07165747,0.13974152,0.28602559
8061,0,USColoradoKiowa,Colorado,Kiowa,2021-01-06 03:13:10.657443,2020-08-30 00:00:00.000000,0.00010052,0.00992530,0.20640737,0,0,2,0,0,2,0.00005478,0.00690628,0.14501477,0.07253009,0.14104781,0.29491512
8061,0,USColoradoKiowa,Colorado,Kiowa,2021-01-06 03:13:10.657443,2020-08-31 00:00:00.000000,0.00009553,0.00942148,0.20188214,0,0,2,0,0,2,0.00005205,0.00660398,0.14240418,0.07045240,0.14189294,0.28825807
8061,0,USColoradoKiowa,Colorado,Kiowa,2021-01-06 03:13:10.657443,2020-09-01 00:00:00.000000,0.00009080,0.00890467,0.19642082,0,0,2,0,0,1,0.00004946,0.00631691,0.13960389,0.06802803,0.14464317,0.28872177
8061,0,USColoradoKiowa,Colorado,Kiowa,2021-01-06 03:13:10.657443,2020-09-02 00:00:00.000000,0.00008631,0.00841663,0.19020406,0,0,2,0,0,1,0.00004700,0.00604637,0.13640253,0.06679894,0.14376247,0.28839072
8061,0,USColoradoKiowa,Colorado,Kiowa,2021-01-06 03:13:10.657443,2020-09-03 00:00:00.000000,0.00008208,0.00795922,0.18370419,0,0,2,0,0,1,0.00004467,0.00575236,0.13276053,0.06685375,0.14364738,0.28708046
8061,0,USColoradoKiowa,Colorado,Kiowa,2021-01-06 03:13:10.657443,2020-09-04 00:00:00.000000,0.00007819,0.00753621,0.17719777,0,0,2,0,0,1,0.00004247,0.00541812,0.12878501,0.06840820,0.14247140,0.28367891
8061,0,USColoradoKiowa,Colorado,Kiowa,2021-01-06 03:13:10.657443,2020-09-05 00:00:00.000000,0.00007473,0.00715103,0.17079707,0,0,2,0,0,1,0.00004041,0.00510415,0.12462318,0.07081430,0.14479274,0.27631267
8061,0,USColoradoKiowa,Colorado,Kiowa,2021-01-06 03:13:10.657443,2020-09-06 00:00:00.000000,0.00007165,0.00680135,0.16454926,0,0,2,0,0,1,0.00003852,0.00480923,0.12039225,0.07241000,0.14448011,0.26990722
8061,0,USColoradoKiowa,Colorado,Kiowa,2021-01-06 03:13:10.657443,2020-09-07 00:00:00.000000,0.03967182,0.11178070,0.31992482,0,1,4,0,0,1,0.00003682,0.00454330,0.11617178,0.07015535,0.14332235,0.27095399
8061,0,USColoradoKiowa,Colorado,Kiowa,2021-01-06 03:13:10.657443,2020-09-08 00:00:00.000000,0.07428529,0.19718703,0.52726945,1,2,7,0,0,2,0.01063696,0.03122547,0.14646693,0.06833797,0.14249547,0.27162966
8061,0,USColoradoKiowa,Colorado,Kiowa,2021-01-06 03:13:10.657443,2020-09-09 00:00:00.000000,0.10685424,0.27258207,0.76006638,1,3,10,0,0,3,0.02628631,0.06733873,0.24205424,0.06857916,0.14284273,0.27241267
8061,0,USColoradoKiowa,Colorado,Kiowa,2021-01-06 03:13:10.657443,2020-09-10 00:00:00.000000,0.14048093,0.35634816,1.00503346,1,5,14,0,1,4,0.04281802,0.10987970,0.31667152,0.06922068,0.14336465,0.27367402
8061,0,USColoradoKiowa,Colorado,Kiowa,2021-01-06 03:13:10.657443,2020-09-11 00:00:00.000000,0.17279950,0.44202575,1.24462074,2,6,17,0,2,6,0.06101288,0.15938101,0.46195975,0.06984303,0.14692821,0.27533563
8061,0,USColoradoKiowa,Colorado,Kiowa,2021-01-06 03:13:10.657443,2020-09-12 00:00:00.000000,0.20350687,0.52439678,1.47665083,2,7,20,1,2,8,0.08102916,0.20902662,0.61282040,0.07088509,0.15185704,0.27735914
8061,0,USColoradoKiowa,Colorado,Kiowa,2021-01-06 03:13:10.657443,2020-09-13 00:00:00.000000,0.23248783,0.60375620,1.71026586,3,8,24,1,3,10,0.10116547,0.26109966,0.76551228,0.07288246,0.15004950,0.27921910
8061,0,USColoradoKiowa,Colorado,Kiowa,2021-01-06 03:13:10.657443,2020-09-14 00:00:00.000000,0.35014848,0.72801886,1.88953127,4,10,26,1,4,12,0.12112396,0.31359584,0.90989922,0.07190136,0.15000255,0.28052142
8061,0,USColoradoKiowa,Colorado,Kiowa,2021-01-06 03:13:10.657443,2020-09-15 00:00:00.000000,0.41753552,0.84777381,2.07367669,5,11,29,2,5,14,0.15681059,0.37433088,1.01831583,0.07143313,0.15165875,0.28126632
8061,0,USColoradoKiowa,Colorado,Kiowa,2021-01-06 03:13:10.657443,2020-09-16 00:00:00.000000,0.48374542,0.98130761,2.25034242,6,13,31,2,6,15,0.19468061,0.44107832,1.11078751,0.07180608,0.15196492,0.28163302
8061,0,USColoradoKiowa,Colorado,Kiowa,2021-01-06 03:13:10.657443,2020-09-17 00:00:00.000000,0.54807937,1.06293312,2.25272757,7,14,31,3,7,16,0.23104086,0.50342201,1.18780816,0.07347684,0.15241831,0.28178375
8061,0,USColoradoKiowa,Colorado,Kiowa,2021-01-06 03:13:10.657443,2020-09-18 00:00:00.000000,0.60984033,1.17087208,2.27362412,8,16,31,3,8,17,0.26938738,0.58630532,1.25655617,0.07362924,0.15343674,0.28214762
8061,0,USColoradoKiowa,Colorado,Kiowa,2021-01-06 03:13:10.657443,2020-09-19 00:00:00.000000,0.66869154,1.26559838,2.39384401,9,17,33,4,9,18,0.30897633,0.65226676,1.31153232,0.07828968,0.15279554,0.25986213
8061,0,USColoradoKiowa,Colorado,Kiowa,2021-01-06 03:13:10.657443,2020-09-20 00:00:00.000000,0.72457345,1.32303196,2.66184188,10,18,37,4,9,19,0.34931607,0.69740151,1.38161676,0.07857871,0.15416551,0.27189658
8061,0,USColoradoKiowa,Colorado,Kiowa,2021-01-06 03:13:10.657443,2020-09-21 00:00:00.000000,0.70417131,1.29788878,2.62716418,9,18,36,5,10,20,0.38998832,0.74532570,1.44160581,0.07859731,0.15630718,0.27847181
8061,0,USColoradoKiowa,Colorado,Kiowa,2021-01-06 03:13:10.657443,2020-09-22 00:00:00.000000,0.68105293,1.29477740,2.61195198,9,18,36,5,11,20,0.41647872,0.78300288,1.48152395,0.07861129,0.15695606,0.25855128
8061,0,USColoradoKiowa,Colorado,Kiowa,2021-01-06 03:13:10.657443,2020-09-23 00:00:00.000000,0.65311954,1.25169093,2.58934138,9,17,36,6,11,21,0.43263875,0.78719849,1.50759875,0.07756690,0.15684291,0.26791357
8061,0,USColoradoKiowa,Colorado,Kiowa,2021-01-06 03:13:10.657443,2020-09-24 00:00:00.000000,0.62366118,1.20979917,2.56312298,8,17,36,6,10,21,0.43319967,0.77448086,1.52412855,0.07878949,0.15629209,0.26584822
8061,0,USColoradoKiowa,Colorado,Kiowa,2021-01-06 03:13:10.657443,2020-09-25 00:00:00.000000,0.59446939,1.15418345,2.53471703,8,16,35,5,10,21,0.41854171,0.74044063,1.53881916,0.07900580,0.15521614,0.25832923
8061,0,USColoradoKiowa,Colorado,Kiowa,2021-01-06 03:13:10.657443,2020-09-26 00:00:00.000000,0.56650986,1.12245251,2.50439792,7,15,35,5,10,21,0.40202388,0.73259417,1.54864802,0.07922594,0.15655594,0.25415569
8061,0,USColoradoKiowa,Colorado,Kiowa,2021-01-06 03:13:10.657443,2020-09-27 00:00:00.000000,0.54007526,1.10536289,2.47259323,7,15,34,5,10,21,0.38459343,0.72824585,1.54926199,0.07933401,0.15967222,0.25197287
8061,0,USColoradoKiowa,Colorado,Kiowa,2021-01-06 03:13:10.657443,2020-09-28 00:00:00.000000,0.66367949,1.22112588,2.61547006,9,17,36,5,10,21,0.36684400,0.71471316,1.54342949,0.07940639,0.16035629,0.25163417
8061,0,USColoradoKiowa,Colorado,Kiowa,2021-01-06 03:13:10.657443,2020-09-29 00:00:00.000000,0.75483290,1.31924844,2.75782742,10,18,38,5,10,22,0.38811571,0.73788571,1.56889131,0.07953242,0.16405143,0.25565065
8061,0,USColoradoKiowa,Colorado,Kiowa,2021-01-06 03:13:10.657443,2020-09-30 00:00:00.000000,0.84782447,1.40037682,2.90336355,11,19,40,6,10,22,0.43316030,0.76510109,1.61583527,0.08844609,0.16675518,0.25958961
8061,0,USColoradoKiowa,Colorado,Kiowa,2021-01-06 03:13:10.657443,2020-10-01 00:00:00.000000,0.87788416,1.49334354,3.05254820,12,20,42,6,11,23,0.47943459,0.81109835,1.67748368,0.09082872,0.16717931,0.26152104
8061,0,USColoradoKiowa,Colorado,Kiowa,2021-01-06 03:13:10.657443,2020-10-02 00:00:00.000000,0.90632703,1.58558982,3.18470941,12,22,44,7,12,24,0.52587140,0.86382796,1.74952406,0.09048319,0.16678538,0.25986372
8061,0,USColoradoKiowa,Colorado,Kiowa,2021-01-06 03:13:10.657443,2020-10-03 00:00:00.000000,0.94146701,1.66216587,3.23549066,13,23,45,7,12,25,0.53950293,0.90969806,1.83012312,0.08924883,0.17129263,0.26673514
8061,0,USColoradoKiowa,Colorado,Kiowa,2021-01-06 03:13:10.657443,2020-10-04 00:00:00.000000,0.98631697,1.75693178,3.52831143,13,24,49,7,13,26,0.55150886,0.98437796,1.90484856,0.09167092,0.17529439,0.27668135
8061,0,USColoradoKiowa,Colorado,Kiowa,2021-01-06 03:13:10.657443,2020-10-05 00:00:00.000000,1.16704697,1.90017613,3.57556878,16,26,50,8,14,27,0.56965666,1.03748587,1.93035202,0.09210574,0.17382814,0.28368755
8061,0,USColoradoKiowa,Colorado,Kiowa,2021-01-06 03:13:10.657443,2020-10-06 00:00:00.000000,1.29542243,2.02061325,3.60169928,18,28,50,8,15,27,0.61500288,1.10990739,1.98843654,0.09271778,0.17622452,0.28411159
8061,0,USColoradoKiowa,Colorado,Kiowa,2021-01-06 03:13:10.657443,2020-10-07 00:00:00.000000,1.39788262,2.12777609,3.64731535,19,29,51,9,16,29,0.67571423,1.20310720,2.11471316,0.10378572,0.17449700,0.29283432
8061,0,USColoradoKiowa,Colorado,Kiowa,2021-01-06 03:13:10.657443,2020-10-08 00:00:00.000000,1.48777724,2.23448806,3.77404553,20,31,53,10,17,30,0.74776085,1.23899701,2.17150991,0.10265056,0.17697670,0.28207000
8061,0,USColoradoKiowa,Colorado,Kiowa,2021-01-06 03:13:10.657443,2020-10-09 00:00:00.000000,1.60286846,2.31635447,3.98489639,22,32,56,11,18,30,0.81150378,1.33091889,2.20172510,0.10656658,0.17922206,0.27761873
8061,0,USColoradoKiowa,Colorado,Kiowa,2021-01-06 03:13:10.657443,2020-10-10 00:00:00.000000,1.61732283,2.48020009,4.14307320,22,34,58,12,19,31,0.90112187,1.39574745,2.22945894,0.10627047,0.18203912,0.28079528
8061,0,USColoradoKiowa,Colorado,Kiowa,2021-01-06 03:13:10.657443,2020-10-11 00:00:00.000000,1.59360567,2.57692269,4.23509280,22,36,59,13,20,33,0.94634513,1.44512507,2.39885012,0.10706032,0.18291366,0.28786011
8061,0,USColoradoKiowa,Colorado,Kiowa,2021-01-06 03:13:10.657443,2020-10-12 00:00:00.000000,1.70137373,2.70465407,4.30420847,23,38,60,13,21,35,0.97342533,1.49622897,2.54624107,0.11238600,0.18324206,0.28642406
8061,0,USColoradoKiowa,Colorado,Kiowa,2021-01-06 03:13:10.657443,2020-10-13 00:00:00.000000,1.79627455,2.88202795,4.37534787,25,40,61,14,22,36,1.01948195,1.57109876,2.60996835,0.12051508,0.18521476,0.28758655
8061,0,USColoradoKiowa,Colorado,Kiowa,2021-01-06 03:13:10.657443,2020-10-14 00:00:00.000000,1.80453269,3.09562145,4.44536886,25,43,62,14,23,37,1.05886708,1.67355338,2.68324418,0.12467175,0.18594231,0.29034430
8061,0,USColoradoKiowa,Colorado,Kiowa,2021-01-06 03:13:10.657443,2020-10-15 00:00:00.000000,1.84094241,3.25029402,4.55066134,25,45,63,15,24,40,1.09087647,1.75256791,2.86340909,0.13281861,0.18953248,0.28943664
8061,0,USColoradoKiowa,Colorado,Kiowa,2021-01-06 03:13:10.657443,2020-10-16 00:00:00.000000,1.85248003,3.33232863,4.76239225,26,46,66,16,25,42,1.15163979,1.84224875,3.04440198,0.12578401,0.19054463,0.29538781
8061,0,USColoradoKiowa,Colorado,Kiowa,2021-01-06 03:13:10.657443,2020-10-17 00:00:00.000000,1.86421795,3.42645848,5.02200454,26,48,70,16,26,44,1.20891405,1.92008582,3.15261998,0.12843309,0.19441845,0.30479706
8061,0,USColoradoKiowa,Colorado,Kiowa,2021-01-06 03:13:10.657443,2020-10-18 00:00:00.000000,1.87625449,3.49544414,5.34695845,26,49,75,17,27,45,1.21801109,1.96243371,3.22163768,0.13145795,0.19876220,0.30693163
8061,0,USColoradoKiowa,Colorado,Kiowa,2021-01-06 03:13:10.657443,2020-10-19 00:00:00.000000,2.04228166,3.61314336,5.54246413,28,50,77,17,28,46,1.22670661,2.05805899,3.29301535,0.13729918,0.20210716,0.30892471
8061,0,USColoradoKiowa,Colorado,Kiowa,2021-01-06 03:13:10.657443,2020-10-20 00:00:00.000000,2.20941334,3.66095729,5.80809691,31,51,81,17,30,47,1.27707117,2.13798983,3.37040013,0.14119909,0.20540464,0.32726700
8061,0,USColoradoKiowa,Colorado,Kiowa,2021-01-06 03:13:10.657443,2020-10-21 00:00:00.000000,2.38123391,3.77750516,6.08293233,33,53,85,19,31,48,1.35337700,2.23852952,3.45903428,0.14281079,0.21581266,0.34788248
8061,0,USColoradoKiowa,Colorado,Kiowa,2021-01-06 03:13:10.657443,2020-10-22 00:00:00.000000,2.46662690,3.88559430,6.36905375,34,54,89,20,31,50,1.42532030,2.27507763,3.57538050,0.14515769,0.22396503,0.35324728
8061,0,USColoradoKiowa,Colorado,Kiowa,2021-01-06 03:13:10.657443,2020-10-23 00:00:00.000000,2.64151851,4.04326835,6.66319812,37,56,93,20,33,54,1.43096638,2.35012136,3.86840615,0.14797849,0.22578425,0.35448305
8061,0,USColoradoKiowa,Colorado,Kiowa,2021-01-06 03:13:10.657443,2020-10-24 00:00:00.000000,2.67676529,4.20003349,7.03368964,37,59,98,20,34,57,1.48481025,2.44919329,4.09535649,0.15125791,0.23491471,0.37120422
8061,0,USColoradoKiowa,Colorado,Kiowa,2021-01-06 03:13:10.657443,2020-10-25 00:00:00.000000,2.69789516,4.38408618,7.48946173,37,61,105,22,35,62,1.57238103,2.51088193,4.44391044,0.15222994,0.23914703,0.35519690
8061,0,USColoradoKiowa,Colorado,Kiowa,2021-01-06 03:13:10.657443,2020-10-26 00:00:00.000000,2.91237776,4.65887591,7.75633861,40,65,109,22,36,66,1.58302813,2.60132283,4.72076194,0.15301808,0.24633907,0.37008939
8061,0,USColoradoKiowa,Colorado,Kiowa,2021-01-06 03:13:10.657443,2020-10-27 00:00:00.000000,3.26953149,4.93341060,8.02409819,45,69,112,23,38,68,1.64593294,2.72657142,4.87860756,0.15489363,0.24796418,0.37736312
8061,0,USColoradoKiowa,Colorado,Kiowa,2021-01-06 03:13:10.657443,2020-10-28 00:00:00.000000,3.28448556,5.26356403,8.26719833,46,74,116,24,40,70,1.73140418,2.89793188,5.01770795,0.15839934,0.25024692,0.37934547
8061,0,USColoradoKiowa,Colorado,Kiowa,2021-01-06 03:13:10.657443,2020-10-29 00:00:00.000000,3.30604417,5.67577596,8.45718613,46,79,118,25,42,72,1.82630320,3.01064154,5.14686982,0.16373752,0.25788317,0.38363804
8061,0,USColoradoKiowa,Colorado,Kiowa,2021-01-06 03:13:10.657443,2020-10-30 00:00:00.000000,3.34468505,5.90115559,8.69102361,47,82,122,27,44,74,1.93599902,3.15471163,5.27048761,0.17104767,0.26679367,0.38479240
8061,0,USColoradoKiowa,Colorado,Kiowa,2021-01-06 03:13:10.657443,2020-10-31 00:00:00.000000,3.41545377,6.24049422,9.34334072,48,87,131,28,46,75,2.02394562,3.30084990,5.39084273,0.17985087,0.27396194,0.39831054
8061,0,USColoradoKiowa,Colorado,Kiowa,2021-01-06 03:13:10.657443,2020-11-01 00:00:00.000000,3.50362220,6.72376210,9.67674576,49,94,136,28,48,77,2.05294855,3.48344965,5.50939502,0.18890988,0.28015068,0.40811117
8061,0,USColoradoKiowa,Colorado,Kiowa,2021-01-06 03:13:10.657443,2020-11-02 00:00:00.000000,4.23679931,7.13148349,9.92774100,59,100,139,29,52,79,2.09452847,3.69956924,5.62776605,0.18914620,0.29169850,0.41380335
8061,0,USColoradoKiowa,Colorado,Kiowa,2021-01-06 03:13:10.657443,2020-11-03 00:00:00.000000,4.76412402,7.54325094,10.16623797,66,106,142,32,55,84,2.33331202,3.93005915,5.97661523,0.18870103,0.29812513,0.42973568
8061,0,USColoradoKiowa,Colorado,Kiowa,2021-01-06 03:13:10.657443,2020-11-04 00:00:00.000000,5.31265212,8.20645794,10.39960561,74,115,146,36,59,90,2.61161631,4.20672040,6.43558727,0.18877003,0.30126203,0.44178165
8061,0,USColoradoKiowa,Colorado,Kiowa,2021-01-06 03:13:10.657443,2020-11-05 00:00:00.000000,5.79736930,8.68290947,11.07566336,81,122,155,39,63,91,2.83376549,4.53041872,6.53442405,0.19754696,0.30248692,0.44697376
8061,0,USColoradoKiowa,Colorado,Kiowa,2021-01-06 03:13:10.657443,2020-11-06 00:00:00.000000,6.28496878,9.37398677,11.86602541,88,131,166,43,68,98,3.11360254,4.87883333,6.97816382,0.20048792,0.30081527,0.46246995
8061,0,USColoradoKiowa,Colorado,Kiowa,2021-01-06 03:13:10.657443,2020-11-07 00:00:00.000000,6.76525974,9.81860548,12.63164879,95,138,177,47,72,105,3.40541241,5.12469529,7.47271759,0.20111194,0.30217389,0.47456944
8061,0,USColoradoKiowa,Colorado,Kiowa,2021-01-06 03:13:10.657443,2020-11-08 00:00:00.000000,7.25316311,10.49125589,13.46274815,101,147,189,49,78,107,3.54018249,5.55839924,7.64140694,0.20278382,0.30348767,0.47414594
8061,0,USColoradoKiowa,Colorado,Kiowa,2021-01-06 03:13:10.657443,2020-11-09 00:00:00.000000,7.51562191,10.80969770,13.69177851,105,151,192,55,83,113,3.98118651,5.91968066,8.10796573,0.20554466,0.30729899,0.46431271
8061,0,USColoradoKiowa,Colorado,Kiowa,2021-01-06 03:13:10.657443,2020-11-10 00:00:00.000000,7.79026103,11.15122022,13.91625793,109,156,195,60,87,119,4.27982800,6.19083875,8.53447796,0.20651936,0.30609090,0.44887782
8061,0,USColoradoKiowa,Colorado,Kiowa,2021-01-06 03:13:10.657443,2020-11-11 00:00:00.000000,7.96868104,11.41387139,14.38481707,112,160,202,62,90,125,4.46818899,6.45791209,8.89692408,0.20732246,0.31114332,0.45519806
8061,0,USColoradoKiowa,Colorado,Kiowa,2021-01-06 03:13:10.657443,2020-11-12 00:00:00.000000,8.09324804,11.81575493,14.82387219,113,166,208,65,93,129,4.64202361,6.67160346,9.21517717,0.20959664,0.31385907,0.46773575
8061,0,USColoradoKiowa,Colorado,Kiowa,2021-01-06 03:13:10.657443,2020-11-13 00:00:00.000000,8.17934949,12.10202641,15.29165298,115,170,215,67,96,133,4.80886557,6.87595729,9.50312144,0.20965344,0.32076671,0.48902638
8061,0,USColoradoKiowa,Colorado,Kiowa,2021-01-06 03:13:10.657443,2020-11-14 00:00:00.000000,8.09857477,12.44657185,15.73683003,113,174,221,69,99,138,4.97190594,7.08322335,9.84151242,0.20963078,0.32546540,0.50178878
8061,0,USColoradoKiowa,Colorado,Kiowa,2021-01-06 03:13:10.657443,2020-11-15 00:00:00.000000,8.19830352,12.78156059,16.13869158,115,179,226,69,103,143,4.94085096,7.36414297,10.20096675,0.20990097,0.32967712,0.49208757
8061,0,USColoradoKiowa,Colorado,Kiowa,2021-01-06 03:13:10.657443,2020-11-16 00:00:00.000000,8.60754741,13.07341320,16.47703617,121,183,231,68,106,148,4.90203283,7.56796480,10.54928924,0.21616548,0.33866415,0.48043856
8061,0,USColoradoKiowa,Colorado,Kiowa,2021-01-06 03:13:10.657443,2020-11-17 00:00:00.000000,8.78607557,13.33568709,16.76363377,123,187,235,68,107,153,4.88252007,7.67421423,10.88232677,0.23085003,0.34333305,0.47831048
8061,0,USColoradoKiowa,Colorado,Kiowa,2021-01-06 03:13:10.657443,2020-11-18 00:00:00.000000,8.96265487,13.72572376,17.17113294,126,192,241,72,111,153,5.15304364,7.93262509,10.93515562,0.25213920,0.34456825,0.48993074
8061,0,USColoradoKiowa,Colorado,Kiowa,2021-01-06 03:13:10.657443,2020-11-19 00:00:00.000000,9.14586406,14.15575047,17.66610506,128,199,248,76,114,158,5.44366327,8.12629918,11.30079008,0.25351079,0.35227812,0.51450054
8061,0,USColoradoKiowa,Colorado,Kiowa,2021-01-06 03:13:10.657443,2020-11-20 00:00:00.000000,9.35063265,14.46208245,18.16754910,131,203,255,80,117,164,5.69934004,8.39035403,11.67297377,0.27217496,0.36570100,0.56791205
8061,0,USColoradoKiowa,Colorado,Kiowa,2021-01-06 03:13:10.657443,2020-11-21 00:00:00.000000,9.59286996,14.72287268,18.67155163,134,207,262,81,121,169,5.82084994,8.62768431,12.05300006,0.27508436,0.38564327,0.58739604
8061,0,USColoradoKiowa,Colorado,Kiowa,2021-01-06 03:13:10.657443,2020-11-22 00:00:00.000000,9.87900497,15.13010741,19.69606730,138,212,276,83,125,175,5.95908740,8.93407116,12.44832831,0.28373696,0.41723812,0.64465859
8061,0,USColoradoKiowa,Colorado,Kiowa,2021-01-06 03:13:10.657443,2020-11-23 00:00:00.000000,10.28478043,15.87647335,20.79266489,144,223,292,86,129,179,6.12001882,9.20455128,12.79069649,0.29294072,0.45829138,0.68861234
8061,0,USColoradoKiowa,Colorado,Kiowa,2021-01-06 03:13:10.657443,2020-11-24 00:00:00.000000,10.93705901,16.88095198,21.86872295,153,237,307,89,132,186,6.33113898,9.43773829,13.27959860,0.31703006,0.50656837,0.71270242
8061,0,USColoradoKiowa,Colorado,Kiowa,2021-01-06 03:13:10.657443,2020-11-25 00:00:00.000000,12.15540488,18.17003815,23.04811375,170,255,324,92,139,194,6.58135602,9.89589511,13.83675172,0.37093736,0.57372067,0.79770022
8061,0,USColoradoKiowa,Colorado,Kiowa,2021-01-06 03:13:10.657443,2020-11-26 00:00:00.000000,13.51173323,19.37469186,24.59714677,189,272,345,96,145,203,6.87253837,10.37106048,14.46228336,0.41663806,0.64092606,0.87244311
8061,0,USColoradoKiowa,Colorado,Kiowa,2021-01-06 03:13:10.657443,2020-11-27 00:00:00.000000,14.56630769,20.74233874,26.37343043,204,291,370,104,154,210,7.41365139,11.01499799,14.97955958,0.45625453,0.70903409,0.92862329
8061,0,USColoradoKiowa,Colorado,Kiowa,2021-01-06 03:13:10.657443,2020-11-28 00:00:00.000000,15.94541374,22.14152367,28.49253525,224,311,400,115,165,225,8.19637085,11.74613670,16.01247446,0.51405507,0.75506324,0.96887338
8061,0,USColoradoKiowa,Colorado,Kiowa,2021-01-06 03:13:10.657443,2020-11-29 00:00:00.000000,17.55110264,23.74876318,30.80668818,246,333,433,125,176,238,8.89844733,12.56251054,16.99506348,0.56157065,0.79173558,0.97510214
8061,0,USColoradoKiowa,Colorado,Kiowa,2021-01-06 03:13:10.657443,2020-11-30 00:00:00.000000,19.11074621,25.75025788,33.40693887,268,362,469,136,189,253,9.72082492,13.48050381,17.99540525,0.66661187,0.82173625,0.97939304
8061,0,USColoradoKiowa,Colorado,Kiowa,2021-01-06 03:13:10.657443,2020-12-01 00:00:00.000000,20.68348684,27.77884089,36.12666277,290,390,507,149,206,273,10.60438729,14.71030186,19.42763527,0.69204112,0.85290583,1.00112401
8061,0,USColoradoKiowa,Colorado,Kiowa,2021-01-06 03:13:10.657443,2020-12-02 00:00:00.000000,22.23422097,29.90303975,38.78396486,312,420,545,161,223,294,11.51826424,15.89810342,20.96874815,0.70676206,0.87392018,1.01211826
8061,0,USColoradoKiowa,Colorado,Kiowa,2021-01-06 03:13:10.657443,2020-12-03 00:00:00.000000,23.65976748,31.73882789,41.23906246,332,446,579,174,237,317,12.43932140,16.91706866,22.57659311,0.73059158,0.88768927,1.03819155
8061,0,USColoradoKiowa,Colorado,Kiowa,2021-01-06 03:13:10.657443,2020-12-04 00:00:00.000000,24.86400353,33.62813207,43.43980200,349,472,610,186,253,340,13.24065391,18.00915897,24.21602904,0.75900526,0.91133734,1.08012545
8061,0,USColoradoKiowa,Colorado,Kiowa,2021-01-06 03:13:10.657443,2020-12-05 00:00:00.000000,25.95118066,35.34427023,45.40088505,364,496,638,196,271,363,13.97994156,19.27703384,25.85306433,0.77034375,0.92092930,1.20023592
8061,0,USColoradoKiowa,Colorado,Kiowa,2021-01-06 03:13:10.657443,2020-12-06 00:00:00.000000,26.89256825,36.65064607,46.99652006,378,515,660,206,289,386,14.67420319,20.60060900,27.45617602,0.75992466,0.93550052,1.25593004
8061,0,USColoradoKiowa,Colorado,Kiowa,2021-01-06 03:13:10.657443,2020-12-07 00:00:00.000000,27.71114683,37.61630997,47.73926011,389,528,671,215,304,407,15.30786890,21.63093824,28.99696742,0.71460689,0.94517436,1.29457555
8061,0,USColoradoKiowa,Colorado,Kiowa,2021-01-06 03:13:10.657443,2020-12-08 00:00:00.000000,28.34607856,38.47930539,48.16270891,398,541,677,226,317,418,16.08500099,22.56959912,29.75490905,0.70580176,0.94300538,1.32139951
8061,0,USColoradoKiowa,Colorado,Kiowa,2021-01-06 03:13:10.657443,2020-12-09 00:00:00.000000,28.78148289,38.60045008,48.24888561,404,542,678,235,327,424,16.77169559,23.27116913,30.17310730,0.69402200,0.93951535,1.33793255
8061,0,USColoradoKiowa,Colorado,Kiowa,2021-01-06 03:13:10.657443,2020-12-10 00:00:00.000000,28.97373122,38.85451735,48.01022744,407,546,675,239,329,432,17.04737808,23.44852139,30.73016108,0.67789753,0.93276773,1.29400235
8061,0,USColoradoKiowa,Colorado,Kiowa,2021-01-06 03:13:10.657443,2020-12-11 00:00:00.000000,29.01487557,38.93154191,47.42491296,407,547,666,241,335,436,17.17356417,23.82661588,31.02398588,0.64078535,0.93166651,1.28085862
8061,0,USColoradoKiowa,Colorado,Kiowa,2021-01-06 03:13:10.657443,2020-12-12 00:00:00.000000,28.80449483,38.43333056,46.40591741,404,540,652,241,336,436,17.16073577,23.91983279,31.06066096,0.61344967,0.91838231,1.40031709
8061,0,USColoradoKiowa,Colorado,Kiowa,2021-01-06 03:13:10.657443,2020-12-13 00:00:00.000000,27.80287654,37.47120801,45.10077591,390,526,634,240,335,433,17.08426623,23.84091695,30.85347699,0.59834232,0.90438274,1.43807204
8061,0,USColoradoKiowa,Colorado,Kiowa,2021-01-06 03:13:10.657443,2020-12-14 00:00:00.000000,27.32734524,36.54236772,44.01907283,384,513,618,235,330,432,16.73459680,23.48977380,30.77281995,0.57112720,0.89830436,1.44196481
8061,0,USColoradoKiowa,Colorado,Kiowa,2021-01-06 03:13:10.657443,2020-12-15 00:00:00.000000,26.25139360,35.46560696,42.70306347,369,498,600,226,325,429,16.13667499,23.14637744,30.55703887,0.55996569,0.89073149,1.37088516
8061,0,USColoradoKiowa,Colorado,Kiowa,2021-01-06 03:13:10.657443,2020-12-16 00:00:00.000000,25.09082219,33.77424098,41.33348793,352,474,581,218,318,417,15.51303388,22.64631638,29.70470584,0.55887840,0.88718631,1.38201396
8061,0,USColoradoKiowa,Colorado,Kiowa,2021-01-06 03:13:10.657443,2020-12-17 00:00:00.000000,23.86907997,32.49955058,39.84345009,335,456,560,208,310,407,14.86165900,22.08656716,28.96830830,0.53370356,0.87466889,1.38400506
8061,0,USColoradoKiowa,Colorado,Kiowa,2021-01-06 03:13:10.657443,2020-12-18 00:00:00.000000,22.60818291,31.02093163,38.39833326,317,436,539,199,301,394,14.18881314,21.44284096,28.08871454,0.48658043,0.85375947,1.38285195
8061,0,USColoradoKiowa,Colorado,Kiowa,2021-01-06 03:13:10.657443,2020-12-19 00:00:00.000000,21.32819928,29.61172986,36.86036154,299,416,518,189,291,380,13.49697993,20.71763476,27.09407516,0.45477474,0.83437290,1.37822570
8061,0,USColoradoKiowa,Colorado,Kiowa,2021-01-06 03:13:10.657443,2020-12-20 00:00:00.000000,20.04691926,27.99988872,35.23139422,281,393,495,179,279,365,12.79174710,19.87302906,26.00979340,0.44078808,0.81521634,1.37175851
8061,0,USColoradoKiowa,Colorado,Kiowa,2021-01-06 03:13:10.657443,2020-12-21 00:00:00.000000,18.62053986,26.34993442,33.48900903,261,370,470,169,263,349,12.08436473,18.72839380,24.86787471,0.43332978,0.80162582,1.36849605
8061,0,USColoradoKiowa,Colorado,Kiowa,2021-01-06 03:13:10.657443,2020-12-22 00:00:00.000000,17.10920622,24.52956526,31.76262497,240,344,446,160,246,334,11.38858417,17.54936013,23.80900265,0.42604206,0.80139770,1.36818059
8061,0,USColoradoKiowa,Colorado,Kiowa,2021-01-06 03:13:10.657443,2020-12-23 00:00:00.000000,15.70316108,22.75799199,30.07035831,220,319,422,150,232,319,10.71118487,16.51962610,22.70639112,0.41653729,0.80726772,1.58481369
8061,0,USColoradoKiowa,Colorado,Kiowa,2021-01-06 03:13:10.657443,2020-12-24 00:00:00.000000,14.45542221,21.07654476,28.43135136,203,296,399,141,220,303,10.05722577,15.65608367,21.57928017,0.40868974,0.81370400,1.59346830
8061,0,USColoradoKiowa,Colorado,Kiowa,2021-01-06 03:13:10.657443,2020-12-25 00:00:00.000000,13.33112961,19.53799684,26.85137413,187,274,377,132,208,288,9.43035035,14.82657267,20.52729290,0.41383889,0.81827247,1.60514089
8061,0,USColoradoKiowa,Colorado,Kiowa,2021-01-06 03:13:10.657443,2020-12-26 00:00:00.000000,12.29264335,18.13963724,25.32721830,172,255,356,123,196,272,8.80373306,13.96372509,19.41005007,0.41849025,0.82468463,1.59753391
8061,0,USColoradoKiowa,Colorado,Kiowa,2021-01-06 03:13:10.657443,2020-12-27 00:00:00.000000,11.32971529,16.74208032,23.85960052,159,235,335,114,183,255,8.11277995,13.03228018,18.20099206,0.42042765,0.81291948,1.57284869
8061,0,USColoradoKiowa,Colorado,Kiowa,2021-01-06 03:13:10.657443,2020-12-28 00:00:00.000000,10.36964786,15.40351582,22.37536245,145,216,314,105,170,240,7.47533125,12.12654144,17.11214280,0.41098013,0.81633749,1.56525166
8061,0,USColoradoKiowa,Colorado,Kiowa,2021-01-06 03:13:10.657443,2020-12-29 00:00:00.000000,9.43595407,14.15168961,20.92783884,132,198,294,96,158,225,6.86619625,11.28388173,16.04088020,0.42528420,0.82021666,1.55206637
8061,0,USColoradoKiowa,Colorado,Kiowa,2021-01-06 03:13:10.657443,2020-12-30 00:00:00.000000,8.54739393,12.97999679,19.34348332,120,182,271,88,147,210,6.29040440,10.46850814,14.99760814,0.42479218,0.80705135,1.58682027
8061,0,USColoradoKiowa,Colorado,Kiowa,2021-01-06 03:13:10.657443,2020-12-31 00:00:00.000000,7.72935615,11.94909993,17.83767275,108,168,250,80,135,196,5.71596061,9.65601420,13.98952357,0.42184155,0.80367118,1.59132163
8061,0,USColoradoKiowa,Colorado,Kiowa,2021-01-06 03:13:10.657443,2021-01-01 00:00:00.000000,6.97904670,10.99128208,16.41483549,98,154,230,72,125,183,5.18242441,8.90533054,13.02161800,0.38072363,0.78433497,1.59106819
8061,0,USColoradoKiowa,Colorado,Kiowa,2021-01-06 03:13:10.657443,2021-01-02 00:00:00.000000,6.29308099,10.05756223,15.12510903,88,141,212,65,115,171,4.69128056,8.19510444,12.16217636,0.36894791,0.79327671,1.59203137
8061,0,USColoradoKiowa,Colorado,Kiowa,2021-01-06 03:13:10.657443,2021-01-03 00:00:00.000000,5.66770648,9.17629023,13.99950429,79,129,196,59,105,159,4.24042030,7.52045603,11.35251876,0.35966459,0.79747402,1.59352053
8061,0,USColoradoKiowa,Colorado,Kiowa,2021-01-06 03:13:10.657443,2021-01-04 00:00:00.000000,5.01642489,8.36430695,12.94424332,70,117,181,53,96,148,3.82332893,6.88766246,10.57732360,0.35470863,0.78672733,1.62799236
8061,0,USColoradoKiowa,Colorado,Kiowa,2021-01-06 03:13:10.657443,2021-01-05 00:00:00.000000,4.50274106,7.61835237,11.95736582,63,107,168,47,88,138,3.38231818,6.32138463,9.83889964,0.35272864,0.77984494,1.65320152
8061,0,USColoradoKiowa,Colorado,Kiowa,2021-01-06 03:13:10.657443,2021-01-06 00:00:00.000000,4.09661856,6.91070520,11.03644454,57,97,155,42,81,128,2.98803666,5.77335669,9.13856965,0.35200857,0.77981453,1.66341801
8061,0,USColoradoKiowa,Colorado,Kiowa,2021-01-06 03:13:10.657443,2021-01-07 00:00:00.000000,3.68516577,6.25950392,10.17872364,51,88,143,37,73,119,2.63678728,5.25981951,8.47687154,0.35175426,0.77979994,1.66747279
8061,0,USColoradoKiowa,Colorado,Kiowa,2021-01-06 03:13:10.657443,2021-01-08 00:00:00.000000,3.29204756,5.66622383,9.38122998,46,79,131,32,67,110,2.32474443,4.76785366,7.85372528,0.35166413,0.77979303,1.66907933
8061,0,USColoradoKiowa,Colorado,Kiowa,2021-01-06 03:13:10.657443,2021-01-09 00:00:00.000000,2.90699062,5.12647588,8.64086225,40,72,121,28,60,102,2.04814132,4.31718630,7.26857092,0.35163170,0.77978984,1.66971782
8061,0,USColoradoKiowa,Colorado,Kiowa,2021-01-06 03:13:10.657443,2021-01-10 00:00:00.000000,2.56592271,4.63602223,7.95446169,36,65,111,25,54,94,1.80338201,3.90868930,6.72048225,0.35161974,0.77978842,1.66997274
8061,0,USColoradoKiowa,Colorado,Kiowa,2021-01-06 03:13:10.657443,2021-01-11 00:00:00.000000,2.26411116,4.19082235,7.31886766,31,58,102,22,49,87,1.58710416,3.54255254,6.20826011,0.35161518,0.77978783,1.67007515
8061,0,USColoradoKiowa,Colorado,Kiowa,2021-01-06 03:13:10.657443,2021-01-12 00:00:00.000000,1.99724623,3.80113926,6.73096058,28,53,94,19,45,80,1.39620961,3.21873849,5.73050858,0.35161338,0.77978760,1.67011663
8061,0,USColoradoKiowa,Colorado,Kiowa,2021-01-06 03:13:10.657443,2021-01-13 00:00:00.000000,1.76143123,3.44881038,6.19423735,24,48,87,17,41,74,1.25932545,2.92323436,5.28569688,0.35161264,0.77978754,1.67013362
8061,0,USColoradoKiowa,Colorado,Kiowa,2021-01-06 03:13:10.657443,2021-01-14 00:00:00.000000,1.55316161,3.11310136,5.71950070,21,43,80,16,37,68,1.14205468,2.65384087,4.87220924,0.35161232,0.77978753,1.67014070
8061,0,USColoradoKiowa,Colorado,Kiowa,2021-01-06 03:13:10.657443,2021-01-15 00:00:00.000000,1.36929831,2.80603285,5.27954351,19,39,74,14,33,63,1.03537076,2.40846725,4.48838489,0.35161218,0.77978754,1.67014371
8061,0,USColoradoKiowa,Colorado,Kiowa,2021-01-06 03:13:10.657443,2021-01-16 00:00:00.000000,1.20703847,2.53665625,4.87207858,16,35,68,13,30,58,0.93838985,2.17977001,4.13254970,0.35161211,0.77978756,1.67014502
8061,0,USColoradoKiowa,Colorado,Kiowa,2021-01-06 03:13:10.657443,2021-01-17 00:00:00.000000,1.06388570,2.30214794,4.49492413,14,32,63,11,27,53,0.84748514,1.97089154,3.80304094,0.35161208,0.77978757,1.67014562
