FIPS,HR_UID,nameid,province,region,analysisTime,dates,pointprevalence_025,pointprevalence_50,pointprevalence_975,pointinfections_025,pointinfections_50,pointinfections_975,pointinfectious_025,pointinfectious_50,pointinfectious_975,pointinfectiousprevalence_05,pointinfectiousprevalence_50,pointinfectiousprevalence_95,infectrate_025,infectrate_50,infectrate_975
0,3570,CanadaOntarioYork,Ontario,York,2021-01-17 17:25:15.430580,2020-03-09 00:00:00.000000,0.00666858,0.01375943,0.02727439,80,165,327,37,79,141,0.00314200,0.00663740,0.01178246,0.65821476,0.80317217,1.06798304
0,3570,CanadaOntarioYork,Ontario,York,2021-01-17 17:25:15.430580,2020-03-10 00:00:00.000000,0.00814175,0.01626439,0.03123490,97,195,375,42,88,168,0.00352311,0.00739448,0.01402929,0.65821441,0.80317131,1.06795992
0,3570,CanadaOntarioYork,Ontario,York,2021-01-17 17:25:15.430580,2020-03-11 00:00:00.000000,0.00979777,0.01876733,0.03574376,117,225,429,49,100,196,0.00414870,0.00835044,0.01634800,0.65821369,0.80316908,1.06788985
0,3570,CanadaOntarioYork,Ontario,York,2021-01-17 17:25:15.430580,2020-03-12 00:00:00.000000,0.01159963,0.02157776,0.04087093,139,259,490,59,114,227,0.00495588,0.00955981,0.01890991,0.65821214,0.80316332,1.06767722
0,3570,CanadaOntarioYork,Ontario,York,2021-01-17 17:25:15.430580,2020-03-13 00:00:00.000000,0.01340644,0.02495377,0.04669915,160,299,560,70,131,262,0.00589028,0.01099170,0.02182449,0.65820873,0.80121413,1.06703235
0,3570,CanadaOntarioYork,Ontario,York,2021-01-17 17:25:15.430580,2020-03-14 00:00:00.000000,0.01547991,0.02885717,0.05332413,185,346,640,82,151,302,0.00688802,0.01261446,0.02517812,0.65820105,0.79816217,1.06508833
0,3570,CanadaOntarioYork,Ontario,York,2021-01-17 17:25:15.430580,2020-03-15 00:00:00.000000,0.01786586,0.03346717,0.06088471,214,401,731,96,174,348,0.00803269,0.01456504,0.02905242,0.65818324,0.79772438,1.05935005
0,3570,CanadaOntarioYork,Ontario,York,2021-01-17 17:25:15.430580,2020-03-16 00:00:00.000000,0.02100927,0.03856043,0.07113012,252,463,854,112,201,399,0.00934101,0.01678445,0.03325114,0.65814087,0.79693823,1.04345098
0,3570,CanadaOntarioYork,Ontario,York,2021-01-17 17:25:15.430580,2020-03-17 00:00:00.000000,0.02473173,0.04501521,0.08317779,296,540,998,130,233,457,0.01083987,0.01946974,0.03808010,0.65803794,0.79548305,1.02085493
0,3570,CanadaOntarioYork,Ontario,York,2021-01-17 17:25:15.430580,2020-03-18 00:00:00.000000,0.02911044,0.05153428,0.09727675,349,618,1168,153,266,523,0.01278794,0.02221635,0.04361329,0.65302564,0.79325359,1.02041516
0,3570,CanadaOntarioYork,Ontario,York,2021-01-17 17:25:15.430580,2020-03-19 00:00:00.000000,0.03425173,0.05872528,0.11371228,411,705,1365,181,311,599,0.01509910,0.02594156,0.04992609,0.63520698,0.78112102,0.96888881
0,3570,CanadaOntarioYork,Ontario,York,2021-01-17 17:25:15.430580,2020-03-20 00:00:00.000000,0.04029452,0.06814600,0.13126646,483,818,1576,213,360,697,0.01780957,0.03002435,0.05809339,0.62472646,0.77591597,0.95431201
0,3570,CanadaOntarioYork,Ontario,York,2021-01-17 17:25:15.430580,2020-03-21 00:00:00.000000,0.04733581,0.07731559,0.15134720,568,928,1817,252,414,818,0.02099067,0.03449409,0.06820411,0.61586410,0.75530582,0.91657339
0,3570,CanadaOntarioYork,Ontario,York,2021-01-17 17:25:15.430580,2020-03-22 00:00:00.000000,0.05334305,0.08679993,0.17420522,640,1042,2091,296,471,954,0.02470478,0.03922988,0.07949298,0.58069448,0.72778489,0.90521178
0,3570,CanadaOntarioYork,Ontario,York,2021-01-17 17:25:15.430580,2020-03-23 00:00:00.000000,0.06059970,0.09750364,0.20037044,727,1170,2405,346,537,1099,0.02884526,0.04478260,0.09160780,0.56268892,0.71989194,0.90812667
0,3570,CanadaOntarioYork,Ontario,York,2021-01-17 17:25:15.430580,2020-03-24 00:00:00.000000,0.07049348,0.11034721,0.22703366,846,1325,2726,400,604,1257,0.03334478,0.05035022,0.10475888,0.51612651,0.69305355,0.90732029
0,3570,CanadaOntarioYork,Ontario,York,2021-01-17 17:25:15.430580,2020-03-25 00:00:00.000000,0.08192233,0.12742664,0.25417450,983,1530,3052,466,701,1422,0.03882148,0.05838177,0.11843219,0.48094499,0.67997036,0.90220394
0,3570,CanadaOntarioYork,Ontario,York,2021-01-17 17:25:15.430580,2020-03-26 00:00:00.000000,0.09504488,0.14195239,0.28242782,1141,1704,3391,534,796,1598,0.04448769,0.06633683,0.13310168,0.46444805,0.66129061,0.89059238
0,3570,CanadaOntarioYork,Ontario,York,2021-01-17 17:25:15.430580,2020-03-27 00:00:00.000000,0.10994552,0.16058629,0.30934741,1320,1928,3714,616,900,1789,0.05132156,0.07501714,0.14901781,0.45931103,0.64954594,0.86778725
0,3570,CanadaOntarioYork,Ontario,York,2021-01-17 17:25:15.430580,2020-03-28 00:00:00.000000,0.12032757,0.17683995,0.33196569,1444,2123,3986,695,1024,1997,0.05794664,0.08532758,0.16634116,0.44169573,0.61580525,0.83856423
0,3570,CanadaOntarioYork,Ontario,York,2021-01-17 17:25:15.430580,2020-03-29 00:00:00.000000,0.12984980,0.19730878,0.36550096,1559,2369,4388,770,1148,2222,0.06413296,0.09567944,0.18508918,0.40254569,0.57492744,0.78199984
0,3570,CanadaOntarioYork,Ontario,York,2021-01-17 17:25:15.430580,2020-03-30 00:00:00.000000,0.13953273,0.21672355,0.40397201,1675,2602,4850,849,1287,2549,0.07074218,0.10719093,0.21236118,0.37780624,0.52228046,0.70323575
0,3570,CanadaOntarioYork,Ontario,York,2021-01-17 17:25:15.430580,2020-03-31 00:00:00.000000,0.14973077,0.23500821,0.44666693,1797,2821,5363,933,1401,2898,0.07777346,0.11671050,0.24139343,0.33529261,0.46835958,0.64508636
0,3570,CanadaOntarioYork,Ontario,York,2021-01-17 17:25:15.430580,2020-04-01 00:00:00.000000,0.16222391,0.25253512,0.49138272,1947,3032,5900,1014,1524,3245,0.08447860,0.12693705,0.27029853,0.30317836,0.43512839,0.61359427
0,3570,CanadaOntarioYork,Ontario,York,2021-01-17 17:25:15.430580,2020-04-02 00:00:00.000000,0.17553150,0.26381133,0.53232999,2107,3167,6392,1104,1630,3599,0.09194600,0.13580440,0.29978292,0.26242027,0.39381263,0.53901505
0,3570,CanadaOntarioYork,Ontario,York,2021-01-17 17:25:15.430580,2020-04-03 00:00:00.000000,0.18956665,0.27024095,0.56187708,2276,3244,6746,1169,1745,3881,0.09741020,0.14534481,0.32325786,0.23954175,0.34985987,0.47740377
0,3570,CanadaOntarioYork,Ontario,York,2021-01-17 17:25:15.430580,2020-04-04 00:00:00.000000,0.19450401,0.28294278,0.58071003,2335,3397,6972,1217,1848,4056,0.10140465,0.15397898,0.33778635,0.22752183,0.30409224,0.41542252
0,3570,CanadaOntarioYork,Ontario,York,2021-01-17 17:25:15.430580,2020-04-05 00:00:00.000000,0.19752392,0.29222460,0.59433621,2371,3508,7136,1253,1945,4195,0.10437377,0.16198759,0.34937447,0.21667040,0.27832679,0.38297145
0,3570,CanadaOntarioYork,Ontario,York,2021-01-17 17:25:15.430580,2020-04-06 00:00:00.000000,0.20050914,0.30062321,0.60507023,2407,3609,7265,1281,2003,4326,0.10670730,0.16685552,0.36028164,0.20207805,0.26803764,0.35808074
0,3570,CanadaOntarioYork,Ontario,York,2021-01-17 17:25:15.430580,2020-04-07 00:00:00.000000,0.20129610,0.30443641,0.61510790,2417,3655,7385,1305,2043,4536,0.10870133,0.17017247,0.37778632,0.19351268,0.25711112,0.35014822
0,3570,CanadaOntarioYork,Ontario,York,2021-01-17 17:25:15.430580,2020-04-08 00:00:00.000000,0.20066832,0.30713650,0.62438049,2409,3687,7497,1326,2106,4715,0.11048865,0.17542219,0.39270663,0.18183883,0.25164748,0.34145303
0,3570,CanadaOntarioYork,Ontario,York,2021-01-17 17:25:15.430580,2020-04-09 00:00:00.000000,0.19968799,0.30851220,0.63264519,2397,3704,7596,1346,2154,4865,0.11214178,0.17945889,0.40524275,0.17954982,0.24482842,0.33912032
0,3570,CanadaOntarioYork,Ontario,York,2021-01-17 17:25:15.430580,2020-04-10 00:00:00.000000,0.19841069,0.30992308,0.63920393,2382,3721,7675,1365,2184,4989,0.11368436,0.18191549,0.41553448,0.16313969,0.23678792,0.33530309
0,3570,CanadaOntarioYork,Ontario,York,2021-01-17 17:25:15.430580,2020-04-11 00:00:00.000000,0.19694517,0.31099292,0.64308517,2364,3734,7721,1381,2210,5088,0.11508425,0.18409039,0.42380046,0.16134226,0.22810784,0.33607062
0,3570,CanadaOntarioYork,Ontario,York,2021-01-17 17:25:15.430580,2020-04-12 00:00:00.000000,0.19545126,0.31181531,0.64379231,2346,3744,7730,1395,2240,5160,0.11623424,0.18658761,0.42972928,0.16063145,0.21950741,0.33628610
0,3570,CanadaOntarioYork,Ontario,York,2021-01-17 17:25:15.430580,2020-04-13 00:00:00.000000,0.19407361,0.31099885,0.64204663,2330,3734,7709,1401,2269,5189,0.11671971,0.18898934,0.43214606,0.15860780,0.21191004,0.33587792
0,3570,CanadaOntarioYork,Ontario,York,2021-01-17 17:25:15.430580,2020-04-14 00:00:00.000000,0.19302779,0.31047611,0.63850153,2317,3728,7666,1393,2275,5195,0.11602606,0.18948038,0.43269637,0.15680235,0.20921969,0.33452578
0,3570,CanadaOntarioYork,Ontario,York,2021-01-17 17:25:15.430580,2020-04-15 00:00:00.000000,0.19232071,0.30936679,0.63384469,2309,3714,7610,1385,2276,5184,0.11537075,0.18954703,0.43175108,0.15526613,0.20603602,0.29699674
0,3570,CanadaOntarioYork,Ontario,York,2021-01-17 17:25:15.430580,2020-04-16 00:00:00.000000,0.19183416,0.30845731,0.62844268,2303,3703,7546,1378,2276,5151,0.11481690,0.18957287,0.42900096,0.14672804,0.19905907,0.26650081
0,3570,CanadaOntarioYork,Ontario,York,2021-01-17 17:25:15.430580,2020-04-17 00:00:00.000000,0.19146002,0.30666838,0.62245920,2298,3682,7474,1366,2275,5114,0.11377677,0.18954549,0.42597148,0.13928870,0.19680596,0.25807473
0,3570,CanadaOntarioYork,Ontario,York,2021-01-17 17:25:15.430580,2020-04-18 00:00:00.000000,0.18786998,0.30395224,0.61594691,2255,3649,7396,1344,2270,5074,0.11200687,0.18910568,0.42264211,0.13369152,0.19234838,0.25634506
0,3570,CanadaOntarioYork,Ontario,York,2021-01-17 17:25:15.430580,2020-04-19 00:00:00.000000,0.18232688,0.30037218,0.60889551,2189,3606,7311,1321,2241,5030,0.11008710,0.18666794,0.41896461,0.13244109,0.18616437,0.25409927
0,3570,CanadaOntarioYork,Ontario,York,2021-01-17 17:25:15.430580,2020-04-20 00:00:00.000000,0.17699303,0.29676170,0.60109125,2125,3563,7217,1298,2211,4981,0.10810458,0.18417045,0.41489769,0.13158133,0.18342622,0.25019387
0,3570,CanadaOntarioYork,Ontario,York,2021-01-17 17:25:15.430580,2020-04-21 00:00:00.000000,0.17178962,0.29201523,0.59272679,2062,3506,7117,1274,2176,4926,0.10610533,0.18129031,0.41031236,0.12824598,0.18072582,0.24311493
0,3570,CanadaOntarioYork,Ontario,York,2021-01-17 17:25:15.430580,2020-04-22 00:00:00.000000,0.16672869,0.28593475,0.58381212,2002,3433,7010,1245,2148,4864,0.10376743,0.17890609,0.40512260,0.12841750,0.17745271,0.23599089
0,3570,CanadaOntarioYork,Ontario,York,2021-01-17 17:25:15.430580,2020-04-23 00:00:00.000000,0.16181386,0.28068058,0.57439101,1942,3370,6897,1209,2122,4797,0.10074694,0.17673585,0.39954121,0.12940684,0.17858537,0.23295838
0,3570,CanadaOntarioYork,Ontario,York,2021-01-17 17:25:15.430580,2020-04-24 00:00:00.000000,0.15704941,0.27699178,0.56453026,1885,3326,6778,1174,2081,4726,0.09780035,0.17338482,0.39359115,0.12128034,0.17459912,0.23255650
0,3570,CanadaOntarioYork,Ontario,York,2021-01-17 17:25:15.430580,2020-04-25 00:00:00.000000,0.15243279,0.27312024,0.55431395,1830,3279,6655,1139,2037,4650,0.09493404,0.16969777,0.38730599,0.12004733,0.17423803,0.23934064
0,3570,CanadaOntarioYork,Ontario,York,2021-01-17 17:25:15.430580,2020-04-26 00:00:00.000000,0.15001815,0.26821103,0.54383620,1801,3220,6530,1106,2016,4571,0.09215078,0.16791882,0.38073066,0.11885723,0.17396351,0.22172528
0,3570,CanadaOntarioYork,Ontario,York,2021-01-17 17:25:15.430580,2020-04-27 00:00:00.000000,0.14955609,0.26020821,0.53318481,1795,3124,6402,1092,2000,4489,0.09101634,0.16656543,0.37391926,0.11816429,0.17262433,0.21997049
0,3570,CanadaOntarioYork,Ontario,York,2021-01-17 17:25:15.430580,2020-04-28 00:00:00.000000,0.14548548,0.25529378,0.52247599,1746,3065,6273,1054,1972,4405,0.08785436,0.16425446,0.36692841,0.11815721,0.17306970,0.22259668
0,3570,CanadaOntarioYork,Ontario,York,2021-01-17 17:25:15.430580,2020-04-29 00:00:00.000000,0.13893310,0.25064165,0.51184898,1668,3009,6146,1012,1946,4320,0.08431507,0.16211527,0.35982539,0.11902444,0.17354218,0.22251941
0,3570,CanadaOntarioYork,Ontario,York,2021-01-17 17:25:15.430580,2020-04-30 00:00:00.000000,0.13256773,0.24572606,0.50764576,1591,2950,6095,980,1917,4234,0.08161771,0.15972547,0.35269040,0.12141733,0.17275699,0.22221338
0,3570,CanadaOntarioYork,Ontario,York,2021-01-17 17:25:15.430580,2020-05-01 00:00:00.000000,0.12763539,0.23986330,0.50747212,1532,2880,6093,950,1881,4181,0.07919480,0.15669117,0.34821336,0.12621167,0.17171355,0.22436643
0,3570,CanadaOntarioYork,Ontario,York,2021-01-17 17:25:15.430580,2020-05-02 00:00:00.000000,0.12463141,0.23215000,0.50508849,1496,2787,6064,923,1846,4189,0.07692313,0.15377588,0.34888219,0.12071788,0.17044810,0.22581915
0,3570,CanadaOntarioYork,Ontario,York,2021-01-17 17:25:15.430580,2020-05-03 00:00:00.000000,0.12249770,0.22557076,0.50121408,1470,2708,6018,899,1814,4166,0.07489004,0.15113352,0.34701530,0.11859562,0.16572729,0.22713721
0,3570,CanadaOntarioYork,Ontario,York,2021-01-17 17:25:15.430580,2020-05-04 00:00:00.000000,0.12123278,0.22143742,0.49657389,1455,2658,5962,879,1788,4117,0.07326333,0.14894748,0.34287530,0.11841302,0.16497652,0.22556737
0,3570,CanadaOntarioYork,Ontario,York,2021-01-17 17:25:15.430580,2020-05-05 00:00:00.000000,0.12065593,0.21595823,0.49104510,1448,2593,5896,865,1753,4071,0.07207290,0.14607184,0.33904023,0.11839214,0.16453386,0.22869003
0,3570,CanadaOntarioYork,Ontario,York,2021-01-17 17:25:15.430580,2020-05-06 00:00:00.000000,0.12052253,0.21149776,0.48398363,1447,2539,5811,856,1713,4028,0.07129424,0.14269958,0.33550591,0.11844752,0.16506103,0.23205998
0,3570,CanadaOntarioYork,Ontario,York,2021-01-17 17:25:15.430580,2020-05-07 00:00:00.000000,0.12061480,0.20844216,0.47506156,1448,2502,5704,850,1674,3989,0.07084497,0.13946728,0.33223986,0.11852630,0.17014404,0.23215995
0,3570,CanadaOntarioYork,Ontario,York,2021-01-17 17:25:15.430580,2020-05-08 00:00:00.000000,0.12080521,0.20518806,0.46487410,1450,2463,5582,848,1633,3952,0.07062838,0.13600793,0.32918475,0.11955473,0.17090837,0.23227900
0,3570,CanadaOntarioYork,Ontario,York,2021-01-17 17:25:15.430580,2020-05-09 00:00:00.000000,0.12102254,0.20043902,0.45416108,1453,2406,5453,847,1597,3917,0.07056312,0.13301522,0.32624538,0.12547652,0.17295963,0.23899090
0,3570,CanadaOntarioYork,Ontario,York,2021-01-17 17:25:15.430580,2020-05-10 00:00:00.000000,0.12119108,0.19665330,0.44836198,1455,2361,5383,847,1570,3882,0.07058618,0.13079437,0.32333138,0.12771072,0.17329957,0.24958988
0,3570,CanadaOntarioYork,Ontario,York,2021-01-17 17:25:15.430580,2020-05-11 00:00:00.000000,0.12107162,0.19324595,0.44374379,1453,2320,5328,848,1543,3827,0.07064372,0.12857904,0.31878954,0.12865706,0.17347907,0.25307485
0,3570,CanadaOntarioYork,Ontario,York,2021-01-17 17:25:15.430580,2020-05-12 00:00:00.000000,0.12079695,0.19093556,0.43914683,1450,2292,5273,848,1524,3747,0.07064461,0.12692498,0.31205874,0.12820849,0.17476459,0.26664132
0,3570,CanadaOntarioYork,Ontario,York,2021-01-17 17:25:15.430580,2020-05-13 00:00:00.000000,0.12041984,0.18787977,0.43463511,1445,2255,5218,847,1488,3663,0.07057117,0.12398563,0.30513027,0.12683583,0.17660930,0.27305919
0,3570,CanadaOntarioYork,Ontario,York,2021-01-17 17:25:15.430580,2020-05-14 00:00:00.000000,0.12000730,0.18558131,0.43026616,1441,2228,5166,845,1457,3579,0.07042989,0.12137202,0.29811184,0.12661218,0.17925676,0.27428072
0,3570,CanadaOntarioYork,Ontario,York,2021-01-17 17:25:15.430580,2020-05-15 00:00:00.000000,0.11949856,0.18364791,0.42607170,1434,2205,5116,843,1439,3521,0.07024207,0.11989513,0.29330547,0.12686616,0.18582638,0.27696775
0,3570,CanadaOntarioYork,Ontario,York,2021-01-17 17:25:15.430580,2020-05-16 00:00:00.000000,0.11699158,0.18150126,0.42205031,1404,2179,5067,840,1424,3486,0.07003280,0.11864846,0.29038588,0.12512340,0.18378854,0.29874570
0,3570,CanadaOntarioYork,Ontario,York,2021-01-17 17:25:15.430580,2020-05-17 00:00:00.000000,0.11472473,0.18010096,0.41822411,1377,2162,5021,833,1409,3453,0.06942678,0.11740418,0.28757620,0.12141920,0.18497476,0.30107730
0,3570,CanadaOntarioYork,Ontario,York,2021-01-17 17:25:15.430580,2020-05-18 00:00:00.000000,0.11280321,0.17874137,0.41462338,1354,2146,4978,820,1395,3420,0.06832639,0.11619510,0.28488923,0.11832696,0.18238879,0.30049383
0,3570,CanadaOntarioYork,Ontario,York,2021-01-17 17:25:15.430580,2020-05-19 00:00:00.000000,0.11131138,0.17760243,0.41116297,1336,2132,4937,808,1383,3390,0.06736311,0.11522895,0.28233752,0.11619642,0.18329530,0.29882133
0,3570,CanadaOntarioYork,Ontario,York,2021-01-17 17:25:15.430580,2020-05-20 00:00:00.000000,0.11036295,0.17605065,0.40778602,1325,2113,4896,798,1369,3360,0.06652270,0.11401306,0.27990028,0.11487995,0.18752119,0.29556483
0,3570,CanadaOntarioYork,Ontario,York,2021-01-17 17:25:15.430580,2020-05-21 00:00:00.000000,0.10999730,0.17364078,0.40443895,1320,2085,4856,789,1352,3332,0.06577127,0.11266307,0.27754761,0.11413791,0.18224850,0.29099066
0,3570,CanadaOntarioYork,Ontario,York,2021-01-17 17:25:15.430580,2020-05-22 00:00:00.000000,0.11014332,0.17190097,0.40107832,1322,2064,4815,781,1331,3293,0.06506751,0.11088277,0.27429403,0.11376614,0.18520334,0.28455069
0,3570,CanadaOntarioYork,Ontario,York,2021-01-17 17:25:15.430580,2020-05-23 00:00:00.000000,0.11064514,0.17096325,0.39461754,1328,2052,4738,772,1309,3220,0.06436167,0.10901614,0.26818984,0.11367182,0.18233271,0.27707058
0,3570,CanadaOntarioYork,Ontario,York,2021-01-17 17:25:15.430580,2020-05-24 00:00:00.000000,0.11002541,0.16948097,0.38544168,1321,2035,4628,763,1292,3147,0.06359898,0.10762259,0.26212606,0.11314707,0.18321812,0.28353834
0,3570,CanadaOntarioYork,Ontario,York,2021-01-17 17:25:15.430580,2020-05-25 00:00:00.000000,0.11062544,0.16624803,0.37634157,1328,1996,4518,753,1274,3075,0.06272895,0.10614700,0.25614786,0.11381246,0.18241244,0.28835572
0,3570,CanadaOntarioYork,Ontario,York,2021-01-17 17:25:15.430580,2020-05-26 00:00:00.000000,0.10930761,0.16477136,0.36753626,1312,1978,4413,740,1252,3004,0.06169338,0.10428346,0.25024300,0.10839306,0.18133203,0.29066015
0,3570,CanadaOntarioYork,Ontario,York,2021-01-17 17:25:15.430580,2020-05-27 00:00:00.000000,0.10753694,0.16200754,0.35902478,1291,1945,4311,731,1234,2935,0.06096009,0.10280594,0.24444991,0.10843224,0.18041136,0.29123903
0,3570,CanadaOntarioYork,Ontario,York,2021-01-17 17:25:15.430580,2020-05-28 00:00:00.000000,0.10378811,0.16115742,0.35079864,1246,1935,4212,736,1217,2867,0.06134557,0.10139740,0.23879468,0.11399945,0.17755831,0.30158245
0,3570,CanadaOntarioYork,Ontario,York,2021-01-17 17:25:15.430580,2020-05-29 00:00:00.000000,0.09993140,0.15867482,0.34282141,1199,1905,4116,739,1201,2801,0.06159760,0.10002376,0.23329183,0.11269127,0.17623894,0.28947003
0,3570,CanadaOntarioYork,Ontario,York,2021-01-17 17:25:15.430580,2020-05-30 00:00:00.000000,0.09599523,0.15676850,0.33502376,1152,1882,4022,738,1185,2737,0.06153093,0.09876286,0.22794055,0.10944615,0.17378005,0.28653823
0,3570,CanadaOntarioYork,Ontario,York,2021-01-17 17:25:15.430580,2020-05-31 00:00:00.000000,0.09205236,0.15392116,0.32738984,1105,1848,3931,723,1164,2674,0.06028839,0.09694504,0.22272108,0.10574811,0.16736595,0.28011976
0,3570,CanadaOntarioYork,Ontario,York,2021-01-17 17:25:15.430580,2020-06-01 00:00:00.000000,0.08945356,0.15133498,0.32008897,1074,1817,3843,695,1141,2613,0.05794402,0.09510174,0.21762052,0.10091536,0.16281502,0.26941852
0,3570,CanadaOntarioYork,Ontario,York,2021-01-17 17:25:15.430580,2020-06-02 00:00:00.000000,0.08720258,0.14900738,0.31289090,1047,1789,3757,667,1120,2553,0.05561498,0.09328216,0.21267252,0.10573952,0.16036925,0.26703741
0,3570,CanadaOntarioYork,Ontario,York,2021-01-17 17:25:15.430580,2020-06-03 00:00:00.000000,0.08547401,0.14586667,0.30576673,1026,1751,3671,646,1105,2495,0.05380077,0.09203932,0.20785036,0.10198070,0.15684160,0.26430609
0,3570,CanadaOntarioYork,Ontario,York,2021-01-17 17:25:15.430580,2020-06-04 00:00:00.000000,0.08428891,0.14135137,0.29882187,1012,1697,3588,627,1077,2439,0.05224636,0.08975233,0.20312796,0.10001881,0.15127504,0.25723826
0,3570,CanadaOntarioYork,Ontario,York,2021-01-17 17:25:15.430580,2020-06-05 00:00:00.000000,0.08329842,0.13779583,0.29234413,1000,1654,3510,607,1053,2383,0.05062954,0.08776374,0.19851092,0.09717972,0.14911062,0.24859945
0,3570,CanadaOntarioYork,Ontario,York,2021-01-17 17:25:15.430580,2020-06-06 00:00:00.000000,0.08078335,0.13320435,0.28677561,970,1599,3443,588,1028,2330,0.04900936,0.08562003,0.19406680,0.09539313,0.14582205,0.23784946
0,3570,CanadaOntarioYork,Ontario,York,2021-01-17 17:25:15.430580,2020-06-07 00:00:00.000000,0.07746393,0.12817934,0.28232426,930,1539,3390,564,999,2280,0.04703850,0.08326187,0.18993834,0.09556059,0.14427987,0.23361292
0,3570,CanadaOntarioYork,Ontario,York,2021-01-17 17:25:15.430580,2020-06-08 00:00:00.000000,0.07420122,0.12405409,0.27335014,890,1489,3282,549,975,2236,0.04579731,0.08126208,0.18626574,0.09431042,0.14155344,0.23213658
0,3570,CanadaOntarioYork,Ontario,York,2021-01-17 17:25:15.430580,2020-06-09 00:00:00.000000,0.07109023,0.12056141,0.26367834,853,1447,3166,531,950,2197,0.04422743,0.07916259,0.18303987,0.09344026,0.14094819,0.24037892
0,3570,CanadaOntarioYork,Ontario,York,2021-01-17 17:25:15.430580,2020-06-10 00:00:00.000000,0.06811507,0.11715635,0.25426190,817,1406,3053,512,925,2162,0.04270492,0.07710799,0.18012093,0.09312048,0.13736696,0.23100197
0,3570,CanadaOntarioYork,Ontario,York,2021-01-17 17:25:15.430580,2020-06-11 00:00:00.000000,0.06524632,0.11384962,0.24508336,783,1367,2942,495,902,2128,0.04123341,0.07513085,0.17723937,0.09306666,0.13682599,0.22888963
0,3570,CanadaOntarioYork,Ontario,York,2021-01-17 17:25:15.430580,2020-06-12 00:00:00.000000,0.06242702,0.10985324,0.23613412,749,1319,2835,478,877,2065,0.03983016,0.07311915,0.17200519,0.09616719,0.13512217,0.21968974
0,3570,CanadaOntarioYork,Ontario,York,2021-01-17 17:25:15.430580,2020-06-13 00:00:00.000000,0.06005200,0.10682213,0.22741473,721,1282,2730,461,855,1990,0.03847534,0.07120530,0.16581000,0.09551176,0.13351525,0.20796915
0,3570,CanadaOntarioYork,Ontario,York,2021-01-17 17:25:15.430580,2020-06-14 00:00:00.000000,0.05873347,0.10416691,0.21891729,705,1250,2628,446,834,1918,0.03716300,0.06950077,0.15977215,0.09487419,0.13647541,0.21443756
0,3570,CanadaOntarioYork,Ontario,York,2021-01-17 17:25:15.430580,2020-06-15 00:00:00.000000,0.05733746,0.10138083,0.21062503,688,1217,2529,435,804,1847,0.03630436,0.06703188,0.15389336,0.09465184,0.13740343,0.22812387
0,3570,CanadaOntarioYork,Ontario,York,2021-01-17 17:25:15.430580,2020-06-16 00:00:00.000000,0.05595159,0.09868605,0.20261149,671,1184,2432,426,775,1779,0.03548968,0.06462080,0.14817324,0.09416714,0.13736382,0.22875273
0,3570,CanadaOntarioYork,Ontario,York,2021-01-17 17:25:15.430580,2020-06-17 00:00:00.000000,0.05458262,0.09595384,0.19488621,655,1152,2340,416,747,1712,0.03466700,0.06228301,0.14262478,0.09314848,0.13887199,0.22817022
0,3570,CanadaOntarioYork,Ontario,York,2021-01-17 17:25:15.430580,2020-06-18 00:00:00.000000,0.05321050,0.09311078,0.18745733,638,1118,2250,406,728,1648,0.03384212,0.06068323,0.13725742,0.09327628,0.13973464,0.22768186
0,3570,CanadaOntarioYork,Ontario,York,2021-01-17 17:25:15.430580,2020-06-19 00:00:00.000000,0.05179958,0.08993999,0.18035170,621,1079,2165,396,711,1585,0.03301385,0.05922760,0.13207790,0.09386031,0.13845635,0.22727823
0,3570,CanadaOntarioYork,Ontario,York,2021-01-17 17:25:15.430580,2020-06-20 00:00:00.000000,0.05030463,0.08673533,0.17368482,604,1041,2085,386,694,1526,0.03217240,0.05787580,0.12709790,0.09475039,0.13833797,0.22683473
0,3570,CanadaOntarioYork,Ontario,York,2021-01-17 17:25:15.430580,2020-06-21 00:00:00.000000,0.04868301,0.08406632,0.17037140,584,1009,2045,375,679,1494,0.03129911,0.05660821,0.12450298,0.09595226,0.13817255,0.22544951
0,3570,CanadaOntarioYork,Ontario,York,2021-01-17 17:25:15.430580,2020-06-22 00:00:00.000000,0.04683056,0.08108310,0.16748178,562,973,2011,364,665,1469,0.03037148,0.05542957,0.12234321,0.09680382,0.13737596,0.22452330
0,3570,CanadaOntarioYork,Ontario,York,2021-01-17 17:25:15.430580,2020-06-23 00:00:00.000000,0.04488194,0.07841469,0.16465461,538,941,1977,352,652,1443,0.02934702,0.05432084,0.12023859,0.08868775,0.13688135,0.22422899
0,3570,CanadaOntarioYork,Ontario,York,2021-01-17 17:25:15.430580,2020-06-24 00:00:00.000000,0.04288923,0.07584145,0.16188045,514,910,1943,339,636,1419,0.02824296,0.05297033,0.11818299,0.08831168,0.13708629,0.22412479
0,3570,CanadaOntarioYork,Ontario,York,2021-01-17 17:25:15.430580,2020-06-25 00:00:00.000000,0.04089957,0.07336848,0.15915562,491,880,1911,325,617,1394,0.02708604,0.05139181,0.11617164,0.08850293,0.13621222,0.21986817
0,3570,CanadaOntarioYork,Ontario,York,2021-01-17 17:25:15.430580,2020-06-26 00:00:00.000000,0.03894356,0.07108316,0.15458010,467,853,1856,311,598,1371,0.02590418,0.04982669,0.11420125,0.08940396,0.13557372,0.21102314
0,3570,CanadaOntarioYork,Ontario,York,2021-01-17 17:25:15.430580,2020-06-27 00:00:00.000000,0.03704135,0.06926724,0.14899235,444,831,1789,296,579,1348,0.02472070,0.04827544,0.11227070,0.08858175,0.12860445,0.20928050
0,3570,CanadaOntarioYork,Ontario,York,2021-01-17 17:25:15.430580,2020-06-28 00:00:00.000000,0.03520664,0.06749435,0.14360369,422,810,1724,282,560,1307,0.02355326,0.04667148,0.10885624,0.08389980,0.12634953,0.19935627
0,3570,CanadaOntarioYork,Ontario,York,2021-01-17 17:25:15.430580,2020-06-29 00:00:00.000000,0.03374233,0.06553466,0.13879678,405,786,1666,269,541,1267,0.02241466,0.04509595,0.10553788,0.08259555,0.12578677,0.19632195
0,3570,CanadaOntarioYork,Ontario,York,2021-01-17 17:25:15.430580,2020-06-30 00:00:00.000000,0.03235721,0.06275958,0.13411976,388,753,1610,256,521,1230,0.02140147,0.04346578,0.10246756,0.08173574,0.12622159,0.19449645
0,3570,CanadaOntarioYork,Ontario,York,2021-01-17 17:25:15.430580,2020-07-01 00:00:00.000000,0.03105903,0.06091137,0.12948810,372,731,1554,245,500,1191,0.02047965,0.04170089,0.09925473,0.08137074,0.12612047,0.19352710
0,3570,CanadaOntarioYork,Ontario,York,2021-01-17 17:25:15.430580,2020-07-02 00:00:00.000000,0.02983696,0.05868910,0.12484328,358,704,1499,235,479,1150,0.01962847,0.03997424,0.09577507,0.08134725,0.12488671,0.19252174
0,3570,CanadaOntarioYork,Ontario,York,2021-01-17 17:25:15.430580,2020-07-03 00:00:00.000000,0.02868263,0.05647512,0.12026327,344,678,1444,226,459,1109,0.01883483,0.03829804,0.09239368,0.08152938,0.12221998,0.19202870
0,3570,CanadaOntarioYork,Ontario,York,2021-01-17 17:25:15.430580,2020-07-04 00:00:00.000000,0.02758853,0.05409510,0.11642267,331,649,1397,217,440,1069,0.01808998,0.03667971,0.08907132,0.08183439,0.12161938,0.19192222
0,3570,CanadaOntarioYork,Ontario,York,2021-01-17 17:25:15.430580,2020-07-05 00:00:00.000000,0.02661660,0.05184996,0.11241251,319,622,1349,208,419,1030,0.01738741,0.03496563,0.08578993,0.07771089,0.12012292,0.19219777
0,3570,CanadaOntarioYork,Ontario,York,2021-01-17 17:25:15.430580,2020-07-06 00:00:00.000000,0.02534616,0.04968421,0.10862512,304,596,1304,205,403,991,0.01708072,0.03363478,0.08255402,0.07532450,0.12125238,0.19294715
0,3570,CanadaOntarioYork,Ontario,York,2021-01-17 17:25:15.430580,2020-07-07 00:00:00.000000,0.02405853,0.04824545,0.10489159,288,579,1259,198,387,951,0.01649837,0.03224179,0.07927816,0.07362586,0.12037886,0.19420868
0,3570,CanadaOntarioYork,Ontario,York,2021-01-17 17:25:15.430580,2020-07-08 00:00:00.000000,0.02279968,0.04650537,0.10125402,273,558,1215,189,371,912,0.01577195,0.03094212,0.07601437,0.07212512,0.12075272,0.19607313
0,3570,CanadaOntarioYork,Ontario,York,2021-01-17 17:25:15.430580,2020-07-09 00:00:00.000000,0.02162540,0.04486117,0.09767942,259,538,1172,179,357,874,0.01498368,0.02974060,0.07282584,0.07377744,0.12254511,0.19911617
0,3570,CanadaOntarioYork,Ontario,York,2021-01-17 17:25:15.430580,2020-07-10 00:00:00.000000,0.02050102,0.04329374,0.09416446,246,519,1130,170,344,838,0.01418340,0.02870596,0.06980372,0.07493272,0.12453566,0.19921602
0,3570,CanadaOntarioYork,Ontario,York,2021-01-17 17:25:15.430580,2020-07-11 00:00:00.000000,0.01943016,0.04182480,0.09068799,233,502,1088,160,334,810,0.01340056,0.02782437,0.06754036,0.07559472,0.12472651,0.19927101
0,3570,CanadaOntarioYork,Ontario,York,2021-01-17 17:25:15.430580,2020-07-12 00:00:00.000000,0.01841413,0.04064468,0.08858433,221,488,1063,151,323,794,0.01265143,0.02693171,0.06617324,0.07358329,0.12477808,0.19981518
0,3570,CanadaOntarioYork,Ontario,York,2021-01-17 17:25:15.430580,2020-07-13 00:00:00.000000,0.01758052,0.03925586,0.08669296,211,471,1040,143,311,778,0.01194290,0.02597061,0.06483298,0.07313625,0.12657748,0.19995035
0,3570,CanadaOntarioYork,Ontario,York,2021-01-17 17:25:15.430580,2020-07-14 00:00:00.000000,0.01680662,0.03788604,0.08489752,201,454,1019,135,300,762,0.01127284,0.02506386,0.06351260,0.07349526,0.12808639,0.19960591
0,3570,CanadaOntarioYork,Ontario,York,2021-01-17 17:25:15.430580,2020-07-15 00:00:00.000000,0.01609770,0.03639362,0.08317750,193,437,998,128,289,747,0.01067794,0.02409794,0.06222666,0.07297264,0.12905556,0.19848507
0,3570,CanadaOntarioYork,Ontario,York,2021-01-17 17:25:15.430580,2020-07-16 00:00:00.000000,0.01546732,0.03485865,0.08151354,185,418,978,122,277,731,0.01020416,0.02311367,0.06095579,0.07239581,0.12750943,0.19797183
0,3570,CanadaOntarioYork,Ontario,York,2021-01-17 17:25:15.430580,2020-07-17 00:00:00.000000,0.01494025,0.03345980,0.07989081,179,401,959,117,266,716,0.00977704,0.02218908,0.05971014,0.07419047,0.12924160,0.19947633
0,3570,CanadaOntarioYork,Ontario,York,2021-01-17 17:25:15.430580,2020-07-18 00:00:00.000000,0.01449904,0.03260237,0.07830015,174,391,940,112,256,702,0.00940222,0.02132328,0.05850076,0.08054972,0.12962540,0.20057939
0,3570,CanadaOntarioYork,Ontario,York,2021-01-17 17:25:15.430580,2020-07-19 00:00:00.000000,0.01410732,0.03208031,0.07673540,169,385,921,109,246,688,0.00907845,0.02051561,0.05732299,0.08078137,0.13009705,0.20226634
0,3570,CanadaOntarioYork,Ontario,York,2021-01-17 17:25:15.430580,2020-07-20 00:00:00.000000,0.01374128,0.03097634,0.07516529,164,371,902,105,238,674,0.00879547,0.01984083,0.05617231,0.08402963,0.13151764,0.20365910
0,3570,CanadaOntarioYork,Ontario,York,2021-01-17 17:25:15.430580,2020-07-21 00:00:00.000000,0.01339625,0.02981404,0.07360815,160,357,883,102,230,660,0.00854025,0.01921386,0.05503851,0.08561199,0.13139184,0.20424904
0,3570,CanadaOntarioYork,Ontario,York,2021-01-17 17:25:15.430580,2020-07-22 00:00:00.000000,0.01306642,0.02898203,0.07159950,156,348,859,99,223,647,0.00830784,0.01862471,0.05391896,0.08633371,0.13619238,0.20481474
0,3570,CanadaOntarioYork,Ontario,York,2021-01-17 17:25:15.430580,2020-07-23 00:00:00.000000,0.01274819,0.02783708,0.06880193,153,334,826,97,216,634,0.00809457,0.01807011,0.05280953,0.08710530,0.13791409,0.20665828
0,3570,CanadaOntarioYork,Ontario,York,2021-01-17 17:25:15.430580,2020-07-24 00:00:00.000000,0.01255769,0.02721903,0.06611176,150,326,793,94,209,620,0.00789185,0.01745435,0.05170400,0.08806049,0.14195280,0.21215760
0,3570,CanadaOntarioYork,Ontario,York,2021-01-17 17:25:15.430580,2020-07-25 00:00:00.000000,0.01253296,0.02648196,0.06352647,150,317,762,92,204,600,0.00769718,0.01699219,0.04998729,0.08804391,0.14849801,0.22509690
0,3570,CanadaOntarioYork,Ontario,York,2021-01-17 17:25:15.430580,2020-07-26 00:00:00.000000,0.01258535,0.02578380,0.06105539,151,309,733,90,198,577,0.00750919,0.01651966,0.04805526,0.08790885,0.15104098,0.24202976
0,3570,CanadaOntarioYork,Ontario,York,2021-01-17 17:25:15.430580,2020-07-27 00:00:00.000000,0.01271313,0.02541684,0.05887859,152,305,706,87,194,554,0.00732725,0.01619485,0.04619567,0.08751601,0.15214911,0.24556045
0,3570,CanadaOntarioYork,Ontario,York,2021-01-17 17:25:15.430580,2020-07-28 00:00:00.000000,0.01250216,0.02471759,0.05694354,150,296,683,86,190,533,0.00717836,0.01584173,0.04445251,0.08651213,0.15121523,0.24757979
0,3570,CanadaOntarioYork,Ontario,York,2021-01-17 17:25:15.430580,2020-07-29 00:00:00.000000,0.01234215,0.02419519,0.05513648,148,290,662,84,186,514,0.00707622,0.01550076,0.04284322,0.08543574,0.15609508,0.25300984
0,3570,CanadaOntarioYork,Ontario,York,2021-01-17 17:25:15.430580,2020-07-30 00:00:00.000000,0.01222550,0.02385426,0.05348307,146,286,642,86,180,496,0.00717248,0.01504333,0.04135225,0.08646049,0.15868346,0.25154370
0,3570,CanadaOntarioYork,Ontario,York,2021-01-17 17:25:15.430580,2020-07-31 00:00:00.000000,0.01195118,0.02353545,0.05206441,143,282,625,87,178,480,0.00729131,0.01484677,0.03997482,0.09454047,0.16144819,0.25339860
0,3570,CanadaOntarioYork,Ontario,York,2021-01-17 17:25:15.430580,2020-08-01 00:00:00.000000,0.01140003,0.02319624,0.05144797,136,278,617,87,175,465,0.00729199,0.01464375,0.03872701,0.09614801,0.16650080,0.25672454
0,3570,CanadaOntarioYork,Ontario,York,2021-01-17 17:25:15.430580,2020-08-02 00:00:00.000000,0.01089322,0.02308676,0.05180154,130,277,622,86,172,452,0.00723823,0.01438965,0.03764324,0.09536412,0.17028686,0.26245632
0,3570,CanadaOntarioYork,Ontario,York,2021-01-17 17:25:15.430580,2020-08-03 00:00:00.000000,0.01084402,0.02272970,0.05214867,130,272,626,86,171,441,0.00719619,0.01429546,0.03674871,0.09514185,0.17602120,0.27289621
0,3570,CanadaOntarioYork,Ontario,York,2021-01-17 17:25:15.430580,2020-08-04 00:00:00.000000,0.01137844,0.02252492,0.05211761,136,270,625,86,171,432,0.00718191,0.01426215,0.03603626,0.09841859,0.17680273,0.28974789
0,3570,CanadaOntarioYork,Ontario,York,2021-01-17 17:25:15.430580,2020-08-05 00:00:00.000000,0.01193050,0.02248152,0.05180558,143,269,622,83,170,425,0.00699153,0.01420518,0.03547329,0.10308331,0.17858253,0.29077066
0,3570,CanadaOntarioYork,Ontario,York,2021-01-17 17:25:15.430580,2020-08-06 00:00:00.000000,0.01202470,0.02245347,0.05137504,144,269,616,86,168,420,0.00718090,0.01407354,0.03502400,0.10525077,0.18338995,0.33241124
0,3570,CanadaOntarioYork,Ontario,York,2021-01-17 17:25:15.430580,2020-08-07 00:00:00.000000,0.01188059,0.02232860,0.05090123,142,268,611,86,166,416,0.00718231,0.01385688,0.03465819,0.11616369,0.19204801,0.34404562
0,3570,CanadaOntarioYork,Ontario,York,2021-01-17 17:25:15.430580,2020-08-08 00:00:00.000000,0.01180803,0.02239529,0.05073990,141,268,609,86,164,412,0.00718896,0.01368003,0.03435346,0.12103055,0.19872109,0.35447547
0,3570,CanadaOntarioYork,Ontario,York,2021-01-17 17:25:15.430580,2020-08-09 00:00:00.000000,0.01181460,0.02214019,0.05206315,141,265,625,86,165,409,0.00720450,0.01378721,0.03409761,0.12732884,0.20451584,0.36466276
0,3570,CanadaOntarioYork,Ontario,York,2021-01-17 17:25:15.430580,2020-08-10 00:00:00.000000,0.01195627,0.02231782,0.05196516,143,267,623,86,167,406,0.00719340,0.01395113,0.03389425,0.12734924,0.21034085,0.36466806
0,3570,CanadaOntarioYork,Ontario,York,2021-01-17 17:25:15.430580,2020-08-11 00:00:00.000000,0.01188020,0.02269676,0.05170800,142,272,620,86,168,405,0.00724189,0.01407341,0.03375561,0.12749203,0.21883826,0.36467055
0,3570,CanadaOntarioYork,Ontario,York,2021-01-17 17:25:15.430580,2020-08-12 00:00:00.000000,0.01191742,0.02315075,0.05147488,143,277,618,87,169,405,0.00732066,0.01411317,0.03373712,0.12972791,0.22368706,0.36467404
0,3570,CanadaOntarioYork,Ontario,York,2021-01-17 17:25:15.430580,2020-08-13 00:00:00.000000,0.01180103,0.02366186,0.05129503,141,284,615,88,169,415,0.00738859,0.01410301,0.03459396,0.13700898,0.22929200,0.36468124
0,3570,CanadaOntarioYork,Ontario,York,2021-01-17 17:25:15.430580,2020-08-14 00:00:00.000000,0.01166413,0.02412623,0.05123228,140,289,615,90,170,426,0.00749857,0.01421117,0.03548178,0.16442998,0.24052976,0.36469855
0,3570,CanadaOntarioYork,Ontario,York,2021-01-17 17:25:15.430580,2020-08-15 00:00:00.000000,0.01162491,0.02464249,0.05136632,139,295,616,89,174,433,0.00744191,0.01454324,0.03609414,0.16771248,0.25489724,0.36743831
0,3570,CanadaOntarioYork,Ontario,York,2021-01-17 17:25:15.430580,2020-08-16 00:00:00.000000,0.01183905,0.02531722,0.05251977,142,303,630,88,176,432,0.00735905,0.01470414,0.03602220,0.16999314,0.26750744,0.36773740
0,3570,CanadaOntarioYork,Ontario,York,2021-01-17 17:25:15.430580,2020-08-17 00:00:00.000000,0.01229032,0.02607065,0.05428908,147,313,651,87,181,432,0.00731177,0.01511116,0.03604735,0.17302532,0.27168219,0.36789442
0,3570,CanadaOntarioYork,Ontario,York,2021-01-17 17:25:15.430580,2020-08-18 00:00:00.000000,0.01293872,0.02694972,0.05636960,155,323,676,89,185,436,0.00744791,0.01542251,0.03631291,0.17525684,0.28300016,0.37681104
0,3570,CanadaOntarioYork,Ontario,York,2021-01-17 17:25:15.430580,2020-08-19 00:00:00.000000,0.01328030,0.02786734,0.05873091,159,334,705,92,189,441,0.00767396,0.01576509,0.03675791,0.18435379,0.28821954,0.39946087
0,3570,CanadaOntarioYork,Ontario,York,2021-01-17 17:25:15.430580,2020-08-20 00:00:00.000000,0.01387866,0.02883267,0.06135879,166,346,736,92,195,452,0.00773353,0.01629149,0.03771552,0.20857920,0.29732792,0.41595806
0,3570,CanadaOntarioYork,Ontario,York,2021-01-17 17:25:15.430580,2020-08-21 00:00:00.000000,0.01464527,0.02993799,0.06427148,175,359,771,94,202,470,0.00791077,0.01683467,0.03915236,0.21714725,0.30743680,0.42923826
0,3570,CanadaOntarioYork,Ontario,York,2021-01-17 17:25:15.430580,2020-08-22 00:00:00.000000,0.01562508,0.03127100,0.06752445,187,375,810,99,208,489,0.00827799,0.01738908,0.04077463,0.22632220,0.31933041,0.45602522
0,3570,CanadaOntarioYork,Ontario,York,2021-01-17 17:25:15.430580,2020-08-23 00:00:00.000000,0.01677710,0.03256430,0.07120447,201,391,854,104,217,511,0.00874071,0.01807283,0.04259801,0.23562903,0.32980083,0.47471088
0,3570,CanadaOntarioYork,Ontario,York,2021-01-17 17:25:15.430580,2020-08-24 00:00:00.000000,0.01791888,0.03368063,0.07575822,215,404,909,111,224,536,0.00930268,0.01873583,0.04465277,0.24193521,0.33906038,0.48998624
0,3570,CanadaOntarioYork,Ontario,York,2021-01-17 17:25:15.430580,2020-08-25 00:00:00.000000,0.01916019,0.03526228,0.07879979,230,423,946,119,232,565,0.00991749,0.01937459,0.04706055,0.24530940,0.35093972,0.49723933
0,3570,CanadaOntarioYork,Ontario,York,2021-01-17 17:25:15.430580,2020-08-26 00:00:00.000000,0.02058401,0.03716700,0.08076453,247,446,969,127,241,581,0.01058637,0.02012518,0.04843845,0.24733127,0.35873424,0.50952399
0,3570,CanadaOntarioYork,Ontario,York,2021-01-17 17:25:15.430580,2020-08-27 00:00:00.000000,0.02188677,0.03902597,0.08283609,262,468,994,135,253,596,0.01130810,0.02113043,0.04965170,0.24940603,0.37159971,0.53865846
0,3570,CanadaOntarioYork,Ontario,York,2021-01-17 17:25:15.430580,2020-08-28 00:00:00.000000,0.02296378,0.04149894,0.08520032,275,498,1023,145,267,611,0.01208215,0.02228576,0.05090799,0.25373352,0.37209002,0.53369194
0,3570,CanadaOntarioYork,Ontario,York,2021-01-17 17:25:15.430580,2020-08-29 00:00:00.000000,0.02431174,0.04400301,0.08833200,291,528,1060,154,281,627,0.01289650,0.02346455,0.05226796,0.26196150,0.37884376,0.53814284
0,3570,CanadaOntarioYork,Ontario,York,2021-01-17 17:25:15.430580,2020-08-30 00:00:00.000000,0.02608392,0.04660590,0.09263618,313,559,1112,165,297,647,0.01375734,0.02478341,0.05389490,0.26473227,0.38681728,0.54203344
0,3570,CanadaOntarioYork,Ontario,York,2021-01-17 17:25:15.430580,2020-08-31 00:00:00.000000,0.02830436,0.04965894,0.09758091,339,596,1171,176,315,672,0.01468224,0.02624302,0.05599377,0.27060246,0.39577915,0.55147861
0,3570,CanadaOntarioYork,Ontario,York,2021-01-17 17:25:15.430580,2020-09-01 00:00:00.000000,0.03019025,0.05257290,0.10304210,362,631,1237,188,336,702,0.01567391,0.02803677,0.05854348,0.29239433,0.40017331,0.56828218
0,3570,CanadaOntarioYork,Ontario,York,2021-01-17 17:25:15.430580,2020-09-02 00:00:00.000000,0.03212945,0.05612582,0.10898372,385,673,1308,200,356,738,0.01671911,0.02965305,0.06149158,0.30849591,0.40342070,0.57907099
0,3570,CanadaOntarioYork,Ontario,York,2021-01-17 17:25:15.430580,2020-09-03 00:00:00.000000,0.03451671,0.06008509,0.11557006,414,721,1387,217,377,779,0.01811254,0.03146215,0.06491535,0.31082977,0.40631765,0.57916176
0,3570,CanadaOntarioYork,Ontario,York,2021-01-17 17:25:15.430580,2020-09-04 00:00:00.000000,0.03789416,0.06411929,0.12310818,455,769,1478,239,399,833,0.01991889,0.03329304,0.06942347,0.31205420,0.41315885,0.56356884
0,3570,CanadaOntarioYork,Ontario,York,2021-01-17 17:25:15.430580,2020-09-05 00:00:00.000000,0.03991953,0.06785247,0.13190364,479,814,1583,255,422,891,0.02125837,0.03520280,0.07427936,0.31283432,0.41502214,0.57015144
0,3570,CanadaOntarioYork,Ontario,York,2021-01-17 17:25:15.430580,2020-09-06 00:00:00.000000,0.04219039,0.07176162,0.14203755,506,861,1705,271,446,954,0.02264265,0.03721954,0.07948163,0.31656773,0.42332406,0.57582557
0,3570,CanadaOntarioYork,Ontario,York,2021-01-17 17:25:15.430580,2020-09-07 00:00:00.000000,0.04466196,0.07584771,0.15333092,536,910,1841,288,475,1021,0.02404670,0.03958966,0.08503039,0.31702148,0.42278361,0.57429021
0,3570,CanadaOntarioYork,Ontario,York,2021-01-17 17:25:15.430580,2020-09-08 00:00:00.000000,0.04713217,0.08031678,0.16575345,565,964,1990,302,506,1091,0.02520293,0.04214616,0.09088148,0.31889380,0.41940954,0.57556221
0,3570,CanadaOntarioYork,Ontario,York,2021-01-17 17:25:15.430580,2020-09-09 00:00:00.000000,0.04988151,0.08545403,0.17928157,598,1026,2152,318,539,1165,0.02649374,0.04491512,0.09704924,0.32891675,0.42220410,0.59261972
0,3570,CanadaOntarioYork,Ontario,York,2021-01-17 17:25:15.430580,2020-09-10 00:00:00.000000,0.05315789,0.09070901,0.19395258,638,1089,2328,335,575,1244,0.02793293,0.04792349,0.10367610,0.33391214,0.42065195,0.58659160
0,3570,CanadaOntarioYork,Ontario,York,2021-01-17 17:25:15.430580,2020-09-11 00:00:00.000000,0.05720676,0.09680163,0.20981151,686,1162,2519,355,609,1345,0.02957841,0.05074759,0.11203936,0.33648696,0.42356362,0.57439733
0,3570,CanadaOntarioYork,Ontario,York,2021-01-17 17:25:15.430580,2020-09-12 00:00:00.000000,0.06198584,0.10365435,0.22683436,744,1244,2723,378,642,1454,0.03156276,0.05348963,0.12113469,0.33363826,0.41750960,0.59027559
0,3570,CanadaOntarioYork,Ontario,York,2021-01-17 17:25:15.430580,2020-09-13 00:00:00.000000,0.06701003,0.11016298,0.24482928,804,1322,2939,407,675,1572,0.03390359,0.05621751,0.13096521,0.32747409,0.41845449,0.60251037
0,3570,CanadaOntarioYork,Ontario,York,2021-01-17 17:25:15.430580,2020-09-14 00:00:00.000000,0.07239288,0.11786364,0.26370523,869,1415,3166,438,711,1698,0.03654434,0.05929265,0.14148191,0.32658704,0.42168408,0.58095526
0,3570,CanadaOntarioYork,Ontario,York,2021-01-17 17:25:15.430580,2020-09-15 00:00:00.000000,0.07820394,0.12688740,0.28339639,939,1523,3402,473,755,1832,0.03944409,0.06289138,0.15263081,0.32297660,0.42113385,0.57968075
0,3570,CanadaOntarioYork,Ontario,York,2021-01-17 17:25:15.430580,2020-09-16 00:00:00.000000,0.08450580,0.13529866,0.30367481,1014,1624,3646,518,808,1972,0.04314322,0.06736780,0.16428773,0.32112381,0.41727176,0.57039411
0,3570,CanadaOntarioYork,Ontario,York,2021-01-17 17:25:15.430580,2020-09-17 00:00:00.000000,0.09144633,0.14400781,0.32467352,1098,1729,3898,562,873,2118,0.04681073,0.07274251,0.17641190,0.32482062,0.41370154,0.56063946
0,3570,CanadaOntarioYork,Ontario,York,2021-01-17 17:25:15.430580,2020-09-18 00:00:00.000000,0.09808471,0.15547730,0.34651232,1177,1866,4160,600,935,2270,0.05000449,0.07794343,0.18904820,0.32155985,0.41083469,0.55102105
0,3570,CanadaOntarioYork,Ontario,York,2021-01-17 17:25:15.430580,2020-09-19 00:00:00.000000,0.10285433,0.16394792,0.36941385,1235,1968,4435,646,994,2427,0.05386149,0.08285922,0.20220396,0.32377223,0.40585642,0.53235093
0,3570,CanadaOntarioYork,Ontario,York,2021-01-17 17:25:15.430580,2020-09-20 00:00:00.000000,0.10651768,0.17397189,0.39360075,1279,2088,4726,694,1055,2592,0.05782539,0.08792980,0.21594366,0.32594037,0.39930583,0.51495612
0,3570,CanadaOntarioYork,Ontario,York,2021-01-17 17:25:15.430580,2020-09-21 00:00:00.000000,0.11059684,0.18309779,0.41810600,1328,2198,5020,727,1134,2766,0.06060815,0.09447274,0.23036563,0.31541655,0.39888136,0.51933663
0,3570,CanadaOntarioYork,Ontario,York,2021-01-17 17:25:15.430580,2020-09-22 00:00:00.000000,0.11496352,0.19407527,0.43515608,1380,2330,5225,770,1217,2948,0.06414320,0.10142155,0.24555150,0.31275423,0.39858978,0.51837048
0,3570,CanadaOntarioYork,Ontario,York,2021-01-17 17:25:15.430580,2020-09-23 00:00:00.000000,0.12320288,0.20544574,0.45299869,1479,2466,5439,812,1301,3100,0.06769815,0.10843021,0.25824183,0.31245581,0.39787902,0.51286460
0,3570,CanadaOntarioYork,Ontario,York,2021-01-17 17:25:15.430580,2020-09-24 00:00:00.000000,0.13311999,0.21738745,0.47183117,1598,2610,5665,854,1370,3227,0.07119027,0.11413204,0.26875326,0.31241067,0.39849868,0.50645011
0,3570,CanadaOntarioYork,Ontario,York,2021-01-17 17:25:15.430580,2020-09-25 00:00:00.000000,0.14360080,0.23025853,0.48767328,1724,2764,5855,895,1451,3360,0.07458066,0.12084590,0.27987214,0.31240130,0.39351140,0.50786203
0,3570,CanadaOntarioYork,Ontario,York,2021-01-17 17:25:15.430580,2020-09-26 00:00:00.000000,0.14901911,0.24357352,0.50694506,1789,2924,6087,934,1538,3500,0.07780788,0.12813737,0.29154857,0.31239871,0.39064587,0.51097898
0,3570,CanadaOntarioYork,Ontario,York,2021-01-17 17:25:15.430580,2020-09-27 00:00:00.000000,0.15313895,0.25748031,0.53450580,1838,3091,6418,971,1635,3646,0.08088686,0.13622940,0.30364974,0.29195614,0.39035611,0.50667133
0,3570,CanadaOntarioYork,Ontario,York,2021-01-17 17:25:15.430580,2020-09-28 00:00:00.000000,0.15731919,0.27143395,0.55794227,1889,3259,6699,1008,1734,3799,0.08396774,0.14441821,0.31638617,0.29170086,0.37989607,0.50147280
0,3570,CanadaOntarioYork,Ontario,York,2021-01-17 17:25:15.430580,2020-09-29 00:00:00.000000,0.16160652,0.28515975,0.58512682,1940,3424,7025,1046,1833,4024,0.08711190,0.15272263,0.33512932,0.29138590,0.36927952,0.49451527
0,3570,CanadaOntarioYork,Ontario,York,2021-01-17 17:25:15.430580,2020-09-30 00:00:00.000000,0.16600890,0.30011456,0.60541995,1993,3603,7269,1084,1933,4225,0.09034789,0.16100730,0.35189859,0.29121576,0.36553722,0.47797276
0,3570,CanadaOntarioYork,Ontario,York,2021-01-17 17:25:15.430580,2020-10-01 00:00:00.000000,0.17054543,0.31331656,0.63965945,2047,3762,7680,1125,2036,4401,0.09369847,0.16963516,0.36653768,0.29032063,0.36310250,0.46724399
0,3570,CanadaOntarioYork,Ontario,York,2021-01-17 17:25:15.430580,2020-10-02 00:00:00.000000,0.17526453,0.32801556,0.67948421,2104,3938,8158,1166,2135,4565,0.09718836,0.17785266,0.38024744,0.27453087,0.35593923,0.46218763
0,3570,CanadaOntarioYork,Ontario,York,2021-01-17 17:25:15.430580,2020-10-03 00:00:00.000000,0.18400574,0.34341172,0.72152922,2209,4123,8663,1211,2233,4809,0.10089836,0.18600910,0.40050505,0.27160402,0.35413466,0.45826931
0,3570,CanadaOntarioYork,Ontario,York,2021-01-17 17:25:15.430580,2020-10-04 00:00:00.000000,0.19530232,0.35889104,0.76472812,2345,4309,9182,1258,2344,5069,0.10483521,0.19523312,0.42220726,0.27640634,0.35796624,0.45018365
0,3570,CanadaOntarioYork,Ontario,York,2021-01-17 17:25:15.430580,2020-10-05 00:00:00.000000,0.20732046,0.37460552,0.80697223,2489,4498,9689,1309,2438,5346,0.10903425,0.20308412,0.44529070,0.27687466,0.35531233,0.44995153
0,3570,CanadaOntarioYork,Ontario,York,2021-01-17 17:25:15.430580,2020-10-06 00:00:00.000000,0.22014152,0.39197098,0.83873092,2643,4706,10071,1363,2526,5641,0.11354734,0.21041361,0.46979635,0.27307469,0.35187308,0.44946922
0,3570,CanadaOntarioYork,Ontario,York,2021-01-17 17:25:15.430580,2020-10-07 00:00:00.000000,0.23370930,0.40849354,0.85561395,2806,4905,10273,1442,2622,5906,0.12013530,0.21842003,0.49189740,0.26480773,0.34839022,0.44851180
0,3570,CanadaOntarioYork,Ontario,York,2021-01-17 17:25:15.430580,2020-10-08 00:00:00.000000,0.24790166,0.42440407,0.87222660,2976,5096,10473,1530,2731,6148,0.12745904,0.22749811,0.51204038,0.26354559,0.34355965,0.44641917
0,3570,CanadaOntarioYork,Ontario,York,2021-01-17 17:25:15.430580,2020-10-09 00:00:00.000000,0.26233334,0.43972795,0.88888516,3149,5280,10673,1623,2841,6393,0.13520339,0.23661025,0.53242850,0.26358057,0.33365828,0.44107143
0,3570,CanadaOntarioYork,Ontario,York,2021-01-17 17:25:15.430580,2020-10-10 00:00:00.000000,0.27611903,0.45326342,0.90567565,3315,5442,10874,1719,2952,6583,0.14324026,0.24589964,0.54825429,0.25954204,0.32222437,0.43241783
0,3570,CanadaOntarioYork,Ontario,York,2021-01-17 17:25:15.430580,2020-10-11 00:00:00.000000,0.28807778,0.46652858,0.93597272,3459,5601,11238,1816,3052,6718,0.15126761,0.25423816,0.55953993,0.24796486,0.31977875,0.43341323
0,3570,CanadaOntarioYork,Ontario,York,2021-01-17 17:25:15.430580,2020-10-12 00:00:00.000000,0.29791336,0.48200361,0.97047199,3577,5787,11653,1906,3153,6852,0.15880644,0.26264194,0.57068413,0.24292575,0.31518004,0.42161584
0,3570,CanadaOntarioYork,Ontario,York,2021-01-17 17:25:15.430580,2020-10-13 00:00:00.000000,0.30625959,0.49789472,0.99893477,3677,5978,11994,1987,3253,7062,0.16550998,0.27092058,0.58815119,0.24162852,0.31215249,0.40370281
0,3570,CanadaOntarioYork,Ontario,York,2021-01-17 17:25:15.430580,2020-10-14 00:00:00.000000,0.31585025,0.50856775,1.02261356,3792,6106,12279,2057,3355,7325,0.17135048,0.27948888,0.61004109,0.23414549,0.30879040,0.40182071
0,3570,CanadaOntarioYork,Ontario,York,2021-01-17 17:25:15.430580,2020-10-15 00:00:00.000000,0.33161553,0.51716814,1.04666884,3981,6209,12567,2119,3466,7587,0.17652639,0.28872484,0.63191716,0.23152600,0.30537752,0.39935684
0,3570,CanadaOntarioYork,Ontario,York,2021-01-17 17:25:15.430580,2020-10-16 00:00:00.000000,0.34582220,0.52452215,1.07058372,4152,6298,12855,2176,3589,7846,0.18126668,0.29892202,0.65350010,0.22786570,0.29717778,0.38415997
0,3570,CanadaOntarioYork,Ontario,York,2021-01-17 17:25:15.430580,2020-10-17 00:00:00.000000,0.35707336,0.53570572,1.09181451,4287,6432,13110,2230,3721,8094,0.18574677,0.30989118,0.67412414,0.22912215,0.29067279,0.36769149
0,3570,CanadaOntarioYork,Ontario,York,2021-01-17 17:25:15.430580,2020-10-18 00:00:00.000000,0.36564505,0.54650435,1.10529680,4390,6562,13271,2291,3783,8320,0.19084679,0.31505159,0.69292437,0.22018272,0.28577494,0.35434020
0,3570,CanadaOntarioYork,Ontario,York,2021-01-17 17:25:15.430580,2020-10-19 00:00:00.000000,0.37259118,0.55818441,1.11305612,4473,6702,13365,2352,3828,8520,0.19591469,0.31886180,0.70956945,0.21687617,0.28413310,0.35104014
0,3570,CanadaOntarioYork,Ontario,York,2021-01-17 17:25:15.430580,2020-10-20 00:00:00.000000,0.37889790,0.57026555,1.13114647,4549,6847,13582,2406,3875,8698,0.20043463,0.32274435,0.72444582,0.21605344,0.28266100,0.36616151
0,3570,CanadaOntarioYork,Ontario,York,2021-01-17 17:25:15.430580,2020-10-21 00:00:00.000000,0.38492328,0.58695708,1.16672914,4622,7047,14009,2457,3917,8862,0.20469227,0.32628111,0.73807078,0.21597010,0.28160094,0.36847039
0,3570,CanadaOntarioYork,Ontario,York,2021-01-17 17:25:15.430580,2020-10-22 00:00:00.000000,0.39079504,0.59537199,1.20111859,4692,7148,14422,2503,3973,9015,0.20849051,0.33093839,0.75082248,0.21251664,0.28180840,0.36353782
0,3570,CanadaOntarioYork,Ontario,York,2021-01-17 17:25:15.430580,2020-10-23 00:00:00.000000,0.39647147,0.60178567,1.23294745,4760,7226,14804,2545,4075,9162,0.21202775,0.33937003,0.76306740,0.20903551,0.27930046,0.36766341
0,3570,CanadaOntarioYork,Ontario,York,2021-01-17 17:25:15.430580,2020-10-24 00:00:00.000000,0.40172896,0.61065096,1.26141956,4823,7332,15146,2600,4172,9303,0.21656537,0.34748808,0.77476943,0.20850110,0.27637202,0.37724789
0,3570,CanadaOntarioYork,Ontario,York,2021-01-17 17:25:15.430580,2020-10-25 00:00:00.000000,0.40631070,0.62085286,1.28697029,4878,7454,15453,2658,4269,9434,0.22138945,0.35554410,0.78569930,0.20842832,0.27426524,0.38355682
0,3570,CanadaOntarioYork,Ontario,York,2021-01-17 17:25:15.430580,2020-10-26 00:00:00.000000,0.41040672,0.62941560,1.31028598,4928,7557,15733,2718,4370,9566,0.22642738,0.36400910,0.79673249,0.20288693,0.27412712,0.37303909
0,3570,CanadaOntarioYork,Ontario,York,2021-01-17 17:25:15.430580,2020-10-27 00:00:00.000000,0.41468157,0.64220828,1.33274599,4979,7711,16003,2782,4467,9770,0.23172576,0.37208670,0.81367364,0.20297095,0.27044549,0.36872569
0,3570,CanadaOntarioYork,Ontario,York,2021-01-17 17:25:15.430580,2020-10-28 00:00:00.000000,0.41745267,0.65907079,1.35510782,5012,7913,16271,2849,4533,9960,0.23730733,0.37756712,0.82954591,0.20411061,0.26674838,0.36715378
0,3570,CanadaOntarioYork,Ontario,York,2021-01-17 17:25:15.430580,2020-10-29 00:00:00.000000,0.42079845,0.66848573,1.37827181,5052,8026,16549,2919,4588,10143,0.24317418,0.38216843,0.84476711,0.20761795,0.26739906,0.37343437
0,3570,CanadaOntarioYork,Ontario,York,2021-01-17 17:25:15.430580,2020-10-30 00:00:00.000000,0.42413291,0.67364148,1.40396226,5092,8088,16858,2993,4639,10324,0.24930352,0.38637247,0.85981902,0.20959943,0.26990084,0.38276192
0,3570,CanadaOntarioYork,Ontario,York,2021-01-17 17:25:15.430580,2020-10-31 00:00:00.000000,0.43073348,0.68001421,1.43524649,5172,8165,17233,3063,4686,10511,0.25509891,0.39033074,0.87543443,0.20936361,0.27151475,0.38900200
0,3570,CanadaOntarioYork,Ontario,York,2021-01-17 17:25:15.430580,2020-11-01 00:00:00.000000,0.44083250,0.68776863,1.46924963,5293,8258,17642,3102,4743,10720,0.25834039,0.39507334,0.89284760,0.20998533,0.27519606,0.39264649
0,3570,CanadaOntarioYork,Ontario,York,2021-01-17 17:25:15.430580,2020-11-02 00:00:00.000000,0.44780531,0.69682806,1.48316741,5377,8367,17809,3160,4800,10968,0.26323194,0.39979325,0.91348254,0.20714096,0.27829583,0.39454913
0,3570,CanadaOntarioYork,Ontario,York,2021-01-17 17:25:15.430580,2020-11-03 00:00:00.000000,0.45381413,0.70604700,1.49541709,5449,8477,17956,3204,4916,11100,0.26688876,0.40944221,0.92445847,0.20618295,0.27893304,0.39545632
0,3570,CanadaOntarioYork,Ontario,York,2021-01-17 17:25:15.430580,2020-11-04 00:00:00.000000,0.46011781,0.71630637,1.50881812,5524,8601,18117,3247,5010,11208,0.27044928,0.41724333,0.93343911,0.21531407,0.27923156,0.39551475
0,3570,CanadaOntarioYork,Ontario,York,2021-01-17 17:25:15.430580,2020-11-05 00:00:00.000000,0.46691574,0.73305703,1.52768800,5606,8802,18343,3291,5089,11314,0.27413193,0.42386702,0.94225471,0.21952698,0.28196146,0.39314767
0,3570,CanadaOntarioYork,Ontario,York,2021-01-17 17:25:15.430580,2020-11-06 00:00:00.000000,0.47447490,0.74912475,1.55523998,5697,8995,18674,3338,5192,11433,0.27799413,0.43243194,0.95217783,0.21990863,0.28263127,0.38529272
0,3570,CanadaOntarioYork,Ontario,York,2021-01-17 17:25:15.430580,2020-11-07 00:00:00.000000,0.48740791,0.76099258,1.59192472,5852,9137,19115,3387,5311,11584,0.28215261,0.44233688,0.96476342,0.22303177,0.28741855,0.38521102
0,3570,CanadaOntarioYork,Ontario,York,2021-01-17 17:25:15.430580,2020-11-08 00:00:00.000000,0.50514131,0.77459724,1.63585685,6065,9301,19642,3443,5404,11943,0.28676624,0.45006878,0.99468617,0.22694537,0.28866370,0.38507240
0,3570,CanadaOntarioYork,Ontario,York,2021-01-17 17:25:15.430580,2020-11-09 00:00:00.000000,0.52349993,0.78712830,1.68513478,6285,9451,20234,3506,5508,12333,0.29203455,0.45875001,1.02715142,0.22786072,0.28897383,0.38491945
0,3570,CanadaOntarioYork,Ontario,York,2021-01-17 17:25:15.430580,2020-11-10 00:00:00.000000,0.52886245,0.79595750,1.73777540,6350,9557,20866,3577,5604,12741,0.29794398,0.46677151,1.06110359,0.21490009,0.28837746,0.38478300
0,3570,CanadaOntarioYork,Ontario,York,2021-01-17 17:25:15.430580,2020-11-11 00:00:00.000000,0.53169973,0.81052610,1.79301317,6384,9732,21529,3654,5713,13164,0.30437995,0.47580305,1.09630614,0.20964645,0.28820184,0.38453195
0,3570,CanadaOntarioYork,Ontario,York,2021-01-17 17:25:15.430580,2020-11-12 00:00:00.000000,0.53838181,0.82629816,1.82872190,6464,9921,21958,3737,5825,13600,0.31122018,0.48514583,1.13262635,0.21038181,0.28886243,0.38258232
0,3570,CanadaOntarioYork,Ontario,York,2021-01-17 17:25:15.430580,2020-11-13 00:00:00.000000,0.55049743,0.84766213,1.85283852,6610,10178,22248,3808,5892,13866,0.31721345,0.49069068,1.15484322,0.21150225,0.28956906,0.36904101
0,3570,CanadaOntarioYork,Ontario,York,2021-01-17 17:25:15.430580,2020-11-14 00:00:00.000000,0.56249261,0.86867799,1.90909538,6754,10430,22923,3837,5980,13974,0.31962731,0.49803391,1.16381285,0.21650072,0.29574570,0.37371244
0,3570,CanadaOntarioYork,Ontario,York,2021-01-17 17:25:15.430580,2020-11-15 00:00:00.000000,0.57384298,0.88784562,1.95869963,6890,10660,23519,3894,6081,14277,0.32430078,0.50650181,1.18907109,0.21339124,0.29362766,0.37855460
0,3570,CanadaOntarioYork,Ontario,York,2021-01-17 17:25:15.430580,2020-11-16 00:00:00.000000,0.58418758,0.90985401,2.00457083,7014,10925,24070,3964,6197,14747,0.33017386,0.51615003,1.22819298,0.21058083,0.29028226,0.36973144
0,3570,CanadaOntarioYork,Ontario,York,2021-01-17 17:25:15.430580,2020-11-17 00:00:00.000000,0.59256866,0.93200626,2.04867129,7115,11191,24599,4029,6356,15233,0.33558315,0.52934703,1.26866303,0.20268297,0.28944890,0.36919913
0,3570,CanadaOntarioYork,Ontario,York,2021-01-17 17:25:15.430580,2020-11-18 00:00:00.000000,0.59872580,0.95021505,2.09174943,7189,11409,25116,4138,6501,15730,0.34466334,0.54143249,1.31004866,0.20006438,0.28537293,0.36708071
0,3570,CanadaOntarioYork,Ontario,York,2021-01-17 17:25:15.430580,2020-11-19 00:00:00.000000,0.60272643,0.97008592,2.13387225,7237,11648,25622,4247,6628,16230,0.35373764,0.55205738,1.35165826,0.19306917,0.28511618,0.36234500
0,3570,CanadaOntarioYork,Ontario,York,2021-01-17 17:25:15.430580,2020-11-20 00:00:00.000000,0.61306106,0.98525770,2.17452036,7361,11830,26110,4333,6733,16720,0.36085923,0.56077365,1.39246862,0.18654946,0.27546076,0.36702683
0,3570,CanadaOntarioYork,Ontario,York,2021-01-17 17:25:15.430580,2020-11-21 00:00:00.000000,0.63578564,0.99842236,2.21301645,7634,11988,26573,4361,6861,17186,0.36324605,0.57146304,1.43132186,0.19448587,0.27503147,0.37737701
0,3570,CanadaOntarioYork,Ontario,York,2021-01-17 17:25:15.430580,2020-11-22 00:00:00.000000,0.65969065,1.01826414,2.24864023,7921,12226,27000,4414,7003,17584,0.36761476,0.58327590,1.46440704,0.19570463,0.27644946,0.39021329
0,3570,CanadaOntarioYork,Ontario,York,2021-01-17 17:25:15.430580,2020-11-23 00:00:00.000000,0.67431724,1.03398836,2.28048987,8096,12415,27383,4453,7150,17896,0.37090742,0.59550972,1.49046637,0.20026273,0.27753686,0.39260723
0,3570,CanadaOntarioYork,Ontario,York,2021-01-17 17:25:15.430580,2020-11-24 00:00:00.000000,0.69245531,1.05286314,2.30850210,8314,12642,27719,4495,7264,18184,0.37440721,0.60495988,1.51443210,0.20876168,0.27729699,0.39460824
0,3570,CanadaOntarioYork,Ontario,York,2021-01-17 17:25:15.430580,2020-11-25 00:00:00.000000,0.69853972,1.06965038,2.33263874,8387,12843,28009,4605,7418,18444,0.38350912,0.61782873,1.53603585,0.20883920,0.27598157,0.39622385
0,3570,CanadaOntarioYork,Ontario,York,2021-01-17 17:25:15.430580,2020-11-26 00:00:00.000000,0.70429288,1.08644422,2.35319174,8456,13045,28256,4718,7530,18673,0.39294622,0.62715007,1.55513779,0.21045075,0.27179151,0.38862072
0,3570,CanadaOntarioYork,Ontario,York,2021-01-17 17:25:15.430580,2020-11-27 00:00:00.000000,0.71058860,1.10479863,2.37070053,8532,13265,28466,4832,7666,18872,0.40246212,0.63843538,1.57172296,0.21329888,0.26799139,0.38212512
0,3570,CanadaOntarioYork,Ontario,York,2021-01-17 17:25:15.430580,2020-11-28 00:00:00.000000,0.71783081,1.12317447,2.38595508,8619,13486,28649,4922,7767,19043,0.40998662,0.64692126,1.58591675,0.21669103,0.26996578,0.37712129
0,3570,CanadaOntarioYork,Ontario,York,2021-01-17 17:25:15.430580,2020-11-29 00:00:00.000000,0.72242369,1.13787824,2.39966865,8674,13663,28814,4968,7862,19190,0.41379973,0.65478720,1.59818853,0.21476840,0.26537887,0.38538772
0,3570,CanadaOntarioYork,Ontario,York,2021-01-17 17:25:15.430580,2020-11-30 00:00:00.000000,0.72469352,1.15410712,2.41233255,8701,13858,28966,5019,7974,19319,0.41801085,0.66409172,1.60895080,0.21458612,0.26380007,0.39195371
0,3570,CanadaOntarioYork,Ontario,York,2021-01-17 17:25:15.430580,2020-12-01 00:00:00.000000,0.72960161,1.16698286,2.42442711,8760,14012,29111,5073,8125,19435,0.42255801,0.67670249,1.61860746,0.21197983,0.26054532,0.39362904
0,3570,CanadaOntarioYork,Ontario,York,2021-01-17 17:25:15.430580,2020-12-02 00:00:00.000000,0.73561137,1.17918560,2.43659657,8832,14159,29257,5131,8279,19541,0.42733953,0.68954238,1.62741569,0.20998469,0.26279518,0.39239290
0,3570,CanadaOntarioYork,Ontario,York,2021-01-17 17:25:15.430580,2020-12-03 00:00:00.000000,0.74253013,1.19095441,2.44960643,8916,14300,29413,5190,8367,19642,0.43228850,0.69682195,1.63581130,0.20924657,0.26350517,0.38339919
0,3570,CanadaOntarioYork,Ontario,York,2021-01-17 17:25:15.430580,2020-12-04 00:00:00.000000,0.75034132,1.20068453,2.46433508,9009,14417,29590,5243,8504,19744,0.43671697,0.70827742,1.64435344,0.20938709,0.26273679,0.37569384
0,3570,CanadaOntarioYork,Ontario,York,2021-01-17 17:25:15.430580,2020-12-05 00:00:00.000000,0.75902488,1.20426118,2.48163592,9114,14460,29798,5255,8663,19855,0.43766181,0.72145953,1.65356840,0.21159222,0.26011399,0.36909921
0,3570,CanadaOntarioYork,Ontario,York,2021-01-17 17:25:15.430580,2020-12-06 00:00:00.000000,0.76850048,1.20970411,2.50517954,9227,14525,30081,5271,8822,19995,0.43898566,0.73473094,1.66522483,0.21081872,0.26117340,0.35986529
0,3570,CanadaOntarioYork,Ontario,York,2021-01-17 17:25:15.430580,2020-12-07 00:00:00.000000,0.77871253,1.21783816,2.53548859,9350,14623,30445,5295,8889,20253,0.44103972,0.74035770,1.68673697,0.20818232,0.26365336,0.35306825
0,3570,CanadaOntarioYork,Ontario,York,2021-01-17 17:25:15.430580,2020-12-08 00:00:00.000000,0.78955973,1.23234145,2.56587748,9480,14797,30810,5347,8999,20510,0.44532153,0.74950968,1.70812287,0.20832361,0.26733729,0.35409485
0,3570,CanadaOntarioYork,Ontario,York,2021-01-17 17:25:15.430580,2020-12-09 00:00:00.000000,0.80095423,1.24809959,2.59644220,9617,14986,31177,5499,9166,20766,0.45803195,0.76335555,1.72946596,0.20940911,0.27209519,0.35411524
0,3570,CanadaOntarioYork,Ontario,York,2021-01-17 17:25:15.430580,2020-12-10 00:00:00.000000,0.81281904,1.26858256,2.62733453,9760,15232,31548,5644,9289,21023,0.47010905,0.77360818,1.75086073,0.21111196,0.27639897,0.35437586
0,3570,CanadaOntarioYork,Ontario,York,2021-01-17 17:25:15.430580,2020-12-11 00:00:00.000000,0.81767232,1.30188981,2.65878901,9818,15632,31925,5719,9422,21282,0.47632444,0.78470597,1.77241405,0.21598771,0.28249376,0.35533421
0,3570,CanadaOntarioYork,Ontario,York,2021-01-17 17:25:15.430580,2020-12-12 00:00:00.000000,0.82538538,1.32261130,2.69132628,9910,15881,32316,5785,9512,21543,0.48183343,0.79224001,1.79411916,0.21738272,0.28644765,0.36102209
0,3570,CanadaOntarioYork,Ontario,York,2021-01-17 17:25:15.430580,2020-12-13 00:00:00.000000,0.84420934,1.34031087,2.72622551,10136,16093,32735,5850,9622,21805,0.48719107,0.80137144,1.81595026,0.22186880,0.29227676,0.39670480
0,3570,CanadaOntarioYork,Ontario,York,2021-01-17 17:25:15.430580,2020-12-14 00:00:00.000000,0.85652843,1.36903013,2.76585955,10284,16438,33211,5950,9749,22076,0.49555089,0.81193757,1.83856782,0.22684185,0.29910076,0.41645444
0,3570,CanadaOntarioYork,Ontario,York,2021-01-17 17:25:15.430580,2020-12-15 00:00:00.000000,0.87293466,1.40948461,2.85551766,10481,16924,34287,6083,9910,22367,0.50660643,0.82537730,1.86280859,0.23221963,0.30421038,0.42333743
0,3570,CanadaOntarioYork,Ontario,York,2021-01-17 17:25:15.430580,2020-12-16 00:00:00.000000,0.88334759,1.44516950,2.96151665,10606,17353,35560,6231,10145,22692,0.51896125,0.84492417,1.88983962,0.23733978,0.30865881,0.42532757
0,3570,CanadaOntarioYork,Ontario,York,2021-01-17 17:25:15.430580,2020-12-17 00:00:00.000000,0.90249810,1.47643852,3.07666233,10836,17728,36943,6401,10377,23060,0.53315149,0.86425422,1.92049771,0.24704422,0.31162958,0.42587071
0,3570,CanadaOntarioYork,Ontario,York,2021-01-17 17:25:15.430580,2020-12-18 00:00:00.000000,0.93225791,1.51586047,3.19661152,11194,18201,38383,6599,10602,23685,0.54960271,0.88302204,1.97257150,0.24759257,0.32419496,0.42602040
0,3570,CanadaOntarioYork,Ontario,York,2021-01-17 17:25:15.430580,2020-12-19 00:00:00.000000,0.96376755,1.55851436,3.31739880,11572,18714,39834,6826,10855,24485,0.56854009,0.90406480,2.03919552,0.25109778,0.33012792,0.44881853
0,3570,CanadaOntarioYork,Ontario,York,2021-01-17 17:25:15.430580,2020-12-20 00:00:00.000000,0.99660528,1.59914885,3.37847051,11966,19201,40567,7069,11132,25355,0.58877102,0.92709655,2.11158484,0.26388199,0.33749311,0.47999938
0,3570,CanadaOntarioYork,Ontario,York,2021-01-17 17:25:15.430580,2020-12-21 00:00:00.000000,1.03742245,1.65209516,3.46761104,12456,19837,41637,7357,11425,26256,0.61274744,0.95148545,2.18668060,0.26206039,0.33985615,0.48466347
0,3570,CanadaOntarioYork,Ontario,York,2021-01-17 17:25:15.430580,2020-12-22 00:00:00.000000,1.08168575,1.70876245,3.56955737,12988,20518,42861,7645,11741,27150,0.63673047,0.97786342,2.26114528,0.26039281,0.34401548,0.48487748
0,3570,CanadaOntarioYork,Ontario,York,2021-01-17 17:25:15.430580,2020-12-23 00:00:00.000000,1.12688508,1.75641805,3.66634819,13531,21090,44024,7904,12117,27872,0.65831887,1.00914035,2.32124729,0.26024815,0.34771081,0.48383924
0,3570,CanadaOntarioYork,Ontario,York,2021-01-17 17:25:15.430580,2020-12-24 00:00:00.000000,1.17217023,1.81732068,3.76212469,14074,21821,45174,8172,12536,28427,0.68060454,1.04408027,2.36747123,0.27057482,0.35360279,0.48185667
0,3570,CanadaOntarioYork,Ontario,York,2021-01-17 17:25:15.430580,2020-12-25 00:00:00.000000,1.21643517,1.87625498,3.85917578,14606,22529,46339,8448,12978,29075,0.70355423,1.08086370,2.42145664,0.27894470,0.35095973,0.47806326
0,3570,CanadaOntarioYork,Ontario,York,2021-01-17 17:25:15.430580,2020-12-26 00:00:00.000000,1.25836311,1.93542187,3.95839457,15109,23239,47530,8731,13511,29826,0.72712230,1.12527989,2.48396755,0.27940449,0.35035255,0.46930799
0,3570,CanadaOntarioYork,Ontario,York,2021-01-17 17:25:15.430580,2020-12-27 00:00:00.000000,1.29666816,1.99698658,4.06531937,15569,23979,48814,9018,14051,30670,0.75108051,1.17023700,2.55424418,0.28325208,0.34424459,0.46518098
0,3570,CanadaOntarioYork,Ontario,York,2021-01-17 17:25:15.430580,2020-12-28 00:00:00.000000,1.33036681,2.05677508,4.20234090,15974,24696,50460,9260,14566,31595,0.77118183,1.21311803,2.63128082,0.27509430,0.33793381,0.46866027
0,3570,CanadaOntarioYork,Ontario,York,2021-01-17 17:25:15.430580,2020-12-29 00:00:00.000000,1.35985749,2.12583060,4.34421307,16328,25526,52163,9506,15067,32590,0.79172845,1.25483032,2.71417189,0.26566954,0.33296505,0.46442678
0,3570,CanadaOntarioYork,Ontario,York,2021-01-17 17:25:15.430580,2020-12-30 00:00:00.000000,1.38634869,2.20011638,4.41673060,16646,26418,53034,9716,15554,33647,0.80920683,1.29539461,2.80216455,0.26003414,0.32617940,0.46241610
0,3570,CanadaOntarioYork,Ontario,York,2021-01-17 17:25:15.430580,2020-12-31 00:00:00.000000,1.40854302,2.25574876,4.47085855,16913,27086,53684,9843,16046,34516,0.81976138,1.33640206,2.87456397,0.24128674,0.31709664,0.45919375
0,3570,CanadaOntarioYork,Ontario,York,2021-01-17 17:25:15.430580,2021-01-01 00:00:00.000000,1.42731768,2.28466170,4.56730571,17138,27433,54842,9886,16388,35352,0.82336610,1.36487026,2.94420489,0.23018375,0.30508445,0.44574511
0,3570,CanadaOntarioYork,Ontario,York,2021-01-17 17:25:15.430580,2021-01-02 00:00:00.000000,1.43103163,2.30401351,4.65291655,17183,27665,55870,9863,16756,36162,0.82140886,1.39547006,3.01166685,0.21898524,0.28341676,0.41227699
0,3570,CanadaOntarioYork,Ontario,York,2021-01-17 17:25:15.430580,2021-01-03 00:00:00.000000,1.42648444,2.30781250,4.71998688,17128,27711,56675,9863,16974,36917,0.82146279,1.41362394,3.07448487,0.20381513,0.25646353,0.34030569
0,3570,CanadaOntarioYork,Ontario,York,2021-01-17 17:25:15.430580,2021-01-04 00:00:00.000000,1.41774440,2.31575167,4.75798416,17023,27806,57132,9877,17048,37570,0.82258355,1.41982110,3.12889552,0.19230278,0.24094181,0.33504183
0,3570,CanadaOntarioYork,Ontario,York,2021-01-17 17:25:15.430580,2021-01-05 00:00:00.000000,1.40659247,2.34052433,4.75583016,16889,28104,57106,9835,17147,38058,0.81910742,1.42806876,3.16956015,0.16777253,0.22857282,0.32425650
0,3570,CanadaOntarioYork,Ontario,York,2021-01-17 17:25:15.430580,2021-01-06 00:00:00.000000,1.39309456,2.32274781,4.70917154,16727,27890,56545,9756,17214,38301,0.81255838,1.43367192,3.18973013,0.15742134,0.22035948,0.30929155
0,3570,CanadaOntarioYork,Ontario,York,2021-01-17 17:25:15.430580,2021-01-07 00:00:00.000000,1.37608862,2.30467280,4.62516069,16523,27673,55537,9654,17200,38234,0.80406671,1.43245681,3.18419038,0.15172656,0.20894788,0.29179383
0,3570,CanadaOntarioYork,Ontario,York,2021-01-17 17:25:15.430580,2021-01-08 00:00:00.000000,1.35368686,2.29461366,4.51681443,16254,27552,54236,9538,17247,37868,0.79434780,1.43634029,3.15373596,0.14664430,0.20177907,0.26924970
0,3570,CanadaOntarioYork,Ontario,York,2021-01-17 17:25:15.430580,2021-01-09 00:00:00.000000,1.32530189,2.27041532,4.39503824,15913,27262,52773,9411,17196,37252,0.78377731,1.43216457,3.10240556,0.14155250,0.19367472,0.26381123
0,3570,CanadaOntarioYork,Ontario,York,2021-01-17 17:25:15.430580,2021-01-10 00:00:00.000000,1.29265893,2.20969701,4.26677550,15521,26533,51233,9275,17007,36453,0.77244178,1.41637934,3.03587369,0.13144203,0.18996174,0.25740376
0,3570,CanadaOntarioYork,Ontario,York,2021-01-17 17:25:15.430580,2021-01-11 00:00:00.000000,1.25813545,2.16849837,4.13593017,15107,26038,49662,9129,16657,35534,0.76031218,1.38725700,2.95934168,0.12545108,0.18369170,0.25173305
0,3570,CanadaOntarioYork,Ontario,York,2021-01-17 17:25:15.430580,2021-01-12 00:00:00.000000,1.23387781,2.13022074,4.00508196,14815,25578,48091,8975,16284,34543,0.74748896,1.35621451,2.87682354,0.12302096,0.18138467,0.24824978
0,3570,CanadaOntarioYork,Ontario,York,2021-01-17 17:25:15.430580,2021-01-13 00:00:00.000000,1.20946256,2.08387315,3.87559569,14522,25022,46536,8816,15872,33516,0.73420466,1.32186773,2.79127036,0.11463769,0.17800511,0.24769878
0,3570,CanadaOntarioYork,Ontario,York,2021-01-17 17:25:15.430580,2021-01-14 00:00:00.000000,1.17676802,2.02959408,3.77577773,14130,24370,45338,8652,15374,32822,0.72061882,1.28042799,2.73350386,0.11548513,0.17657221,0.25420768
0,3570,CanadaOntarioYork,Ontario,York,2021-01-17 17:25:15.430580,2021-01-15 00:00:00.000000,1.13050278,1.96126391,3.71276058,13574,23550,44581,8486,15027,32312,0.70674159,1.25151692,2.69099031,0.11759960,0.17862876,0.26205902
0,3570,CanadaOntarioYork,Ontario,York,2021-01-17 17:25:15.430580,2021-01-16 00:00:00.000000,1.08447002,1.91779019,3.65081960,13021,23028,43837,8312,14729,31799,0.69229277,1.22669294,2.64826847,0.11959298,0.17805401,0.26554910
0,3570,CanadaOntarioYork,Ontario,York,2021-01-17 17:25:15.430580,2021-01-17 00:00:00.000000,1.04845125,1.88944156,3.58970771,12589,22687,43103,8123,14431,31287,0.67651573,1.20189285,2.60565816,0.11755959,0.17410036,0.26650759
0,3570,CanadaOntarioYork,Ontario,York,2021-01-17 17:25:15.430580,2021-01-18 00:00:00.000000,1.01512343,1.83915208,3.52952297,12189,22083,42381,7905,14148,30779,0.65838729,1.17832285,2.56335901,0.11363805,0.17251065,0.27132247
0,3570,CanadaOntarioYork,Ontario,York,2021-01-17 17:25:15.430580,2021-01-19 00:00:00.000000,0.98211773,1.77822872,3.46998589,11792,21352,41666,7658,13817,30276,0.63776316,1.15075326,2.52145308,0.11539284,0.17101214,0.28147139
0,3570,CanadaOntarioYork,Ontario,York,2021-01-17 17:25:15.430580,2021-01-20 00:00:00.000000,0.94907374,1.72238085,3.41085396,11396,20681,40956,7390,13467,29778,0.61548709,1.12153922,2.47993438,0.11203822,0.17176168,0.29046315
0,3570,CanadaOntarioYork,Ontario,York,2021-01-17 17:25:15.430580,2021-01-21 00:00:00.000000,0.90978975,1.67716742,3.35227794,10924,20138,40252,7112,13191,29283,0.59234790,1.09862038,2.43874815,0.11176795,0.17122236,0.29525950
0,3570,CanadaOntarioYork,Ontario,York,2021-01-17 17:25:15.430580,2021-01-22 00:00:00.000000,0.87969544,1.62289214,3.31838744,10563,19487,39845,6831,12821,28792,0.56897223,1.06781253,2.39789527,0.11161392,0.17122074,0.29710403
0,3570,CanadaOntarioYork,Ontario,York,2021-01-17 17:25:15.430580,2021-01-23 00:00:00.000000,0.84227231,1.57985457,3.30837849,10113,18970,39725,6553,12335,28306,0.54578786,1.02729030,2.35740918,0.11152532,0.17122684,0.29787695
0,3570,CanadaOntarioYork,Ontario,York,2021-01-17 17:25:15.430580,2021-01-24 00:00:00.000000,0.80121737,1.52406817,3.29829923,9620,18300,39604,6246,11939,27825,0.52021271,0.99429840,2.31732096,0.11147566,0.17123026,0.29819431
0,3570,CanadaOntarioYork,Ontario,York,2021-01-17 17:25:15.430580,2021-01-25 00:00:00.000000,0.76231626,1.47820026,3.28784564,9153,17749,39479,5878,11559,27349,0.48959034,0.96268006,2.27765454,0.11144848,0.17123170,0.29832359
0,3570,CanadaOntarioYork,Ontario,York,2021-01-17 17:25:15.430580,2021-01-26 00:00:00.000000,0.72526165,1.43469639,3.27685412,8708,17227,39347,5531,11289,26878,0.46065240,0.94023393,2.23842789,0.11143381,0.17123225,0.29837612
0,3570,CanadaOntarioYork,Ontario,York,2021-01-17 17:25:15.430580,2021-01-27 00:00:00.000000,0.68997312,1.37502666,3.26523535,8284,16510,39207,5282,10979,26412,0.43991841,0.91434756,2.19965448,0.11142596,0.17123245,0.29839746
0,3570,CanadaOntarioYork,Ontario,York,2021-01-17 17:25:15.430580,2021-01-28 00:00:00.000000,0.65354758,1.31897950,3.25294090,7847,15837,39060,5092,10629,25952,0.42408567,0.88526934,2.16134444,0.11142177,0.17123252,0.29840614
0,3570,CanadaOntarioYork,Ontario,York,2021-01-17 17:25:15.430580,2021-01-29 00:00:00.000000,0.61647976,1.27196404,3.17521832,7402,15273,38126,4908,10234,25498,0.40877858,0.85235943,2.12350537,0.11141954,0.17123254,0.29840968
0,3570,CanadaOntarioYork,Ontario,York,2021-01-17 17:25:15.430580,2021-01-30 00:00:00.000000,0.58148978,1.23180420,3.07537485,6982,14791,36927,4714,9813,25049,0.39259779,0.81727205,2.08614291,0.11141836,0.17123255,0.29841113
0,3570,CanadaOntarioYork,Ontario,York,2021-01-17 17:25:15.430580,2021-01-31 00:00:00.000000,0.54846461,1.20474594,3.05424841,6585,14466,36674,4446,9478,24864,0.37033463,0.78933886,2.07071616,0.11141772,0.17123256,0.29841173
