FIPS,HR_UID,nameid,province,region,analysisTime,dates,pointprevalence_025,pointprevalence_50,pointprevalence_975,pointinfections_025,pointinfections_50,pointinfections_975,pointinfectious_025,pointinfectious_50,pointinfectious_975,pointinfectiousprevalence_05,pointinfectiousprevalence_50,pointinfectiousprevalence_95,infectrate_025,infectrate_50,infectrate_975
37095,0,USNorthCarolinaHyde,North Carolina,Hyde,2021-01-05 14:05:52.629154,2020-03-09 00:00:00.000000,0.00197628,0.03244265,0.15973006,0,1,7,0,0,4,0.00094770,0.01822887,0.09430974,0.35767687,0.52201400,0.68069218
37095,0,USNorthCarolinaHyde,North Carolina,Hyde,2021-01-05 14:05:52.629154,2020-03-10 00:00:00.000000,0.00227881,0.03620789,0.16860281,0,1,8,0,0,4,0.00099428,0.01844302,0.08876210,0.35767639,0.52199367,0.68066947
37095,0,USNorthCarolinaHyde,North Carolina,Hyde,2021-01-05 14:05:52.629154,2020-03-11 00:00:00.000000,0.00258873,0.03957725,0.17844751,0,1,8,0,0,4,0.00109481,0.01911253,0.08861765,0.35767509,0.52195335,0.68062676
37095,0,USNorthCarolinaHyde,North Carolina,Hyde,2021-01-05 14:05:52.629154,2020-03-12 00:00:00.000000,0.00291286,0.04337627,0.18913978,0,2,9,0,1,4,0.00122619,0.02094919,0.09154283,0.35767160,0.52187348,0.68054721
37095,0,USNorthCarolinaHyde,North Carolina,Hyde,2021-01-05 14:05:52.629154,2020-03-13 00:00:00.000000,0.00325650,0.04745354,0.20055351,0,2,9,0,1,4,0.00137766,0.02225285,0.09592496,0.35766225,0.52171546,0.68040151
37095,0,USNorthCarolinaHyde,North Carolina,Hyde,2021-01-05 14:05:52.629154,2020-03-14 00:00:00.000000,0.00362420,0.05036858,0.20403051,0,2,10,0,1,4,0.00154470,0.02396247,0.10123324,0.35763719,0.52144920,0.67749280
37095,0,USNorthCarolinaHyde,North Carolina,Hyde,2021-01-05 14:05:52.629154,2020-03-15 00:00:00.000000,0.00402024,0.05360196,0.20513244,0,2,10,0,1,5,0.00172602,0.02562058,0.10718770,0.35756998,0.52142597,0.66053782
37095,0,USNorthCarolinaHyde,North Carolina,Hyde,2021-01-05 14:05:52.629154,2020-03-16 00:00:00.000000,0.00444871,0.05756219,0.21182743,0,2,10,0,1,5,0.00192197,0.02732547,0.11356179,0.35738993,0.52133340,0.65804409
37095,0,USNorthCarolinaHyde,North Carolina,Hyde,2021-01-05 14:05:52.629154,2020-03-17 00:00:00.000000,0.00491340,0.06160509,0.22017332,0,3,10,0,1,5,0.00213377,0.02944272,0.12032956,0.34277805,0.52083390,0.65803630
37095,0,USNorthCarolinaHyde,North Carolina,Hyde,2021-01-05 14:05:52.629154,2020-03-18 00:00:00.000000,0.00541640,0.06614503,0.23992576,0,3,11,0,1,6,0.00236303,0.03190400,0.12642113,0.34409154,0.51448616,0.65801115
37095,0,USNorthCarolinaHyde,North Carolina,Hyde,2021-01-05 14:05:52.629154,2020-03-19 00:00:00.000000,0.00595245,0.06932603,0.25881638,0,3,12,0,1,6,0.00261118,0.03386469,0.13112538,0.34540026,0.50813148,0.65789946
37095,0,USNorthCarolinaHyde,North Carolina,Hyde,2021-01-05 14:05:52.629154,2020-03-20 00:00:00.000000,0.00649452,0.07316438,0.27528242,0,3,13,0,1,6,0.00287780,0.03606635,0.13449041,0.32659115,0.48294260,0.65719345
37095,0,USNorthCarolinaHyde,North Carolina,Hyde,2021-01-05 14:05:52.629154,2020-03-21 00:00:00.000000,0.00700219,0.07892033,0.28851657,0,3,14,0,1,6,0.00315639,0.03877478,0.13838625,0.30108212,0.46571264,0.63756567
37095,0,USNorthCarolinaHyde,North Carolina,Hyde,2021-01-05 14:05:52.629154,2020-03-22 00:00:00.000000,0.00748449,0.08467345,0.29885632,0,4,14,0,2,7,0.00343365,0.04110559,0.14701374,0.29038542,0.43568039,0.63488374
37095,0,USNorthCarolinaHyde,North Carolina,Hyde,2021-01-05 14:05:52.629154,2020-03-23 00:00:00.000000,0.00797450,0.08917620,0.30717993,0,4,15,0,2,7,0.00370381,0.04358024,0.15429626,0.27935607,0.40846406,0.62807233
37095,0,USNorthCarolinaHyde,North Carolina,Hyde,2021-01-05 14:05:52.629154,2020-03-24 00:00:00.000000,0.00848810,0.09326587,0.31429410,0,4,15,0,2,7,0.00397145,0.04662044,0.16033125,0.27867319,0.39779606,0.57745991
37095,0,USNorthCarolinaHyde,North Carolina,Hyde,2021-01-05 14:05:52.629154,2020-03-25 00:00:00.000000,0.00903133,0.09735903,0.32074894,0,4,15,0,2,8,0.00424325,0.04975091,0.16537918,0.27351269,0.36829093,0.56980775
37095,0,USNorthCarolinaHyde,North Carolina,Hyde,2021-01-05 14:05:52.629154,2020-03-26 00:00:00.000000,0.00960725,0.10158137,0.33009631,0,5,16,0,2,8,0.00452450,0.05298063,0.17094695,0.22894510,0.36306205,0.53711635
37095,0,USNorthCarolinaHyde,North Carolina,Hyde,2021-01-05 14:05:52.629154,2020-03-27 00:00:00.000000,0.01021715,0.10741999,0.33865373,0,5,16,0,2,8,0.00481889,0.05632875,0.17983216,0.22701034,0.34036708,0.50661715
37095,0,USNorthCarolinaHyde,North Carolina,Hyde,2021-01-05 14:05:52.629154,2020-03-28 00:00:00.000000,0.01085550,0.11169296,0.33919137,0,5,16,0,2,8,0.00512878,0.05824170,0.18018571,0.22205668,0.33287678,0.48756396
37095,0,USNorthCarolinaHyde,North Carolina,Hyde,2021-01-05 14:05:52.629154,2020-03-29 00:00:00.000000,0.01148778,0.11109332,0.34387908,0,5,16,0,2,8,0.00545418,0.05956229,0.18121307,0.21086844,0.31498965,0.48914274
37095,0,USNorthCarolinaHyde,North Carolina,Hyde,2021-01-05 14:05:52.629154,2020-03-30 00:00:00.000000,0.01205480,0.11242898,0.34456114,0,5,17,0,2,9,0.00578708,0.05875853,0.18438234,0.21200625,0.30281406,0.48932160
37095,0,USNorthCarolinaHyde,North Carolina,Hyde,2021-01-05 14:05:52.629154,2020-03-31 00:00:00.000000,0.01258461,0.11057330,0.34137432,0,5,16,0,2,9,0.00610893,0.05921305,0.18632134,0.21003143,0.29743855,0.48900519
37095,0,USNorthCarolinaHyde,North Carolina,Hyde,2021-01-05 14:05:52.629154,2020-04-01 00:00:00.000000,0.01311989,0.10840448,0.33625567,0,5,16,0,2,9,0.00641518,0.06006983,0.18661779,0.20746608,0.29065241,0.48811278
37095,0,USNorthCarolinaHyde,North Carolina,Hyde,2021-01-05 14:05:52.629154,2020-04-02 00:00:00.000000,0.01367057,0.10913418,0.33020441,0,5,16,0,2,9,0.00671356,0.06064430,0.18528944,0.20334760,0.27997347,0.48400378
37095,0,USNorthCarolinaHyde,North Carolina,Hyde,2021-01-05 14:05:52.629154,2020-04-03 00:00:00.000000,0.01423344,0.10737625,0.32393342,0,5,15,0,2,9,0.00701128,0.06022037,0.18297636,0.19631379,0.27373473,0.48056652
37095,0,USNorthCarolinaHyde,North Carolina,Hyde,2021-01-05 14:05:52.629154,2020-04-04 00:00:00.000000,0.01479199,0.10503291,0.31759762,0,5,15,0,2,8,0.00731168,0.06057317,0.18204772,0.17638363,0.26433845,0.47994257
37095,0,USNorthCarolinaHyde,North Carolina,Hyde,2021-01-05 14:05:52.629154,2020-04-05 00:00:00.000000,0.01532377,0.10136715,0.31129304,0,5,15,0,2,9,0.00761274,0.05951522,0.18435016,0.16044542,0.24865293,0.47059308
37095,0,USNorthCarolinaHyde,North Carolina,Hyde,2021-01-05 14:05:52.629154,2020-04-06 00:00:00.000000,0.01583344,0.10135758,0.30509510,0,5,15,0,2,9,0.00790792,0.05773111,0.18617206,0.15273799,0.24085967,0.43683612
37095,0,USNorthCarolinaHyde,North Carolina,Hyde,2021-01-05 14:05:52.629154,2020-04-07 00:00:00.000000,0.01634058,0.09998608,0.29911413,0,4,14,0,2,9,0.00819439,0.05756094,0.18756028,0.14951985,0.23802887,0.42608175
37095,0,USNorthCarolinaHyde,North Carolina,Hyde,2021-01-05 14:05:52.629154,2020-04-08 00:00:00.000000,0.01685413,0.10106233,0.29333463,0,4,14,0,2,9,0.00847518,0.05655554,0.18476123,0.14871859,0.23574513,0.41152232
37095,0,USNorthCarolinaHyde,North Carolina,Hyde,2021-01-05 14:05:52.629154,2020-04-09 00:00:00.000000,0.01737319,0.09841566,0.28119325,0,4,13,0,2,8,0.00875429,0.05697395,0.17271994,0.14822828,0.22617781,0.41073788
37095,0,USNorthCarolinaHyde,North Carolina,Hyde,2021-01-05 14:05:52.629154,2020-04-10 00:00:00.000000,0.01788708,0.09743860,0.27806335,0,4,13,0,2,7,0.00903386,0.05827756,0.16138561,0.14766061,0.22124091,0.40799393
37095,0,USNorthCarolinaHyde,North Carolina,Hyde,2021-01-05 14:05:52.629154,2020-04-11 00:00:00.000000,0.01836905,0.09703593,0.27397910,0,4,13,0,2,7,0.00931261,0.05740526,0.15838769,0.14650804,0.21380375,0.39719238
37095,0,USNorthCarolinaHyde,North Carolina,Hyde,2021-01-05 14:05:52.629154,2020-04-12 00:00:00.000000,0.01877134,0.09307244,0.26822531,0,4,13,0,2,7,0.00958349,0.05450451,0.15515448,0.14308484,0.20807476,0.36424962
37095,0,USNorthCarolinaHyde,North Carolina,Hyde,2021-01-05 14:05:52.629154,2020-04-13 00:00:00.000000,0.03349899,0.11939171,0.29036274,1,5,14,0,2,7,0.00983127,0.05315463,0.15159070,0.13841373,0.20551862,0.32904002
37095,0,USNorthCarolinaHyde,North Carolina,Hyde,2021-01-05 14:05:52.629154,2020-04-14 00:00:00.000000,0.04457098,0.14022862,0.31953728,2,6,15,0,2,7,0.01336639,0.05829439,0.16202962,0.13524822,0.19916685,0.32284063
37095,0,USNorthCarolinaHyde,North Carolina,Hyde,2021-01-05 14:05:52.629154,2020-04-15 00:00:00.000000,0.05087216,0.16035395,0.37214526,2,7,18,0,3,9,0.01885576,0.06905562,0.18514967,0.13069391,0.19616802,0.31914341
37095,0,USNorthCarolinaHyde,North Carolina,Hyde,2021-01-05 14:05:52.629154,2020-04-16 00:00:00.000000,0.05517169,0.17742494,0.42460356,2,8,20,1,4,10,0.02409229,0.08325009,0.21261199,0.12654986,0.19223187,0.31726688
37095,0,USNorthCarolinaHyde,North Carolina,Hyde,2021-01-05 14:05:52.629154,2020-04-17 00:00:00.000000,0.05959740,0.19243634,0.48221089,2,9,23,1,4,11,0.02871435,0.09412452,0.23388181,0.11677201,0.18711632,0.31304997
37095,0,USNorthCarolinaHyde,North Carolina,Hyde,2021-01-05 14:05:52.629154,2020-04-18 00:00:00.000000,0.06409115,0.20992412,0.54223287,3,10,26,1,5,12,0.03351573,0.10211841,0.26229980,0.11407286,0.18481099,0.30169572
37095,0,USNorthCarolinaHyde,North Carolina,Hyde,2021-01-05 14:05:52.629154,2020-04-19 00:00:00.000000,0.06858953,0.22971247,0.59196407,3,11,29,1,5,15,0.03670698,0.10950587,0.30576985,0.11274011,0.18000449,0.28918601
37095,0,USNorthCarolinaHyde,North Carolina,Hyde,2021-01-05 14:05:52.629154,2020-04-20 00:00:00.000000,0.09685964,0.25465527,0.59849981,4,12,29,1,5,16,0.03941291,0.12079227,0.33764890,0.11212012,0.17780864,0.28787934
37095,0,USNorthCarolinaHyde,North Carolina,Hyde,2021-01-05 14:05:52.629154,2020-04-21 00:00:00.000000,0.11101175,0.27546740,0.60377192,5,13,29,2,6,17,0.04896916,0.13135298,0.35738730,0.11183728,0.17378546,0.27927881
37095,0,USNorthCarolinaHyde,North Carolina,Hyde,2021-01-05 14:05:52.629154,2020-04-22 00:00:00.000000,0.12044203,0.29703013,0.60556516,5,14,29,2,7,18,0.05177856,0.14234029,0.36929043,0.11170468,0.16932895,0.27702411
37095,0,USNorthCarolinaHyde,North Carolina,Hyde,2021-01-05 14:05:52.629154,2020-04-23 00:00:00.000000,0.12963314,0.32086596,0.60508021,6,15,29,3,7,18,0.06555992,0.15425324,0.37585574,0.11167767,0.16696271,0.27640594
37095,0,USNorthCarolinaHyde,North Carolina,Hyde,2021-01-05 14:05:52.629154,2020-04-24 00:00:00.000000,0.13822869,0.33709796,0.60264022,6,16,29,3,8,18,0.07074837,0.16616602,0.37935055,0.10947413,0.16023375,0.27582917
37095,0,USNorthCarolinaHyde,North Carolina,Hyde,2021-01-05 14:05:52.629154,2020-04-25 00:00:00.000000,0.14604721,0.35431754,0.59718547,7,17,29,3,8,18,0.07586751,0.17665870,0.38064506,0.10674886,0.16035253,0.27326075
37095,0,USNorthCarolinaHyde,North Carolina,Hyde,2021-01-05 14:05:52.629154,2020-04-26 00:00:00.000000,0.15712823,0.36767154,0.58777705,7,18,29,3,9,18,0.08066725,0.19149590,0.37302743,0.10551691,0.15654758,0.26568981
37095,0,USNorthCarolinaHyde,North Carolina,Hyde,2021-01-05 14:05:52.629154,2020-04-27 00:00:00.000000,0.15119852,0.35512318,0.56167025,7,17,27,4,9,17,0.08504298,0.20061048,0.36414186,0.10502686,0.15241071,0.25355330
37095,0,USNorthCarolinaHyde,North Carolina,Hyde,2021-01-05 14:05:52.629154,2020-04-28 00:00:00.000000,0.14468987,0.34419885,0.55025698,7,16,27,4,10,17,0.08447460,0.20265910,0.36455180,0.10484625,0.15010601,0.24172539
37095,0,USNorthCarolinaHyde,North Carolina,Hyde,2021-01-05 14:05:52.629154,2020-04-29 00:00:00.000000,0.13707891,0.33278922,0.53061984,6,16,26,4,10,17,0.08112727,0.20326576,0.35999860,0.10481594,0.14701268,0.23889522
37095,0,USNorthCarolinaHyde,North Carolina,Hyde,2021-01-05 14:05:52.629154,2020-04-30 00:00:00.000000,0.12891628,0.31902969,0.51092886,6,15,25,3,9,17,0.07633341,0.20063439,0.35308746,0.10488073,0.14667839,0.23935401
37095,0,USNorthCarolinaHyde,North Carolina,Hyde,2021-01-05 14:05:52.629154,2020-05-01 00:00:00.000000,0.12038440,0.30842249,0.49335253,5,15,24,3,9,17,0.07089685,0.19606972,0.34515088,0.10261987,0.14695000,0.23916854
37095,0,USNorthCarolinaHyde,North Carolina,Hyde,2021-01-05 14:05:52.629154,2020-05-02 00:00:00.000000,0.11159858,0.29455612,0.48267431,5,14,23,3,9,16,0.06529130,0.18543740,0.33657629,0.10065638,0.14486529,0.23824635
37095,0,USNorthCarolinaHyde,North Carolina,Hyde,2021-01-05 14:05:52.629154,2020-05-03 00:00:00.000000,0.10285134,0.28039942,0.47908250,5,13,23,2,8,16,0.06061452,0.17582328,0.32771255,0.10015665,0.14450149,0.23634579
37095,0,USNorthCarolinaHyde,North Carolina,Hyde,2021-01-05 14:05:52.629154,2020-05-04 00:00:00.000000,0.09442915,0.26646164,0.47535001,4,13,23,2,8,15,0.05625164,0.16621957,0.31879366,0.10009818,0.14350925,0.23041833
37095,0,USNorthCarolinaHyde,North Carolina,Hyde,2021-01-05 14:05:52.629154,2020-05-05 00:00:00.000000,0.08648753,0.25133793,0.47106065,4,12,23,2,7,15,0.05192635,0.15722413,0.31001888,0.09979909,0.14198425,0.22557510
37095,0,USNorthCarolinaHyde,North Carolina,Hyde,2021-01-05 14:05:52.629154,2020-05-06 00:00:00.000000,0.07913768,0.23757553,0.46562659,3,11,22,2,7,14,0.04775073,0.15033124,0.30156892,0.09973397,0.14331293,0.21551379
37095,0,USNorthCarolinaHyde,North Carolina,Hyde,2021-01-05 14:05:52.629154,2020-05-07 00:00:00.000000,0.07237060,0.22420191,0.45833960,3,11,22,2,7,14,0.04379517,0.14346141,0.29385170,0.10134083,0.14084323,0.21461583
37095,0,USNorthCarolinaHyde,North Carolina,Hyde,2021-01-05 14:05:52.629154,2020-05-08 00:00:00.000000,0.06633598,0.21236616,0.44874665,3,10,22,1,6,14,0.04010499,0.13550657,0.28918097,0.09457671,0.14290465,0.21345536
37095,0,USNorthCarolinaHyde,North Carolina,Hyde,2021-01-05 14:05:52.629154,2020-05-09 00:00:00.000000,0.06121348,0.20104104,0.43706025,3,9,21,1,6,14,0.03673941,0.12884646,0.28484097,0.08783808,0.14201787,0.21165795
37095,0,USNorthCarolinaHyde,North Carolina,Hyde,2021-01-05 14:05:52.629154,2020-05-10 00:00:00.000000,0.05675041,0.19092892,0.42398981,2,9,20,1,6,13,0.03377452,0.12277994,0.28080749,0.08555637,0.14018351,0.21014683
37095,0,USNorthCarolinaHyde,North Carolina,Hyde,2021-01-05 14:05:52.629154,2020-05-11 00:00:00.000000,0.05271906,0.18030872,0.41150503,2,8,20,1,5,13,0.03118056,0.11680740,0.27703006,0.08511354,0.13981006,0.20920773
37095,0,USNorthCarolinaHyde,North Carolina,Hyde,2021-01-05 14:05:52.629154,2020-05-12 00:00:00.000000,0.04903113,0.16844305,0.40644832,2,8,20,1,5,13,0.02887869,0.11064561,0.27344487,0.08462486,0.13706855,0.20870890
37095,0,USNorthCarolinaHyde,North Carolina,Hyde,2021-01-05 14:05:52.629154,2020-05-13 00:00:00.000000,0.04563201,0.15760560,0.40115594,2,7,19,1,5,13,0.02681095,0.10491410,0.26998554,0.08325856,0.13276914,0.20849043
37095,0,USNorthCarolinaHyde,North Carolina,Hyde,2021-01-05 14:05:52.629154,2020-05-14 00:00:00.000000,0.04248142,0.14972196,0.38896490,2,7,19,1,4,13,0.02492389,0.09922712,0.26658875,0.07940828,0.13558413,0.20866433
37095,0,USNorthCarolinaHyde,North Carolina,Hyde,2021-01-05 14:05:52.629154,2020-05-15 00:00:00.000000,0.03954913,0.14180496,0.37664296,1,7,18,1,4,12,0.02318705,0.09349490,0.26319736,0.08054237,0.13981139,0.21118112
37095,0,USNorthCarolinaHyde,North Carolina,Hyde,2021-01-05 14:05:52.629154,2020-05-16 00:00:00.000000,0.03681206,0.13335126,0.36370255,1,6,17,1,4,12,0.02157871,0.08856553,0.25839095,0.08237303,0.13815599,0.21389787
37095,0,USNorthCarolinaHyde,North Carolina,Hyde,2021-01-05 14:05:52.629154,2020-05-17 00:00:00.000000,0.03424860,0.12338696,0.34969493,1,6,17,0,4,12,0.02008305,0.08313984,0.25013092,0.08313260,0.13475771,0.21866339
37095,0,USNorthCarolinaHyde,North Carolina,Hyde,2021-01-05 14:05:52.629154,2020-05-18 00:00:00.000000,0.05897510,0.13977133,0.37424606,2,6,18,0,3,11,0.01868723,0.07800317,0.24148584,0.08327431,0.13467092,0.22223624
37095,0,USNorthCarolinaHyde,North Carolina,Hyde,2021-01-05 14:05:52.629154,2020-05-19 00:00:00.000000,0.07858215,0.16009573,0.41981509,3,7,20,1,3,11,0.02681529,0.07828145,0.23666830,0.08081835,0.13414569,0.22234036
37095,0,USNorthCarolinaHyde,North Carolina,Hyde,2021-01-05 14:05:52.629154,2020-05-20 00:00:00.000000,0.08356708,0.17733044,0.44163392,4,8,21,1,4,12,0.03893552,0.08284553,0.25460346,0.07654081,0.13305371,0.21924557
37095,0,USNorthCarolinaHyde,North Carolina,Hyde,2021-01-05 14:05:52.629154,2020-05-21 00:00:00.000000,0.08847140,0.19418779,0.50947821,4,9,25,2,4,13,0.04536041,0.09282466,0.27323810,0.07549083,0.13242976,0.21346588
37095,0,USNorthCarolinaHyde,North Carolina,Hyde,2021-01-05 14:05:52.629154,2020-05-22 00:00:00.000000,0.09334441,0.21487743,0.57279253,4,10,28,2,4,14,0.04847951,0.09773332,0.28467287,0.07526126,0.13011731,0.21651956
37095,0,USNorthCarolinaHyde,North Carolina,Hyde,2021-01-05 14:05:52.629154,2020-05-23 00:00:00.000000,0.09805097,0.22658984,0.59619641,4,11,29,2,5,15,0.05076587,0.10565241,0.31518474,0.07522372,0.12857488,0.22192433
37095,0,USNorthCarolinaHyde,North Carolina,Hyde,2021-01-05 14:05:52.629154,2020-05-24 00:00:00.000000,0.10264072,0.24313613,0.61930603,5,12,30,2,5,17,0.05301458,0.11722601,0.34673081,0.07524322,0.12943976,0.23044163
37095,0,USNorthCarolinaHyde,North Carolina,Hyde,2021-01-05 14:05:52.629154,2020-05-25 00:00:00.000000,0.13895328,0.26753761,0.62967252,6,13,31,2,6,19,0.05514164,0.13043745,0.38563018,0.07529337,0.12976604,0.22575865
37095,0,USNorthCarolinaHyde,North Carolina,Hyde,2021-01-05 14:05:52.629154,2020-05-26 00:00:00.000000,0.15288860,0.28431052,0.63965887,7,14,31,3,6,20,0.06825288,0.13942933,0.41129642,0.07537960,0.12998942,0.22266871
37095,0,USNorthCarolinaHyde,North Carolina,Hyde,2021-01-05 14:05:52.629154,2020-05-27 00:00:00.000000,0.16058557,0.30624996,0.64891193,7,15,32,4,7,20,0.08159368,0.15101528,0.42046785,0.07563422,0.12836744,0.22079770
37095,0,USNorthCarolinaHyde,North Carolina,Hyde,2021-01-05 14:05:52.629154,2020-05-28 00:00:00.000000,0.16393988,0.32911093,0.65770394,8,16,32,4,7,21,0.08664587,0.15885347,0.42827323,0.07580962,0.12426433,0.21819369
37095,0,USNorthCarolinaHyde,North Carolina,Hyde,2021-01-05 14:05:52.629154,2020-05-29 00:00:00.000000,0.17268751,0.34566141,0.67093685,8,17,33,4,8,21,0.08919787,0.16870696,0.43522768,0.07630669,0.12572098,0.21080061
37095,0,USNorthCarolinaHyde,North Carolina,Hyde,2021-01-05 14:05:52.629154,2020-05-30 00:00:00.000000,0.18416746,0.36626671,0.71638319,9,18,35,4,8,21,0.09126791,0.17969670,0.44172041,0.07713953,0.12663269,0.20600498
37095,0,USNorthCarolinaHyde,North Carolina,Hyde,2021-01-05 14:05:52.629154,2020-05-31 00:00:00.000000,0.17708292,0.38538340,0.75468156,8,19,37,4,9,22,0.09337498,0.19266428,0.45048598,0.07836806,0.12664521,0.20411595
37095,0,USNorthCarolinaHyde,North Carolina,Hyde,2021-01-05 14:05:52.629154,2020-06-01 00:00:00.000000,0.20828082,0.40531764,0.77299242,10,20,38,4,10,22,0.09654504,0.20743923,0.45806319,0.07789983,0.12528774,0.20518275
37095,0,USNorthCarolinaHyde,North Carolina,Hyde,2021-01-05 14:05:52.629154,2020-06-02 00:00:00.000000,0.22028908,0.41449949,0.79695699,10,20,39,5,10,23,0.10629943,0.21615816,0.46642492,0.07763722,0.12357348,0.20550451
37095,0,USNorthCarolinaHyde,North Carolina,Hyde,2021-01-05 14:05:52.629154,2020-06-03 00:00:00.000000,0.23150331,0.45390853,0.83997038,11,22,41,5,11,23,0.11919710,0.22422197,0.47974355,0.07863463,0.12173881,0.20546806
37095,0,USNorthCarolinaHyde,North Carolina,Hyde,2021-01-05 14:05:52.629154,2020-06-04 00:00:00.000000,0.24174763,0.48198513,0.88238067,11,23,43,5,12,24,0.11931406,0.24689964,0.49275535,0.08075584,0.12144018,0.20502697
37095,0,USNorthCarolinaHyde,North Carolina,Hyde,2021-01-05 14:05:52.629154,2020-06-05 00:00:00.000000,0.25107881,0.50411877,0.90115496,12,24,44,6,13,24,0.12528305,0.26332050,0.50008785,0.08386185,0.12284028,0.20406508
37095,0,USNorthCarolinaHyde,North Carolina,Hyde,2021-01-05 14:05:52.629154,2020-06-06 00:00:00.000000,0.25939958,0.51910268,0.90580102,12,25,44,6,13,24,0.13087688,0.27928447,0.49790617,0.08579329,0.12291509,0.20307676
37095,0,USNorthCarolinaHyde,North Carolina,Hyde,2021-01-05 14:05:52.629154,2020-06-07 00:00:00.000000,0.24724330,0.54372144,0.99058228,12,26,48,6,14,25,0.13601746,0.29125029,0.51065819,0.08446300,0.12392809,0.20580536
37095,0,USNorthCarolinaHyde,North Carolina,Hyde,2021-01-05 14:05:52.629154,2020-06-08 00:00:00.000000,0.25166212,0.55341316,0.95883318,12,27,47,6,14,26,0.13869580,0.30107706,0.52988421,0.08500581,0.12817094,0.21153907
37095,0,USNorthCarolinaHyde,North Carolina,Hyde,2021-01-05 14:05:52.629154,2020-06-09 00:00:00.000000,0.25762718,0.56398601,1.00404415,12,27,49,6,15,26,0.13563192,0.30383842,0.53239759,0.08571553,0.12783012,0.21284210
37095,0,USNorthCarolinaHyde,North Carolina,Hyde,2021-01-05 14:05:52.629154,2020-06-10 00:00:00.000000,0.28219236,0.58012039,1.00626424,13,28,49,6,15,26,0.13584642,0.31896746,0.54667471,0.08566017,0.12706821,0.21325292
37095,0,USNorthCarolinaHyde,North Carolina,Hyde,2021-01-05 14:05:52.629154,2020-06-11 00:00:00.000000,0.30171227,0.59947187,1.10165523,14,29,54,7,16,28,0.14494069,0.32577569,0.57865060,0.08562671,0.12789720,0.22113759
37095,0,USNorthCarolinaHyde,North Carolina,Hyde,2021-01-05 14:05:52.629154,2020-06-12 00:00:00.000000,0.30548197,0.61353001,1.13472974,15,30,56,7,16,30,0.15164817,0.33664041,0.62118532,0.08557921,0.13004929,0.22939283
37095,0,USNorthCarolinaHyde,North Carolina,Hyde,2021-01-05 14:05:52.629154,2020-06-13 00:00:00.000000,0.30836559,0.62688047,1.24781906,15,30,61,7,17,33,0.16136803,0.35135150,0.68578083,0.08540858,0.13039239,0.23702558
37095,0,USNorthCarolinaHyde,North Carolina,Hyde,2021-01-05 14:05:52.629154,2020-06-14 00:00:00.000000,0.31024636,0.65790389,1.31578631,15,32,64,8,17,35,0.17312939,0.36093672,0.72034867,0.08282820,0.13167169,0.24337000
37095,0,USNorthCarolinaHyde,North Carolina,Hyde,2021-01-05 14:05:52.629154,2020-06-15 00:00:00.000000,0.34894444,0.67787884,1.34850689,17,33,66,8,17,35,0.18040875,0.36377223,0.72611298,0.07805136,0.13054481,0.24798974
37095,0,USNorthCarolinaHyde,North Carolina,Hyde,2021-01-05 14:05:52.629154,2020-06-16 00:00:00.000000,0.38735893,0.68285169,1.33426081,19,33,65,9,18,37,0.19205735,0.37309213,0.76235556,0.07635604,0.13010502,0.24784514
37095,0,USNorthCarolinaHyde,North Carolina,Hyde,2021-01-05 14:05:52.629154,2020-06-17 00:00:00.000000,0.39270988,0.70833142,1.31364341,19,34,64,9,18,39,0.19739378,0.38339442,0.79962520,0.07586102,0.13038999,0.24758908
37095,0,USNorthCarolinaHyde,North Carolina,Hyde,2021-01-05 14:05:52.629154,2020-06-18 00:00:00.000000,0.39596605,0.73274850,1.28910404,19,36,63,9,19,41,0.20117016,0.38967727,0.83627159,0.07585886,0.13058267,0.24803710
37095,0,USNorthCarolinaHyde,North Carolina,Hyde,2021-01-05 14:05:52.629154,2020-06-19 00:00:00.000000,0.39787513,0.75826044,1.26175130,19,37,62,10,19,43,0.20378226,0.39363527,0.87117017,0.07607969,0.13108495,0.24798460
37095,0,USNorthCarolinaHyde,North Carolina,Hyde,2021-01-05 14:05:52.629154,2020-06-20 00:00:00.000000,0.39888618,0.76704631,1.28228409,19,37,63,10,19,42,0.20549499,0.39894824,0.86446087,0.07781103,0.13248723,0.25503768
37095,0,USNorthCarolinaHyde,North Carolina,Hyde,2021-01-05 14:05:52.629154,2020-06-21 00:00:00.000000,0.39935319,0.76594546,1.34988278,19,37,66,10,20,41,0.20654892,0.41476950,0.84793725,0.07645049,0.13343363,0.26596559
37095,0,USNorthCarolinaHyde,North Carolina,Hyde,2021-01-05 14:05:52.629154,2020-06-22 00:00:00.000000,0.44453847,0.77487976,1.37633774,21,38,67,10,21,40,0.20715317,0.42861072,0.82964100,0.07657411,0.13435985,0.27877218
37095,0,USNorthCarolinaHyde,North Carolina,Hyde,2021-01-05 14:05:52.629154,2020-06-23 00:00:00.000000,0.46492962,0.79540759,1.38358474,22,39,68,11,21,39,0.22774234,0.43741397,0.81004656,0.07666201,0.13489681,0.28913988
37095,0,USNorthCarolinaHyde,North Carolina,Hyde,2021-01-05 14:05:52.629154,2020-06-24 00:00:00.000000,0.47442753,0.80252850,1.53406716,23,39,75,12,22,39,0.25816879,0.45027004,0.80834181,0.07673244,0.13579826,0.29287692
37095,0,USNorthCarolinaHyde,North Carolina,Hyde,2021-01-05 14:05:52.629154,2020-06-25 00:00:00.000000,0.48388828,0.83022593,1.46589340,23,40,72,14,22,40,0.28558268,0.46291732,0.82076016,0.07688646,0.13552681,0.28084223
37095,0,USNorthCarolinaHyde,North Carolina,Hyde,2021-01-05 14:05:52.629154,2020-06-26 00:00:00.000000,0.49319471,0.83358941,1.47897754,24,41,73,14,22,40,0.28491170,0.45996631,0.82747951,0.07754142,0.13545758,0.26179310
37095,0,USNorthCarolinaHyde,North Carolina,Hyde,2021-01-05 14:05:52.629154,2020-06-27 00:00:00.000000,0.48378263,0.85382881,1.55336655,23,42,76,14,23,41,0.28392808,0.47176856,0.83242156,0.08023773,0.13356672,0.25840935
37095,0,USNorthCarolinaHyde,North Carolina,Hyde,2021-01-05 14:05:52.629154,2020-06-28 00:00:00.000000,0.47535491,0.89206095,1.63171946,23,44,80,14,23,43,0.29053900,0.48384678,0.87862771,0.08024382,0.13383522,0.23421386
37095,0,USNorthCarolinaHyde,North Carolina,Hyde,2021-01-05 14:05:52.629154,2020-06-29 00:00:00.000000,0.50187734,0.92279130,1.70716846,24,45,84,14,24,45,0.29624076,0.49351491,0.92474160,0.08009904,0.13544573,0.23326867
37095,0,USNorthCarolinaHyde,North Carolina,Hyde,2021-01-05 14:05:52.629154,2020-06-30 00:00:00.000000,0.53039368,0.93766321,1.78577062,26,46,88,14,25,47,0.30072428,0.51230024,0.97205955,0.08019783,0.13724353,0.23201679
37095,0,USNorthCarolinaHyde,North Carolina,Hyde,2021-01-05 14:05:52.629154,2020-07-01 00:00:00.000000,0.55859327,0.95147324,1.86096620,27,46,91,15,25,50,0.31186668,0.51844454,1.01907710,0.08047427,0.14061468,0.23181964
37095,0,USNorthCarolinaHyde,North Carolina,Hyde,2021-01-05 14:05:52.629154,2020-07-02 00:00:00.000000,0.57033044,0.96510073,1.93010928,28,47,95,15,25,52,0.31724083,0.52491542,1.06496449,0.08097716,0.14311991,0.22908804
37095,0,USNorthCarolinaHyde,North Carolina,Hyde,2021-01-05 14:05:52.629154,2020-07-03 00:00:00.000000,0.58223245,0.97908381,1.99460834,28,48,98,15,26,54,0.31539789,0.53215448,1.10931004,0.08164313,0.14417717,0.22998383
37095,0,USNorthCarolinaHyde,North Carolina,Hyde,2021-01-05 14:05:52.629154,2020-07-04 00:00:00.000000,0.57980498,1.02951232,1.99390591,28,50,98,15,26,56,0.30951410,0.53925673,1.15166865,0.08061052,0.15077343,0.23056096
37095,0,USNorthCarolinaHyde,North Carolina,Hyde,2021-01-05 14:05:52.629154,2020-07-05 00:00:00.000000,0.56718581,1.03258801,1.94866933,28,50,96,14,26,56,0.30343703,0.54224422,1.14348041,0.08303157,0.15236397,0.22714698
37095,0,USNorthCarolinaHyde,North Carolina,Hyde,2021-01-05 14:05:52.629154,2020-07-06 00:00:00.000000,0.55982777,1.04014418,1.90677815,27,51,94,14,28,56,0.29786949,0.57261826,1.14494628,0.08439743,0.15357859,0.22498286
37095,0,USNorthCarolinaHyde,North Carolina,Hyde,2021-01-05 14:05:52.629154,2020-07-07 00:00:00.000000,0.55424279,1.03835718,1.86522099,27,51,92,15,29,58,0.30558243,0.58788821,1.18858554,0.08502177,0.15555637,0.23286747
37095,0,USNorthCarolinaHyde,North Carolina,Hyde,2021-01-05 14:05:52.629154,2020-07-08 00:00:00.000000,0.57475886,1.01857498,1.85205748,28,50,91,15,29,59,0.31541983,0.59164113,1.21305402,0.08528991,0.15664206,0.23488290
37095,0,USNorthCarolinaHyde,North Carolina,Hyde,2021-01-05 14:05:52.629154,2020-07-09 00:00:00.000000,0.59494974,1.01405183,1.86813097,29,50,92,16,28,60,0.32637682,0.58611314,1.22935538,0.08542292,0.15586242,0.23558593
37095,0,USNorthCarolinaHyde,North Carolina,Hyde,2021-01-05 14:05:52.629154,2020-07-10 00:00:00.000000,0.61459843,1.00703906,1.88616481,30,49,93,16,29,61,0.33782597,0.58933962,1.24281647,0.08564221,0.15366864,0.23237809
37095,0,USNorthCarolinaHyde,North Carolina,Hyde,2021-01-05 14:05:52.629154,2020-07-11 00:00:00.000000,0.60479113,0.98648059,1.90527701,29,48,94,17,28,61,0.34913772,0.58330158,1.25559664,0.08688785,0.15466067,0.23447186
37095,0,USNorthCarolinaHyde,North Carolina,Hyde,2021-01-05 14:05:52.629154,2020-07-12 00:00:00.000000,0.57967802,0.97830192,1.93571314,28,48,95,17,28,62,0.35038934,0.57736426,1.26843708,0.09292602,0.15663505,0.23771812
37095,0,USNorthCarolinaHyde,North Carolina,Hyde,2021-01-05 14:05:52.629154,2020-07-13 00:00:00.000000,0.57970850,0.96602498,1.95842770,28,47,96,17,28,62,0.35169176,0.57421989,1.26811741,0.10226086,0.15760930,0.24508913
37095,0,USNorthCarolinaHyde,North Carolina,Hyde,2021-01-05 14:05:52.629154,2020-07-14 00:00:00.000000,0.56453857,0.96984650,1.98013707,27,47,97,17,27,62,0.34889985,0.56709765,1.26754378,0.10556647,0.15925136,0.24662078
37095,0,USNorthCarolinaHyde,North Carolina,Hyde,2021-01-05 14:05:52.629154,2020-07-15 00:00:00.000000,0.54504530,0.95752915,2.00099902,26,47,98,16,27,62,0.33465024,0.56210807,1.26803635,0.10613528,0.15724300,0.24671884
37095,0,USNorthCarolinaHyde,North Carolina,Hyde,2021-01-05 14:05:52.629154,2020-07-16 00:00:00.000000,0.52871937,0.94218922,2.02177156,26,46,99,15,27,62,0.32214687,0.54938283,1.26912609,0.10643274,0.16166348,0.25067128
37095,0,USNorthCarolinaHyde,North Carolina,Hyde,2021-01-05 14:05:52.629154,2020-07-17 00:00:00.000000,0.51555974,0.94718649,2.04413893,25,46,100,15,26,62,0.31142932,0.54596979,1.27058206,0.10763523,0.16529609,0.25749943
37095,0,USNorthCarolinaHyde,North Carolina,Hyde,2021-01-05 14:05:52.629154,2020-07-18 00:00:00.000000,0.50539096,0.94097657,2.07030525,24,46,102,14,26,62,0.30005415,0.53936277,1.27231783,0.10533067,0.16858042,0.25995019
37095,0,USNorthCarolinaHyde,North Carolina,Hyde,2021-01-05 14:05:52.629154,2020-07-19 00:00:00.000000,0.49785380,0.93410067,2.09667674,24,46,103,14,26,62,0.28527073,0.52981728,1.27512962,0.10293617,0.17185069,0.26041645
37095,0,USNorthCarolinaHyde,North Carolina,Hyde,2021-01-05 14:05:52.629154,2020-07-20 00:00:00.000000,0.52264916,0.93708972,2.06644362,25,46,102,13,26,63,0.27214418,0.52856317,1.29028933,0.10176719,0.17271895,0.26080809
37095,0,USNorthCarolinaHyde,North Carolina,Hyde,2021-01-05 14:05:52.629154,2020-07-21 00:00:00.000000,0.54792927,0.95373449,2.04589747,27,47,101,12,25,64,0.26157235,0.52657480,1.30826124,0.10141185,0.17505794,0.26140991
37095,0,USNorthCarolinaHyde,North Carolina,Hyde,2021-01-05 14:05:52.629154,2020-07-22 00:00:00.000000,0.57249829,0.96588643,2.07140765,28,47,102,13,25,65,0.27847125,0.51789768,1.32714235,0.10179284,0.17707198,0.26229843
37095,0,USNorthCarolinaHyde,North Carolina,Hyde,2021-01-05 14:05:52.629154,2020-07-23 00:00:00.000000,0.55000087,0.99099493,2.09185919,27,48,103,15,26,66,0.30890168,0.53020915,1.34611604,0.10334382,0.18272787,0.26399148
37095,0,USNorthCarolinaHyde,North Carolina,Hyde,2021-01-05 14:05:52.629154,2020-07-24 00:00:00.000000,0.52958333,1.02813198,2.09235753,26,50,103,14,26,67,0.29691642,0.54458310,1.36490143,0.10698605,0.18897502,0.26708614
37095,0,USNorthCarolinaHyde,North Carolina,Hyde,2021-01-05 14:05:52.629154,2020-07-25 00:00:00.000000,0.51175740,1.03592100,2.13430633,25,51,105,14,27,68,0.28566180,0.55340055,1.38345024,0.11286490,0.19123993,0.27244033
37095,0,USNorthCarolinaHyde,North Carolina,Hyde,2021-01-05 14:05:52.629154,2020-07-26 00:00:00.000000,0.49534463,1.04157824,2.14310059,24,51,105,13,28,69,0.27567624,0.56885379,1.40179572,0.11571815,0.19583191,0.28067482
37095,0,USNorthCarolinaHyde,North Carolina,Hyde,2021-01-05 14:05:52.629154,2020-07-27 00:00:00.000000,0.60036858,1.06112676,2.15591430,29,52,106,13,28,70,0.28156381,0.58412415,1.42007260,0.11859284,0.20037393,0.29122103
37095,0,USNorthCarolinaHyde,North Carolina,Hyde,2021-01-05 14:05:52.629154,2020-07-28 00:00:00.000000,0.62371505,1.11969561,2.18791147,30,55,108,14,29,70,0.30375868,0.59407664,1.42336301,0.11964696,0.20504832,0.30196864
37095,0,USNorthCarolinaHyde,North Carolina,Hyde,2021-01-05 14:05:52.629154,2020-07-29 00:00:00.000000,0.60637005,1.16082963,2.24134574,29,57,110,16,29,70,0.32651693,0.60701498,1.41806387,0.12114612,0.21064758,0.31144984
37095,0,USNorthCarolinaHyde,North Carolina,Hyde,2021-01-05 14:05:52.629154,2020-07-30 00:00:00.000000,0.59015548,1.22005603,2.25758066,29,60,111,15,31,69,0.31760908,0.63412951,1.40819219,0.12278147,0.21324595,0.32276609
37095,0,USNorthCarolinaHyde,North Carolina,Hyde,2021-01-05 14:05:52.629154,2020-07-31 00:00:00.000000,0.58931342,1.28363912,2.27400008,29,63,112,15,32,68,0.30905147,0.65947055,1.39604744,0.12539844,0.21647684,0.32892844
37095,0,USNorthCarolinaHyde,North Carolina,Hyde,2021-01-05 14:05:52.629154,2020-08-01 00:00:00.000000,0.61437309,1.34610829,2.38003646,30,66,117,14,34,70,0.30290042,0.69431840,1.42589332,0.12621265,0.22093678,0.34475608
37095,0,USNorthCarolinaHyde,North Carolina,Hyde,2021-01-05 14:05:52.629154,2020-08-02 00:00:00.000000,0.64149149,1.42316675,2.53155059,31,70,124,15,36,71,0.31525680,0.73048607,1.45615369,0.13061585,0.22063839,0.35737497
37095,0,USNorthCarolinaHyde,North Carolina,Hyde,2021-01-05 14:05:52.629154,2020-08-03 00:00:00.000000,0.72636499,1.50419095,2.61561059,35,74,129,16,37,73,0.32880194,0.76510254,1.48511560,0.13570213,0.22175049,0.36461313
37095,0,USNorthCarolinaHyde,North Carolina,Hyde,2021-01-05 14:05:52.629154,2020-08-04 00:00:00.000000,0.90684226,1.61153870,2.62981252,44,79,129,16,39,73,0.33625017,0.80205261,1.49136899,0.14000183,0.22450305,0.36773837
37095,0,USNorthCarolinaHyde,North Carolina,Hyde,2021-01-05 14:05:52.629154,2020-08-05 00:00:00.000000,1.04282790,1.68947605,2.74625901,51,83,135,20,41,75,0.40513727,0.84604857,1.52296722,0.14341844,0.22582355,0.37183717
37095,0,USNorthCarolinaHyde,North Carolina,Hyde,2021-01-05 14:05:52.629154,2020-08-06 00:00:00.000000,1.04927930,1.78445056,2.90664951,51,88,143,24,44,76,0.49372751,0.90216076,1.55640647,0.14616790,0.22892182,0.37518902
37095,0,USNorthCarolinaHyde,North Carolina,Hyde,2021-01-05 14:05:52.629154,2020-08-07 00:00:00.000000,1.05564476,1.90294193,3.07580101,52,93,151,25,47,79,0.52111901,0.97128082,1.61754032,0.14901611,0.23691973,0.38581027
37095,0,USNorthCarolinaHyde,North Carolina,Hyde,2021-01-05 14:05:52.629154,2020-08-08 00:00:00.000000,1.06191618,1.98830477,3.21061575,52,98,158,26,50,83,0.52941990,1.02283003,1.68159708,0.15324866,0.23775932,0.39991681
37095,0,USNorthCarolinaHyde,North Carolina,Hyde,2021-01-05 14:05:52.629154,2020-08-09 00:00:00.000000,1.06818282,2.07747772,3.33469296,52,102,164,26,53,86,0.53782808,1.07811909,1.76108208,0.15880594,0.23904037,0.38663817
37095,0,USNorthCarolinaHyde,North Carolina,Hyde,2021-01-05 14:05:52.629154,2020-08-10 00:00:00.000000,1.20239867,2.14601935,3.43849616,59,105,169,26,55,91,0.54645901,1.12968261,1.85855146,0.16304853,0.24061150,0.38532274
37095,0,USNorthCarolinaHyde,North Carolina,Hyde,2021-01-05 14:05:52.629154,2020-08-11 00:00:00.000000,1.29477490,2.17057399,3.54074017,63,107,174,29,56,97,0.59260132,1.14359392,1.96770407,0.16486569,0.23943180,0.37683650
37095,0,USNorthCarolinaHyde,North Carolina,Hyde,2021-01-05 14:05:52.629154,2020-08-12 00:00:00.000000,1.35407515,2.21917412,3.62771069,66,109,179,32,57,101,0.66034605,1.16534308,2.06307897,0.16516168,0.23767188,0.37608528
37095,0,USNorthCarolinaHyde,North Carolina,Hyde,2021-01-05 14:05:52.629154,2020-08-13 00:00:00.000000,1.38559190,2.27500840,3.67730278,68,112,181,35,59,104,0.71857061,1.20679311,2.12437964,0.15544293,0.23534018,0.37290398
37095,0,USNorthCarolinaHyde,North Carolina,Hyde,2021-01-05 14:05:52.629154,2020-08-14 00:00:00.000000,1.42995399,2.32994048,3.76650583,70,115,185,36,61,108,0.73898457,1.24865674,2.20771015,0.13665851,0.23287585,0.36907356
37095,0,USNorthCarolinaHyde,North Carolina,Hyde,2021-01-05 14:05:52.629154,2020-08-15 00:00:00.000000,1.47202046,2.39018484,3.86971403,72,118,191,37,62,111,0.75623173,1.27356074,2.26464840,0.12740611,0.23252014,0.36224770
37095,0,USNorthCarolinaHyde,North Carolina,Hyde,2021-01-05 14:05:52.629154,2020-08-16 00:00:00.000000,1.51061111,2.44751118,3.91709890,74,120,193,39,64,114,0.79281799,1.30591393,2.31966357,0.12749958,0.23030057,0.35253308
37095,0,USNorthCarolinaHyde,North Carolina,Hyde,2021-01-05 14:05:52.629154,2020-08-17 00:00:00.000000,1.57673104,2.48736254,3.96676964,77,122,195,40,67,119,0.81544675,1.35829778,2.42026189,0.12807814,0.23133419,0.34750946
37095,0,USNorthCarolinaHyde,North Carolina,Hyde,2021-01-05 14:05:52.629154,2020-08-18 00:00:00.000000,1.65824400,2.56747074,4.01424653,81,126,198,41,68,123,0.84173717,1.37806222,2.50902002,0.12950891,0.23198754,0.34584224
37095,0,USNorthCarolinaHyde,North Carolina,Hyde,2021-01-05 14:05:52.629154,2020-08-19 00:00:00.000000,1.66316727,2.59543095,4.06016454,82,128,200,42,68,127,0.86831174,1.39508757,2.59168360,0.13202662,0.23176941,0.35074704
37095,0,USNorthCarolinaHyde,North Carolina,Hyde,2021-01-05 14:05:52.629154,2020-08-20 00:00:00.000000,1.66037365,2.60566869,4.15153471,81,128,204,44,70,131,0.89496064,1.42099805,2.67129322,0.16137391,0.23090182,0.34848020
37095,0,USNorthCarolinaHyde,North Carolina,Hyde,2021-01-05 14:05:52.629154,2020-08-21 00:00:00.000000,1.63035618,2.58953086,4.15212703,80,127,204,43,70,133,0.88250722,1.43005730,2.70797536,0.16182204,0.22661492,0.34046292
37095,0,USNorthCarolinaHyde,North Carolina,Hyde,2021-01-05 14:05:52.629154,2020-08-22 00:00:00.000000,1.60812073,2.56434554,4.19803483,79,126,207,42,71,133,0.86684735,1.44197990,2.71176095,0.15904510,0.22308864,0.32620499
37095,0,USNorthCarolinaHyde,North Carolina,Hyde,2021-01-05 14:05:52.629154,2020-08-23 00:00:00.000000,1.59642267,2.54792889,4.24338970,78,125,209,42,71,133,0.85342368,1.44924540,2.70831226,0.15694699,0.22288232,0.32510349
37095,0,USNorthCarolinaHyde,North Carolina,Hyde,2021-01-05 14:05:52.629154,2020-08-24 00:00:00.000000,1.57936674,2.51926054,4.32715728,77,124,213,41,71,133,0.84435150,1.44984983,2.69977673,0.15663266,0.21701233,0.32480318
37095,0,USNorthCarolinaHyde,North Carolina,Hyde,2021-01-05 14:05:52.629154,2020-08-25 00:00:00.000000,1.56957317,2.51225620,4.40941784,77,124,217,41,71,133,0.83577880,1.44963958,2.69867560,0.15537235,0.21595704,0.32477804
37095,0,USNorthCarolinaHyde,North Carolina,Hyde,2021-01-05 14:05:52.629154,2020-08-26 00:00:00.000000,1.56237337,2.50789801,4.33017958,77,123,213,40,70,133,0.82933877,1.42920571,2.70176870,0.15369254,0.21405730,0.32497160
37095,0,USNorthCarolinaHyde,North Carolina,Hyde,2021-01-05 14:05:52.629154,2020-08-27 00:00:00.000000,1.55728052,2.47568120,4.21561192,76,122,208,40,68,133,0.82499073,1.39004443,2.70714092,0.15312425,0.20967090,0.32566638
37095,0,USNorthCarolinaHyde,North Carolina,Hyde,2021-01-05 14:05:52.629154,2020-08-28 00:00:00.000000,1.55345648,2.43509139,4.17598814,76,120,206,40,67,133,0.82218073,1.36488726,2.69984366,0.15070774,0.20663993,0.32745008
37095,0,USNorthCarolinaHyde,North Carolina,Hyde,2021-01-05 14:05:52.629154,2020-08-29 00:00:00.000000,1.55093565,2.40131398,4.18737730,76,118,206,40,66,134,0.82038981,1.34954198,2.72282063,0.14504290,0.20377084,0.32746234
37095,0,USNorthCarolinaHyde,North Carolina,Hyde,2021-01-05 14:05:52.629154,2020-08-30 00:00:00.000000,1.55131742,2.35704433,4.19537585,76,116,207,40,66,134,0.81585433,1.35321150,2.73133437,0.14186748,0.20128973,0.31898777
37095,0,USNorthCarolinaHyde,North Carolina,Hyde,2021-01-05 14:05:52.629154,2020-08-31 00:00:00.000000,1.52037715,2.33561925,4.16386555,75,115,205,40,66,135,0.81658570,1.34234829,2.73854561,0.13875317,0.20056832,0.30012316
37095,0,USNorthCarolinaHyde,North Carolina,Hyde,2021-01-05 14:05:52.629154,2020-09-01 00:00:00.000000,1.48369304,2.31691217,4.12690211,73,114,203,39,65,134,0.79541919,1.33314423,2.73439692,0.13926619,0.19836021,0.30255891
37095,0,USNorthCarolinaHyde,North Carolina,Hyde,2021-01-05 14:05:52.629154,2020-09-02 00:00:00.000000,1.44939003,2.29570507,4.08492598,71,113,201,38,64,134,0.77562077,1.31584307,2.71733501,0.14113973,0.19987670,0.30407375
37095,0,USNorthCarolinaHyde,North Carolina,Hyde,2021-01-05 14:05:52.629154,2020-09-03 00:00:00.000000,1.41752733,2.22344571,4.04370376,69,109,199,37,64,132,0.75708433,1.30754072,2.68803934,0.14183793,0.19995989,0.30418427
37095,0,USNorthCarolinaHyde,North Carolina,Hyde,2021-01-05 14:05:52.629154,2020-09-04 00:00:00.000000,1.36383329,2.20312065,4.00512680,67,108,197,36,63,131,0.73295457,1.29627997,2.65473079,0.14128538,0.19993997,0.29691544
37095,0,USNorthCarolinaHyde,North Carolina,Hyde,2021-01-05 14:05:52.629154,2020-09-05 00:00:00.000000,1.31178636,2.17190527,3.96591251,64,107,195,34,62,129,0.70334010,1.27250825,2.61933625,0.14121966,0.20057581,0.29847619
37095,0,USNorthCarolinaHyde,North Carolina,Hyde,2021-01-05 14:05:52.629154,2020-09-06 00:00:00.000000,1.26668364,2.14359800,3.92515605,62,105,193,33,61,127,0.67577044,1.25564236,2.58316902,0.13815587,0.20196826,0.29929395
37095,0,USNorthCarolinaHyde,North Carolina,Hyde,2021-01-05 14:05:52.629154,2020-09-07 00:00:00.000000,1.24547641,2.10696690,3.88464449,61,104,191,32,61,125,0.65097950,1.23940901,2.54708578,0.14053086,0.20421869,0.29980238
37095,0,USNorthCarolinaHyde,North Carolina,Hyde,2021-01-05 14:05:52.629154,2020-09-08 00:00:00.000000,1.22826538,2.09107149,3.84354607,60,103,189,32,60,123,0.66011628,1.21866300,2.50516367,0.14327038,0.20801170,0.29984544
37095,0,USNorthCarolinaHyde,North Carolina,Hyde,2021-01-05 14:05:52.629154,2020-09-09 00:00:00.000000,1.25492424,2.09310351,3.80228566,61,103,187,32,59,121,0.66647934,1.19936262,2.45993484,0.14679053,0.20810370,0.29985592
37095,0,USNorthCarolinaHyde,North Carolina,Hyde,2021-01-05 14:05:52.629154,2020-09-10 00:00:00.000000,1.25034814,2.08873249,3.76111350,61,103,185,32,58,119,0.65273928,1.17881983,2.41304873,0.14738403,0.20946014,0.29986930
37095,0,USNorthCarolinaHyde,North Carolina,Hyde,2021-01-05 14:05:52.629154,2020-09-11 00:00:00.000000,1.28378079,2.10216162,3.72316649,63,103,183,32,57,116,0.66166166,1.16212125,2.36566338,0.14969869,0.21230619,0.30493941
37095,0,USNorthCarolinaHyde,North Carolina,Hyde,2021-01-05 14:05:52.629154,2020-09-12 00:00:00.000000,1.26755684,2.04532464,3.68827486,62,100,182,33,56,114,0.68288625,1.15310136,2.31884618,0.15298552,0.22101152,0.30432400
37095,0,USNorthCarolinaHyde,North Carolina,Hyde,2021-01-05 14:05:52.629154,2020-09-13 00:00:00.000000,1.25945988,2.01652841,3.66204953,62,99,180,34,55,112,0.69915338,1.13352360,2.27409398,0.15378716,0.22549955,0.32806221
37095,0,USNorthCarolinaHyde,North Carolina,Hyde,2021-01-05 14:05:52.629154,2020-09-14 00:00:00.000000,1.24433581,2.00274600,3.69835382,61,98,182,34,54,112,0.69153297,1.10741558,2.27332884,0.15502914,0.23266354,0.35988090
37095,0,USNorthCarolinaHyde,North Carolina,Hyde,2021-01-05 14:05:52.629154,2020-09-15 00:00:00.000000,1.23333378,2.00891160,3.74952809,60,99,185,33,54,112,0.68375624,1.09483552,2.28233454,0.15627297,0.23729455,0.36415518
37095,0,USNorthCarolinaHyde,North Carolina,Hyde,2021-01-05 14:05:52.629154,2020-09-16 00:00:00.000000,1.22377125,2.02021148,3.80891493,60,99,188,33,54,113,0.67686825,1.10680935,2.29374015,0.15738705,0.23802291,0.36356553
37095,0,USNorthCarolinaHyde,North Carolina,Hyde,2021-01-05 14:05:52.629154,2020-09-17 00:00:00.000000,1.21432255,2.02005021,3.87144425,59,99,191,33,53,113,0.67085364,1.08290352,2.30756416,0.15834598,0.24015903,0.36172771
37095,0,USNorthCarolinaHyde,North Carolina,Hyde,2021-01-05 14:05:52.629154,2020-09-18 00:00:00.000000,1.20346251,2.08592329,3.93570288,59,102,194,32,55,114,0.66533290,1.11682775,2.32351424,0.16123550,0.24197383,0.35954506
37095,0,USNorthCarolinaHyde,North Carolina,Hyde,2021-01-05 14:05:52.629154,2020-09-19 00:00:00.000000,1.19062954,2.11230189,3.98117488,58,104,196,32,58,115,0.65964443,1.17539297,2.34115737,0.16636731,0.24573907,0.35700416
37095,0,USNorthCarolinaHyde,North Carolina,Hyde,2021-01-05 14:05:52.629154,2020-09-20 00:00:00.000000,1.17674114,2.14882045,4.01924388,58,106,198,32,58,116,0.65324501,1.18905869,2.36009865,0.17573620,0.25280804,0.37654486
37095,0,USNorthCarolinaHyde,North Carolina,Hyde,2021-01-05 14:05:52.629154,2020-09-21 00:00:00.000000,1.30975123,2.24327777,4.09714636,64,110,202,31,58,117,0.64618012,1.18385991,2.38033446,0.17913764,0.25747346,0.38718331
37095,0,USNorthCarolinaHyde,North Carolina,Hyde,2021-01-05 14:05:52.629154,2020-09-22 00:00:00.000000,1.44332502,2.31327774,4.18887007,71,114,206,33,60,118,0.68116189,1.22010145,2.40910340,0.18001080,0.26235693,0.39178809
37095,0,USNorthCarolinaHyde,North Carolina,Hyde,2021-01-05 14:05:52.629154,2020-09-23 00:00:00.000000,1.52025320,2.43587653,4.28520724,75,120,211,36,63,121,0.73832825,1.28053240,2.45291278,0.18030146,0.27183257,0.39413201
37095,0,USNorthCarolinaHyde,North Carolina,Hyde,2021-01-05 14:05:52.629154,2020-09-24 00:00:00.000000,1.52982606,2.49685962,4.38003660,75,123,216,39,64,123,0.79562895,1.30121297,2.49659166,0.18719998,0.27271791,0.39487778
37095,0,USNorthCarolinaHyde,North Carolina,Hyde,2021-01-05 14:05:52.629154,2020-09-25 00:00:00.000000,1.56221068,2.60038489,4.47019949,77,128,220,39,65,125,0.80741220,1.32687649,2.53967085,0.18723914,0.28127723,0.39822333
37095,0,USNorthCarolinaHyde,North Carolina,Hyde,2021-01-05 14:05:52.629154,2020-09-26 00:00:00.000000,1.59437371,2.69374660,4.55296475,78,132,224,41,67,127,0.84099623,1.36615364,2.58838174,0.18726080,0.29091512,0.41005295
37095,0,USNorthCarolinaHyde,North Carolina,Hyde,2021-01-05 14:05:52.629154,2020-09-27 00:00:00.000000,1.62857569,2.83767248,4.63634710,80,140,228,42,69,130,0.85379121,1.41320565,2.63800257,0.18731218,0.28973045,0.41717497
37095,0,USNorthCarolinaHyde,North Carolina,Hyde,2021-01-05 14:05:52.629154,2020-09-28 00:00:00.000000,1.79588717,2.92513607,4.76018094,88,144,235,42,70,132,0.86730606,1.43722676,2.68571322,0.19118570,0.28652281,0.41937911
37095,0,USNorthCarolinaHyde,North Carolina,Hyde,2021-01-05 14:05:52.629154,2020-09-29 00:00:00.000000,1.93832716,3.07965821,4.88648307,95,152,241,44,73,135,0.91038125,1.48716438,2.74397267,0.18875255,0.28632157,0.42084530
37095,0,USNorthCarolinaHyde,North Carolina,Hyde,2021-01-05 14:05:52.629154,2020-09-30 00:00:00.000000,2.06684711,3.16308210,5.01039619,102,156,247,48,76,139,0.97640373,1.54879363,2.82009040,0.18407392,0.28772463,0.42441299
37095,0,USNorthCarolinaHyde,North Carolina,Hyde,2021-01-05 14:05:52.629154,2020-10-01 00:00:00.000000,2.19326816,3.32865399,5.13243140,108,164,253,52,80,142,1.05895738,1.63051279,2.88116088,0.18086222,0.28459119,0.42434367
37095,0,USNorthCarolinaHyde,North Carolina,Hyde,2021-01-05 14:05:52.629154,2020-10-02 00:00:00.000000,2.31843224,3.54898172,5.25232226,114,175,259,56,85,145,1.14683321,1.73060089,2.94291668,0.18010937,0.28095080,0.41915635
37095,0,USNorthCarolinaHyde,North Carolina,Hyde,2021-01-05 14:05:52.629154,2020-10-03 00:00:00.000000,2.44826949,3.72438586,5.36927278,120,183,265,60,90,151,1.23271285,1.83504951,3.06031818,0.17954958,0.27389975,0.41564491
37095,0,USNorthCarolinaHyde,North Carolina,Hyde,2021-01-05 14:05:52.629154,2020-10-04 00:00:00.000000,2.58828865,3.90143872,5.48326004,127,192,270,65,96,158,1.31930379,1.94544434,3.20753800,0.17345365,0.27088858,0.40299715
37095,0,USNorthCarolinaHyde,North Carolina,Hyde,2021-01-05 14:05:52.629154,2020-10-05 00:00:00.000000,2.57267875,3.87644050,5.51322252,127,191,272,69,101,165,1.40369365,2.04588527,3.35029178,0.16246249,0.26496329,0.39594831
37095,0,USNorthCarolinaHyde,North Carolina,Hyde,2021-01-05 14:05:52.629154,2020-10-06 00:00:00.000000,2.55500110,3.86805754,5.53409320,126,190,273,71,104,169,1.44448634,2.11431548,3.43837317,0.15859624,0.26509729,0.39020139
37095,0,USNorthCarolinaHyde,North Carolina,Hyde,2021-01-05 14:05:52.629154,2020-10-07 00:00:00.000000,2.52488741,3.86093649,5.50367012,124,190,271,71,105,175,1.45589355,2.14276284,3.55355691,0.15630173,0.26405399,0.38535663
37095,0,USNorthCarolinaHyde,North Carolina,Hyde,2021-01-05 14:05:52.629154,2020-10-08 00:00:00.000000,2.48428575,3.87343391,5.47047860,122,191,270,72,106,178,1.46931804,2.16468290,3.61178780,0.15410467,0.24949821,0.38345341
37095,0,USNorthCarolinaHyde,North Carolina,Hyde,2021-01-05 14:05:52.629154,2020-10-09 00:00:00.000000,2.43808874,3.88569968,5.45875927,120,191,269,72,108,180,1.46936383,2.20332056,3.64624285,0.15224927,0.24108070,0.35838668
37095,0,USNorthCarolinaHyde,North Carolina,Hyde,2021-01-05 14:05:52.629154,2020-10-10 00:00:00.000000,2.44867217,3.91142531,5.38632265,120,193,265,72,108,180,1.46627972,2.19285357,3.65731345,0.14919739,0.22085772,0.35803020
37095,0,USNorthCarolinaHyde,North Carolina,Hyde,2021-01-05 14:05:52.629154,2020-10-11 00:00:00.000000,2.45556235,3.92325521,5.32917036,121,193,263,71,108,179,1.44031025,2.20315147,3.63388757,0.14142293,0.21058471,0.34664265
37095,0,USNorthCarolinaHyde,North Carolina,Hyde,2021-01-05 14:05:52.629154,2020-10-12 00:00:00.000000,2.39790403,3.83583197,5.17829562,118,189,255,69,109,176,1.40264854,2.21113127,3.57530954,0.13194799,0.20343223,0.31585022
37095,0,USNorthCarolinaHyde,North Carolina,Hyde,2021-01-05 14:05:52.629154,2020-10-13 00:00:00.000000,2.32945549,3.73641324,5.05124295,115,184,249,68,108,171,1.38444027,2.19689347,3.48213659,0.12831159,0.19696296,0.29982547
37095,0,USNorthCarolinaHyde,North Carolina,Hyde,2021-01-05 14:05:52.629154,2020-10-14 00:00:00.000000,2.23586544,3.61877346,4.97693836,110,178,245,66,105,167,1.35194033,2.14368853,3.39054438,0.12706737,0.18752427,0.27879975
37095,0,USNorthCarolinaHyde,North Carolina,Hyde,2021-01-05 14:05:52.629154,2020-10-15 00:00:00.000000,2.19646360,3.45840220,4.93042401,108,170,243,66,103,166,1.33786050,2.08929409,3.38003391,0.12683554,0.17760849,0.26426982
37095,0,USNorthCarolinaHyde,North Carolina,Hyde,2021-01-05 14:05:52.629154,2020-10-16 00:00:00.000000,2.18804094,3.33650060,4.87433855,108,164,240,65,100,165,1.32910567,2.02891244,3.36052132,0.12444350,0.16368603,0.25334705
37095,0,USNorthCarolinaHyde,North Carolina,Hyde,2021-01-05 14:05:52.629154,2020-10-17 00:00:00.000000,2.18309784,3.21683643,4.81051660,107,158,237,65,96,164,1.32310183,1.96352899,3.33412759,0.11334094,0.15994757,0.25035148
37095,0,USNorthCarolinaHyde,North Carolina,Hyde,2021-01-05 14:05:52.629154,2020-10-18 00:00:00.000000,2.08513756,3.09049603,4.74333367,102,152,234,62,93,162,1.26792975,1.88654224,3.30112211,0.11113426,0.15391850,0.24422530
37095,0,USNorthCarolinaHyde,North Carolina,Hyde,2021-01-05 14:05:52.629154,2020-10-19 00:00:00.000000,1.96999336,2.93092780,4.65671306,97,144,229,59,88,161,1.21069910,1.78970215,3.26170925,0.10862108,0.15224039,0.22424379
37095,0,USNorthCarolinaHyde,North Carolina,Hyde,2021-01-05 14:05:52.629154,2020-10-20 00:00:00.000000,1.85754239,2.76617506,4.51819458,91,136,223,56,84,155,1.14827445,1.70855959,3.14438592,0.10831000,0.14715983,0.22278892
37095,0,USNorthCarolinaHyde,North Carolina,Hyde,2021-01-05 14:05:52.629154,2020-10-21 00:00:00.000000,1.74780077,2.62392428,4.34101040,86,129,214,53,80,149,1.08484729,1.62768353,3.02649479,0.10720759,0.14537560,0.22161201
37095,0,USNorthCarolinaHyde,North Carolina,Hyde,2021-01-05 14:05:52.629154,2020-10-22 00:00:00.000000,1.64303239,2.48784573,4.17006974,81,122,205,50,77,143,1.02241102,1.56192557,2.91090057,0.10515198,0.14331864,0.21906716
37095,0,USNorthCarolinaHyde,North Carolina,Hyde,2021-01-05 14:05:52.629154,2020-10-23 00:00:00.000000,1.56968008,2.36978831,4.00541220,77,116,197,47,73,138,0.95956988,1.49166399,2.79837161,0.10578146,0.14065073,0.21472683
37095,0,USNorthCarolinaHyde,North Carolina,Hyde,2021-01-05 14:05:52.629154,2020-10-24 00:00:00.000000,1.53367852,2.22565736,3.84689640,75,109,189,44,69,132,0.90439824,1.41481527,2.68932965,0.10777742,0.13866946,0.20798953
37095,0,USNorthCarolinaHyde,North Carolina,Hyde,2021-01-05 14:05:52.629154,2020-10-25 00:00:00.000000,1.42617642,2.13861167,3.69419800,70,105,182,43,66,127,0.87145539,1.34833433,2.58365954,0.10745645,0.13926297,0.20252408
37095,0,USNorthCarolinaHyde,North Carolina,Hyde,2021-01-05 14:05:52.629154,2020-10-26 00:00:00.000000,1.34288419,2.06693848,3.54786918,66,102,175,40,64,122,0.82303596,1.29732628,2.48100882,0.10652300,0.13893926,0.20570712
37095,0,USNorthCarolinaHyde,North Carolina,Hyde,2021-01-05 14:05:52.629154,2020-10-27 00:00:00.000000,1.26923464,1.98423501,3.41032338,62,97,168,38,60,117,0.77485892,1.23454689,2.38260544,0.10344333,0.13935373,0.20550996
37095,0,USNorthCarolinaHyde,North Carolina,Hyde,2021-01-05 14:05:52.629154,2020-10-28 00:00:00.000000,1.20451929,1.90555915,3.36477182,59,94,166,35,57,112,0.72864220,1.17107985,2.28806778,0.10554905,0.13888203,0.21524286
37095,0,USNorthCarolinaHyde,North Carolina,Hyde,2021-01-05 14:05:52.629154,2020-10-29 00:00:00.000000,1.12949678,1.80942912,3.32211417,55,89,164,33,55,108,0.68558795,1.11558172,2.19716361,0.10519451,0.13786416,0.22069161
37095,0,USNorthCarolinaHyde,North Carolina,Hyde,2021-01-05 14:05:52.629154,2020-10-30 00:00:00.000000,1.07887914,1.70808497,3.28202791,53,84,162,31,52,104,0.64399300,1.06502974,2.10979533,0.10543155,0.13873880,0.22158775
37095,0,USNorthCarolinaHyde,North Carolina,Hyde,2021-01-05 14:05:52.629154,2020-10-31 00:00:00.000000,1.01849531,1.62478359,3.18200024,50,80,157,29,50,101,0.60667128,1.01816178,2.04959454,0.10930866,0.14116995,0.22170597
37095,0,USNorthCarolinaHyde,North Carolina,Hyde,2021-01-05 14:05:52.629154,2020-11-01 00:00:00.000000,0.96066393,1.55100984,3.03831437,47,76,150,28,48,99,0.56957319,0.97449666,2.02082044,0.10979194,0.14024981,0.22178871
37095,0,USNorthCarolinaHyde,North Carolina,Hyde,2021-01-05 14:05:52.629154,2020-11-02 00:00:00.000000,0.90123819,1.47026835,2.90532613,44,72,143,26,45,98,0.53322431,0.92551283,1.99435141,0.11024619,0.14492516,0.22182068
37095,0,USNorthCarolinaHyde,North Carolina,Hyde,2021-01-05 14:05:52.629154,2020-11-03 00:00:00.000000,0.84310788,1.39565776,2.77514949,41,68,137,24,43,97,0.50161083,0.87570258,1.96989500,0.10956323,0.14618695,0.23191055
37095,0,USNorthCarolinaHyde,North Carolina,Hyde,2021-01-05 14:05:52.629154,2020-11-04 00:00:00.000000,0.78875044,1.33993253,2.65044443,38,66,130,23,40,95,0.47348400,0.82990215,1.93318043,0.10840001,0.14693885,0.24109830
37095,0,USNorthCarolinaHyde,North Carolina,Hyde,2021-01-05 14:05:52.629154,2020-11-05 00:00:00.000000,0.74154796,1.30461088,2.53307368,36,64,125,22,38,91,0.44805351,0.78898851,1.84840585,0.10948874,0.15063017,0.24209296
37095,0,USNorthCarolinaHyde,North Carolina,Hyde,2021-01-05 14:05:52.629154,2020-11-06 00:00:00.000000,0.70525961,1.25701893,2.42480851,34,62,119,20,37,87,0.42518801,0.76691993,1.76755012,0.11026566,0.15908487,0.24273694
37095,0,USNorthCarolinaHyde,North Carolina,Hyde,2021-01-05 14:05:52.629154,2020-11-07 00:00:00.000000,0.67258844,1.20548895,2.32653917,33,59,114,19,36,83,0.40421889,0.74156289,1.69141471,0.11103917,0.16465246,0.24499499
37095,0,USNorthCarolinaHyde,North Carolina,Hyde,2021-01-05 14:05:52.629154,2020-11-08 00:00:00.000000,0.64383847,1.16566914,2.23767945,31,57,110,18,35,80,0.38456087,0.72270621,1.62070206,0.11282877,0.16960312,0.24574676
37095,0,USNorthCarolinaHyde,North Carolina,Hyde,2021-01-05 14:05:52.629154,2020-11-09 00:00:00.000000,0.62806683,1.13269747,2.15072859,31,55,106,18,34,76,0.36706052,0.69357987,1.55566911,0.11679305,0.17334364,0.25307892
37095,0,USNorthCarolinaHyde,North Carolina,Hyde,2021-01-05 14:05:52.629154,2020-11-10 00:00:00.000000,0.61716856,1.10219702,2.10697213,30,54,104,17,33,73,0.35448651,0.66918478,1.49374968,0.11878234,0.18093267,0.26052551
37095,0,USNorthCarolinaHyde,North Carolina,Hyde,2021-01-05 14:05:52.629154,2020-11-11 00:00:00.000000,0.61043477,1.08609020,2.08611039,30,53,102,17,32,70,0.34567383,0.64981040,1.43563974,0.11937807,0.18526848,0.27805987
37095,0,USNorthCarolinaHyde,North Carolina,Hyde,2021-01-05 14:05:52.629154,2020-11-12 00:00:00.000000,0.60822980,1.07747192,2.08864866,30,53,103,16,31,68,0.33971850,0.64693170,1.38125598,0.12880251,0.18747945,0.28575820
37095,0,USNorthCarolinaHyde,North Carolina,Hyde,2021-01-05 14:05:52.629154,2020-11-13 00:00:00.000000,0.61106344,1.08178580,2.09832835,30,53,103,16,31,66,0.33652343,0.63963892,1.33841891,0.13177688,0.18930719,0.29229732
37095,0,USNorthCarolinaHyde,North Carolina,Hyde,2021-01-05 14:05:52.629154,2020-11-14 00:00:00.000000,0.61388542,1.07403447,2.11415071,30,53,104,16,31,65,0.33605514,0.64071466,1.32098604,0.13733030,0.20402229,0.31817687
37095,0,USNorthCarolinaHyde,North Carolina,Hyde,2021-01-05 14:05:52.629154,2020-11-15 00:00:00.000000,0.59934147,1.07369492,2.13560702,29,53,105,16,31,64,0.33829447,0.63708395,1.30610440,0.14009493,0.21674953,0.32958735
37095,0,USNorthCarolinaHyde,North Carolina,Hyde,2021-01-05 14:05:52.629154,2020-11-16 00:00:00.000000,0.59317101,1.07722089,2.13467535,29,53,105,16,30,63,0.33131300,0.62090465,1.29424002,0.14070772,0.22817163,0.34706473
37095,0,USNorthCarolinaHyde,North Carolina,Hyde,2021-01-05 14:05:52.629154,2020-11-17 00:00:00.000000,0.58850453,1.08834745,2.18286443,29,53,107,16,30,63,0.32409150,0.60811555,1.28125951,0.14385063,0.23758278,0.36656993
37095,0,USNorthCarolinaHyde,North Carolina,Hyde,2021-01-05 14:05:52.629154,2020-11-18 00:00:00.000000,0.58526280,1.07247930,2.21625689,28,52,109,15,30,63,0.31908646,0.61127007,1.28075406,0.14548356,0.24948623,0.37218935
37095,0,USNorthCarolinaHyde,North Carolina,Hyde,2021-01-05 14:05:52.629154,2020-11-19 00:00:00.000000,0.58369706,1.09155003,2.25488871,28,53,111,15,30,64,0.31560094,0.61454791,1.31217169,0.15050041,0.25935254,0.39098355
37095,0,USNorthCarolinaHyde,North Carolina,Hyde,2021-01-05 14:05:52.629154,2020-11-20 00:00:00.000000,0.58946829,1.11463233,2.29862212,29,55,113,15,30,66,0.31332939,0.61174661,1.34524018,0.16692449,0.27725862,0.42802435
37095,0,USNorthCarolinaHyde,North Carolina,Hyde,2021-01-05 14:05:52.629154,2020-11-21 00:00:00.000000,0.62401358,1.14060952,2.34568120,30,56,115,15,30,68,0.31239975,0.60969376,1.38092351,0.16958673,0.29128003,0.43269483
37095,0,USNorthCarolinaHyde,North Carolina,Hyde,2021-01-05 14:05:52.629154,2020-11-22 00:00:00.000000,0.66340822,1.16929265,2.38544715,32,57,117,15,30,67,0.31285436,0.61976235,1.36553127,0.17426929,0.29952875,0.46867640
37095,0,USNorthCarolinaHyde,North Carolina,Hyde,2021-01-05 14:05:52.629154,2020-11-23 00:00:00.000000,0.70587066,1.21484092,2.38866811,34,59,117,16,31,66,0.32409054,0.64217150,1.35163216,0.19444929,0.31437234,0.50463396
37095,0,USNorthCarolinaHyde,North Carolina,Hyde,2021-01-05 14:05:52.629154,2020-11-24 00:00:00.000000,0.73957491,1.27252974,2.39428110,36,62,118,16,32,66,0.34360148,0.66293471,1.35000984,0.19654409,0.32157160,0.51107758
37095,0,USNorthCarolinaHyde,North Carolina,Hyde,2021-01-05 14:05:52.629154,2020-11-25 00:00:00.000000,0.74699144,1.30945918,2.52945650,36,64,124,18,33,67,0.36485894,0.68003886,1.36867555,0.20566237,0.33843248,0.51416575
37095,0,USNorthCarolinaHyde,North Carolina,Hyde,2021-01-05 14:05:52.629154,2020-11-26 00:00:00.000000,0.79962173,1.36010893,2.77312968,39,67,136,19,34,70,0.38748413,0.70635860,1.41867338,0.21966248,0.35312583,0.54814168
37095,0,USNorthCarolinaHyde,North Carolina,Hyde,2021-01-05 14:05:52.629154,2020-11-27 00:00:00.000000,0.85447158,1.40283695,2.94401069,42,69,145,20,35,72,0.41150198,0.72744705,1.46617569,0.23094420,0.36195345,0.57001857
37095,0,USNorthCarolinaHyde,North Carolina,Hyde,2021-01-05 14:05:52.629154,2020-11-28 00:00:00.000000,0.87119061,1.47287965,3.06115429,43,72,151,21,37,74,0.43750571,0.76561539,1.50320254,0.24503331,0.38745781,0.58372037
37095,0,USNorthCarolinaHyde,North Carolina,Hyde,2021-01-05 14:05:52.629154,2020-11-29 00:00:00.000000,0.86955298,1.56428030,3.18285197,42,77,157,22,39,78,0.45397609,0.80399648,1.59494752,0.27808889,0.41824316,0.62312794
37095,0,USNorthCarolinaHyde,North Carolina,Hyde,2021-01-05 14:05:52.629154,2020-11-30 00:00:00.000000,0.92302628,1.64042733,3.27261448,45,80,161,22,41,82,0.46143467,0.84604246,1.67139709,0.28919327,0.45293579,0.65884290
37095,0,USNorthCarolinaHyde,North Carolina,Hyde,2021-01-05 14:05:52.629154,2020-12-01 00:00:00.000000,0.99464766,1.74229532,3.39435472,49,86,167,24,44,87,0.48653777,0.89250371,1.76899272,0.31647069,0.48057975,0.73002311
37095,0,USNorthCarolinaHyde,North Carolina,Hyde,2021-01-05 14:05:52.629154,2020-12-02 00:00:00.000000,1.08535450,1.87082125,3.71550242,53,92,183,25,46,93,0.51493632,0.93399058,1.88709776,0.33396132,0.50315762,0.73660110
37095,0,USNorthCarolinaHyde,North Carolina,Hyde,2021-01-05 14:05:52.629154,2020-12-03 00:00:00.000000,1.19138522,1.99082109,4.02630336,58,98,198,27,48,100,0.54946426,0.98124262,2.02846720,0.34043879,0.53317793,0.75725286
37095,0,USNorthCarolinaHyde,North Carolina,Hyde,2021-01-05 14:05:52.629154,2020-12-04 00:00:00.000000,1.31065504,2.12511245,4.47010335,64,104,220,29,52,108,0.59378078,1.06166428,2.20049511,0.35963874,0.58244088,0.80927776
37095,0,USNorthCarolinaHyde,North Carolina,Hyde,2021-01-05 14:05:52.629154,2020-12-05 00:00:00.000000,1.44284759,2.32308147,4.90206125,71,114,242,31,57,117,0.64682382,1.16105324,2.38442442,0.42558041,0.63453065,0.87543874
37095,0,USNorthCarolinaHyde,North Carolina,Hyde,2021-01-05 14:05:52.629154,2020-12-06 00:00:00.000000,1.58855196,2.54887804,5.36254921,78,125,264,34,62,124,0.70760851,1.26203776,2.53054045,0.46090764,0.66465858,0.94161048
37095,0,USNorthCarolinaHyde,North Carolina,Hyde,2021-01-05 14:05:52.629154,2020-12-07 00:00:00.000000,1.90299045,2.89766949,5.83183224,93,143,287,38,67,133,0.77551776,1.37088324,2.70257599,0.51397120,0.70014449,0.97845047
37095,0,USNorthCarolinaHyde,North Carolina,Hyde,2021-01-05 14:05:52.629154,2020-12-08 00:00:00.000000,2.23448644,3.22976895,6.32700220,110,159,312,43,75,143,0.88523328,1.52192512,2.90042335,0.55889742,0.73744492,1.00339782
37095,0,USNorthCarolinaHyde,North Carolina,Hyde,2021-01-05 14:05:52.629154,2020-12-09 00:00:00.000000,2.53216028,3.61461842,6.85530213,125,178,338,51,83,156,1.04293287,1.68283874,3.16695433,0.56820327,0.76608065,1.02566127
37095,0,USNorthCarolinaHyde,North Carolina,Hyde,2021-01-05 14:05:52.629154,2020-12-10 00:00:00.000000,2.90785367,4.10593856,7.42071239,143,202,366,60,91,173,1.21626229,1.86130197,3.51618720,0.57669262,0.78262078,1.04523484
37095,0,USNorthCarolinaHyde,North Carolina,Hyde,2021-01-05 14:05:52.629154,2020-12-11 00:00:00.000000,3.27174611,4.59553160,8.02826877,161,226,396,66,103,192,1.34909476,2.09389999,3.90393987,0.60833993,0.80468069,1.03830662
37095,0,USNorthCarolinaHyde,North Carolina,Hyde,2021-01-05 14:05:52.629154,2020-12-12 00:00:00.000000,3.67963032,5.06940084,8.86378469,181,250,437,76,116,207,1.53940926,2.35007946,4.20952774,0.65156207,0.83420455,1.12941886
37095,0,USNorthCarolinaHyde,North Carolina,Hyde,2021-01-05 14:05:52.629154,2020-12-13 00:00:00.000000,4.06916707,5.58041853,9.51689522,200,275,469,86,131,224,1.75134740,2.66487435,4.55441408,0.66340440,0.85124786,1.17847645
37095,0,USNorthCarolinaHyde,North Carolina,Hyde,2021-01-05 14:05:52.629154,2020-12-14 00:00:00.000000,4.49711504,6.22083765,10.44641589,222,307,515,96,148,254,1.94946579,3.01009950,5.16321934,0.69207350,0.87194512,1.22496537
37095,0,USNorthCarolinaHyde,North Carolina,Hyde,2021-01-05 14:05:52.629154,2020-12-15 00:00:00.000000,4.94673915,6.93264849,11.60215592,244,342,572,105,164,285,2.14474853,3.32612848,5.78747708,0.71437872,0.89995226,1.26193773
37095,0,USNorthCarolinaHyde,North Carolina,Hyde,2021-01-05 14:05:52.629154,2020-12-16 00:00:00.000000,5.36493821,7.74485918,12.85125893,264,382,634,116,179,319,2.36379094,3.63956230,6.46338151,0.71686328,0.90199776,1.28738441
37095,0,USNorthCarolinaHyde,North Carolina,Hyde,2021-01-05 14:05:52.629154,2020-12-17 00:00:00.000000,5.86458769,8.60043103,14.19746403,289,424,700,128,200,355,2.59361231,4.05704028,7.20900887,0.73021411,0.91126032,1.29476582
37095,0,USNorthCarolinaHyde,North Carolina,Hyde,2021-01-05 14:05:52.629154,2020-12-18 00:00:00.000000,6.48793287,9.48887139,15.48507838,320,468,764,140,222,396,2.84259544,4.50034714,8.02198486,0.76147324,0.92779107,1.29885815
37095,0,USNorthCarolinaHyde,North Carolina,Hyde,2021-01-05 14:05:52.629154,2020-12-19 00:00:00.000000,7.17849709,10.51050425,16.76096970,354,518,827,154,245,439,3.13185542,4.97414620,8.89431481,0.74874341,0.93299710,1.31849304
37095,0,USNorthCarolinaHyde,North Carolina,Hyde,2021-01-05 14:05:52.629154,2020-12-20 00:00:00.000000,7.91955421,11.50885280,18.05762007,390,568,891,170,268,484,3.45446314,5.43752478,9.81791918,0.76861171,0.94602620,1.32868331
37095,0,USNorthCarolinaHyde,North Carolina,Hyde,2021-01-05 14:05:52.629154,2020-12-21 00:00:00.000000,8.75755107,12.52144140,19.41183153,432,618,958,188,294,532,3.81268478,5.95602074,10.78325009,0.75889418,0.95130447,1.34742783
37095,0,USNorthCarolinaHyde,North Carolina,Hyde,2021-01-05 14:05:52.629154,2020-12-22 00:00:00.000000,9.61658635,13.59908000,20.75375945,474,671,1024,208,321,581,4.21786544,6.51593740,11.77903373,0.76072991,0.95102401,1.32967953
37095,0,USNorthCarolinaHyde,North Carolina,Hyde,2021-01-05 14:05:52.629154,2020-12-23 00:00:00.000000,10.37252348,14.60785195,22.13011701,512,721,1092,229,352,631,4.65728033,7.13845373,12.78903379,0.76426582,0.94560461,1.33730227
37095,0,USNorthCarolinaHyde,North Carolina,Hyde,2021-01-05 14:05:52.629154,2020-12-24 00:00:00.000000,11.20082946,15.94072693,23.47320031,552,786,1158,251,382,671,5.09598616,7.73801709,13.60596802,0.76484760,0.93468307,1.43648852
37095,0,USNorthCarolinaHyde,North Carolina,Hyde,2021-01-05 14:05:52.629154,2020-12-25 00:00:00.000000,11.96499489,17.03871988,24.78846299,590,841,1223,272,412,702,5.51706566,8.35326186,14.23037289,0.76736387,0.92548348,1.44546915
37095,0,USNorthCarolinaHyde,North Carolina,Hyde,2021-01-05 14:05:52.629154,2020-12-26 00:00:00.000000,12.72694081,18.14417075,26.11268531,628,895,1289,296,444,730,6.00490231,9.01353779,14.79218515,0.74355336,0.93580727,1.48370152
37095,0,USNorthCarolinaHyde,North Carolina,Hyde,2021-01-05 14:05:52.629154,2020-12-27 00:00:00.000000,13.47682400,19.11072769,26.69944479,665,943,1318,317,476,754,6.43718040,9.65703770,15.27833941,0.71688564,0.94233155,1.47999287
37095,0,USNorthCarolinaHyde,North Carolina,Hyde,2021-01-05 14:05:52.629154,2020-12-28 00:00:00.000000,13.80331787,20.03418199,28.08536768,681,989,1386,336,504,781,6.80807449,10.21511811,15.82058165,0.70835501,0.92992630,1.50894275
37095,0,USNorthCarolinaHyde,North Carolina,Hyde,2021-01-05 14:05:52.629154,2020-12-29 00:00:00.000000,13.88245971,20.99523339,29.35774617,685,1036,1449,351,531,802,7.11062691,10.77417893,16.26451938,0.66779051,0.93737263,1.53125212
37095,0,USNorthCarolinaHyde,North Carolina,Hyde,2021-01-05 14:05:52.629154,2020-12-30 00:00:00.000000,13.89224459,21.76119342,30.36949614,685,1074,1499,364,562,824,7.37350774,11.39801078,16.69309986,0.66212562,0.91582005,1.53229329
37095,0,USNorthCarolinaHyde,North Carolina,Hyde,2021-01-05 14:05:52.629154,2020-12-31 00:00:00.000000,13.85133443,22.43786976,30.95799624,683,1107,1528,369,588,846,7.47805870,11.92617112,17.14957401,0.66217074,0.89365814,1.53941732
37095,0,USNorthCarolinaHyde,North Carolina,Hyde,2021-01-05 14:05:52.629154,2021-01-01 00:00:00.000000,14.09961076,23.00142943,30.93684422,696,1135,1527,373,607,876,7.56920028,12.29880050,17.75134220,0.65552093,0.90752434,1.60850220
37095,0,USNorthCarolinaHyde,North Carolina,Hyde,2021-01-05 14:05:52.629154,2021-01-02 00:00:00.000000,14.29067592,23.34867764,30.86117726,705,1152,1523,376,625,898,7.62059870,12.67828965,18.19350690,0.61963446,0.92198005,1.61187990
37095,0,USNorthCarolinaHyde,North Carolina,Hyde,2021-01-05 14:05:52.629154,2021-01-03 00:00:00.000000,14.41260899,23.42754200,30.92906399,711,1156,1526,382,654,899,7.74950690,13.25975640,18.22545440,0.61848339,0.90822182,1.61865623
37095,0,USNorthCarolinaHyde,North Carolina,Hyde,2021-01-05 14:05:52.629154,2021-01-04 00:00:00.000000,14.45899427,23.76685325,30.79392264,713,1173,1520,387,668,909,7.84229069,13.54711406,18.41486198,0.61475685,0.91098292,1.71405010
37095,0,USNorthCarolinaHyde,North Carolina,Hyde,2021-01-05 14:05:52.629154,2021-01-05 00:00:00.000000,14.42226634,23.69167086,30.46401782,712,1169,1504,389,674,911,7.89587758,13.66046865,18.46764580,0.58380965,0.90777860,1.72169282
37095,0,USNorthCarolinaHyde,North Carolina,Hyde,2021-01-05 14:05:52.629154,2021-01-06 00:00:00.000000,14.29483530,23.33155318,30.37330185,705,1151,1499,390,671,907,7.90655359,13.60451522,18.38555558,0.54488726,0.90367059,1.72256772
37095,0,USNorthCarolinaHyde,North Carolina,Hyde,2021-01-05 14:05:52.629154,2021-01-07 00:00:00.000000,14.07234254,22.68089232,29.56785484,694,1119,1459,388,667,913,7.87031860,13.51478065,18.50328354,0.52417059,0.89015732,1.72283047
37095,0,USNorthCarolinaHyde,North Carolina,Hyde,2021-01-05 14:05:52.629154,2021-01-08 00:00:00.000000,13.75791740,22.09051139,28.96279089,679,1090,1429,384,658,895,7.78405919,13.33337544,18.13995175,0.51360541,0.89035830,1.72294659
37095,0,USNorthCarolinaHyde,North Carolina,Hyde,2021-01-05 14:05:52.629154,2021-01-09 00:00:00.000000,13.36342927,21.43575201,28.79960904,659,1058,1421,377,648,867,7.64741493,13.14244724,17.56338490,0.50986746,0.89238543,1.72300056
37095,0,USNorthCarolinaHyde,North Carolina,Hyde,2021-01-05 14:05:52.629154,2021-01-10 00:00:00.000000,12.90592334,20.81479345,28.12448473,637,1027,1388,368,641,837,7.46401943,12.98380374,16.95422738,0.50939293,0.89390658,1.72302572
37095,0,USNorthCarolinaHyde,North Carolina,Hyde,2021-01-05 14:05:52.629154,2021-01-11 00:00:00.000000,12.40275568,19.93378228,27.27213888,612,984,1346,357,612,803,7.24091381,12.41362593,16.26960043,0.50924713,0.89466884,1.72303744
37095,0,USNorthCarolinaHyde,North Carolina,Hyde,2021-01-05 14:05:52.629154,2021-01-12 00:00:00.000000,11.86886143,18.95716882,26.27498554,585,935,1297,344,594,775,6.98669229,12.03753090,15.71455765,0.50919995,0.89504782,1.72304290
37095,0,USNorthCarolinaHyde,North Carolina,Hyde,2021-01-05 14:05:52.629154,2021-01-13 00:00:00.000000,11.31619239,18.01136751,25.15975063,558,889,1242,330,570,764,6.68441610,11.55256531,15.49088470,0.50918348,0.89523564,1.72304545
37095,0,USNorthCarolinaHyde,North Carolina,Hyde,2021-01-05 14:05:52.629154,2021-01-14 00:00:00.000000,10.75153970,17.09199065,23.93350909,530,843,1181,313,544,734,6.35659501,11.02937442,14.87899086,0.50917713,0.89532864,1.72304664
37095,0,USNorthCarolinaHyde,North Carolina,Hyde,2021-01-05 14:05:52.629154,2021-01-15 00:00:00.000000,10.00276795,16.09619823,22.64014057,493,794,1117,297,512,701,6.02268322,10.38021982,14.20587135,0.50917436,0.89537469,1.72304719
37095,0,USNorthCarolinaHyde,North Carolina,Hyde,2021-01-05 14:05:52.629154,2021-01-16 00:00:00.000000,9.27519575,15.15971790,21.32289740,457,748,1052,280,480,677,5.68648201,9.73627988,13.73230760,0.50917299,0.89539752,1.72304745
37095,0,USNorthCarolinaHyde,North Carolina,Hyde,2021-01-05 14:05:52.629154,2021-01-17 00:00:00.000000,8.57413777,14.24880713,20.00318333,423,703,987,264,458,654,5.35159892,9.27782876,13.25792926,0.50917223,0.89540884,1.72304757
