FIPS,HR_UID,nameid,province,region,analysisTime,dates,pointprevalence_025,pointprevalence_50,pointprevalence_975,pointinfections_025,pointinfections_50,pointinfections_975,pointinfectious_025,pointinfectious_50,pointinfectious_975,pointinfectiousprevalence_05,pointinfectiousprevalence_50,pointinfectiousprevalence_95,infectrate_025,infectrate_50,infectrate_975
47175,0,USTennesseeVanBuren,Tennessee,Van Buren,2021-01-05 09:37:59.431438,2020-03-09 00:00:00.000000,0.00373213,0.02982351,0.10123709,0,1,5,0,1,3,0.00184202,0.01749728,0.06742490,0.38085574,0.49445053,0.63891228
47175,0,USTennesseeVanBuren,Tennessee,Van Buren,2021-01-05 09:37:59.431438,2020-03-10 00:00:00.000000,0.00404448,0.03293391,0.11595517,0,1,6,0,0,3,0.00194446,0.01693480,0.06577055,0.38085574,0.49403369,0.63876460
47175,0,USTennesseeVanBuren,Tennessee,Van Buren,2021-01-05 09:37:59.431438,2020-03-11 00:00:00.000000,0.00429122,0.03592314,0.13154168,0,2,7,0,1,3,0.00195531,0.01763387,0.06649055,0.38085573,0.49341527,0.63852912
47175,0,USTennesseeVanBuren,Tennessee,Van Buren,2021-01-05 09:37:59.431438,2020-03-12 00:00:00.000000,0.00454191,0.03849936,0.14774687,0,2,8,0,1,4,0.00200710,0.01860356,0.06884159,0.38085572,0.49250306,0.63815420
47175,0,USTennesseeVanBuren,Tennessee,Van Buren,2021-01-05 09:37:59.431438,2020-03-13 00:00:00.000000,0.00479870,0.04158589,0.16479593,0,2,9,0,1,4,0.00208551,0.01973673,0.07237846,0.38085568,0.49116885,0.63755863
47175,0,USTennesseeVanBuren,Tennessee,Van Buren,2021-01-05 09:37:59.431438,2020-03-14 00:00:00.000000,0.00506329,0.04568582,0.18287016,0,2,10,0,1,4,0.00218182,0.02106361,0.07871768,0.38085551,0.49114205,0.63661596
47175,0,USTennesseeVanBuren,Tennessee,Van Buren,2021-01-05 09:37:59.431438,2020-03-15 00:00:00.000000,0.00533708,0.04794846,0.20210644,0,2,11,0,1,5,0.00229085,0.02263795,0.08718122,0.37946731,0.49111669,0.63513244
47175,0,USTennesseeVanBuren,Tennessee,Van Buren,2021-01-05 09:37:59.431438,2020-03-16 00:00:00.000000,0.00562124,0.05156826,0.22246971,0,3,13,0,1,5,0.00240952,0.02449955,0.09633853,0.35677569,0.49016350,0.63327794
47175,0,USTennesseeVanBuren,Tennessee,Van Buren,2021-01-05 09:37:59.431438,2020-03-17 00:00:00.000000,0.00591674,0.05484698,0.24389170,0,3,14,0,1,6,0.00253613,0.02650974,0.10616962,0.34337014,0.47275950,0.63321181
47175,0,USTennesseeVanBuren,Tennessee,Van Buren,2021-01-05 09:37:59.431438,2020-03-18 00:00:00.000000,0.00622435,0.05774839,0.26587710,0,3,15,0,1,6,0.00266975,0.02772475,0.11663620,0.31324438,0.45860077,0.63252851
47175,0,USTennesseeVanBuren,Tennessee,Van Buren,2021-01-05 09:37:59.431438,2020-03-19 00:00:00.000000,0.00654456,0.05895136,0.28602556,0,3,16,0,1,7,0.00280997,0.02865401,0.12760141,0.28845302,0.44106369,0.62028914
47175,0,USTennesseeVanBuren,Tennessee,Van Buren,2021-01-05 09:37:59.431438,2020-03-20 00:00:00.000000,0.00687720,0.06179891,0.29591838,0,3,17,0,1,8,0.00295659,0.03034763,0.13872071,0.28619591,0.42634478,0.60672696
47175,0,USTennesseeVanBuren,Tennessee,Van Buren,2021-01-05 09:37:59.431438,2020-03-21 00:00:00.000000,0.00721867,0.06577782,0.30319230,0,3,17,0,1,8,0.00310949,0.03228047,0.14939504,0.28602746,0.41743132,0.59696423
47175,0,USTennesseeVanBuren,Tennessee,Van Buren,2021-01-05 09:37:59.431438,2020-03-22 00:00:00.000000,0.00751277,0.06858995,0.30882230,0,4,18,0,1,9,0.00326795,0.03315825,0.15896747,0.26758170,0.40194709,0.57335938
47175,0,USTennesseeVanBuren,Tennessee,Van Buren,2021-01-05 09:37:59.431438,2020-03-23 00:00:00.000000,0.00766074,0.07086041,0.31304188,0,4,18,0,2,9,0.00342191,0.03423216,0.16388284,0.26636099,0.37671761,0.55728140
47175,0,USTennesseeVanBuren,Tennessee,Van Buren,2021-01-05 09:37:59.431438,2020-03-24 00:00:00.000000,0.00777330,0.07287195,0.33122378,0,4,19,0,2,10,0.00354762,0.03563243,0.17393134,0.25959482,0.36248574,0.54099769
47175,0,USTennesseeVanBuren,Tennessee,Van Buren,2021-01-05 09:37:59.431438,2020-03-25 00:00:00.000000,0.00785278,0.07434789,0.35206832,0,4,20,0,2,10,0.00364808,0.03730010,0.17955314,0.24838683,0.34984603,0.51910035
47175,0,USTennesseeVanBuren,Tennessee,Van Buren,2021-01-05 09:37:59.431438,2020-03-26 00:00:00.000000,0.00788444,0.07478414,0.35481763,0,4,20,0,2,10,0.00372598,0.03887323,0.18386440,0.22541182,0.33864198,0.51357479
47175,0,USTennesseeVanBuren,Tennessee,Van Buren,2021-01-05 09:37:59.431438,2020-03-27 00:00:00.000000,0.00786415,0.07613968,0.35082272,0,4,20,0,2,10,0.00378097,0.03993513,0.18650082,0.21417813,0.32272235,0.49255697
47175,0,USTennesseeVanBuren,Tennessee,Van Buren,2021-01-05 09:37:59.431438,2020-03-28 00:00:00.000000,0.00779904,0.07805145,0.34369251,0,4,20,0,2,10,0.00381201,0.04041929,0.18710103,0.19092502,0.31090280,0.47500242
47175,0,USTennesseeVanBuren,Tennessee,Van Buren,2021-01-05 09:37:59.431438,2020-03-29 00:00:00.000000,0.00770186,0.07948268,0.33498439,0,4,19,0,2,10,0.00381962,0.04130035,0.18580781,0.18739939,0.29742539,0.46560259
47175,0,USTennesseeVanBuren,Tennessee,Van Buren,2021-01-05 09:37:59.431438,2020-03-30 00:00:00.000000,0.02431192,0.09879759,0.34212806,1,5,20,0,2,10,0.00380635,0.04144971,0.18306999,0.18488623,0.28730621,0.45600189
47175,0,USTennesseeVanBuren,Tennessee,Van Buren,2021-01-05 09:37:59.431438,2020-03-31 00:00:00.000000,0.04469227,0.11808403,0.38258231,2,6,22,0,2,10,0.00848118,0.04675196,0.18610400,0.18279816,0.27842655,0.44788130
47175,0,USTennesseeVanBuren,Tennessee,Van Buren,2021-01-05 09:37:59.431438,2020-04-01 00:00:00.000000,0.05854459,0.13830318,0.44363199,3,8,26,0,3,11,0.01449472,0.05548844,0.19848627,0.18081856,0.26005496,0.43408253
47175,0,USTennesseeVanBuren,Tennessee,Van Buren,2021-01-05 09:37:59.431438,2020-04-02 00:00:00.000000,0.06935976,0.16241827,0.50524814,4,9,29,1,3,12,0.02149653,0.06348834,0.21935529,0.17437834,0.25797193,0.42786417
47175,0,USTennesseeVanBuren,Tennessee,Van Buren,2021-01-05 09:37:59.431438,2020-04-03 00:00:00.000000,0.07802797,0.18433777,0.56674011,4,10,33,1,4,14,0.02880575,0.07505122,0.24051531,0.16043394,0.25296192,0.41801795
47175,0,USTennesseeVanBuren,Tennessee,Van Buren,2021-01-05 09:37:59.431438,2020-04-04 00:00:00.000000,0.08741901,0.20747751,0.62710558,5,12,36,1,4,15,0.03327526,0.08499335,0.26106722,0.15233239,0.24806274,0.39088854
47175,0,USTennesseeVanBuren,Tennessee,Van Buren,2021-01-05 09:37:59.431438,2020-04-05 00:00:00.000000,0.09637085,0.22894290,0.67519285,5,13,39,2,5,16,0.03723594,0.09744793,0.28507358,0.14863612,0.23013917,0.36161730
47175,0,USTennesseeVanBuren,Tennessee,Van Buren,2021-01-05 09:37:59.431438,2020-04-06 00:00:00.000000,0.11052399,0.25107632,0.68155313,6,14,40,2,6,18,0.04130124,0.11011365,0.31576312,0.14713646,0.22309733,0.33237229
47175,0,USTennesseeVanBuren,Tennessee,Van Buren,2021-01-05 09:37:59.431438,2020-04-07 00:00:00.000000,0.12030091,0.28085936,0.68408015,7,16,40,2,7,19,0.04783979,0.12182674,0.33732642,0.14089952,0.22008320,0.31347566
47175,0,USTennesseeVanBuren,Tennessee,Van Buren,2021-01-05 09:37:59.431438,2020-04-08 00:00:00.000000,0.12530504,0.29946820,0.68373895,7,17,40,3,7,20,0.05366514,0.13465875,0.35278528,0.13447390,0.21270405,0.31143797
47175,0,USTennesseeVanBuren,Tennessee,Van Buren,2021-01-05 09:37:59.431438,2020-04-09 00:00:00.000000,0.13091926,0.31906081,0.68161472,7,18,40,3,8,21,0.06046721,0.14489153,0.36415332,0.12906996,0.20468872,0.31128692
47175,0,USTennesseeVanBuren,Tennessee,Van Buren,2021-01-05 09:37:59.431438,2020-04-10 00:00:00.000000,0.14383104,0.33723661,0.68284966,8,19,40,3,9,21,0.06779695,0.15645093,0.37277494,0.12683847,0.19880272,0.31107687
47175,0,USTennesseeVanBuren,Tennessee,Van Buren,2021-01-05 09:37:59.431438,2020-04-11 00:00:00.000000,0.15618913,0.35679858,0.70058572,9,20,41,4,9,22,0.07139133,0.16604607,0.37950817,0.12281088,0.19112943,0.31011511
47175,0,USTennesseeVanBuren,Tennessee,Van Buren,2021-01-05 09:37:59.431438,2020-04-12 00:00:00.000000,0.16789822,0.38123847,0.71653828,9,22,42,4,10,22,0.07378007,0.17847457,0.38469945,0.11929456,0.18401650,0.29028110
47175,0,USTennesseeVanBuren,Tennessee,Van Buren,2021-01-05 09:37:59.431438,2020-04-13 00:00:00.000000,0.18295984,0.39684456,0.72372732,10,23,42,4,11,23,0.07600574,0.18891035,0.40564689,0.11394277,0.17707470,0.28533289
47175,0,USTennesseeVanBuren,Tennessee,Van Buren,2021-01-05 09:37:59.431438,2020-04-14 00:00:00.000000,0.19738070,0.41597216,0.72991091,11,24,42,4,11,23,0.08331966,0.20059526,0.40539858,0.11036145,0.17575570,0.27664653
47175,0,USTennesseeVanBuren,Tennessee,Van Buren,2021-01-05 09:37:59.431438,2020-04-15 00:00:00.000000,0.21691491,0.42768057,0.73021524,12,25,42,5,12,23,0.09315937,0.20872443,0.40651032,0.10477687,0.17278562,0.26975041
47175,0,USTennesseeVanBuren,Tennessee,Van Buren,2021-01-05 09:37:59.431438,2020-04-16 00:00:00.000000,0.22411295,0.43777621,0.74096048,13,25,43,6,12,24,0.10504527,0.21675865,0.41056158,0.10266501,0.16915752,0.26760922
47175,0,USTennesseeVanBuren,Tennessee,Van Buren,2021-01-05 09:37:59.431438,2020-04-17 00:00:00.000000,0.23660519,0.44960550,0.74617399,13,26,43,6,13,24,0.11540700,0.22619933,0.41862022,0.09835883,0.16330501,0.26360273
47175,0,USTennesseeVanBuren,Tennessee,Van Buren,2021-01-05 09:37:59.431438,2020-04-18 00:00:00.000000,0.24892196,0.46108025,0.76782636,14,27,45,6,13,24,0.11719723,0.23168737,0.41818668,0.09264246,0.15844213,0.25877938
47175,0,USTennesseeVanBuren,Tennessee,Van Buren,2021-01-05 09:37:59.431438,2020-04-19 00:00:00.000000,0.25112643,0.46869306,0.79697016,14,27,46,7,14,25,0.12545341,0.23911332,0.42726484,0.09001506,0.15402744,0.25121134
47175,0,USTennesseeVanBuren,Tennessee,Van Buren,2021-01-05 09:37:59.431438,2020-04-20 00:00:00.000000,0.23747132,0.45577990,0.79996684,13,26,46,7,14,25,0.13050999,0.24752191,0.43617615,0.08975202,0.15033294,0.25102131
47175,0,USTennesseeVanBuren,Tennessee,Van Buren,2021-01-05 09:37:59.431438,2020-04-21 00:00:00.000000,0.22331222,0.43684067,0.78892435,13,25,46,7,14,26,0.12916498,0.25175106,0.44547778,0.08938087,0.14859701,0.24371701
47175,0,USTennesseeVanBuren,Tennessee,Van Buren,2021-01-05 09:37:59.431438,2020-04-22 00:00:00.000000,0.20877237,0.42029004,0.75900091,12,24,44,7,14,26,0.12728427,0.24798061,0.45596000,0.08923202,0.14713980,0.24127128
47175,0,USTennesseeVanBuren,Tennessee,Van Buren,2021-01-05 09:37:59.431438,2020-04-23 00:00:00.000000,0.19441435,0.40395636,0.72906108,11,23,42,7,14,27,0.12637534,0.24551297,0.46342461,0.08981905,0.14570289,0.23946450
47175,0,USTennesseeVanBuren,Tennessee,Van Buren,2021-01-05 09:37:59.431438,2020-04-24 00:00:00.000000,0.18156876,0.38804680,0.70589425,10,22,41,7,14,26,0.11965099,0.23867961,0.45900402,0.09001524,0.14533955,0.23749996
47175,0,USTennesseeVanBuren,Tennessee,Van Buren,2021-01-05 09:37:59.431438,2020-04-25 00:00:00.000000,0.17284072,0.36922247,0.67244013,10,21,39,6,13,25,0.11296594,0.23022833,0.44179876,0.08754111,0.14358297,0.23377873
47175,0,USTennesseeVanBuren,Tennessee,Van Buren,2021-01-05 09:37:59.431438,2020-04-26 00:00:00.000000,0.16439601,0.35126961,0.64594048,9,20,37,6,12,25,0.10688367,0.21833602,0.43986366,0.08505689,0.13799730,0.22554609
47175,0,USTennesseeVanBuren,Tennessee,Van Buren,2021-01-05 09:37:59.431438,2020-04-27 00:00:00.000000,0.16552837,0.36224789,0.64355696,9,21,37,5,12,25,0.10026172,0.20790520,0.43726767,0.08487161,0.13506754,0.21368085
47175,0,USTennesseeVanBuren,Tennessee,Van Buren,2021-01-05 09:37:59.431438,2020-04-28 00:00:00.000000,0.16696654,0.37149099,0.64979676,9,21,38,5,12,25,0.09659063,0.20446753,0.42843644,0.08296986,0.13192420,0.20991833
47175,0,USTennesseeVanBuren,Tennessee,Van Buren,2021-01-05 09:37:59.431438,2020-04-29 00:00:00.000000,0.16881179,0.38333583,0.65583485,9,22,38,5,11,24,0.09492664,0.20422599,0.41734015,0.08060979,0.12592905,0.20990582
47175,0,USTennesseeVanBuren,Tennessee,Van Buren,2021-01-05 09:37:59.431438,2020-04-30 00:00:00.000000,0.17075083,0.39523519,0.66147241,10,23,38,5,12,24,0.09461331,0.20572925,0.41242621,0.07885691,0.12438390,0.20703900
47175,0,USTennesseeVanBuren,Tennessee,Van Buren,2021-01-05 09:37:59.431438,2020-05-01 00:00:00.000000,0.17249846,0.40867304,0.66671017,10,23,39,5,12,24,0.09519877,0.20730417,0.41349524,0.07684079,0.12662178,0.20547228
47175,0,USTennesseeVanBuren,Tennessee,Van Buren,2021-01-05 09:37:59.431438,2020-05-02 00:00:00.000000,0.17603275,0.41504043,0.67157702,10,24,39,5,12,24,0.09646766,0.20884213,0.41525195,0.07501395,0.12389698,0.19997317
47175,0,USTennesseeVanBuren,Tennessee,Van Buren,2021-01-05 09:37:59.431438,2020-05-03 00:00:00.000000,0.18043185,0.42426023,0.67611086,10,24,39,5,12,24,0.09879747,0.21481889,0.41740537,0.07373020,0.12538853,0.19417693
47175,0,USTennesseeVanBuren,Tennessee,Van Buren,2021-01-05 09:37:59.431438,2020-05-04 00:00:00.000000,0.20658562,0.42168468,0.67235185,12,24,39,5,12,24,0.10121256,0.21955566,0.41976580,0.07281801,0.12441630,0.19197312
47175,0,USTennesseeVanBuren,Tennessee,Van Buren,2021-01-05 09:37:59.431438,2020-05-05 00:00:00.000000,0.20492072,0.42966797,0.66833902,12,25,39,6,13,24,0.10550190,0.22223909,0.42066794,0.07217969,0.12154108,0.19045820
47175,0,USTennesseeVanBuren,Tennessee,Van Buren,2021-01-05 09:37:59.431438,2020-05-06 00:00:00.000000,0.21664024,0.44154462,0.66728420,12,25,39,6,13,24,0.10851839,0.22385582,0.42049133,0.07182792,0.11832973,0.18975975
47175,0,USTennesseeVanBuren,Tennessee,Van Buren,2021-01-05 09:37:59.431438,2020-05-07 00:00:00.000000,0.22412345,0.44988654,0.67365629,13,26,39,6,13,24,0.11014834,0.22818482,0.41952803,0.07178276,0.11637482,0.18648025
47175,0,USTennesseeVanBuren,Tennessee,Van Buren,2021-01-05 09:37:59.431438,2020-05-08 00:00:00.000000,0.22515251,0.45286081,0.67997462,13,26,39,6,13,24,0.11400698,0.23585072,0.41800320,0.07238456,0.11631088,0.18466664
47175,0,USTennesseeVanBuren,Tennessee,Van Buren,2021-01-05 09:37:59.431438,2020-05-09 00:00:00.000000,0.22542857,0.45844748,0.69675750,13,26,40,6,14,24,0.11644512,0.23928835,0.42103966,0.07486463,0.11674278,0.19001213
47175,0,USTennesseeVanBuren,Tennessee,Van Buren,2021-01-05 09:37:59.431438,2020-05-10 00:00:00.000000,0.22510631,0.46499337,0.69251972,13,27,40,6,14,25,0.11675917,0.24338368,0.43353978,0.07588091,0.11474835,0.17866923
47175,0,USTennesseeVanBuren,Tennessee,Van Buren,2021-01-05 09:37:59.431438,2020-05-11 00:00:00.000000,0.25093143,0.47229394,0.71036552,14,27,41,6,14,24,0.11758221,0.24762751,0.42488564,0.07671153,0.11419239,0.18530341
47175,0,USTennesseeVanBuren,Tennessee,Van Buren,2021-01-05 09:37:59.431438,2020-05-12 00:00:00.000000,0.25320364,0.47438093,0.72785685,14,27,42,7,14,24,0.12105429,0.24901825,0.41701818,0.07659968,0.11371642,0.19178703
47175,0,USTennesseeVanBuren,Tennessee,Van Buren,2021-01-05 09:37:59.431438,2020-05-13 00:00:00.000000,0.25175711,0.47622135,0.73937371,14,27,43,7,15,25,0.12514207,0.25750925,0.42596225,0.07433012,0.11556021,0.19539166
47175,0,USTennesseeVanBuren,Tennessee,Van Buren,2021-01-05 09:37:59.431438,2020-05-14 00:00:00.000000,0.25298684,0.48608215,0.76147387,14,28,44,7,15,25,0.12956855,0.26051273,0.43819543,0.07181445,0.11550019,0.19746307
47175,0,USTennesseeVanBuren,Tennessee,Van Buren,2021-01-05 09:37:59.431438,2020-05-15 00:00:00.000000,0.25949009,0.49979975,0.77608237,15,29,45,7,15,26,0.13388725,0.25841202,0.45266339,0.06956709,0.11463337,0.20338034
47175,0,USTennesseeVanBuren,Tennessee,Van Buren,2021-01-05 09:37:59.431438,2020-05-16 00:00:00.000000,0.26016954,0.50276554,0.78842700,15,29,46,7,15,27,0.13328557,0.25564833,0.46846216,0.06818328,0.11425948,0.20426503
47175,0,USTennesseeVanBuren,Tennessee,Van Buren,2021-01-05 09:37:59.431438,2020-05-17 00:00:00.000000,0.25206720,0.50544450,0.79893109,14,29,46,7,15,28,0.13279535,0.25966808,0.48334820,0.06885535,0.11373628,0.20449362
47175,0,USTennesseeVanBuren,Tennessee,Van Buren,2021-01-05 09:37:59.431438,2020-05-18 00:00:00.000000,0.23493595,0.48555934,0.78183570,13,28,45,7,15,28,0.13242130,0.26479720,0.48814513,0.06905617,0.11173830,0.20452444
47175,0,USTennesseeVanBuren,Tennessee,Van Buren,2021-01-05 09:37:59.431438,2020-05-19 00:00:00.000000,0.21894582,0.46152689,0.76382267,12,27,44,7,15,28,0.12866629,0.26180473,0.48610542,0.06948300,0.10949288,0.20562509
47175,0,USTennesseeVanBuren,Tennessee,Van Buren,2021-01-05 09:37:59.431438,2020-05-20 00:00:00.000000,0.20404270,0.43866960,0.74475406,11,25,43,7,14,28,0.12228088,0.25498150,0.47988741,0.06868147,0.10848822,0.20750813
47175,0,USTennesseeVanBuren,Tennessee,Van Buren,2021-01-05 09:37:59.431438,2020-05-21 00:00:00.000000,0.18967649,0.42105290,0.72499365,11,24,42,6,14,27,0.11453864,0.24625782,0.47119341,0.06682981,0.10817184,0.20796541
47175,0,USTennesseeVanBuren,Tennessee,Van Buren,2021-01-05 09:37:59.431438,2020-05-22 00:00:00.000000,0.17628678,0.40045895,0.70490027,10,23,41,6,13,27,0.10682168,0.23505641,0.46110098,0.06636332,0.10904272,0.20748639
47175,0,USTennesseeVanBuren,Tennessee,Van Buren,2021-01-05 09:37:59.431438,2020-05-23 00:00:00.000000,0.16399108,0.37643933,0.68475401,9,22,40,5,13,26,0.10139571,0.22354274,0.45028597,0.06625840,0.10724264,0.20621938
47175,0,USTennesseeVanBuren,Tennessee,Van Buren,2021-01-05 09:37:59.431438,2020-05-24 00:00:00.000000,0.15259430,0.35321593,0.66474084,8,20,39,5,12,25,0.09508879,0.21227711,0.43917272,0.06633483,0.10765825,0.20437071
47175,0,USTennesseeVanBuren,Tennessee,Van Buren,2021-01-05 09:37:59.431438,2020-05-25 00:00:00.000000,0.14198386,0.33460003,0.64498305,8,19,37,5,11,25,0.08859991,0.20230154,0.42803727,0.06643443,0.10681654,0.20446181
47175,0,USTennesseeVanBuren,Tennessee,Van Buren,2021-01-05 09:37:59.431438,2020-05-26 00:00:00.000000,0.13210278,0.31896686,0.62556795,7,18,36,4,11,24,0.08251017,0.19237562,0.41708467,0.06653064,0.10859617,0.20644887
47175,0,USTennesseeVanBuren,Tennessee,Van Buren,2021-01-05 09:37:59.431438,2020-05-27 00:00:00.000000,0.12290629,0.30066837,0.60657494,7,17,35,4,10,23,0.07681356,0.18128106,0.40652084,0.06663593,0.11082410,0.20595560
47175,0,USTennesseeVanBuren,Tennessee,Van Buren,2021-01-05 09:37:59.431438,2020-05-28 00:00:00.000000,0.11436042,0.28392190,0.58812785,6,16,34,4,10,23,0.07149550,0.17149563,0.39664005,0.06678597,0.11197128,0.20120269
47175,0,USTennesseeVanBuren,Tennessee,Van Buren,2021-01-05 09:37:59.431438,2020-05-29 00:00:00.000000,0.10645789,0.26798066,0.57075734,6,15,33,3,9,22,0.06653977,0.16246537,0.38790028,0.06703560,0.11208357,0.19115245
47175,0,USTennesseeVanBuren,Tennessee,Van Buren,2021-01-05 09:37:59.431438,2020-05-30 00:00:00.000000,0.09921921,0.25211618,0.55517829,5,14,32,3,9,22,0.06193573,0.15333855,0.38086272,0.06778337,0.11386495,0.19103055
47175,0,USTennesseeVanBuren,Tennessee,Van Buren,2021-01-05 09:37:59.431438,2020-05-31 00:00:00.000000,0.09259348,0.23654593,0.54238174,5,13,31,3,8,22,0.05768268,0.14661210,0.37591583,0.06776066,0.11922477,0.19194213
47175,0,USTennesseeVanBuren,Tennessee,Van Buren,2021-01-05 09:37:59.431438,2020-06-01 00:00:00.000000,0.10952906,0.23883747,0.54949711,6,14,32,3,8,21,0.05376877,0.13881970,0.36232120,0.06741793,0.12007277,0.19087232
47175,0,USTennesseeVanBuren,Tennessee,Van Buren,2021-01-05 09:37:59.431438,2020-06-02 00:00:00.000000,0.13499364,0.24930176,0.55769206,7,14,32,3,7,20,0.05982559,0.13391885,0.35055823,0.06848119,0.12187040,0.19179573
47175,0,USTennesseeVanBuren,Tennessee,Van Buren,2021-01-05 09:37:59.431438,2020-06-03 00:00:00.000000,0.14759909,0.26172378,0.56662628,8,15,33,3,7,20,0.06123033,0.13300520,0.34121654,0.06748966,0.12457534,0.19348589
47175,0,USTennesseeVanBuren,Tennessee,Van Buren,2021-01-05 09:37:59.431438,2020-06-04 00:00:00.000000,0.15019552,0.26879208,0.57595876,8,15,33,4,7,19,0.07094845,0.13523348,0.33379709,0.06751774,0.12543148,0.19510901
47175,0,USTennesseeVanBuren,Tennessee,Van Buren,2021-01-05 09:37:59.431438,2020-06-05 00:00:00.000000,0.16016205,0.27895522,0.58549744,9,16,34,4,8,19,0.07494414,0.14044264,0.32799232,0.06804143,0.12603392,0.19535992
47175,0,USTennesseeVanBuren,Tennessee,Van Buren,2021-01-05 09:37:59.431438,2020-06-06 00:00:00.000000,0.16664777,0.28721900,0.59702164,9,16,35,4,8,19,0.07961254,0.14460136,0.32445556,0.06857819,0.12639531,0.20124323
47175,0,USTennesseeVanBuren,Tennessee,Van Buren,2021-01-05 09:37:59.431438,2020-06-07 00:00:00.000000,0.17261914,0.29833748,0.64776242,10,17,38,4,8,19,0.08014322,0.15048931,0.32760727,0.06936853,0.12650056,0.20397465
47175,0,USTennesseeVanBuren,Tennessee,Van Buren,2021-01-05 09:37:59.431438,2020-06-08 00:00:00.000000,0.17854427,0.31637072,0.66626479,10,18,39,4,9,19,0.08210618,0.15387837,0.33135693,0.07012944,0.12512012,0.20444634
47175,0,USTennesseeVanBuren,Tennessee,Van Buren,2021-01-05 09:37:59.431438,2020-06-09 00:00:00.000000,0.18416172,0.32850793,0.68297872,10,19,40,5,9,19,0.08910075,0.15891549,0.33870229,0.07025479,0.12437614,0.20508613
47175,0,USTennesseeVanBuren,Tennessee,Van Buren,2021-01-05 09:37:59.431438,2020-06-10 00:00:00.000000,0.19636807,0.34259285,0.69898171,11,20,41,5,9,20,0.09464553,0.16786194,0.34861342,0.07040168,0.12409753,0.20644879
47175,0,USTennesseeVanBuren,Tennessee,Van Buren,2021-01-05 09:37:59.431438,2020-06-11 00:00:00.000000,0.21300500,0.35348326,0.72231402,12,20,42,5,10,21,0.09756542,0.17508494,0.36018992,0.07128947,0.12556091,0.20740670
47175,0,USTennesseeVanBuren,Tennessee,Van Buren,2021-01-05 09:37:59.431438,2020-06-12 00:00:00.000000,0.21804610,0.36466186,0.74986690,12,21,44,5,10,21,0.10132024,0.18041188,0.37284712,0.07272077,0.12501560,0.20221268
47175,0,USTennesseeVanBuren,Tennessee,Van Buren,2021-01-05 09:37:59.431438,2020-06-13 00:00:00.000000,0.22215875,0.38300194,0.77707752,13,22,45,6,10,22,0.10918617,0.18729276,0.38623337,0.07425784,0.12510829,0.20540018
47175,0,USTennesseeVanBuren,Tennessee,Van Buren,2021-01-05 09:37:59.431438,2020-06-14 00:00:00.000000,0.22468449,0.39181014,0.80393714,13,23,47,6,11,23,0.11722040,0.19530300,0.40009685,0.07440689,0.12589428,0.20998658
47175,0,USTennesseeVanBuren,Tennessee,Van Buren,2021-01-05 09:37:59.431438,2020-06-15 00:00:00.000000,0.22244791,0.40491033,0.80887849,13,23,47,7,11,24,0.12159809,0.20109521,0.41424716,0.07510617,0.12872408,0.21029239
47175,0,USTennesseeVanBuren,Tennessee,Van Buren,2021-01-05 09:37:59.431438,2020-06-16 00:00:00.000000,0.22074094,0.41710417,0.81289840,12,24,47,7,12,24,0.12327162,0.20633707,0.42521869,0.07553441,0.12912400,0.21035198
47175,0,USTennesseeVanBuren,Tennessee,Van Buren,2021-01-05 09:37:59.431438,2020-06-17 00:00:00.000000,0.21945861,0.43093861,0.81606239,12,25,47,7,12,25,0.12300647,0.21385264,0.43377286,0.07719044,0.13373504,0.20854291
47175,0,USTennesseeVanBuren,Tennessee,Van Buren,2021-01-05 09:37:59.431438,2020-06-18 00:00:00.000000,0.21834687,0.44364045,0.81868914,12,26,48,7,12,25,0.12179989,0.21681295,0.44048523,0.08040793,0.13630790,0.20524862
47175,0,USTennesseeVanBuren,Tennessee,Van Buren,2021-01-05 09:37:59.431438,2020-06-19 00:00:00.000000,0.21870370,0.45710905,0.82091497,12,26,48,7,13,26,0.12009218,0.22513686,0.44579211,0.08233396,0.13746344,0.20210349
47175,0,USTennesseeVanBuren,Tennessee,Van Buren,2021-01-05 09:37:59.431438,2020-06-20 00:00:00.000000,0.21974101,0.46464037,0.81885441,12,27,48,6,13,26,0.11817792,0.23452682,0.45002529,0.08290944,0.14008173,0.20764223
47175,0,USTennesseeVanBuren,Tennessee,Van Buren,2021-01-05 09:37:59.431438,2020-06-21 00:00:00.000000,0.22081734,0.47306144,0.80964007,12,27,47,6,14,26,0.11602043,0.24612196,0.45343800,0.08305589,0.14080654,0.20819079
47175,0,USTennesseeVanBuren,Tennessee,Van Buren,2021-01-05 09:37:59.431438,2020-06-22 00:00:00.000000,0.25115265,0.47823217,0.81481688,14,28,47,6,15,26,0.11419731,0.25583104,0.45622225,0.08312741,0.14108194,0.21333137
47175,0,USTennesseeVanBuren,Tennessee,Van Buren,2021-01-05 09:37:59.431438,2020-06-23 00:00:00.000000,0.25511780,0.48934646,0.82079921,14,28,48,6,15,27,0.11689135,0.26182357,0.46068576,0.08325018,0.14498051,0.21889882
47175,0,USTennesseeVanBuren,Tennessee,Van Buren,2021-01-05 09:37:59.431438,2020-06-24 00:00:00.000000,0.26918482,0.50091723,0.83091973,15,29,48,7,15,27,0.12290221,0.27022715,0.46608084,0.08356019,0.14979090,0.22357236
47175,0,USTennesseeVanBuren,Tennessee,Van Buren,2021-01-05 09:37:59.431438,2020-06-25 00:00:00.000000,0.27657529,0.51384097,0.85020381,16,30,49,7,16,28,0.13100167,0.27673481,0.47837994,0.08433320,0.15152202,0.23112285
47175,0,USTennesseeVanBuren,Tennessee,Van Buren,2021-01-05 09:37:59.431438,2020-06-26 00:00:00.000000,0.28421049,0.52892064,0.86935176,16,31,51,8,16,28,0.13952544,0.28068581,0.49223869,0.08603347,0.15426787,0.26028947
47175,0,USTennesseeVanBuren,Tennessee,Van Buren,2021-01-05 09:37:59.431438,2020-06-27 00:00:00.000000,0.28321290,0.54428741,0.88825077,16,31,52,8,16,29,0.14585116,0.28541902,0.50520465,0.08886568,0.15657623,0.26226406
47175,0,USTennesseeVanBuren,Tennessee,Van Buren,2021-01-05 09:37:59.431438,2020-06-28 00:00:00.000000,0.27405553,0.54180502,0.94421510,16,31,55,8,16,29,0.15054362,0.28756377,0.50912470,0.09196059,0.15841373,0.26275464
47175,0,USTennesseeVanBuren,Tennessee,Van Buren,2021-01-05 09:37:59.431438,2020-06-29 00:00:00.000000,0.30827265,0.56358835,0.96821088,18,33,56,8,17,30,0.15264418,0.29003692,0.51395634,0.09421084,0.16128448,0.26265051
47175,0,USTennesseeVanBuren,Tennessee,Van Buren,2021-01-05 09:37:59.431438,2020-06-30 00:00:00.000000,0.32532952,0.57737981,1.00140852,19,33,58,8,17,30,0.14848744,0.29762345,0.52069203,0.09562639,0.16237827,0.25593681
47175,0,USTennesseeVanBuren,Tennessee,Van Buren,2021-01-05 09:37:59.431438,2020-07-01 00:00:00.000000,0.33440513,0.59518610,1.03097051,19,34,60,8,17,32,0.14622132,0.30488600,0.54722192,0.09673909,0.16214046,0.26056884
47175,0,USTennesseeVanBuren,Tennessee,Van Buren,2021-01-05 09:37:59.431438,2020-07-02 00:00:00.000000,0.33382364,0.61683602,1.06050088,19,36,62,8,18,33,0.14812247,0.31362039,0.57478007,0.09888482,0.16214582,0.25510611
47175,0,USTennesseeVanBuren,Tennessee,Van Buren,2021-01-05 09:37:59.431438,2020-07-03 00:00:00.000000,0.33224415,0.62251362,1.08993015,19,36,64,8,18,34,0.15102143,0.32076616,0.58597804,0.10242222,0.16280526,0.25344928
47175,0,USTennesseeVanBuren,Tennessee,Van Buren,2021-01-05 09:37:59.431438,2020-07-04 00:00:00.000000,0.33059669,0.64506371,1.11861850,19,37,65,9,19,35,0.15398159,0.32927975,0.59683792,0.10546399,0.16565552,0.25855817
47175,0,USTennesseeVanBuren,Tennessee,Van Buren,2021-01-05 09:37:59.431438,2020-07-05 00:00:00.000000,0.32902300,0.67358948,1.14677275,19,39,67,9,19,35,0.15705821,0.33571350,0.60092738,0.10747742,0.17248600,0.26488991
47175,0,USTennesseeVanBuren,Tennessee,Van Buren,2021-01-05 09:37:59.431438,2020-07-06 00:00:00.000000,0.35298281,0.67837626,1.18330878,20,39,69,9,20,35,0.16036212,0.34671200,0.60155554,0.11356901,0.18323749,0.25788973
47175,0,USTennesseeVanBuren,Tennessee,Van Buren,2021-01-05 09:37:59.431438,2020-07-07 00:00:00.000000,0.37788901,0.70339144,1.22011125,22,41,71,9,20,36,0.16632516,0.35581487,0.61731100,0.11345318,0.18625479,0.25667549
47175,0,USTennesseeVanBuren,Tennessee,Van Buren,2021-01-05 09:37:59.431438,2020-07-08 00:00:00.000000,0.40254180,0.72624453,1.25718715,23,42,73,10,21,36,0.17503096,0.36167708,0.62690527,0.11351286,0.18968554,0.26903676
47175,0,USTennesseeVanBuren,Tennessee,Van Buren,2021-01-05 09:37:59.431438,2020-07-09 00:00:00.000000,0.41700603,0.75268853,1.29431392,24,44,76,10,21,37,0.18433753,0.37033464,0.64442910,0.11381044,0.19192004,0.28217638
47175,0,USTennesseeVanBuren,Tennessee,Van Buren,2021-01-05 09:37:59.431438,2020-07-10 00:00:00.000000,0.44327332,0.77981442,1.30352762,26,45,76,11,21,39,0.19437123,0.37456235,0.66527945,0.12059007,0.19592926,0.27379583
47175,0,USTennesseeVanBuren,Tennessee,Van Buren,2021-01-05 09:37:59.431438,2020-07-11 00:00:00.000000,0.47630091,0.80227918,1.31972992,27,47,77,12,22,40,0.20993701,0.38578033,0.68640234,0.12132657,0.20086069,0.28622494
47175,0,USTennesseeVanBuren,Tennessee,Van Buren,2021-01-05 09:37:59.431438,2020-07-12 00:00:00.000000,0.50929668,0.82265343,1.38530667,29,48,81,13,23,41,0.22621857,0.40321972,0.70787657,0.12558314,0.20251679,0.29353809
47175,0,USTennesseeVanBuren,Tennessee,Van Buren,2021-01-05 09:37:59.431438,2020-07-13 00:00:00.000000,0.54150544,0.84591444,1.41822860,31,49,83,14,24,42,0.24291283,0.41256666,0.72970440,0.13572352,0.20492081,0.30065025
47175,0,USTennesseeVanBuren,Tennessee,Van Buren,2021-01-05 09:37:59.431438,2020-07-14 00:00:00.000000,0.59636754,0.88151000,1.42912033,35,51,83,15,24,43,0.26211675,0.42426603,0.74668040,0.13728598,0.20774851,0.30488492
47175,0,USTennesseeVanBuren,Tennessee,Van Buren,2021-01-05 09:37:59.431438,2020-07-15 00:00:00.000000,0.60670444,0.92456241,1.43940815,35,54,84,16,25,44,0.28315638,0.43913963,0.76046975,0.13739551,0.21187200,0.30621967
47175,0,USTennesseeVanBuren,Tennessee,Van Buren,2021-01-05 09:37:59.431438,2020-07-16 00:00:00.000000,0.61723440,0.94868835,1.45829188,36,55,85,17,26,45,0.30529906,0.45757151,0.77215236,0.14119555,0.21296494,0.30966969
47175,0,USTennesseeVanBuren,Tennessee,Van Buren,2021-01-05 09:37:59.431438,2020-07-17 00:00:00.000000,0.62841367,0.97223298,1.56776626,36,57,92,18,28,45,0.31707611,0.47999243,0.78244024,0.14615872,0.21674730,0.31026168
47175,0,USTennesseeVanBuren,Tennessee,Van Buren,2021-01-05 09:37:59.431438,2020-07-18 00:00:00.000000,0.64428892,0.99237434,1.59136384,37,58,93,19,29,46,0.33303717,0.49783047,0.79539309,0.14740483,0.22264314,0.32914149
47175,0,USTennesseeVanBuren,Tennessee,Van Buren,2021-01-05 09:37:59.431438,2020-07-19 00:00:00.000000,0.65647378,1.02392973,1.67654170,38,60,98,20,29,47,0.34328498,0.50474904,0.80550407,0.15192398,0.23214529,0.34303399
47175,0,USTennesseeVanBuren,Tennessee,Van Buren,2021-01-05 09:37:59.431438,2020-07-20 00:00:00.000000,0.68432337,1.04838090,1.68594574,40,61,98,20,30,48,0.35061232,0.52036750,0.82879698,0.15373317,0.23384977,0.35181658
47175,0,USTennesseeVanBuren,Tennessee,Van Buren,2021-01-05 09:37:59.431438,2020-07-21 00:00:00.000000,0.68797782,1.08378693,1.70013552,40,63,99,21,31,52,0.35883337,0.54305244,0.88629147,0.15558076,0.23423969,0.35316938
47175,0,USTennesseeVanBuren,Tennessee,Van Buren,2021-01-05 09:37:59.431438,2020-07-22 00:00:00.000000,0.69537861,1.13705482,1.72002661,40,66,100,21,33,54,0.36689396,0.56706444,0.92781712,0.16163882,0.23724426,0.36238141
47175,0,USTennesseeVanBuren,Tennessee,Van Buren,2021-01-05 09:37:59.431438,2020-07-23 00:00:00.000000,0.73512864,1.16450331,1.74556819,43,68,102,22,34,55,0.37504231,0.58051294,0.94963702,0.16784517,0.23700538,0.37906138
47175,0,USTennesseeVanBuren,Tennessee,Van Buren,2021-01-05 09:37:59.431438,2020-07-24 00:00:00.000000,0.76341148,1.19441071,1.80877694,44,70,106,22,36,56,0.38728577,0.61603254,0.96179184,0.16991733,0.23996918,0.38119788
47175,0,USTennesseeVanBuren,Tennessee,Van Buren,2021-01-05 09:37:59.431438,2020-07-25 00:00:00.000000,0.78490235,1.23290162,1.87924641,46,72,110,23,36,57,0.40123529,0.62702699,0.98599101,0.17082322,0.24504135,0.38437489
47175,0,USTennesseeVanBuren,Tennessee,Van Buren,2021-01-05 09:37:59.431438,2020-07-26 00:00:00.000000,0.80728428,1.29294076,1.94733137,47,75,114,23,37,60,0.40693318,0.64206809,1.02258946,0.17127974,0.25083112,0.38657688
47175,0,USTennesseeVanBuren,Tennessee,Van Buren,2021-01-05 09:37:59.431438,2020-07-27 00:00:00.000000,0.83591499,1.31546780,1.97808037,49,77,116,24,39,61,0.41554145,0.66726009,1.03947653,0.17170828,0.26119149,0.39513468
47175,0,USTennesseeVanBuren,Tennessee,Van Buren,2021-01-05 09:37:59.431438,2020-07-28 00:00:00.000000,0.86478592,1.36525005,2.00711866,50,80,117,25,40,61,0.43508624,0.68646258,1.04825376,0.17615358,0.27179008,0.39765377
47175,0,USTennesseeVanBuren,Tennessee,Van Buren,2021-01-05 09:37:59.431438,2020-07-29 00:00:00.000000,0.88322638,1.41970560,2.04773930,51,83,120,27,41,61,0.46684247,0.70559089,1.05197967,0.17920472,0.27745874,0.39059480
47175,0,USTennesseeVanBuren,Tennessee,Van Buren,2021-01-05 09:37:59.431438,2020-07-30 00:00:00.000000,0.88805729,1.45388925,2.12041592,52,85,124,28,42,61,0.48798140,0.71913205,1.05401037,0.18121617,0.27869393,0.40303909
47175,0,USTennesseeVanBuren,Tennessee,Van Buren,2021-01-05 09:37:59.431438,2020-07-31 00:00:00.000000,0.90814186,1.52839213,2.16822691,53,89,127,29,42,62,0.50651867,0.73170504,1.07177975,0.18389276,0.28016125,0.40389343
47175,0,USTennesseeVanBuren,Tennessee,Van Buren,2021-01-05 09:37:59.431438,2020-08-01 00:00:00.000000,0.92197870,1.59284991,2.20022807,54,93,129,30,43,64,0.51659943,0.74737792,1.10458689,0.19614726,0.28574440,0.41488247
47175,0,USTennesseeVanBuren,Tennessee,Van Buren,2021-01-05 09:37:59.431438,2020-08-02 00:00:00.000000,0.93263664,1.64129131,2.25316069,54,96,132,30,45,68,0.52186758,0.76967437,1.16290616,0.21656302,0.29932313,0.44113604
47175,0,USTennesseeVanBuren,Tennessee,Van Buren,2021-01-05 09:37:59.431438,2020-08-03 00:00:00.000000,0.98892402,1.69827041,2.35105312,58,99,138,30,46,71,0.52753081,0.78801945,1.22266782,0.22395572,0.31337722,0.45288931
47175,0,USTennesseeVanBuren,Tennessee,Van Buren,2021-01-05 09:37:59.431438,2020-08-04 00:00:00.000000,1.06200350,1.75367345,2.45366339,62,102,144,31,47,75,0.53731160,0.81267059,1.28204787,0.23383481,0.31994674,0.45378612
47175,0,USTennesseeVanBuren,Tennessee,Van Buren,2021-01-05 09:37:59.431438,2020-08-05 00:00:00.000000,1.08812161,1.81823882,2.57502725,63,106,151,32,50,78,0.55237832,0.85422637,1.34157516,0.23413706,0.33044398,0.43634989
47175,0,USTennesseeVanBuren,Tennessee,Van Buren,2021-01-05 09:37:59.431438,2020-08-06 00:00:00.000000,1.10722625,1.89417135,2.73747760,65,111,160,33,52,81,0.56636803,0.89987566,1.38695377,0.23495634,0.33343469,0.44492675
47175,0,USTennesseeVanBuren,Tennessee,Van Buren,2021-01-05 09:37:59.431438,2020-08-07 00:00:00.000000,1.12674696,1.95788778,2.89183178,66,114,169,34,54,85,0.58541456,0.92917428,1.46204188,0.23725246,0.34139226,0.46265369
47175,0,USTennesseeVanBuren,Tennessee,Van Buren,2021-01-05 09:37:59.431438,2020-08-08 00:00:00.000000,1.18910065,2.05015927,3.04951326,69,120,179,36,57,89,0.61677885,0.97692329,1.51937176,0.24327778,0.34941127,0.50803781
47175,0,USTennesseeVanBuren,Tennessee,Van Buren,2021-01-05 09:37:59.431438,2020-08-09 00:00:00.000000,1.26246843,2.10150405,3.21152085,74,123,188,38,61,92,0.65810297,1.04156749,1.57146770,0.25648944,0.35691839,0.54410211
47175,0,USTennesseeVanBuren,Tennessee,Van Buren,2021-01-05 09:37:59.431438,2020-08-10 00:00:00.000000,1.32249237,2.24826840,3.36095470,77,132,197,41,63,95,0.70285847,1.08420775,1.61888757,0.26726547,0.36194789,0.55459732
47175,0,USTennesseeVanBuren,Tennessee,Van Buren,2021-01-05 09:37:59.431438,2020-08-11 00:00:00.000000,1.39257518,2.35276342,3.51480043,81,138,206,43,66,98,0.73966221,1.13902776,1.67581036,0.27069288,0.36996501,0.55844604
47175,0,USTennesseeVanBuren,Tennessee,Van Buren,2021-01-05 09:37:59.431438,2020-08-12 00:00:00.000000,1.49776808,2.44874647,3.67238931,87,143,215,45,69,104,0.77847173,1.18746694,1.77403867,0.27261885,0.38116810,0.55853539
47175,0,USTennesseeVanBuren,Tennessee,Van Buren,2021-01-05 09:37:59.431438,2020-08-13 00:00:00.000000,1.61750700,2.60268331,3.83361698,94,152,225,48,72,107,0.82005993,1.23262870,1.83896100,0.27670621,0.39097896,0.55123693
47175,0,USTennesseeVanBuren,Tennessee,Van Buren,2021-01-05 09:37:59.431438,2020-08-14 00:00:00.000000,1.74615102,2.77970626,3.99817774,102,163,234,50,76,112,0.86611072,1.29758302,1.91000327,0.28158341,0.39452420,0.53558116
47175,0,USTennesseeVanBuren,Tennessee,Van Buren,2021-01-05 09:37:59.431438,2020-08-15 00:00:00.000000,1.88559055,2.91698054,4.16516698,110,171,244,54,79,117,0.93467171,1.35529483,1.99288536,0.28180023,0.40493922,0.53845521
47175,0,USTennesseeVanBuren,Tennessee,Van Buren,2021-01-05 09:37:59.431438,2020-08-16 00:00:00.000000,2.03768911,3.05946654,4.33184164,119,179,254,59,84,122,1.00900270,1.44375030,2.08758010,0.31100003,0.41835851,0.54097510
47175,0,USTennesseeVanBuren,Tennessee,Van Buren,2021-01-05 09:37:59.431438,2020-08-17 00:00:00.000000,2.19815734,3.27383589,4.51883434,129,192,265,63,89,128,1.08984249,1.53086588,2.19144516,0.31041218,0.42074908,0.54774858
47175,0,USTennesseeVanBuren,Tennessee,Van Buren,2021-01-05 09:37:59.431438,2020-08-18 00:00:00.000000,2.37079789,3.50399391,4.79184680,139,205,281,69,95,135,1.17642585,1.63160701,2.31196802,0.31475391,0.42808181,0.55750705
47175,0,USTennesseeVanBuren,Tennessee,Van Buren,2021-01-05 09:37:59.431438,2020-08-19 00:00:00.000000,2.51081356,3.72825738,5.07029538,147,218,297,73,101,144,1.24551568,1.72725633,2.46219109,0.31532901,0.43353725,0.56241825
47175,0,USTennesseeVanBuren,Tennessee,Van Buren,2021-01-05 09:37:59.431438,2020-08-20 00:00:00.000000,2.64321183,3.94293064,5.33846457,155,231,313,76,106,154,1.30562072,1.81024040,2.63351301,0.31851863,0.43564659,0.56264537
47175,0,USTennesseeVanBuren,Tennessee,Van Buren,2021-01-05 09:37:59.431438,2020-08-21 00:00:00.000000,2.90108954,4.15458560,5.65091253,170,243,331,83,113,165,1.42682526,1.92471734,2.81127891,0.32976317,0.43321238,0.58442329
47175,0,USTennesseeVanBuren,Tennessee,Van Buren,2021-01-05 09:37:59.431438,2020-08-22 00:00:00.000000,3.16068381,4.37228213,6.04018893,185,256,354,88,120,173,1.51423413,2.04425699,2.95916307,0.31518530,0.43014455,0.58478354
47175,0,USTennesseeVanBuren,Tennessee,Van Buren,2021-01-05 09:37:59.431438,2020-08-23 00:00:00.000000,3.37566890,4.61300604,6.39179747,198,270,375,93,127,184,1.58568035,2.16371624,3.14294128,0.30877794,0.42883478,0.57001121
47175,0,USTennesseeVanBuren,Tennessee,Van Buren,2021-01-05 09:37:59.431438,2020-08-24 00:00:00.000000,3.58828150,4.86175761,6.72121823,210,285,394,97,134,194,1.66481604,2.28482304,3.31474518,0.30347431,0.42914025,0.57178861
47175,0,USTennesseeVanBuren,Tennessee,Van Buren,2021-01-05 09:37:59.431438,2020-08-25 00:00:00.000000,3.74270014,5.11497508,6.97674328,219,300,409,104,142,204,1.77589304,2.41825618,3.48736156,0.28857002,0.42250402,0.56388495
47175,0,USTennesseeVanBuren,Tennessee,Van Buren,2021-01-05 09:37:59.431438,2020-08-26 00:00:00.000000,3.99558812,5.38971387,7.23113051,234,316,424,109,149,215,1.87292555,2.54149783,3.66168881,0.28522221,0.41992756,0.54188982
47175,0,USTennesseeVanBuren,Tennessee,Van Buren,2021-01-05 09:37:59.431438,2020-08-27 00:00:00.000000,4.28677971,5.69137286,7.45044066,251,334,437,115,159,225,1.96236192,2.71611812,3.84222976,0.28196989,0.40986371,0.54098945
47175,0,USTennesseeVanBuren,Tennessee,Van Buren,2021-01-05 09:37:59.431438,2020-08-28 00:00:00.000000,4.52187686,5.94479555,7.62694116,265,349,447,120,168,238,2.05307210,2.87033191,4.06440355,0.26584289,0.39370105,0.53633671
47175,0,USTennesseeVanBuren,Tennessee,Van Buren,2021-01-05 09:37:59.431438,2020-08-29 00:00:00.000000,4.64787298,6.16837777,7.75656058,272,362,455,125,177,247,2.14495091,3.01518171,4.21600091,0.24132997,0.36784478,0.50357882
47175,0,USTennesseeVanBuren,Tennessee,Van Buren,2021-01-05 09:37:59.431438,2020-08-30 00:00:00.000000,4.77033231,6.28140658,7.91125184,280,368,464,131,184,255,2.23203231,3.14053480,4.34659789,0.21761868,0.34925120,0.49648560
47175,0,USTennesseeVanBuren,Tennessee,Van Buren,2021-01-05 09:37:59.431438,2020-08-31 00:00:00.000000,4.88026858,6.38175411,7.90162751,286,374,463,134,190,262,2.28616831,3.24857873,4.47505368,0.20625500,0.32149813,0.46034485
47175,0,USTennesseeVanBuren,Tennessee,Van Buren,2021-01-05 09:37:59.431438,2020-09-01 00:00:00.000000,4.94414214,6.38968734,7.93796816,290,375,466,136,195,267,2.33030529,3.33487163,4.56277154,0.19475007,0.30338435,0.41899765
47175,0,USTennesseeVanBuren,Tennessee,Van Buren,2021-01-05 09:37:59.431438,2020-09-02 00:00:00.000000,4.98297434,6.43320131,7.97486962,292,377,468,139,199,271,2.38248593,3.39045588,4.61611921,0.18352338,0.29001428,0.38432626
47175,0,USTennesseeVanBuren,Tennessee,Van Buren,2021-01-05 09:37:59.431438,2020-09-03 00:00:00.000000,5.00868782,6.41745829,8.06543157,294,376,473,140,202,273,2.38622713,3.45196484,4.66560965,0.16410156,0.27039886,0.36997556
47175,0,USTennesseeVanBuren,Tennessee,Van Buren,2021-01-05 09:37:59.431438,2020-09-04 00:00:00.000000,4.89796513,6.37444159,8.10902472,287,374,476,141,204,276,2.40374862,3.49049298,4.71007205,0.15710910,0.24805057,0.36571405
47175,0,USTennesseeVanBuren,Tennessee,Van Buren,2021-01-05 09:37:59.431438,2020-09-05 00:00:00.000000,4.72829936,6.25305644,8.07739486,277,367,474,141,205,275,2.41615037,3.49612695,4.69675224,0.15398186,0.23174006,0.35271470
47175,0,USTennesseeVanBuren,Tennessee,Van Buren,2021-01-05 09:37:59.431438,2020-09-06 00:00:00.000000,4.63374981,6.08463138,7.99411801,272,357,469,142,204,275,2.42182294,3.47462292,4.68757103,0.14738650,0.21817214,0.32591840
47175,0,USTennesseeVanBuren,Tennessee,Van Buren,2021-01-05 09:37:59.431438,2020-09-07 00:00:00.000000,4.46791385,5.97892439,7.89469191,262,351,463,141,200,273,2.41662024,3.40707974,4.66205396,0.14482742,0.21185426,0.29991939
47175,0,USTennesseeVanBuren,Tennessee,Van Buren,2021-01-05 09:37:59.431438,2020-09-08 00:00:00.000000,4.27118875,5.83601253,7.78474809,250,342,457,140,196,271,2.39585040,3.34414582,4.62856088,0.14351116,0.20713245,0.28774701
47175,0,USTennesseeVanBuren,Tennessee,Van Buren,2021-01-05 09:37:59.431438,2020-09-09 00:00:00.000000,4.13509545,5.70211031,7.60682125,242,334,446,137,191,267,2.33701931,3.26906732,4.55306049,0.14239104,0.20277899,0.28354129
47175,0,USTennesseeVanBuren,Tennessee,Van Buren,2021-01-05 09:37:59.431438,2020-09-10 00:00:00.000000,4.00133281,5.54249942,7.35345707,234,325,431,130,186,263,2.22265175,3.17909411,4.48118102,0.13927523,0.19879804,0.28227055
47175,0,USTennesseeVanBuren,Tennessee,Van Buren,2021-01-05 09:37:59.431438,2020-09-11 00:00:00.000000,3.86877233,5.35484991,7.15111886,227,314,419,123,182,258,2.11013173,3.10331464,4.39659354,0.13223749,0.19439727,0.28187529
47175,0,USTennesseeVanBuren,Tennessee,Van Buren,2021-01-05 09:37:59.431438,2020-09-12 00:00:00.000000,3.73689331,5.18678605,7.05228789,219,304,414,117,177,252,2.00115622,3.02557253,4.29182594,0.12892654,0.18831917,0.27308936
47175,0,USTennesseeVanBuren,Tennessee,Van Buren,2021-01-05 09:37:59.431438,2020-09-13 00:00:00.000000,3.60618120,5.00905227,6.95237736,211,294,408,111,172,245,1.89715331,2.93879391,4.17323359,0.12774831,0.18084533,0.24612925
47175,0,USTennesseeVanBuren,Tennessee,Van Buren,2021-01-05 09:37:59.431438,2020-09-14 00:00:00.000000,3.45145436,4.85463717,6.74571979,202,285,396,105,166,237,1.79964385,2.84033412,4.04623035,0.12728887,0.17990576,0.24484257
47175,0,USTennesseeVanBuren,Tennessee,Van Buren,2021-01-05 09:37:59.431438,2020-09-15 00:00:00.000000,3.30062410,4.68723629,6.52314635,193,275,383,100,162,229,1.70952834,2.76728533,3.91159686,0.12283650,0.17734730,0.24626227
47175,0,USTennesseeVanBuren,Tennessee,Van Buren,2021-01-05 09:37:59.431438,2020-09-16 00:00:00.000000,3.15616031,4.53356419,6.30464402,185,266,370,95,157,222,1.62746563,2.68840980,3.78613860,0.12072769,0.17494281,0.24639388
47175,0,USTennesseeVanBuren,Tennessee,Van Buren,2021-01-05 09:37:59.431438,2020-09-17 00:00:00.000000,3.01951561,4.39451223,6.09079557,177,258,357,92,152,215,1.58213374,2.60081295,3.66728578,0.11915001,0.17149373,0.24643798
47175,0,USTennesseeVanBuren,Tennessee,Van Buren,2021-01-05 09:37:59.431438,2020-09-18 00:00:00.000000,2.89015574,4.21035285,5.88073982,169,247,345,90,148,209,1.54628117,2.53647989,3.57213095,0.11630644,0.16632346,0.24617399
47175,0,USTennesseeVanBuren,Tennessee,Van Buren,2021-01-05 09:37:59.431438,2020-09-19 00:00:00.000000,2.75625820,4.06438436,5.67154199,161,238,333,88,144,206,1.51560324,2.46484106,3.50879669,0.11581052,0.16533044,0.24406788
47175,0,USTennesseeVanBuren,Tennessee,Van Buren,2021-01-05 09:37:59.431438,2020-09-20 00:00:00.000000,2.64554885,3.92079170,5.51254796,155,230,323,87,141,201,1.48893558,2.41097112,3.43778360,0.11600967,0.16385113,0.23269382
47175,0,USTennesseeVanBuren,Tennessee,Van Buren,2021-01-05 09:37:59.431438,2020-09-21 00:00:00.000000,2.54276666,3.75798464,5.36408296,149,220,314,86,135,197,1.46557040,2.31036498,3.35931736,0.10877886,0.16561803,0.23715764
47175,0,USTennesseeVanBuren,Tennessee,Van Buren,2021-01-05 09:37:59.431438,2020-09-22 00:00:00.000000,2.45759478,3.61314767,5.21678127,144,212,306,82,128,192,1.40234134,2.18884931,3.27807979,0.10768473,0.16775555,0.23104705
47175,0,USTennesseeVanBuren,Tennessee,Van Buren,2021-01-05 09:37:59.431438,2020-09-23 00:00:00.000000,2.38764672,3.47020537,5.07333721,140,203,297,78,122,187,1.34271930,2.09409568,3.19515697,0.10770837,0.16879990,0.23074392
47175,0,USTennesseeVanBuren,Tennessee,Van Buren,2021-01-05 09:37:59.431438,2020-09-24 00:00:00.000000,2.27618878,3.34695039,4.93853289,133,196,289,75,117,182,1.28800798,2.00480105,3.11220447,0.10776829,0.16983267,0.23543261
47175,0,USTennesseeVanBuren,Tennessee,Van Buren,2021-01-05 09:37:59.431438,2020-09-25 00:00:00.000000,2.17622485,3.24232554,4.82000170,127,190,283,72,113,178,1.23839796,1.93276230,3.03135929,0.10790925,0.17194854,0.25201327
47175,0,USTennesseeVanBuren,Tennessee,Van Buren,2021-01-05 09:37:59.431438,2020-09-26 00:00:00.000000,2.12773633,3.13279290,4.71651424,124,183,276,70,110,173,1.19543549,1.87441606,2.95442054,0.10971984,0.17391167,0.26342949
47175,0,USTennesseeVanBuren,Tennessee,Van Buren,2021-01-05 09:37:59.431438,2020-09-27 00:00:00.000000,2.03061401,3.03943162,4.62077148,119,178,271,65,106,169,1.11922230,1.80683161,2.88180937,0.11644069,0.17781783,0.26838690
47175,0,USTennesseeVanBuren,Tennessee,Van Buren,2021-01-05 09:37:59.431438,2020-09-28 00:00:00.000000,1.93497089,2.95756194,4.52133240,113,173,265,61,102,165,1.04953669,1.74377453,2.81305571,0.12275335,0.18011810,0.26977358
47175,0,USTennesseeVanBuren,Tennessee,Van Buren,2021-01-05 09:37:59.431438,2020-09-29 00:00:00.000000,1.85718907,2.88839248,4.42460129,109,169,259,59,99,161,1.00697940,1.69228151,2.74961556,0.12547329,0.18438999,0.27026553
47175,0,USTennesseeVanBuren,Tennessee,Van Buren,2021-01-05 09:37:59.431438,2020-09-30 00:00:00.000000,1.78937642,2.79997552,4.33002711,105,164,254,57,96,157,0.98055456,1.64421181,2.69025405,0.12905352,0.18626740,0.27083885
47175,0,USTennesseeVanBuren,Tennessee,Van Buren,2021-01-05 09:37:59.431438,2020-10-01 00:00:00.000000,1.72902081,2.72900046,4.23810491,101,160,248,55,93,154,0.95161915,1.59901821,2.63409707,0.12915955,0.19102910,0.27250646
47175,0,USTennesseeVanBuren,Tennessee,Van Buren,2021-01-05 09:37:59.431438,2020-10-02 00:00:00.000000,1.67303245,2.67261978,4.18668005,98,156,245,53,92,151,0.91302996,1.56841374,2.58060976,0.12940907,0.19776257,0.28237618
47175,0,USTennesseeVanBuren,Tennessee,Van Buren,2021-01-05 09:37:59.431438,2020-10-03 00:00:00.000000,1.62122488,2.59955946,4.09427089,95,152,240,51,89,148,0.87896622,1.53134792,2.53057428,0.13019546,0.20770798,0.29626038
47175,0,USTennesseeVanBuren,Tennessee,Van Buren,2021-01-05 09:37:59.431438,2020-10-04 00:00:00.000000,1.57303116,2.54169952,4.00595013,92,149,235,49,88,146,0.85019260,1.51432012,2.48741822,0.13238871,0.21939403,0.31816045
47175,0,USTennesseeVanBuren,Tennessee,Van Buren,2021-01-05 09:37:59.431438,2020-10-05 00:00:00.000000,1.66882514,2.50593281,3.91690351,97,147,230,48,86,143,0.83006586,1.47009153,2.45020559,0.13837053,0.22343500,0.32877122
47175,0,USTennesseeVanBuren,Tennessee,Van Buren,2021-01-05 09:37:59.431438,2020-10-06 00:00:00.000000,1.70111879,2.48696668,3.84456460,99,146,225,48,84,141,0.82265700,1.43092014,2.41673631,0.14855516,0.23004995,0.33316303
47175,0,USTennesseeVanBuren,Tennessee,Van Buren,2021-01-05 09:37:59.431438,2020-10-07 00:00:00.000000,1.66976563,2.49436649,3.78036347,98,146,221,49,82,140,0.84413433,1.39686268,2.38599126,0.14878599,0.23700702,0.33430294
47175,0,USTennesseeVanBuren,Tennessee,Van Buren,2021-01-05 09:37:59.431438,2020-10-08 00:00:00.000000,1.64621921,2.51162540,3.74936545,96,147,220,48,81,138,0.83074952,1.38290060,2.35755888,0.15257331,0.24338370,0.34134752
47175,0,USTennesseeVanBuren,Tennessee,Van Buren,2021-01-05 09:37:59.431438,2020-10-09 00:00:00.000000,1.62918022,2.50232799,3.73808154,95,146,219,48,81,136,0.81777269,1.38178498,2.33225161,0.15476623,0.25484729,0.35506184
47175,0,USTennesseeVanBuren,Tennessee,Van Buren,2021-01-05 09:37:59.431438,2020-10-10 00:00:00.000000,1.61724967,2.51440991,3.75372128,94,147,220,47,81,135,0.80752243,1.38241304,2.30652215,0.16110170,0.27114255,0.36659362
47175,0,USTennesseeVanBuren,Tennessee,Van Buren,2021-01-05 09:37:59.431438,2020-10-11 00:00:00.000000,1.60913017,2.54602837,3.83440160,94,149,225,47,81,132,0.80214812,1.38697968,2.25764410,0.17713550,0.28179076,0.37806109
47175,0,USTennesseeVanBuren,Tennessee,Van Buren,2021-01-05 09:37:59.431438,2020-10-12 00:00:00.000000,1.60923899,2.57537536,3.87761121,94,151,227,47,81,129,0.80212261,1.38802538,2.21224823,0.18978869,0.28811179,0.40240345
47175,0,USTennesseeVanBuren,Tennessee,Van Buren,2021-01-05 09:37:59.431438,2020-10-13 00:00:00.000000,1.61133244,2.61049653,3.92113240,94,153,230,47,81,127,0.81578145,1.38883194,2.16764844,0.19749647,0.29135001,0.42329512
47175,0,USTennesseeVanBuren,Tennessee,Van Buren,2021-01-05 09:37:59.431438,2020-10-14 00:00:00.000000,1.64090222,2.58835987,3.96327509,96,151,232,47,82,124,0.81553391,1.40668522,2.12541398,0.20276636,0.29827876,0.43407321
47175,0,USTennesseeVanBuren,Tennessee,Van Buren,2021-01-05 09:37:59.431438,2020-10-15 00:00:00.000000,1.64414261,2.60653282,4.00449013,96,153,235,49,83,122,0.83564247,1.42696144,2.08670227,0.20420973,0.30972266,0.45192128
47175,0,USTennesseeVanBuren,Tennessee,Van Buren,2021-01-05 09:37:59.431438,2020-10-16 00:00:00.000000,1.68608851,2.69999381,4.04626288,99,158,237,50,84,120,0.86087156,1.44280178,2.05222154,0.20489824,0.32316855,0.47846706
47175,0,USTennesseeVanBuren,Tennessee,Van Buren,2021-01-05 09:37:59.431438,2020-10-17 00:00:00.000000,1.73165935,2.74935277,4.09292192,101,161,240,52,85,118,0.88993850,1.45018333,2.02417911,0.20539053,0.33539307,0.48559991
47175,0,USTennesseeVanBuren,Tennessee,Van Buren,2021-01-05 09:37:59.431438,2020-10-18 00:00:00.000000,1.78011762,2.82048021,4.15176551,104,165,243,53,87,119,0.91184331,1.49243206,2.02738266,0.22299565,0.36466487,0.51533173
47175,0,USTennesseeVanBuren,Tennessee,Van Buren,2021-01-05 09:37:59.431438,2020-10-19 00:00:00.000000,1.81013832,2.87724334,4.23128542,106,168,248,53,89,122,0.90479445,1.52541892,2.07891488,0.24356134,0.38306806,0.52707527
47175,0,USTennesseeVanBuren,Tennessee,Van Buren,2021-01-05 09:37:59.431438,2020-10-20 00:00:00.000000,1.84156450,2.93829553,4.31719987,108,172,253,52,90,126,0.89783657,1.54396854,2.15059883,0.24632022,0.39508909,0.53711576
47175,0,USTennesseeVanBuren,Tennessee,Van Buren,2021-01-05 09:37:59.431438,2020-10-21 00:00:00.000000,1.88894897,2.99896640,4.40523743,110,176,258,55,91,129,0.93759327,1.56163400,2.21224388,0.25242830,0.40933614,0.55206002
47175,0,USTennesseeVanBuren,Tennessee,Van Buren,2021-01-05 09:37:59.431438,2020-10-22 00:00:00.000000,1.92448295,3.06006947,4.49375858,113,179,263,58,93,133,0.98811210,1.59276502,2.26796415,0.25271550,0.42213043,0.57276468
47175,0,USTennesseeVanBuren,Tennessee,Van Buren,2021-01-05 09:37:59.431438,2020-10-23 00:00:00.000000,1.97751758,3.17033210,4.58310546,116,186,269,59,95,136,1.00692531,1.61946129,2.32704285,0.25605133,0.44762884,0.60477353
47175,0,USTennesseeVanBuren,Tennessee,Van Buren,2021-01-05 09:37:59.431438,2020-10-24 00:00:00.000000,2.05256474,3.25760400,4.78793269,120,191,281,60,97,141,1.02490638,1.66126399,2.40633761,0.30850341,0.46989523,0.66073133
47175,0,USTennesseeVanBuren,Tennessee,Van Buren,2021-01-05 09:37:59.431438,2020-10-25 00:00:00.000000,2.11651062,3.38817553,4.97211128,124,198,291,61,100,146,1.04446663,1.70341945,2.48895335,0.33026460,0.49166394,0.69735026
47175,0,USTennesseeVanBuren,Tennessee,Van Buren,2021-01-05 09:37:59.431438,2020-10-26 00:00:00.000000,2.25111834,3.54248737,5.19269046,132,208,304,62,102,151,1.06633364,1.73733649,2.57577917,0.35589428,0.50110286,0.71417842
47175,0,USTennesseeVanBuren,Tennessee,Van Buren,2021-01-05 09:37:59.431438,2020-10-27 00:00:00.000000,2.42022409,3.72776063,5.44713646,142,218,319,66,105,157,1.12982394,1.79996720,2.68043364,0.37213348,0.51629772,0.72066707
47175,0,USTennesseeVanBuren,Tennessee,Van Buren,2021-01-05 09:37:59.431438,2020-10-28 00:00:00.000000,2.64003929,3.92531700,5.73250133,155,230,336,71,111,165,1.21854884,1.89815706,2.81649686,0.37678777,0.52305509,0.72130815
47175,0,USTennesseeVanBuren,Tennessee,Van Buren,2021-01-05 09:37:59.431438,2020-10-29 00:00:00.000000,2.88078848,4.11688146,6.04372896,169,241,354,77,116,173,1.32505130,1.98092288,2.96037667,0.38866442,0.53218891,0.77024418
47175,0,USTennesseeVanBuren,Tennessee,Van Buren,2021-01-05 09:37:59.431438,2020-10-30 00:00:00.000000,3.04226820,4.41075330,6.37848495,178,258,374,84,122,182,1.44645370,2.08530752,3.11137512,0.40023848,0.54556535,0.77569244
47175,0,USTennesseeVanBuren,Tennessee,Van Buren,2021-01-05 09:37:59.431438,2020-10-31 00:00:00.000000,3.31356673,4.67331735,6.79428718,194,274,398,88,129,192,1.51120723,2.20953195,3.27126307,0.42584395,0.56414361,0.77526377
47175,0,USTennesseeVanBuren,Tennessee,Van Buren,2021-01-05 09:37:59.431438,2020-11-01 00:00:00.000000,3.52565590,4.95962553,7.27568159,207,291,427,95,137,202,1.62315669,2.33625601,3.44599916,0.42592511,0.58310775,0.78219913
47175,0,USTennesseeVanBuren,Tennessee,Van Buren,2021-01-05 09:37:59.431438,2020-11-02 00:00:00.000000,3.82449302,5.27938497,7.71251120,224,310,452,103,145,214,1.75514745,2.48368761,3.64763762,0.44886724,0.60206953,0.78400829
47175,0,USTennesseeVanBuren,Tennessee,Van Buren,2021-01-05 09:37:59.431438,2020-11-03 00:00:00.000000,4.08420548,5.58900548,8.11562663,239,328,476,108,154,226,1.85322041,2.63616439,3.86415292,0.46993375,0.62154829,0.78811670
47175,0,USTennesseeVanBuren,Tennessee,Van Buren,2021-01-05 09:37:59.431438,2020-11-04 00:00:00.000000,4.34047273,5.97272976,8.53182710,254,350,500,115,164,240,1.96710800,2.80818250,4.09457824,0.47522949,0.62529882,0.79563552
47175,0,USTennesseeVanBuren,Tennessee,Van Buren,2021-01-05 09:37:59.431438,2020-11-05 00:00:00.000000,4.61281903,6.39506512,8.96435008,270,375,526,122,176,252,2.09442496,3.00343048,4.29785002,0.47838674,0.62650517,0.80913362
47175,0,USTennesseeVanBuren,Tennessee,Van Buren,2021-01-05 09:37:59.431438,2020-11-06 00:00:00.000000,4.90291398,6.69167458,9.39596959,287,392,551,131,186,265,2.23297517,3.16968090,4.51754266,0.48216844,0.63500424,0.82880383
47175,0,USTennesseeVanBuren,Tennessee,Van Buren,2021-01-05 09:37:59.431438,2020-11-07 00:00:00.000000,5.13263776,7.03172114,9.87384469,301,412,579,139,197,278,2.38158100,3.35728361,4.73665378,0.48848295,0.63922485,0.80376328
47175,0,USTennesseeVanBuren,Tennessee,Van Buren,2021-01-05 09:37:59.431438,2020-11-08 00:00:00.000000,5.39971716,7.39172761,10.38989943,317,434,610,149,210,290,2.54049630,3.58846480,4.95180690,0.48420385,0.64055918,0.81059102
47175,0,USTennesseeVanBuren,Tennessee,Van Buren,2021-01-05 09:37:59.431438,2020-11-09 00:00:00.000000,5.76885047,7.78438696,10.76200187,338,457,631,158,224,311,2.69735891,3.81832181,5.30297463,0.48780837,0.64531146,0.81712456
47175,0,USTennesseeVanBuren,Tennessee,Van Buren,2021-01-05 09:37:59.431438,2020-11-10 00:00:00.000000,6.14572039,8.20682886,11.16295198,360,481,655,169,235,333,2.88211641,4.01754139,5.68108923,0.49199573,0.64206606,0.81841407
47175,0,USTennesseeVanBuren,Tennessee,Van Buren,2021-01-05 09:37:59.431438,2020-11-11 00:00:00.000000,6.52368981,8.65281107,11.62609659,383,508,682,180,248,353,3.07916963,4.22775439,6.02766455,0.48994228,0.64118169,0.81301004
47175,0,USTennesseeVanBuren,Tennessee,Van Buren,2021-01-05 09:37:59.431438,2020-11-12 00:00:00.000000,6.88422037,9.05610073,12.08891732,404,531,709,192,259,370,3.28588939,4.42456255,6.30358482,0.47889942,0.62666737,0.79355286
47175,0,USTennesseeVanBuren,Tennessee,Van Buren,2021-01-05 09:37:59.431438,2020-11-13 00:00:00.000000,7.13134998,9.42820724,12.55272052,418,553,737,203,272,386,3.46788130,4.63638670,6.57408414,0.46066968,0.61217799,0.77605478
47175,0,USTennesseeVanBuren,Tennessee,Van Buren,2021-01-05 09:37:59.431438,2020-11-14 00:00:00.000000,7.38082416,9.77869880,13.05105374,433,574,766,212,281,401,3.61696662,4.79095725,6.83648324,0.45245816,0.59677855,0.76777316
47175,0,USTennesseeVanBuren,Tennessee,Van Buren,2021-01-05 09:37:59.431438,2020-11-15 00:00:00.000000,7.62974594,10.07266262,13.42516427,448,591,788,220,291,416,3.74880724,4.96582314,7.08908288,0.44012353,0.58237036,0.73425976
47175,0,USTennesseeVanBuren,Tennessee,Van Buren,2021-01-05 09:37:59.431438,2020-11-16 00:00:00.000000,7.98052070,10.38792959,13.77956095,468,609,809,227,301,430,3.88141567,5.12884834,7.32902923,0.41115659,0.57310282,0.72969430
47175,0,USTennesseeVanBuren,Tennessee,Van Buren,2021-01-05 09:37:59.431438,2020-11-17 00:00:00.000000,8.09706173,10.70444313,14.10790302,475,628,828,237,310,443,4.04136839,5.29176215,7.55804218,0.40333812,0.56561026,0.73578256
47175,0,USTennesseeVanBuren,Tennessee,Van Buren,2021-01-05 09:37:59.431438,2020-11-18 00:00:00.000000,8.14236576,10.96577295,14.40377418,478,643,845,247,320,456,4.21748287,5.46355752,7.77330684,0.40187353,0.54484261,0.71569101
47175,0,USTennesseeVanBuren,Tennessee,Van Buren,2021-01-05 09:37:59.431438,2020-11-19 00:00:00.000000,8.13991813,11.14809034,14.62795166,477,654,858,251,329,468,4.28956365,5.60478052,7.97344485,0.40078380,0.52997922,0.68890295
47175,0,USTennesseeVanBuren,Tennessee,Van Buren,2021-01-05 09:37:59.431438,2020-11-20 00:00:00.000000,8.13204874,11.27954086,14.82445404,477,662,870,253,337,478,4.30886836,5.74236146,8.15411079,0.40862376,0.51683511,0.68491571
47175,0,USTennesseeVanBuren,Tennessee,Van Buren,2021-01-05 09:37:59.431438,2020-11-21 00:00:00.000000,8.13394869,11.38683129,14.94545627,477,668,877,253,345,487,4.31725372,5.88177799,8.30854396,0.41249061,0.50982809,0.67986689
47175,0,USTennesseeVanBuren,Tennessee,Van Buren,2021-01-05 09:37:59.431438,2020-11-22 00:00:00.000000,8.15986177,11.51424265,15.02220256,479,676,882,259,352,495,4.42121014,5.99905756,8.43224844,0.41216185,0.51018029,0.67054085
47175,0,USTennesseeVanBuren,Tennessee,Van Buren,2021-01-05 09:37:59.431438,2020-11-23 00:00:00.000000,8.21560197,11.67860340,15.26159419,482,685,896,260,357,500,4.43619961,6.09640363,8.52563809,0.41039107,0.50783315,0.67729653
47175,0,USTennesseeVanBuren,Tennessee,Van Buren,2021-01-05 09:37:59.431438,2020-11-24 00:00:00.000000,8.26659183,11.72742407,15.46948422,485,688,908,260,363,504,4.43347410,6.19553132,8.58916307,0.40042983,0.50607101,0.69983299
47175,0,USTennesseeVanBuren,Tennessee,Van Buren,2021-01-05 09:37:59.431438,2020-11-25 00:00:00.000000,8.33475106,11.76417363,15.60731163,489,690,916,259,368,506,4.42439357,6.27081115,8.62722270,0.39633614,0.51165322,0.71938843
47175,0,USTennesseeVanBuren,Tennessee,Van Buren,2021-01-05 09:37:59.431438,2020-11-26 00:00:00.000000,8.41063193,11.84245374,15.79874737,493,695,927,259,372,507,4.41239834,6.34237718,8.64340678,0.39449220,0.51621944,0.72910109
47175,0,USTennesseeVanBuren,Tennessee,Van Buren,2021-01-05 09:37:59.431438,2020-11-27 00:00:00.000000,8.48371698,11.92370098,15.94287356,498,700,936,260,376,507,4.43326512,6.40432242,8.64428297,0.39374846,0.51623123,0.73993907
47175,0,USTennesseeVanBuren,Tennessee,Van Buren,2021-01-05 09:37:59.431438,2020-11-28 00:00:00.000000,8.56105903,11.88490161,16.08017372,502,697,944,262,378,512,4.46847283,6.43763217,8.72546537,0.39420389,0.53138613,0.74222780
47175,0,USTennesseeVanBuren,Tennessee,Van Buren,2021-01-05 09:37:59.431438,2020-11-29 00:00:00.000000,8.63257610,11.94642714,16.18700757,506,701,950,264,378,516,4.50663266,6.44289134,8.79193172,0.39006032,0.53247570,0.77437599
47175,0,USTennesseeVanBuren,Tennessee,Van Buren,2021-01-05 09:37:59.431438,2020-11-30 00:00:00.000000,8.70210231,11.93703189,16.46762475,510,700,966,266,378,519,4.54483123,6.45326499,8.84318769,0.39331940,0.54152074,0.78904213
47175,0,USTennesseeVanBuren,Tennessee,Van Buren,2021-01-05 09:37:59.431438,2020-12-01 00:00:00.000000,8.76237706,11.97471891,16.72503535,514,703,982,266,380,524,4.53640346,6.47556327,8.92458387,0.40016985,0.55371445,0.80028614
47175,0,USTennesseeVanBuren,Tennessee,Van Buren,2021-01-05 09:37:59.431438,2020-12-02 00:00:00.000000,8.81992240,12.01347431,16.95611420,517,705,995,265,381,531,4.52869014,6.49613658,9.05678981,0.40030990,0.56852741,0.81163226
47175,0,USTennesseeVanBuren,Tennessee,Van Buren,2021-01-05 09:37:59.431438,2020-12-03 00:00:00.000000,8.87801694,12.01078300,17.01390102,521,705,999,266,384,539,4.53261062,6.54614827,9.18816796,0.40056273,0.58108205,0.82895485
47175,0,USTennesseeVanBuren,Tennessee,Van Buren,2021-01-05 09:37:59.431438,2020-12-04 00:00:00.000000,8.94171435,11.97110290,16.94832193,525,702,995,267,385,546,4.54869528,6.57273830,9.31444037,0.40594015,0.60949541,0.86660843
47175,0,USTennesseeVanBuren,Tennessee,Van Buren,2021-01-05 09:37:59.431438,2020-12-05 00:00:00.000000,9.01250637,11.82045044,16.88845595,529,694,991,269,384,553,4.58340422,6.54481603,9.43169520,0.42604188,0.64800757,0.89111388
47175,0,USTennesseeVanBuren,Tennessee,Van Buren,2021-01-05 09:37:59.431438,2020-12-06 00:00:00.000000,9.08448109,11.84196225,16.87306703,533,695,990,272,385,559,4.64579346,6.56604857,9.53548641,0.42614041,0.65724308,0.91897117
47175,0,USTennesseeVanBuren,Tennessee,Van Buren,2021-01-05 09:37:59.431438,2020-12-07 00:00:00.000000,9.18019717,11.89699868,16.89905011,539,698,992,278,384,564,4.73470981,6.54590832,9.62150278,0.42643687,0.67646621,0.93467880
47175,0,USTennesseeVanBuren,Tennessee,Van Buren,2021-01-05 09:37:59.431438,2020-12-08 00:00:00.000000,9.48344554,12.02810436,16.91759268,556,706,993,282,386,568,4.81866159,6.58874540,9.68384343,0.44027341,0.69125759,0.94198309
47175,0,USTennesseeVanBuren,Tennessee,Van Buren,2021-01-05 09:37:59.431438,2020-12-09 00:00:00.000000,9.63675302,12.14651784,16.89891422,565,713,992,285,388,570,4.86387148,6.60830477,9.72334336,0.44667565,0.70030143,0.94493662
47175,0,USTennesseeVanBuren,Tennessee,Van Buren,2021-01-05 09:37:59.431438,2020-12-10 00:00:00.000000,9.68535959,12.18719417,16.82681416,568,715,988,293,388,572,4.99860132,6.60776700,9.74182426,0.44835493,0.69879938,0.94691116
47175,0,USTennesseeVanBuren,Tennessee,Van Buren,2021-01-05 09:37:59.431438,2020-12-11 00:00:00.000000,9.50612026,12.16602233,16.67956911,558,714,979,294,386,572,5.01028405,6.57970711,9.74142237,0.44562316,0.72046396,0.94884794
47175,0,USTennesseeVanBuren,Tennessee,Van Buren,2021-01-05 09:37:59.431438,2020-12-12 00:00:00.000000,9.32083707,12.16983342,16.43076538,547,714,964,292,388,571,4.98833823,6.62100686,9.72452587,0.44188726,0.72252448,0.92147219
47175,0,USTennesseeVanBuren,Tennessee,Van Buren,2021-01-05 09:37:59.431438,2020-12-13 00:00:00.000000,9.15225107,12.34919326,16.09443714,537,725,945,291,390,569,4.96195842,6.64439929,9.69389516,0.44003524,0.73421894,0.96478449
47175,0,USTennesseeVanBuren,Tennessee,Van Buren,2021-01-05 09:37:59.431438,2020-12-14 00:00:00.000000,9.09879956,12.12369780,15.79877695,534,711,927,289,389,566,4.93080683,6.62948593,9.65266131,0.43356561,0.73739857,0.99150198
47175,0,USTennesseeVanBuren,Tennessee,Van Buren,2021-01-05 09:37:59.431438,2020-12-15 00:00:00.000000,9.05284541,12.07316769,15.68648935,531,708,921,287,387,564,4.89791542,6.59239916,9.61145452,0.41573469,0.73944270,1.01792796
47175,0,USTennesseeVanBuren,Tennessee,Van Buren,2021-01-05 09:37:59.431438,2020-12-16 00:00:00.000000,9.00538050,11.99203301,15.55852194,528,704,913,285,386,561,4.86120268,6.58058528,9.57063745,0.40809713,0.73636126,1.05139259
47175,0,USTennesseeVanBuren,Tennessee,Van Buren,2021-01-05 09:37:59.431438,2020-12-17 00:00:00.000000,8.94970932,11.76357029,15.41815111,525,690,905,280,383,559,4.77399331,6.52651094,9.52932574,0.40663773,0.73201138,1.10207506
47175,0,USTennesseeVanBuren,Tennessee,Van Buren,2021-01-05 09:37:59.431438,2020-12-18 00:00:00.000000,8.88464322,11.62282077,15.26838212,521,682,896,273,379,556,4.66178388,6.46853405,9.48453583,0.41088206,0.73282846,1.11428568
47175,0,USTennesseeVanBuren,Tennessee,Van Buren,2021-01-05 09:37:59.431438,2020-12-19 00:00:00.000000,8.71518360,11.44240695,15.10952448,511,671,887,271,376,553,4.62637498,6.41405357,9.42965539,0.42913065,0.73590956,1.12453656
47175,0,USTennesseeVanBuren,Tennessee,Van Buren,2021-01-05 09:37:59.431438,2020-12-20 00:00:00.000000,8.56132946,11.16309089,14.93960840,502,655,877,270,371,549,4.60063580,6.32533489,9.35367413,0.44068548,0.74155256,1.13440251
47175,0,USTennesseeVanBuren,Tennessee,Van Buren,2021-01-05 09:37:59.431438,2020-12-21 00:00:00.000000,8.46132928,10.95183899,14.76143566,496,643,866,267,365,543,4.56068681,6.21745655,9.24818507,0.41521028,0.75528784,1.13951652
47175,0,USTennesseeVanBuren,Tennessee,Van Buren,2021-01-05 09:37:59.431438,2020-12-22 00:00:00.000000,8.41712089,10.80134536,14.56915824,494,634,855,263,360,537,4.47982932,6.13904269,9.15085016,0.41593458,0.76604221,1.18827432
47175,0,USTennesseeVanBuren,Tennessee,Van Buren,2021-01-05 09:37:59.431438,2020-12-23 00:00:00.000000,8.33694661,10.63882895,14.36224074,489,624,843,257,355,531,4.38119659,6.05088510,9.05355349,0.41541773,0.77227685,1.19460517
47175,0,USTennesseeVanBuren,Tennessee,Van Buren,2021-01-05 09:37:59.431438,2020-12-24 00:00:00.000000,8.08128043,10.39745891,14.14044209,474,610,830,251,349,521,4.27816223,5.95312821,8.88899084,0.41730354,0.78717129,1.22333414
47175,0,USTennesseeVanBuren,Tennessee,Van Buren,2021-01-05 09:37:59.431438,2020-12-25 00:00:00.000000,7.80973271,10.18208655,13.78391909,458,597,809,244,341,506,4.17002462,5.81788753,8.62081971,0.42217183,0.80260874,1.22459186
47175,0,USTennesseeVanBuren,Tennessee,Van Buren,2021-01-05 09:37:59.431438,2020-12-26 00:00:00.000000,7.49615984,9.99923276,13.29545139,440,587,780,237,338,489,4.04502452,5.76452911,8.33805605,0.43671199,0.81895241,1.22676223
47175,0,USTennesseeVanBuren,Tennessee,Van Buren,2021-01-05 09:37:59.431438,2020-12-27 00:00:00.000000,7.17074305,9.71932592,12.80285504,421,570,751,230,330,475,3.91881384,5.63104660,8.10196982,0.42619422,0.84726549,1.22140567
47175,0,USTennesseeVanBuren,Tennessee,Van Buren,2021-01-05 09:37:59.431438,2020-12-28 00:00:00.000000,6.80842561,9.44131189,12.48593874,399,554,733,222,321,461,3.79584439,5.48293314,7.85565101,0.42826941,0.86006430,1.23263693
47175,0,USTennesseeVanBuren,Tennessee,Van Buren,2021-01-05 09:37:59.431438,2020-12-29 00:00:00.000000,6.49891127,9.14683106,12.33356752,381,537,724,215,311,445,3.67410881,5.30138760,7.59426738,0.42961478,0.85895037,1.25497388
47175,0,USTennesseeVanBuren,Tennessee,Van Buren,2021-01-05 09:37:59.431438,2020-12-30 00:00:00.000000,6.28937973,8.81011541,12.15910485,369,517,713,208,304,430,3.55682617,5.19083226,7.32299525,0.43763987,0.86428767,1.29865201
47175,0,USTennesseeVanBuren,Tennessee,Van Buren,2021-01-05 09:37:59.431438,2020-12-31 00:00:00.000000,6.01815466,8.51058580,11.93214366,353,499,700,202,293,413,3.44348822,5.00539080,7.04609125,0.43699992,0.86502362,1.39160577
47175,0,USTennesseeVanBuren,Tennessee,Van Buren,2021-01-05 09:37:59.431438,2021-01-01 00:00:00.000000,5.76698545,8.15824730,11.51702847,338,479,676,195,280,402,3.33178795,4.78021509,6.85072347,0.42568743,0.85838823,1.39738006
47175,0,USTennesseeVanBuren,Tennessee,Van Buren,2021-01-05 09:37:59.431438,2021-01-02 00:00:00.000000,5.52092192,7.78813598,11.10547773,324,457,652,189,267,391,3.21943006,4.55418140,6.66003866,0.41942536,0.85478265,1.40435861
47175,0,USTennesseeVanBuren,Tennessee,Van Buren,2021-01-05 09:37:59.431438,2021-01-03 00:00:00.000000,5.22539949,7.41676397,10.69569387,306,435,628,181,257,379,3.09656132,4.37784478,6.45744520,0.40945787,0.84543158,1.45062719
47175,0,USTennesseeVanBuren,Tennessee,Van Buren,2021-01-05 09:37:59.431438,2021-01-04 00:00:00.000000,4.93798542,7.16783648,10.28992052,289,420,604,172,247,366,2.93231528,4.20805226,6.24542073,0.40460715,0.84913895,1.61591929
47175,0,USTennesseeVanBuren,Tennessee,Van Buren,2021-01-05 09:37:59.431438,2021-01-05 00:00:00.000000,4.65823484,6.89404025,9.91909527,273,404,582,163,238,353,2.78891497,4.05582049,6.02693159,0.40382302,0.84966478,1.65279779
47175,0,USTennesseeVanBuren,Tennessee,Van Buren,2021-01-05 09:37:59.431438,2021-01-06 00:00:00.000000,4.37795552,6.62947278,9.77058334,257,389,573,154,229,343,2.63525336,3.90968670,5.84842218,0.40343704,0.84883910,1.66527188
47175,0,USTennesseeVanBuren,Tennessee,Van Buren,2021-01-05 09:37:59.431438,2021-01-07 00:00:00.000000,4.10539640,6.31377630,9.60300173,241,370,563,145,220,334,2.48335971,3.76069874,5.69090693,0.40325273,0.84829110,1.66859661
47175,0,USTennesseeVanBuren,Tennessee,Van Buren,2021-01-05 09:37:59.431438,2021-01-08 00:00:00.000000,3.84397043,6.00609336,9.41775455,225,352,553,137,209,324,2.33434338,3.56595306,5.52544237,0.40316835,0.84723365,1.66959381
47175,0,USTennesseeVanBuren,Tennessee,Van Buren,2021-01-05 09:37:59.431438,2021-01-09 00:00:00.000000,3.59495254,5.69943625,9.12639255,211,334,535,128,199,315,2.18970813,3.39858175,5.37364432,0.40313076,0.84683948,1.66989145
47175,0,USTennesseeVanBuren,Tennessee,Van Buren,2021-01-05 09:37:59.431438,2021-01-10 00:00:00.000000,3.35820806,5.44547482,8.80386481,197,319,516,120,189,309,2.05054325,3.23445740,5.27513175,0.40311422,0.84673123,1.66998023
47175,0,USTennesseeVanBuren,Tennessee,Van Buren,2021-01-05 09:37:59.431438,2021-01-11 00:00:00.000000,3.14773603,5.15638204,8.48595294,184,302,498,112,181,303,1.91750349,3.09227833,5.16753420,0.40310696,0.84663213,1.67000674
47175,0,USTennesseeVanBuren,Tennessee,Van Buren,2021-01-05 09:37:59.431438,2021-01-12 00:00:00.000000,2.94665260,4.89370523,8.17434612,173,287,479,105,174,296,1.79092757,2.96327766,5.05166671,0.40310377,0.84658290,1.67001469
47175,0,USTennesseeVanBuren,Tennessee,Van Buren,2021-01-05 09:37:59.431438,2021-01-13 00:00:00.000000,2.74018631,4.63313059,7.84302232,160,272,460,98,164,289,1.67094257,2.80859840,4.92840086,0.40310237,0.84655639,1.67001709
47175,0,USTennesseeVanBuren,Tennessee,Van Buren,2021-01-05 09:37:59.431438,2021-01-14 00:00:00.000000,2.54065977,4.39301329,7.49162330,149,257,439,91,156,281,1.55753616,2.67336870,4.79864257,0.40310174,0.84654153,1.67001782
47175,0,USTennesseeVanBuren,Tennessee,Van Buren,2021-01-05 09:37:59.431438,2021-01-15 00:00:00.000000,2.35489740,4.14769332,7.14505815,138,243,419,85,148,273,1.45060393,2.52577217,4.66331340,0.40310147,0.84653306,1.67001806
47175,0,USTennesseeVanBuren,Tennessee,Van Buren,2021-01-05 09:37:59.431438,2021-01-16 00:00:00.000000,2.18655517,3.88015600,6.80809801,128,227,399,79,139,262,1.34998031,2.37625608,4.47087856,0.40310135,0.84652819,1.67001813
47175,0,USTennesseeVanBuren,Tennessee,Van Buren,2021-01-05 09:37:59.431438,2021-01-17 00:00:00.000000,2.03059001,3.66580463,6.64048628,119,215,389,73,131,250,1.25545915,2.23855766,4.26857770,0.40310129,0.84652538,1.67001816
