FIPS,HR_UID,nameid,province,region,analysisTime,dates,pointprevalence_025,pointprevalence_50,pointprevalence_975,pointinfections_025,pointinfections_50,pointinfections_975,pointinfectious_025,pointinfectious_50,pointinfectious_975,pointinfectiousprevalence_05,pointinfectiousprevalence_50,pointinfectiousprevalence_95,infectrate_025,infectrate_50,infectrate_975
36033,0,USNewYorkFranklin,New York,Franklin,2021-01-05 15:03:13.754564,2020-03-09 00:00:00.000000,0.00279120,0.01508292,0.04374848,1,7,21,0,3,10,0.00144280,0.00797085,0.02151592,0.39237402,0.53489065,0.68843906
36033,0,USNewYorkFranklin,New York,Franklin,2021-01-05 15:03:13.754564,2020-03-10 00:00:00.000000,0.00311236,0.01656268,0.04631044,1,8,23,0,3,10,0.00155146,0.00797825,0.02096212,0.39237219,0.53489010,0.68840133
36033,0,USNewYorkFranklin,New York,Franklin,2021-01-05 15:03:13.754564,2020-03-11 00:00:00.000000,0.00344291,0.01782119,0.04886766,1,8,24,0,4,10,0.00162383,0.00877849,0.02193476,0.39236789,0.53488881,0.68834121
36033,0,USNewYorkFranklin,New York,Franklin,2021-01-05 15:03:13.754564,2020-03-12 00:00:00.000000,0.00377495,0.01976818,0.05145225,1,9,25,0,4,11,0.00166578,0.00936485,0.02328447,0.39235782,0.53488467,0.68607218
36033,0,USNewYorkFranklin,New York,Franklin,2021-01-05 15:03:13.754564,2020-03-13 00:00:00.000000,0.00418067,0.02200295,0.05408472,2,11,27,0,4,12,0.00174881,0.00993223,0.02523940,0.39233421,0.53486800,0.68056560
36033,0,USNewYorkFranklin,New York,Franklin,2021-01-05 15:03:13.754564,2020-03-14 00:00:00.000000,0.00455264,0.02369173,0.05779147,2,11,28,0,5,13,0.00188251,0.01058875,0.02735944,0.39133874,0.53479180,0.67238337
36033,0,USNewYorkFranklin,New York,Franklin,2021-01-05 15:03:13.754564,2020-03-15 00:00:00.000000,0.00494395,0.02519702,0.06183372,2,12,30,1,5,14,0.00206857,0.01135454,0.02956945,0.38404399,0.53407458,0.67160644
36033,0,USNewYorkFranklin,New York,Franklin,2021-01-05 15:03:13.754564,2020-03-16 00:00:00.000000,0.00818623,0.02949683,0.07018551,4,14,35,1,6,15,0.00226774,0.01223098,0.03188018,0.37262383,0.52907469,0.67137503
36033,0,USNewYorkFranklin,New York,Franklin,2021-01-05 15:03:13.754564,2020-03-17 00:00:00.000000,0.01079779,0.03680045,0.07874953,5,18,39,1,6,17,0.00303429,0.01393834,0.03533114,0.36933948,0.51634758,0.66953078
36033,0,USNewYorkFranklin,New York,Franklin,2021-01-05 15:03:13.754564,2020-03-18 00:00:00.000000,0.01354022,0.04219245,0.08775023,6,21,43,2,8,19,0.00417662,0.01625538,0.03953094,0.36890458,0.50302967,0.66891367
36033,0,USNewYorkFranklin,New York,Franklin,2021-01-05 15:03:13.754564,2020-03-19 00:00:00.000000,0.01594424,0.04873629,0.09702070,7,24,48,2,9,22,0.00511034,0.01852219,0.04427240,0.35289275,0.49241156,0.66533433
36033,0,USNewYorkFranklin,New York,Franklin,2021-01-05 15:03:13.754564,2020-03-20 00:00:00.000000,0.01845113,0.05441137,0.10647802,9,27,53,3,10,24,0.00655450,0.02151945,0.04905163,0.31993656,0.48083302,0.63972829
36033,0,USNewYorkFranklin,New York,Franklin,2021-01-05 15:03:13.754564,2020-03-21 00:00:00.000000,0.02104089,0.06037121,0.11517050,10,30,57,3,12,26,0.00770072,0.02558496,0.05353051,0.29345251,0.46093304,0.60537718
36033,0,USNewYorkFranklin,New York,Franklin,2021-01-05 15:03:13.754564,2020-03-22 00:00:00.000000,0.02368044,0.06717323,0.12394904,11,33,62,4,14,29,0.00891009,0.02950778,0.05826135,0.27656960,0.41640842,0.60185655
36033,0,USNewYorkFranklin,New York,Franklin,2021-01-05 15:03:13.754564,2020-03-23 00:00:00.000000,0.02658351,0.07283634,0.13642788,13,36,68,5,16,31,0.01016563,0.03334991,0.06354744,0.26752581,0.38410553,0.59152831
36033,0,USNewYorkFranklin,New York,Franklin,2021-01-05 15:03:13.754564,2020-03-24 00:00:00.000000,0.02951447,0.07885431,0.14773775,14,39,73,5,18,34,0.01150206,0.03613476,0.06947678,0.26295756,0.36587956,0.56132931
36033,0,USNewYorkFranklin,New York,Franklin,2021-01-05 15:03:13.754564,2020-03-25 00:00:00.000000,0.03250063,0.08435745,0.15642355,16,42,78,6,19,37,0.01289236,0.03940756,0.07429710,0.24881119,0.35342641,0.55850214
36033,0,USNewYorkFranklin,New York,Franklin,2021-01-05 15:03:13.754564,2020-03-26 00:00:00.000000,0.03555433,0.09082661,0.16182531,17,45,80,7,21,39,0.01421753,0.04288169,0.07977752,0.22186255,0.34249256,0.55635327
36033,0,USNewYorkFranklin,New York,Franklin,2021-01-05 15:03:13.754564,2020-03-27 00:00:00.000000,0.03722988,0.09580380,0.17803653,18,47,89,7,23,43,0.01479107,0.04716981,0.08693218,0.20124104,0.32111800,0.55062697
36033,0,USNewYorkFranklin,New York,Franklin,2021-01-05 15:03:13.754564,2020-03-28 00:00:00.000000,0.03800509,0.10017741,0.18559883,19,50,92,7,24,46,0.01529026,0.04889142,0.09256388,0.18698356,0.30301629,0.52914784
36033,0,USNewYorkFranklin,New York,Franklin,2021-01-05 15:03:13.754564,2020-03-29 00:00:00.000000,0.04200478,0.10525864,0.19130661,21,52,95,8,25,48,0.01629381,0.05100919,0.09746486,0.17930935,0.28767011,0.49029890
36033,0,USNewYorkFranklin,New York,Franklin,2021-01-05 15:03:13.754564,2020-03-30 00:00:00.000000,0.04556067,0.10658441,0.19357487,22,53,96,8,26,50,0.01756417,0.05368324,0.10148430,0.17541921,0.27584318,0.48460967
36033,0,USNewYorkFranklin,New York,Franklin,2021-01-05 15:03:13.754564,2020-03-31 00:00:00.000000,0.04813198,0.10684193,0.19510516,24,53,97,9,27,52,0.01941102,0.05547349,0.10424553,0.17227613,0.26326056,0.45254158
36033,0,USNewYorkFranklin,New York,Franklin,2021-01-05 15:03:13.754564,2020-04-01 00:00:00.000000,0.05112616,0.11144384,0.19612114,25,55,98,10,28,53,0.02162015,0.05683959,0.10612080,0.16112192,0.25712983,0.43111843
36033,0,USNewYorkFranklin,New York,Franklin,2021-01-05 15:03:13.754564,2020-04-02 00:00:00.000000,0.05432197,0.11305162,0.19682139,27,56,98,11,29,53,0.02330934,0.05824255,0.10740246,0.16314602,0.24983318,0.41796119
36033,0,USNewYorkFranklin,New York,Franklin,2021-01-05 15:03:13.754564,2020-04-03 00:00:00.000000,0.05762495,0.11438341,0.19730116,28,57,98,11,30,54,0.02374390,0.06022503,0.10828957,0.15409516,0.24126085,0.40648905
36033,0,USNewYorkFranklin,New York,Franklin,2021-01-05 15:03:13.754564,2020-04-04 00:00:00.000000,0.06103893,0.11548690,0.20005043,30,57,100,11,31,54,0.02398860,0.06243942,0.10884555,0.13869737,0.23269497,0.39948797
36033,0,USNewYorkFranklin,New York,Franklin,2021-01-05 15:03:13.754564,2020-04-05 00:00:00.000000,0.06197961,0.11667069,0.20490116,31,58,102,12,31,54,0.02482447,0.06306166,0.10919573,0.12901588,0.22532064,0.39145610
36033,0,USNewYorkFranklin,New York,Franklin,2021-01-05 15:03:13.754564,2020-04-06 00:00:00.000000,0.06770116,0.11850758,0.20723161,33,59,103,13,32,56,0.02634103,0.06472663,0.11238851,0.12557233,0.22054260,0.38048975
36033,0,USNewYorkFranklin,New York,Franklin,2021-01-05 15:03:13.754564,2020-04-07 00:00:00.000000,0.07277736,0.11980089,0.20895294,36,59,104,14,33,57,0.02808430,0.06606679,0.11534275,0.12754761,0.21427584,0.36569125
36033,0,USNewYorkFranklin,New York,Franklin,2021-01-05 15:03:13.754564,2020-04-08 00:00:00.000000,0.07635386,0.12149883,0.20974667,38,60,104,14,33,58,0.02994309,0.06602359,0.11765401,0.13008520,0.20691897,0.35001469
36033,0,USNewYorkFranklin,New York,Franklin,2021-01-05 15:03:13.754564,2020-04-09 00:00:00.000000,0.07979510,0.12260813,0.21011097,39,61,105,15,32,59,0.03166251,0.06592466,0.11952212,0.13058652,0.20244297,0.33386204
36033,0,USNewYorkFranklin,New York,Franklin,2021-01-05 15:03:13.754564,2020-04-10 00:00:00.000000,0.08117945,0.12285455,0.20996724,40,61,105,16,33,59,0.03313925,0.06624314,0.11893670,0.12979867,0.18648161,0.31402824
36033,0,USNewYorkFranklin,New York,Franklin,2021-01-05 15:03:13.754564,2020-04-11 00:00:00.000000,0.08085416,0.12080140,0.20881915,40,60,104,17,33,58,0.03436821,0.06716519,0.11792816,0.12904482,0.18247843,0.30173863
36033,0,USNewYorkFranklin,New York,Franklin,2021-01-05 15:03:13.754564,2020-04-12 00:00:00.000000,0.08039767,0.12127053,0.20649995,40,60,103,17,33,59,0.03537886,0.06659279,0.11808515,0.12429632,0.17707984,0.29626936
36033,0,USNewYorkFranklin,New York,Franklin,2021-01-05 15:03:13.754564,2020-04-13 00:00:00.000000,0.07850460,0.12139044,0.20393687,39,60,102,18,33,58,0.03622602,0.06665803,0.11764456,0.11271357,0.17304518,0.28592287
36033,0,USNewYorkFranklin,New York,Franklin,2021-01-05 15:03:13.754564,2020-04-14 00:00:00.000000,0.07647546,0.12078348,0.20117482,38,60,100,18,33,58,0.03681235,0.06654653,0.11678819,0.10268615,0.17109448,0.27188212
36033,0,USNewYorkFranklin,New York,Franklin,2021-01-05 15:03:13.754564,2020-04-15 00:00:00.000000,0.07537624,0.12063343,0.19831312,37,60,99,18,33,57,0.03721740,0.06607217,0.11564141,0.09824699,0.16841514,0.26596763
36033,0,USNewYorkFranklin,New York,Franklin,2021-01-05 15:03:13.754564,2020-04-16 00:00:00.000000,0.07435886,0.12024218,0.19533927,37,60,97,18,32,57,0.03728663,0.06589380,0.11430041,0.09656621,0.16629203,0.26573297
36033,0,USNewYorkFranklin,New York,Franklin,2021-01-05 15:03:13.754564,2020-04-17 00:00:00.000000,0.07335814,0.12019376,0.19485370,36,60,97,18,33,57,0.03608477,0.06609874,0.11469049,0.09596777,0.16645009,0.26497340
36033,0,USNewYorkFranklin,New York,Franklin,2021-01-05 15:03:13.754564,2020-04-18 00:00:00.000000,0.07207792,0.11974429,0.19940497,36,59,99,17,33,59,0.03494425,0.06625004,0.11947176,0.09573898,0.15962840,0.26191820
36033,0,USNewYorkFranklin,New York,Franklin,2021-01-05 15:03:13.754564,2020-04-19 00:00:00.000000,0.07051343,0.11775317,0.19674951,35,58,98,17,33,59,0.03443395,0.06611653,0.11829576,0.09451755,0.15726771,0.25359889
36033,0,USNewYorkFranklin,New York,Franklin,2021-01-05 15:03:13.754564,2020-04-20 00:00:00.000000,0.06862010,0.11583851,0.19712348,34,57,98,17,32,58,0.03411634,0.06570736,0.11756968,0.09294404,0.15118793,0.25179129
36033,0,USNewYorkFranklin,New York,Franklin,2021-01-05 15:03:13.754564,2020-04-21 00:00:00.000000,0.06569050,0.11567647,0.19761729,32,57,98,17,32,58,0.03401852,0.06563024,0.11781700,0.09300108,0.14787751,0.25511646
36033,0,USNewYorkFranklin,New York,Franklin,2021-01-05 15:03:13.754564,2020-04-22 00:00:00.000000,0.06286928,0.11366194,0.19602321,31,56,98,17,32,58,0.03406480,0.06433044,0.11782822,0.09089967,0.14500754,0.25403317
36033,0,USNewYorkFranklin,New York,Franklin,2021-01-05 15:03:13.754564,2020-04-23 00:00:00.000000,0.06017012,0.11187370,0.19090407,30,55,95,17,32,58,0.03420604,0.06401966,0.11764894,0.08937407,0.14052258,0.25115564
36033,0,USNewYorkFranklin,New York,Franklin,2021-01-05 15:03:13.754564,2020-04-24 00:00:00.000000,0.05758726,0.11082771,0.18649298,28,55,93,17,31,58,0.03420473,0.06262662,0.11732590,0.08382747,0.13974886,0.24908967
36033,0,USNewYorkFranklin,New York,Franklin,2021-01-05 15:03:13.754564,2020-04-25 00:00:00.000000,0.05510590,0.10800200,0.18531865,27,54,92,16,30,58,0.03339402,0.06165421,0.11689457,0.08362797,0.13739107,0.24853031
36033,0,USNewYorkFranklin,New York,Franklin,2021-01-05 15:03:13.754564,2020-04-26 00:00:00.000000,0.05272149,0.10563472,0.18407111,26,52,92,16,29,58,0.03261398,0.05985221,0.11637899,0.08254214,0.13729013,0.24630367
36033,0,USNewYorkFranklin,New York,Franklin,2021-01-05 15:03:13.754564,2020-04-27 00:00:00.000000,0.05063357,0.10843932,0.18152317,25,54,90,15,29,57,0.03186054,0.05966964,0.11469923,0.07947843,0.13774813,0.25070858
36033,0,USNewYorkFranklin,New York,Franklin,2021-01-05 15:03:13.754564,2020-04-28 00:00:00.000000,0.04888963,0.10797377,0.17884613,24,54,89,15,30,56,0.03113364,0.06019954,0.11322795,0.07583236,0.13435767,0.24817431
36033,0,USNewYorkFranklin,New York,Franklin,2021-01-05 15:03:13.754564,2020-04-29 00:00:00.000000,0.04730956,0.10665232,0.17601251,23,53,88,15,30,55,0.03040391,0.06033665,0.11104662,0.07446895,0.13272204,0.24886683
36033,0,USNewYorkFranklin,New York,Franklin,2021-01-05 15:03:13.754564,2020-04-30 00:00:00.000000,0.04589985,0.10619678,0.17025901,22,53,85,14,30,54,0.02914050,0.06040440,0.10814649,0.07401161,0.13152921,0.24712627
36033,0,USNewYorkFranklin,New York,Franklin,2021-01-05 15:03:13.754564,2020-05-01 00:00:00.000000,0.04486564,0.10584141,0.16709679,22,52,83,13,29,52,0.02777602,0.05940835,0.10474568,0.07221601,0.13147633,0.24409419
36033,0,USNewYorkFranklin,New York,Franklin,2021-01-05 15:03:13.754564,2020-05-02 00:00:00.000000,0.04421425,0.10518791,0.16620162,22,52,83,13,29,50,0.02651651,0.05817663,0.10104096,0.07132233,0.12990711,0.24031904
36033,0,USNewYorkFranklin,New York,Franklin,2021-01-05 15:03:13.754564,2020-05-03 00:00:00.000000,0.04360158,0.10400029,0.16155768,21,52,80,12,28,49,0.02535685,0.05752134,0.09825238,0.07166462,0.12990291,0.23649830
36033,0,USNewYorkFranklin,New York,Franklin,2021-01-05 15:03:13.754564,2020-05-04 00:00:00.000000,0.04347797,0.10132609,0.16064274,21,50,80,12,28,49,0.02429097,0.05711376,0.09801465,0.07200801,0.12841657,0.23319332
36033,0,USNewYorkFranklin,New York,Franklin,2021-01-05 15:03:13.754564,2020-05-05 00:00:00.000000,0.04423581,0.09990291,0.16053366,22,49,80,11,28,48,0.02359453,0.05640518,0.09724946,0.07230058,0.12519044,0.23036425
36033,0,USNewYorkFranklin,New York,Franklin,2021-01-05 15:03:13.754564,2020-05-06 00:00:00.000000,0.04493379,0.09905768,0.15919083,22,49,79,11,27,48,0.02314802,0.05507572,0.09621703,0.07252928,0.12490448,0.22723702
36033,0,USNewYorkFranklin,New York,Franklin,2021-01-05 15:03:13.754564,2020-05-07 00:00:00.000000,0.04454317,0.10068923,0.15828844,22,50,79,11,27,47,0.02287166,0.05460799,0.09521404,0.07277170,0.12443954,0.22212709
36033,0,USNewYorkFranklin,New York,Franklin,2021-01-05 15:03:13.754564,2020-05-08 00:00:00.000000,0.04363414,0.09973249,0.15875760,21,49,79,11,26,47,0.02271463,0.05394039,0.09506425,0.07353981,0.12211632,0.21913193
36033,0,USNewYorkFranklin,New York,Franklin,2021-01-05 15:03:13.754564,2020-05-09 00:00:00.000000,0.04344435,0.09779877,0.16025202,21,48,80,11,27,47,0.02264463,0.05424535,0.09441977,0.07664372,0.12071481,0.22157518
36033,0,USNewYorkFranklin,New York,Franklin,2021-01-05 15:03:13.754564,2020-05-10 00:00:00.000000,0.04353750,0.09821937,0.16118715,21,49,80,11,27,48,0.02263746,0.05419428,0.09611471,0.07711091,0.11973338,0.21340969
36033,0,USNewYorkFranklin,New York,Franklin,2021-01-05 15:03:13.754564,2020-05-11 00:00:00.000000,0.04219762,0.09872279,0.15963857,21,49,79,11,27,48,0.02267307,0.05400903,0.09673317,0.07648419,0.11805268,0.20774419
36033,0,USNewYorkFranklin,New York,Franklin,2021-01-05 15:03:13.754564,2020-05-12 00:00:00.000000,0.04060044,0.09870711,0.15814083,20,49,79,11,26,48,0.02265004,0.05340309,0.09681683,0.07605164,0.11696183,0.21483168
36033,0,USNewYorkFranklin,New York,Franklin,2021-01-05 15:03:13.754564,2020-05-13 00:00:00.000000,0.03917395,0.09834417,0.15649329,19,49,78,11,26,48,0.02263388,0.05350125,0.09620270,0.07543100,0.11581866,0.22014188
36033,0,USNewYorkFranklin,New York,Franklin,2021-01-05 15:03:13.754564,2020-05-14 00:00:00.000000,0.03792610,0.09720008,0.15825907,18,48,79,11,26,47,0.02247492,0.05209155,0.09542601,0.07444104,0.11552279,0.22373632
36033,0,USNewYorkFranklin,New York,Franklin,2021-01-05 15:03:13.754564,2020-05-15 00:00:00.000000,0.03688572,0.09545853,0.15827842,18,47,79,11,25,48,0.02209785,0.05069850,0.09601998,0.07334155,0.11472984,0.21266588
36033,0,USNewYorkFranklin,New York,Franklin,2021-01-05 15:03:13.754564,2020-05-16 00:00:00.000000,0.03706316,0.09530163,0.15781012,18,47,78,10,24,47,0.02140673,0.04992564,0.09445670,0.07348739,0.11459627,0.20209823
36033,0,USNewYorkFranklin,New York,Franklin,2021-01-05 15:03:13.754564,2020-05-17 00:00:00.000000,0.03746161,0.09290406,0.15920676,18,46,79,10,25,46,0.02076247,0.05007633,0.09274398,0.07418575,0.11385388,0.19375561
36033,0,USNewYorkFranklin,New York,Franklin,2021-01-05 15:03:13.754564,2020-05-18 00:00:00.000000,0.03851207,0.09206454,0.16058704,19,46,80,10,25,46,0.02016792,0.05069246,0.09247410,0.07286840,0.11359798,0.18974894
36033,0,USNewYorkFranklin,New York,Franklin,2021-01-05 15:03:13.754564,2020-05-19 00:00:00.000000,0.04178920,0.09086351,0.16193492,20,45,81,10,25,46,0.02027749,0.05050214,0.09326569,0.07239549,0.11231558,0.19149427
36033,0,USNewYorkFranklin,New York,Franklin,2021-01-05 15:03:13.754564,2020-05-20 00:00:00.000000,0.04105087,0.08943846,0.16318304,20,44,81,10,25,47,0.02122406,0.05041937,0.09405522,0.07190156,0.11229399,0.19256883
36033,0,USNewYorkFranklin,New York,Franklin,2021-01-05 15:03:13.754564,2020-05-21 00:00:00.000000,0.04029243,0.08817444,0.16410640,20,44,82,10,24,47,0.02150290,0.04888365,0.09482302,0.07133363,0.11188348,0.19182800
36033,0,USNewYorkFranklin,New York,Franklin,2021-01-05 15:03:13.754564,2020-05-22 00:00:00.000000,0.04110586,0.08667422,0.16470680,20,43,82,11,23,47,0.02229652,0.04762659,0.09551911,0.07062043,0.11154742,0.18569475
36033,0,USNewYorkFranklin,New York,Franklin,2021-01-05 15:03:13.754564,2020-05-23 00:00:00.000000,0.04131264,0.08462819,0.16126218,20,42,80,11,23,48,0.02309953,0.04693813,0.09606418,0.06991066,0.11222125,0.18454009
36033,0,USNewYorkFranklin,New York,Franklin,2021-01-05 15:03:13.754564,2020-05-24 00:00:00.000000,0.03961018,0.08289192,0.15879220,19,41,79,11,23,48,0.02321726,0.04633387,0.09645632,0.06870800,0.10922727,0.18634784
36033,0,USNewYorkFranklin,New York,Franklin,2021-01-05 15:03:13.754564,2020-05-25 00:00:00.000000,0.04046794,0.08189295,0.15601450,20,40,78,10,22,48,0.02157510,0.04522895,0.09669019,0.06480528,0.10572483,0.18943432
36033,0,USNewYorkFranklin,New York,Franklin,2021-01-05 15:03:13.754564,2020-05-26 00:00:00.000000,0.04203392,0.08075515,0.15293327,21,40,76,10,22,47,0.02033081,0.04507153,0.09586878,0.06323747,0.10605187,0.19435531
36033,0,USNewYorkFranklin,New York,Franklin,2021-01-05 15:03:13.754564,2020-05-27 00:00:00.000000,0.04279322,0.08196622,0.14963859,21,41,74,11,22,47,0.02300488,0.04502652,0.09433936,0.06325107,0.10708433,0.19465775
36033,0,USNewYorkFranklin,New York,Franklin,2021-01-05 15:03:13.754564,2020-05-28 00:00:00.000000,0.04236685,0.08192230,0.14638482,21,40,73,12,22,46,0.02430669,0.04545033,0.09235264,0.06329910,0.10795540,0.19462040
36033,0,USNewYorkFranklin,New York,Franklin,2021-01-05 15:03:13.754564,2020-05-29 00:00:00.000000,0.04109194,0.08333065,0.14218722,20,41,71,11,22,45,0.02306740,0.04592206,0.09008376,0.06343009,0.10803631,0.19133804
36033,0,USNewYorkFranklin,New York,Franklin,2021-01-05 15:03:13.754564,2020-05-30 00:00:00.000000,0.03998160,0.08162721,0.14050845,19,40,70,11,22,43,0.02309989,0.04545939,0.08764570,0.06377109,0.10697501,0.17999624
36033,0,USNewYorkFranklin,New York,Franklin,2021-01-05 15:03:13.754564,2020-05-31 00:00:00.000000,0.03892301,0.08276699,0.13795067,19,41,69,11,22,42,0.02303050,0.04589662,0.08510258,0.06457574,0.10562448,0.18185945
36033,0,USNewYorkFranklin,New York,Franklin,2021-01-05 15:03:13.754564,2020-06-01 00:00:00.000000,0.03848637,0.08143773,0.13715804,19,40,68,11,22,41,0.02239665,0.04544867,0.08250143,0.06610467,0.10564112,0.18235925
36033,0,USNewYorkFranklin,New York,Franklin,2021-01-05 15:03:13.754564,2020-06-02 00:00:00.000000,0.03986732,0.08063052,0.13645947,19,40,68,10,22,40,0.02188755,0.04558263,0.08001203,0.06808817,0.10737417,0.18215273
36033,0,USNewYorkFranklin,New York,Franklin,2021-01-05 15:03:13.754564,2020-06-03 00:00:00.000000,0.03932782,0.08257969,0.13585701,19,41,67,10,22,38,0.02145903,0.04495143,0.07763166,0.06954483,0.10748375,0.18105228
36033,0,USNewYorkFranklin,New York,Franklin,2021-01-05 15:03:13.754564,2020-06-04 00:00:00.000000,0.03884738,0.08210517,0.13548734,19,41,67,10,22,38,0.02149443,0.04486211,0.07625735,0.06930682,0.10635814,0.17910797
36033,0,USNewYorkFranklin,New York,Franklin,2021-01-05 15:03:13.754564,2020-06-05 00:00:00.000000,0.03844469,0.08118291,0.13549786,19,40,67,11,22,38,0.02289919,0.04432141,0.07748108,0.06718413,0.10610355,0.17448956
36033,0,USNewYorkFranklin,New York,Franklin,2021-01-05 15:03:13.754564,2020-06-06 00:00:00.000000,0.03812500,0.07998512,0.13582987,19,40,67,11,21,39,0.02263285,0.04361660,0.07909871,0.06852205,0.10522073,0.16951833
36033,0,USNewYorkFranklin,New York,Franklin,2021-01-05 15:03:13.754564,2020-06-07 00:00:00.000000,0.03717885,0.07923897,0.13916226,18,39,69,11,21,39,0.02240704,0.04355946,0.07862450,0.06768907,0.10607300,0.16646281
36033,0,USNewYorkFranklin,New York,Franklin,2021-01-05 15:03:13.754564,2020-06-08 00:00:00.000000,0.03624795,0.07917697,0.14274035,18,39,71,11,21,39,0.02222336,0.04389282,0.07970603,0.06722434,0.10625038,0.16604608
36033,0,USNewYorkFranklin,New York,Franklin,2021-01-05 15:03:13.754564,2020-06-09 00:00:00.000000,0.03465878,0.08088248,0.14424408,17,40,72,10,22,39,0.02166847,0.04403930,0.07975289,0.06949078,0.10479911,0.17440995
36033,0,USNewYorkFranklin,New York,Franklin,2021-01-05 15:03:13.754564,2020-06-10 00:00:00.000000,0.03308332,0.08178166,0.15377433,16,40,76,10,22,39,0.02091652,0.04411419,0.07977093,0.06826998,0.10546515,0.18021833
36033,0,USNewYorkFranklin,New York,Franklin,2021-01-05 15:03:13.754564,2020-06-11 00:00:00.000000,0.03156872,0.08102572,0.15151811,15,40,75,10,22,40,0.02007519,0.04530410,0.08097971,0.06782657,0.10484882,0.18106371
36033,0,USNewYorkFranklin,New York,Franklin,2021-01-05 15:03:13.754564,2020-06-12 00:00:00.000000,0.03039743,0.08062974,0.15087433,15,40,75,9,22,41,0.01921011,0.04572488,0.08261577,0.06794074,0.10394757,0.18231671
36033,0,USNewYorkFranklin,New York,Franklin,2021-01-05 15:03:13.754564,2020-06-13 00:00:00.000000,0.02960690,0.08007778,0.16117446,14,40,80,9,22,41,0.01836046,0.04591612,0.08367824,0.06838536,0.10369153,0.18393880
36033,0,USNewYorkFranklin,New York,Franklin,2021-01-05 15:03:13.754564,2020-06-14 00:00:00.000000,0.02890422,0.07941655,0.17112124,14,39,85,8,22,42,0.01755297,0.04415251,0.08454788,0.06871521,0.10513213,0.18563504
36033,0,USNewYorkFranklin,New York,Franklin,2021-01-05 15:03:13.754564,2020-06-15 00:00:00.000000,0.03178730,0.07866867,0.17094024,15,39,85,8,21,44,0.01681857,0.04360436,0.08805807,0.06871054,0.10617854,0.18697917
36033,0,USNewYorkFranklin,New York,Franklin,2021-01-05 15:03:13.754564,2020-06-16 00:00:00.000000,0.03493560,0.07793767,0.17034061,17,38,85,8,22,45,0.01670737,0.04429835,0.09144564,0.06871036,0.10961594,0.18766046
36033,0,USNewYorkFranklin,New York,Franklin,2021-01-05 15:03:13.754564,2020-06-17 00:00:00.000000,0.03821262,0.07827571,0.16918185,19,39,84,8,22,46,0.01757719,0.04540530,0.09225172,0.06715974,0.11370558,0.18746369
36033,0,USNewYorkFranklin,New York,Franklin,2021-01-05 15:03:13.754564,2020-06-18 00:00:00.000000,0.04070140,0.07871874,0.16766882,20,39,83,9,22,45,0.01916190,0.04535827,0.09146852,0.06702613,0.11468445,0.18651054
36033,0,USNewYorkFranklin,New York,Franklin,2021-01-05 15:03:13.754564,2020-06-19 00:00:00.000000,0.04194972,0.07919818,0.16594284,20,39,83,10,23,45,0.02000507,0.04615502,0.09032122,0.06700219,0.11604231,0.18830980
36033,0,USNewYorkFranklin,New York,Franklin,2021-01-05 15:03:13.754564,2020-06-20 00:00:00.000000,0.04182949,0.07775048,0.16410700,20,38,82,10,22,44,0.02058020,0.04584583,0.08900089,0.06861587,0.11662020,0.18243778
36033,0,USNewYorkFranklin,New York,Franklin,2021-01-05 15:03:13.754564,2020-06-21 00:00:00.000000,0.04052193,0.07999931,0.17049241,20,40,85,10,23,43,0.02117507,0.04608437,0.08762412,0.06738742,0.11450609,0.17347602
36033,0,USNewYorkFranklin,New York,Franklin,2021-01-05 15:03:13.754564,2020-06-22 00:00:00.000000,0.04010358,0.08261252,0.16972867,20,41,84,10,23,43,0.02175975,0.04626907,0.08626864,0.06659892,0.11430067,0.17826245
36033,0,USNewYorkFranklin,New York,Franklin,2021-01-05 15:03:13.754564,2020-06-23 00:00:00.000000,0.04396543,0.08254197,0.16623839,21,41,83,11,23,42,0.02290276,0.04619337,0.08477445,0.06596330,0.11363437,0.18484493
36033,0,USNewYorkFranklin,New York,Franklin,2021-01-05 15:03:13.754564,2020-06-24 00:00:00.000000,0.04580817,0.08372087,0.16242726,22,41,81,11,23,41,0.02374478,0.04718293,0.08380742,0.06398918,0.11366974,0.18736255
36033,0,USNewYorkFranklin,New York,Franklin,2021-01-05 15:03:13.754564,2020-06-25 00:00:00.000000,0.04885151,0.08678442,0.15861916,24,43,79,12,23,41,0.02454081,0.04724562,0.08332552,0.06314133,0.11370329,0.18744224
36033,0,USNewYorkFranklin,New York,Franklin,2021-01-05 15:03:13.754564,2020-06-26 00:00:00.000000,0.04781150,0.08773844,0.15476447,23,43,77,12,23,41,0.02554851,0.04772821,0.08287950,0.06272118,0.11162807,0.18484525
36033,0,USNewYorkFranklin,New York,Franklin,2021-01-05 15:03:13.754564,2020-06-27 00:00:00.000000,0.04640061,0.09048782,0.15122251,23,45,75,13,23,41,0.02647409,0.04780803,0.08235790,0.06083147,0.10883418,0.17626157
36033,0,USNewYorkFranklin,New York,Franklin,2021-01-05 15:03:13.754564,2020-06-28 00:00:00.000000,0.04507639,0.09205875,0.15186059,22,46,75,12,24,40,0.02570739,0.04876135,0.08179569,0.05944681,0.10802746,0.16520370
36033,0,USNewYorkFranklin,New York,Franklin,2021-01-05 15:03:13.754564,2020-06-29 00:00:00.000000,0.04370989,0.09307024,0.14977012,21,46,74,12,24,40,0.02496776,0.04950475,0.08121693,0.05840746,0.10872772,0.17759758
36033,0,USNewYorkFranklin,New York,Franklin,2021-01-05 15:03:13.754564,2020-06-30 00:00:00.000000,0.04668186,0.09387489,0.14767654,23,46,73,12,25,40,0.02408588,0.05134806,0.08037315,0.05799009,0.11194179,0.19012169
36033,0,USNewYorkFranklin,New York,Franklin,2021-01-05 15:03:13.754564,2020-07-01 00:00:00.000000,0.04979426,0.09358956,0.15039236,24,46,75,12,25,40,0.02469397,0.05133785,0.08167830,0.05821864,0.11280582,0.19462014
36033,0,USNewYorkFranklin,New York,Franklin,2021-01-05 15:03:13.754564,2020-07-02 00:00:00.000000,0.05109900,0.09218976,0.14717967,25,46,73,12,25,41,0.02537253,0.05115244,0.08284204,0.05876909,0.11393887,0.19722398
36033,0,USNewYorkFranklin,New York,Franklin,2021-01-05 15:03:13.754564,2020-07-03 00:00:00.000000,0.04955056,0.09244530,0.15391958,24,46,76,12,25,43,0.02487817,0.05144471,0.08600889,0.05928297,0.11349588,0.20117866
36033,0,USNewYorkFranklin,New York,Franklin,2021-01-05 15:03:13.754564,2020-07-04 00:00:00.000000,0.04808630,0.09190680,0.16051184,24,45,80,12,26,44,0.02447249,0.05233543,0.08828449,0.05932263,0.11286344,0.19694804
36033,0,USNewYorkFranklin,New York,Franklin,2021-01-05 15:03:13.754564,2020-07-05 00:00:00.000000,0.04721909,0.09164730,0.16662539,23,45,83,12,26,45,0.02523712,0.05212232,0.09005794,0.05934510,0.11350529,0.19651943
36033,0,USNewYorkFranklin,New York,Franklin,2021-01-05 15:03:13.754564,2020-07-06 00:00:00.000000,0.05003175,0.09259574,0.16493098,25,46,82,12,25,46,0.02597283,0.05078471,0.09386282,0.05938810,0.11384509,0.20807489
36033,0,USNewYorkFranklin,New York,Franklin,2021-01-05 15:03:13.754564,2020-07-07 00:00:00.000000,0.04861295,0.09349949,0.16310610,24,46,81,13,25,47,0.02630268,0.05094161,0.09576270,0.05949499,0.11528437,0.20826528
36033,0,USNewYorkFranklin,New York,Franklin,2021-01-05 15:03:13.754564,2020-07-08 00:00:00.000000,0.04720817,0.09396316,0.16110979,23,47,80,13,25,48,0.02630048,0.05171138,0.09640949,0.05985633,0.11509445,0.21010188
36033,0,USNewYorkFranklin,New York,Franklin,2021-01-05 15:03:13.754564,2020-07-09 00:00:00.000000,0.04751357,0.09203108,0.15919697,23,46,79,13,26,48,0.02627732,0.05237783,0.09622481,0.06325603,0.11530056,0.20813513
36033,0,USNewYorkFranklin,New York,Franklin,2021-01-05 15:03:13.754564,2020-07-10 00:00:00.000000,0.04786020,0.09440922,0.15754813,23,47,78,13,26,47,0.02637617,0.05297637,0.09563775,0.06411930,0.11468013,0.20638754
36033,0,USNewYorkFranklin,New York,Franklin,2021-01-05 15:03:13.754564,2020-07-11 00:00:00.000000,0.04804636,0.09466219,0.16317567,24,47,81,13,26,47,0.02655635,0.05336216,0.09488247,0.06487777,0.11610519,0.20670579
36033,0,USNewYorkFranklin,New York,Franklin,2021-01-05 15:03:13.754564,2020-07-12 00:00:00.000000,0.04762262,0.09551155,0.17597908,23,47,88,13,26,47,0.02677792,0.05273126,0.09411489,0.06441625,0.11859599,0.20666283
36033,0,USNewYorkFranklin,New York,Franklin,2021-01-05 15:03:13.754564,2020-07-13 00:00:00.000000,0.04783661,0.09621859,0.17604624,23,48,88,12,26,50,0.02576290,0.05231251,0.10158375,0.06438270,0.11675996,0.20638892
36033,0,USNewYorkFranklin,New York,Franklin,2021-01-05 15:03:13.754564,2020-07-14 00:00:00.000000,0.04799493,0.10355138,0.17503687,24,51,87,13,26,52,0.02648536,0.05333351,0.10592098,0.06436577,0.11563350,0.20207150
36033,0,USNewYorkFranklin,New York,Franklin,2021-01-05 15:03:13.754564,2020-07-15 00:00:00.000000,0.04800622,0.10400800,0.17293987,24,52,86,12,27,53,0.02577889,0.05404389,0.10762907,0.06478241,0.11467618,0.19986947
36033,0,USNewYorkFranklin,New York,Franklin,2021-01-05 15:03:13.754564,2020-07-16 00:00:00.000000,0.04791734,0.10581231,0.17048423,23,52,85,12,28,53,0.02589720,0.05636776,0.10772770,0.06515447,0.11490193,0.19761046
36033,0,USNewYorkFranklin,New York,Franklin,2021-01-05 15:03:13.754564,2020-07-17 00:00:00.000000,0.04774760,0.10603861,0.17101068,23,53,85,12,29,53,0.02591881,0.05837559,0.10643390,0.06572219,0.11647751,0.19445546
36033,0,USNewYorkFranklin,New York,Franklin,2021-01-05 15:03:13.754564,2020-07-18 00:00:00.000000,0.04624549,0.10322983,0.17688983,23,51,88,12,29,52,0.02587487,0.05948402,0.10430032,0.06639558,0.11799209,0.20589114
36033,0,USNewYorkFranklin,New York,Franklin,2021-01-05 15:03:13.754564,2020-07-19 00:00:00.000000,0.04370903,0.10178231,0.18844081,21,50,94,12,29,51,0.02578072,0.05943679,0.10216783,0.06597786,0.11921190,0.20679024
36033,0,USNewYorkFranklin,New York,Franklin,2021-01-05 15:03:13.754564,2020-07-20 00:00:00.000000,0.05094262,0.10127278,0.18577934,25,50,92,12,29,51,0.02507680,0.05872564,0.10336997,0.06643444,0.12014836,0.20559608
36033,0,USNewYorkFranklin,New York,Franklin,2021-01-05 15:03:13.754564,2020-07-21 00:00:00.000000,0.05469247,0.10312562,0.18341663,27,51,91,13,29,52,0.02662125,0.05932032,0.10469142,0.06492101,0.12088711,0.20211812
36033,0,USNewYorkFranklin,New York,Franklin,2021-01-05 15:03:13.754564,2020-07-22 00:00:00.000000,0.05806061,0.10916066,0.18742063,29,54,93,14,29,52,0.02817121,0.05907236,0.10562409,0.06821436,0.12146794,0.20072618
36033,0,USNewYorkFranklin,New York,Franklin,2021-01-05 15:03:13.754564,2020-07-23 00:00:00.000000,0.05950807,0.11081102,0.18795707,29,55,94,15,29,52,0.02999579,0.05930920,0.10470534,0.06850036,0.12059600,0.20063726
36033,0,USNewYorkFranklin,New York,Franklin,2021-01-05 15:03:13.754564,2020-07-24 00:00:00.000000,0.06093260,0.11348594,0.18582143,30,56,92,14,30,52,0.02995763,0.06000362,0.10464364,0.06904610,0.11781618,0.20085749
36033,0,USNewYorkFranklin,New York,Franklin,2021-01-05 15:03:13.754564,2020-07-25 00:00:00.000000,0.06214693,0.11308556,0.18325313,31,56,91,14,29,53,0.02946598,0.05917224,0.10691795,0.06296179,0.11699729,0.20259986
36033,0,USNewYorkFranklin,New York,Franklin,2021-01-05 15:03:13.754564,2020-07-26 00:00:00.000000,0.06164142,0.11357120,0.18030330,30,56,90,14,30,54,0.02902772,0.06013833,0.10881375,0.06207851,0.11465767,0.20404613
36033,0,USNewYorkFranklin,New York,Franklin,2021-01-05 15:03:13.754564,2020-07-27 00:00:00.000000,0.06221445,0.11163153,0.17871700,31,55,89,14,30,55,0.02866659,0.06147006,0.11033435,0.06219499,0.11260265,0.20281109
36033,0,USNewYorkFranklin,New York,Franklin,2021-01-05 15:03:13.754564,2020-07-28 00:00:00.000000,0.06113463,0.11124290,0.18117335,30,55,90,14,31,55,0.02956387,0.06240374,0.11066851,0.06231587,0.11303481,0.20277499
36033,0,USNewYorkFranklin,New York,Franklin,2021-01-05 15:03:13.754564,2020-07-29 00:00:00.000000,0.06013075,0.10824498,0.18317373,30,54,91,14,30,54,0.02970624,0.06142282,0.10919096,0.06172869,0.11428715,0.20250629
36033,0,USNewYorkFranklin,New York,Franklin,2021-01-05 15:03:13.754564,2020-07-30 00:00:00.000000,0.05926012,0.10816492,0.18567670,29,54,92,14,29,54,0.02950728,0.05965915,0.10938699,0.06213266,0.11518851,0.19989089
36033,0,USNewYorkFranklin,New York,Franklin,2021-01-05 15:03:13.754564,2020-07-31 00:00:00.000000,0.05914407,0.10622528,0.18526707,29,53,92,14,29,55,0.02907270,0.05956840,0.11031685,0.06339654,0.11616300,0.19807650
36033,0,USNewYorkFranklin,New York,Franklin,2021-01-05 15:03:13.754564,2020-08-01 00:00:00.000000,0.05763375,0.10555063,0.18263874,28,52,91,15,29,54,0.03143740,0.05967702,0.10801073,0.06404171,0.11653014,0.20365308
36033,0,USNewYorkFranklin,New York,Franklin,2021-01-05 15:03:13.754564,2020-08-02 00:00:00.000000,0.05696104,0.10350429,0.18013517,28,51,90,15,29,52,0.03150820,0.05803499,0.10558326,0.06449592,0.11726995,0.20806935
36033,0,USNewYorkFranklin,New York,Franklin,2021-01-05 15:03:13.754564,2020-08-03 00:00:00.000000,0.05531081,0.10078069,0.17502016,27,50,87,15,28,52,0.03110136,0.05659671,0.10419219,0.06506771,0.11705601,0.20868787
36033,0,USNewYorkFranklin,New York,Franklin,2021-01-05 15:03:13.754564,2020-08-04 00:00:00.000000,0.05372905,0.09940891,0.17005886,26,49,85,15,27,51,0.03048791,0.05580727,0.10312790,0.06670635,0.11691233,0.20891041
36033,0,USNewYorkFranklin,New York,Franklin,2021-01-05 15:03:13.754564,2020-08-05 00:00:00.000000,0.05123345,0.09820890,0.16512636,25,49,82,14,27,52,0.02976218,0.05491602,0.10452300,0.06352805,0.11686962,0.20812848
36033,0,USNewYorkFranklin,New York,Franklin,2021-01-05 15:03:13.754564,2020-08-06 00:00:00.000000,0.05069609,0.09578254,0.16483545,25,47,82,14,27,52,0.02902390,0.05436098,0.10543333,0.06261460,0.11744860,0.20279030
36033,0,USNewYorkFranklin,New York,Franklin,2021-01-05 15:03:13.754564,2020-08-07 00:00:00.000000,0.04925372,0.09361184,0.16321425,24,46,81,14,26,53,0.02830876,0.05377649,0.10603178,0.06731767,0.11828231,0.20044918
36033,0,USNewYorkFranklin,New York,Franklin,2021-01-05 15:03:13.754564,2020-08-08 00:00:00.000000,0.04781866,0.09373764,0.16480091,23,46,82,13,26,53,0.02771374,0.05363135,0.10635778,0.06657719,0.12106566,0.20073119
36033,0,USNewYorkFranklin,New York,Franklin,2021-01-05 15:03:13.754564,2020-08-09 00:00:00.000000,0.04635961,0.09351589,0.16436965,23,46,82,13,26,51,0.02706370,0.05327560,0.10302727,0.06774163,0.12145914,0.20591552
36033,0,USNewYorkFranklin,New York,Franklin,2021-01-05 15:03:13.754564,2020-08-10 00:00:00.000000,0.04491314,0.09202488,0.16272747,22,46,81,13,26,51,0.02632213,0.05302545,0.10271399,0.07391182,0.12324314,0.20869916
36033,0,USNewYorkFranklin,New York,Franklin,2021-01-05 15:03:13.754564,2020-08-11 00:00:00.000000,0.04349870,0.09198811,0.16045790,21,46,80,12,26,52,0.02519282,0.05234352,0.10546230,0.07414068,0.12553351,0.20993835
36033,0,USNewYorkFranklin,New York,Franklin,2021-01-05 15:03:13.754564,2020-08-12 00:00:00.000000,0.04218756,0.09063686,0.15927945,21,45,79,12,25,52,0.02441003,0.05148459,0.10511272,0.07366540,0.12523556,0.20412179
36033,0,USNewYorkFranklin,New York,Franklin,2021-01-05 15:03:13.754564,2020-08-13 00:00:00.000000,0.04151862,0.08923429,0.16357627,20,44,81,11,25,51,0.02365759,0.05115723,0.10383263,0.07356404,0.12491027,0.20879283
36033,0,USNewYorkFranklin,New York,Franklin,2021-01-05 15:03:13.754564,2020-08-14 00:00:00.000000,0.04177774,0.08926288,0.16969415,20,44,84,11,25,51,0.02294360,0.05004033,0.10221484,0.07358785,0.12555941,0.21077621
36033,0,USNewYorkFranklin,New York,Franklin,2021-01-05 15:03:13.754564,2020-08-15 00:00:00.000000,0.04210344,0.08840642,0.17776593,21,44,88,11,25,50,0.02227261,0.05044478,0.10038377,0.07368345,0.12565160,0.21360846
36033,0,USNewYorkFranklin,New York,Franklin,2021-01-05 15:03:13.754564,2020-08-16 00:00:00.000000,0.04249329,0.08603220,0.18084899,21,43,90,10,25,50,0.02164664,0.05041121,0.10076561,0.07387908,0.12546819,0.21456576
36033,0,USNewYorkFranklin,New York,Franklin,2021-01-05 15:03:13.754564,2020-08-17 00:00:00.000000,0.04259907,0.08781803,0.18080328,21,43,90,10,25,52,0.02106624,0.05092115,0.10405083,0.07363662,0.12760418,0.21622569
36033,0,USNewYorkFranklin,New York,Franklin,2021-01-05 15:03:13.754564,2020-08-18 00:00:00.000000,0.04092062,0.08709517,0.17556435,20,43,87,10,24,53,0.02097774,0.04948482,0.10656326,0.07633265,0.12371112,0.21716785
36033,0,USNewYorkFranklin,New York,Franklin,2021-01-05 15:03:13.754564,2020-08-19 00:00:00.000000,0.04089663,0.08889325,0.16979511,20,44,84,10,24,52,0.02174958,0.04932273,0.10521212,0.07942479,0.12323420,0.21238054
36033,0,USNewYorkFranklin,New York,Franklin,2021-01-05 15:03:13.754564,2020-08-20 00:00:00.000000,0.04220774,0.08874629,0.16537320,21,44,82,10,24,51,0.02151469,0.04844116,0.10362348,0.07910133,0.12536596,0.20529757
36033,0,USNewYorkFranklin,New York,Franklin,2021-01-05 15:03:13.754564,2020-08-21 00:00:00.000000,0.04354797,0.08858408,0.16189089,21,44,80,11,24,50,0.02202550,0.04804218,0.10184119,0.07908079,0.12700593,0.20240733
36033,0,USNewYorkFranklin,New York,Franklin,2021-01-05 15:03:13.754564,2020-08-22 00:00:00.000000,0.04490904,0.08835335,0.15986715,22,44,79,11,24,49,0.02262981,0.04821985,0.09989637,0.07761472,0.12890054,0.20328327
36033,0,USNewYorkFranklin,New York,Franklin,2021-01-05 15:03:13.754564,2020-08-23 00:00:00.000000,0.04630167,0.08737686,0.16033309,23,43,80,11,24,48,0.02329076,0.04942482,0.09782956,0.07674859,0.13291595,0.20361166
36033,0,USNewYorkFranklin,New York,Franklin,2021-01-05 15:03:13.754564,2020-08-24 00:00:00.000000,0.04627821,0.08930588,0.15763650,23,44,78,11,25,47,0.02262414,0.05096414,0.09569163,0.07658437,0.13564562,0.22076084
36033,0,USNewYorkFranklin,New York,Franklin,2021-01-05 15:03:13.754564,2020-08-25 00:00:00.000000,0.04582197,0.09055690,0.15515649,22,45,77,11,25,46,0.02201111,0.05101844,0.09329816,0.07854901,0.13956887,0.22648915
36033,0,USNewYorkFranklin,New York,Franklin,2021-01-05 15:03:13.754564,2020-08-26 00:00:00.000000,0.04519857,0.08958180,0.15274952,22,44,76,10,25,45,0.02155054,0.05046326,0.09079421,0.08156293,0.13947895,0.22675805
36033,0,USNewYorkFranklin,New York,Franklin,2021-01-05 15:03:13.754564,2020-08-27 00:00:00.000000,0.04576727,0.08841304,0.15046566,22,44,75,12,25,44,0.02413784,0.04998450,0.08827509,0.08260603,0.14434846,0.22606154
36033,0,USNewYorkFranklin,New York,Franklin,2021-01-05 15:03:13.754564,2020-08-28 00:00:00.000000,0.04541118,0.08851456,0.14837601,22,44,74,12,24,42,0.02437435,0.04932162,0.08580438,0.08269418,0.14918479,0.21701337
36033,0,USNewYorkFranklin,New York,Franklin,2021-01-05 15:03:13.754564,2020-08-29 00:00:00.000000,0.04501626,0.08819073,0.14645766,22,44,73,11,24,42,0.02375530,0.04874393,0.08403245,0.08488422,0.15134719,0.22280117
36033,0,USNewYorkFranklin,New York,Franklin,2021-01-05 15:03:13.754564,2020-08-30 00:00:00.000000,0.04460536,0.08734842,0.14492409,22,43,72,11,24,41,0.02343736,0.04857284,0.08321040,0.09052225,0.15209480,0.23277275
36033,0,USNewYorkFranklin,New York,Franklin,2021-01-05 15:03:13.754564,2020-08-31 00:00:00.000000,0.04538881,0.08982155,0.14414241,22,44,72,11,24,41,0.02295760,0.04894176,0.08248672,0.08880194,0.15379238,0.24416102
36033,0,USNewYorkFranklin,New York,Franklin,2021-01-05 15:03:13.754564,2020-09-01 00:00:00.000000,0.04618471,0.09150736,0.14366254,23,45,71,11,24,40,0.02251057,0.04921907,0.08138897,0.09218842,0.15391594,0.24504674
36033,0,USNewYorkFranklin,New York,Franklin,2021-01-05 15:03:13.754564,2020-09-02 00:00:00.000000,0.04701584,0.09314895,0.15531645,23,46,77,11,24,40,0.02210358,0.04961797,0.08064979,0.09299986,0.15726332,0.24581197
36033,0,USNewYorkFranklin,New York,Franklin,2021-01-05 15:03:13.754564,2020-09-03 00:00:00.000000,0.04785368,0.09451956,0.16180976,23,47,80,10,25,41,0.02175120,0.05043436,0.08282292,0.09354357,0.15734092,0.24671520
36033,0,USNewYorkFranklin,New York,Franklin,2021-01-05 15:03:13.754564,2020-09-04 00:00:00.000000,0.04839546,0.09457375,0.16149552,24,47,80,10,25,43,0.02147501,0.05044612,0.08740105,0.09469168,0.16231061,0.25275554
36033,0,USNewYorkFranklin,New York,Franklin,2021-01-05 15:03:13.754564,2020-09-05 00:00:00.000000,0.04846907,0.09457351,0.16087402,24,47,80,10,25,48,0.02128838,0.05105444,0.09614047,0.09383352,0.16486008,0.25139396
36033,0,USNewYorkFranklin,New York,Franklin,2021-01-05 15:03:13.754564,2020-09-06 00:00:00.000000,0.04863117,0.09634615,0.16816262,24,48,84,10,25,49,0.02118567,0.05163302,0.09856588,0.09579756,0.16498537,0.25701659
36033,0,USNewYorkFranklin,New York,Franklin,2021-01-05 15:03:13.754564,2020-09-07 00:00:00.000000,0.05066395,0.09611680,0.16377164,25,48,81,10,26,49,0.02115019,0.05267401,0.09828927,0.09586780,0.16768081,0.26167267
36033,0,USNewYorkFranklin,New York,Franklin,2021-01-05 15:03:13.754564,2020-09-08 00:00:00.000000,0.05093887,0.09581791,0.16737352,25,47,83,10,26,49,0.02197989,0.05313387,0.09930588,0.09588429,0.16996554,0.26418493
36033,0,USNewYorkFranklin,New York,Franklin,2021-01-05 15:03:13.754564,2020-09-09 00:00:00.000000,0.05117292,0.09730974,0.17153950,25,48,85,11,26,52,0.02338636,0.05307568,0.10458043,0.09588914,0.17051144,0.27381554
36033,0,USNewYorkFranklin,New York,Franklin,2021-01-05 15:03:13.754564,2020-09-10 00:00:00.000000,0.05287180,0.09857363,0.17502614,26,49,87,12,26,54,0.02514830,0.05283679,0.10798337,0.09589464,0.17470208,0.28276697
36033,0,USNewYorkFranklin,New York,Franklin,2021-01-05 15:03:13.754564,2020-09-11 00:00:00.000000,0.05486049,0.09943108,0.17934509,27,49,89,13,26,53,0.02706925,0.05352892,0.10720150,0.09591257,0.17693631,0.28520524
36033,0,USNewYorkFranklin,New York,Franklin,2021-01-05 15:03:13.754564,2020-09-12 00:00:00.000000,0.05380757,0.10273858,0.18370232,26,51,91,13,27,53,0.02755227,0.05412069,0.10655711,0.09600829,0.17983946,0.29045372
36033,0,USNewYorkFranklin,New York,Franklin,2021-01-05 15:03:13.754564,2020-09-13 00:00:00.000000,0.05281725,0.10197534,0.18799991,26,51,94,14,27,54,0.02805058,0.05429527,0.10896976,0.10411105,0.18049770,0.30121757
36033,0,USNewYorkFranklin,New York,Franklin,2021-01-05 15:03:13.754564,2020-09-14 00:00:00.000000,0.05492955,0.10293109,0.18666246,27,51,93,14,27,55,0.02833605,0.05496150,0.11157768,0.11274429,0.18283567,0.30325396
36033,0,USNewYorkFranklin,New York,Franklin,2021-01-05 15:03:13.754564,2020-09-15 00:00:00.000000,0.05716418,0.10473604,0.18521379,28,52,92,14,27,56,0.02846293,0.05490255,0.11253652,0.11680994,0.18725750,0.29789938
36033,0,USNewYorkFranklin,New York,Franklin,2021-01-05 15:03:13.754564,2020-09-16 00:00:00.000000,0.05931464,0.10670358,0.18366928,29,53,91,14,27,56,0.02903430,0.05542389,0.11253843,0.11618724,0.19129460,0.29422401
36033,0,USNewYorkFranklin,New York,Franklin,2021-01-05 15:03:13.754564,2020-09-17 00:00:00.000000,0.05900243,0.10752682,0.18498069,29,53,92,14,28,56,0.02991005,0.05635437,0.11199208,0.11589055,0.19524903,0.30493330
36033,0,USNewYorkFranklin,New York,Franklin,2021-01-05 15:03:13.754564,2020-09-18 00:00:00.000000,0.05873596,0.10977750,0.18648065,29,54,93,15,28,55,0.03101756,0.05787587,0.11113845,0.11610581,0.19733672,0.31783595
36033,0,USNewYorkFranklin,New York,Franklin,2021-01-05 15:03:13.754564,2020-09-19 00:00:00.000000,0.05850185,0.11197110,0.18523452,29,56,92,15,28,56,0.03076313,0.05725356,0.11201822,0.12039827,0.20382190,0.33771151
36033,0,USNewYorkFranklin,New York,Franklin,2021-01-05 15:03:13.754564,2020-09-20 00:00:00.000000,0.05829519,0.11365039,0.18466036,29,56,92,15,28,56,0.03040892,0.05720259,0.11305494,0.12311465,0.21009051,0.35510976
36033,0,USNewYorkFranklin,New York,Franklin,2021-01-05 15:03:13.754564,2020-09-21 00:00:00.000000,0.06097850,0.11816681,0.18965085,30,59,94,15,29,57,0.03007286,0.05879380,0.11433632,0.12899015,0.21499638,0.37022449
36033,0,USNewYorkFranklin,New York,Franklin,2021-01-05 15:03:13.754564,2020-09-22 00:00:00.000000,0.06333692,0.11953285,0.19463720,31,59,97,15,30,57,0.03013412,0.06046498,0.11555983,0.14359573,0.22201110,0.37728053
36033,0,USNewYorkFranklin,New York,Franklin,2021-01-05 15:03:13.754564,2020-09-23 00:00:00.000000,0.06588659,0.12070219,0.19783309,32,60,98,15,31,58,0.03088055,0.06203952,0.11679933,0.14895279,0.23076183,0.37980673
36033,0,USNewYorkFranklin,New York,Franklin,2021-01-05 15:03:13.754564,2020-09-24 00:00:00.000000,0.06970333,0.12172844,0.20031963,34,60,100,16,32,59,0.03300481,0.06485153,0.11807490,0.14846052,0.24008871,0.38012548
36033,0,USNewYorkFranklin,New York,Franklin,2021-01-05 15:03:13.754564,2020-09-25 00:00:00.000000,0.07336279,0.12378257,0.21029076,36,61,105,17,33,59,0.03544249,0.06685221,0.11941420,0.14810410,0.25893984,0.38450403
36033,0,USNewYorkFranklin,New York,Franklin,2021-01-05 15:03:13.754564,2020-09-26 00:00:00.000000,0.07663887,0.12629891,0.22277623,38,63,111,19,33,60,0.03813079,0.06768055,0.12089650,0.17599455,0.26336615,0.38820554
36033,0,USNewYorkFranklin,New York,Franklin,2021-01-05 15:03:13.754564,2020-09-27 00:00:00.000000,0.07950404,0.12922105,0.22702549,39,64,113,20,34,61,0.04001921,0.06915775,0.12262367,0.18519408,0.26469967,0.40519183
36033,0,USNewYorkFranklin,New York,Franklin,2021-01-05 15:03:13.754564,2020-09-28 00:00:00.000000,0.08216583,0.13831602,0.23555813,41,69,117,20,35,62,0.04185933,0.07195169,0.12461835,0.18960538,0.26587082,0.42615686
36033,0,USNewYorkFranklin,New York,Franklin,2021-01-05 15:03:13.754564,2020-09-29 00:00:00.000000,0.08471675,0.14840791,0.24469183,42,74,122,22,36,64,0.04473823,0.07300617,0.12832394,0.19484837,0.26985823,0.44437090
36033,0,USNewYorkFranklin,New York,Franklin,2021-01-05 15:03:13.754564,2020-09-30 00:00:00.000000,0.08653602,0.15333377,0.25015265,43,76,125,23,37,65,0.04684332,0.07510250,0.13045074,0.19743406,0.27920019,0.44637737
36033,0,USNewYorkFranklin,New York,Franklin,2021-01-05 15:03:13.754564,2020-10-01 00:00:00.000000,0.08773846,0.16120326,0.25388021,43,80,126,23,38,66,0.04789713,0.07793741,0.13315727,0.19897371,0.28839159,0.45556199
36033,0,USNewYorkFranklin,New York,Franklin,2021-01-05 15:03:13.754564,2020-10-02 00:00:00.000000,0.09072319,0.17022916,0.25760470,45,85,128,25,40,68,0.05007927,0.08094305,0.13653634,0.20905183,0.30022565,0.46754590
36033,0,USNewYorkFranklin,New York,Franklin,2021-01-05 15:03:13.754564,2020-10-03 00:00:00.000000,0.09399050,0.17431773,0.26476853,47,87,132,25,42,69,0.05173136,0.08446675,0.13953198,0.23188891,0.31150600,0.46645735
36033,0,USNewYorkFranklin,New York,Franklin,2021-01-05 15:03:13.754564,2020-10-04 00:00:00.000000,0.09748015,0.18133578,0.27332981,48,90,136,26,44,71,0.05226079,0.08866827,0.14227287,0.23568283,0.32786911,0.46678785
36033,0,USNewYorkFranklin,New York,Franklin,2021-01-05 15:03:13.754564,2020-10-05 00:00:00.000000,0.10581681,0.18911740,0.28745789,52,94,143,27,45,74,0.05404624,0.09137147,0.14807686,0.24030263,0.33203485,0.47723515
36033,0,USNewYorkFranklin,New York,Franklin,2021-01-05 15:03:13.754564,2020-10-06 00:00:00.000000,0.11350018,0.19484801,0.30416009,56,97,152,28,48,75,0.05715378,0.09717421,0.15177606,0.24957354,0.34231036,0.48950279
36033,0,USNewYorkFranklin,New York,Franklin,2021-01-05 15:03:13.754564,2020-10-07 00:00:00.000000,0.11836473,0.20500059,0.31966541,59,102,159,30,50,79,0.06025730,0.10181464,0.15815750,0.26028334,0.35830671,0.52371866
36033,0,USNewYorkFranklin,New York,Franklin,2021-01-05 15:03:13.754564,2020-10-08 00:00:00.000000,0.12337043,0.21693956,0.33787758,61,108,169,32,52,81,0.06451834,0.10515107,0.16343226,0.26725389,0.37769430,0.52155870
36033,0,USNewYorkFranklin,New York,Franklin,2021-01-05 15:03:13.754564,2020-10-09 00:00:00.000000,0.12880004,0.22847842,0.35713187,64,114,178,33,55,84,0.06728885,0.11081671,0.16967551,0.27565065,0.39119370,0.53800654
36033,0,USNewYorkFranklin,New York,Franklin,2021-01-05 15:03:13.754564,2020-10-10 00:00:00.000000,0.13542543,0.24304088,0.38532108,67,121,192,35,58,89,0.07021146,0.11678066,0.17837909,0.28800507,0.40038325,0.54339060
36033,0,USNewYorkFranklin,New York,Franklin,2021-01-05 15:03:13.754564,2020-10-11 00:00:00.000000,0.14265782,0.25951205,0.40948845,71,129,204,36,61,94,0.07353361,0.12299229,0.18844212,0.30546864,0.41427348,0.55171207
36033,0,USNewYorkFranklin,New York,Franklin,2021-01-05 15:03:13.754564,2020-10-12 00:00:00.000000,0.15089579,0.27610051,0.43445533,75,138,217,38,65,99,0.07764961,0.13070501,0.19933747,0.32153332,0.42477422,0.56221876
36033,0,USNewYorkFranklin,New York,Franklin,2021-01-05 15:03:13.754564,2020-10-13 00:00:00.000000,0.16000725,0.29207705,0.46474912,80,146,232,41,70,106,0.08335161,0.14151900,0.21196022,0.33664037,0.44627722,0.61653116
36033,0,USNewYorkFranklin,New York,Franklin,2021-01-05 15:03:13.754564,2020-10-14 00:00:00.000000,0.17153960,0.31156758,0.50447171,85,155,252,44,75,113,0.08819968,0.15130394,0.22733926,0.34491357,0.46170969,0.63552827
36033,0,USNewYorkFranklin,New York,Franklin,2021-01-05 15:03:13.754564,2020-10-15 00:00:00.000000,0.19101672,0.33241878,0.54141175,95,166,270,48,79,122,0.09653339,0.15929253,0.24473589,0.35061466,0.47729790,0.64763748
36033,0,USNewYorkFranklin,New York,Franklin,2021-01-05 15:03:13.754564,2020-10-16 00:00:00.000000,0.21089641,0.35525716,0.58836823,105,177,294,53,84,131,0.10605452,0.16939091,0.26334508,0.35548497,0.48841004,0.66950305
36033,0,USNewYorkFranklin,New York,Franklin,2021-01-05 15:03:13.754564,2020-10-17 00:00:00.000000,0.23367277,0.38013224,0.63842570,116,190,319,56,89,142,0.11394374,0.17953237,0.28474046,0.36243441,0.50796658,0.73529839
36033,0,USNewYorkFranklin,New York,Franklin,2021-01-05 15:03:13.754564,2020-10-18 00:00:00.000000,0.25671627,0.40505163,0.68815139,128,202,344,62,96,154,0.12398455,0.19310637,0.30881788,0.37292271,0.53793681,0.74443804
36033,0,USNewYorkFranklin,New York,Franklin,2021-01-05 15:03:13.754564,2020-10-19 00:00:00.000000,0.28118857,0.43909825,0.72760474,140,219,363,67,102,164,0.13585488,0.20455658,0.32834568,0.38588202,0.56465548,0.74267209
36033,0,USNewYorkFranklin,New York,Franklin,2021-01-05 15:03:13.754564,2020-10-20 00:00:00.000000,0.30654193,0.48034741,0.76985301,153,240,385,74,111,177,0.14878807,0.22291241,0.35389899,0.39754012,0.57956065,0.77449987
36033,0,USNewYorkFranklin,New York,Franklin,2021-01-05 15:03:13.754564,2020-10-21 00:00:00.000000,0.33482290,0.51397938,0.81470945,167,257,407,81,120,191,0.16327898,0.24169785,0.38265734,0.41709266,0.60469817,0.80021410
36033,0,USNewYorkFranklin,New York,Franklin,2021-01-05 15:03:13.754564,2020-10-22 00:00:00.000000,0.36805682,0.55160904,0.87760873,184,275,438,89,129,207,0.17935550,0.25915381,0.41501022,0.44237180,0.62730279,0.79901006
36033,0,USNewYorkFranklin,New York,Franklin,2021-01-05 15:03:13.754564,2020-10-23 00:00:00.000000,0.41335636,0.60585272,0.95603824,206,303,478,98,141,225,0.19761300,0.28202427,0.45099892,0.45836436,0.63958689,0.86527994
36033,0,USNewYorkFranklin,New York,Franklin,2021-01-05 15:03:13.754564,2020-10-24 00:00:00.000000,0.46995228,0.67665299,1.04179175,235,338,521,108,154,243,0.21789405,0.30850942,0.48585220,0.47157520,0.65330652,0.89407076
36033,0,USNewYorkFranklin,New York,Franklin,2021-01-05 15:03:13.754564,2020-10-25 00:00:00.000000,0.53388547,0.75498768,1.13470471,267,377,567,120,168,261,0.24015008,0.33591981,0.52352114,0.48622572,0.66437467,0.91665738
36033,0,USNewYorkFranklin,New York,Franklin,2021-01-05 15:03:13.754564,2020-10-26 00:00:00.000000,0.59911599,0.84588928,1.24855327,299,423,624,132,183,282,0.26541800,0.36604331,0.56414944,0.48939322,0.69139195,0.92003653
36033,0,USNewYorkFranklin,New York,Franklin,2021-01-05 15:03:13.754564,2020-10-27 00:00:00.000000,0.66936749,0.93449842,1.35200114,334,467,676,150,204,306,0.30055258,0.40945921,0.61255012,0.49101082,0.69759008,0.92158224
36033,0,USNewYorkFranklin,New York,Franklin,2021-01-05 15:03:13.754564,2020-10-28 00:00:00.000000,0.74735035,1.03905835,1.49123739,373,519,745,168,225,336,0.33634663,0.45107782,0.67270905,0.49250730,0.69863606,0.94475247
36033,0,USNewYorkFranklin,New York,Franklin,2021-01-05 15:03:13.754564,2020-10-29 00:00:00.000000,0.80424787,1.16471135,1.65849093,402,582,829,187,251,370,0.37458870,0.50357180,0.74052014,0.50052113,0.69802883,0.91672278
36033,0,USNewYorkFranklin,New York,Franklin,2021-01-05 15:03:13.754564,2020-10-30 00:00:00.000000,0.86280008,1.29643518,1.83003938,431,648,915,208,280,402,0.41695140,0.56060555,0.80509350,0.48993132,0.67818313,0.89561623
36033,0,USNewYorkFranklin,New York,Franklin,2021-01-05 15:03:13.754564,2020-10-31 00:00:00.000000,0.92430347,1.43125900,1.99113608,462,715,996,232,311,443,0.46389671,0.62302073,0.88573340,0.47166253,0.66253191,0.87472228
36033,0,USNewYorkFranklin,New York,Franklin,2021-01-05 15:03:13.754564,2020-11-01 00:00:00.000000,1.00849256,1.55735300,2.12548806,504,779,1063,258,344,486,0.51577424,0.68937627,0.97345113,0.45203501,0.64490641,0.83998031
36033,0,USNewYorkFranklin,New York,Franklin,2021-01-05 15:03:13.754564,2020-11-02 00:00:00.000000,1.13151972,1.66662635,2.27393080,566,833,1137,286,378,534,0.57284320,0.75657471,1.06830496,0.43969728,0.62009852,0.80748854
36033,0,USNewYorkFranklin,New York,Franklin,2021-01-05 15:03:13.754564,2020-11-03 00:00:00.000000,1.26991126,1.79367714,2.42432394,635,897,1212,320,409,583,0.64015368,0.81869545,1.16670672,0.43445884,0.58975271,0.78229423
36033,0,USNewYorkFranklin,New York,Franklin,2021-01-05 15:03:13.754564,2020-11-04 00:00:00.000000,1.38101262,1.92644728,2.59380608,690,963,1297,347,445,626,0.69470612,0.89039989,1.25149077,0.42350938,0.56255625,0.74988527
36033,0,USNewYorkFranklin,New York,Franklin,2021-01-05 15:03:13.754564,2020-11-05 00:00:00.000000,1.44441104,2.07253361,2.73868729,722,1036,1369,369,481,667,0.73955716,0.96169884,1.33514464,0.38744506,0.52453563,0.70690068
36033,0,USNewYorkFranklin,New York,Franklin,2021-01-05 15:03:13.754564,2020-11-06 00:00:00.000000,1.51520362,2.18364201,2.85355816,757,1092,1427,392,516,708,0.78433259,1.03236529,1.41622278,0.36320288,0.48934107,0.65530629
36033,0,USNewYorkFranklin,New York,Franklin,2021-01-05 15:03:13.754564,2020-11-07 00:00:00.000000,1.64172753,2.30405681,2.94774407,821,1152,1474,412,549,747,0.82431788,1.09812420,1.49480244,0.34837404,0.44435829,0.60482934
36033,0,USNewYorkFranklin,New York,Franklin,2021-01-05 15:03:13.754564,2020-11-08 00:00:00.000000,1.77044597,2.39776963,3.01459431,885,1199,1507,429,580,785,0.85783676,1.16122136,1.56940984,0.34780027,0.41567435,0.52835997
36033,0,USNewYorkFranklin,New York,Franklin,2021-01-05 15:03:13.754564,2020-11-09 00:00:00.000000,1.83004805,2.44721178,3.07941091,915,1224,1540,449,614,819,0.89923841,1.22847605,1.63883881,0.32503190,0.39327421,0.49818852
36033,0,USNewYorkFranklin,New York,Franklin,2021-01-05 15:03:13.754564,2020-11-10 00:00:00.000000,1.86832311,2.52428057,3.13790314,934,1262,1569,468,640,851,0.93706996,1.28007408,1.70222536,0.29822956,0.37515892,0.48960016
36033,0,USNewYorkFranklin,New York,Franklin,2021-01-05 15:03:13.754564,2020-11-11 00:00:00.000000,1.90347617,2.60270332,3.24054784,952,1301,1620,486,660,879,0.97237813,1.31984773,1.75788556,0.28160082,0.36583050,0.48637410
36033,0,USNewYorkFranklin,New York,Franklin,2021-01-05 15:03:13.754564,2020-11-12 00:00:00.000000,1.93493491,2.65435555,3.32424340,967,1327,1662,502,678,903,1.00489627,1.35627322,1.80522139,0.27198429,0.35180434,0.48103044
36033,0,USNewYorkFranklin,New York,Franklin,2021-01-05 15:03:13.754564,2020-11-13 00:00:00.000000,1.96142370,2.70065140,3.35114922,981,1350,1676,517,697,922,1.03512080,1.39483452,1.84405754,0.26259717,0.33742957,0.46878957
36033,0,USNewYorkFranklin,New York,Franklin,2021-01-05 15:03:13.754564,2020-11-14 00:00:00.000000,1.98140335,2.73509380,3.39716883,991,1368,1699,530,711,937,1.06036422,1.42228361,1.87456813,0.25190995,0.32521882,0.42907861
36033,0,USNewYorkFranklin,New York,Franklin,2021-01-05 15:03:13.754564,2020-11-15 00:00:00.000000,1.99607757,2.76486349,3.47505747,998,1383,1738,541,719,949,1.08330778,1.43889027,1.89728016,0.24413544,0.31832266,0.41041125
36033,0,USNewYorkFranklin,New York,Franklin,2021-01-05 15:03:13.754564,2020-11-16 00:00:00.000000,2.01199900,2.77809604,3.48377291,1006,1389,1742,552,729,961,1.10417367,1.45830275,1.92173191,0.23409570,0.31320082,0.41073421
36033,0,USNewYorkFranklin,New York,Franklin,2021-01-05 15:03:13.754564,2020-11-17 00:00:00.000000,2.02480524,2.78885371,3.48574704,1012,1395,1743,562,733,982,1.12517677,1.46706178,1.96349963,0.23136187,0.30960651,0.41114168
36033,0,USNewYorkFranklin,New York,Franklin,2021-01-05 15:03:13.754564,2020-11-18 00:00:00.000000,2.03077841,2.81639813,3.56726471,1015,1408,1784,561,743,1003,1.12201517,1.48667320,2.00668560,0.22991294,0.30780826,0.41217270
36033,0,USNewYorkFranklin,New York,Franklin,2021-01-05 15:03:13.754564,2020-11-19 00:00:00.000000,2.03822496,2.82262262,3.65529427,1019,1411,1828,550,750,1026,1.10109773,1.50025665,2.05174381,0.22928237,0.31231786,0.41655444
36033,0,USNewYorkFranklin,New York,Franklin,2021-01-05 15:03:13.754564,2020-11-20 00:00:00.000000,2.05839559,2.83290261,3.75360721,1029,1417,1877,542,757,1049,1.08451117,1.51347914,2.09822725,0.22950985,0.32167023,0.43516398
36033,0,USNewYorkFranklin,New York,Franklin,2021-01-05 15:03:13.754564,2020-11-21 00:00:00.000000,2.08248897,2.87510121,3.79199610,1041,1438,1896,547,761,1062,1.09462157,1.52176558,2.12413155,0.23145316,0.33237937,0.45902417
36033,0,USNewYorkFranklin,New York,Franklin,2021-01-05 15:03:13.754564,2020-11-22 00:00:00.000000,2.09673386,2.89045764,3.82037902,1048,1445,1911,553,766,1085,1.10607321,1.53213679,2.17046163,0.24478854,0.34920391,0.47692463
36033,0,USNewYorkFranklin,New York,Franklin,2021-01-05 15:03:13.754564,2020-11-23 00:00:00.000000,2.09044201,2.94368252,3.89864274,1045,1472,1950,561,775,1110,1.12156447,1.55083300,2.21907696,0.25157995,0.36937790,0.50773242
36033,0,USNewYorkFranklin,New York,Franklin,2021-01-05 15:03:13.754564,2020-11-24 00:00:00.000000,2.12874117,3.00514867,4.01268630,1064,1503,2007,571,787,1137,1.14217474,1.57404454,2.27334606,0.26109149,0.39045546,0.53739002
36033,0,USNewYorkFranklin,New York,Franklin,2021-01-05 15:03:13.754564,2020-11-25 00:00:00.000000,2.22105372,3.12140441,4.13218650,1111,1561,2067,585,805,1167,1.17084438,1.60988604,2.33326500,0.27506451,0.41180647,0.56620798
36033,0,USNewYorkFranklin,New York,Franklin,2021-01-05 15:03:13.754564,2020-11-26 00:00:00.000000,2.34373761,3.22328091,4.26055000,1172,1612,2131,604,830,1198,1.20861429,1.66046682,2.39691337,0.28489734,0.43222046,0.57929655
36033,0,USNewYorkFranklin,New York,Franklin,2021-01-05 15:03:13.754564,2020-11-27 00:00:00.000000,2.48902225,3.32246178,4.40393244,1245,1661,2202,627,856,1233,1.25518820,1.71321350,2.46571998,0.30233101,0.46306143,0.61831463
36033,0,USNewYorkFranklin,New York,Franklin,2021-01-05 15:03:13.754564,2020-11-28 00:00:00.000000,2.65898658,3.44597482,4.56756441,1330,1723,2284,655,879,1271,1.31001915,1.75882980,2.54104217,0.32879491,0.49854473,0.68262539
36033,0,USNewYorkFranklin,New York,Franklin,2021-01-05 15:03:13.754564,2020-11-29 00:00:00.000000,2.76762640,3.61807095,4.77038926,1384,1809,2386,686,921,1313,1.37215294,1.84262432,2.62568570,0.37061035,0.52205027,0.72031510
36033,0,USNewYorkFranklin,New York,Franklin,2021-01-05 15:03:13.754564,2020-11-30 00:00:00.000000,2.90973167,3.83507966,5.09389825,1455,1918,2548,720,958,1362,1.44053336,1.91560213,2.72312029,0.38146323,0.56219395,0.73970935
36033,0,USNewYorkFranklin,New York,Franklin,2021-01-05 15:03:13.754564,2020-12-01 00:00:00.000000,3.08094082,4.07056771,5.41667147,1541,2036,2709,757,1000,1417,1.51430301,2.00057360,2.83434689,0.42194135,0.56513044,0.74899112
36033,0,USNewYorkFranklin,New York,Franklin,2021-01-05 15:03:13.754564,2020-12-02 00:00:00.000000,3.24759768,4.36771071,5.65933129,1624,2184,2830,810,1054,1491,1.61972381,2.10721980,2.98130602,0.42647383,0.56358721,0.75474419
36033,0,USNewYorkFranklin,New York,Franklin,2021-01-05 15:03:13.754564,2020-12-03 00:00:00.000000,3.39978548,4.67663078,6.00846656,1700,2339,3005,862,1110,1585,1.72367506,2.22004266,3.16957330,0.42733634,0.56385815,0.76163599
36033,0,USNewYorkFranklin,New York,Franklin,2021-01-05 15:03:13.754564,2020-12-04 00:00:00.000000,3.56728402,4.93671879,6.35568948,1784,2469,3179,918,1186,1653,1.83541082,2.37194387,3.30611762,0.42534565,0.56141165,0.76248438
36033,0,USNewYorkFranklin,New York,Franklin,2021-01-05 15:03:13.754564,2020-12-05 00:00:00.000000,3.75897988,5.15201671,6.68926363,1880,2577,3346,979,1273,1719,1.95888938,2.54534201,3.43657190,0.41117324,0.54645617,0.75548339
36033,0,USNewYorkFranklin,New York,Franklin,2021-01-05 15:03:13.754564,2020-12-06 00:00:00.000000,3.95258424,5.44229251,6.99802737,1977,2722,3500,1041,1343,1793,2.08112892,2.68594994,3.58442802,0.39619919,0.53799463,0.73702955
36033,0,USNewYorkFranklin,New York,Franklin,2021-01-05 15:03:13.754564,2020-12-07 00:00:00.000000,4.13648096,5.74518028,7.27872213,2069,2873,3640,1094,1409,1892,2.18889728,2.81749181,3.78389458,0.38925551,0.52099114,0.69505019
36033,0,USNewYorkFranklin,New York,Franklin,2021-01-05 15:03:13.754564,2020-12-08 00:00:00.000000,4.30700229,6.00166941,7.53432187,2154,3002,3768,1141,1479,1987,2.28277486,2.95717328,3.97356906,0.38544206,0.50465170,0.67548819
36033,0,USNewYorkFranklin,New York,Franklin,2021-01-05 15:03:13.754564,2020-12-09 00:00:00.000000,4.46721191,6.28379283,7.87146601,2234,3143,3937,1186,1557,2073,2.37159910,3.11328830,4.14581666,0.38041862,0.47424029,0.64721296
36033,0,USNewYorkFranklin,New York,Franklin,2021-01-05 15:03:13.754564,2020-12-10 00:00:00.000000,4.63835475,6.52418404,8.11700067,2320,3263,4060,1229,1636,2151,2.45699490,3.27151810,4.30114738,0.35418185,0.45846399,0.64008332
36033,0,USNewYorkFranklin,New York,Franklin,2021-01-05 15:03:13.754564,2020-12-11 00:00:00.000000,4.84567301,6.63554145,8.25977718,2423,3319,4131,1270,1695,2221,2.54006690,3.38941762,4.44165293,0.34536664,0.44768843,0.62628552
36033,0,USNewYorkFranklin,New York,Franklin,2021-01-05 15:03:13.754564,2020-12-12 00:00:00.000000,5.05656763,6.81436270,8.37235462,2529,3408,4188,1311,1758,2282,2.62125891,3.51586044,4.56308942,0.32972180,0.43260796,0.56621032
36033,0,USNewYorkFranklin,New York,Franklin,2021-01-05 15:03:13.754564,2020-12-13 00:00:00.000000,5.25335786,6.94350932,8.47343636,2627,3473,4238,1354,1797,2329,2.70741134,3.59268074,4.65730911,0.29489480,0.42523916,0.55323960
36033,0,USNewYorkFranklin,New York,Franklin,2021-01-05 15:03:13.754564,2020-12-14 00:00:00.000000,5.34528318,7.08499132,8.55307892,2673,3544,4278,1396,1824,2364,2.79114290,3.64775827,4.72594643,0.27968049,0.41532805,0.53345356
36033,0,USNewYorkFranklin,New York,Franklin,2021-01-05 15:03:13.754564,2020-12-15 00:00:00.000000,5.35109458,7.10937414,8.62178234,2676,3556,4312,1429,1867,2389,2.85867390,3.73343799,4.77609849,0.27427888,0.39705636,0.51164176
36033,0,USNewYorkFranklin,New York,Franklin,2021-01-05 15:03:13.754564,2020-12-16 00:00:00.000000,5.33716347,7.16840198,8.62644750,2669,3585,4315,1460,1906,2448,2.91948494,3.81146876,4.89420986,0.27247564,0.38317178,0.50071993
36033,0,USNewYorkFranklin,New York,Franklin,2021-01-05 15:03:13.754564,2020-12-17 00:00:00.000000,5.30944884,7.26601450,8.60994441,2655,3634,4306,1487,1935,2498,2.97280202,3.86977145,4.99465759,0.26721596,0.37338534,0.49645305
36033,0,USNewYorkFranklin,New York,Franklin,2021-01-05 15:03:13.754564,2020-12-18 00:00:00.000000,5.27200797,7.34777141,8.61042927,2637,3675,4307,1511,1957,2550,3.02235033,3.91330341,5.09926617,0.26692980,0.35578155,0.48537848
36033,0,USNewYorkFranklin,New York,Franklin,2021-01-05 15:03:13.754564,2020-12-19 00:00:00.000000,5.30596952,7.43194837,8.72422038,2654,3717,4364,1526,1966,2604,3.05233330,3.93173696,5.20705057,0.26676550,0.34754469,0.46991423
36033,0,USNewYorkFranklin,New York,Franklin,2021-01-05 15:03:13.754564,2020-12-20 00:00:00.000000,5.32566615,7.38855971,8.81008500,2664,3695,4406,1530,1974,2634,3.05903703,3.94814106,5.26571619,0.24538083,0.33886261,0.46492580
36033,0,USNewYorkFranklin,New York,Franklin,2021-01-05 15:03:13.754564,2020-12-21 00:00:00.000000,5.32029151,7.36225523,8.81781268,2661,3682,4410,1532,1986,2638,3.06359388,3.97134728,5.27508140,0.23909942,0.33499490,0.45431371
36033,0,USNewYorkFranklin,New York,Franklin,2021-01-05 15:03:13.754564,2020-12-22 00:00:00.000000,5.28004204,7.25947212,8.73455262,2641,3631,4369,1534,1990,2624,3.06854755,3.97999891,5.24607630,0.23665139,0.33292057,0.45123908
36033,0,USNewYorkFranklin,New York,Franklin,2021-01-05 15:03:13.754564,2020-12-23 00:00:00.000000,5.20963911,7.17347763,8.66553152,2605,3588,4334,1533,1984,2624,3.06502171,3.96775149,5.24703129,0.23661516,0.33123954,0.44932929
36033,0,USNewYorkFranklin,New York,Franklin,2021-01-05 15:03:13.754564,2020-12-24 00:00:00.000000,5.12167151,7.03905228,8.66854911,2561,3521,4336,1527,1962,2661,3.05436862,3.92378903,5.32097602,0.23248059,0.32787763,0.45196691
36033,0,USNewYorkFranklin,New York,Franklin,2021-01-05 15:03:13.754564,2020-12-25 00:00:00.000000,5.08036430,6.97778207,8.64334980,2541,3490,4323,1519,1937,2687,3.03693319,3.87293627,5.37233695,0.22519359,0.32567374,0.45223233
36033,0,USNewYorkFranklin,New York,Franklin,2021-01-05 15:03:13.754564,2020-12-26 00:00:00.000000,5.06213742,6.88813857,8.56869417,2532,3445,4286,1506,1901,2690,3.01263166,3.80096813,5.37825645,0.21254508,0.32418384,0.44769719
36033,0,USNewYorkFranklin,New York,Franklin,2021-01-05 15:03:13.754564,2020-12-27 00:00:00.000000,5.05149929,6.74328768,8.47002547,2526,3373,4236,1491,1874,2683,2.98165793,3.74828300,5.36458464,0.20033370,0.31815445,0.44627254
36033,0,USNewYorkFranklin,New York,Franklin,2021-01-05 15:03:13.754564,2020-12-28 00:00:00.000000,4.89659424,6.61990498,8.42351905,2449,3311,4213,1459,1849,2668,2.91860599,3.69663011,5.33563290,0.19979103,0.30942603,0.45344517
36033,0,USNewYorkFranklin,New York,Franklin,2021-01-05 15:03:13.754564,2020-12-29 00:00:00.000000,4.68896341,6.47887473,8.46123517,2345,3240,4232,1407,1803,2648,2.81396370,3.60536231,5.29444016,0.19956276,0.30230081,0.47488369
36033,0,USNewYorkFranklin,New York,Franklin,2021-01-05 15:03:13.754564,2020-12-30 00:00:00.000000,4.66589956,6.32621765,8.50083882,2333,3164,4252,1341,1786,2623,2.68171530,3.57194709,5.24405702,0.19624055,0.29945930,0.48141671
36033,0,USNewYorkFranklin,New York,Franklin,2021-01-05 15:03:13.754564,2020-12-31 00:00:00.000000,4.58412427,6.16514243,8.32682239,2293,3083,4165,1307,1749,2593,2.61394654,3.49820114,5.18563790,0.19531552,0.29846039,0.48849803
36033,0,USNewYorkFranklin,New York,Franklin,2021-01-05 15:03:13.754564,2021-01-01 00:00:00.000000,4.34487250,6.01217870,8.12276613,2173,3007,4063,1253,1720,2547,2.50662931,3.43904897,5.09197716,0.19428593,0.30117045,0.45607738
36033,0,USNewYorkFranklin,New York,Franklin,2021-01-05 15:03:13.754564,2021-01-02 00:00:00.000000,4.16193832,5.90270053,7.96040416,2081,2952,3981,1220,1677,2490,2.43960262,3.35414023,4.97885758,0.18991537,0.30321172,0.45159329
36033,0,USNewYorkFranklin,New York,Franklin,2021-01-05 15:03:13.754564,2021-01-03 00:00:00.000000,3.95416845,5.70974064,7.95340083,1977,2856,3978,1187,1650,2433,2.37384121,3.30038289,4.86391506,0.18186298,0.30527060,0.45105702
36033,0,USNewYorkFranklin,New York,Franklin,2021-01-05 15:03:13.754564,2021-01-04 00:00:00.000000,3.75745263,5.54701755,7.71383266,1879,2774,3858,1143,1613,2403,2.28547293,3.22484320,4.80546888,0.17720342,0.30892456,0.45162407
36033,0,USNewYorkFranklin,New York,Franklin,2021-01-05 15:03:13.754564,2021-01-05 00:00:00.000000,3.57057639,5.39556966,7.55779104,1786,2698,3780,1095,1600,2421,2.18904142,3.20030103,4.84181301,0.17444352,0.30992309,0.45078983
36033,0,USNewYorkFranklin,New York,Franklin,2021-01-05 15:03:13.754564,2021-01-06 00:00:00.000000,3.39272250,5.24267543,7.50548896,1697,2622,3754,1040,1596,2382,2.07909543,3.19085934,4.76200857,0.17308017,0.31101202,0.45118465
36033,0,USNewYorkFranklin,New York,Franklin,2021-01-05 15:03:13.754564,2021-01-07 00:00:00.000000,3.22328405,5.13588563,7.44815463,1612,2569,3725,984,1544,2345,1.96907102,3.08726754,4.68805174,0.17248549,0.31179923,0.45142475
36033,0,USNewYorkFranklin,New York,Franklin,2021-01-05 15:03:13.754564,2021-01-08 00:00:00.000000,3.06178444,5.13039347,7.38613530,1531,2566,3694,932,1513,2306,1.86456436,3.02486374,4.61000602,0.17221514,0.31178816,0.45156041
36033,0,USNewYorkFranklin,New York,Franklin,2021-01-05 15:03:13.754564,2021-01-09 00:00:00.000000,2.90782847,5.02176445,7.31969605,1454,2511,3661,883,1473,2266,1.76529637,2.94639246,4.53010713,0.17209400,0.31178714,0.45163389
36033,0,USNewYorkFranklin,New York,Franklin,2021-01-05 15:03:13.754564,2021-01-10 00:00:00.000000,2.76107233,4.92061365,7.24906616,1381,2461,3626,835,1448,2225,1.67101605,2.89622609,4.44876592,0.17204008,0.31178713,0.45167280
36033,0,USNewYorkFranklin,New York,Franklin,2021-01-05 15:03:13.754564,2021-01-11 00:00:00.000000,2.62120539,4.81424993,7.17445933,1311,2408,3588,791,1418,2184,1.58149155,2.83493709,4.36642355,0.17201615,0.31178718,0.45169314
36033,0,USNewYorkFranklin,New York,Franklin,2021-01-05 15:03:13.754564,2021-01-12 00:00:00.000000,2.48793914,4.70959254,7.20772490,1244,2355,3605,748,1375,2163,1.49650483,2.75039741,4.32564849,0.17200554,0.31178720,0.45170371
36033,0,USNewYorkFranklin,New York,Franklin,2021-01-05 15:03:13.754564,2021-01-13 00:00:00.000000,2.36100060,4.62310758,7.24109428,1181,2312,3622,708,1339,2167,1.41584859,2.67715948,4.33286649,0.17200084,0.31178721,0.45170919
36033,0,USNewYorkFranklin,New York,Franklin,2021-01-05 15:03:13.754564,2021-01-14 00:00:00.000000,2.24012846,4.54157238,7.27005066,1120,2271,3636,669,1325,2179,1.33932439,2.64886830,4.35761252,0.17199876,0.31178722,0.45171202
36033,0,USNewYorkFranklin,New York,Franklin,2021-01-05 15:03:13.754564,2021-01-15 00:00:00.000000,2.12507078,4.43703491,7.29450713,1063,2219,3648,633,1290,2190,1.26674164,2.58066686,4.37923161,0.17199784,0.31178722,0.45171348
36033,0,USNewYorkFranklin,New York,Franklin,2021-01-05 15:03:13.754564,2021-01-16 00:00:00.000000,2.01558377,4.33793948,7.31439481,1008,2169,3658,599,1252,2200,1.19791694,2.50367732,4.39824659,0.17199743,0.31178722,0.45171424
36033,0,USNewYorkFranklin,New York,Franklin,2021-01-05 15:03:13.754564,2021-01-17 00:00:00.000000,1.91143113,4.24010984,7.32966109,956,2120,3666,566,1219,2208,1.13267376,2.43774060,4.41467983,0.17199725,0.31178722,0.45171463
