FIPS,HR_UID,nameid,province,region,analysisTime,dates,pointprevalence_025,pointprevalence_50,pointprevalence_975,pointinfections_025,pointinfections_50,pointinfections_975,pointinfectious_025,pointinfectious_50,pointinfectious_975,pointinfectiousprevalence_05,pointinfectiousprevalence_50,pointinfectiousprevalence_95,infectrate_025,infectrate_50,infectrate_975
39167,0,USOhioWashington,Ohio,Washington,2021-01-05 13:01:32.703103,2020-03-09 00:00:00.000000,0.00562626,0.01467497,0.03924595,3,8,23,1,4,11,0.00271580,0.00737257,0.01907958,0.56309453,0.70294930,0.86226493
39167,0,USOhioWashington,Ohio,Washington,2021-01-05 13:01:32.703103,2020-03-10 00:00:00.000000,0.00692223,0.01718828,0.04482858,4,10,26,1,4,11,0.00278499,0.00789313,0.01957094,0.56309298,0.70294930,0.86226462
39167,0,USOhioWashington,Ohio,Washington,2021-01-05 13:01:32.703103,2020-03-11 00:00:00.000000,0.00754163,0.01956383,0.05064108,4,11,30,1,5,12,0.00295129,0.00883982,0.02139211,0.56308987,0.70294928,0.86226380
39167,0,USOhioWashington,Ohio,Washington,2021-01-05 13:01:32.703103,2020-03-12 00:00:00.000000,0.00838625,0.02206768,0.05682745,5,13,34,2,5,14,0.00341939,0.00971502,0.02371268,0.56308364,0.70294920,0.86226164
39167,0,USOhioWashington,Ohio,Washington,2021-01-05 13:01:32.703103,2020-03-13 00:00:00.000000,0.00976685,0.02485947,0.06350095,5,14,38,2,6,15,0.00382543,0.01104001,0.02643251,0.56307099,0.70294890,0.86225597
39167,0,USOhioWashington,Ohio,Washington,2021-01-05 13:01:32.703103,2020-03-14 00:00:00.000000,0.01124616,0.02781663,0.07075964,6,16,42,2,7,17,0.00408464,0.01241356,0.02950748,0.56304492,0.70294747,0.86224110
39167,0,USOhioWashington,Ohio,Washington,2021-01-05 13:01:32.703103,2020-03-15 00:00:00.000000,0.01219691,0.03075723,0.07869548,7,18,47,2,8,19,0.00462205,0.01420425,0.03289464,0.56298973,0.70178627,0.86220241
39167,0,USOhioWashington,Ohio,Washington,2021-01-05 13:01:32.703103,2020-03-16 00:00:00.000000,0.01788869,0.03900215,0.09256229,10,23,55,3,9,21,0.00527280,0.01559231,0.03601168,0.56286798,0.70156861,0.86210329
39167,0,USOhioWashington,Ohio,Washington,2021-01-05 13:01:32.703103,2020-03-17 00:00:00.000000,0.02180034,0.04848214,0.10712776,13,29,64,4,11,24,0.00705722,0.01858042,0.04074957,0.55738550,0.69967927,0.86184925
39167,0,USOhioWashington,Ohio,Washington,2021-01-05 13:01:32.703103,2020-03-18 00:00:00.000000,0.02597945,0.05633173,0.12297222,15,33,73,5,12,27,0.00862001,0.02160188,0.04664533,0.54704780,0.69521230,0.85890759
39167,0,USOhioWashington,Ohio,Washington,2021-01-05 13:01:32.703103,2020-03-19 00:00:00.000000,0.03063638,0.06505441,0.14022620,18,38,84,5,15,32,0.00976877,0.02617090,0.05347938,0.53615307,0.67771067,0.83979873
39167,0,USOhioWashington,Ohio,Washington,2021-01-05 13:01:32.703103,2020-03-20 00:00:00.000000,0.03585087,0.07541516,0.15897434,21,45,95,6,18,36,0.01105373,0.03072099,0.06111755,0.51969435,0.66863179,0.83535295
39167,0,USOhioWashington,Ohio,Washington,2021-01-05 13:01:32.703103,2020-03-21 00:00:00.000000,0.04171069,0.08664110,0.17953772,24,51,107,7,21,41,0.01325530,0.03577941,0.06956896,0.50687329,0.64787623,0.82251678
39167,0,USOhioWashington,Ohio,Washington,2021-01-05 13:01:32.703103,2020-03-22 00:00:00.000000,0.04636294,0.10048172,0.19999634,27,60,119,9,24,47,0.01576591,0.04158586,0.07995970,0.49662927,0.62634432,0.79579577
39167,0,USOhioWashington,Ohio,Washington,2021-01-05 13:01:32.703103,2020-03-23 00:00:00.000000,0.05810142,0.11497770,0.21685513,34,68,129,10,28,55,0.01799685,0.04759936,0.09247456,0.48868565,0.61476504,0.78806955
39167,0,USOhioWashington,Ohio,Washington,2021-01-05 13:01:32.703103,2020-03-24 00:00:00.000000,0.06700996,0.12962350,0.23524267,40,77,140,12,32,63,0.02106500,0.05460881,0.10610019,0.46253435,0.59678154,0.78113208
39167,0,USOhioWashington,Ohio,Washington,2021-01-05 13:01:32.703103,2020-03-25 00:00:00.000000,0.07521620,0.14810300,0.25502638,45,88,152,15,37,71,0.02503875,0.06272976,0.11941527,0.44535134,0.59132561,0.76653879
39167,0,USOhioWashington,Ohio,Washington,2021-01-05 13:01:32.703103,2020-03-26 00:00:00.000000,0.08620953,0.16956013,0.27622508,51,101,165,17,42,78,0.02935963,0.07169038,0.13122943,0.43699499,0.58253423,0.75266097
39167,0,USOhioWashington,Ohio,Washington,2021-01-05 13:01:32.703103,2020-03-27 00:00:00.000000,0.10056550,0.18993782,0.29884950,60,113,179,20,49,85,0.03404619,0.08216897,0.14255387,0.43510688,0.56717029,0.73545527
39167,0,USOhioWashington,Ohio,Washington,2021-01-05 13:01:32.703103,2020-03-28 00:00:00.000000,0.11602714,0.21031095,0.32272094,69,125,193,24,54,92,0.04033468,0.09110796,0.15460935,0.42660478,0.53518598,0.74128184
39167,0,USOhioWashington,Ohio,Washington,2021-01-05 13:01:32.703103,2020-03-29 00:00:00.000000,0.12989448,0.22880416,0.35530865,77,137,212,27,60,103,0.04660994,0.10130985,0.17202354,0.39307301,0.51242473,0.71171083
39167,0,USOhioWashington,Ohio,Washington,2021-01-05 13:01:32.703103,2020-03-30 00:00:00.000000,0.14308204,0.25300016,0.37936744,85,151,227,31,67,113,0.05308500,0.11222993,0.18941808,0.37474090,0.50242666,0.71135636
39167,0,USOhioWashington,Ohio,Washington,2021-01-05 13:01:32.703103,2020-03-31 00:00:00.000000,0.15687449,0.27255964,0.40445820,93,163,242,35,73,121,0.05999785,0.12276942,0.20332840,0.36251076,0.48144319,0.71114829
39167,0,USOhioWashington,Ohio,Washington,2021-01-05 13:01:32.703103,2020-04-01 00:00:00.000000,0.17164818,0.29523782,0.43021924,102,176,257,40,79,130,0.06733297,0.13299171,0.21751833,0.34790587,0.46883462,0.71071105
39167,0,USOhioWashington,Ohio,Washington,2021-01-05 13:01:32.703103,2020-04-02 00:00:00.000000,0.18427837,0.31582403,0.45468226,110,189,272,44,85,138,0.07487886,0.14269496,0.23194513,0.33951968,0.44697743,0.70880829
39167,0,USOhioWashington,Ohio,Washington,2021-01-05 13:01:32.703103,2020-04-03 00:00:00.000000,0.19665953,0.33538805,0.47515385,117,200,284,48,92,146,0.08167719,0.15440203,0.24533375,0.30405095,0.42311104,0.69794415
39167,0,USOhioWashington,Ohio,Washington,2021-01-05 13:01:32.703103,2020-04-04 00:00:00.000000,0.20866643,0.35356309,0.50019591,125,211,299,52,99,154,0.08727534,0.16677216,0.25718719,0.27289241,0.39548677,0.64758143
39167,0,USOhioWashington,Ohio,Washington,2021-01-05 13:01:32.703103,2020-04-05 00:00:00.000000,0.22078973,0.37586646,0.52596710,132,225,315,55,108,164,0.09254943,0.18039133,0.27527184,0.26065017,0.38177051,0.58233601
39167,0,USOhioWashington,Ohio,Washington,2021-01-05 13:01:32.703103,2020-04-06 00:00:00.000000,0.22917551,0.39078024,0.55163812,137,234,330,58,115,176,0.09739737,0.19278466,0.29410774,0.24647928,0.37161046,0.55621855
39167,0,USOhioWashington,Ohio,Washington,2021-01-05 13:01:32.703103,2020-04-07 00:00:00.000000,0.23786195,0.40711644,0.58257039,142,243,349,61,121,186,0.10318573,0.20204498,0.31076170,0.24329263,0.35338293,0.52454893
39167,0,USOhioWashington,Ohio,Washington,2021-01-05 13:01:32.703103,2020-04-08 00:00:00.000000,0.24728673,0.41553533,0.62054152,148,248,371,65,127,197,0.10958528,0.21206783,0.32927718,0.24123324,0.33792579,0.52164324
39167,0,USOhioWashington,Ohio,Washington,2021-01-05 13:01:32.703103,2020-04-09 00:00:00.000000,0.26105662,0.42500775,0.66387853,156,254,397,69,132,210,0.11633328,0.22108776,0.35077300,0.23194326,0.32574532,0.51910954
39167,0,USOhioWashington,Ohio,Washington,2021-01-05 13:01:32.703103,2020-04-10 00:00:00.000000,0.27513023,0.43074155,0.69673695,164,258,417,73,136,218,0.12312174,0.22774940,0.36518515,0.21275466,0.30361656,0.49825022
39167,0,USOhioWashington,Ohio,Washington,2021-01-05 13:01:32.703103,2020-04-11 00:00:00.000000,0.28471837,0.44115223,0.70345016,170,264,421,77,138,225,0.12978361,0.23191242,0.37674849,0.18083515,0.28919759,0.47429484
39167,0,USOhioWashington,Ohio,Washington,2021-01-05 13:01:32.703103,2020-04-12 00:00:00.000000,0.28828297,0.44718384,0.70036218,172,267,419,81,145,241,0.13632821,0.24239175,0.40314509,0.16750240,0.27377736,0.43490042
39167,0,USOhioWashington,Ohio,Washington,2021-01-05 13:01:32.703103,2020-04-13 00:00:00.000000,0.28834519,0.45319937,0.70935305,172,271,424,85,148,254,0.14280506,0.24832401,0.42446086,0.15022495,0.25981387,0.38651974
39167,0,USOhioWashington,Ohio,Washington,2021-01-05 13:01:32.703103,2020-04-14 00:00:00.000000,0.28727657,0.45886356,0.71015638,172,274,425,88,150,261,0.14845742,0.25077939,0.43586776,0.14980056,0.24305874,0.37637686
39167,0,USOhioWashington,Ohio,Washington,2021-01-05 13:01:32.703103,2020-04-15 00:00:00.000000,0.28604498,0.45698866,0.70940307,171,273,425,89,152,266,0.14951152,0.25393359,0.44431061,0.15204447,0.23237928,0.36723113
39167,0,USOhioWashington,Ohio,Washington,2021-01-05 13:01:32.703103,2020-04-16 00:00:00.000000,0.29069017,0.45360478,0.70737615,174,271,423,89,154,269,0.14957444,0.25725713,0.45032579,0.13730963,0.22734803,0.35420286
39167,0,USOhioWashington,Ohio,Washington,2021-01-05 13:01:32.703103,2020-04-17 00:00:00.000000,0.29510517,0.44873379,0.70233350,176,268,420,88,153,272,0.14835597,0.25674593,0.45447642,0.13342099,0.22279314,0.34003077
39167,0,USOhioWashington,Ohio,Washington,2021-01-05 13:01:32.703103,2020-04-18 00:00:00.000000,0.29004698,0.44104381,0.69457106,173,264,416,87,152,273,0.14648352,0.25427594,0.45728699,0.13087046,0.20758851,0.32127199
39167,0,USOhioWashington,Ohio,Washington,2021-01-05 13:01:32.703103,2020-04-19 00:00:00.000000,0.27861364,0.43411738,0.70847906,166,260,424,86,152,275,0.14438805,0.25428516,0.45912817,0.12754578,0.20037573,0.30672686
39167,0,USOhioWashington,Ohio,Washington,2021-01-05 13:01:32.703103,2020-04-20 00:00:00.000000,0.27076371,0.42771027,0.72421701,162,256,433,85,152,275,0.14203010,0.25484119,0.46014508,0.12330760,0.18800592,0.28753016
39167,0,USOhioWashington,Ohio,Washington,2021-01-05 13:01:32.703103,2020-04-21 00:00:00.000000,0.26921111,0.42080410,0.71612366,161,252,429,83,151,274,0.13989687,0.25313104,0.45830452,0.11783123,0.17991908,0.28067502
39167,0,USOhioWashington,Ohio,Washington,2021-01-05 13:01:32.703103,2020-04-22 00:00:00.000000,0.26776638,0.41100791,0.70133094,160,246,420,83,148,270,0.13910578,0.24851200,0.45129289,0.11112815,0.16993975,0.27252539
39167,0,USOhioWashington,Ohio,Washington,2021-01-05 13:01:32.703103,2020-04-23 00:00:00.000000,0.26590290,0.40422873,0.68109132,159,242,408,84,146,270,0.14067127,0.24502522,0.45116306,0.10354808,0.16342395,0.27137164
39167,0,USOhioWashington,Ohio,Washington,2021-01-05 13:01:32.703103,2020-04-24 00:00:00.000000,0.26071004,0.39493746,0.65825008,156,236,394,83,143,265,0.13908513,0.23988948,0.44250573,0.09234428,0.15697276,0.26572582
39167,0,USOhioWashington,Ohio,Washington,2021-01-05 13:01:32.703103,2020-04-25 00:00:00.000000,0.25382948,0.38482207,0.64787676,152,230,388,80,139,258,0.13384619,0.23323502,0.43126042,0.07945847,0.15031556,0.25384576
39167,0,USOhioWashington,Ohio,Washington,2021-01-05 13:01:32.703103,2020-04-26 00:00:00.000000,0.24301112,0.37645046,0.65271683,145,225,391,77,134,250,0.12880432,0.22509204,0.41797033,0.07305967,0.14144032,0.22849937
39167,0,USOhioWashington,Ohio,Washington,2021-01-05 13:01:32.703103,2020-04-27 00:00:00.000000,0.23080359,0.36447074,0.65715196,138,218,393,74,130,249,0.12452570,0.21770046,0.41713717,0.07013480,0.13543171,0.19977363
39167,0,USOhioWashington,Ohio,Washington,2021-01-05 13:01:32.703103,2020-04-28 00:00:00.000000,0.21906258,0.35315966,0.66072570,131,211,395,72,125,252,0.12054442,0.20973748,0.42141492,0.06890172,0.13291823,0.19234502
39167,0,USOhioWashington,Ohio,Washington,2021-01-05 13:01:32.703103,2020-04-29 00:00:00.000000,0.20780831,0.33974423,0.66146967,124,203,396,71,120,254,0.11957958,0.20155850,0.42510078,0.06835921,0.13156810,0.18755335
39167,0,USOhioWashington,Ohio,Washington,2021-01-05 13:01:32.703103,2020-04-30 00:00:00.000000,0.20019542,0.32551033,0.63765798,119,195,382,71,116,245,0.11870632,0.19376511,0.40930093,0.06790234,0.12978290,0.18434323
39167,0,USOhioWashington,Ohio,Washington,2021-01-05 13:01:32.703103,2020-05-01 00:00:00.000000,0.19709726,0.31501389,0.60778898,118,188,364,67,111,235,0.11330125,0.18673345,0.39306783,0.06643601,0.12533962,0.18058072
39167,0,USOhioWashington,Ohio,Washington,2021-01-05 13:01:32.703103,2020-05-02 00:00:00.000000,0.18613388,0.30906583,0.57755896,111,185,346,66,107,225,0.11076944,0.18019548,0.37645538,0.06159430,0.12406367,0.17569774
39167,0,USOhioWashington,Ohio,Washington,2021-01-05 13:01:32.703103,2020-05-03 00:00:00.000000,0.17304418,0.29681012,0.54760902,103,177,328,63,105,215,0.10623145,0.17554492,0.35952369,0.06020357,0.11929258,0.17012467
39167,0,USOhioWashington,Ohio,Washington,2021-01-05 13:01:32.703103,2020-05-04 00:00:00.000000,0.16579417,0.28511376,0.51739490,99,170,309,59,102,205,0.09927486,0.17181777,0.34245804,0.05934227,0.11509266,0.16522376
39167,0,USOhioWashington,Ohio,Washington,2021-01-05 13:01:32.703103,2020-05-05 00:00:00.000000,0.16129007,0.27185335,0.50232923,96,162,300,55,100,194,0.09269735,0.16710816,0.32525014,0.05856559,0.11355874,0.16254983
39167,0,USOhioWashington,Ohio,Washington,2021-01-05 13:01:32.703103,2020-05-06 00:00:00.000000,0.15303550,0.25926167,0.49871488,91,155,298,53,97,184,0.08973542,0.16191093,0.30820486,0.05789587,0.11249198,0.16041639
39167,0,USOhioWashington,Ohio,Washington,2021-01-05 13:01:32.703103,2020-05-07 00:00:00.000000,0.14538876,0.24843635,0.49504727,87,148,296,52,93,174,0.08730177,0.15553573,0.29153975,0.05734858,0.11032464,0.15996398
39167,0,USOhioWashington,Ohio,Washington,2021-01-05 13:01:32.703103,2020-05-08 00:00:00.000000,0.13636241,0.23807867,0.49105788,81,142,294,50,89,169,0.08507042,0.14976003,0.28214036,0.05413901,0.10951810,0.16083776
39167,0,USOhioWashington,Ohio,Washington,2021-01-05 13:01:32.703103,2020-05-09 00:00:00.000000,0.12737170,0.22681876,0.48642524,76,135,291,49,85,167,0.08223493,0.14209015,0.27980322,0.05438166,0.10846687,0.16237019
39167,0,USOhioWashington,Ohio,Washington,2021-01-05 13:01:32.703103,2020-05-10 00:00:00.000000,0.11881135,0.21856931,0.48100517,71,130,288,46,80,166,0.07734611,0.13383375,0.27737058,0.05465288,0.10588032,0.15978932
39167,0,USOhioWashington,Ohio,Washington,2021-01-05 13:01:32.703103,2020-05-11 00:00:00.000000,0.11147415,0.21037966,0.47047464,66,126,281,43,77,164,0.07285674,0.12884792,0.27472439,0.05455510,0.10360356,0.15609550
39167,0,USOhioWashington,Ohio,Washington,2021-01-05 13:01:32.703103,2020-05-12 00:00:00.000000,0.10477596,0.19975579,0.45962874,62,119,275,40,74,162,0.06831202,0.12498695,0.27098017,0.05465581,0.10254817,0.15380402
39167,0,USOhioWashington,Ohio,Washington,2021-01-05 13:01:32.703103,2020-05-13 00:00:00.000000,0.09863917,0.19056539,0.44863060,59,114,268,37,72,159,0.06336602,0.12083059,0.26642668,0.05607330,0.10080508,0.15430272
39167,0,USOhioWashington,Ohio,Washington,2021-01-05 13:01:32.703103,2020-05-14 00:00:00.000000,0.09442570,0.18267398,0.43763775,56,109,262,35,69,156,0.05874974,0.11543802,0.26131386,0.05684406,0.10001314,0.15557128
39167,0,USOhioWashington,Ohio,Washington,2021-01-05 13:01:32.703103,2020-05-15 00:00:00.000000,0.09201916,0.17341713,0.42668608,55,103,255,32,66,153,0.05436263,0.11026665,0.25583643,0.05620071,0.09721240,0.15879175
39167,0,USOhioWashington,Ohio,Washington,2021-01-05 13:01:32.703103,2020-05-16 00:00:00.000000,0.09003849,0.16707846,0.41574342,53,100,249,30,63,149,0.05057906,0.10562226,0.25012931,0.05552007,0.09622005,0.16575609
39167,0,USOhioWashington,Ohio,Washington,2021-01-05 13:01:32.703103,2020-05-17 00:00:00.000000,0.08787372,0.16037225,0.40479519,52,96,242,29,60,146,0.04928121,0.10159760,0.24427476,0.05499239,0.09609346,0.17055288
39167,0,USOhioWashington,Ohio,Washington,2021-01-05 13:01:32.703103,2020-05-18 00:00:00.000000,0.08308201,0.15517241,0.38921339,49,92,233,28,58,142,0.04758221,0.09703303,0.23832344,0.05469292,0.09489098,0.16988058
39167,0,USOhioWashington,Ohio,Washington,2021-01-05 13:01:32.703103,2020-05-19 00:00:00.000000,0.07869014,0.14914225,0.37381678,47,89,223,26,55,138,0.04445470,0.09293051,0.23144393,0.05459561,0.09425003,0.17036949
39167,0,USOhioWashington,Ohio,Washington,2021-01-05 13:01:32.703103,2020-05-20 00:00:00.000000,0.07334160,0.14397803,0.35866335,43,86,214,24,53,134,0.04166777,0.08878060,0.22379566,0.05466150,0.09413196,0.16749421
39167,0,USOhioWashington,Ohio,Washington,2021-01-05 13:01:32.703103,2020-05-21 00:00:00.000000,0.06885310,0.13800616,0.34356819,41,82,205,23,50,129,0.03919031,0.08507939,0.21577215,0.05488373,0.09459894,0.16739301
39167,0,USOhioWashington,Ohio,Washington,2021-01-05 13:01:32.703103,2020-05-22 00:00:00.000000,0.06660774,0.13200065,0.32901568,39,79,197,23,49,124,0.03910881,0.08204521,0.20759472,0.05529345,0.09450750,0.16720351
39167,0,USOhioWashington,Ohio,Washington,2021-01-05 13:01:32.703103,2020-05-23 00:00:00.000000,0.06463817,0.12672819,0.31413404,38,75,188,22,47,119,0.03810481,0.07982721,0.19942278,0.05595145,0.09332561,0.16679148
39167,0,USOhioWashington,Ohio,Washington,2021-01-05 13:01:32.703103,2020-05-24 00:00:00.000000,0.06182473,0.12196322,0.29322978,37,73,175,21,46,114,0.03582883,0.07678399,0.19137595,0.05563446,0.09419639,0.16592951
39167,0,USOhioWashington,Ohio,Washington,2021-01-05 13:01:32.703103,2020-05-25 00:00:00.000000,0.05997317,0.11723683,0.27715441,35,70,166,20,44,109,0.03375552,0.07348168,0.18353963,0.05438502,0.09525388,0.16549950
39167,0,USOhioWashington,Ohio,Washington,2021-01-05 13:01:32.703103,2020-05-26 00:00:00.000000,0.05707662,0.11301598,0.26229730,34,67,157,19,43,105,0.03210935,0.07183096,0.17619904,0.05363643,0.09495899,0.16831321
39167,0,USOhioWashington,Ohio,Washington,2021-01-05 13:01:32.703103,2020-05-27 00:00:00.000000,0.05512756,0.10828486,0.24867631,33,64,148,18,41,101,0.03077079,0.06856656,0.16932485,0.05241791,0.09496736,0.16727400
39167,0,USOhioWashington,Ohio,Washington,2021-01-05 13:01:32.703103,2020-05-28 00:00:00.000000,0.05181057,0.10407555,0.23615037,31,62,141,17,39,97,0.02965004,0.06559823,0.16289378,0.05046540,0.09573846,0.17070946
39167,0,USOhioWashington,Ohio,Washington,2021-01-05 13:01:32.703103,2020-05-29 00:00:00.000000,0.04957223,0.10076952,0.22461914,29,60,134,17,37,92,0.02867670,0.06258401,0.15463955,0.04842088,0.09690277,0.17826961
39167,0,USOhioWashington,Ohio,Washington,2021-01-05 13:01:32.703103,2020-05-30 00:00:00.000000,0.04752166,0.10029289,0.21400347,28,60,128,16,36,87,0.02778535,0.06129197,0.14673131,0.04709154,0.09843294,0.18494279
39167,0,USOhioWashington,Ohio,Washington,2021-01-05 13:01:32.703103,2020-05-31 00:00:00.000000,0.04560883,0.09882530,0.20423445,27,59,122,16,36,83,0.02692816,0.06098371,0.13947486,0.04647486,0.09839336,0.18670389
39167,0,USOhioWashington,Ohio,Washington,2021-01-05 13:01:32.703103,2020-06-01 00:00:00.000000,0.04406561,0.09608169,0.19740972,26,57,118,15,35,80,0.02609429,0.05942396,0.13406200,0.04620062,0.09944236,0.18337846
39167,0,USOhioWashington,Ohio,Washington,2021-01-05 13:01:32.703103,2020-06-02 00:00:00.000000,0.04263308,0.09364976,0.19444824,25,56,116,14,34,78,0.02467155,0.05822628,0.13037912,0.04610566,0.10070171,0.18099699
39167,0,USOhioWashington,Ohio,Washington,2021-01-05 13:01:32.703103,2020-06-03 00:00:00.000000,0.03958838,0.09196681,0.19146294,23,55,114,13,34,76,0.02288757,0.05714142,0.12711479,0.04611030,0.09859155,0.17973711
39167,0,USOhioWashington,Ohio,Washington,2021-01-05 13:01:32.703103,2020-06-04 00:00:00.000000,0.03740169,0.09136384,0.18800047,22,54,112,12,33,74,0.02125206,0.05654915,0.12418737,0.04613955,0.10076555,0.17921722
39167,0,USOhioWashington,Ohio,Washington,2021-01-05 13:01:32.703103,2020-06-05 00:00:00.000000,0.03711232,0.09072856,0.18396466,22,54,110,12,33,72,0.02045541,0.05589117,0.12155901,0.04646529,0.10208927,0.17910091
39167,0,USOhioWashington,Ohio,Washington,2021-01-05 13:01:32.703103,2020-06-06 00:00:00.000000,0.03685798,0.09049916,0.19306816,22,54,115,11,32,71,0.01969377,0.05469697,0.11922163,0.04724682,0.10146498,0.17288329
39167,0,USOhioWashington,Ohio,Washington,2021-01-05 13:01:32.703103,2020-06-07 00:00:00.000000,0.03619571,0.08908638,0.20305943,21,53,121,10,32,70,0.01834285,0.05352365,0.11717098,0.04787294,0.10249971,0.18017637
39167,0,USOhioWashington,Ohio,Washington,2021-01-05 13:01:32.703103,2020-06-08 00:00:00.000000,0.03555545,0.08612710,0.19983052,21,51,119,10,31,69,0.01819210,0.05317578,0.11537842,0.04842047,0.10574864,0.18486476
39167,0,USOhioWashington,Ohio,Washington,2021-01-05 13:01:32.703103,2020-06-09 00:00:00.000000,0.03515907,0.08397005,0.19633908,21,50,117,10,31,68,0.01787974,0.05182393,0.11408201,0.05002759,0.10410184,0.18589835
39167,0,USOhioWashington,Ohio,Washington,2021-01-05 13:01:32.703103,2020-06-10 00:00:00.000000,0.03848329,0.08281927,0.19238616,23,49,115,11,30,67,0.01841674,0.05091059,0.11309373,0.05049177,0.10420594,0.18844642
39167,0,USOhioWashington,Ohio,Washington,2021-01-05 13:01:32.703103,2020-06-11 00:00:00.000000,0.04180405,0.08111429,0.18812163,25,48,112,11,29,67,0.02000440,0.04949609,0.11227308,0.05257991,0.10312711,0.18728546
39167,0,USOhioWashington,Ohio,Washington,2021-01-05 13:01:32.703103,2020-06-12 00:00:00.000000,0.04388300,0.08299913,0.18357870,26,49,109,13,28,66,0.02175181,0.04819390,0.11153729,0.05419864,0.10382383,0.18960356
39167,0,USOhioWashington,Ohio,Washington,2021-01-05 13:01:32.703103,2020-06-13 00:00:00.000000,0.04287960,0.08304201,0.17871506,25,49,107,14,28,66,0.02350953,0.04686437,0.11025212,0.05470673,0.10399140,0.18601265
39167,0,USOhioWashington,Ohio,Washington,2021-01-05 13:01:32.703103,2020-06-14 00:00:00.000000,0.04165289,0.08407969,0.17355777,24,50,103,14,27,64,0.02471426,0.04660353,0.10798551,0.05485553,0.10426763,0.18644123
39167,0,USOhioWashington,Ohio,Washington,2021-01-05 13:01:32.703103,2020-06-15 00:00:00.000000,0.04060882,0.08433578,0.16858758,24,50,101,14,28,63,0.02401000,0.04794881,0.10578240,0.05082788,0.10806578,0.18642842
39167,0,USOhioWashington,Ohio,Washington,2021-01-05 13:01:32.703103,2020-06-16 00:00:00.000000,0.03964951,0.08595083,0.16364659,23,51,98,13,29,61,0.02335446,0.04846779,0.10324325,0.04725232,0.11198412,0.19082979
39167,0,USOhioWashington,Ohio,Washington,2021-01-05 13:01:32.703103,2020-06-17 00:00:00.000000,0.03877398,0.08556748,0.15882393,23,51,95,13,29,60,0.02274631,0.04875308,0.10049804,0.04634645,0.11407794,0.19559842
39167,0,USOhioWashington,Ohio,Washington,2021-01-05 13:01:32.703103,2020-06-18 00:00:00.000000,0.03936908,0.08577829,0.15415895,23,51,92,13,28,58,0.02218404,0.04834723,0.09764364,0.04632550,0.11812543,0.20114909
39167,0,USOhioWashington,Ohio,Washington,2021-01-05 13:01:32.703103,2020-06-19 00:00:00.000000,0.03843363,0.08671581,0.14964978,23,51,89,12,28,56,0.02166608,0.04774186,0.09475415,0.04657925,0.11932686,0.19612547
39167,0,USOhioWashington,Ohio,Washington,2021-01-05 13:01:32.703103,2020-06-20 00:00:00.000000,0.03755634,0.08666376,0.15037815,22,51,90,12,28,55,0.02119120,0.04797175,0.09188743,0.04703872,0.11944776,0.20478669
39167,0,USOhioWashington,Ohio,Washington,2021-01-05 13:01:32.703103,2020-06-21 00:00:00.000000,0.03703336,0.08672865,0.15584116,22,51,93,12,29,53,0.02091530,0.04894289,0.08952892,0.04781626,0.11974832,0.20848041
39167,0,USOhioWashington,Ohio,Washington,2021-01-05 13:01:32.703103,2020-06-22 00:00:00.000000,0.03865941,0.08718391,0.16390740,23,52,98,12,29,57,0.02160040,0.04967288,0.09534383,0.04917793,0.12173342,0.20961337
39167,0,USOhioWashington,Ohio,Washington,2021-01-05 13:01:32.703103,2020-06-23 00:00:00.000000,0.03962764,0.08679269,0.16789721,23,51,100,12,30,55,0.02161987,0.05008849,0.09300413,0.05149853,0.12105935,0.21007829
39167,0,USOhioWashington,Ohio,Washington,2021-01-05 13:01:32.703103,2020-06-24 00:00:00.000000,0.04168214,0.08945031,0.16954711,24,53,101,13,30,59,0.02195144,0.05064046,0.09877493,0.05283683,0.12228670,0.21054001
39167,0,USOhioWashington,Ohio,Washington,2021-01-05 13:01:32.703103,2020-06-25 00:00:00.000000,0.04287874,0.09140375,0.17077144,25,54,102,13,30,58,0.02210894,0.05086974,0.09710574,0.05082091,0.12388657,0.21126247
39167,0,USOhioWashington,Ohio,Washington,2021-01-05 13:01:32.703103,2020-06-26 00:00:00.000000,0.04245455,0.09262237,0.17172692,25,55,102,13,30,57,0.02290763,0.05103074,0.09514991,0.04870145,0.12506710,0.21233502
39167,0,USOhioWashington,Ohio,Washington,2021-01-05 13:01:32.703103,2020-06-27 00:00:00.000000,0.04255281,0.09570369,0.18059329,25,57,108,13,30,57,0.02323087,0.05048881,0.09523134,0.04772936,0.12561970,0.21363559
39167,0,USOhioWashington,Ohio,Washington,2021-01-05 13:01:32.703103,2020-06-28 00:00:00.000000,0.04175809,0.09477936,0.19040770,25,56,114,13,30,57,0.02335835,0.05037069,0.09608231,0.05000883,0.12506070,0.21484290
39167,0,USOhioWashington,Ohio,Washington,2021-01-05 13:01:32.703103,2020-06-29 00:00:00.000000,0.04320526,0.09506096,0.19304548,25,56,115,14,30,60,0.02383050,0.05043409,0.10143222,0.05660612,0.12556432,0.21581402
39167,0,USOhioWashington,Ohio,Washington,2021-01-05 13:01:32.703103,2020-06-30 00:00:00.000000,0.04410445,0.09731783,0.19570516,26,58,117,14,31,63,0.02371804,0.05194342,0.10560088,0.06357130,0.12669543,0.21592779
39167,0,USOhioWashington,Ohio,Washington,2021-01-05 13:01:32.703103,2020-07-01 00:00:00.000000,0.04422060,0.10250557,0.19671443,26,61,117,14,32,65,0.02360791,0.05404306,0.10890169,0.06304906,0.13009404,0.21448976
39167,0,USOhioWashington,Ohio,Washington,2021-01-05 13:01:32.703103,2020-07-02 00:00:00.000000,0.04434293,0.10424904,0.18978041,26,62,113,14,33,66,0.02386110,0.05613368,0.11160242,0.06304186,0.13099302,0.21543653
39167,0,USOhioWashington,Ohio,Washington,2021-01-05 13:01:32.703103,2020-07-03 00:00:00.000000,0.04538493,0.10537274,0.18278678,27,63,109,14,34,68,0.02430669,0.05742072,0.11388316,0.06196731,0.13257989,0.21572611
39167,0,USOhioWashington,Ohio,Washington,2021-01-05 13:01:32.703103,2020-07-04 00:00:00.000000,0.04467502,0.10640671,0.19406715,26,63,116,14,35,69,0.02438182,0.05857763,0.11586264,0.05754214,0.13730926,0.22157779
39167,0,USOhioWashington,Ohio,Washington,2021-01-05 13:01:32.703103,2020-07-05 00:00:00.000000,0.04489016,0.11042892,0.20718239,26,66,124,14,35,68,0.02448453,0.05989791,0.11388131,0.05556561,0.13779806,0.22495483
39167,0,USOhioWashington,Ohio,Washington,2021-01-05 13:01:32.703103,2020-07-06 00:00:00.000000,0.04908692,0.11147549,0.20876951,29,66,125,14,36,66,0.02462498,0.06120923,0.11029406,0.05876994,0.13871843,0.22203305
39167,0,USOhioWashington,Ohio,Washington,2021-01-05 13:01:32.703103,2020-07-07 00:00:00.000000,0.04992861,0.10887450,0.20999879,29,65,125,15,37,69,0.02527831,0.06249869,0.11562140,0.06196894,0.13723678,0.22170202
39167,0,USOhioWashington,Ohio,Washington,2021-01-05 13:01:32.703103,2020-07-08 00:00:00.000000,0.05084288,0.11145437,0.21059067,30,66,126,15,38,71,0.02553571,0.06356016,0.11896911,0.06534771,0.13941536,0.22210610
39167,0,USOhioWashington,Ohio,Washington,2021-01-05 13:01:32.703103,2020-07-09 00:00:00.000000,0.05177407,0.11763048,0.21088234,31,70,126,15,38,71,0.02589032,0.06392154,0.11876690,0.06891627,0.13708095,0.22625456
39167,0,USOhioWashington,Ohio,Washington,2021-01-05 13:01:32.703103,2020-07-10 00:00:00.000000,0.05269057,0.11943652,0.21097742,31,71,126,15,38,70,0.02636904,0.06379193,0.11849631,0.07234845,0.14188361,0.22632145
39167,0,USOhioWashington,Ohio,Washington,2021-01-05 13:01:32.703103,2020-07-11 00:00:00.000000,0.05359796,0.12051025,0.21100482,32,72,126,16,38,70,0.02699881,0.06362113,0.11824486,0.07263895,0.14434058,0.22608151
39167,0,USOhioWashington,Ohio,Washington,2021-01-05 13:01:32.703103,2020-07-12 00:00:00.000000,0.05475165,0.12039169,0.21116580,32,72,126,16,38,70,0.02766917,0.06485495,0.11829724,0.07011222,0.14518533,0.22499359
39167,0,USOhioWashington,Ohio,Washington,2021-01-05 13:01:32.703103,2020-07-13 00:00:00.000000,0.05710135,0.12362080,0.20922669,34,74,125,16,39,72,0.02834243,0.06645704,0.12165761,0.06822997,0.14788463,0.22883632
39167,0,USOhioWashington,Ohio,Washington,2021-01-05 13:01:32.703103,2020-07-14 00:00:00.000000,0.05949600,0.12500859,0.20737580,35,74,124,17,39,73,0.02907457,0.06667413,0.12326059,0.06681696,0.14851523,0.24103056
39167,0,USOhioWashington,Ohio,Washington,2021-01-05 13:01:32.703103,2020-07-15 00:00:00.000000,0.06189902,0.12488089,0.20549884,37,74,123,17,40,74,0.02982102,0.06704755,0.12369690,0.06519524,0.14748859,0.23898768
39167,0,USOhioWashington,Ohio,Washington,2021-01-05 13:01:32.703103,2020-07-16 00:00:00.000000,0.06435803,0.12674300,0.20641920,38,75,123,18,40,73,0.03081505,0.06809600,0.12336973,0.06279030,0.14859319,0.24470823
39167,0,USOhioWashington,Ohio,Washington,2021-01-05 13:01:32.703103,2020-07-17 00:00:00.000000,0.06739510,0.12714419,0.21053312,40,76,126,19,41,73,0.03202730,0.06941025,0.12258645,0.06288329,0.14889493,0.25180562
39167,0,USOhioWashington,Ohio,Washington,2021-01-05 13:01:32.703103,2020-07-18 00:00:00.000000,0.06921688,0.12763517,0.21127534,41,76,126,20,41,72,0.03341307,0.06991309,0.12161084,0.06319028,0.14667131,0.26021968
39167,0,USOhioWashington,Ohio,Washington,2021-01-05 13:01:32.703103,2020-07-19 00:00:00.000000,0.07040798,0.12927665,0.20846793,42,77,124,20,41,72,0.03495993,0.07004117,0.12055711,0.06389887,0.14429766,0.27061400
39167,0,USOhioWashington,Ohio,Washington,2021-01-05 13:01:32.703103,2020-07-20 00:00:00.000000,0.06900574,0.12962889,0.20788567,41,77,124,21,42,73,0.03658849,0.07161397,0.12196542,0.06551643,0.14389036,0.27088639
39167,0,USOhioWashington,Ohio,Washington,2021-01-05 13:01:32.703103,2020-07-21 00:00:00.000000,0.06754065,0.12875857,0.21158671,40,77,126,22,42,73,0.03760472,0.07131067,0.12267911,0.06834655,0.14241993,0.27089090
39167,0,USOhioWashington,Ohio,Washington,2021-01-05 13:01:32.703103,2020-07-22 00:00:00.000000,0.06713981,0.12591611,0.21809131,40,75,130,22,42,74,0.03802107,0.07155351,0.12448825,0.07163325,0.14054759,0.27081247
39167,0,USOhioWashington,Ohio,Washington,2021-01-05 13:01:32.703103,2020-07-23 00:00:00.000000,0.06517487,0.12474249,0.22482411,39,74,134,22,42,76,0.03731895,0.07140666,0.12701701,0.07426226,0.13859394,0.26939227
39167,0,USOhioWashington,Ohio,Washington,2021-01-05 13:01:32.703103,2020-07-24 00:00:00.000000,0.06336017,0.12324033,0.23171492,37,73,138,23,42,77,0.03862949,0.07042758,0.13006592,0.07443568,0.13820154,0.27094172
39167,0,USOhioWashington,Ohio,Washington,2021-01-05 13:01:32.703103,2020-07-25 00:00:00.000000,0.06174267,0.12129771,0.23863666,36,72,142,23,41,79,0.03865219,0.06993581,0.13349121,0.07467657,0.14027424,0.27955931
39167,0,USOhioWashington,Ohio,Washington,2021-01-05 13:01:32.703103,2020-07-26 00:00:00.000000,0.06033388,0.11952723,0.24548239,36,71,147,22,42,82,0.03767448,0.07018062,0.13717254,0.07495381,0.13918873,0.28933531
39167,0,USOhioWashington,Ohio,Washington,2021-01-05 13:01:32.703103,2020-07-27 00:00:00.000000,0.05949135,0.11860579,0.24474632,35,71,146,21,42,84,0.03671763,0.07094161,0.14100852,0.07439684,0.13869387,0.29277736
39167,0,USOhioWashington,Ohio,Washington,2021-01-05 13:01:32.703103,2020-07-28 00:00:00.000000,0.05880225,0.11843583,0.24345332,35,70,145,21,41,85,0.03609003,0.06909773,0.14347455,0.07269613,0.14043475,0.29337117
39167,0,USOhioWashington,Ohio,Washington,2021-01-05 13:01:32.703103,2020-07-29 00:00:00.000000,0.05840866,0.11831439,0.24177479,34,70,144,21,40,86,0.03567006,0.06823139,0.14492948,0.07176068,0.13985096,0.29344878
39167,0,USOhioWashington,Ohio,Washington,2021-01-05 13:01:32.703103,2020-07-30 00:00:00.000000,0.05823278,0.11786443,0.23977030,34,70,143,21,40,87,0.03534479,0.06681046,0.14547637,0.07157121,0.14048497,0.29343148
39167,0,USOhioWashington,Ohio,Washington,2021-01-05 13:01:32.703103,2020-07-31 00:00:00.000000,0.05780072,0.11746970,0.23741953,34,70,142,20,39,86,0.03493456,0.06630761,0.14395787,0.07155087,0.14167867,0.29334587
39167,0,USOhioWashington,Ohio,Washington,2021-01-05 13:01:32.703103,2020-08-01 00:00:00.000000,0.05765832,0.11661688,0.23485744,34,69,140,20,39,83,0.03462969,0.06610309,0.13957981,0.07156473,0.14161674,0.29309102
39167,0,USOhioWashington,Ohio,Washington,2021-01-05 13:01:32.703103,2020-08-02 00:00:00.000000,0.05753237,0.11495868,0.23219052,34,68,139,20,39,81,0.03442255,0.06566486,0.13655257,0.07161167,0.14195205,0.29235194
39167,0,USOhioWashington,Ohio,Washington,2021-01-05 13:01:32.703103,2020-08-03 00:00:00.000000,0.05804501,0.11354731,0.22901323,34,68,137,19,39,82,0.03288192,0.06511992,0.13706402,0.07176310,0.14223767,0.29025769
39167,0,USOhioWashington,Ohio,Washington,2021-01-05 13:01:32.703103,2020-08-04 00:00:00.000000,0.05853606,0.11169922,0.22583451,35,66,135,19,38,82,0.03216904,0.06456602,0.13702923,0.07216053,0.14421543,0.29121971
39167,0,USOhioWashington,Ohio,Washington,2021-01-05 13:01:32.703103,2020-08-05 00:00:00.000000,0.05904686,0.10977953,0.22266672,35,65,133,19,38,81,0.03278041,0.06435470,0.13661072,0.07512789,0.14599030,0.28895626
39167,0,USOhioWashington,Ohio,Washington,2021-01-05 13:01:32.703103,2020-08-06 00:00:00.000000,0.05954349,0.11156493,0.21951603,35,66,131,20,38,81,0.03357683,0.06454128,0.13592656,0.08178001,0.14852572,0.26557299
39167,0,USOhioWashington,Ohio,Washington,2021-01-05 13:01:32.703103,2020-08-07 00:00:00.000000,0.05999841,0.11281383,0.21635364,35,67,129,20,38,80,0.03448364,0.06442935,0.13506048,0.08686952,0.14672794,0.25765445
39167,0,USOhioWashington,Ohio,Washington,2021-01-05 13:01:32.703103,2020-08-08 00:00:00.000000,0.05975182,0.11340643,0.21475926,35,67,128,21,38,80,0.03507277,0.06459366,0.13405562,0.09015155,0.14724229,0.25730470
39167,0,USOhioWashington,Ohio,Washington,2021-01-05 13:01:32.703103,2020-08-09 00:00:00.000000,0.05839466,0.11176712,0.21371422,34,66,128,21,39,79,0.03526722,0.06538640,0.13265935,0.08823055,0.14915417,0.25385185
39167,0,USOhioWashington,Ohio,Washington,2021-01-05 13:01:32.703103,2020-08-10 00:00:00.000000,0.05933356,0.11187363,0.21245045,35,67,127,20,39,78,0.03477407,0.06604019,0.13071196,0.08541425,0.14943995,0.25349123
39167,0,USOhioWashington,Ohio,Washington,2021-01-05 13:01:32.703103,2020-08-11 00:00:00.000000,0.06159928,0.10997694,0.21119866,36,65,126,20,39,76,0.03439042,0.06567140,0.12840098,0.08294311,0.14720271,0.25446653
39167,0,USOhioWashington,Ohio,Washington,2021-01-05 13:01:32.703103,2020-08-12 00:00:00.000000,0.05918787,0.11013539,0.20993095,35,65,125,20,39,75,0.03397374,0.06547154,0.12581982,0.08133086,0.15228098,0.25640554
39167,0,USOhioWashington,Ohio,Washington,2021-01-05 13:01:32.703103,2020-08-13 00:00:00.000000,0.05700899,0.11035004,0.20859508,34,66,124,19,38,73,0.03329660,0.06471826,0.12305794,0.07915335,0.15351387,0.25954892
39167,0,USOhioWashington,Ohio,Washington,2021-01-05 13:01:32.703103,2020-08-14 00:00:00.000000,0.05664643,0.11064673,0.20953797,33,66,125,19,38,72,0.03300803,0.06382545,0.12018939,0.08052905,0.15339678,0.26305352
39167,0,USOhioWashington,Ohio,Washington,2021-01-05 13:01:32.703103,2020-08-15 00:00:00.000000,0.05657654,0.11165025,0.21166792,33,66,126,19,37,71,0.03314066,0.06311760,0.12017520,0.08185896,0.15393130,0.26522980
39167,0,USOhioWashington,Ohio,Washington,2021-01-05 13:01:32.703103,2020-08-16 00:00:00.000000,0.05652608,0.11230694,0.21350130,33,67,127,19,38,72,0.03205519,0.06348127,0.12163373,0.08433895,0.16291144,0.26959049
39167,0,USOhioWashington,Ohio,Washington,2021-01-05 13:01:32.703103,2020-08-17 00:00:00.000000,0.05497886,0.11254193,0.21646398,32,67,129,18,38,75,0.03139941,0.06404495,0.12569963,0.08797274,0.16282657,0.26662220
39167,0,USOhioWashington,Ohio,Washington,2021-01-05 13:01:32.703103,2020-08-18 00:00:00.000000,0.05610520,0.11159237,0.21910878,33,66,131,18,38,76,0.03148135,0.06353602,0.12769086,0.09286105,0.16391481,0.26671693
39167,0,USOhioWashington,Ohio,Washington,2021-01-05 13:01:32.703103,2020-08-19 00:00:00.000000,0.05801051,0.11073529,0.22149485,34,66,132,19,38,76,0.03183878,0.06445175,0.12834700,0.09535947,0.16506599,0.26662485
39167,0,USOhioWashington,Ohio,Washington,2021-01-05 13:01:32.703103,2020-08-20 00:00:00.000000,0.05995955,0.11286522,0.22358876,35,67,133,19,38,76,0.03235804,0.06416193,0.12834566,0.09541780,0.16571928,0.27031478
39167,0,USOhioWashington,Ohio,Washington,2021-01-05 13:01:32.703103,2020-08-21 00:00:00.000000,0.06022616,0.11377058,0.22512986,36,68,134,19,38,76,0.03210430,0.06364908,0.12791771,0.09555479,0.17183126,0.26606050
39167,0,USOhioWashington,Ohio,Washington,2021-01-05 13:01:32.703103,2020-08-22 00:00:00.000000,0.05962303,0.11344792,0.22618597,35,67,135,18,37,76,0.03160960,0.06319008,0.12724007,0.09604605,0.17538051,0.26238796
39167,0,USOhioWashington,Ohio,Washington,2021-01-05 13:01:32.703103,2020-08-23 00:00:00.000000,0.05907652,0.11091305,0.22683837,35,66,135,18,38,75,0.03118628,0.06412816,0.12674705,0.09672280,0.17732486,0.26076133
39167,0,USOhioWashington,Ohio,Washington,2021-01-05 13:01:32.703103,2020-08-24 00:00:00.000000,0.05922785,0.11082605,0.22545739,35,66,135,18,38,76,0.03081812,0.06344255,0.12820815,0.09647655,0.18060631,0.25902142
39167,0,USOhioWashington,Ohio,Washington,2021-01-05 13:01:32.703103,2020-08-25 00:00:00.000000,0.05886659,0.11231360,0.22375884,35,67,134,18,37,77,0.03085345,0.06296323,0.12993426,0.09627839,0.18300797,0.26640250
39167,0,USOhioWashington,Ohio,Washington,2021-01-05 13:01:32.703103,2020-08-26 00:00:00.000000,0.05866137,0.11465551,0.22172136,35,68,132,18,37,79,0.03117979,0.06328378,0.13190336,0.09576036,0.18365625,0.27196363
39167,0,USOhioWashington,Ohio,Washington,2021-01-05 13:01:32.703103,2020-08-27 00:00:00.000000,0.05858814,0.11521019,0.21946862,35,69,131,18,38,80,0.03148105,0.06344314,0.13404438,0.09444638,0.18680319,0.27033019
39167,0,USOhioWashington,Ohio,Washington,2021-01-05 13:01:32.703103,2020-08-28 00:00:00.000000,0.05841574,0.11465146,0.22203016,34,68,133,18,38,81,0.03086611,0.06347828,0.13630505,0.09406131,0.19206732,0.27215771
39167,0,USOhioWashington,Ohio,Washington,2021-01-05 13:01:32.703103,2020-08-29 00:00:00.000000,0.05728845,0.11611819,0.22696919,34,69,135,18,37,83,0.03024737,0.06315771,0.13865071,0.09981832,0.19306738,0.28124201
39167,0,USOhioWashington,Ohio,Washington,2021-01-05 13:01:32.703103,2020-08-30 00:00:00.000000,0.05622129,0.11692622,0.23116849,33,70,138,17,37,84,0.02965080,0.06203052,0.14107412,0.10030763,0.19469500,0.30317551
39167,0,USOhioWashington,Ohio,Washington,2021-01-05 13:01:32.703103,2020-08-31 00:00:00.000000,0.05524992,0.11771673,0.22915652,33,70,137,17,37,86,0.02907642,0.06261040,0.14358995,0.10034664,0.19925418,0.30511294
39167,0,USOhioWashington,Ohio,Washington,2021-01-05 13:01:32.703103,2020-09-01 00:00:00.000000,0.05423684,0.11820297,0.22701681,32,70,136,17,38,86,0.02854876,0.06475264,0.14520223,0.10041105,0.20257545,0.30544744
39167,0,USOhioWashington,Ohio,Washington,2021-01-05 13:01:32.703103,2020-09-02 00:00:00.000000,0.05866934,0.12244097,0.22495497,35,73,134,16,39,87,0.02803547,0.06633198,0.14604426,0.10055041,0.21269816,0.31804461
39167,0,USOhioWashington,Ohio,Washington,2021-01-05 13:01:32.703103,2020-09-03 00:00:00.000000,0.06198777,0.12544029,0.22695911,37,75,135,17,40,87,0.02982776,0.06769480,0.14616774,0.10723283,0.21550150,0.33786058
39167,0,USOhioWashington,Ohio,Washington,2021-01-05 13:01:32.703103,2020-09-04 00:00:00.000000,0.06230568,0.13201033,0.22925925,37,79,137,17,41,87,0.02988971,0.06853319,0.14581029,0.11250671,0.22001016,0.35962989
39167,0,USOhioWashington,Ohio,Washington,2021-01-05 13:01:32.703103,2020-09-05 00:00:00.000000,0.06306409,0.13697359,0.23208261,37,82,139,17,42,86,0.03001103,0.07062030,0.14516798,0.11563902,0.22778799,0.37562305
39167,0,USOhioWashington,Ohio,Washington,2021-01-05 13:01:32.703103,2020-09-06 00:00:00.000000,0.06391540,0.13895110,0.23526249,38,83,140,18,43,86,0.03011055,0.07199617,0.14439950,0.11657055,0.23014850,0.38904597
39167,0,USOhioWashington,Ohio,Washington,2021-01-05 13:01:32.703103,2020-09-07 00:00:00.000000,0.06879381,0.14309844,0.24123673,41,85,144,18,43,86,0.03084140,0.07253888,0.14361149,0.11771496,0.23410119,0.39622988
39167,0,USOhioWashington,Ohio,Washington,2021-01-05 13:01:32.703103,2020-09-08 00:00:00.000000,0.07369488,0.14512363,0.24720477,44,86,148,19,44,86,0.03191894,0.07424207,0.14503232,0.12261717,0.23875077,0.40002907
39167,0,USOhioWashington,Ohio,Washington,2021-01-05 13:01:32.703103,2020-09-09 00:00:00.000000,0.07873169,0.14620871,0.25320374,47,87,151,19,45,89,0.03280349,0.07569327,0.14920196,0.12373770,0.24592321,0.39633330
39167,0,USOhioWashington,Ohio,Washington,2021-01-05 13:01:32.703103,2020-09-10 00:00:00.000000,0.08385401,0.15199866,0.25922749,50,91,155,20,44,91,0.03473040,0.07481029,0.15294219,0.12389725,0.25525938,0.39034513
39167,0,USOhioWashington,Ohio,Washington,2021-01-05 13:01:32.703103,2020-09-11 00:00:00.000000,0.08903662,0.15437777,0.26528746,53,92,158,22,46,93,0.03690403,0.07706832,0.15651636,0.12430786,0.25977606,0.37963123
39167,0,USOhioWashington,Ohio,Washington,2021-01-05 13:01:32.703103,2020-09-12 00:00:00.000000,0.09120188,0.15905328,0.27143610,54,95,162,23,49,95,0.03920836,0.08229331,0.16014946,0.13078189,0.26719667,0.38901607
39167,0,USOhioWashington,Ohio,Washington,2021-01-05 13:01:32.703103,2020-09-13 00:00:00.000000,0.09185378,0.16523485,0.27782760,55,98,166,24,49,98,0.04160346,0.08308478,0.16399900,0.13547713,0.26995738,0.40364507
39167,0,USOhioWashington,Ohio,Washington,2021-01-05 13:01:32.703103,2020-09-14 00:00:00.000000,0.09308053,0.16798247,0.28823143,55,100,172,26,51,100,0.04407681,0.08678200,0.16813493,0.15122213,0.28116150,0.41575180
39167,0,USOhioWashington,Ohio,Washington,2021-01-05 13:01:32.703103,2020-09-15 00:00:00.000000,0.09255851,0.17387902,0.30066177,55,104,180,27,53,103,0.04581770,0.08995559,0.17314253,0.15519694,0.28871338,0.42198713
39167,0,USOhioWashington,Ohio,Washington,2021-01-05 13:01:32.703103,2020-09-16 00:00:00.000000,0.09239709,0.17720953,0.31348356,55,106,187,28,55,107,0.04714580,0.09279406,0.17943560,0.16594650,0.29429256,0.42257298
39167,0,USOhioWashington,Ohio,Washington,2021-01-05 13:01:32.703103,2020-09-17 00:00:00.000000,0.09263278,0.18072829,0.32933091,55,108,197,28,57,112,0.04826022,0.09534679,0.18696650,0.17218115,0.30163347,0.44844153
39167,0,USOhioWashington,Ohio,Washington,2021-01-05 13:01:32.703103,2020-09-18 00:00:00.000000,0.09475406,0.18564962,0.34185422,56,111,204,29,58,116,0.04881279,0.09816940,0.19440493,0.18246440,0.30410983,0.44899374
39167,0,USOhioWashington,Ohio,Washington,2021-01-05 13:01:32.703103,2020-09-19 00:00:00.000000,0.09827762,0.19469425,0.35492219,58,116,212,30,61,120,0.05036856,0.10191070,0.20149472,0.18713891,0.32093143,0.44921510
39167,0,USOhioWashington,Ohio,Washington,2021-01-05 13:01:32.703103,2020-09-20 00:00:00.000000,0.10079057,0.20427832,0.37339372,60,122,223,30,64,124,0.05169960,0.10722145,0.20850649,0.19317515,0.32675072,0.45286202
39167,0,USOhioWashington,Ohio,Washington,2021-01-05 13:01:32.703103,2020-09-21 00:00:00.000000,0.10508159,0.21229241,0.39289170,62,127,235,32,66,129,0.05343609,0.11086919,0.21573038,0.20526412,0.33777971,0.46111066
39167,0,USOhioWashington,Ohio,Washington,2021-01-05 13:01:32.703103,2020-09-22 00:00:00.000000,0.10957780,0.22111646,0.41359401,65,132,247,32,68,133,0.05497618,0.11409766,0.22355335,0.21054658,0.34032352,0.49757325
39167,0,USOhioWashington,Ohio,Washington,2021-01-05 13:01:32.703103,2020-09-23 00:00:00.000000,0.11463197,0.22528628,0.43631934,68,134,261,34,70,140,0.05686319,0.11830126,0.23445548,0.21194326,0.34936339,0.52253363
39167,0,USOhioWashington,Ohio,Washington,2021-01-05 13:01:32.703103,2020-09-24 00:00:00.000000,0.12055167,0.23237864,0.45792853,72,139,274,35,73,146,0.05919245,0.12268449,0.24500077,0.21838834,0.35159163,0.54568068
39167,0,USOhioWashington,Ohio,Washington,2021-01-05 13:01:32.703103,2020-09-25 00:00:00.000000,0.12771026,0.24583516,0.48397033,76,147,289,36,76,149,0.06155002,0.12696364,0.25035049,0.22793426,0.36464909,0.57238976
39167,0,USOhioWashington,Ohio,Washington,2021-01-05 13:01:32.703103,2020-09-26 00:00:00.000000,0.13613522,0.25752455,0.50729986,81,154,303,38,79,153,0.06413497,0.13247332,0.25631262,0.23220787,0.37545247,0.57893570
39167,0,USOhioWashington,Ohio,Washington,2021-01-05 13:01:32.703103,2020-09-27 00:00:00.000000,0.14553199,0.27092177,0.52130935,87,162,312,40,81,157,0.06714834,0.13655829,0.26330569,0.24496145,0.39376426,0.58892592
39167,0,USOhioWashington,Ohio,Washington,2021-01-05 13:01:32.703103,2020-09-28 00:00:00.000000,0.15492949,0.28897319,0.53732330,92,173,321,42,83,162,0.07066876,0.14018216,0.27163089,0.25206739,0.40236212,0.60507585
39167,0,USOhioWashington,Ohio,Washington,2021-01-05 13:01:32.703103,2020-09-29 00:00:00.000000,0.16488288,0.30711129,0.55531052,98,183,332,45,88,169,0.07582338,0.14854786,0.28241099,0.26137184,0.41169668,0.61796927
39167,0,USOhioWashington,Ohio,Washington,2021-01-05 13:01:32.703103,2020-09-30 00:00:00.000000,0.17477865,0.32771313,0.58581495,104,196,350,49,92,176,0.08214603,0.15490931,0.29520380,0.27052403,0.42463120,0.63341536
39167,0,USOhioWashington,Ohio,Washington,2021-01-05 13:01:32.703103,2020-10-01 00:00:00.000000,0.18582150,0.34887627,0.63897891,111,209,382,53,98,185,0.08897771,0.16399602,0.30978451,0.27374361,0.43417325,0.66966998
39167,0,USOhioWashington,Ohio,Washington,2021-01-05 13:01:32.703103,2020-10-02 00:00:00.000000,0.19558024,0.36830639,0.69713286,117,220,417,56,104,197,0.09457343,0.17486679,0.32965369,0.28339237,0.44234400,0.71671854
39167,0,USOhioWashington,Ohio,Washington,2021-01-05 13:01:32.703103,2020-10-03 00:00:00.000000,0.20748270,0.39854323,0.76091965,124,238,455,60,109,214,0.10160344,0.18269209,0.35871074,0.28381618,0.45437253,0.73491620
39167,0,USOhioWashington,Ohio,Washington,2021-01-05 13:01:32.703103,2020-10-04 00:00:00.000000,0.22096612,0.43559435,0.83048722,132,260,497,63,118,234,0.10625427,0.19710349,0.39065981,0.28914048,0.47393091,0.73359526
39167,0,USOhioWashington,Ohio,Washington,2021-01-05 13:01:32.703103,2020-10-05 00:00:00.000000,0.23528079,0.47463464,0.90167793,140,284,540,67,130,254,0.11229444,0.21775317,0.42513811,0.29473765,0.48972458,0.76054181
39167,0,USOhioWashington,Ohio,Washington,2021-01-05 13:01:32.703103,2020-10-06 00:00:00.000000,0.25050608,0.51067776,0.97911005,150,305,586,70,142,278,0.11820850,0.23710894,0.46406623,0.31980548,0.50543333,0.78258829
39167,0,USOhioWashington,Ohio,Washington,2021-01-05 13:01:32.703103,2020-10-07 00:00:00.000000,0.26668623,0.54751171,1.06302225,159,328,636,78,154,303,0.13074791,0.25759723,0.50621865,0.37271075,0.51823779,0.81280396
39167,0,USOhioWashington,Ohio,Washington,2021-01-05 13:01:32.703103,2020-10-08 00:00:00.000000,0.28396455,0.59347178,1.15355865,170,355,691,88,166,330,0.14711355,0.27852143,0.55091088,0.37843112,0.53845450,0.82683856
39167,0,USOhioWashington,Ohio,Washington,2021-01-05 13:01:32.703103,2020-10-09 00:00:00.000000,0.30279220,0.64314470,1.24054894,181,385,743,93,178,358,0.15657436,0.29876288,0.59791208,0.38881586,0.54301206,0.81467977
39167,0,USOhioWashington,Ohio,Washington,2021-01-05 13:01:32.703103,2020-10-10 00:00:00.000000,0.32450564,0.69581033,1.33213607,194,416,798,99,192,387,0.16665681,0.32133299,0.64729693,0.39034768,0.54962729,0.80836735
39167,0,USOhioWashington,Ohio,Washington,2021-01-05 13:01:32.703103,2020-10-11 00:00:00.000000,0.35208909,0.75889721,1.42866774,210,454,855,106,207,418,0.17787876,0.34690613,0.69929434,0.39379634,0.57299749,0.83003541
39167,0,USOhioWashington,Ohio,Washington,2021-01-05 13:01:32.703103,2020-10-12 00:00:00.000000,0.39053576,0.82326916,1.53314241,233,493,918,114,223,453,0.19113065,0.37255227,0.75630073,0.39973906,0.58009370,0.83934768
39167,0,USOhioWashington,Ohio,Washington,2021-01-05 13:01:32.703103,2020-10-13 00:00:00.000000,0.42361271,0.90032345,1.64437082,253,539,985,124,241,492,0.20817839,0.40390033,0.82131154,0.40627917,0.58162755,0.84195868
39167,0,USOhioWashington,Ohio,Washington,2021-01-05 13:01:32.703103,2020-10-14 00:00:00.000000,0.44907190,0.97945363,1.76292780,269,586,1056,137,262,534,0.22921071,0.43803282,0.89222153,0.41792646,0.58262932,0.84091327
39167,0,USOhioWashington,Ohio,Washington,2021-01-05 13:01:32.703103,2020-10-15 00:00:00.000000,0.48603188,1.06103934,1.88906738,291,635,1131,151,287,580,0.25274065,0.47908652,0.96945137,0.42940479,0.58420359,0.83687014
39167,0,USOhioWashington,Ohio,Washington,2021-01-05 13:01:32.703103,2020-10-16 00:00:00.000000,0.53271861,1.15421271,2.02182911,319,691,1211,162,309,625,0.27100077,0.51616578,1.04368029,0.41389872,0.58200585,0.82997402
39167,0,USOhioWashington,Ohio,Washington,2021-01-05 13:01:32.703103,2020-10-17 00:00:00.000000,0.58380030,1.24981010,2.15966474,349,748,1293,174,339,670,0.29084389,0.56622672,1.11832791,0.42085941,0.58523021,0.83063567
39167,0,USOhioWashington,Ohio,Washington,2021-01-05 13:01:32.703103,2020-10-18 00:00:00.000000,0.63979496,1.35498258,2.29810807,383,811,1376,187,366,717,0.31278544,0.61112495,1.19686658,0.41960931,0.58517092,0.82927715
39167,0,USOhioWashington,Ohio,Washington,2021-01-05 13:01:32.703103,2020-10-19 00:00:00.000000,0.70126823,1.46028867,2.43272134,420,874,1457,202,395,765,0.33753637,0.65975067,1.27791958,0.41943222,0.59076738,0.80312925
39167,0,USOhioWashington,Ohio,Washington,2021-01-05 13:01:32.703103,2020-10-20 00:00:00.000000,0.76927933,1.59722533,2.57071336,460,956,1540,221,432,814,0.36949150,0.72173392,1.35962018,0.41959235,0.60776915,0.82962754
39167,0,USOhioWashington,Ohio,Washington,2021-01-05 13:01:32.703103,2020-10-21 00:00:00.000000,0.84477384,1.75128862,2.74951136,506,1049,1647,241,468,864,0.40389713,0.78172263,1.44243089,0.41978506,0.61270590,0.82764398
39167,0,USOhioWashington,Ohio,Washington,2021-01-05 13:01:32.703103,2020-10-22 00:00:00.000000,0.93727662,1.92953622,2.97815845,561,1156,1784,263,511,915,0.44008215,0.85385626,1.52729470,0.42088974,0.61790261,0.82195582
39167,0,USOhioWashington,Ohio,Washington,2021-01-05 13:01:32.703103,2020-10-23 00:00:00.000000,1.02306954,2.10511680,3.21810720,612,1261,1928,288,569,967,0.48130130,0.94982057,1.61503832,0.42397883,0.61413899,0.86128690
39167,0,USOhioWashington,Ohio,Washington,2021-01-05 13:01:32.703103,2020-10-24 00:00:00.000000,1.11706515,2.25683984,3.46518965,669,1352,2076,316,622,1022,0.52887045,1.03831756,1.70626765,0.42270988,0.60312699,0.88664711
39167,0,USOhioWashington,Ohio,Washington,2021-01-05 13:01:32.703103,2020-10-25 00:00:00.000000,1.21934006,2.42935713,3.71721098,730,1455,2227,351,671,1092,0.58676931,1.12042928,1.82384157,0.41600336,0.59610321,0.89135215
39167,0,USOhioWashington,Ohio,Washington,2021-01-05 13:01:32.703103,2020-10-26 00:00:00.000000,1.33284199,2.63168543,3.97558897,798,1576,2381,386,731,1175,0.64437395,1.22038015,1.96272267,0.42153320,0.58824498,0.88757131
39167,0,USOhioWashington,Ohio,Washington,2021-01-05 13:01:32.703103,2020-10-27 00:00:00.000000,1.45570804,2.84774690,4.24703213,872,1706,2544,426,801,1264,0.71188768,1.33800430,2.11018826,0.41732343,0.58660053,0.87490821
39167,0,USOhioWashington,Ohio,Washington,2021-01-05 13:01:32.703103,2020-10-28 00:00:00.000000,1.58902346,3.07826553,4.54398135,951,1844,2722,470,876,1344,0.78489355,1.46325958,2.24473134,0.41905110,0.57965617,0.81980846
39167,0,USOhioWashington,Ohio,Washington,2021-01-05 13:01:32.703103,2020-10-29 00:00:00.000000,1.73440630,3.32443053,4.86293964,1039,1991,2913,516,946,1433,0.86250793,1.58036147,2.39320863,0.42970787,0.56960114,0.81752774
39167,0,USOhioWashington,Ohio,Washington,2021-01-05 13:01:32.703103,2020-10-30 00:00:00.000000,1.89219812,3.61539381,5.20244269,1133,2166,3116,565,1019,1530,0.94463988,1.70092417,2.55529141,0.44467300,0.57503728,0.79803038
39167,0,USOhioWashington,Ohio,Washington,2021-01-05 13:01:32.703103,2020-10-31 00:00:00.000000,2.06342276,3.92279333,5.56261239,1236,2350,3332,618,1089,1635,1.03192494,1.81813586,2.73045099,0.44880149,0.57474258,0.77864129
39167,0,USOhioWashington,Ohio,Washington,2021-01-05 13:01:32.703103,2020-11-01 00:00:00.000000,2.24906713,4.22425083,5.95028767,1347,2530,3564,674,1185,1748,1.12566050,1.97872047,2.91836141,0.43450675,0.56868504,0.78077613
39167,0,USOhioWashington,Ohio,Washington,2021-01-05 13:01:32.703103,2020-11-02 00:00:00.000000,2.44892095,4.49178367,6.40628558,1467,2691,3838,734,1286,1868,1.22643601,2.14759083,3.11906054,0.42761937,0.56676463,0.75646880
39167,0,USOhioWashington,Ohio,Washington,2021-01-05 13:01:32.703103,2020-11-03 00:00:00.000000,2.66499520,4.74666335,6.82619185,1596,2843,4089,795,1380,1996,1.32785630,2.30417848,3.33226485,0.42247038,0.56839229,0.74530009
39167,0,USOhioWashington,Ohio,Washington,2021-01-05 13:01:32.703103,2020-11-04 00:00:00.000000,2.89784301,5.02596934,7.24658778,1736,3011,4341,844,1472,2132,1.40885540,2.45863065,3.55920037,0.41934401,0.55687105,0.74349925
39167,0,USOhioWashington,Ohio,Washington,2021-01-05 13:01:32.703103,2020-11-05 00:00:00.000000,3.14747430,5.41216067,7.68024422,1885,3242,4601,897,1584,2276,1.49808664,2.64466282,3.79994689,0.42402949,0.56413800,0.74327480
39167,0,USOhioWashington,Ohio,Washington,2021-01-05 13:01:32.703103,2020-11-06 00:00:00.000000,3.41250989,5.79970592,8.13797857,2044,3474,4875,959,1695,2428,1.60211944,2.83028700,4.05313089,0.41980861,0.56345342,0.74112660
39167,0,USOhioWashington,Ohio,Washington,2021-01-05 13:01:32.703103,2020-11-07 00:00:00.000000,3.68930477,6.19271357,8.63575276,2210,3710,5173,1034,1805,2584,1.72607008,3.01293201,4.31375968,0.41434996,0.56330588,0.72150637
39167,0,USOhioWashington,Ohio,Washington,2021-01-05 13:01:32.703103,2020-11-08 00:00:00.000000,3.96923878,6.61951258,9.17072439,2378,3965,5494,1119,1941,2741,1.86930295,3.23998267,4.57514678,0.41535980,0.55679696,0.71301925
39167,0,USOhioWashington,Ohio,Washington,2021-01-05 13:01:32.703103,2020-11-09 00:00:00.000000,4.16745249,7.07713890,9.73885605,2496,4239,5834,1215,2068,2918,2.02922721,3.45278854,4.87092445,0.41282173,0.55104292,0.69393876
39167,0,USOhioWashington,Ohio,Washington,2021-01-05 13:01:32.703103,2020-11-10 00:00:00.000000,4.54930311,7.56128178,10.33256806,2725,4530,6190,1320,2165,3091,2.20328983,3.61421507,5.15976906,0.40880994,0.54844141,0.70498014
39167,0,USOhioWashington,Ohio,Washington,2021-01-05 13:01:32.703103,2020-11-11 00:00:00.000000,4.84674806,8.06801825,10.94851641,2903,4833,6559,1415,2277,3283,2.36226627,3.80166268,5.48092218,0.41258321,0.54356843,0.70875188
39167,0,USOhioWashington,Ohio,Washington,2021-01-05 13:01:32.703103,2020-11-12 00:00:00.000000,5.15511087,8.43716184,11.57850980,3088,5054,6936,1484,2426,3485,2.47849591,4.05053317,5.81746593,0.42006157,0.53676760,0.70374931
39167,0,USOhioWashington,Ohio,Washington,2021-01-05 13:01:32.703103,2020-11-13 00:00:00.000000,5.47542764,8.81522408,12.16662218,3280,5281,7289,1578,2581,3694,2.63453141,4.30842711,6.16619909,0.42110782,0.53551943,0.68629101
39167,0,USOhioWashington,Ohio,Washington,2021-01-05 13:01:32.703103,2020-11-14 00:00:00.000000,5.80738363,9.21462300,12.64991029,3479,5520,7578,1680,2740,3902,2.80432520,4.57439725,6.51455209,0.41943150,0.53457616,0.67945172
39167,0,USOhioWashington,Ohio,Washington,2021-01-05 13:01:32.703103,2020-11-15 00:00:00.000000,6.14871281,9.64467733,13.19608161,3683,5778,7905,1785,2903,4142,2.98011539,4.84632723,6.91451405,0.40529065,0.53540928,0.67133911
39167,0,USOhioWashington,Ohio,Washington,2021-01-05 13:01:32.703103,2020-11-16 00:00:00.000000,6.49481340,10.11068046,14.12268327,3891,6057,8461,1894,3067,4402,3.16159610,5.12014239,7.34889091,0.39718303,0.53207334,0.67844355
39167,0,USOhioWashington,Ohio,Washington,2021-01-05 13:01:32.703103,2020-11-17 00:00:00.000000,6.83552372,10.60097008,14.78398178,4095,6351,8857,2005,3243,4660,3.34751080,5.41393703,7.77975746,0.38552102,0.52911257,0.68120518
39167,0,USOhioWashington,Ohio,Washington,2021-01-05 13:01:32.703103,2020-11-18 00:00:00.000000,7.13749335,11.10284839,15.30480764,4276,6651,9169,2117,3432,4917,3.53476383,5.72856504,8.20781363,0.37994792,0.52200955,0.67729772
39167,0,USOhioWashington,Ohio,Washington,2021-01-05 13:01:32.703103,2020-11-19 00:00:00.000000,7.42386780,11.62829337,15.81429638,4447,6966,9474,2227,3587,5170,3.71846768,5.98752627,8.63004718,0.37744952,0.51841420,0.67618958
39167,0,USOhioWashington,Ohio,Washington,2021-01-05 13:01:32.703103,2020-11-20 00:00:00.000000,7.70056830,12.08754496,16.34746507,4613,7241,9793,2360,3718,5413,3.93944367,6.20685823,9.03584191,0.36925322,0.51591719,0.66069990
39167,0,USOhioWashington,Ohio,Washington,2021-01-05 13:01:32.703103,2020-11-21 00:00:00.000000,7.97272672,12.47525921,16.84003183,4776,7474,10089,2503,3848,5640,4.17787673,6.42332369,9.41425329,0.36800033,0.51012041,0.65596591
39167,0,USOhioWashington,Ohio,Washington,2021-01-05 13:01:32.703103,2020-11-22 00:00:00.000000,8.24243456,12.79522100,17.30164783,4938,7665,10365,2609,3986,5830,4.35629876,6.65356477,9.73197953,0.37035504,0.50184035,0.66234416
39167,0,USOhioWashington,Ohio,Washington,2021-01-05 13:01:32.703103,2020-11-23 00:00:00.000000,8.51011892,13.14024999,17.73423055,5098,7872,10624,2712,4148,6019,4.52734655,6.92495109,10.04678992,0.35705186,0.49740296,0.66385695
39167,0,USOhioWashington,Ohio,Washington,2021-01-05 13:01:32.703103,2020-11-24 00:00:00.000000,8.77414808,13.55473775,18.12142907,5256,8120,10856,2806,4311,6207,4.68376978,7.19609223,10.36078934,0.34259740,0.49535336,0.66340179
39167,0,USOhioWashington,Ohio,Washington,2021-01-05 13:01:32.703103,2020-11-25 00:00:00.000000,9.03150491,13.86164579,18.55880168,5410,8304,11118,2833,4438,6394,4.72932075,7.40856402,10.67346145,0.33490629,0.49207670,0.66414757
39167,0,USOhioWashington,Ohio,Washington,2021-01-05 13:01:32.703103,2020-11-26 00:00:00.000000,9.26591738,14.08858619,19.22858379,5551,8440,11520,2853,4527,6595,4.76223621,7.55704267,11.00810968,0.33099004,0.48707374,0.65259306
39167,0,USOhioWashington,Ohio,Washington,2021-01-05 13:01:32.703103,2020-11-27 00:00:00.000000,9.34118814,14.38166709,19.93668818,5596,8616,11944,2866,4599,6869,4.78503228,7.67724548,11.46668720,0.32880436,0.48190193,0.64856477
39167,0,USOhioWashington,Ohio,Washington,2021-01-05 13:01:32.703103,2020-11-28 00:00:00.000000,9.33922535,14.48323675,20.40800571,5595,8677,12226,2875,4661,7065,4.79931127,7.78108750,11.79405000,0.32784328,0.48264383,0.64200637
39167,0,USOhioWashington,Ohio,Washington,2021-01-05 13:01:32.703103,2020-11-29 00:00:00.000000,9.32369335,14.74593341,20.61326012,5585,8834,12349,2899,4715,7236,4.84013308,7.87127308,12.07853825,0.34332539,0.48259660,0.64685531
39167,0,USOhioWashington,Ohio,Washington,2021-01-05 13:01:32.703103,2020-11-30 00:00:00.000000,9.28795630,14.98795841,20.76387535,5564,8979,12439,2933,4797,7458,4.89668864,8.00694789,12.44885940,0.34343952,0.47786877,0.64688927
39167,0,USOhioWashington,Ohio,Washington,2021-01-05 13:01:32.703103,2020-12-01 00:00:00.000000,9.23770587,15.19991217,21.28595987,5534,9106,12752,2956,4853,7628,4.93511582,8.10152591,12.73261183,0.33497082,0.46927138,0.65350668
39167,0,USOhioWashington,Ohio,Washington,2021-01-05 13:01:32.703103,2020-12-02 00:00:00.000000,9.17214706,15.30710319,21.57596259,5495,9170,12926,2970,4929,7761,4.95843186,8.22850251,12.95576397,0.31192162,0.46541236,0.64622160
39167,0,USOhioWashington,Ohio,Washington,2021-01-05 13:01:32.703103,2020-12-03 00:00:00.000000,9.08998268,15.31480518,21.70887061,5445,9175,13006,2977,4962,7874,4.97032718,8.28347646,13.14303286,0.29615524,0.46129553,0.63967163
39167,0,USOhioWashington,Ohio,Washington,2021-01-05 13:01:32.703103,2020-12-04 00:00:00.000000,8.98851412,15.37082803,21.82107943,5385,9208,13073,2979,4980,7963,4.97339907,8.31387236,13.29182550,0.28783683,0.45155443,0.62765715
39167,0,USOhioWashington,Ohio,Washington,2021-01-05 13:01:32.703103,2020-12-05 00:00:00.000000,8.95252943,15.29150505,21.86216016,5363,9161,13097,2977,4979,8029,4.96929194,8.31152029,13.40188318,0.28072503,0.44206825,0.61454283
39167,0,USOhioWashington,Ohio,Washington,2021-01-05 13:01:32.703103,2020-12-06 00:00:00.000000,8.90898742,15.17691176,21.85221048,5337,9092,13091,2970,4918,8073,4.95897960,8.20927355,13.47662713,0.27423407,0.44410411,0.59809377
39167,0,USOhioWashington,Ohio,Washington,2021-01-05 13:01:32.703103,2020-12-07 00:00:00.000000,8.85044604,15.08330277,21.79538537,5302,9036,13057,2962,4901,8098,4.94449557,8.18185025,13.51756482,0.27181482,0.44119598,0.59742804
39167,0,USOhioWashington,Ohio,Washington,2021-01-05 13:01:32.703103,2020-12-08 00:00:00.000000,8.77761708,14.91439219,21.69567800,5258,8935,12998,2950,4916,8104,4.92439661,8.20553948,13.52677325,0.26610577,0.42793886,0.59737423
39167,0,USOhioWashington,Ohio,Washington,2021-01-05 13:01:32.703103,2020-12-09 00:00:00.000000,8.69580427,14.72769869,21.55716555,5209,8823,12915,2933,4874,8092,4.89692410,8.13688799,13.50674094,0.26236118,0.41636029,0.58471061
39167,0,USOhioWashington,Ohio,Washington,2021-01-05 13:01:32.703103,2020-12-10 00:00:00.000000,8.60730845,14.49652964,21.38694552,5156,8685,12813,2913,4834,8064,4.86255117,8.06975133,13.46001678,0.26153767,0.40977609,0.58420591
39167,0,USOhioWashington,Ohio,Washington,2021-01-05 13:01:32.703103,2020-12-11 00:00:00.000000,8.51180130,14.26329807,21.19174893,5099,8545,12696,2888,4824,8021,4.82171969,8.05245066,13.38967268,0.26612539,0.41195521,0.58293559
39167,0,USOhioWashington,Ohio,Washington,2021-01-05 13:01:32.703103,2020-12-12 00:00:00.000000,8.41025452,13.96491981,20.97418119,5038,8366,12565,2861,4808,7967,4.77554902,8.02613340,13.29907572,0.27782706,0.40902032,0.58104231
39167,0,USOhioWashington,Ohio,Washington,2021-01-05 13:01:32.703103,2020-12-13 00:00:00.000000,8.30447689,13.80729077,20.73197169,4975,8272,12420,2830,4748,7902,4.72494579,7.92541422,13.19085646,0.28466180,0.42317296,0.58041649
39167,0,USOhioWashington,Ohio,Washington,2021-01-05 13:01:32.703103,2020-12-14 00:00:00.000000,8.20122347,13.58972398,20.46158398,4913,8141,12258,2798,4682,7827,4.67083299,7.81650748,13.06602258,0.28538147,0.42480839,0.58302022
39167,0,USOhioWashington,Ohio,Washington,2021-01-05 13:01:32.703103,2020-12-15 00:00:00.000000,8.09534674,13.36930496,20.15878986,4850,8009,12077,2764,4616,7743,4.61509608,7.70588883,12.92428389,0.28805907,0.42671788,0.61466792
39167,0,USOhioWashington,Ohio,Washington,2021-01-05 13:01:32.703103,2020-12-16 00:00:00.000000,7.98564567,13.02461189,19.76518498,4784,7803,11841,2730,4538,7647,4.55771125,7.57504851,12.76437571,0.29203709,0.43972744,0.66610161
39167,0,USOhioWashington,Ohio,Washington,2021-01-05 13:01:32.703103,2020-12-17 00:00:00.000000,7.79080887,12.75991039,19.31917531,4667,7644,11574,2668,4455,7539,4.45450213,7.43665862,12.58519827,0.29224002,0.45187019,0.69424574
39167,0,USOhioWashington,Ohio,Washington,2021-01-05 13:01:32.703103,2020-12-18 00:00:00.000000,7.56743056,12.47221063,18.83110429,4533,7472,11281,2619,4373,7420,4.37169344,7.30031547,12.38612492,0.29273301,0.45811076,0.70041974
39167,0,USOhioWashington,Ohio,Washington,2021-01-05 13:01:32.703103,2020-12-19 00:00:00.000000,7.37271270,12.22043927,18.30471953,4417,7321,10966,2559,4292,7289,4.27168953,7.16476862,12.16698039,0.29497501,0.46395190,0.71227157
39167,0,USOhioWashington,Ohio,Washington,2021-01-05 13:01:32.703103,2020-12-20 00:00:00.000000,7.21104030,11.85614939,17.76653775,4320,7103,10644,2485,4207,7146,4.14791305,7.02296976,11.92801991,0.29518735,0.46746044,0.81464035
39167,0,USOhioWashington,Ohio,Washington,2021-01-05 13:01:32.703103,2020-12-21 00:00:00.000000,7.07625666,11.59599937,17.22827994,4239,6947,10321,2419,4113,6991,4.03923032,6.86586307,11.67003478,0.29571165,0.47794630,0.82242006
39167,0,USOhioWashington,Ohio,Washington,2021-01-05 13:01:32.703103,2020-12-22 00:00:00.000000,6.95764156,11.31306373,16.68751936,4168,6777,9997,2359,4015,6826,3.93852280,6.70292672,11.39453727,0.29656577,0.48640882,0.82351058
39167,0,USOhioWashington,Ohio,Washington,2021-01-05 13:01:32.703103,2020-12-23 00:00:00.000000,6.84605360,11.03872763,16.15133859,4101,6613,9676,2301,3935,6652,3.84176151,6.56917247,11.10368002,0.29780239,0.49022587,0.83044026
39167,0,USOhioWashington,Ohio,Washington,2021-01-05 13:01:32.703103,2020-12-24 00:00:00.000000,6.73210700,10.80121667,15.63791282,4033,6471,9368,2244,3867,6470,3.74666837,6.45603010,10.79981631,0.29950164,0.49923351,0.88104024
39167,0,USOhioWashington,Ohio,Washington,2021-01-05 13:01:32.703103,2020-12-25 00:00:00.000000,6.62509893,10.58877515,15.23093567,3969,6343,9125,2188,3749,6335,3.65223991,6.25804701,10.57473203,0.30175391,0.50369206,0.91342814
39167,0,USOhioWashington,Ohio,Washington,2021-01-05 13:01:32.703103,2020-12-26 00:00:00.000000,6.51187027,10.35847722,14.87590439,3901,6205,8912,2131,3617,6161,3.55821084,6.03828747,10.28436382,0.30464030,0.51235697,0.92784491
39167,0,USOhioWashington,Ohio,Washington,2021-01-05 13:01:32.703103,2020-12-27 00:00:00.000000,6.39623363,10.17914830,14.46573150,3832,6098,8666,2074,3487,5986,3.46253763,5.82101402,9.99304340,0.30257741,0.52160139,0.93323048
39167,0,USOhioWashington,Ohio,Washington,2021-01-05 13:01:32.703103,2020-12-28 00:00:00.000000,6.27505776,9.93331091,14.08901021,3759,5951,8440,2014,3393,5812,3.36280169,5.66395097,9.70163618,0.31063726,0.52718276,0.93512530
39167,0,USOhioWashington,Ohio,Washington,2021-01-05 13:01:32.703103,2020-12-29 00:00:00.000000,6.15129535,9.74954053,13.73041112,3685,5841,8226,1950,3317,5637,3.25530882,5.53786031,9.41029089,0.31006687,0.53598100,0.93581212
39167,0,USOhioWashington,Ohio,Washington,2021-01-05 13:01:32.703103,2020-12-30 00:00:00.000000,6.00758292,9.55492949,13.36686318,3599,5724,8008,1881,3246,5463,3.14086707,5.41929576,9.11981463,0.30842247,0.53711858,0.93615086
39167,0,USOhioWashington,Ohio,Washington,2021-01-05 13:01:32.703103,2020-12-31 00:00:00.000000,5.82265304,9.36868159,13.00194553,3488,5612,7789,1810,3177,5290,3.02218908,5.30307551,8.83091600,0.28257771,0.52279779,0.97963228
39167,0,USOhioWashington,Ohio,Washington,2021-01-05 13:01:32.703103,2021-01-01 00:00:00.000000,5.46487754,9.09368234,12.63352898,3274,5448,7568,1738,3073,5118,2.90193445,5.13044154,8.54425745,0.24053086,0.53252884,0.98232771
39167,0,USOhioWashington,Ohio,Washington,2021-01-05 13:01:32.703103,2021-01-02 00:00:00.000000,5.29383776,8.86929800,12.26055550,3171,5313,7345,1697,2966,4948,2.83335752,4.95217008,8.26055706,0.22763604,0.52682280,0.98357953
39167,0,USOhioWashington,Ohio,Washington,2021-01-05 13:01:32.703103,2021-01-03 00:00:00.000000,5.03083251,8.63734820,11.88772822,3014,5174,7122,1621,2874,4800,2.70732885,4.79717981,8.01271201,0.22641038,0.52271545,0.98508961
39167,0,USOhioWashington,Ohio,Washington,2021-01-05 13:01:32.703103,2021-01-04 00:00:00.000000,4.77826291,8.41592627,11.77776681,2862,5042,7056,1524,2804,4703,2.54406624,4.68118337,7.85100583,0.22249230,0.51448722,1.00642769
39167,0,USOhioWashington,Ohio,Washington,2021-01-05 13:01:32.703103,2021-01-05 00:00:00.000000,4.53593495,8.16532486,11.65292503,2717,4891,6981,1456,2760,4606,2.43047509,4.60774224,7.68818520,0.21676552,0.51451414,1.05919575
39167,0,USOhioWashington,Ohio,Washington,2021-01-05 13:01:32.703103,2021-01-06 00:00:00.000000,4.30676327,7.87192000,11.51351556,2580,4716,6897,1410,2679,4507,2.35359503,4.47202619,7.52310575,0.21412377,0.51881727,1.08042059
39167,0,USOhioWashington,Ohio,Washington,2021-01-05 13:01:32.703103,2021-01-07 00:00:00.000000,4.08915854,7.60353669,11.36007836,2449,4555,6805,1373,2598,4406,2.29176997,4.33778205,7.35521224,0.21351767,0.52485279,1.08773552
39167,0,USOhioWashington,Ohio,Washington,2021-01-05 13:01:32.703103,2021-01-08 00:00:00.000000,3.88081609,7.36613080,11.19329834,2325,4413,6706,1336,2536,4304,2.23086555,4.23367509,7.18437943,0.21340435,0.52483897,1.09322621
39167,0,USOhioWashington,Ohio,Washington,2021-01-05 13:01:32.703103,2021-01-09 00:00:00.000000,3.68152053,7.07845791,10.97591533,2205,4240,6575,1300,2501,4199,2.17081781,4.17562764,7.00974077,0.21338383,0.52483414,1.12920299
39167,0,USOhioWashington,Ohio,Washington,2021-01-05 13:01:32.703103,2021-01-10 00:00:00.000000,3.49104643,6.83149687,10.65290920,2091,4092,6382,1265,2481,4049,2.11160642,4.14239754,6.75934676,0.21338005,0.52483254,1.13001698
39167,0,USOhioWashington,Ohio,Washington,2021-01-05 13:01:32.703103,2021-01-11 00:00:00.000000,3.34708799,6.52368392,10.26327094,2005,3908,6148,1209,2435,3901,2.01825726,4.06573679,6.51138320,0.21337931,0.52483205,1.13044258
39167,0,USOhioWashington,Ohio,Washington,2021-01-05 13:01:32.703103,2021-01-12 00:00:00.000000,3.13112551,6.26812268,9.88099238,1875,3755,5919,1146,2350,3798,1.91332389,3.92348167,6.33952643,0.21337914,0.52483190,1.13063446
39167,0,USOhioWashington,Ohio,Washington,2021-01-05 13:01:32.703103,2021-01-13 00:00:00.000000,2.96254500,6.04510596,9.50656508,1774,3621,5695,1086,2266,3700,1.81310950,3.78317887,6.17629533,0.21337910,0.52483186,1.13071516
39167,0,USOhioWashington,Ohio,Washington,2021-01-05 13:01:32.703103,2021-01-14 00:00:00.000000,2.80211506,5.82561848,9.41254414,1678,3490,5639,1028,2188,3604,1.71748081,3.65310996,6.01577139,0.21337908,0.52483185,1.13074811
39167,0,USOhioWashington,Ohio,Washington,2021-01-05 13:01:32.703103,2021-01-15 00:00:00.000000,2.64954759,5.67037120,9.26111417,1587,3397,5548,974,2107,3509,1.62630022,3.51784969,5.85803454,0.21337908,0.52483185,1.13076139
39167,0,USOhioWashington,Ohio,Washington,2021-01-05 13:01:32.703103,2021-01-16 00:00:00.000000,2.50455219,5.44798228,8.97797543,1500,3263,5378,922,2033,3416,1.53942656,3.39420357,5.70314718,0.21337907,0.52483185,1.13076672
39167,0,USOhioWashington,Ohio,Washington,2021-01-05 13:01:32.703103,2021-01-17 00:00:00.000000,2.36683791,5.28637846,8.69350606,1417,3167,5208,872,1943,3325,1.45671584,3.24344623,5.55115715,0.21337907,0.52483185,1.13076886
