FIPS,HR_UID,nameid,province,region,analysisTime,dates,pointprevalence_025,pointprevalence_50,pointprevalence_975,pointinfections_025,pointinfections_50,pointinfections_975,pointinfectious_025,pointinfectious_50,pointinfectious_975,pointinfectiousprevalence_05,pointinfectiousprevalence_50,pointinfectiousprevalence_95,infectrate_025,infectrate_50,infectrate_975
5059,0,USArkansasHotSpring,Arkansas,Hot Spring,2021-01-06 04:28:24.365468,2020-03-09 00:00:00.000000,0.00135924,0.00818215,0.02505145,0,2,8,0,1,4,0.00077371,0.00477557,0.01461277,0.33743395,0.44659986,0.61416207
5059,0,USArkansasHotSpring,Arkansas,Hot Spring,2021-01-06 04:28:24.365468,2020-03-10 00:00:00.000000,0.00145490,0.00910373,0.02598224,0,3,8,0,1,5,0.00083328,0.00480990,0.01518334,0.33740694,0.44641485,0.61415808
5059,0,USArkansasHotSpring,Arkansas,Hot Spring,2021-01-06 04:28:24.365468,2020-03-11 00:00:00.000000,0.00155899,0.00977057,0.02701035,0,3,9,0,1,5,0.00089059,0.00514263,0.01592217,0.33734214,0.44608490,0.61415029
5059,0,USArkansasHotSpring,Arkansas,Hot Spring,2021-01-06 04:28:24.365468,2020-03-12 00:00:00.000000,0.00167326,0.01061204,0.02821708,0,3,9,0,1,5,0.00094314,0.00566870,0.01672265,0.33718694,0.44430715,0.61413471
5059,0,USArkansasHotSpring,Arkansas,Hot Spring,2021-01-06 04:28:24.365468,2020-03-13 00:00:00.000000,0.00179498,0.01149416,0.03070583,0,3,10,0,2,5,0.00100587,0.00611851,0.01754643,0.33681689,0.44337731,0.61410232
5059,0,USArkansasHotSpring,Arkansas,Hot Spring,2021-01-06 04:28:24.365468,2020-03-14 00:00:00.000000,0.00192449,0.01229987,0.03324598,0,4,11,0,2,6,0.00104145,0.00658436,0.01838221,0.32287838,0.44174976,0.61403151
5059,0,USArkansasHotSpring,Arkansas,Hot Spring,2021-01-06 04:28:24.365468,2020-03-15 00:00:00.000000,0.00210841,0.01315139,0.03578491,0,4,12,0,2,6,0.00108109,0.00724022,0.01922885,0.31620393,0.44048373,0.61386633
5059,0,USArkansasHotSpring,Arkansas,Hot Spring,2021-01-06 04:28:24.365468,2020-03-16 00:00:00.000000,0.00491432,0.01670306,0.04046146,1,5,13,0,2,7,0.00114907,0.00778998,0.02098396,0.31353485,0.43460259,0.61345177
5059,0,USArkansasHotSpring,Arkansas,Hot Spring,2021-01-06 04:28:24.365468,2020-03-17 00:00:00.000000,0.00714951,0.02129167,0.04817360,2,7,16,0,3,7,0.00222527,0.00897951,0.02339354,0.30278302,0.42993270,0.61022501
5059,0,USArkansasHotSpring,Arkansas,Hot Spring,2021-01-06 04:28:24.365468,2020-03-18 00:00:00.000000,0.00997543,0.02608412,0.05674592,3,8,19,1,3,8,0.00338422,0.01069032,0.02577583,0.27483704,0.42232092,0.60928923
5059,0,USArkansasHotSpring,Arkansas,Hot Spring,2021-01-06 04:28:24.365468,2020-03-19 00:00:00.000000,0.01311658,0.03076132,0.06540382,4,10,22,1,4,10,0.00474568,0.01314301,0.03072412,0.26113452,0.41274027,0.60174551
5059,0,USArkansasHotSpring,Arkansas,Hot Spring,2021-01-06 04:28:24.365468,2020-03-20 00:00:00.000000,0.01654468,0.03575575,0.07384730,5,12,24,2,5,12,0.00645213,0.01657102,0.03593428,0.24197607,0.38142106,0.57644989
5059,0,USArkansasHotSpring,Arkansas,Hot Spring,2021-01-06 04:28:24.365468,2020-03-21 00:00:00.000000,0.01921053,0.04054725,0.08118607,6,13,27,2,6,13,0.00834785,0.02028443,0.03993127,0.22612518,0.36710431,0.54287212
5059,0,USArkansasHotSpring,Arkansas,Hot Spring,2021-01-06 04:28:24.365468,2020-03-22 00:00:00.000000,0.02105897,0.04421474,0.08768945,7,14,29,3,7,14,0.01019223,0.02312377,0.04411861,0.22355492,0.34627885,0.51477291
5059,0,USArkansasHotSpring,Arkansas,Hot Spring,2021-01-06 04:28:24.365468,2020-03-23 00:00:00.000000,0.02442681,0.04937419,0.09223850,8,16,31,3,8,16,0.01123494,0.02588310,0.04833212,0.22298411,0.32859360,0.47648400
5059,0,USArkansasHotSpring,Arkansas,Hot Spring,2021-01-06 04:28:24.365468,2020-03-24 00:00:00.000000,0.02782521,0.05478772,0.09649377,9,18,32,4,9,17,0.01243207,0.02847681,0.05213071,0.22123861,0.31147100,0.47583768
5059,0,USArkansasHotSpring,Arkansas,Hot Spring,2021-01-06 04:28:24.365468,2020-03-25 00:00:00.000000,0.03130510,0.06073354,0.10011850,10,20,33,4,10,18,0.01448928,0.03210837,0.05570230,0.21687230,0.29898603,0.43569553
5059,0,USArkansasHotSpring,Arkansas,Hot Spring,2021-01-06 04:28:24.365468,2020-03-26 00:00:00.000000,0.03479928,0.06497476,0.10306108,11,21,34,5,12,19,0.01641434,0.03582067,0.05915721,0.20358316,0.28989584,0.43179512
5059,0,USArkansasHotSpring,Arkansas,Hot Spring,2021-01-06 04:28:24.365468,2020-03-27 00:00:00.000000,0.03829328,0.06999792,0.10961767,12,23,37,6,13,21,0.01836933,0.03898551,0.06254706,0.18457873,0.26404025,0.39925130
5059,0,USArkansasHotSpring,Arkansas,Hot Spring,2021-01-06 04:28:24.365468,2020-03-28 00:00:00.000000,0.04113946,0.07413255,0.11629899,13,25,39,6,14,22,0.02037610,0.04171927,0.06585352,0.17050038,0.25031561,0.39460630
5059,0,USArkansasHotSpring,Arkansas,Hot Spring,2021-01-06 04:28:24.365468,2020-03-29 00:00:00.000000,0.04339614,0.07769788,0.12250594,14,26,41,7,14,23,0.02239118,0.04380261,0.06852567,0.16352700,0.23236245,0.36849938
5059,0,USArkansasHotSpring,Arkansas,Hot Spring,2021-01-06 04:28:24.365468,2020-03-30 00:00:00.000000,0.04567967,0.08186502,0.13056946,15,27,44,8,15,24,0.02429709,0.04608822,0.07194010,0.15769310,0.22007823,0.35305907
5059,0,USArkansasHotSpring,Arkansas,Hot Spring,2021-01-06 04:28:24.365468,2020-03-31 00:00:00.000000,0.04829686,0.08518265,0.13851317,16,28,46,8,16,25,0.02638238,0.04799754,0.07615652,0.15595153,0.21416771,0.33949371
5059,0,USArkansasHotSpring,Arkansas,Hot Spring,2021-01-06 04:28:24.365468,2020-04-01 00:00:00.000000,0.05094038,0.08788995,0.14496197,17,29,48,9,16,26,0.02780142,0.04998131,0.07891347,0.14627961,0.21193104,0.33820918
5059,0,USArkansasHotSpring,Arkansas,Hot Spring,2021-01-06 04:28:24.365468,2020-04-02 00:00:00.000000,0.05347525,0.09061700,0.15083893,18,30,50,9,17,27,0.02921304,0.05300588,0.08189319,0.13143079,0.20888766,0.33820851
5059,0,USArkansasHotSpring,Arkansas,Hot Spring,2021-01-06 04:28:24.365468,2020-04-03 00:00:00.000000,0.05452101,0.09222156,0.15673706,18,31,52,10,18,28,0.03065254,0.05461008,0.08537828,0.12636731,0.20285033,0.31278084
5059,0,USArkansasHotSpring,Arkansas,Hot Spring,2021-01-06 04:28:24.365468,2020-04-04 00:00:00.000000,0.05553127,0.09339830,0.16248034,18,31,54,10,18,30,0.03211278,0.05620295,0.08890435,0.12487158,0.20080424,0.28785188
5059,0,USArkansasHotSpring,Arkansas,Hot Spring,2021-01-06 04:28:24.365468,2020-04-05 00:00:00.000000,0.05650415,0.09466388,0.16849190,19,31,56,11,19,31,0.03358546,0.05741297,0.09242051,0.12445023,0.19183806,0.28693274
5059,0,USArkansasHotSpring,Arkansas,Hot Spring,2021-01-06 04:28:24.365468,2020-04-06 00:00:00.000000,0.05920295,0.09623209,0.17173504,19,32,57,11,20,32,0.03508624,0.05964116,0.09565535,0.12433919,0.18817136,0.27037473
5059,0,USArkansasHotSpring,Arkansas,Hot Spring,2021-01-06 04:28:24.365468,2020-04-07 00:00:00.000000,0.06186518,0.09784577,0.17108401,20,33,57,12,20,33,0.03623477,0.06044909,0.09817860,0.12439879,0.18525114,0.26752635
5059,0,USArkansasHotSpring,Arkansas,Hot Spring,2021-01-06 04:28:24.365468,2020-04-08 00:00:00.000000,0.06455157,0.09998602,0.17278550,21,33,58,12,21,33,0.03816509,0.06326910,0.10016382,0.12444613,0.18057073,0.26601971
5059,0,USArkansasHotSpring,Arkansas,Hot Spring,2021-01-06 04:28:24.365468,2020-04-09 00:00:00.000000,0.06722396,0.10184536,0.17432959,22,34,58,12,21,34,0.03842655,0.06344558,0.10177947,0.12254618,0.17678064,0.25781765
5059,0,USArkansasHotSpring,Arkansas,Hot Spring,2021-01-06 04:28:24.365468,2020-04-10 00:00:00.000000,0.06809835,0.10322151,0.17570569,22,34,59,13,21,35,0.03865265,0.06392474,0.10482296,0.12270820,0.16820120,0.25904984
5059,0,USArkansasHotSpring,Arkansas,Hot Spring,2021-01-06 04:28:24.365468,2020-04-11 00:00:00.000000,0.06754324,0.10501705,0.18380045,22,35,62,13,22,35,0.03890263,0.06542729,0.10445307,0.11762798,0.16046803,0.25399540
5059,0,USArkansasHotSpring,Arkansas,Hot Spring,2021-01-06 04:28:24.365468,2020-04-12 00:00:00.000000,0.06603701,0.10848189,0.18846089,22,36,63,13,22,37,0.03862532,0.06636486,0.11040856,0.11236669,0.15795381,0.24972426
5059,0,USArkansasHotSpring,Arkansas,Hot Spring,2021-01-06 04:28:24.365468,2020-04-13 00:00:00.000000,0.06656097,0.10994617,0.18852183,22,37,63,13,23,39,0.03926506,0.06911611,0.11680022,0.10771512,0.15842377,0.25035770
5059,0,USArkansasHotSpring,Arkansas,Hot Spring,2021-01-06 04:28:24.365468,2020-04-14 00:00:00.000000,0.06394599,0.11097602,0.19060111,21,37,64,13,23,40,0.03923999,0.07014994,0.11898793,0.10771746,0.15767998,0.24937926
5059,0,USArkansasHotSpring,Arkansas,Hot Spring,2021-01-06 04:28:24.365468,2020-04-15 00:00:00.000000,0.06148198,0.11404611,0.19407320,20,38,65,12,23,40,0.03792631,0.07087586,0.12030427,0.10953924,0.15698036,0.24802797
5059,0,USArkansasHotSpring,Arkansas,Hot Spring,2021-01-06 04:28:24.365468,2020-04-16 00:00:00.000000,0.06076534,0.11502874,0.19557432,20,38,66,12,24,41,0.03773835,0.07127688,0.12282846,0.10945461,0.15474774,0.24346231
5059,0,USArkansasHotSpring,Arkansas,Hot Spring,2021-01-06 04:28:24.365468,2020-04-17 00:00:00.000000,0.06189461,0.11517204,0.19331200,20,38,65,12,24,42,0.03812408,0.07252126,0.12543561,0.10940200,0.15336514,0.23549020
5059,0,USArkansasHotSpring,Arkansas,Hot Spring,2021-01-06 04:28:24.365468,2020-04-18 00:00:00.000000,0.06392046,0.11508468,0.19080758,21,38,64,12,24,43,0.03823761,0.07313397,0.12780064,0.10941720,0.15091215,0.23198040
5059,0,USArkansasHotSpring,Arkansas,Hot Spring,2021-01-06 04:28:24.365468,2020-04-19 00:00:00.000000,0.06438668,0.11484828,0.18809811,21,38,63,13,24,43,0.03884481,0.07318854,0.12769359,0.10996060,0.14770795,0.23118437
5059,0,USArkansasHotSpring,Arkansas,Hot Spring,2021-01-06 04:28:24.365468,2020-04-20 00:00:00.000000,0.06727051,0.11691947,0.19020038,22,39,64,13,24,42,0.03873354,0.07377666,0.12638045,0.11193306,0.14831137,0.23114822
5059,0,USArkansasHotSpring,Arkansas,Hot Spring,2021-01-06 04:28:24.365468,2020-04-21 00:00:00.000000,0.06726914,0.11934197,0.19421830,22,40,65,13,24,42,0.03877960,0.07354473,0.12442859,0.11357452,0.14524842,0.23137272
5059,0,USArkansasHotSpring,Arkansas,Hot Spring,2021-01-06 04:28:24.365468,2020-04-22 00:00:00.000000,0.06680457,0.12093611,0.19829188,22,40,66,13,25,41,0.04100058,0.07437147,0.12357806,0.11368836,0.14490306,0.23177816
5059,0,USArkansasHotSpring,Arkansas,Hot Spring,2021-01-06 04:28:24.365468,2020-04-23 00:00:00.000000,0.06641556,0.12189419,0.20235614,22,41,68,14,25,41,0.04218639,0.07518796,0.12366887,0.11139505,0.14743484,0.23231582
5059,0,USArkansasHotSpring,Arkansas,Hot Spring,2021-01-06 04:28:24.365468,2020-04-24 00:00:00.000000,0.06606541,0.12261640,0.20488642,22,41,69,14,25,41,0.04254116,0.07668163,0.12326901,0.11197051,0.14956559,0.23321915
5059,0,USArkansasHotSpring,Arkansas,Hot Spring,2021-01-06 04:28:24.365468,2020-04-25 00:00:00.000000,0.06573946,0.12203427,0.20630236,22,41,69,14,25,41,0.04259145,0.07693336,0.12286297,0.11312365,0.15071019,0.24291729
5059,0,USArkansasHotSpring,Arkansas,Hot Spring,2021-01-06 04:28:24.365468,2020-04-26 00:00:00.000000,0.06542967,0.12534744,0.20864670,22,42,70,14,26,42,0.04236118,0.07771001,0.12666299,0.11148799,0.15619379,0.24513534
5059,0,USArkansasHotSpring,Arkansas,Hot Spring,2021-01-06 04:28:24.365468,2020-04-27 00:00:00.000000,0.06608441,0.12607266,0.21512330,22,42,72,14,26,44,0.04214846,0.07853223,0.13035063,0.10922063,0.15864114,0.25134195
5059,0,USArkansasHotSpring,Arkansas,Hot Spring,2021-01-06 04:28:24.365468,2020-04-28 00:00:00.000000,0.06405810,0.12763765,0.22788372,21,43,76,14,26,46,0.04252117,0.07834655,0.13780754,0.10727582,0.16118572,0.25469560
5059,0,USArkansasHotSpring,Arkansas,Hot Spring,2021-01-06 04:28:24.365468,2020-04-29 00:00:00.000000,0.06223660,0.13020671,0.23484408,21,43,79,14,26,49,0.04234942,0.07757871,0.14639843,0.10720413,0.16359139,0.25343347
5059,0,USArkansasHotSpring,Arkansas,Hot Spring,2021-01-06 04:28:24.365468,2020-04-30 00:00:00.000000,0.06135597,0.13057416,0.23565354,20,44,79,14,26,51,0.04221567,0.07822457,0.15229407,0.10717761,0.16671307,0.25118059
5059,0,USArkansasHotSpring,Arkansas,Hot Spring,2021-01-06 04:28:24.365468,2020-05-01 00:00:00.000000,0.06227063,0.12973699,0.23640590,21,43,79,13,27,51,0.04109905,0.08058180,0.15341082,0.10727090,0.16966417,0.25124738
5059,0,USArkansasHotSpring,Arkansas,Hot Spring,2021-01-06 04:28:24.365468,2020-05-02 00:00:00.000000,0.06326733,0.13090858,0.23711312,21,44,80,13,27,52,0.04017568,0.08240752,0.15408008,0.10819576,0.17258171,0.25404129
5059,0,USArkansasHotSpring,Arkansas,Hot Spring,2021-01-06 04:28:24.365468,2020-05-03 00:00:00.000000,0.06289583,0.13158543,0.23777782,21,44,80,13,27,52,0.03941208,0.08289322,0.15467233,0.11073386,0.17536075,0.26144181
5059,0,USArkansasHotSpring,Arkansas,Hot Spring,2021-01-06 04:28:24.365468,2020-05-04 00:00:00.000000,0.06435652,0.13173290,0.23922194,21,44,80,13,28,52,0.03877370,0.08409637,0.15520771,0.11326213,0.17666707,0.27066566
5059,0,USArkansasHotSpring,Arkansas,Hot Spring,2021-01-06 04:28:24.365468,2020-05-05 00:00:00.000000,0.06739409,0.13327388,0.24062369,22,45,81,13,28,52,0.03900663,0.08382906,0.15591489,0.10719807,0.17751517,0.27707414
5059,0,USArkansasHotSpring,Arkansas,Hot Spring,2021-01-06 04:28:24.365468,2020-05-06 00:00:00.000000,0.06590322,0.13294975,0.24340678,22,44,82,14,27,52,0.04194513,0.08287909,0.15671819,0.10721911,0.17936083,0.27854845
5059,0,USArkansasHotSpring,Arkansas,Hot Spring,2021-01-06 04:28:24.365468,2020-05-07 00:00:00.000000,0.06497128,0.13339003,0.25049486,21,45,84,14,28,53,0.04252040,0.08429574,0.15757134,0.11343771,0.18176189,0.27903626
5059,0,USArkansasHotSpring,Arkansas,Hot Spring,2021-01-06 04:28:24.365468,2020-05-08 00:00:00.000000,0.06458969,0.13408089,0.26272722,21,45,88,14,28,53,0.04171296,0.08543793,0.15844697,0.11765338,0.18368211,0.28211451
5059,0,USArkansasHotSpring,Arkansas,Hot Spring,2021-01-06 04:28:24.365468,2020-05-09 00:00:00.000000,0.06432757,0.13898182,0.27531029,21,46,92,13,28,54,0.04120289,0.08522220,0.16018611,0.12554052,0.18866623,0.28865096
5059,0,USArkansasHotSpring,Arkansas,Hot Spring,2021-01-06 04:28:24.365468,2020-05-10 00:00:00.000000,0.06418150,0.14302441,0.28576985,21,48,96,13,29,54,0.04087915,0.08644052,0.16283225,0.13153086,0.19526906,0.29390898
5059,0,USArkansasHotSpring,Arkansas,Hot Spring,2021-01-06 04:28:24.365468,2020-05-11 00:00:00.000000,0.06605840,0.14810756,0.28210344,22,50,95,13,30,55,0.04130305,0.08893009,0.16550468,0.13369534,0.20128482,0.30084469
5059,0,USArkansasHotSpring,Arkansas,Hot Spring,2021-01-06 04:28:24.365468,2020-05-12 00:00:00.000000,0.06821249,0.15529225,0.27853864,23,52,94,14,30,56,0.04192287,0.09087464,0.16743214,0.13537697,0.20823990,0.30589227
5059,0,USArkansasHotSpring,Arkansas,Hot Spring,2021-01-06 04:28:24.365468,2020-05-13 00:00:00.000000,0.07123183,0.15702583,0.28696211,24,53,96,14,31,57,0.04263009,0.09400091,0.16909177,0.13590535,0.21709134,0.33242918
5059,0,USArkansasHotSpring,Arkansas,Hot Spring,2021-01-06 04:28:24.365468,2020-05-14 00:00:00.000000,0.07534206,0.15887675,0.29645191,25,53,100,14,33,57,0.04350542,0.09856108,0.17074253,0.13715088,0.23333732,0.34607883
5059,0,USArkansasHotSpring,Arkansas,Hot Spring,2021-01-06 04:28:24.365468,2020-05-15 00:00:00.000000,0.08005459,0.16567033,0.30643203,27,55,103,15,34,58,0.04550157,0.10241769,0.17384364,0.14681129,0.23798892,0.35044403
5059,0,USArkansasHotSpring,Arkansas,Hot Spring,2021-01-06 04:28:24.365468,2020-05-16 00:00:00.000000,0.08505708,0.17230912,0.31729395,28,58,107,16,35,60,0.04798369,0.10521481,0.17864458,0.15089286,0.24859034,0.36100613
5059,0,USArkansasHotSpring,Arkansas,Hot Spring,2021-01-06 04:28:24.365468,2020-05-17 00:00:00.000000,0.09024247,0.17811189,0.32132036,30,60,108,17,36,61,0.05079867,0.10697893,0.18323710,0.15591116,0.25025073,0.36805262
5059,0,USArkansasHotSpring,Arkansas,Hot Spring,2021-01-06 04:28:24.365468,2020-05-18 00:00:00.000000,0.09516606,0.18072581,0.32650041,32,61,110,18,36,63,0.05383367,0.10923838,0.18764307,0.16400050,0.25895910,0.38061715
5059,0,USArkansasHotSpring,Arkansas,Hot Spring,2021-01-06 04:28:24.365468,2020-05-19 00:00:00.000000,0.09851200,0.18904663,0.33504662,33,63,113,19,38,65,0.05835266,0.11314655,0.19284059,0.16493642,0.26818465,0.38774804
5059,0,USArkansasHotSpring,Arkansas,Hot Spring,2021-01-06 04:28:24.365468,2020-05-20 00:00:00.000000,0.10352662,0.19950661,0.35536912,34,67,120,20,39,66,0.06024407,0.11660736,0.19816337,0.16881454,0.27974345,0.39440847
5059,0,USArkansasHotSpring,Arkansas,Hot Spring,2021-01-06 04:28:24.365468,2020-05-21 00:00:00.000000,0.11405551,0.21242313,0.37667172,38,71,127,21,40,68,0.06231731,0.12086625,0.20399393,0.17249092,0.28982921,0.42788204
5059,0,USArkansasHotSpring,Arkansas,Hot Spring,2021-01-06 04:28:24.365468,2020-05-22 00:00:00.000000,0.12069579,0.22821451,0.39899995,40,77,134,22,42,71,0.06650975,0.12592682,0.21047928,0.18413955,0.29826789,0.46792780
5059,0,USArkansasHotSpring,Arkansas,Hot Spring,2021-01-06 04:28:24.365468,2020-05-23 00:00:00.000000,0.12646926,0.24197472,0.42248852,42,81,142,23,44,74,0.06922617,0.13213682,0.22078891,0.20620780,0.30774709,0.49780077
5059,0,USArkansasHotSpring,Arkansas,Hot Spring,2021-01-06 04:28:24.365468,2020-05-24 00:00:00.000000,0.13259215,0.25782210,0.44742894,44,87,151,24,47,78,0.07316821,0.13937759,0.23349223,0.21297353,0.31989969,0.51773520
5059,0,USArkansasHotSpring,Arkansas,Hot Spring,2021-01-06 04:28:24.365468,2020-05-25 00:00:00.000000,0.14178286,0.27668787,0.47049009,47,93,158,26,49,82,0.07762654,0.14786815,0.24544230,0.23124346,0.33747328,0.52968429
5059,0,USArkansasHotSpring,Arkansas,Hot Spring,2021-01-06 04:28:24.365468,2020-05-26 00:00:00.000000,0.15250692,0.29470203,0.50115991,51,99,169,28,52,85,0.08504194,0.15527704,0.25347747,0.26593716,0.36119726,0.53682363
5059,0,USArkansasHotSpring,Arkansas,Hot Spring,2021-01-06 04:28:24.365468,2020-05-27 00:00:00.000000,0.17383378,0.31132499,0.53198153,58,105,179,30,56,90,0.09141103,0.16743386,0.26734263,0.27368746,0.38178133,0.55426968
5059,0,USArkansasHotSpring,Arkansas,Hot Spring,2021-01-06 04:28:24.365468,2020-05-28 00:00:00.000000,0.19243424,0.33230869,0.56861777,64,112,192,33,60,96,0.09870926,0.18011689,0.28698081,0.28282511,0.40459348,0.57631123
5059,0,USArkansasHotSpring,Arkansas,Hot Spring,2021-01-06 04:28:24.365468,2020-05-29 00:00:00.000000,0.20175950,0.36392749,0.61465844,68,122,207,36,66,104,0.10735154,0.19684607,0.30990599,0.28631418,0.43286165,0.62125533
5059,0,USArkansasHotSpring,Arkansas,Hot Spring,2021-01-06 04:28:24.365468,2020-05-30 00:00:00.000000,0.21312950,0.39697639,0.67064237,71,134,226,39,70,112,0.11756609,0.20983958,0.33453965,0.30857819,0.46118912,0.68877233
5059,0,USArkansasHotSpring,Arkansas,Hot Spring,2021-01-06 04:28:24.365468,2020-05-31 00:00:00.000000,0.24637431,0.43255927,0.74354060,83,146,251,43,76,123,0.12972619,0.22577758,0.36479263,0.32879151,0.51112770,0.70508360
5059,0,USArkansasHotSpring,Arkansas,Hot Spring,2021-01-06 04:28:24.365468,2020-06-01 00:00:00.000000,0.27882481,0.47229224,0.82651338,94,159,279,48,84,135,0.14428219,0.24936397,0.40095614,0.34556053,0.54859888,0.74396434
5059,0,USArkansasHotSpring,Arkansas,Hot Spring,2021-01-06 04:28:24.365468,2020-06-02 00:00:00.000000,0.31035744,0.52466110,0.92135205,104,177,311,52,92,149,0.15398875,0.27532316,0.44315586,0.36851835,0.56567161,0.77473556
5059,0,USArkansasHotSpring,Arkansas,Hot Spring,2021-01-06 04:28:24.365468,2020-06-03 00:00:00.000000,0.34736896,0.58053353,1.02925583,117,196,347,58,104,166,0.17302807,0.30820003,0.49185985,0.41631316,0.57941129,0.82348223
5059,0,USArkansasHotSpring,Arkansas,Hot Spring,2021-01-06 04:28:24.365468,2020-06-04 00:00:00.000000,0.39069723,0.66504662,1.15248375,131,224,389,68,115,184,0.20249064,0.34324791,0.54765720,0.46102266,0.61031976,0.90056804
5059,0,USArkansasHotSpring,Arkansas,Hot Spring,2021-01-06 04:28:24.365468,2020-06-05 00:00:00.000000,0.44514807,0.76407801,1.29268464,150,258,436,79,127,206,0.23687965,0.37874903,0.61147006,0.48254922,0.63537320,0.93837342
5059,0,USArkansasHotSpring,Arkansas,Hot Spring,2021-01-06 04:28:24.365468,2020-06-06 00:00:00.000000,0.50099706,0.90341864,1.49449881,169,305,504,91,146,231,0.27155177,0.43475607,0.68426083,0.51838016,0.67310042,0.94432360
5059,0,USArkansasHotSpring,Arkansas,Hot Spring,2021-01-06 04:28:24.365468,2020-06-07 00:00:00.000000,0.57252904,1.05840069,1.74010164,193,357,587,103,167,262,0.30771316,0.49542648,0.77609976,0.56073814,0.71853949,0.95406955
5059,0,USArkansasHotSpring,Arkansas,Hot Spring,2021-01-06 04:28:24.365468,2020-06-08 00:00:00.000000,0.66044945,1.23219973,1.99671341,223,416,674,115,194,293,0.34245457,0.57601873,0.86873185,0.57614036,0.74461783,1.00768336
5059,0,USArkansasHotSpring,Arkansas,Hot Spring,2021-01-06 04:28:24.365468,2020-06-09 00:00:00.000000,0.79044908,1.41785452,2.31419433,266,478,781,131,223,333,0.39061723,0.66314695,0.98768444,0.58900111,0.77001883,1.04919595
5059,0,USArkansasHotSpring,Arkansas,Hot Spring,2021-01-06 04:28:24.365468,2020-06-10 00:00:00.000000,0.94053544,1.63042468,2.67802168,317,550,904,154,261,388,0.45659634,0.77482949,1.14895505,0.59973648,0.79916978,1.07499540
5059,0,USArkansasHotSpring,Arkansas,Hot Spring,2021-01-06 04:28:24.365468,2020-06-11 00:00:00.000000,1.11826892,1.86742333,3.09395785,377,630,1044,181,300,458,0.53618322,0.89103858,1.35641874,0.63270036,0.82984860,1.08875580
5059,0,USArkansasHotSpring,Arkansas,Hot Spring,2021-01-06 04:28:24.365468,2020-06-12 00:00:00.000000,1.32781800,2.14465301,3.56748146,448,724,1204,212,349,539,0.62976449,1.03479565,1.59644770,0.68328610,0.83950267,1.09281792
5059,0,USArkansasHotSpring,Arkansas,Hot Spring,2021-01-06 04:28:24.365468,2020-06-13 00:00:00.000000,1.57551502,2.52087210,4.10304555,532,851,1385,249,407,631,0.73905861,1.20706635,1.87000727,0.69207345,0.85569919,1.09193806
5059,0,USArkansasHotSpring,Arkansas,Hot Spring,2021-01-06 04:28:24.365468,2020-06-14 00:00:00.000000,1.86811932,2.95457166,4.70062433,630,997,1587,292,473,735,0.86642925,1.40152521,2.17677879,0.67725034,0.86664751,1.08979200
5059,0,USArkansasHotSpring,Arkansas,Hot Spring,2021-01-06 04:28:24.365468,2020-06-15 00:00:00.000000,2.21228393,3.46993697,5.35715471,747,1171,1809,343,548,849,1.01673641,1.62390301,2.51402691,0.67124324,0.86948760,1.09204677
5059,0,USArkansasHotSpring,Arkansas,Hot Spring,2021-01-06 04:28:24.365468,2020-06-16 00:00:00.000000,2.63834649,4.05675748,6.07157160,890,1370,2050,404,635,962,1.19907490,1.88117838,2.84910532,0.66703272,0.86640688,1.08200267
5059,0,USArkansasHotSpring,Arkansas,Hot Spring,2021-01-06 04:28:24.365468,2020-06-17 00:00:00.000000,3.10616928,4.68579782,6.92927067,1048,1582,2340,480,740,1099,1.42249206,2.19287052,3.25658477,0.66442559,0.86191347,1.06401037
5059,0,USArkansasHotSpring,Arkansas,Hot Spring,2021-01-06 04:28:24.365468,2020-06-18 00:00:00.000000,3.65191800,5.43489172,7.95831244,1233,1835,2687,576,865,1248,1.70828282,2.56280579,3.69598888,0.66228472,0.85493722,1.01349538
5059,0,USArkansasHotSpring,Arkansas,Hot Spring,2021-01-06 04:28:24.365468,2020-06-19 00:00:00.000000,4.28536167,6.27700296,9.10362987,1447,2119,3074,674,1016,1438,1.99751753,3.01023088,4.25878694,0.65244904,0.84673833,1.00286977
5059,0,USArkansasHotSpring,Arkansas,Hot Spring,2021-01-06 04:28:24.365468,2020-06-20 00:00:00.000000,5.02061971,7.17957403,10.36930800,1695,2424,3501,782,1182,1652,2.31726968,3.50159924,4.89222194,0.62065710,0.80822965,0.97983967
5059,0,USArkansasHotSpring,Arkansas,Hot Spring,2021-01-06 04:28:24.365468,2020-06-21 00:00:00.000000,5.87493446,8.16714577,11.73471145,1984,2758,3962,912,1360,1888,2.70159118,4.02963882,5.59270461,0.54561243,0.74576391,0.95550007
5059,0,USArkansasHotSpring,Arkansas,Hot Spring,2021-01-06 04:28:24.365468,2020-06-22 00:00:00.000000,6.85010667,9.06285863,13.10257259,2313,3060,4424,1068,1543,2118,3.16278416,4.57193906,6.27316410,0.51655754,0.67501519,0.90410729
5059,0,USArkansasHotSpring,Arkansas,Hot Spring,2021-01-06 04:28:24.365468,2020-06-23 00:00:00.000000,7.48406852,10.06754885,14.24258879,2527,3399,4809,1234,1727,2337,3.65665303,5.11506881,6.92122403,0.48908568,0.61192053,0.84622959
5059,0,USArkansasHotSpring,Arkansas,Hot Spring,2021-01-06 04:28:24.365468,2020-06-24 00:00:00.000000,8.09788669,10.79390912,15.00226004,2734,3645,5066,1372,1909,2554,4.06321452,5.65386581,7.56533624,0.43681565,0.56670153,0.76080229
5059,0,USArkansasHotSpring,Arkansas,Hot Spring,2021-01-06 04:28:24.365468,2020-06-25 00:00:00.000000,8.74582817,11.45173929,15.55043368,2953,3867,5251,1555,2105,2765,4.60573636,6.23550415,8.18890953,0.40464383,0.54337111,0.70890190
5059,0,USArkansasHotSpring,Arkansas,Hot Spring,2021-01-06 04:28:24.365468,2020-06-26 00:00:00.000000,9.42838848,12.29988758,16.48057969,3184,4153,5565,1721,2279,2963,5.09689860,6.74892597,8.77529255,0.38720527,0.51586940,0.65733327
5059,0,USArkansasHotSpring,Arkansas,Hot Spring,2021-01-06 04:28:24.365468,2020-06-27 00:00:00.000000,10.13951361,12.96545969,17.16480977,3424,4378,5796,1844,2408,3138,5.46077292,7.13092338,9.29489771,0.38699163,0.48514871,0.60932787
5059,0,USArkansasHotSpring,Arkansas,Hot Spring,2021-01-06 04:28:24.365468,2020-06-28 00:00:00.000000,10.87711458,13.42935102,17.59094082,3673,4535,5940,1971,2552,3341,5.83650915,7.55963237,9.89511780,0.36797362,0.46480346,0.58816647
5059,0,USArkansasHotSpring,Arkansas,Hot Spring,2021-01-06 04:28:24.365468,2020-06-29 00:00:00.000000,11.62668119,14.16785053,17.99530275,3926,4784,6077,2101,2676,3460,6.22396534,7.92538297,10.24607321,0.35173816,0.44690792,0.58837384
5059,0,USArkansasHotSpring,Arkansas,Hot Spring,2021-01-06 04:28:24.365468,2020-06-30 00:00:00.000000,12.23775829,14.61540066,18.24060550,4132,4935,6160,2236,2802,3558,6.62270859,8.29871156,10.53726191,0.34834746,0.44302414,0.52270799
5059,0,USArkansasHotSpring,Arkansas,Hot Spring,2021-01-06 04:28:24.365468,2020-07-01 00:00:00.000000,12.59871380,14.99435639,18.42834461,4254,5063,6223,2374,2968,3768,7.03151511,8.79130694,11.16026832,0.33799393,0.43272876,0.52142760
5059,0,USArkansasHotSpring,Arkansas,Hot Spring,2021-01-06 04:28:24.365468,2020-07-02 00:00:00.000000,12.93591331,15.31383922,19.02161013,4368,5171,6423,2514,3104,3969,7.44718988,9.19334186,11.75364107,0.32605422,0.42073724,0.51821434
5059,0,USArkansasHotSpring,Arkansas,Hot Spring,2021-01-06 04:28:24.365468,2020-07-03 00:00:00.000000,13.24617278,15.63752067,19.73398503,4473,5280,6664,2559,3182,4142,7.58003588,9.42291118,12.26536279,0.32058165,0.41555216,0.51792037
5059,0,USArkansasHotSpring,Arkansas,Hot Spring,2021-01-06 04:28:24.365468,2020-07-04 00:00:00.000000,13.52519150,15.90895077,20.09844835,4567,5372,6787,2597,3249,4242,7.69061557,9.62283475,12.56148510,0.29450968,0.40724218,0.51662428
5059,0,USArkansasHotSpring,Arkansas,Hot Spring,2021-01-06 04:28:24.365468,2020-07-05 00:00:00.000000,13.69352820,16.25706466,20.04602514,4624,5490,6769,2625,3340,4318,7.77323196,9.89243623,12.78764985,0.26620992,0.38253630,0.48562514
5059,0,USArkansasHotSpring,Arkansas,Hot Spring,2021-01-06 04:28:24.365468,2020-07-06 00:00:00.000000,13.91920206,16.36561661,19.84741309,4700,5526,6702,2642,3415,4362,7.82376830,10.11433905,12.91871049,0.22161782,0.35661063,0.46791529
5059,0,USArkansasHotSpring,Arkansas,Hot Spring,2021-01-06 04:28:24.365468,2020-07-07 00:00:00.000000,13.44573840,16.24051196,19.66209731,4540,5484,6640,2671,3447,4376,7.91074987,10.20853990,12.95850968,0.19134523,0.31882315,0.42588246
5059,0,USArkansasHotSpring,Arkansas,Hot Spring,2021-01-06 04:28:24.365468,2020-07-08 00:00:00.000000,12.82800922,15.87524052,19.54389931,4332,5361,6600,2630,3462,4385,7.79037630,10.25141465,12.98615579,0.17315224,0.28163738,0.38886446
5059,0,USArkansasHotSpring,Arkansas,Hot Spring,2021-01-06 04:28:24.365468,2020-07-09 00:00:00.000000,12.21060687,15.50355236,18.84324207,4123,5235,6363,2560,3473,4420,7.58072414,10.28541105,13.08896043,0.15732147,0.24450744,0.37374915
5059,0,USArkansasHotSpring,Arkansas,Hot Spring,2021-01-06 04:28:24.365468,2020-07-10 00:00:00.000000,11.48413629,14.80133390,18.35521876,3878,4998,6198,2462,3398,4399,7.29264367,10.06430423,13.02812290,0.13834361,0.21060237,0.34569734
5059,0,USArkansasHotSpring,Arkansas,Hot Spring,2021-01-06 04:28:24.365468,2020-07-11 00:00:00.000000,10.77159968,14.26351400,17.82802100,3637,4816,6020,2347,3303,4245,6.95253306,9.78288094,12.57203755,0.13585681,0.18391891,0.32191128
5059,0,USArkansasHotSpring,Arkansas,Hot Spring,2021-01-06 04:28:24.365468,2020-07-12 00:00:00.000000,10.08941736,13.47351268,17.27124678,3407,4550,5832,2224,3163,4155,6.58610988,9.36863558,12.30608734,0.13298740,0.17301810,0.26717425
5059,0,USArkansasHotSpring,Arkansas,Hot Spring,2021-01-06 04:28:24.365468,2020-07-13 00:00:00.000000,9.44075613,12.73246454,16.42098388,3188,4299,5545,2097,3043,4041,6.21056505,9.01268115,11.96623861,0.13028504,0.16007688,0.25240203
5059,0,USArkansasHotSpring,Arkansas,Hot Spring,2021-01-06 04:28:24.365468,2020-07-14 00:00:00.000000,8.82571230,12.03024593,15.53875074,2980,4062,5247,1971,2887,3892,5.83874334,8.55116245,11.52706835,0.12117622,0.15694773,0.24363245
5059,0,USArkansasHotSpring,Arkansas,Hot Spring,2021-01-06 04:28:24.365468,2020-07-15 00:00:00.000000,8.24452367,11.24747462,14.64048853,2784,3798,4944,1848,2720,3722,5.47494206,8.05512833,11.02356531,0.11278892,0.15432973,0.23348167
5059,0,USArkansasHotSpring,Arkansas,Hot Spring,2021-01-06 04:28:24.365468,2020-07-16 00:00:00.000000,7.62278442,10.46314510,13.72726226,2574,3533,4635,1728,2547,3539,5.11977719,7.54404210,10.47948205,0.10524412,0.15027367,0.22135072
5059,0,USArkansasHotSpring,Arkansas,Hot Spring,2021-01-06 04:28:24.365468,2020-07-17 00:00:00.000000,7.01739551,9.82690279,12.82795421,2369,3318,4332,1611,2392,3346,4.77186319,7.08400528,9.90873165,0.10141668,0.14953419,0.21476305
5059,0,USArkansasHotSpring,Arkansas,Hot Spring,2021-01-06 04:28:24.365468,2020-07-18 00:00:00.000000,6.45428452,9.18272339,12.03710685,2179,3101,4065,1496,2217,3149,4.43075354,6.56743965,9.32724607,0.10048791,0.14708100,0.21363459
5059,0,USArkansasHotSpring,Arkansas,Hot Spring,2021-01-06 04:28:24.365468,2020-07-19 00:00:00.000000,5.93314215,8.50208618,11.30778641,2003,2871,3818,1384,2059,2955,4.09840336,6.09859455,8.75076282,0.09594560,0.14687659,0.20198867
5059,0,USArkansasHotSpring,Arkansas,Hot Spring,2021-01-06 04:28:24.365468,2020-07-20 00:00:00.000000,5.46379797,7.92414742,10.73237626,1845,2676,3624,1276,1924,2766,3.77862836,5.70015481,8.19059697,0.09538877,0.14684100,0.20633541
5059,0,USArkansasHotSpring,Arkansas,Hot Spring,2021-01-06 04:28:24.365468,2020-07-21 00:00:00.000000,5.04344680,7.43662477,10.15104836,1703,2511,3428,1172,1807,2584,3.47205856,5.35125443,7.65437008,0.09616407,0.14655245,0.20589899
5059,0,USArkansasHotSpring,Arkansas,Hot Spring,2021-01-06 04:28:24.365468,2020-07-22 00:00:00.000000,4.67211131,6.91520134,9.49974112,1577,2335,3208,1074,1687,2413,3.18257045,4.99836686,7.14602333,0.09650517,0.14774878,0.20207224
5059,0,USArkansasHotSpring,Arkansas,Hot Spring,2021-01-06 04:28:24.365468,2020-07-23 00:00:00.000000,4.23550355,6.42614425,8.83626074,1430,2170,2984,983,1564,2251,2.91278879,4.63279845,6.66777274,0.09613237,0.14808880,0.19994634
5059,0,USArkansasHotSpring,Arkansas,Hot Spring,2021-01-06 04:28:24.365468,2020-07-24 00:00:00.000000,3.85561123,5.92546052,8.19597887,1302,2001,2767,901,1451,2116,2.66900852,4.29861783,6.26697228,0.10131370,0.14670038,0.20135259
5059,0,USArkansasHotSpring,Arkansas,Hot Spring,2021-01-06 04:28:24.365468,2020-07-25 00:00:00.000000,3.52452233,5.46617365,7.69121618,1190,1845,2597,827,1345,1996,2.45095738,3.98340029,5.91115298,0.10529244,0.14682620,0.20804036
5059,0,USArkansasHotSpring,Arkansas,Hot Spring,2021-01-06 04:28:24.365468,2020-07-26 00:00:00.000000,3.23142324,5.03938767,7.29233212,1091,1701,2462,761,1243,1880,2.25453868,3.68079355,5.56978490,0.10409397,0.14806786,0.22024422
5059,0,USArkansasHotSpring,Arkansas,Hot Spring,2021-01-06 04:28:24.365468,2020-07-27 00:00:00.000000,2.97011794,4.65392077,6.95522208,1003,1571,2348,701,1154,1771,2.07657306,3.41880288,5.24562346,0.10737512,0.15281658,0.22901999
5059,0,USArkansasHotSpring,Arkansas,Hot Spring,2021-01-06 04:28:24.365468,2020-07-28 00:00:00.000000,2.73387036,4.33465309,6.60234078,923,1463,2229,647,1064,1666,1.91688909,3.15189769,4.93427684,0.10723523,0.15536882,0.24376445
5059,0,USArkansasHotSpring,Arkansas,Hot Spring,2021-01-06 04:28:24.365468,2020-07-29 00:00:00.000000,2.51933001,4.02742012,6.19713106,850,1360,2092,599,993,1566,1.77391735,2.94125703,4.63869176,0.10786332,0.16056377,0.26317330
5059,0,USArkansasHotSpring,Arkansas,Hot Spring,2021-01-06 04:28:24.365468,2020-07-30 00:00:00.000000,2.36154951,3.72705335,5.82585831,797,1258,1967,555,928,1473,1.64602622,2.74808594,4.36426813,0.10712465,0.16409393,0.26949194
5059,0,USArkansasHotSpring,Arkansas,Hot Spring,2021-01-06 04:28:24.365468,2020-07-31 00:00:00.000000,2.19280818,3.47502153,5.52417969,740,1173,1865,510,867,1395,1.51185638,2.56732061,4.13079075,0.10837281,0.16864458,0.27671442
5059,0,USArkansasHotSpring,Arkansas,Hot Spring,2021-01-06 04:28:24.365468,2020-08-01 00:00:00.000000,2.04406613,3.26158475,5.24050216,690,1101,1769,471,810,1321,1.39678446,2.39862799,3.91245259,0.11228081,0.17662975,0.28027606
5059,0,USArkansasHotSpring,Arkansas,Hot Spring,2021-01-06 04:28:24.365468,2020-08-02 00:00:00.000000,1.90960442,3.06648146,4.97571585,644,1035,1680,437,756,1252,1.29694157,2.23970974,3.70816874,0.11748423,0.17868487,0.28301201
5059,0,USArkansasHotSpring,Arkansas,Hot Spring,2021-01-06 04:28:24.365468,2020-08-03 00:00:00.000000,1.78185721,2.89189754,4.70642171,601,976,1589,410,707,1187,1.21414505,2.09516694,3.51616060,0.12030122,0.18375301,0.28342198
5059,0,USArkansasHotSpring,Arkansas,Hot Spring,2021-01-06 04:28:24.365468,2020-08-04 00:00:00.000000,1.66390845,2.72160892,4.43633629,561,919,1498,383,659,1124,1.13581148,1.95389960,3.33109691,0.12506139,0.18412374,0.28200350
5059,0,USArkansasHotSpring,Arkansas,Hot Spring,2021-01-06 04:28:24.365468,2020-08-05 00:00:00.000000,1.55825468,2.56885895,4.17002528,526,867,1408,360,618,1065,1.06741208,1.83031570,3.15585285,0.12598166,0.18436382,0.28512672
5059,0,USArkansasHotSpring,Arkansas,Hot Spring,2021-01-06 04:28:24.365468,2020-08-06 00:00:00.000000,1.47832783,2.42749251,3.92053345,499,819,1324,338,578,1010,1.00310384,1.71261230,2.99139372,0.12683038,0.18620364,0.28709238
5059,0,USArkansasHotSpring,Arkansas,Hot Spring,2021-01-06 04:28:24.365468,2020-08-07 00:00:00.000000,1.40683642,2.30631192,3.68650401,475,778,1244,316,545,958,0.93828800,1.61545581,2.83687974,0.12678959,0.18897229,0.29501244
5059,0,USArkansasHotSpring,Arkansas,Hot Spring,2021-01-06 04:28:24.365468,2020-08-08 00:00:00.000000,1.32325681,2.19304489,3.46693967,446,740,1170,296,516,907,0.87664140,1.53002467,2.68662482,0.12890304,0.19095609,0.31564133
5059,0,USArkansasHotSpring,Arkansas,Hot Spring,2021-01-06 04:28:24.365468,2020-08-09 00:00:00.000000,1.23215279,2.10650753,3.26112049,416,711,1101,276,493,853,0.81812538,1.46192630,2.52597480,0.13092576,0.19133718,0.33235249
5059,0,USArkansasHotSpring,Arkansas,Hot Spring,2021-01-06 04:28:24.365468,2020-08-10 00:00:00.000000,1.15163281,2.00727302,3.06850357,388,677,1036,257,469,802,0.76266350,1.38957629,2.37539198,0.13602636,0.19530425,0.34174367
5059,0,USArkansasHotSpring,Arkansas,Hot Spring,2021-01-06 04:28:24.365468,2020-08-11 00:00:00.000000,1.07608296,1.90524071,2.88905168,363,643,975,240,446,754,0.71179748,1.32325872,2.23430592,0.13628823,0.19925346,0.32844145
5059,0,USArkansasHotSpring,Arkansas,Hot Spring,2021-01-06 04:28:24.365468,2020-08-12 00:00:00.000000,1.00557749,1.80942522,2.72307596,339,611,919,224,429,709,0.66473685,1.27146127,2.10237883,0.13715655,0.20294990,0.32025682
5059,0,USArkansasHotSpring,Arkansas,Hot Spring,2021-01-06 04:28:24.365468,2020-08-13 00:00:00.000000,0.93992379,1.71624547,2.57136936,317,579,868,209,413,668,0.62104861,1.22544665,1.97949787,0.14085607,0.20838389,0.32315692
5059,0,USArkansasHotSpring,Arkansas,Hot Spring,2021-01-06 04:28:24.365468,2020-08-14 00:00:00.000000,0.88353152,1.62465230,2.43490055,298,548,822,197,397,630,0.58540168,1.17612467,1.86581046,0.14229186,0.21173925,0.34856698
5059,0,USArkansasHotSpring,Arkansas,Hot Spring,2021-01-06 04:28:24.365468,2020-08-15 00:00:00.000000,0.83489029,1.55274762,2.31396090,281,524,781,186,376,594,0.55228911,1.11516395,1.76166508,0.14764595,0.21625202,0.35616167
5059,0,USArkansasHotSpring,Arkansas,Hot Spring,2021-01-06 04:28:24.365468,2020-08-16 00:00:00.000000,0.79005767,1.48370811,2.20732347,266,501,745,176,357,563,0.52149403,1.05996358,1.66734674,0.14910171,0.21922080,0.36015747
5059,0,USArkansasHotSpring,Arkansas,Hot Spring,2021-01-06 04:28:24.365468,2020-08-17 00:00:00.000000,0.75303537,1.42713704,2.11134183,254,481,713,166,340,535,0.49297976,1.00714471,1.58489422,0.14992309,0.22301917,0.36396824
5059,0,USArkansasHotSpring,Arkansas,Hot Spring,2021-01-06 04:28:24.365468,2020-08-18 00:00:00.000000,0.72078405,1.36665405,2.03059783,243,461,685,158,324,509,0.46800677,0.96137407,1.50768501,0.15425061,0.22344584,0.36627333
5059,0,USArkansasHotSpring,Arkansas,Hot Spring,2021-01-06 04:28:24.365468,2020-08-19 00:00:00.000000,0.69286496,1.29130282,1.98110962,233,436,669,150,307,486,0.44626765,0.91142157,1.44151206,0.15946637,0.22651479,0.37189727
5059,0,USArkansasHotSpring,Arkansas,Hot Spring,2021-01-06 04:28:24.365468,2020-08-20 00:00:00.000000,0.66818551,1.23105619,1.93313452,225,415,652,144,290,470,0.42739887,0.85905811,1.39373442,0.16159166,0.22862499,0.38291272
5059,0,USArkansasHotSpring,Arkansas,Hot Spring,2021-01-06 04:28:24.365468,2020-08-21 00:00:00.000000,0.64614246,1.19134732,1.88569562,218,402,636,138,276,456,0.41088183,0.81748152,1.35192785,0.16443544,0.23313590,0.39036623
5059,0,USArkansasHotSpring,Arkansas,Hot Spring,2021-01-06 04:28:24.365468,2020-08-22 00:00:00.000000,0.62670974,1.14215139,1.83745935,211,385,620,133,263,445,0.39627456,0.78026988,1.31772628,0.17265509,0.23791390,0.39472079
5059,0,USArkansasHotSpring,Arkansas,Hot Spring,2021-01-06 04:28:24.365468,2020-08-23 00:00:00.000000,0.61026216,1.11021057,1.78688682,206,374,603,129,253,433,0.38336544,0.74937140,1.28401242,0.18385320,0.24542075,0.38017730
5059,0,USArkansasHotSpring,Arkansas,Hot Spring,2021-01-06 04:28:24.365468,2020-08-24 00:00:00.000000,0.59702408,1.06834986,1.72457446,201,360,582,125,244,422,0.37218571,0.72517010,1.24983677,0.18997652,0.24988284,0.39918830
5059,0,USArkansasHotSpring,Arkansas,Hot Spring,2021-01-06 04:28:24.365468,2020-08-25 00:00:00.000000,0.58699662,1.02442051,1.66023959,198,345,560,122,236,409,0.36282891,0.70026588,1.21172913,0.19272277,0.26315476,0.40086128
5059,0,USArkansasHotSpring,Arkansas,Hot Spring,2021-01-06 04:28:24.365468,2020-08-26 00:00:00.000000,0.57939086,0.98274969,1.59533788,195,331,538,120,226,395,0.35534901,0.67173062,1.17082597,0.19487135,0.26421899,0.40320178
5059,0,USArkansasHotSpring,Arkansas,Hot Spring,2021-01-06 04:28:24.365468,2020-08-27 00:00:00.000000,0.55665730,0.96113947,1.56567688,187,324,528,118,216,381,0.34951954,0.64214639,1.12834936,0.20281916,0.27210438,0.40346742
5059,0,USArkansasHotSpring,Arkansas,Hot Spring,2021-01-06 04:28:24.365468,2020-08-28 00:00:00.000000,0.53118722,0.92921045,1.54625696,179,313,522,116,210,366,0.34492437,0.62381872,1.08543819,0.20305220,0.28875704,0.41765479
5059,0,USArkansasHotSpring,Arkansas,Hot Spring,2021-01-06 04:28:24.365468,2020-08-29 00:00:00.000000,0.50734256,0.89779339,1.52910524,171,303,516,112,204,353,0.33225629,0.60635653,1.04535924,0.20444612,0.29908088,0.43305598
5059,0,USArkansasHotSpring,Arkansas,Hot Spring,2021-01-06 04:28:24.365468,2020-08-30 00:00:00.000000,0.48920422,0.86679667,1.51364331,165,292,511,107,198,347,0.31853527,0.58882450,1.02983767,0.21079036,0.30726345,0.43483765
5059,0,USArkansasHotSpring,Arkansas,Hot Spring,2021-01-06 04:28:24.365468,2020-08-31 00:00:00.000000,0.49209459,0.84186429,1.48049240,166,284,499,103,195,343,0.30657505,0.57822267,1.01633097,0.22829746,0.31899320,0.45976403
5059,0,USArkansasHotSpring,Arkansas,Hot Spring,2021-01-06 04:28:24.365468,2020-09-01 00:00:00.000000,0.49651554,0.82242624,1.42864935,167,277,482,101,188,338,0.30014746,0.55874843,1.00089930,0.22795273,0.32586059,0.47318021
5059,0,USArkansasHotSpring,Arkansas,Hot Spring,2021-01-06 04:28:24.365468,2020-09-02 00:00:00.000000,0.50321218,0.81067616,1.37905083,169,273,465,99,182,329,0.29439474,0.54090789,0.97660041,0.22809157,0.33386039,0.47684698
5059,0,USArkansasHotSpring,Arkansas,Hot Spring,2021-01-06 04:28:24.365468,2020-09-03 00:00:00.000000,0.51365935,0.79723251,1.35881065,173,269,458,97,178,322,0.28889980,0.52786448,0.95567864,0.22857696,0.34858373,0.49269604
5059,0,USArkansasHotSpring,Arkansas,Hot Spring,2021-01-06 04:28:24.365468,2020-09-04 00:00:00.000000,0.52650077,0.78656703,1.36046402,177,265,459,99,175,315,0.29346557,0.52101588,0.93311222,0.24535908,0.35939483,0.51296422
5059,0,USArkansasHotSpring,Arkansas,Hot Spring,2021-01-06 04:28:24.365468,2020-09-05 00:00:00.000000,0.53804296,0.77762712,1.36191737,181,262,459,101,173,304,0.29948461,0.51496661,0.90111154,0.26356550,0.37163747,0.53248547
5059,0,USArkansasHotSpring,Arkansas,Hot Spring,2021-01-06 04:28:24.365468,2020-09-06 00:00:00.000000,0.54329084,0.76126514,1.36225306,183,257,460,103,170,301,0.30649188,0.50378798,0.89329542,0.26077903,0.39003289,0.54528578
5059,0,USArkansasHotSpring,Arkansas,Hot Spring,2021-01-06 04:28:24.365468,2020-09-07 00:00:00.000000,0.54770671,0.76103274,1.36813595,184,257,462,106,167,299,0.31414206,0.49587826,0.88653675,0.25934590,0.39625794,0.55057949
5059,0,USArkansasHotSpring,Arkansas,Hot Spring,2021-01-06 04:28:24.365468,2020-09-08 00:00:00.000000,0.54897414,0.74884004,1.37649293,185,252,464,108,166,297,0.32062650,0.49190232,0.88023295,0.26988223,0.41018514,0.55398500
5059,0,USArkansasHotSpring,Arkansas,Hot Spring,2021-01-06 04:28:24.365468,2020-09-09 00:00:00.000000,0.53647818,0.74649673,1.38184946,181,252,466,108,163,295,0.32088656,0.48519331,0.87436927,0.28481430,0.41418810,0.55752107
5059,0,USArkansasHotSpring,Arkansas,Hot Spring,2021-01-06 04:28:24.365468,2020-09-10 00:00:00.000000,0.52685658,0.75286613,1.38413231,177,254,467,107,164,293,0.31718605,0.48723226,0.86900668,0.28955155,0.42147942,0.57305800
5059,0,USArkansasHotSpring,Arkansas,Hot Spring,2021-01-06 04:28:24.365468,2020-09-11 00:00:00.000000,0.54528165,0.76066589,1.38455502,184,256,467,104,161,291,0.31011143,0.47953437,0.86432770,0.29439512,0.42889169,0.57432344
5059,0,USArkansasHotSpring,Arkansas,Hot Spring,2021-01-06 04:28:24.365468,2020-09-12 00:00:00.000000,0.56147462,0.77057255,1.38384974,189,260,467,102,163,290,0.30498564,0.48484188,0.86059310,0.31591398,0.44376977,0.58746993
5059,0,USArkansasHotSpring,Arkansas,Hot Spring,2021-01-06 04:28:24.365468,2020-09-13 00:00:00.000000,0.55860647,0.78749746,1.38236464,188,265,466,107,166,289,0.31979912,0.49349511,0.85801666,0.34249632,0.45026167,0.59662721
5059,0,USArkansasHotSpring,Arkansas,Hot Spring,2021-01-06 04:28:24.365468,2020-09-14 00:00:00.000000,0.55311091,0.79736856,1.38472553,186,269,467,109,169,292,0.32554671,0.50045911,0.86565822,0.36587484,0.46178787,0.60057934
5059,0,USArkansasHotSpring,Arkansas,Hot Spring,2021-01-06 04:28:24.365468,2020-09-15 00:00:00.000000,0.54795533,0.80959445,1.38665712,185,273,468,111,172,296,0.32898614,0.50946902,0.87673712,0.36859401,0.46870000,0.60958653
5059,0,USArkansasHotSpring,Arkansas,Hot Spring,2021-01-06 04:28:24.365468,2020-09-16 00:00:00.000000,0.55133309,0.81985384,1.38844619,186,276,468,112,174,299,0.33365526,0.51734004,0.88689093,0.36980364,0.47420490,0.62990784
5059,0,USArkansasHotSpring,Arkansas,Hot Spring,2021-01-06 04:28:24.365468,2020-09-17 00:00:00.000000,0.57513970,0.83382071,1.38989109,194,281,469,114,176,302,0.33897681,0.52372261,0.89667845,0.38085820,0.48503782,0.66110103
5059,0,USArkansasHotSpring,Arkansas,Hot Spring,2021-01-06 04:28:24.365468,2020-09-18 00:00:00.000000,0.58056209,0.84632717,1.42094406,196,285,479,117,181,306,0.34772099,0.53777149,0.90702027,0.39486938,0.49938650,0.66023666
5059,0,USArkansasHotSpring,Arkansas,Hot Spring,2021-01-06 04:28:24.365468,2020-09-19 00:00:00.000000,0.58761356,0.86947293,1.45432257,198,293,491,119,183,313,0.35461559,0.54397943,0.92792955,0.39878920,0.50742537,0.67030982
5059,0,USArkansasHotSpring,Arkansas,Hot Spring,2021-01-06 04:28:24.365468,2020-09-20 00:00:00.000000,0.59550634,0.90323051,1.49020218,201,305,503,121,185,320,0.35995742,0.54787329,0.94939458,0.40485543,0.51829369,0.66742739
5059,0,USArkansasHotSpring,Arkansas,Hot Spring,2021-01-06 04:28:24.365468,2020-09-21 00:00:00.000000,0.60472715,0.92485221,1.50881888,204,312,509,122,188,325,0.36404413,0.55940851,0.96308227,0.40800492,0.52992401,0.67728184
5059,0,USArkansasHotSpring,Arkansas,Hot Spring,2021-01-06 04:28:24.365468,2020-09-22 00:00:00.000000,0.61403037,0.94175778,1.52919870,207,318,516,124,192,328,0.36845358,0.57101377,0.97403956,0.41835869,0.53347835,0.69024523
5059,0,USArkansasHotSpring,Arkansas,Hot Spring,2021-01-06 04:28:24.365468,2020-09-23 00:00:00.000000,0.62342948,0.96390183,1.54693641,210,325,522,126,197,332,0.37443705,0.58429201,0.98520439,0.41971281,0.53696858,0.70044904
5059,0,USArkansasHotSpring,Arkansas,Hot Spring,2021-01-06 04:28:24.365468,2020-09-24 00:00:00.000000,0.63110570,1.00856035,1.56002870,213,340,526,128,203,336,0.38155275,0.60393561,0.99646330,0.42674153,0.53680274,0.71869479
5059,0,USArkansasHotSpring,Arkansas,Hot Spring,2021-01-06 04:28:24.365468,2020-09-25 00:00:00.000000,0.63760637,1.04218338,1.56811126,215,351,529,130,212,340,0.38704944,0.62799381,1.00769818,0.43624208,0.55113103,0.72627630
5059,0,USArkansasHotSpring,Arkansas,Hot Spring,2021-01-06 04:28:24.365468,2020-09-26 00:00:00.000000,0.64798870,1.06388085,1.59948181,218,359,540,132,218,344,0.39314425,0.64725576,1.01879510,0.42944215,0.55168957,0.73101477
5059,0,USArkansasHotSpring,Arkansas,Hot Spring,2021-01-06 04:28:24.365468,2020-09-27 00:00:00.000000,0.66344491,1.09528662,1.66347276,224,369,561,135,225,349,0.40023779,0.66782719,1.03439183,0.42391900,0.55818782,0.73150623
5059,0,USArkansasHotSpring,Arkansas,Hot Spring,2021-01-06 04:28:24.365468,2020-09-28 00:00:00.000000,0.67753576,1.11956438,1.69452055,228,378,572,138,231,353,0.40882967,0.68528701,1.04811924,0.42290330,0.57124473,0.73267840
5059,0,USArkansasHotSpring,Arkansas,Hot Spring,2021-01-06 04:28:24.365468,2020-09-29 00:00:00.000000,0.70683090,1.15969547,1.74198393,238,391,588,141,239,355,0.41950052,0.70840787,1.05341264,0.42024176,0.57513406,0.73443282
5059,0,USArkansasHotSpring,Arkansas,Hot Spring,2021-01-06 04:28:24.365468,2020-09-30 00:00:00.000000,0.71887777,1.19841210,1.78744686,242,404,603,146,245,361,0.43261767,0.72715157,1.06926831,0.42095855,0.58199359,0.73107063
5059,0,USArkansasHotSpring,Arkansas,Hot Spring,2021-01-06 04:28:24.365468,2020-10-01 00:00:00.000000,0.73055816,1.22757032,1.82974084,246,414,617,151,251,370,0.44841881,0.74452863,1.09734365,0.42862089,0.58494831,0.72884590
5059,0,USArkansasHotSpring,Arkansas,Hot Spring,2021-01-06 04:28:24.365468,2020-10-02 00:00:00.000000,0.74734687,1.25680247,1.85663876,252,424,627,157,257,378,0.46699887,0.76367912,1.12044880,0.44093706,0.58108044,0.72940085
5059,0,USArkansasHotSpring,Arkansas,Hot Spring,2021-01-06 04:28:24.365468,2020-10-03 00:00:00.000000,0.76817566,1.28956528,1.88109345,259,435,635,164,262,385,0.48825880,0.77586953,1.14019132,0.44658409,0.57858668,0.73291882
5059,0,USArkansasHotSpring,Arkansas,Hot Spring,2021-01-06 04:28:24.365468,2020-10-04 00:00:00.000000,0.79005939,1.32177102,1.94081372,266,446,655,169,266,390,0.50311438,0.78865166,1.15778901,0.45359836,0.57768257,0.75258666
5059,0,USArkansasHotSpring,Arkansas,Hot Spring,2021-01-06 04:28:24.365468,2020-10-05 00:00:00.000000,0.81527098,1.34949889,1.97421323,275,455,666,174,272,396,0.51722022,0.80806650,1.17400796,0.45219010,0.58229327,0.78228890
5059,0,USArkansasHotSpring,Arkansas,Hot Spring,2021-01-06 04:28:24.365468,2020-10-06 00:00:00.000000,0.84191915,1.37492387,2.00690878,284,464,677,179,279,406,0.53299124,0.82758673,1.20432836,0.46078862,0.58463096,0.79680638
5059,0,USArkansasHotSpring,Arkansas,Hot Spring,2021-01-06 04:28:24.365468,2020-10-07 00:00:00.000000,0.87176761,1.41411761,2.07598129,294,477,701,185,287,427,0.54977128,0.84998479,1.26731892,0.43946463,0.59044952,0.79845847
5059,0,USArkansasHotSpring,Arkansas,Hot Spring,2021-01-06 04:28:24.365468,2020-10-08 00:00:00.000000,0.91953638,1.44903704,2.15292459,310,489,727,191,295,448,0.56663263,0.87402091,1.32809713,0.43623312,0.59195424,0.78798915
5059,0,USArkansasHotSpring,Arkansas,Hot Spring,2021-01-06 04:28:24.365468,2020-10-09 00:00:00.000000,0.94700980,1.47830420,2.22263013,319,499,750,194,302,457,0.57596835,0.89478646,1.35568817,0.43113168,0.60193805,0.76287320
5059,0,USArkansasHotSpring,Arkansas,Hot Spring,2021-01-06 04:28:24.365468,2020-10-10 00:00:00.000000,0.96826646,1.51533999,2.28926223,326,511,773,198,311,474,0.58685404,0.92131857,1.40434369,0.43055757,0.60299732,0.78663056
5059,0,USArkansasHotSpring,Arkansas,Hot Spring,2021-01-06 04:28:24.365468,2020-10-11 00:00:00.000000,0.99190019,1.55073903,2.35498168,334,523,795,202,318,490,0.59918460,0.94418551,1.45219474,0.43350771,0.60389937,0.79490544
5059,0,USArkansasHotSpring,Arkansas,Hot Spring,2021-01-06 04:28:24.365468,2020-10-12 00:00:00.000000,1.02041993,1.60257637,2.41710186,344,541,816,207,323,506,0.61298643,0.95772776,1.49844409,0.44631519,0.60999352,0.80401873
5059,0,USArkansasHotSpring,Arkansas,Hot Spring,2021-01-06 04:28:24.365468,2020-10-13 00:00:00.000000,1.05661222,1.63839856,2.47975599,356,553,837,212,329,521,0.62893834,0.97441352,1.54281992,0.45657437,0.61695618,0.82243360
5059,0,USArkansasHotSpring,Arkansas,Hot Spring,2021-01-06 04:28:24.365468,2020-10-14 00:00:00.000000,1.10685750,1.67538520,2.54383774,373,565,859,218,337,535,0.64623186,0.99824158,1.58617523,0.46199400,0.61739854,0.84167694
5059,0,USArkansasHotSpring,Arkansas,Hot Spring,2021-01-06 04:28:24.365468,2020-10-15 00:00:00.000000,1.15923050,1.71610052,2.60847106,391,579,880,227,342,544,0.67403659,1.01284232,1.61357378,0.46092473,0.61859927,0.85915733
5059,0,USArkansasHotSpring,Arkansas,Hot Spring,2021-01-06 04:28:24.365468,2020-10-16 00:00:00.000000,1.21376042,1.78016587,2.67438537,409,601,903,237,355,552,0.70192844,1.05364712,1.63486268,0.46015774,0.61531099,0.88208982
5059,0,USArkansasHotSpring,Arkansas,Hot Spring,2021-01-06 04:28:24.365468,2020-10-17 00:00:00.000000,1.26206890,1.84020328,2.74271715,426,621,926,244,367,558,0.72378188,1.08738526,1.65295932,0.46254369,0.62316124,0.92567052
5059,0,USArkansasHotSpring,Arkansas,Hot Spring,2021-01-06 04:28:24.365468,2020-10-18 00:00:00.000000,1.31423516,1.90275212,2.77015119,443,642,935,253,376,560,0.75196934,1.11480537,1.65930348,0.46464773,0.63620687,0.95115881
5059,0,USArkansasHotSpring,Arkansas,Hot Spring,2021-01-06 04:28:24.365468,2020-10-19 00:00:00.000000,1.36630119,1.99084114,2.80724829,461,672,948,265,393,562,0.78751083,1.16482728,1.66639514,0.47584545,0.65316893,0.97923342
5059,0,USArkansasHotSpring,Arkansas,Hot Spring,2021-01-06 04:28:24.365468,2020-10-20 00:00:00.000000,1.42021461,2.07215216,2.85128927,479,699,962,281,402,573,0.83253404,1.19147047,1.69694180,0.49794317,0.66414025,0.98866283
5059,0,USArkansasHotSpring,Arkansas,Hot Spring,2021-01-06 04:28:24.365468,2020-10-21 00:00:00.000000,1.47539818,2.14722050,2.89412355,498,725,977,298,412,582,0.88367264,1.22052830,1.72536965,0.51026054,0.67037344,0.99312759
5059,0,USArkansasHotSpring,Arkansas,Hot Spring,2021-01-06 04:28:24.365468,2020-10-22 00:00:00.000000,1.53184022,2.24328853,2.93638022,517,757,991,316,429,591,0.93861894,1.27041897,1.75058784,0.50986197,0.67995277,1.00034092
5059,0,USArkansasHotSpring,Arkansas,Hot Spring,2021-01-06 04:28:24.365468,2020-10-23 00:00:00.000000,1.58961542,2.31272788,3.05259323,536,781,1030,329,448,597,0.97676566,1.32678190,1.76881602,0.51180478,0.68388947,1.00971965
5059,0,USArkansasHotSpring,Arkansas,Hot Spring,2021-01-06 04:28:24.365468,2020-10-24 00:00:00.000000,1.64906831,2.37813015,3.24570390,556,803,1096,337,468,618,1.00073948,1.38617224,1.83085140,0.51896153,0.67609162,1.01774949
5059,0,USArkansasHotSpring,Arkansas,Hot Spring,2021-01-06 04:28:24.365468,2020-10-25 00:00:00.000000,1.71252666,2.43932981,3.36399713,578,823,1136,346,486,657,1.02595357,1.44064158,1.94807191,0.51943608,0.66705213,1.02233531
5059,0,USArkansasHotSpring,Arkansas,Hot Spring,2021-01-06 04:28:24.365468,2020-10-26 00:00:00.000000,1.78653279,2.52767650,3.44356427,603,853,1162,355,491,672,1.05386000,1.45499738,1.99003367,0.52773971,0.67625781,1.02405214
5059,0,USArkansasHotSpring,Arkansas,Hot Spring,2021-01-06 04:28:24.365468,2020-10-27 00:00:00.000000,1.86355291,2.60473339,3.52430538,629,879,1190,368,506,686,1.09010682,1.49971660,2.03303698,0.52691969,0.69780122,1.02366318
5059,0,USArkansasHotSpring,Arkansas,Hot Spring,2021-01-06 04:28:24.365468,2020-10-28 00:00:00.000000,1.95419443,2.64678808,3.60803894,659,893,1218,382,523,701,1.13270255,1.55161909,2.07669639,0.52661997,0.69933424,1.02059835
5059,0,USArkansasHotSpring,Arkansas,Hot Spring,2021-01-06 04:28:24.365468,2020-10-29 00:00:00.000000,2.01283023,2.70876914,3.69615227,679,914,1248,397,538,716,1.17795354,1.59352418,2.12114559,0.54761195,0.70302629,1.01192583
5059,0,USArkansasHotSpring,Arkansas,Hot Spring,2021-01-06 04:28:24.365468,2020-10-30 00:00:00.000000,2.08393310,2.77439146,3.78910908,703,936,1279,405,553,738,1.20188413,1.64014015,2.18609628,0.57208522,0.70497366,0.99080155
5059,0,USArkansasHotSpring,Arkansas,Hot Spring,2021-01-06 04:28:24.365468,2020-10-31 00:00:00.000000,2.15973436,2.83815005,3.88582495,729,958,1312,422,570,767,1.25120579,1.68797891,2.27383421,0.56536252,0.70526960,0.97823420
5059,0,USArkansasHotSpring,Arkansas,Hot Spring,2021-01-06 04:28:24.365468,2020-11-01 00:00:00.000000,2.24491814,2.92851752,3.98416351,758,988,1345,437,586,798,1.29401335,1.73622954,2.36297664,0.54474428,0.70855270,0.99550823
5059,0,USArkansasHotSpring,Arkansas,Hot Spring,2021-01-06 04:28:24.365468,2020-11-02 00:00:00.000000,2.30990587,3.02320459,4.11266417,780,1020,1388,443,603,828,1.31371489,1.78633180,2.45353546,0.54411877,0.71525506,0.99595168
5059,0,USArkansasHotSpring,Arkansas,Hot Spring,2021-01-06 04:28:24.365468,2020-11-03 00:00:00.000000,2.37186047,3.11735499,4.24272899,801,1052,1432,455,622,860,1.34799351,1.84303257,2.54678277,0.54973873,0.70718477,0.96433957
5059,0,USArkansasHotSpring,Arkansas,Hot Spring,2021-01-06 04:28:24.365468,2020-11-04 00:00:00.000000,2.43867965,3.21582481,4.34738728,823,1086,1468,465,638,892,1.37988162,1.89177712,2.64190308,0.55668813,0.71377711,0.96108377
5059,0,USArkansasHotSpring,Arkansas,Hot Spring,2021-01-06 04:28:24.365468,2020-11-05 00:00:00.000000,2.50442926,3.29761956,4.40851686,845,1113,1488,480,650,924,1.42189606,1.92517788,2.73809340,0.55430467,0.69352629,0.92971986
5059,0,USArkansasHotSpring,Arkansas,Hot Spring,2021-01-06 04:28:24.365468,2020-11-06 00:00:00.000000,2.56385614,3.33095344,4.48960699,865,1124,1516,490,674,950,1.45253886,1.99653290,2.81457608,0.55312853,0.68641568,0.92430160
5059,0,USArkansasHotSpring,Arkansas,Hot Spring,2021-01-06 04:28:24.365468,2020-11-07 00:00:00.000000,2.59520308,3.44239429,4.56754959,876,1162,1542,497,696,970,1.47191330,2.06245423,2.87460346,0.56387005,0.68246570,0.90797601
5059,0,USArkansasHotSpring,Arkansas,Hot Spring,2021-01-06 04:28:24.365468,2020-11-08 00:00:00.000000,2.66848044,3.52539600,4.70015589,901,1190,1587,503,716,989,1.49174733,2.12098904,2.93090579,0.54734532,0.67535823,0.90304716
5059,0,USArkansasHotSpring,Arkansas,Hot Spring,2021-01-06 04:28:24.365468,2020-11-09 00:00:00.000000,2.73517312,3.59030877,4.82231204,923,1212,1628,510,733,1020,1.51299186,2.17223290,3.02151938,0.53844701,0.66934782,0.90761510
5059,0,USArkansasHotSpring,Arkansas,Hot Spring,2021-01-06 04:28:24.365468,2020-11-10 00:00:00.000000,2.81078162,3.64930605,4.97226710,949,1232,1679,518,747,1058,1.53494166,2.21274340,3.13362062,0.53286313,0.67043809,0.90127591
5059,0,USArkansasHotSpring,Arkansas,Hot Spring,2021-01-06 04:28:24.365468,2020-11-11 00:00:00.000000,2.83590015,3.71774460,5.11964530,957,1255,1728,532,757,1093,1.57604325,2.24392619,3.23860942,0.54323383,0.65692035,0.88226703
5059,0,USArkansasHotSpring,Arkansas,Hot Spring,2021-01-06 04:28:24.365468,2020-11-12 00:00:00.000000,2.82315565,3.75547621,5.26317705,953,1268,1777,547,772,1124,1.62258673,2.28718796,3.32847167,0.54688004,0.64442866,0.85244365
5059,0,USArkansasHotSpring,Arkansas,Hot Spring,2021-01-06 04:28:24.365468,2020-11-13 00:00:00.000000,2.91083071,3.79025134,5.35870653,983,1280,1809,563,783,1147,1.66956887,2.31898898,3.39650033,0.54272795,0.64444442,0.83952166
5059,0,USArkansasHotSpring,Arkansas,Hot Spring,2021-01-06 04:28:24.365468,2020-11-14 00:00:00.000000,3.00127591,3.82454918,5.36579768,1013,1291,1812,565,800,1162,1.67589186,2.37140913,3.44191820,0.52946416,0.64770773,0.85897013
5059,0,USArkansasHotSpring,Arkansas,Hot Spring,2021-01-06 04:28:24.365468,2020-11-15 00:00:00.000000,3.02071196,3.84160525,5.36359875,1020,1297,1811,583,813,1164,1.72642642,2.40976884,3.44914230,0.50714710,0.64769865,0.86776909
5059,0,USArkansasHotSpring,Arkansas,Hot Spring,2021-01-06 04:28:24.365468,2020-11-16 00:00:00.000000,3.03850308,3.85950535,5.37360183,1026,1303,1814,601,817,1171,1.78164967,2.42075462,3.46900097,0.48743676,0.64377794,0.86631089
5059,0,USArkansasHotSpring,Arkansas,Hot Spring,2021-01-06 04:28:24.365468,2020-11-17 00:00:00.000000,3.05510198,3.88491319,5.44538454,1031,1311,1838,618,820,1179,1.83270425,2.42924373,3.49407448,0.47411972,0.64697357,0.86530013
5059,0,USArkansasHotSpring,Arkansas,Hot Spring,2021-01-06 04:28:24.365468,2020-11-18 00:00:00.000000,3.07007855,3.89197043,5.48482082,1036,1314,1852,616,825,1205,1.82425549,2.44312582,3.56841821,0.47403830,0.64731216,0.86373399
5059,0,USArkansasHotSpring,Arkansas,Hot Spring,2021-01-06 04:28:24.365468,2020-11-19 00:00:00.000000,3.06605843,3.91539096,5.51507602,1035,1322,1862,611,827,1227,1.81148715,2.44933495,3.63417382,0.47534046,0.64946514,0.88257788
5059,0,USArkansasHotSpring,Arkansas,Hot Spring,2021-01-06 04:28:24.365468,2020-11-20 00:00:00.000000,3.06394518,3.92412400,5.53222489,1034,1325,1868,607,833,1240,1.79904281,2.46773097,3.67352156,0.47980183,0.64241922,0.88181039
5059,0,USArkansasHotSpring,Arkansas,Hot Spring,2021-01-06 04:28:24.365468,2020-11-21 00:00:00.000000,3.06756735,3.92714127,5.53717704,1035,1326,1869,603,829,1251,1.78786518,2.45716022,3.70674111,0.48804742,0.64885561,0.94072773
5059,0,USArkansasHotSpring,Arkansas,Hot Spring,2021-01-06 04:28:24.365468,2020-11-22 00:00:00.000000,3.06389364,3.96439701,5.52856464,1034,1338,1867,600,845,1261,1.77928749,2.50427980,3.73495529,0.49379521,0.65029411,0.93859901
5059,0,USArkansasHotSpring,Arkansas,Hot Spring,2021-01-06 04:28:24.365468,2020-11-23 00:00:00.000000,3.06818341,4.00144869,5.50877927,1036,1351,1860,599,846,1269,1.77448490,2.50722314,3.75853564,0.49532443,0.65635742,0.92522225
5059,0,USArkansasHotSpring,Arkansas,Hot Spring,2021-01-06 04:28:24.365468,2020-11-24 00:00:00.000000,3.07517011,4.03379986,5.48484085,1038,1362,1852,599,844,1272,1.77389219,2.50022030,3.76875888,0.48963742,0.65392223,0.89973689
5059,0,USArkansasHotSpring,Arkansas,Hot Spring,2021-01-06 04:28:24.365468,2020-11-25 00:00:00.000000,3.04927075,4.04378288,5.51030469,1029,1365,1860,604,846,1269,1.79078831,2.50601909,3.75783168,0.48865481,0.65079624,0.89637400
5059,0,USArkansasHotSpring,Arkansas,Hot Spring,2021-01-06 04:28:24.365468,2020-11-26 00:00:00.000000,2.98314789,4.06009583,5.52723195,1007,1371,1866,608,843,1266,1.80051483,2.49853187,3.74954325,0.49246982,0.65801659,0.90933165
5059,0,USArkansasHotSpring,Arkansas,Hot Spring,2021-01-06 04:28:24.365468,2020-11-27 00:00:00.000000,2.96283444,4.07528254,5.56193295,1000,1376,1878,602,846,1268,1.78540603,2.50573018,3.75583161,0.49667909,0.65317425,0.91851688
5059,0,USArkansasHotSpring,Arkansas,Hot Spring,2021-01-06 04:28:24.365468,2020-11-28 00:00:00.000000,2.99659034,4.09703617,5.60453246,1011,1383,1892,603,851,1275,1.78784030,2.52032888,3.77718767,0.51064847,0.66750945,0.92570866
5059,0,USArkansasHotSpring,Arkansas,Hot Spring,2021-01-06 04:28:24.365468,2020-11-29 00:00:00.000000,3.00832969,4.09940519,5.65466865,1015,1384,1909,605,855,1282,1.79281851,2.53206763,3.79770825,0.51636378,0.68753523,0.92575989
5059,0,USArkansasHotSpring,Arkansas,Hot Spring,2021-01-06 04:28:24.365468,2020-11-30 00:00:00.000000,2.97644586,4.08463217,5.70238753,1005,1379,1925,607,858,1279,1.79826481,2.54347705,3.78898300,0.52084924,0.70649397,0.93234268
5059,0,USArkansasHotSpring,Arkansas,Hot Spring,2021-01-06 04:28:24.365468,2020-12-01 00:00:00.000000,2.95091229,4.11254629,5.74622133,996,1388,1940,613,855,1277,1.81698571,2.53348320,3.78218227,0.54147821,0.72118302,0.95454548
5059,0,USArkansasHotSpring,Arkansas,Hot Spring,2021-01-06 04:28:24.365468,2020-12-02 00:00:00.000000,2.97322965,4.10667090,5.78921290,1004,1386,1955,618,860,1276,1.83127370,2.54934713,3.78027018,0.56155701,0.72616100,1.00492970
5059,0,USArkansasHotSpring,Arkansas,Hot Spring,2021-01-06 04:28:24.365468,2020-12-03 00:00:00.000000,2.99011827,4.12240551,5.83432824,1009,1392,1970,612,862,1283,1.81386793,2.55444144,3.79976221,0.55632989,0.75233038,1.03460887
5059,0,USArkansasHotSpring,Arkansas,Hot Spring,2021-01-06 04:28:24.365468,2020-12-04 00:00:00.000000,3.00093880,4.14727461,5.88339360,1013,1400,1986,615,862,1301,1.82272331,2.55533900,3.85243949,0.55244601,0.77175462,1.06912205
5059,0,USArkansasHotSpring,Arkansas,Hot Spring,2021-01-06 04:28:24.365468,2020-12-05 00:00:00.000000,3.00911372,4.18278041,5.93875485,1016,1412,2005,620,864,1317,1.83708251,2.56127411,3.90134610,0.55134377,0.78413419,1.13351827
5059,0,USArkansasHotSpring,Arkansas,Hot Spring,2021-01-06 04:28:24.365468,2020-12-06 00:00:00.000000,3.01762462,4.21323059,6.01477084,1019,1422,2031,626,863,1333,1.85374624,2.55835918,3.94846631,0.58071828,0.79070649,1.13615402
5059,0,USArkansasHotSpring,Arkansas,Hot Spring,2021-01-06 04:28:24.365468,2020-12-07 00:00:00.000000,3.02472657,4.24628266,6.09828780,1021,1434,2059,631,865,1350,1.87094959,2.56320661,3.99762231,0.58658798,0.79556300,1.13610550
5059,0,USArkansasHotSpring,Arkansas,Hot Spring,2021-01-06 04:28:24.365468,2020-12-08 00:00:00.000000,3.06149907,4.24995948,6.16675053,1033,1435,2082,637,872,1367,1.88862089,2.58319439,4.05032056,0.61289153,0.82142705,1.15619091
5059,0,USArkansasHotSpring,Arkansas,Hot Spring,2021-01-06 04:28:24.365468,2020-12-09 00:00:00.000000,3.11006691,4.25078540,6.15704872,1050,1435,2079,643,874,1378,1.90579541,2.58878396,4.08107858,0.61826340,0.83214382,1.21922643
5059,0,USArkansasHotSpring,Arkansas,Hot Spring,2021-01-06 04:28:24.365468,2020-12-10 00:00:00.000000,3.15820065,4.26011717,6.13755035,1066,1438,2072,649,881,1370,1.92198054,2.60969038,4.05692527,0.62121440,0.84145029,1.34990233
5059,0,USArkansasHotSpring,Arkansas,Hot Spring,2021-01-06 04:28:24.365468,2020-12-11 00:00:00.000000,3.20696980,4.28119547,6.16883144,1083,1445,2083,654,888,1357,1.93702263,2.63151010,4.01917586,0.63610344,0.86933161,1.39790813
5059,0,USArkansasHotSpring,Arkansas,Hot Spring,2021-01-06 04:28:24.365468,2020-12-12 00:00:00.000000,3.24003459,4.26576141,6.22943370,1094,1440,2103,655,885,1374,1.94046728,2.62246997,4.07110001,0.66640082,0.87707810,1.35309019
5059,0,USArkansasHotSpring,Arkansas,Hot Spring,2021-01-06 04:28:24.365468,2020-12-13 00:00:00.000000,3.22546928,4.24814494,6.27986357,1089,1434,2120,663,886,1390,1.96455901,2.62465235,4.11776210,0.69268292,0.88590673,1.38154870
5059,0,USArkansasHotSpring,Arkansas,Hot Spring,2021-01-06 04:28:24.365468,2020-12-14 00:00:00.000000,3.22596832,4.27566061,6.32077355,1089,1443,2134,673,896,1404,1.99424426,2.65321007,4.15852640,0.68739029,0.90612782,1.40131284
5059,0,USArkansasHotSpring,Arkansas,Hot Spring,2021-01-06 04:28:24.365468,2020-12-15 00:00:00.000000,3.22460289,4.31671204,6.35058881,1088,1457,2144,669,896,1416,1.98307825,2.65586992,4.19370164,0.68550841,0.91058405,1.40970740
5059,0,USArkansasHotSpring,Arkansas,Hot Spring,2021-01-06 04:28:24.365468,2020-12-16 00:00:00.000000,3.22154859,4.33946831,6.32210495,1087,1465,2135,669,905,1426,1.98265481,2.68230228,4.22264622,0.68918708,0.91656221,1.41083031
5059,0,USArkansasHotSpring,Arkansas,Hot Spring,2021-01-06 04:28:24.365468,2020-12-17 00:00:00.000000,3.25276091,4.34741795,6.25365512,1098,1468,2111,670,914,1433,1.98441831,2.70808216,4.24412313,0.69320429,0.91996461,1.35335477
5059,0,USArkansasHotSpring,Arkansas,Hot Spring,2021-01-06 04:28:24.365468,2020-12-18 00:00:00.000000,3.22235057,4.38539545,6.17645216,1088,1480,2085,670,914,1438,1.98420718,2.70735943,4.25826709,0.70101731,0.92575433,1.35994369
5059,0,USArkansasHotSpring,Arkansas,Hot Spring,2021-01-06 04:28:24.365468,2020-12-19 00:00:00.000000,3.18970017,4.42752604,6.09091006,1077,1495,2056,669,920,1440,1.98206538,2.72592940,4.26541418,0.69801776,0.94187159,1.34229700
5059,0,USArkansasHotSpring,Arkansas,Hot Spring,2021-01-06 04:28:24.365468,2020-12-20 00:00:00.000000,3.15475702,4.44497829,5.99754237,1065,1501,2025,662,918,1423,1.96165733,2.71879897,4.21418317,0.69973559,0.95650837,1.37754941
5059,0,USArkansasHotSpring,Arkansas,Hot Spring,2021-01-06 04:28:24.365468,2020-12-21 00:00:00.000000,3.11147364,4.42119993,5.89709971,1050,1493,1991,665,921,1403,1.96934051,2.72990161,4.15723172,0.70116358,0.97807138,1.40869302
5059,0,USArkansasHotSpring,Arkansas,Hot Spring,2021-01-06 04:28:24.365468,2020-12-22 00:00:00.000000,3.06918925,4.39392558,5.79002449,1036,1483,1955,662,926,1382,1.96175688,2.74212848,4.09513910,0.70251240,0.97890263,1.45207660
5059,0,USArkansasHotSpring,Arkansas,Hot Spring,2021-01-06 04:28:24.365468,2020-12-23 00:00:00.000000,3.03166250,4.38329046,5.67749186,1023,1480,1917,658,927,1360,1.95038786,2.74731526,4.02821115,0.70368783,0.97238331,1.54998110
5059,0,USArkansasHotSpring,Arkansas,Hot Spring,2021-01-06 04:28:24.365468,2020-12-24 00:00:00.000000,2.99924947,4.34850668,5.71923028,1012,1468,1931,654,934,1336,1.93705920,2.76836377,3.95680782,0.70429680,0.98043436,1.69181441
5059,0,USArkansasHotSpring,Arkansas,Hot Spring,2021-01-06 04:28:24.365468,2020-12-25 00:00:00.000000,2.96922830,4.32511882,5.75155085,1002,1460,1942,649,934,1310,1.92188258,2.76761454,3.88132177,0.69626533,0.99040630,1.71177569
5059,0,USArkansasHotSpring,Arkansas,Hot Spring,2021-01-06 04:28:24.365468,2020-12-26 00:00:00.000000,2.94260708,4.28322694,5.77357007,993,1446,1949,643,927,1284,1.90495156,2.74594711,3.80216430,0.69828120,0.99557316,1.70874953
5059,0,USArkansasHotSpring,Arkansas,Hot Spring,2021-01-06 04:28:24.365468,2020-12-27 00:00:00.000000,2.91987070,4.23180750,5.78542802,986,1429,1953,637,920,1256,1.88644360,2.72429689,3.71975552,0.69340698,0.99500786,1.70007178
5059,0,USArkansasHotSpring,Arkansas,Hot Spring,2021-01-06 04:28:24.365468,2020-12-28 00:00:00.000000,2.89095460,4.18216552,5.74919601,976,1412,1941,615,914,1227,1.82335762,2.70870238,3.63451706,0.68216132,0.99735512,1.69100440
5059,0,USArkansasHotSpring,Arkansas,Hot Spring,2021-01-06 04:28:24.365468,2020-12-29 00:00:00.000000,2.78337768,4.10549520,5.71026379,939,1386,1928,593,908,1228,1.75792699,2.69014919,3.63729723,0.67202037,1.00374343,1.68084027
5059,0,USArkansasHotSpring,Arkansas,Hot Spring,2021-01-06 04:28:24.365468,2020-12-30 00:00:00.000000,2.67635022,4.04959854,5.60046637,903,1367,1891,571,893,1228,1.69273402,2.64651869,3.63715480,0.66366147,1.00415256,1.68681433
5059,0,USArkansasHotSpring,Arkansas,Hot Spring,2021-01-06 04:28:24.365468,2020-12-31 00:00:00.000000,2.57130047,3.99582999,5.48513168,868,1349,1852,549,879,1226,1.62821281,2.60568239,3.63047860,0.65724264,1.00952452,1.68633266
5059,0,USArkansasHotSpring,Arkansas,Hot Spring,2021-01-06 04:28:24.365468,2021-01-01 00:00:00.000000,2.50486327,3.93635370,5.37656040,845,1329,1815,528,863,1221,1.56466282,2.55614306,3.61739044,0.64935669,1.00989052,1.68727296
5059,0,USArkansasHotSpring,Arkansas,Hot Spring,2021-01-06 04:28:24.365468,2021-01-02 00:00:00.000000,2.43594963,3.86073730,5.46702874,822,1303,1846,507,844,1215,1.50229643,2.50210006,3.59802920,0.63792967,1.00470172,1.68888324
5059,0,USArkansasHotSpring,Arkansas,Hot Spring,2021-01-06 04:28:24.365468,2021-01-03 00:00:00.000000,2.33227579,3.78855432,5.55122657,787,1279,1874,486,830,1189,1.44126794,2.45861226,3.52330307,0.62446137,0.99313413,1.69061373
5059,0,USArkansasHotSpring,Arkansas,Hot Spring,2021-01-06 04:28:24.365468,2021-01-04 00:00:00.000000,2.23156983,3.70360004,5.52527620,753,1250,1865,471,822,1161,1.39509421,2.43687885,3.44014914,0.61313636,1.00542571,1.69214122
5059,0,USArkansasHotSpring,Arkansas,Hot Spring,2021-01-06 04:28:24.365468,2021-01-05 00:00:00.000000,2.13389713,3.60151995,5.45468622,720,1216,1842,458,808,1152,1.35623568,2.39305514,3.41338403,0.60614724,1.01114785,1.79596398
5059,0,USArkansasHotSpring,Arkansas,Hot Spring,2021-01-06 04:28:24.365468,2021-01-06 00:00:00.000000,2.03929941,3.49085620,5.37624945,688,1178,1815,444,792,1139,1.31734855,2.34539444,3.37452419,0.60262947,1.01537328,1.85428642
5059,0,USArkansasHotSpring,Arkansas,Hot Spring,2021-01-06 04:28:24.365468,2021-01-07 00:00:00.000000,1.94780207,3.39598054,5.29049243,657,1146,1786,431,770,1126,1.27853290,2.28108482,3.33647800,0.60103740,1.01528192,1.85503108
5059,0,USArkansasHotSpring,Arkansas,Hot Spring,2021-01-06 04:28:24.365468,2021-01-08 00:00:00.000000,1.85941502,3.30633158,5.25676582,627,1116,1775,418,747,1112,1.23988093,2.21376583,3.29340119,0.55861848,1.01462050,1.85524576
5059,0,USArkansasHotSpring,Arkansas,Hot Spring,2021-01-06 04:28:24.365468,2021-01-09 00:00:00.000000,1.77413400,3.21682847,5.22291721,599,1086,1763,405,729,1103,1.20147776,2.15878844,3.26888058,0.55837350,1.01308101,1.85531598
5059,0,USArkansasHotSpring,Arkansas,Hot Spring,2021-01-06 04:28:24.365468,2021-01-10 00:00:00.000000,1.69194215,3.13808438,5.18212001,571,1059,1750,392,710,1099,1.16341387,2.10494498,3.25579180,0.55826794,1.01314218,1.85534173
5059,0,USArkansasHotSpring,Arkansas,Hot Spring,2021-01-06 04:28:24.365468,2021-01-11 00:00:00.000000,1.61281147,3.05863778,5.13426753,544,1032,1733,380,696,1078,1.12593705,2.06249963,3.19425466,0.55821954,1.01317411,1.85535190
5059,0,USArkansasHotSpring,Arkansas,Hot Spring,2021-01-06 04:28:24.365468,2021-01-12 00:00:00.000000,1.53670419,2.95603817,5.07889207,518,998,1715,367,676,1056,1.08890658,2.00450699,3.12921984,0.55819621,1.01319107,1.85535608
5059,0,USArkansasHotSpring,Arkansas,Hot Spring,2021-01-06 04:28:24.365468,2021-01-13 00:00:00.000000,1.46373785,2.84782633,5.01744184,494,961,1694,351,659,1047,1.04201185,1.95213696,3.10299649,0.55818454,1.01320019,1.85535783
5059,0,USArkansasHotSpring,Arkansas,Hot Spring,2021-01-06 04:28:24.365468,2021-01-14 00:00:00.000000,1.40299796,2.76705891,4.95025418,473,934,1671,333,637,1044,0.98654404,1.88743571,3.09217263,0.55817855,1.01320512,1.85535858
5059,0,USArkansasHotSpring,Arkansas,Hot Spring,2021-01-06 04:28:24.365468,2021-01-15 00:00:00.000000,1.34518253,2.68372797,4.87768719,454,906,1647,315,616,1038,0.93368758,1.82551284,3.07606041,0.55817542,1.01320781,1.85535889
5059,0,USArkansasHotSpring,Arkansas,Hot Spring,2021-01-06 04:28:24.365468,2021-01-16 00:00:00.000000,1.28918561,2.58517714,4.80011594,435,873,1621,298,596,1031,0.88336385,1.76714781,3.05466612,0.55817377,1.01320928,1.85535903
5059,0,USArkansasHotSpring,Arkansas,Hot Spring,2021-01-06 04:28:24.365468,2021-01-17 00:00:00.000000,1.23500233,2.48858143,4.71792876,417,840,1593,282,576,1022,0.83548874,1.70758454,3.02859428,0.55817289,1.01321008,1.85535909
