FIPS,HR_UID,nameid,province,region,analysisTime,dates,pointprevalence_025,pointprevalence_50,pointprevalence_975,pointinfections_025,pointinfections_50,pointinfections_975,pointinfectious_025,pointinfectious_50,pointinfectious_975,pointinfectiousprevalence_05,pointinfectiousprevalence_50,pointinfectiousprevalence_95,infectrate_025,infectrate_50,infectrate_975
53059,0,USWashingtonSkamania,Washington,Skamania,2021-01-05 06:15:02.241339,2020-03-09 00:00:00.000000,0.00392655,0.02706932,0.10364171,0,3,12,0,1,8,0.00222848,0.01402294,0.06685400,0.37499240,0.51498225,0.73804522
53059,0,USWashingtonSkamania,Washington,Skamania,2021-01-05 06:15:02.241339,2020-03-10 00:00:00.000000,0.00435891,0.02916741,0.10621425,0,3,12,0,1,7,0.00212368,0.01375051,0.06077978,0.37499233,0.51486360,0.73804495
53059,0,USWashingtonSkamania,Washington,Skamania,2021-01-05 06:15:02.241339,2020-03-11 00:00:00.000000,0.00479432,0.03165779,0.10966145,0,3,13,0,1,7,0.00218470,0.01424372,0.05883674,0.37499212,0.51468631,0.73804379
53059,0,USWashingtonSkamania,Washington,Skamania,2021-01-05 06:15:02.241339,2020-03-12 00:00:00.000000,0.00523654,0.03465443,0.11703510,0,4,14,0,1,7,0.00232911,0.01526928,0.05898200,0.37499148,0.51442257,0.73803800
53059,0,USWashingtonSkamania,Washington,Skamania,2021-01-05 06:15:02.241339,2020-03-13 00:00:00.000000,0.00568974,0.03768533,0.12958667,0,4,15,0,1,7,0.00252662,0.01651095,0.06029636,0.37498945,0.51403374,0.73800631
53059,0,USWashingtonSkamania,Washington,Skamania,2021-01-05 06:15:02.241339,2020-03-14 00:00:00.000000,0.00615809,0.04032893,0.14317369,0,4,17,0,2,8,0.00275225,0.01760611,0.06676386,0.37498282,0.51380943,0.73782632
53059,0,USWashingtonSkamania,Washington,Skamania,2021-01-05 06:15:02.241339,2020-03-15 00:00:00.000000,0.00664561,0.04237838,0.15790262,0,5,19,0,2,8,0.00299487,0.01877316,0.07382854,0.37496046,0.51380785,0.73703525
53059,0,USWashingtonSkamania,Washington,Skamania,2021-01-05 06:15:02.241339,2020-03-16 00:00:00.000000,0.01383135,0.05700592,0.21058267,1,6,25,0,2,9,0.00325023,0.02005241,0.08150739,0.37488395,0.51147155,0.73559888
53059,0,USWashingtonSkamania,Washington,Skamania,2021-01-05 06:15:02.241339,2020-03-17 00:00:00.000000,0.01999906,0.07094399,0.23801256,2,8,28,0,2,12,0.00457605,0.02454327,0.10072904,0.36651574,0.50999282,0.73144756
53059,0,USWashingtonSkamania,Washington,Skamania,2021-01-05 06:15:02.241339,2020-03-18 00:00:00.000000,0.02602209,0.08419369,0.26279680,3,10,31,0,3,13,0.00673186,0.02998710,0.10926648,0.35908653,0.50436588,0.71932937
53059,0,USWashingtonSkamania,Washington,Skamania,2021-01-05 06:15:02.241339,2020-03-19 00:00:00.000000,0.03273787,0.09659500,0.29246938,3,11,35,1,4,14,0.01041112,0.03637350,0.11668288,0.35351799,0.48994381,0.68943484
53059,0,USWashingtonSkamania,Washington,Skamania,2021-01-05 06:15:02.241339,2020-03-20 00:00:00.000000,0.03994115,0.10988977,0.31515620,4,13,38,1,5,15,0.01420200,0.04338404,0.13075974,0.31369081,0.46312288,0.65608829
53059,0,USWashingtonSkamania,Washington,Skamania,2021-01-05 06:15:02.241339,2020-03-21 00:00:00.000000,0.04506926,0.12142935,0.34029570,5,14,41,2,6,18,0.01692986,0.05023424,0.15335857,0.30519182,0.41691613,0.59942992
53059,0,USWashingtonSkamania,Washington,Skamania,2021-01-05 06:15:02.241339,2020-03-22 00:00:00.000000,0.04773971,0.13300570,0.36388424,5,16,43,2,7,20,0.01889901,0.05818452,0.16693813,0.29053697,0.39216789,0.58325159
53059,0,USWashingtonSkamania,Washington,Skamania,2021-01-05 06:15:02.241339,2020-03-23 00:00:00.000000,0.06602134,0.14513487,0.37797623,7,17,45,2,7,21,0.02201369,0.06437062,0.18008452,0.27396973,0.37951227,0.55720210
53059,0,USWashingtonSkamania,Washington,Skamania,2021-01-05 06:15:02.241339,2020-03-24 00:00:00.000000,0.07579489,0.15866458,0.39121858,9,19,47,3,8,23,0.02671052,0.07085716,0.19069697,0.26417501,0.37070859,0.53897229
53059,0,USWashingtonSkamania,Washington,Skamania,2021-01-05 06:15:02.241339,2020-03-25 00:00:00.000000,0.08510930,0.17398059,0.40359404,10,21,48,3,9,24,0.03074080,0.07775479,0.19962471,0.25547093,0.34756053,0.53649832
53059,0,USWashingtonSkamania,Washington,Skamania,2021-01-05 06:15:02.241339,2020-03-26 00:00:00.000000,0.09317237,0.18680303,0.41542986,11,22,50,4,10,25,0.03597338,0.08555700,0.20745200,0.25181515,0.33931988,0.53622591
53059,0,USWashingtonSkamania,Washington,Skamania,2021-01-05 06:15:02.241339,2020-03-27 00:00:00.000000,0.09884180,0.20481358,0.45327147,11,24,54,4,11,25,0.04025599,0.09233085,0.21456848,0.23860169,0.31539471,0.53140081
53059,0,USWashingtonSkamania,Washington,Skamania,2021-01-05 06:15:02.241339,2020-03-28 00:00:00.000000,0.10441367,0.21607067,0.50973120,12,26,61,5,11,26,0.04355176,0.09767339,0.22120317,0.21298344,0.30219845,0.51444557
53059,0,USWashingtonSkamania,Washington,Skamania,2021-01-05 06:15:02.241339,2020-03-29 00:00:00.000000,0.10900402,0.22170611,0.56125694,13,26,67,5,12,30,0.04891660,0.10130540,0.25069404,0.20571909,0.29271700,0.48252516
53059,0,USWashingtonSkamania,Washington,Skamania,2021-01-05 06:15:02.241339,2020-03-30 00:00:00.000000,0.12404355,0.23356763,0.56397695,14,28,68,6,13,34,0.05203553,0.10892400,0.28140110,0.20051514,0.27734059,0.47277081
53059,0,USWashingtonSkamania,Washington,Skamania,2021-01-05 06:15:02.241339,2020-03-31 00:00:00.000000,0.12882128,0.24498763,0.56438678,15,29,68,6,13,35,0.05580431,0.11569714,0.29618245,0.19939843,0.27217472,0.44113223
53059,0,USWashingtonSkamania,Washington,Skamania,2021-01-05 06:15:02.241339,2020-04-01 00:00:00.000000,0.13183832,0.25656888,0.56237066,15,31,67,6,14,35,0.05729151,0.12071917,0.29702638,0.17898216,0.26374977,0.42152631
53059,0,USWashingtonSkamania,Washington,Skamania,2021-01-05 06:15:02.241339,2020-04-02 00:00:00.000000,0.13921538,0.26366146,0.55770995,16,31,67,7,15,35,0.06012939,0.12892809,0.29701858,0.17756008,0.25722960,0.41779895
53059,0,USWashingtonSkamania,Washington,Skamania,2021-01-05 06:15:02.241339,2020-04-03 00:00:00.000000,0.14696467,0.27219070,0.55052516,17,32,66,7,16,35,0.06367993,0.13291433,0.29591735,0.17379975,0.25116512,0.41498264
53059,0,USWashingtonSkamania,Washington,Skamania,2021-01-05 06:15:02.241339,2020-04-04 00:00:00.000000,0.15068785,0.28079475,0.54123510,18,33,65,8,16,35,0.06732939,0.13693174,0.29361326,0.16172419,0.25030504,0.41138465
53059,0,USWashingtonSkamania,Washington,Skamania,2021-01-05 06:15:02.241339,2020-04-05 00:00:00.000000,0.15068691,0.28455411,0.55043149,18,34,66,8,17,35,0.07095833,0.14215319,0.29014328,0.15514215,0.24720650,0.40339010
53059,0,USWashingtonSkamania,Washington,Skamania,2021-01-05 06:15:02.241339,2020-04-06 00:00:00.000000,0.14740007,0.27722617,0.54793747,17,33,66,9,17,35,0.07449668,0.14408911,0.29654722,0.14534871,0.24127544,0.38959394
53059,0,USWashingtonSkamania,Washington,Skamania,2021-01-05 06:15:02.241339,2020-04-07 00:00:00.000000,0.14406767,0.27581624,0.54499841,17,33,65,9,17,36,0.07576603,0.14391836,0.30283613,0.13940856,0.23798327,0.36173480
53059,0,USWashingtonSkamania,Washington,Skamania,2021-01-05 06:15:02.241339,2020-04-08 00:00:00.000000,0.14063669,0.27079563,0.54105813,16,32,65,9,17,36,0.07694427,0.14306146,0.30596029,0.13201506,0.23528984,0.33982482
53059,0,USWashingtonSkamania,Washington,Skamania,2021-01-05 06:15:02.241339,2020-04-09 00:00:00.000000,0.13721933,0.26211896,0.53627678,16,31,64,9,16,37,0.07538258,0.14066192,0.30664720,0.13170015,0.23532685,0.33984243
53059,0,USWashingtonSkamania,Washington,Skamania,2021-01-05 06:15:02.241339,2020-04-10 00:00:00.000000,0.13392798,0.25236561,0.53025573,16,30,64,8,16,36,0.07265336,0.13493176,0.30558126,0.13150546,0.22823887,0.32534965
53059,0,USWashingtonSkamania,Washington,Skamania,2021-01-05 06:15:02.241339,2020-04-11 00:00:00.000000,0.13083964,0.24379262,0.51912954,15,29,62,8,15,36,0.07054175,0.13078822,0.30172160,0.13035752,0.21959316,0.30444705
53059,0,USWashingtonSkamania,Washington,Skamania,2021-01-05 06:15:02.241339,2020-04-12 00:00:00.000000,0.12793817,0.23832850,0.50897078,15,28,61,8,15,35,0.06822735,0.12888814,0.29180843,0.12525945,0.21689445,0.30489007
53059,0,USWashingtonSkamania,Washington,Skamania,2021-01-05 06:15:02.241339,2020-04-13 00:00:00.000000,0.12522733,0.23272697,0.49610566,15,28,59,7,15,34,0.06580208,0.12824317,0.28168682,0.11785075,0.21577767,0.30323597
53059,0,USWashingtonSkamania,Washington,Skamania,2021-01-05 06:15:02.241339,2020-04-14 00:00:00.000000,0.11885083,0.22498295,0.48085141,14,27,58,7,15,33,0.06332543,0.12759891,0.27320394,0.11562416,0.21473959,0.30126163
53059,0,USWashingtonSkamania,Washington,Skamania,2021-01-05 06:15:02.241339,2020-04-15 00:00:00.000000,0.11225162,0.21847012,0.46528964,13,26,56,7,15,32,0.06083699,0.12598494,0.26823496,0.11553273,0.21380901,0.29379427
53059,0,USWashingtonSkamania,Washington,Skamania,2021-01-05 06:15:02.241339,2020-04-16 00:00:00.000000,0.10297255,0.20999988,0.44978959,12,25,54,7,14,31,0.05836347,0.12262628,0.26307555,0.11545961,0.21312859,0.28749577
53059,0,USWashingtonSkamania,Washington,Skamania,2021-01-05 06:15:02.241339,2020-04-17 00:00:00.000000,0.09653398,0.20179025,0.43439855,11,24,52,6,14,31,0.05592252,0.11947467,0.25728155,0.11527591,0.21434381,0.28330911
53059,0,USWashingtonSkamania,Washington,Skamania,2021-01-05 06:15:02.241339,2020-04-18 00:00:00.000000,0.09066142,0.19380799,0.42061621,10,23,50,6,14,30,0.05348997,0.11671432,0.25091295,0.11419016,0.21122965,0.28638177
53059,0,USWashingtonSkamania,Washington,Skamania,2021-01-05 06:15:02.241339,2020-04-19 00:00:00.000000,0.08449320,0.18376837,0.40493739,10,22,48,6,13,29,0.04984348,0.11255629,0.24393230,0.11330009,0.20953425,0.29369878
53059,0,USWashingtonSkamania,Washington,Skamania,2021-01-05 06:15:02.241339,2020-04-20 00:00:00.000000,0.07876629,0.17932876,0.39808839,9,21,48,5,13,27,0.04646640,0.10799425,0.23058443,0.11348759,0.21022581,0.29621350
53059,0,USWashingtonSkamania,Washington,Skamania,2021-01-05 06:15:02.241339,2020-04-21 00:00:00.000000,0.07344115,0.17476213,0.39464452,8,21,47,5,12,26,0.04299845,0.10293219,0.22322571,0.11353534,0.20765787,0.29259175
53059,0,USWashingtonSkamania,Washington,Skamania,2021-01-05 06:15:02.241339,2020-04-22 00:00:00.000000,0.06848910,0.17237447,0.38398840,8,20,46,4,11,26,0.03919894,0.09849350,0.22129073,0.11412256,0.20674122,0.28921080
53059,0,USWashingtonSkamania,Washington,Skamania,2021-01-05 06:15:02.241339,2020-04-23 00:00:00.000000,0.06389223,0.16788270,0.37107615,7,20,44,4,11,26,0.03574114,0.09447815,0.21847453,0.11378587,0.20656347,0.28800992
53059,0,USWashingtonSkamania,Washington,Skamania,2021-01-05 06:15:02.241339,2020-04-24 00:00:00.000000,0.05965034,0.16543740,0.35828368,7,19,43,3,10,25,0.03258863,0.08965083,0.21209515,0.11359526,0.20621411,0.29062176
53059,0,USWashingtonSkamania,Washington,Skamania,2021-01-05 06:15:02.241339,2020-04-25 00:00:00.000000,0.05578986,0.16065468,0.34536059,6,19,41,3,10,24,0.03046178,0.08668297,0.20557576,0.12102868,0.21075699,0.29328631
53059,0,USWashingtonSkamania,Washington,Skamania,2021-01-05 06:15:02.241339,2020-04-26 00:00:00.000000,0.05234488,0.15451164,0.33202228,6,18,40,3,10,24,0.02853766,0.08314405,0.20093496,0.12050399,0.21356272,0.29022999
53059,0,USWashingtonSkamania,Washington,Skamania,2021-01-05 06:15:02.241339,2020-04-27 00:00:00.000000,0.04929018,0.14823079,0.31805698,5,17,38,3,9,23,0.02673227,0.08060363,0.19836579,0.11833116,0.21375171,0.29428764
53059,0,USWashingtonSkamania,Washington,Skamania,2021-01-05 06:15:02.241339,2020-04-28 00:00:00.000000,0.04567587,0.14356887,0.30352084,5,17,36,3,9,23,0.02503874,0.07795235,0.19064245,0.11727134,0.21282843,0.29479695
53059,0,USWashingtonSkamania,Washington,Skamania,2021-01-05 06:15:02.241339,2020-04-29 00:00:00.000000,0.04202776,0.13856861,0.28873484,5,16,34,2,9,22,0.02345095,0.07450438,0.18264535,0.11682039,0.21196001,0.29533749
53059,0,USWashingtonSkamania,Washington,Skamania,2021-01-05 06:15:02.241339,2020-04-30 00:00:00.000000,0.03866854,0.13396710,0.29519465,4,16,35,2,8,21,0.02196348,0.07124604,0.17443119,0.11663334,0.20962886,0.30758856
53059,0,USWashingtonSkamania,Washington,Skamania,2021-01-05 06:15:02.241339,2020-05-01 00:00:00.000000,0.03561527,0.12899496,0.30524477,4,15,36,2,8,20,0.02030295,0.06834317,0.16795505,0.11655756,0.20948955,0.30423727
53059,0,USWashingtonSkamania,Washington,Skamania,2021-01-05 06:15:02.241339,2020-05-02 00:00:00.000000,0.03285654,0.12216377,0.31607116,3,14,38,2,7,20,0.01869232,0.06588625,0.17285447,0.11653158,0.20920994,0.31397822
53059,0,USWashingtonSkamania,Washington,Skamania,2021-01-05 06:15:02.241339,2020-05-03 00:00:00.000000,0.03036134,0.11716548,0.32751585,3,14,39,2,7,21,0.01723176,0.06429253,0.17836198,0.11650785,0.20949765,0.32312323
53059,0,USWashingtonSkamania,Washington,Skamania,2021-01-05 06:15:02.241339,2020-05-04 00:00:00.000000,0.02809517,0.11325297,0.33175453,3,13,40,1,7,21,0.01591029,0.06284296,0.18165911,0.11645403,0.21243739,0.32943148
53059,0,USWashingtonSkamania,Washington,Skamania,2021-01-05 06:15:02.241339,2020-05-05 00:00:00.000000,0.02602963,0.10951913,0.32444485,3,13,39,1,7,21,0.01471198,0.06107150,0.17817694,0.11642437,0.21350091,0.32714871
53059,0,USWashingtonSkamania,Washington,Skamania,2021-01-05 06:15:02.241339,2020-05-06 00:00:00.000000,0.02414550,0.10599733,0.31744011,2,12,38,1,7,21,0.01362159,0.05885231,0.17453227,0.10839371,0.21468148,0.32403897
53059,0,USWashingtonSkamania,Washington,Skamania,2021-01-05 06:15:02.241339,2020-05-07 00:00:00.000000,0.02237717,0.10278349,0.31093796,2,12,37,1,6,20,0.01262756,0.05745355,0.17068633,0.10510841,0.22057519,0.32046805
53059,0,USWashingtonSkamania,Washington,Skamania,2021-01-05 06:15:02.241339,2020-05-08 00:00:00.000000,0.02043171,0.09977250,0.30632057,2,12,37,1,6,20,0.01172293,0.05602865,0.16702024,0.10510670,0.22086785,0.32202741
53059,0,USWashingtonSkamania,Washington,Skamania,2021-01-05 06:15:02.241339,2020-05-09 00:00:00.000000,0.01865673,0.09777152,0.30413756,2,11,36,1,6,19,0.01090515,0.05431373,0.16385940,0.10589945,0.22474569,0.32961233
53059,0,USWashingtonSkamania,Washington,Skamania,2021-01-05 06:15:02.241339,2020-05-10 00:00:00.000000,0.01703581,0.09655604,0.30359561,2,11,36,1,6,19,0.01017390,0.05233604,0.16151407,0.10570423,0.22859886,0.33547606
53059,0,USWashingtonSkamania,Washington,Skamania,2021-01-05 06:15:02.241339,2020-05-11 00:00:00.000000,0.01555451,0.09532533,0.30379161,1,11,36,1,6,19,0.00952650,0.05096891,0.16000891,0.10550308,0.22988432,0.33950621
53059,0,USWashingtonSkamania,Washington,Skamania,2021-01-05 06:15:02.241339,2020-05-12 00:00:00.000000,0.01420060,0.09232127,0.30430267,1,11,36,1,6,19,0.00895412,0.04970414,0.15916446,0.10540516,0.23406329,0.34209775
53059,0,USWashingtonSkamania,Washington,Skamania,2021-01-05 06:15:02.241339,2020-05-13 00:00:00.000000,0.01296357,0.08944480,0.30496371,1,10,36,1,5,19,0.00844333,0.04871888,0.15877879,0.10533949,0.23448997,0.35437078
53059,0,USWashingtonSkamania,Washington,Skamania,2021-01-05 06:15:02.241339,2020-05-14 00:00:00.000000,0.01183373,0.08742328,0.30570543,1,10,36,0,5,19,0.00794675,0.04728753,0.15869509,0.10879817,0.23536758,0.36523670
53059,0,USWashingtonSkamania,Washington,Skamania,2021-01-05 06:15:02.241339,2020-05-15 00:00:00.000000,0.01080207,0.08655681,0.30649607,1,10,37,0,5,19,0.00726781,0.04590237,0.15880566,0.12534345,0.23745086,0.36050315
53059,0,USWashingtonSkamania,Washington,Skamania,2021-01-05 06:15:02.241339,2020-05-16 00:00:00.000000,0.00986012,0.08571780,0.30732172,1,10,37,0,5,19,0.00667935,0.04504871,0.15904041,0.12887967,0.24352593,0.35154502
53059,0,USWashingtonSkamania,Washington,Skamania,2021-01-05 06:15:02.241339,2020-05-17 00:00:00.000000,0.00899976,0.08427062,0.30794668,1,10,37,0,5,19,0.00617508,0.04432419,0.15935524,0.13041940,0.24064575,0.36478695
53059,0,USWashingtonSkamania,Washington,Skamania,2021-01-05 06:15:02.241339,2020-05-18 00:00:00.000000,0.00821386,0.08221778,0.30859098,0,9,37,0,5,19,0.00574511,0.04403032,0.15972367,0.13233971,0.24353861,0.36780620
53059,0,USWashingtonSkamania,Washington,Skamania,2021-01-05 06:15:02.241339,2020-05-19 00:00:00.000000,0.00749702,0.08080114,0.30927700,0,9,37,0,5,19,0.00537692,0.04323858,0.16013150,0.13472472,0.24925419,0.36726564
53059,0,USWashingtonSkamania,Washington,Skamania,2021-01-05 06:15:02.241339,2020-05-20 00:00:00.000000,0.00684432,0.07952421,0.31004446,0,9,37,0,5,19,0.00496853,0.04248220,0.16057390,0.13760281,0.25374188,0.36814593
53059,0,USWashingtonSkamania,Washington,Skamania,2021-01-05 06:15:02.241339,2020-05-21 00:00:00.000000,0.00625214,0.07835023,0.31097054,0,9,37,0,5,19,0.00453539,0.04182232,0.16105455,0.13725193,0.24889583,0.36912029
53059,0,USWashingtonSkamania,Washington,Skamania,2021-01-05 06:15:02.241339,2020-05-22 00:00:00.000000,0.00571856,0.07737127,0.31217111,0,9,37,0,5,19,0.00414175,0.04146371,0.16158642,0.14549975,0.24545970,0.40137856
53059,0,USWashingtonSkamania,Washington,Skamania,2021-01-05 06:15:02.241339,2020-05-23 00:00:00.000000,0.00524205,0.07707279,0.31372927,0,9,37,0,4,19,0.00378589,0.04112141,0.16219360,0.15240899,0.25541495,0.41371920
53059,0,USWashingtonSkamania,Washington,Skamania,2021-01-05 06:15:02.241339,2020-05-24 00:00:00.000000,0.00481821,0.07688540,0.31574641,0,9,38,0,4,19,0.00346662,0.04075062,0.16282153,0.15553783,0.25692785,0.41786668
53059,0,USWashingtonSkamania,Washington,Skamania,2021-01-05 06:15:02.241339,2020-05-25 00:00:00.000000,0.00443959,0.07673010,0.31833522,0,9,38,0,4,19,0.00318180,0.04036260,0.16361127,0.16163170,0.26050908,0.41940091
53059,0,USWashingtonSkamania,Washington,Skamania,2021-01-05 06:15:02.241339,2020-05-26 00:00:00.000000,0.00409972,0.07635101,0.32156116,0,9,38,0,4,19,0.00292763,0.03996483,0.16462555,0.16379662,0.28436393,0.42061076
53059,0,USWashingtonSkamania,Washington,Skamania,2021-01-05 06:15:02.241339,2020-05-27 00:00:00.000000,0.00379522,0.07576894,0.32541053,0,9,39,0,4,20,0.00270004,0.03956229,0.16590812,0.16364846,0.28118567,0.42266193
53059,0,USWashingtonSkamania,Washington,Skamania,2021-01-05 06:15:02.241339,2020-05-28 00:00:00.000000,0.00352503,0.07519563,0.32660562,0,9,39,0,4,20,0.00249613,0.03915828,0.16748217,0.16474662,0.28189104,0.44907806
53059,0,USWashingtonSkamania,Washington,Skamania,2021-01-05 06:15:02.241339,2020-05-29 00:00:00.000000,0.00328751,0.07463319,0.32259654,0,9,38,0,4,20,0.00231446,0.03875498,0.16934128,0.14639583,0.27831083,0.47936923
53059,0,USWashingtonSkamania,Washington,Skamania,2021-01-05 06:15:02.241339,2020-05-30 00:00:00.000000,0.00307819,0.07423824,0.31685801,0,8,38,0,4,20,0.00215393,0.03835369,0.17144956,0.15319676,0.28540515,0.48678064
53059,0,USWashingtonSkamania,Washington,Skamania,2021-01-05 06:15:02.241339,2020-05-31 00:00:00.000000,0.00289126,0.07400949,0.31034491,0,8,37,0,4,20,0.00201240,0.03795473,0.17375203,0.15815853,0.28555871,0.49239988
53059,0,USWashingtonSkamania,Washington,Skamania,2021-01-05 06:15:02.241339,2020-06-01 00:00:00.000000,0.00272199,0.07383355,0.30357765,0,8,36,0,4,21,0.00188669,0.03756357,0.17619205,0.16128253,0.28872510,0.49574933
53059,0,USWashingtonSkamania,Washington,Skamania,2021-01-05 06:15:02.241339,2020-06-02 00:00:00.000000,0.00256718,0.07365101,0.29677249,0,8,35,0,4,21,0.00177370,0.03722186,0.17874414,0.16354391,0.29385988,0.50565724
53059,0,USWashingtonSkamania,Washington,Skamania,2021-01-05 06:15:02.241339,2020-06-03 00:00:00.000000,0.00242485,0.07342741,0.29003904,0,8,35,0,4,21,0.00167098,0.03729326,0.18083506,0.16565602,0.30238714,0.51005229
53059,0,USWashingtonSkamania,Washington,Skamania,2021-01-05 06:15:02.241339,2020-06-04 00:00:00.000000,0.00229378,0.07281915,0.28348655,0,8,34,0,4,21,0.00157688,0.03742664,0.17706598,0.16659408,0.31028414,0.51227777
53059,0,USWashingtonSkamania,Washington,Skamania,2021-01-05 06:15:02.241339,2020-06-05 00:00:00.000000,0.00217310,0.07126608,0.28674967,0,8,34,0,4,20,0.00149037,0.03761810,0.17324759,0.16785790,0.31767111,0.52070527
53059,0,USWashingtonSkamania,Washington,Skamania,2021-01-05 06:15:02.241339,2020-06-06 00:00:00.000000,0.00206204,0.06966665,0.29464294,0,8,35,0,4,20,0.00141072,0.03787047,0.16949599,0.17024035,0.33031879,0.59749661
53059,0,USWashingtonSkamania,Washington,Skamania,2021-01-05 06:15:02.241339,2020-06-07 00:00:00.000000,0.00195994,0.06804959,0.30281759,0,8,36,0,4,20,0.00133740,0.03819135,0.16594639,0.17464143,0.33170912,0.61854269
53059,0,USWashingtonSkamania,Washington,Skamania,2021-01-05 06:15:02.241339,2020-06-08 00:00:00.000000,0.01637868,0.09547475,0.32429445,1,11,39,0,4,19,0.00126996,0.03815216,0.16266764,0.18021887,0.34605650,0.62352895
53059,0,USWashingtonSkamania,Washington,Skamania,2021-01-05 06:15:02.241339,2020-06-09 00:00:00.000000,0.02745590,0.12199326,0.34610336,3,14,41,0,5,19,0.00542711,0.04258425,0.16516226,0.18527708,0.35693706,0.62489941
53059,0,USWashingtonSkamania,Washington,Skamania,2021-01-05 06:15:02.241339,2020-06-10 00:00:00.000000,0.03876050,0.15107735,0.36866403,4,18,44,1,6,20,0.00938510,0.05246671,0.17376446,0.19337551,0.36207035,0.62697339
53059,0,USWashingtonSkamania,Washington,Skamania,2021-01-05 06:15:02.241339,2020-06-11 00:00:00.000000,0.04999057,0.17032815,0.39195355,6,20,47,1,8,22,0.01424696,0.06648188,0.18368852,0.19521354,0.36631862,0.63001397
53059,0,USWashingtonSkamania,Washington,Skamania,2021-01-05 06:15:02.241339,2020-06-12 00:00:00.000000,0.06096793,0.20208152,0.44257570,7,24,53,2,9,23,0.01988254,0.08027844,0.19461307,0.19594321,0.37589124,0.63359008
53059,0,USWashingtonSkamania,Washington,Skamania,2021-01-05 06:15:02.241339,2020-06-13 00:00:00.000000,0.07160494,0.23574282,0.50675135,8,28,61,3,11,25,0.02564788,0.09471743,0.21119066,0.22158502,0.38861280,0.63678861
53059,0,USWashingtonSkamania,Washington,Skamania,2021-01-05 06:15:02.241339,2020-06-14 00:00:00.000000,0.08186392,0.27306715,0.57077726,9,32,68,3,12,29,0.03144854,0.10730608,0.24573145,0.22398799,0.39397986,0.64833343
53059,0,USWashingtonSkamania,Washington,Skamania,2021-01-05 06:15:02.241339,2020-06-15 00:00:00.000000,0.10086133,0.30326885,0.58722729,12,36,70,4,14,33,0.03726642,0.12297642,0.28045321,0.21992274,0.39826012,0.68133768
53059,0,USWashingtonSkamania,Washington,Skamania,2021-01-05 06:15:02.241339,2020-06-16 00:00:00.000000,0.13104379,0.34263692,0.61098167,15,41,73,5,16,36,0.04841048,0.13721194,0.30201289,0.22015954,0.40198412,0.69001477
53059,0,USWashingtonSkamania,Washington,Skamania,2021-01-05 06:15:02.241339,2020-06-17 00:00:00.000000,0.16265648,0.37288408,0.67842533,19,45,81,7,19,38,0.06594636,0.15825872,0.31649902,0.22346522,0.40649835,0.69292612
53059,0,USWashingtonSkamania,Washington,Skamania,2021-01-05 06:15:02.241339,2020-06-18 00:00:00.000000,0.19512371,0.41054138,0.79113124,23,49,95,9,21,39,0.08037065,0.18050809,0.32746136,0.23079814,0.40856867,0.72682852
53059,0,USWashingtonSkamania,Washington,Skamania,2021-01-05 06:15:02.241339,2020-06-19 00:00:00.000000,0.21019900,0.45142573,0.87884160,25,54,106,10,24,43,0.08609860,0.20361455,0.35746872,0.23586684,0.41127970,0.74302712
53059,0,USWashingtonSkamania,Washington,Skamania,2021-01-05 06:15:02.241339,2020-06-20 00:00:00.000000,0.22080034,0.48905484,0.94567413,26,59,114,11,26,47,0.09116605,0.22103761,0.39523222,0.22868433,0.42354298,0.73984110
53059,0,USWashingtonSkamania,Washington,Skamania,2021-01-05 06:15:02.241339,2020-06-21 00:00:00.000000,0.23134436,0.54007998,1.01333343,27,65,122,11,29,52,0.09610621,0.24098203,0.43479788,0.22504542,0.44024837,0.75297131
53059,0,USWashingtonSkamania,Washington,Skamania,2021-01-05 06:15:02.241339,2020-06-22 00:00:00.000000,0.28697542,0.61497316,1.07344255,34,74,129,12,32,57,0.10097572,0.26991223,0.47603088,0.22575117,0.43780722,0.75560350
53059,0,USWashingtonSkamania,Washington,Skamania,2021-01-05 06:15:02.241339,2020-06-23 00:00:00.000000,0.31992644,0.70344692,1.14213412,38,84,138,14,36,61,0.12279655,0.30069091,0.50974762,0.22653713,0.43101316,0.77271022
53059,0,USWashingtonSkamania,Washington,Skamania,2021-01-05 06:15:02.241339,2020-06-24 00:00:00.000000,0.36262941,0.78296518,1.24336647,43,94,150,18,40,65,0.15378228,0.33174074,0.54185587,0.22737775,0.43524168,0.78601784
53059,0,USWashingtonSkamania,Washington,Skamania,2021-01-05 06:15:02.241339,2020-06-25 00:00:00.000000,0.38651919,0.86553143,1.35238077,46,104,163,20,44,70,0.17227490,0.36676140,0.58611288,0.22881424,0.43748369,0.79036776
53059,0,USWashingtonSkamania,Washington,Skamania,2021-01-05 06:15:02.241339,2020-06-26 00:00:00.000000,0.42337149,0.95805091,1.44447486,51,115,174,23,50,75,0.19181537,0.41397176,0.62312490,0.23911967,0.43522310,0.78747002
53059,0,USWashingtonSkamania,Washington,Skamania,2021-01-05 06:15:02.241339,2020-06-27 00:00:00.000000,0.46290832,1.02116761,1.55240365,55,123,187,25,55,80,0.21264254,0.46229497,0.66704482,0.24228041,0.42989018,0.77419570
53059,0,USWashingtonSkamania,Washington,Skamania,2021-01-05 06:15:02.241339,2020-06-28 00:00:00.000000,0.50461433,1.11768698,1.66436331,60,135,201,28,60,87,0.23263110,0.50376836,0.72372688,0.23823122,0.42702770,0.74269014
53059,0,USWashingtonSkamania,Washington,Skamania,2021-01-05 06:15:02.241339,2020-06-29 00:00:00.000000,0.57324413,1.19380081,1.75201520,69,144,211,30,66,91,0.25414360,0.55098946,0.76025910,0.23355663,0.42603262,0.69404773
53059,0,USWashingtonSkamania,Washington,Skamania,2021-01-05 06:15:02.241339,2020-06-30 00:00:00.000000,0.63642779,1.27318673,1.88058425,76,153,227,34,72,99,0.28877436,0.60251024,0.82097666,0.22478297,0.42290449,0.66422032
53059,0,USWashingtonSkamania,Washington,Skamania,2021-01-05 06:15:02.241339,2020-07-01 00:00:00.000000,0.73755160,1.35916113,2.04002229,89,164,246,40,77,107,0.33227962,0.64092160,0.88644542,0.21901913,0.41375978,0.65277788
53059,0,USWashingtonSkamania,Washington,Skamania,2021-01-05 06:15:02.241339,2020-07-02 00:00:00.000000,0.81330678,1.45190240,2.19074161,98,175,264,43,82,114,0.36050060,0.68068410,0.95129272,0.21960886,0.40496998,0.64926928
53059,0,USWashingtonSkamania,Washington,Skamania,2021-01-05 06:15:02.241339,2020-07-03 00:00:00.000000,0.83312931,1.53668290,2.32637975,100,185,281,46,88,122,0.38367189,0.73144942,1.01586364,0.22385491,0.39403426,0.63077112
53059,0,USWashingtonSkamania,Washington,Skamania,2021-01-05 06:15:02.241339,2020-07-04 00:00:00.000000,0.85427457,1.63054468,2.44139923,103,197,294,49,94,132,0.40671108,0.78449531,1.09265254,0.22028074,0.38142060,0.58190971
53059,0,USWashingtonSkamania,Washington,Skamania,2021-01-05 06:15:02.241339,2020-07-05 00:00:00.000000,0.87640862,1.71402400,2.53550251,105,207,306,51,100,139,0.43005249,0.82785530,1.15535714,0.20558941,0.36347944,0.55826116
53059,0,USWashingtonSkamania,Washington,Skamania,2021-01-05 06:15:02.241339,2020-07-06 00:00:00.000000,0.88121404,1.74701659,2.60318982,106,211,314,54,104,149,0.45395996,0.86237507,1.23623243,0.20146590,0.34487106,0.53873873
53059,0,USWashingtonSkamania,Washington,Skamania,2021-01-05 06:15:02.241339,2020-07-07 00:00:00.000000,0.88676368,1.76721483,2.70034020,107,213,326,56,106,159,0.46590759,0.88501269,1.32075964,0.20049799,0.32597475,0.52120701
53059,0,USWashingtonSkamania,Washington,Skamania,2021-01-05 06:15:02.241339,2020-07-08 00:00:00.000000,0.89212905,1.78727774,2.79469362,107,215,337,56,108,165,0.47083931,0.89532815,1.37028894,0.20032161,0.31692403,0.51351479
53059,0,USWashingtonSkamania,Washington,Skamania,2021-01-05 06:15:02.241339,2020-07-09 00:00:00.000000,0.89734621,1.80729241,2.87767673,108,218,347,57,109,166,0.47475217,0.90886139,1.37824370,0.18661796,0.29519905,0.47462488
53059,0,USWashingtonSkamania,Washington,Skamania,2021-01-05 06:15:02.241339,2020-07-10 00:00:00.000000,0.90190261,1.82999087,2.93477718,108,221,354,57,111,170,0.47816645,0.92104308,1.41447237,0.18141297,0.28323581,0.45012655
53059,0,USWashingtonSkamania,Washington,Skamania,2021-01-05 06:15:02.241339,2020-07-11 00:00:00.000000,0.90483109,1.85105616,2.92612089,109,223,353,58,112,174,0.48118146,0.92695300,1.44683327,0.17481937,0.26828697,0.44503890
53059,0,USWashingtonSkamania,Washington,Skamania,2021-01-05 06:15:02.241339,2020-07-12 00:00:00.000000,0.90607756,1.83679824,2.89081958,109,221,349,58,110,178,0.48355829,0.91756141,1.47650086,0.17108750,0.26074095,0.42891637
53059,0,USWashingtonSkamania,Washington,Skamania,2021-01-05 06:15:02.241339,2020-07-13 00:00:00.000000,0.89340108,1.79714046,2.85695860,107,217,345,58,109,181,0.48510599,0.90708810,1.50281452,0.15692576,0.24906831,0.40204082
53059,0,USWashingtonSkamania,Washington,Skamania,2021-01-05 06:15:02.241339,2020-07-14 00:00:00.000000,0.88030787,1.75916715,2.80156607,106,212,338,58,110,184,0.48258347,0.91410306,1.52536980,0.14634241,0.24182633,0.38331466
53059,0,USWashingtonSkamania,Washington,Skamania,2021-01-05 06:15:02.241339,2020-07-15 00:00:00.000000,0.86614011,1.74323040,2.74268194,104,210,331,57,110,186,0.47766395,0.91358378,1.54349500,0.13865217,0.22823059,0.35168461
53059,0,USWashingtonSkamania,Washington,Skamania,2021-01-05 06:15:02.241339,2020-07-16 00:00:00.000000,0.85113174,1.72524515,2.68227955,102,208,324,56,109,188,0.47132151,0.90792291,1.55946956,0.13334625,0.21739491,0.35026443
53059,0,USWashingtonSkamania,Washington,Skamania,2021-01-05 06:15:02.241339,2020-07-17 00:00:00.000000,0.83527629,1.69890933,2.62005455,100,205,316,56,108,189,0.46407936,0.89827904,1.57099496,0.12357386,0.21026557,0.35064855
53059,0,USWashingtonSkamania,Washington,Skamania,2021-01-05 06:15:02.241339,2020-07-18 00:00:00.000000,0.81844109,1.64736740,2.55434687,98,199,308,55,106,190,0.45618091,0.88131647,1.57672450,0.11701366,0.20267376,0.33540129
53059,0,USWashingtonSkamania,Washington,Skamania,2021-01-05 06:15:02.241339,2020-07-19 00:00:00.000000,0.80048097,1.60294774,2.49830978,96,193,301,54,103,190,0.44770269,0.85907774,1.57439646,0.11274642,0.19471699,0.33924398
53059,0,USWashingtonSkamania,Washington,Skamania,2021-01-05 06:15:02.241339,2020-07-20 00:00:00.000000,0.79216317,1.55005540,2.44226424,95,187,295,53,99,188,0.43863858,0.82493631,1.56309286,0.11053641,0.18727756,0.34310147
53059,0,USWashingtonSkamania,Washington,Skamania,2021-01-05 06:15:02.241339,2020-07-21 00:00:00.000000,0.78279649,1.51220892,2.37979700,94,182,287,52,97,184,0.43176795,0.80288493,1.52700440,0.10656887,0.18410232,0.33969562
53059,0,USWashingtonSkamania,Washington,Skamania,2021-01-05 06:15:02.241339,2020-07-22 00:00:00.000000,0.77295848,1.45593651,2.31223916,93,175,279,51,95,179,0.42588617,0.78792829,1.48784747,0.10516511,0.17868585,0.31783643
53059,0,USWashingtonSkamania,Washington,Skamania,2021-01-05 06:15:02.241339,2020-07-23 00:00:00.000000,0.73097997,1.38850050,2.23994033,88,167,270,48,91,174,0.40406290,0.75461247,1.44622497,0.10247271,0.17501859,0.30638176
53059,0,USWashingtonSkamania,Washington,Skamania,2021-01-05 06:15:02.241339,2020-07-24 00:00:00.000000,0.69279305,1.35889030,2.17193880,83,164,262,46,90,169,0.38223762,0.74490855,1.40262784,0.10003079,0.17186105,0.29930732
53059,0,USWashingtonSkamania,Washington,Skamania,2021-01-05 06:15:02.241339,2020-07-25 00:00:00.000000,0.65856769,1.32373501,2.14706443,79,159,259,43,88,164,0.36230204,0.73057709,1.35767750,0.09710944,0.16536153,0.28731941
53059,0,USWashingtonSkamania,Washington,Skamania,2021-01-05 06:15:02.241339,2020-07-26 00:00:00.000000,0.62822622,1.27103574,2.08479180,75,153,251,42,85,158,0.35247538,0.70828315,1.31206317,0.09377818,0.15843417,0.27230510
53059,0,USWashingtonSkamania,Washington,Skamania,2021-01-05 06:15:02.241339,2020-07-27 00:00:00.000000,0.59757711,1.23043709,2.01304551,72,148,243,41,84,153,0.34159983,0.69711853,1.26641946,0.09066231,0.15581974,0.25695241
53059,0,USWashingtonSkamania,Washington,Skamania,2021-01-05 06:15:02.241339,2020-07-28 00:00:00.000000,0.57014180,1.19039285,1.92097309,68,143,232,39,82,147,0.32985125,0.68024396,1.22360775,0.08754236,0.15392355,0.25597872
53059,0,USWashingtonSkamania,Washington,Skamania,2021-01-05 06:15:02.241339,2020-07-29 00:00:00.000000,0.57252225,1.14414929,1.84538523,69,138,222,37,79,142,0.31409217,0.65836993,1.18329016,0.08673688,0.15255810,0.25739029
53059,0,USWashingtonSkamania,Washington,Skamania,2021-01-05 06:15:02.241339,2020-07-30 00:00:00.000000,0.53443126,1.10216106,1.77024734,64,133,213,36,76,138,0.30126498,0.63509477,1.14238558,0.08571689,0.15101919,0.25815358
53059,0,USWashingtonSkamania,Washington,Skamania,2021-01-05 06:15:02.241339,2020-07-31 00:00:00.000000,0.50156401,1.06834866,1.69656738,60,129,204,36,74,131,0.29916424,0.61274775,1.08942068,0.08471208,0.14924753,0.25002725
53059,0,USWashingtonSkamania,Washington,Skamania,2021-01-05 06:15:02.241339,2020-08-01 00:00:00.000000,0.48293874,1.04323157,1.62465756,58,126,196,36,71,125,0.29816152,0.58991308,1.03683504,0.08230692,0.14455504,0.24177026
53059,0,USWashingtonSkamania,Washington,Skamania,2021-01-05 06:15:02.241339,2020-08-02 00:00:00.000000,0.46617089,1.02717932,1.55449843,56,124,187,33,68,120,0.27766258,0.56691625,0.99498834,0.08000893,0.13973070,0.23985135
53059,0,USWashingtonSkamania,Washington,Skamania,2021-01-05 06:15:02.241339,2020-08-03 00:00:00.000000,0.44179878,0.97590927,1.49088877,53,117,180,31,66,115,0.25712971,0.54684334,0.95356803,0.07899978,0.13704263,0.23799890
53059,0,USWashingtonSkamania,Washington,Skamania,2021-01-05 06:15:02.241339,2020-08-04 00:00:00.000000,0.41922121,0.92846469,1.42949580,50,112,172,29,62,110,0.24349252,0.51815225,0.91285201,0.07832508,0.13202848,0.22915867
53059,0,USWashingtonSkamania,Washington,Skamania,2021-01-05 06:15:02.241339,2020-08-05 00:00:00.000000,0.38854706,0.87512685,1.37076312,46,105,165,27,59,105,0.22690714,0.49516765,0.87325062,0.07786244,0.12940141,0.22325140
53059,0,USWashingtonSkamania,Washington,Skamania,2021-01-05 06:15:02.241339,2020-08-06 00:00:00.000000,0.37681006,0.82776884,1.31300388,45,100,158,25,57,100,0.20974833,0.47215695,0.83427533,0.07514536,0.12872830,0.21881257
53059,0,USWashingtonSkamania,Washington,Skamania,2021-01-05 06:15:02.241339,2020-08-07 00:00:00.000000,0.35714221,0.77628438,1.25756318,43,93,151,24,54,96,0.20453551,0.44821889,0.79640091,0.07160363,0.12436942,0.21012277
53059,0,USWashingtonSkamania,Washington,Skamania,2021-01-05 06:15:02.241339,2020-08-08 00:00:00.000000,0.33686807,0.73151220,1.20415684,40,88,145,23,51,91,0.19270222,0.42672215,0.75895855,0.07033193,0.12328601,0.21241313
53059,0,USWashingtonSkamania,Washington,Skamania,2021-01-05 06:15:02.241339,2020-08-09 00:00:00.000000,0.31696131,0.69426226,1.15271086,38,83,139,21,49,87,0.17922619,0.40718057,0.72105265,0.06721677,0.12001901,0.20864582
53059,0,USWashingtonSkamania,Washington,Skamania,2021-01-05 06:15:02.241339,2020-08-10 00:00:00.000000,0.28144113,0.65801439,1.08993907,34,79,131,20,47,82,0.16698061,0.38965228,0.68283137,0.06478929,0.11706081,0.21149520
53059,0,USWashingtonSkamania,Washington,Skamania,2021-01-05 06:15:02.241339,2020-08-11 00:00:00.000000,0.24876175,0.61839289,1.02955013,30,74,124,18,45,77,0.15335698,0.37246693,0.64359205,0.06477855,0.11690421,0.21267377
53059,0,USWashingtonSkamania,Washington,Skamania,2021-01-05 06:15:02.241339,2020-08-12 00:00:00.000000,0.21829777,0.57831431,0.97123021,26,69,117,16,41,73,0.13605889,0.34748510,0.60460168,0.06481258,0.11661496,0.21248140
53059,0,USWashingtonSkamania,Washington,Skamania,2021-01-05 06:15:02.241339,2020-08-13 00:00:00.000000,0.19153798,0.54041556,0.91544503,23,65,110,14,38,68,0.11969726,0.31987063,0.56666968,0.06490994,0.11619370,0.21176953
53059,0,USWashingtonSkamania,Washington,Skamania,2021-01-05 06:15:02.241339,2020-08-14 00:00:00.000000,0.16949349,0.50070392,0.86241347,20,60,104,12,36,65,0.10752681,0.29879450,0.54081561,0.06515618,0.11690646,0.21031355
53059,0,USWashingtonSkamania,Washington,Skamania,2021-01-05 06:15:02.241339,2020-08-15 00:00:00.000000,0.15041089,0.45901063,0.81219383,18,55,98,11,33,62,0.09823528,0.27925735,0.51661295,0.06574137,0.11653771,0.21123540
53059,0,USWashingtonSkamania,Washington,Skamania,2021-01-05 06:15:02.241339,2020-08-16 00:00:00.000000,0.13445545,0.42653473,0.76985490,16,51,93,10,31,59,0.08965322,0.26254053,0.49102913,0.06427710,0.11742041,0.21869889
53059,0,USWashingtonSkamania,Washington,Skamania,2021-01-05 06:15:02.241339,2020-08-17 00:00:00.000000,0.13300516,0.41061889,0.74069609,16,49,89,9,29,55,0.08168665,0.24488901,0.45668112,0.06447720,0.11883252,0.22573112
53059,0,USWashingtonSkamania,Washington,Skamania,2021-01-05 06:15:02.241339,2020-08-18 00:00:00.000000,0.12887953,0.39261525,0.71401236,15,47,86,9,28,51,0.07735596,0.23238904,0.42910007,0.06500005,0.11907961,0.23017329
53059,0,USWashingtonSkamania,Washington,Skamania,2021-01-05 06:15:02.241339,2020-08-19 00:00:00.000000,0.12271474,0.38543632,0.68864171,14,46,83,8,27,49,0.07143168,0.22410085,0.40644732,0.06616253,0.11946843,0.23212609
53059,0,USWashingtonSkamania,Washington,Skamania,2021-01-05 06:15:02.241339,2020-08-20 00:00:00.000000,0.11786627,0.38104037,0.66466943,14,46,80,8,26,47,0.06696862,0.21918744,0.39065450,0.06778782,0.12070220,0.23347121
53059,0,USWashingtonSkamania,Washington,Skamania,2021-01-05 06:15:02.241339,2020-08-21 00:00:00.000000,0.11531935,0.37338066,0.66020879,13,45,79,7,25,45,0.06354882,0.20965462,0.37683414,0.06623950,0.12153627,0.23379873
53059,0,USWashingtonSkamania,Washington,Skamania,2021-01-05 06:15:02.241339,2020-08-22 00:00:00.000000,0.11374990,0.36170974,0.64481916,13,43,77,7,24,45,0.06088572,0.19990436,0.37631653,0.06358920,0.12279939,0.23222939
53059,0,USWashingtonSkamania,Washington,Skamania,2021-01-05 06:15:02.241339,2020-08-23 00:00:00.000000,0.11252064,0.35628376,0.63062717,13,43,76,7,23,45,0.05878332,0.19533029,0.37349096,0.06165327,0.12585738,0.21838867
53059,0,USWashingtonSkamania,Washington,Skamania,2021-01-05 06:15:02.241339,2020-08-24 00:00:00.000000,0.11259727,0.34405255,0.61038650,13,41,73,6,23,43,0.05710728,0.19284718,0.36133925,0.06095628,0.12706972,0.21042181
53059,0,USWashingtonSkamania,Washington,Skamania,2021-01-05 06:15:02.241339,2020-08-25 00:00:00.000000,0.11719713,0.33596648,0.60999477,14,40,73,6,23,42,0.05734764,0.19181933,0.35427323,0.06073499,0.12808044,0.21576323
53059,0,USWashingtonSkamania,Washington,Skamania,2021-01-05 06:15:02.241339,2020-08-26 00:00:00.000000,0.12203785,0.32810327,0.61550174,14,39,74,7,22,42,0.05872590,0.18871713,0.35078212,0.06069153,0.12796698,0.22092212
53059,0,USWashingtonSkamania,Washington,Skamania,2021-01-05 06:15:02.241339,2020-08-27 00:00:00.000000,0.11890259,0.31930169,0.62197635,14,38,75,7,21,42,0.06076552,0.18020185,0.34982069,0.06073743,0.12845175,0.22526996
53059,0,USWashingtonSkamania,Washington,Skamania,2021-01-05 06:15:02.241339,2020-08-28 00:00:00.000000,0.11819548,0.32090666,0.62896403,14,38,75,7,21,42,0.06313549,0.17830010,0.35062926,0.06212154,0.13039428,0.22734086
53059,0,USWashingtonSkamania,Washington,Skamania,2021-01-05 06:15:02.241339,2020-08-29 00:00:00.000000,0.11829350,0.32247420,0.63616842,14,38,76,7,21,42,0.06272815,0.17896325,0.35264146,0.06318755,0.13219109,0.22900248
53059,0,USWashingtonSkamania,Washington,Skamania,2021-01-05 06:15:02.241339,2020-08-30 00:00:00.000000,0.11448327,0.32119717,0.61828572,13,38,74,7,21,42,0.06325925,0.17954735,0.35544333,0.06600564,0.13462914,0.23088040
53059,0,USWashingtonSkamania,Washington,Skamania,2021-01-05 06:15:02.241339,2020-08-31 00:00:00.000000,0.11919265,0.32336316,0.59381662,14,39,71,7,21,43,0.06339061,0.17825800,0.35874419,0.06452260,0.13372948,0.23239792
53059,0,USWashingtonSkamania,Washington,Skamania,2021-01-05 06:15:02.241339,2020-09-01 00:00:00.000000,0.12733609,0.32544374,0.56985517,15,39,68,7,21,43,0.06260715,0.17818266,0.35763175,0.06420255,0.13178302,0.24930086
53059,0,USWashingtonSkamania,Washington,Skamania,2021-01-05 06:15:02.241339,2020-09-02 00:00:00.000000,0.12977702,0.32092843,0.55330894,15,38,66,7,21,42,0.06236315,0.17428774,0.35057342,0.06774916,0.13171247,0.25828869
53059,0,USWashingtonSkamania,Washington,Skamania,2021-01-05 06:15:02.241339,2020-09-03 00:00:00.000000,0.13093036,0.31735111,0.54779176,15,38,66,7,20,40,0.06372639,0.17314229,0.33773242,0.07078583,0.13230054,0.27213703
53059,0,USWashingtonSkamania,Washington,Skamania,2021-01-05 06:15:02.241339,2020-09-04 00:00:00.000000,0.12668896,0.31610514,0.54290046,15,38,65,8,20,39,0.06754456,0.17345841,0.32482113,0.07109201,0.13744194,0.28531297
53059,0,USWashingtonSkamania,Washington,Skamania,2021-01-05 06:15:02.241339,2020-09-05 00:00:00.000000,0.12121460,0.31943544,0.53868908,14,38,65,8,20,37,0.06896603,0.17099131,0.31204882,0.07078128,0.14272086,0.28977118
53059,0,USWashingtonSkamania,Washington,Skamania,2021-01-05 06:15:02.241339,2020-09-06 00:00:00.000000,0.11992962,0.31985749,0.53512531,14,38,64,8,20,36,0.06791544,0.16838206,0.29956543,0.07018960,0.14078202,0.30134918
53059,0,USWashingtonSkamania,Washington,Skamania,2021-01-05 06:15:02.241339,2020-09-07 00:00:00.000000,0.13788079,0.32420384,0.52078007,16,39,62,7,20,36,0.06490022,0.17051310,0.30165937,0.07010849,0.14180048,0.30231620
53059,0,USWashingtonSkamania,Washington,Skamania,2021-01-05 06:15:02.241339,2020-09-08 00:00:00.000000,0.14541258,0.32913102,0.50687973,17,39,61,8,20,36,0.06631916,0.17269025,0.30242355,0.07389501,0.14421928,0.30243419
53059,0,USWashingtonSkamania,Washington,Skamania,2021-01-05 06:15:02.241339,2020-09-09 00:00:00.000000,0.15193246,0.33042738,0.49747622,18,39,60,8,20,36,0.07202501,0.17355100,0.30087094,0.07449268,0.14465752,0.30249996
53059,0,USWashingtonSkamania,Washington,Skamania,2021-01-05 06:15:02.241339,2020-09-10 00:00:00.000000,0.15329180,0.32796048,0.51787939,18,39,62,8,21,36,0.07119627,0.17513763,0.29826059,0.07487960,0.14459478,0.30255586
53059,0,USWashingtonSkamania,Washington,Skamania,2021-01-05 06:15:02.241339,2020-09-11 00:00:00.000000,0.15439521,0.32992926,0.53824268,18,39,65,9,21,35,0.07543907,0.17653326,0.29536402,0.07522328,0.14587216,0.30266121
53059,0,USWashingtonSkamania,Washington,Skamania,2021-01-05 06:15:02.241339,2020-09-12 00:00:00.000000,0.15531745,0.33466072,0.54917827,18,40,66,9,21,35,0.08001821,0.17699700,0.29249594,0.07547820,0.14353739,0.30295153
53059,0,USWashingtonSkamania,Washington,Skamania,2021-01-05 06:15:02.241339,2020-09-13 00:00:00.000000,0.15455741,0.33473637,0.55271518,18,40,66,9,21,35,0.08169477,0.17745063,0.28976620,0.07573273,0.14609992,0.30356039
53059,0,USWashingtonSkamania,Washington,Skamania,2021-01-05 06:15:02.241339,2020-09-14 00:00:00.000000,0.17960199,0.33830257,0.54706170,21,40,66,9,21,34,0.08034088,0.17716406,0.28723215,0.08028238,0.14679529,0.30536517
53059,0,USWashingtonSkamania,Washington,Skamania,2021-01-05 06:15:02.241339,2020-09-15 00:00:00.000000,0.19520243,0.33771946,0.54143535,23,40,65,10,21,33,0.09003984,0.17757195,0.28066211,0.08011153,0.14490070,0.30364267
53059,0,USWashingtonSkamania,Washington,Skamania,2021-01-05 06:15:02.241339,2020-09-16 00:00:00.000000,0.18723106,0.33359515,0.56386329,22,40,68,11,21,33,0.09213348,0.17709102,0.27497915,0.07999693,0.14348011,0.30367015
53059,0,USWashingtonSkamania,Washington,Skamania,2021-01-05 06:15:02.241339,2020-09-17 00:00:00.000000,0.17964286,0.32775938,0.55717322,21,39,67,10,21,33,0.08844372,0.17686685,0.27430176,0.07995962,0.14310618,0.30372847
53059,0,USWashingtonSkamania,Washington,Skamania,2021-01-05 06:15:02.241339,2020-09-18 00:00:00.000000,0.17269908,0.33362041,0.55040888,20,40,66,10,21,33,0.08488031,0.17381939,0.27928928,0.08010256,0.14492967,0.30377540
53059,0,USWashingtonSkamania,Washington,Skamania,2021-01-05 06:15:02.241339,2020-09-19 00:00:00.000000,0.17027106,0.32818000,0.57466967,20,39,69,9,20,34,0.08152867,0.17183777,0.28715337,0.08083985,0.14824385,0.30386607
53059,0,USWashingtonSkamania,Washington,Skamania,2021-01-05 06:15:02.241339,2020-09-20 00:00:00.000000,0.17354092,0.32293483,0.60797801,20,39,73,9,20,35,0.07856331,0.17158251,0.29730761,0.08250382,0.14959986,0.30411810
53059,0,USWashingtonSkamania,Washington,Skamania,2021-01-05 06:15:02.241339,2020-09-21 00:00:00.000000,0.17468011,0.32364309,0.60941853,21,39,73,9,20,36,0.07752922,0.17260018,0.30366968,0.08378197,0.15197533,0.30452293
53059,0,USWashingtonSkamania,Washington,Skamania,2021-01-05 06:15:02.241339,2020-09-22 00:00:00.000000,0.17560320,0.32103070,0.61028163,21,38,73,9,21,37,0.07865505,0.17402377,0.31338597,0.08424252,0.15251260,0.29367433
53059,0,USWashingtonSkamania,Washington,Skamania,2021-01-05 06:15:02.241339,2020-09-23 00:00:00.000000,0.17687380,0.32460755,0.61335169,21,39,74,9,21,39,0.08145892,0.17567095,0.32376523,0.08450889,0.15347920,0.29546214
53059,0,USWashingtonSkamania,Washington,Skamania,2021-01-05 06:15:02.241339,2020-09-24 00:00:00.000000,0.17748540,0.32340315,0.60541313,21,39,73,10,21,40,0.08643589,0.17409604,0.33443264,0.08493573,0.16130717,0.29562631
53059,0,USWashingtonSkamania,Washington,Skamania,2021-01-05 06:15:02.241339,2020-09-25 00:00:00.000000,0.17777123,0.31518316,0.60267576,21,38,72,11,20,41,0.09124297,0.17203629,0.34483573,0.08580192,0.16150980,0.29455451
53059,0,USWashingtonSkamania,Washington,Skamania,2021-01-05 06:15:02.241339,2020-09-26 00:00:00.000000,0.17263416,0.31571306,0.57917459,20,38,69,10,20,41,0.09087580,0.17059236,0.34630653,0.08753958,0.16243044,0.29364794
53059,0,USWashingtonSkamania,Washington,Skamania,2021-01-05 06:15:02.241339,2020-09-27 00:00:00.000000,0.17341307,0.31947597,0.56686828,20,38,68,10,20,40,0.08957745,0.17005882,0.33928099,0.08686687,0.16323616,0.29401928
53059,0,USWashingtonSkamania,Washington,Skamania,2021-01-05 06:15:02.241339,2020-09-28 00:00:00.000000,0.17437134,0.32577917,0.56098475,21,39,67,10,20,40,0.08841130,0.17003899,0.33276106,0.08895121,0.16906426,0.29638274
53059,0,USWashingtonSkamania,Washington,Skamania,2021-01-05 06:15:02.241339,2020-09-29 00:00:00.000000,0.17060254,0.32696540,0.55569328,20,39,67,10,20,39,0.08953810,0.17200163,0.32727668,0.09164520,0.17141286,0.29868571
53059,0,USWashingtonSkamania,Washington,Skamania,2021-01-05 06:15:02.241339,2020-09-30 00:00:00.000000,0.17125735,0.32903742,0.55107169,20,39,66,11,20,38,0.09215745,0.17183910,0.32261798,0.09185161,0.17833695,0.29894949
53059,0,USWashingtonSkamania,Washington,Skamania,2021-01-05 06:15:02.241339,2020-10-01 00:00:00.000000,0.16374822,0.33378609,0.54711059,19,40,66,11,21,38,0.09370560,0.17402887,0.31863928,0.09183921,0.18034163,0.30357345
53059,0,USWashingtonSkamania,Washington,Skamania,2021-01-05 06:15:02.241339,2020-10-02 00:00:00.000000,0.15840555,0.33433137,0.54375820,19,40,65,11,21,38,0.09339320,0.17721020,0.31524024,0.09145834,0.18091395,0.31971576
53059,0,USWashingtonSkamania,Washington,Skamania,2021-01-05 06:15:02.241339,2020-10-03 00:00:00.000000,0.15480171,0.33432298,0.54113945,18,40,65,11,21,37,0.09307985,0.17735751,0.31234351,0.09155598,0.18890158,0.33794136
53059,0,USWashingtonSkamania,Washington,Skamania,2021-01-05 06:15:02.241339,2020-10-04 00:00:00.000000,0.15153347,0.33411674,0.53968805,18,40,65,11,21,37,0.09163900,0.17545501,0.30987934,0.10044201,0.19483205,0.35045748
53059,0,USWashingtonSkamania,Washington,Skamania,2021-01-05 06:15:02.241339,2020-10-05 00:00:00.000000,0.17575092,0.33867116,0.53885976,21,40,65,10,21,38,0.09039517,0.17594824,0.31529477,0.10636554,0.19972278,0.36231794
53059,0,USWashingtonSkamania,Washington,Skamania,2021-01-05 06:15:02.241339,2020-10-06 00:00:00.000000,0.19366309,0.33891609,0.54303910,23,40,65,10,21,37,0.08999492,0.17672852,0.30817437,0.10359648,0.20200865,0.37268846
53059,0,USWashingtonSkamania,Washington,Skamania,2021-01-05 06:15:02.241339,2020-10-07 00:00:00.000000,0.20181153,0.34233686,0.53098552,24,41,64,12,21,36,0.10229881,0.17812325,0.30308278,0.10551898,0.20263226,0.37480763
53059,0,USWashingtonSkamania,Washington,Skamania,2021-01-05 06:15:02.241339,2020-10-08 00:00:00.000000,0.20494492,0.35603084,0.54286128,24,43,65,12,21,36,0.10605621,0.17886778,0.30494802,0.10750720,0.20615493,0.37532405
53059,0,USWashingtonSkamania,Washington,Skamania,2021-01-05 06:15:02.241339,2020-10-09 00:00:00.000000,0.20810315,0.36100442,0.55111333,25,43,66,13,21,37,0.10760611,0.18046072,0.30792750,0.10787647,0.21021568,0.37566186
53059,0,USWashingtonSkamania,Washington,Skamania,2021-01-05 06:15:02.241339,2020-10-10 00:00:00.000000,0.21135546,0.36213946,0.56668854,25,43,68,13,22,37,0.10923299,0.18235843,0.30778861,0.10873414,0.22018593,0.37623899
53059,0,USWashingtonSkamania,Washington,Skamania,2021-01-05 06:15:02.241339,2020-10-11 00:00:00.000000,0.21467129,0.37165618,0.57861140,25,44,69,13,21,37,0.11092807,0.18176235,0.31035662,0.11140955,0.22732387,0.37881794
53059,0,USWashingtonSkamania,Washington,Skamania,2021-01-05 06:15:02.241339,2020-10-12 00:00:00.000000,0.22095047,0.37695056,0.58012815,26,45,70,13,22,37,0.11265547,0.18616246,0.31210569,0.11783444,0.23559775,0.39199884
53059,0,USWashingtonSkamania,Washington,Skamania,2021-01-05 06:15:02.241339,2020-10-13 00:00:00.000000,0.22715024,0.38664629,0.57082755,27,46,68,13,23,38,0.11529991,0.19064097,0.31502645,0.12506519,0.23931792,0.39702589
53059,0,USWashingtonSkamania,Washington,Skamania,2021-01-05 06:15:02.241339,2020-10-14 00:00:00.000000,0.23330564,0.40233251,0.57932390,28,48,69,14,23,38,0.11837079,0.19276636,0.31891701,0.12867272,0.24535381,0.39865174
53059,0,USWashingtonSkamania,Washington,Skamania,2021-01-05 06:15:02.241339,2020-10-15 00:00:00.000000,0.23922256,0.40776024,0.58846284,28,49,71,14,23,39,0.12162059,0.19855162,0.32326090,0.12979612,0.24956643,0.40390938
53059,0,USWashingtonSkamania,Washington,Skamania,2021-01-05 06:15:02.241339,2020-10-16 00:00:00.000000,0.22930433,0.41684361,0.59957769,27,50,72,14,24,39,0.12312330,0.20382758,0.32800799,0.13021681,0.25555317,0.40603871
53059,0,USWashingtonSkamania,Washington,Skamania,2021-01-05 06:15:02.241339,2020-10-17 00:00:00.000000,0.22029162,0.43397034,0.61383387,26,52,74,14,25,40,0.12255103,0.21067116,0.33347717,0.13102030,0.26264283,0.40831083
53059,0,USWashingtonSkamania,Washington,Skamania,2021-01-05 06:15:02.241339,2020-10-18 00:00:00.000000,0.21238522,0.44465581,0.63082030,25,53,76,14,25,41,0.11788881,0.21313059,0.34014902,0.13491867,0.26999783,0.42719695
53059,0,USWashingtonSkamania,Washington,Skamania,2021-01-05 06:15:02.241339,2020-10-19 00:00:00.000000,0.20882785,0.46146990,0.63520430,25,55,76,14,26,42,0.11613090,0.22022124,0.34819655,0.14900362,0.27847180,0.44395067
53059,0,USWashingtonSkamania,Washington,Skamania,2021-01-05 06:15:02.241339,2020-10-20 00:00:00.000000,0.20573118,0.47362617,0.64360743,24,57,77,14,26,43,0.11954506,0.22319260,0.35691557,0.17087413,0.28249965,0.44517793
53059,0,USWashingtonSkamania,Washington,Skamania,2021-01-05 06:15:02.241339,2020-10-21 00:00:00.000000,0.20325267,0.49190028,0.65785366,24,59,79,14,28,43,0.12186611,0.23591484,0.36305028,0.17540286,0.28307059,0.44841506
53059,0,USWashingtonSkamania,Washington,Skamania,2021-01-05 06:15:02.241339,2020-10-22 00:00:00.000000,0.20114023,0.50506278,0.68295502,24,61,82,14,29,43,0.12318014,0.24358369,0.36198316,0.17615730,0.28967622,0.45876814
53059,0,USWashingtonSkamania,Washington,Skamania,2021-01-05 06:15:02.241339,2020-10-23 00:00:00.000000,0.20244420,0.51584607,0.71742745,24,62,86,14,29,44,0.12344907,0.24824555,0.36558309,0.17658585,0.29579546,0.48793035
53059,0,USWashingtonSkamania,Washington,Skamania,2021-01-05 06:15:02.241339,2020-10-24 00:00:00.000000,0.20542349,0.53313052,0.74313320,24,64,89,15,30,45,0.12475629,0.25322388,0.37499704,0.18694741,0.31295363,0.53258690
53059,0,USWashingtonSkamania,Washington,Skamania,2021-01-05 06:15:02.241339,2020-10-25 00:00:00.000000,0.20882607,0.55223151,0.77581430,25,66,93,15,32,46,0.12703365,0.26661191,0.38629331,0.18593741,0.32037306,0.55578948
53059,0,USWashingtonSkamania,Washington,Skamania,2021-01-05 06:15:02.241339,2020-10-26 00:00:00.000000,0.24103971,0.57091644,0.81755036,29,68,98,15,32,47,0.13008654,0.27224508,0.39423952,0.19589271,0.32773454,0.57926304
53059,0,USWashingtonSkamania,Washington,Skamania,2021-01-05 06:15:02.241339,2020-10-27 00:00:00.000000,0.27310169,0.59826459,0.84310789,32,72,101,16,33,49,0.13471139,0.28096364,0.40806222,0.20899188,0.33514664,0.60110959
53059,0,USWashingtonSkamania,Washington,Skamania,2021-01-05 06:15:02.241339,2020-10-28 00:00:00.000000,0.30609372,0.62373292,0.88685638,36,75,107,16,35,51,0.14041443,0.29053971,0.42448915,0.20518275,0.33930199,0.61170473
53059,0,USWashingtonSkamania,Washington,Skamania,2021-01-05 06:15:02.241339,2020-10-29 00:00:00.000000,0.31545028,0.64353386,0.93592426,38,77,113,17,36,53,0.14708190,0.30435698,0.44324433,0.22122949,0.35145581,0.61256997
53059,0,USWashingtonSkamania,Washington,Skamania,2021-01-05 06:15:02.241339,2020-10-30 00:00:00.000000,0.31226971,0.66043183,0.99188027,37,79,119,18,37,56,0.15478772,0.31267292,0.46965063,0.22962466,0.35873525,0.61434497
53059,0,USWashingtonSkamania,Washington,Skamania,2021-01-05 06:15:02.241339,2020-10-31 00:00:00.000000,0.31617627,0.66988631,1.05322936,38,80,127,19,39,60,0.16364922,0.32724440,0.49784903,0.23031286,0.37238858,0.61674274
53059,0,USWashingtonSkamania,Washington,Skamania,2021-01-05 06:15:02.241339,2020-11-01 00:00:00.000000,0.33895287,0.69324025,1.12133818,40,83,135,20,41,63,0.17373112,0.34055318,0.52726421,0.23088079,0.38176726,0.62124433
53059,0,USWashingtonSkamania,Washington,Skamania,2021-01-05 06:15:02.241339,2020-11-02 00:00:00.000000,0.36327252,0.74809080,1.19042185,43,90,143,21,43,67,0.18075951,0.35596713,0.55714600,0.23070303,0.38838103,0.62111651
53059,0,USWashingtonSkamania,Washington,Skamania,2021-01-05 06:15:02.241339,2020-11-03 00:00:00.000000,0.38763972,0.79573530,1.26446168,46,96,152,21,45,70,0.18171460,0.37356159,0.58749553,0.23248674,0.39845790,0.62279083
53059,0,USWashingtonSkamania,Washington,Skamania,2021-01-05 06:15:02.241339,2020-11-04 00:00:00.000000,0.41211083,0.83795079,1.34210006,49,101,162,22,47,76,0.18774359,0.39236801,0.63387236,0.23545588,0.40900191,0.62409277
53059,0,USWashingtonSkamania,Washington,Skamania,2021-01-05 06:15:02.241339,2020-11-05 00:00:00.000000,0.43680470,0.89812027,1.42225502,52,108,171,24,49,82,0.19997685,0.41294304,0.68443237,0.24152277,0.42104042,0.64946539
53059,0,USWashingtonSkamania,Washington,Skamania,2021-01-05 06:15:02.241339,2020-11-06 00:00:00.000000,0.44387759,0.95962931,1.50445874,53,115,181,25,54,89,0.21233882,0.44799282,0.74376044,0.25635978,0.43504575,0.68426414
53059,0,USWashingtonSkamania,Washington,Skamania,2021-01-05 06:15:02.241339,2020-11-07 00:00:00.000000,0.44906692,1.02584107,1.59170739,54,123,192,27,58,98,0.22491472,0.48516298,0.81355077,0.26051191,0.44347128,0.71553747
53059,0,USWashingtonSkamania,Washington,Skamania,2021-01-05 06:15:02.241339,2020-11-08 00:00:00.000000,0.45473804,1.11094014,1.71485253,54,134,207,28,62,104,0.23794489,0.51606731,0.86228129,0.27335653,0.46386514,0.72858656
53059,0,USWashingtonSkamania,Washington,Skamania,2021-01-05 06:15:02.241339,2020-11-09 00:00:00.000000,0.49086189,1.17493100,1.80353958,59,141,217,30,66,111,0.25180830,0.54761511,0.92178355,0.29415136,0.48664421,0.74320109
53059,0,USWashingtonSkamania,Washington,Skamania,2021-01-05 06:15:02.241339,2020-11-10 00:00:00.000000,0.52736058,1.24751443,1.92521531,63,150,232,33,69,121,0.27398759,0.57314009,1.00588178,0.31054360,0.49884139,0.74211934
53059,0,USWashingtonSkamania,Washington,Skamania,2021-01-05 06:15:02.241339,2020-11-11 00:00:00.000000,0.56607385,1.32000432,2.06254213,68,159,249,36,73,131,0.30142941,0.60698427,1.08562947,0.32723839,0.50423958,0.75199820
53059,0,USWashingtonSkamania,Washington,Skamania,2021-01-05 06:15:02.241339,2020-11-12 00:00:00.000000,0.60672467,1.39707262,2.20426793,73,168,266,40,78,140,0.33251379,0.65274914,1.16095932,0.33947024,0.52064667,0.76424178
53059,0,USWashingtonSkamania,Washington,Skamania,2021-01-05 06:15:02.241339,2020-11-13 00:00:00.000000,0.65841380,1.46406756,2.35428374,79,176,284,44,83,147,0.36658673,0.69070628,1.22386602,0.35066757,0.52731642,0.76186138
53059,0,USWashingtonSkamania,Washington,Skamania,2021-01-05 06:15:02.241339,2020-11-14 00:00:00.000000,0.74176477,1.56453814,2.50013467,89,189,302,47,88,155,0.39635245,0.73271734,1.28639409,0.35218605,0.52755087,0.78356505
53059,0,USWashingtonSkamania,Washington,Skamania,2021-01-05 06:15:02.241339,2020-11-15 00:00:00.000000,0.83355279,1.67803595,2.64131824,100,202,319,50,94,162,0.41937937,0.78037945,1.34881639,0.35521703,0.53633822,0.81148004
53059,0,USWashingtonSkamania,Washington,Skamania,2021-01-05 06:15:02.241339,2020-11-16 00:00:00.000000,0.91869715,1.77020470,2.79570780,111,213,337,54,100,170,0.45243802,0.83384077,1.41183264,0.35900326,0.55569628,0.80071135
53059,0,USWashingtonSkamania,Washington,Skamania,2021-01-05 06:15:02.241339,2020-11-17 00:00:00.000000,0.97726753,1.86877817,2.97159712,118,225,359,58,106,178,0.48725331,0.88181472,1.47712634,0.36456149,0.55396562,0.78142128
53059,0,USWashingtonSkamania,Washington,Skamania,2021-01-05 06:15:02.241339,2020-11-18 00:00:00.000000,1.03929084,2.00096136,3.15327466,125,241,381,62,112,186,0.51714554,0.93231253,1.54462497,0.38366228,0.55228714,0.80557967
53059,0,USWashingtonSkamania,Washington,Skamania,2021-01-05 06:15:02.241339,2020-11-19 00:00:00.000000,1.10541761,2.13588388,3.34196357,133,258,403,66,120,195,0.54830240,0.99669899,1.61415859,0.39095683,0.55658983,0.81990737
53059,0,USWashingtonSkamania,Washington,Skamania,2021-01-05 06:15:02.241339,2020-11-20 00:00:00.000000,1.20567984,2.26584770,3.53612420,145,273,427,70,128,203,0.58342307,1.06182716,1.68585616,0.39746784,0.56011884,0.83658777
53059,0,USWashingtonSkamania,Washington,Skamania,2021-01-05 06:15:02.241339,2020-11-21 00:00:00.000000,1.31405204,2.39547381,3.73183636,158,289,450,75,137,217,0.62537808,1.13488100,1.79845098,0.39545987,0.56222593,0.84304965
53059,0,USWashingtonSkamania,Washington,Skamania,2021-01-05 06:15:02.241339,2020-11-22 00:00:00.000000,1.42617892,2.52471427,3.92368062,172,305,474,80,146,233,0.66661014,1.21146998,1.93194974,0.39278267,0.56443985,0.83227848
53059,0,USWashingtonSkamania,Washington,Skamania,2021-01-05 06:15:02.241339,2020-11-23 00:00:00.000000,1.51573339,2.67007661,4.11000379,183,322,496,86,154,250,0.71300028,1.27679898,2.06964519,0.38249270,0.56291704,0.79993332
53059,0,USWashingtonSkamania,Washington,Skamania,2021-01-05 06:15:02.241339,2020-11-24 00:00:00.000000,1.57923765,2.85932204,4.29261513,190,345,518,92,164,266,0.76298442,1.36518918,2.20804138,0.37385949,0.55469366,0.78177846
53059,0,USWashingtonSkamania,Washington,Skamania,2021-01-05 06:15:02.241339,2020-11-25 00:00:00.000000,1.66180630,3.03570671,4.50496198,200,366,544,98,173,283,0.81734328,1.43676815,2.34635066,0.37110878,0.55549631,0.79553659
53059,0,USWashingtonSkamania,Washington,Skamania,2021-01-05 06:15:02.241339,2020-11-26 00:00:00.000000,1.78050208,3.19678413,4.76685680,215,386,575,105,181,299,0.87188280,1.50422221,2.47895626,0.36557384,0.55284381,0.79703759
53059,0,USWashingtonSkamania,Washington,Skamania,2021-01-05 06:15:02.241339,2020-11-27 00:00:00.000000,1.90554314,3.33241089,5.02904938,230,402,607,111,190,314,0.91954398,1.57915330,2.59962268,0.36752499,0.55187199,0.79630128
53059,0,USWashingtonSkamania,Washington,Skamania,2021-01-05 06:15:02.241339,2020-11-28 00:00:00.000000,2.03625825,3.51900014,5.28845577,246,425,639,116,202,327,0.96782263,1.67651249,2.70858666,0.34231243,0.55025890,0.76222779
53059,0,USWashingtonSkamania,Washington,Skamania,2021-01-05 06:15:02.241339,2020-11-29 00:00:00.000000,2.17183401,3.67241688,5.53961687,262,443,669,126,215,339,1.05036422,1.78244511,2.80913668,0.32882667,0.55317383,0.75418384
53059,0,USWashingtonSkamania,Washington,Skamania,2021-01-05 06:15:02.241339,2020-11-30 00:00:00.000000,2.33817200,3.88461063,5.74423307,282,469,694,135,227,350,1.12527105,1.88632549,2.90422967,0.32356825,0.55041241,0.74279500
53059,0,USWashingtonSkamania,Washington,Skamania,2021-01-05 06:15:02.241339,2020-12-01 00:00:00.000000,2.49945073,4.12846404,5.92731217,302,498,716,142,240,361,1.17980254,1.98855692,2.99197438,0.32159623,0.54791830,0.74271863
53059,0,USWashingtonSkamania,Washington,Skamania,2021-01-05 06:15:02.241339,2020-12-02 00:00:00.000000,2.60899006,4.29237073,6.08569862,315,518,735,149,251,372,1.23524934,2.08359986,3.08685542,0.32070493,0.53960550,0.74239412
53059,0,USWashingtonSkamania,Washington,Skamania,2021-01-05 06:15:02.241339,2020-12-03 00:00:00.000000,2.71827314,4.40029754,6.22391824,328,531,752,156,262,389,1.29156556,2.17652058,3.22700629,0.32688679,0.52262086,0.70448250
53059,0,USWashingtonSkamania,Washington,Skamania,2021-01-05 06:15:02.241339,2020-12-04 00:00:00.000000,2.81628036,4.54997834,6.54084843,340,549,790,162,278,404,1.34827786,2.30388311,3.34858410,0.33339445,0.50179820,0.66607970
53059,0,USWashingtonSkamania,Washington,Skamania,2021-01-05 06:15:02.241339,2020-12-05 00:00:00.000000,2.88067599,4.72272627,6.79617977,348,570,821,169,290,415,1.40232646,2.40294661,3.43884762,0.30533355,0.48078646,0.65474495
53059,0,USWashingtonSkamania,Washington,Skamania,2021-01-05 06:15:02.241339,2020-12-06 00:00:00.000000,2.92085239,4.87851063,6.98413627,352,589,843,174,299,433,1.44795161,2.47540207,3.58476855,0.28509080,0.45973852,0.64674311
53059,0,USWashingtonSkamania,Washington,Skamania,2021-01-05 06:15:02.241339,2020-12-07 00:00:00.000000,2.92558624,4.99371566,7.14909971,353,603,863,180,310,448,1.49789051,2.56874428,3.71417610,0.27817386,0.43004345,0.57713489
53059,0,USWashingtonSkamania,Washington,Skamania,2021-01-05 06:15:02.241339,2020-12-08 00:00:00.000000,2.92507568,5.08976016,7.12152915,353,614,860,185,318,454,1.53379087,2.63287876,3.76248608,0.27810107,0.41828703,0.56532931
53059,0,USWashingtonSkamania,Washington,Skamania,2021-01-05 06:15:02.241339,2020-12-09 00:00:00.000000,2.91759186,5.19621932,7.04662775,352,627,851,189,327,459,1.56648043,2.71006915,3.80559323,0.27809442,0.41049097,0.56083415
53059,0,USWashingtonSkamania,Washington,Skamania,2021-01-05 06:15:02.241339,2020-12-10 00:00:00.000000,2.90072164,5.25678429,7.00722902,350,635,846,192,337,464,1.59416802,2.79101460,3.84418356,0.27039454,0.40660374,0.55880126
53059,0,USWashingtonSkamania,Washington,Skamania,2021-01-05 06:15:02.241339,2020-12-11 00:00:00.000000,2.87265293,5.37068627,6.96557550,347,648,841,192,340,468,1.59201264,2.82171717,3.87878120,0.25760670,0.39404208,0.55039255
53059,0,USWashingtonSkamania,Washington,Skamania,2021-01-05 06:15:02.241339,2020-12-12 00:00:00.000000,2.84480421,5.44378222,6.90759061,343,657,834,191,343,471,1.58194113,2.84652031,3.90575252,0.25303692,0.38105435,0.52385768
53059,0,USWashingtonSkamania,Washington,Skamania,2021-01-05 06:15:02.241339,2020-12-13 00:00:00.000000,2.89510102,5.45889059,6.83878810,349,659,826,189,341,473,1.56959635,2.82861521,3.91498524,0.25010604,0.36536189,0.51119741
53059,0,USWashingtonSkamania,Washington,Skamania,2021-01-05 06:15:02.241339,2020-12-14 00:00:00.000000,2.94787662,5.45962513,6.79230388,356,659,820,187,340,473,1.55546258,2.81634118,3.91992005,0.24862449,0.35705777,0.50414132
53059,0,USWashingtonSkamania,Washington,Skamania,2021-01-05 06:15:02.241339,2020-12-15 00:00:00.000000,2.97461488,5.41362560,6.74123845,359,654,814,186,340,471,1.54042058,2.81511090,3.90039703,0.24783587,0.34459551,0.50189859
53059,0,USWashingtonSkamania,Washington,Skamania,2021-01-05 06:15:02.241339,2020-12-16 00:00:00.000000,2.95213585,5.36841662,6.75568248,356,648,816,184,337,466,1.52417405,2.79194688,3.86116396,0.24682620,0.33754491,0.49845740
53059,0,USWashingtonSkamania,Washington,Skamania,2021-01-05 06:15:02.241339,2020-12-17 00:00:00.000000,2.89471135,5.30432940,6.75031974,349,640,815,181,332,465,1.50572218,2.75437500,3.85070259,0.23954913,0.32850079,0.49516971
53059,0,USWashingtonSkamania,Washington,Skamania,2021-01-05 06:15:02.241339,2020-12-18 00:00:00.000000,2.87744700,5.27633750,6.62865154,347,637,800,179,331,465,1.48736798,2.74059970,3.85228785,0.22690426,0.32971870,0.49652794
53059,0,USWashingtonSkamania,Washington,Skamania,2021-01-05 06:15:02.241339,2020-12-19 00:00:00.000000,2.88853750,5.23118591,6.52485177,349,632,788,180,326,466,1.49619296,2.70334111,3.85904398,0.22065769,0.31876426,0.50030060
53059,0,USWashingtonSkamania,Washington,Skamania,2021-01-05 06:15:02.241339,2020-12-20 00:00:00.000000,2.89764966,5.10915379,6.44724986,350,617,779,181,327,462,1.50379567,2.71109051,3.82633117,0.21606434,0.31795002,0.50951373
53059,0,USWashingtonSkamania,Washington,Skamania,2021-01-05 06:15:02.241339,2020-12-21 00:00:00.000000,2.87410046,5.02090163,6.40566590,347,606,773,178,328,457,1.47420976,2.71495962,3.78450602,0.21473233,0.31691039,0.51771164
53059,0,USWashingtonSkamania,Washington,Skamania,2021-01-05 06:15:02.241339,2020-12-22 00:00:00.000000,2.78408077,4.88717132,6.33969514,336,590,766,173,328,455,1.43473338,2.71562620,3.76617901,0.21340436,0.31516365,0.51331419
53059,0,USWashingtonSkamania,Washington,Skamania,2021-01-05 06:15:02.241339,2020-12-23 00:00:00.000000,2.69111813,4.85178198,6.32612665,325,586,764,168,322,451,1.39676984,2.67201283,3.74036285,0.21255376,0.30987503,0.50599219
53059,0,USWashingtonSkamania,Washington,Skamania,2021-01-05 06:15:02.241339,2020-12-24 00:00:00.000000,2.59756219,4.71481537,6.30766954,313,569,762,164,316,439,1.35979970,2.61755576,3.63609779,0.21129942,0.30812865,0.50564439
53059,0,USWashingtonSkamania,Washington,Skamania,2021-01-05 06:15:02.241339,2020-12-25 00:00:00.000000,2.50531449,4.57286891,6.25656503,302,552,755,159,306,427,1.32394061,2.53442901,3.53496359,0.20718334,0.30373495,0.50463055
53059,0,USWashingtonSkamania,Washington,Skamania,2021-01-05 06:15:02.241339,2020-12-26 00:00:00.000000,2.41632168,4.44888554,6.18884554,291,537,747,155,300,428,1.28969074,2.48733192,3.54721287,0.20012394,0.31113576,0.50183275
53059,0,USWashingtonSkamania,Washington,Skamania,2021-01-05 06:15:02.241339,2020-12-27 00:00:00.000000,2.33347908,4.33404716,6.12040250,281,523,739,152,295,429,1.25838800,2.44172497,3.55615396,0.19312364,0.30415416,0.49446323
53059,0,USWashingtonSkamania,Washington,Skamania,2021-01-05 06:15:02.241339,2020-12-28 00:00:00.000000,2.27066744,4.23016210,6.13047409,274,511,740,147,288,431,1.21995052,2.38393846,3.56862831,0.19238376,0.30571083,0.49106904
53059,0,USWashingtonSkamania,Washington,Skamania,2021-01-05 06:15:02.241339,2020-12-29 00:00:00.000000,2.20891124,4.15211718,6.04410832,266,501,730,143,283,429,1.19065225,2.34748766,3.55554757,0.18097383,0.30405431,0.48876260
53059,0,USWashingtonSkamania,Washington,Skamania,2021-01-05 06:15:02.241339,2020-12-30 00:00:00.000000,2.14515969,4.00458913,5.95643790,259,483,719,140,279,428,1.16016143,2.31121360,3.54550360,0.18108116,0.29796294,0.52441553
53059,0,USWashingtonSkamania,Washington,Skamania,2021-01-05 06:15:02.241339,2020-12-31 00:00:00.000000,2.03800962,3.86525109,5.86765341,246,467,708,136,269,426,1.12823136,2.22898243,3.53017670,0.18289647,0.29415596,0.56051187
53059,0,USWashingtonSkamania,Washington,Skamania,2021-01-05 06:15:02.241339,2021-01-01 00:00:00.000000,1.94897099,3.78159296,5.77802740,235,456,698,130,259,424,1.08140537,2.15105792,3.51053640,0.18079649,0.29308046,0.57037847
53059,0,USWashingtonSkamania,Washington,Skamania,2021-01-05 06:15:02.241339,2021-01-02 00:00:00.000000,1.82935497,3.67010541,5.68798967,221,443,687,122,253,421,1.01235849,2.09849015,3.48531861,0.16897056,0.29167975,0.59467137
53059,0,USWashingtonSkamania,Washington,Skamania,2021-01-05 06:15:02.241339,2021-01-03 00:00:00.000000,1.69429006,3.59028840,5.61027966,204,433,677,114,246,417,0.94588236,2.04236273,3.45592504,0.16441065,0.29282884,0.62282305
53059,0,USWashingtonSkamania,Washington,Skamania,2021-01-05 06:15:02.241339,2021-01-04 00:00:00.000000,1.64380993,3.48122187,5.64565912,198,420,682,106,238,413,0.88092502,1.97699777,3.42181633,0.16580043,0.29412476,0.62345268
53059,0,USWashingtonSkamania,Washington,Skamania,2021-01-05 06:15:02.241339,2021-01-05 00:00:00.000000,1.55834152,3.41787171,5.83336765,188,412,704,99,231,408,0.82654975,1.91756559,3.38217470,0.16742752,0.29292342,0.62370813
53059,0,USWashingtonSkamania,Washington,Skamania,2021-01-05 06:15:02.241339,2021-01-06 00:00:00.000000,1.47728584,3.29949596,6.03415130,178,398,729,91,226,403,0.75648538,1.87053727,3.33677842,0.16781081,0.29266516,0.62383290
53059,0,USWashingtonSkamania,Washington,Skamania,2021-01-05 06:15:02.241339,2021-01-07 00:00:00.000000,1.38299170,3.18439120,6.24348446,167,384,754,85,222,399,0.70656927,1.83825228,3.30635699,0.16789178,0.29277522,0.62538647
53059,0,USWashingtonSkamania,Washington,Skamania,2021-01-05 06:15:02.241339,2021-01-08 00:00:00.000000,1.28688237,3.07402591,6.45725481,155,371,780,80,217,397,0.66976699,1.79919602,3.29197813,0.16790847,0.29261348,0.63126267
53059,0,USWashingtonSkamania,Washington,Skamania,2021-01-05 06:15:02.241339,2021-01-09 00:00:00.000000,1.19710777,2.98130719,6.67267286,144,360,806,76,212,391,0.63487187,1.76216607,3.23713617,0.16774745,0.29203597,0.63404128
53059,0,USWashingtonSkamania,Washington,Skamania,2021-01-05 06:15:02.241339,2021-01-10 00:00:00.000000,1.11338094,2.89215103,6.89111645,134,349,832,72,204,392,0.60177468,1.69424595,3.25063984,0.16753642,0.29106971,0.63532828
53059,0,USWashingtonSkamania,Washington,Skamania,2021-01-05 06:15:02.241339,2021-01-11 00:00:00.000000,1.03537902,2.79906179,6.96760814,125,338,841,68,198,396,0.57039360,1.64469573,3.28004756,0.16742687,0.29049984,0.63591895
53059,0,USWashingtonSkamania,Washington,Skamania,2021-01-05 06:15:02.241339,2021-01-12 00:00:00.000000,0.96276518,2.67647098,6.87905925,116,323,831,65,193,399,0.54062908,1.59872661,3.30647868,0.16737031,0.29032048,0.63618907
53059,0,USWashingtonSkamania,Washington,Skamania,2021-01-05 06:15:02.241339,2021-01-13 00:00:00.000000,0.89520223,2.56322926,6.78644718,108,309,820,60,186,402,0.50388981,1.54560650,3.32982172,0.16734120,0.29030698,0.63631249
53059,0,USWashingtonSkamania,Washington,Skamania,2021-01-05 06:15:02.241339,2021-01-14 00:00:00.000000,0.83236101,2.49556042,6.68636163,100,301,807,55,178,404,0.46116359,1.47373560,3.34997974,0.16732624,0.29030150,0.63636891
53059,0,USWashingtonSkamania,Washington,Skamania,2021-01-05 06:15:02.241339,2021-01-15 00:00:00.000000,0.77392526,2.43157529,6.58321895,93,293,795,50,172,403,0.42202933,1.42360010,3.34029719,0.16731855,0.29029928,0.63639474
53059,0,USWashingtonSkamania,Washington,Skamania,2021-01-05 06:15:02.241339,2021-01-16 00:00:00.000000,0.70971148,2.36889047,6.47728504,85,286,782,46,165,397,0.38619598,1.37135477,3.29209666,0.16731460,0.29029839,0.63640659
53059,0,USWashingtonSkamania,Washington,Skamania,2021-01-05 06:15:02.241339,2021-01-17 00:00:00.000000,0.64931183,2.29394864,6.36882182,78,277,769,42,159,391,0.35339214,1.32208268,3.24232837,0.16731258,0.29029802,0.63641204
