FIPS,HR_UID,nameid,province,region,analysisTime,dates,pointprevalence_025,pointprevalence_50,pointprevalence_975,pointinfections_025,pointinfections_50,pointinfections_975,pointinfectious_025,pointinfectious_50,pointinfectious_975,pointinfectiousprevalence_05,pointinfectiousprevalence_50,pointinfectiousprevalence_95,infectrate_025,infectrate_50,infectrate_975
0,0,Burma,,,2021-01-05 03:20:37.093146,2020-03-09 00:00:00.000000,0.00000378,0.00001191,0.00003535,2,6,19,1,3,10,0.00000210,0.00000689,0.00001901,0.45885584,0.61261030,0.76905243
0,0,Burma,,,2021-01-05 03:20:37.093146,2020-03-10 00:00:00.000000,0.00000430,0.00001352,0.00003795,2,7,20,1,3,10,0.00000233,0.00000710,0.00001963,0.45885217,0.61261000,0.76901829
0,0,Burma,,,2021-01-05 03:20:37.093146,2020-03-11 00:00:00.000000,0.00000490,0.00001514,0.00004076,2,8,22,1,4,11,0.00000250,0.00000765,0.00002122,0.45884447,0.61260902,0.76901809
0,0,Burma,,,2021-01-05 03:20:37.093146,2020-03-12 00:00:00.000000,0.00000542,0.00001704,0.00004377,2,9,23,1,4,12,0.00000270,0.00000830,0.00002302,0.45882833,0.61260580,0.76901710
0,0,Burma,,,2021-01-05 03:20:37.093146,2020-03-13 00:00:00.000000,0.00000589,0.00001957,0.00004700,3,10,25,1,4,13,0.00000292,0.00000899,0.00002504,0.45879450,0.61227099,0.76901229
0,0,Burma,,,2021-01-05 03:20:37.093146,2020-03-14 00:00:00.000000,0.00000640,0.00002187,0.00005048,3,11,27,1,5,14,0.00000317,0.00000998,0.00002687,0.45872350,0.61207283,0.76898868
0,0,Burma,,,2021-01-05 03:20:37.093146,2020-03-15 00:00:00.000000,0.00000696,0.00002364,0.00005422,3,12,29,1,6,15,0.00000344,0.00001121,0.00002883,0.45857441,0.61155999,0.76887292
0,0,Burma,,,2021-01-05 03:20:37.093146,2020-03-16 00:00:00.000000,0.00000936,0.00003027,0.00006510,5,16,35,2,6,16,0.00000395,0.00001272,0.00003094,0.45826145,0.60817956,0.76830693
0,0,Burma,,,2021-01-05 03:20:37.093146,2020-03-17 00:00:00.000000,0.00001228,0.00003652,0.00007644,6,19,41,2,8,18,0.00000522,0.00001495,0.00003389,0.43997822,0.60412570,0.76558709
0,0,Burma,,,2021-01-05 03:20:37.093146,2020-03-18 00:00:00.000000,0.00001638,0.00004384,0.00008804,8,23,47,3,9,21,0.00000694,0.00001807,0.00003908,0.43865767,0.59656060,0.75353501
0,0,Burma,,,2021-01-05 03:20:37.093146,2020-03-19 00:00:00.000000,0.00001980,0.00005057,0.00010335,10,27,56,4,11,24,0.00000867,0.00002101,0.00004474,0.42150930,0.57935138,0.73018604
0,0,Burma,,,2021-01-05 03:20:37.093146,2020-03-20 00:00:00.000000,0.00002411,0.00005613,0.00012421,13,30,67,5,13,30,0.00001036,0.00002536,0.00005527,0.39259071,0.55680557,0.72685527
0,0,Burma,,,2021-01-05 03:20:37.093146,2020-03-21 00:00:00.000000,0.00002919,0.00006568,0.00014395,15,35,78,7,15,35,0.00001289,0.00002873,0.00006485,0.37385368,0.54181563,0.71938960
0,0,Burma,,,2021-01-05 03:20:37.093146,2020-03-22 00:00:00.000000,0.00003350,0.00007354,0.00016584,18,40,90,8,17,41,0.00001623,0.00003248,0.00007552,0.36952899,0.52857595,0.70475769
0,0,Burma,,,2021-01-05 03:20:37.093146,2020-03-23 00:00:00.000000,0.00003726,0.00008116,0.00018645,20,44,101,10,20,47,0.00001865,0.00003677,0.00008734,0.36022544,0.51500631,0.70789918
0,0,Burma,,,2021-01-05 03:20:37.093146,2020-03-24 00:00:00.000000,0.00004250,0.00008887,0.00020714,23,48,112,11,22,54,0.00002066,0.00004159,0.00009961,0.34362746,0.50587012,0.70913545
0,0,Burma,,,2021-01-05 03:20:37.093146,2020-03-25 00:00:00.000000,0.00004818,0.00009600,0.00022910,26,52,124,12,25,61,0.00002273,0.00004677,0.00011212,0.31854125,0.50372606,0.68915327
0,0,Burma,,,2021-01-05 03:20:37.093146,2020-03-26 00:00:00.000000,0.00005331,0.00010598,0.00025305,29,57,137,14,28,68,0.00002618,0.00005236,0.00012510,0.29420172,0.49655267,0.65537762
0,0,Burma,,,2021-01-05 03:20:37.093146,2020-03-27 00:00:00.000000,0.00005853,0.00011467,0.00027919,31,62,151,16,30,75,0.00002957,0.00005608,0.00013888,0.27925277,0.48835144,0.64279374
0,0,Burma,,,2021-01-05 03:20:37.093146,2020-03-28 00:00:00.000000,0.00006545,0.00012747,0.00030762,35,69,167,17,34,83,0.00003179,0.00006373,0.00015371,0.27424793,0.47283204,0.63027758
0,0,Burma,,,2021-01-05 03:20:37.093146,2020-03-29 00:00:00.000000,0.00006915,0.00014116,0.00033834,37,76,184,18,38,92,0.00003399,0.00007041,0.00016975,0.27546842,0.46781101,0.61867929
0,0,Burma,,,2021-01-05 03:20:37.093146,2020-03-30 00:00:00.000000,0.00007518,0.00015221,0.00037278,40,82,202,19,41,101,0.00003624,0.00007676,0.00018706,0.27785125,0.45559691,0.61166867
0,0,Burma,,,2021-01-05 03:20:37.093146,2020-03-31 00:00:00.000000,0.00008458,0.00016574,0.00040173,46,90,218,21,45,112,0.00003996,0.00008431,0.00020603,0.27421409,0.44193852,0.60782899
0,0,Burma,,,2021-01-05 03:20:37.093146,2020-04-01 00:00:00.000000,0.00009727,0.00017745,0.00042468,52,96,231,25,50,122,0.00004603,0.00009339,0.00022449,0.26871303,0.41972190,0.60552952
0,0,Burma,,,2021-01-05 03:20:37.093146,2020-04-02 00:00:00.000000,0.00010826,0.00019118,0.00044389,58,104,241,28,53,131,0.00005301,0.00009840,0.00024105,0.26584874,0.40362275,0.59708133
0,0,Burma,,,2021-01-05 03:20:37.093146,2020-04-03 00:00:00.000000,0.00011645,0.00020680,0.00045840,63,112,249,31,58,137,0.00005870,0.00010689,0.00025239,0.25543608,0.39867846,0.57108294
0,0,Burma,,,2021-01-05 03:20:37.093146,2020-04-04 00:00:00.000000,0.00012447,0.00022007,0.00046850,67,119,254,34,61,141,0.00006340,0.00011314,0.00026019,0.24568915,0.38819681,0.57102256
0,0,Burma,,,2021-01-05 03:20:37.093146,2020-04-05 00:00:00.000000,0.00013246,0.00022875,0.00047545,72,124,258,37,65,146,0.00006809,0.00012046,0.00026905,0.23041748,0.37383497,0.55168634
0,0,Burma,,,2021-01-05 03:20:37.093146,2020-04-06 00:00:00.000000,0.00014128,0.00024296,0.00048656,76,132,264,39,70,152,0.00007274,0.00012981,0.00027983,0.19853205,0.36047856,0.54536220
0,0,Burma,,,2021-01-05 03:20:37.093146,2020-04-07 00:00:00.000000,0.00015023,0.00025623,0.00051335,81,139,279,42,75,158,0.00007762,0.00013798,0.00029117,0.18751541,0.35471304,0.51845075
0,0,Burma,,,2021-01-05 03:20:37.093146,2020-04-08 00:00:00.000000,0.00015938,0.00027391,0.00053714,86,149,292,44,78,165,0.00008266,0.00014440,0.00030407,0.17714074,0.33935172,0.49557005
0,0,Burma,,,2021-01-05 03:20:37.093146,2020-04-09 00:00:00.000000,0.00016871,0.00028821,0.00055858,91,156,303,47,82,172,0.00008784,0.00015130,0.00031645,0.17601466,0.32745480,0.47511086
0,0,Burma,,,2021-01-05 03:20:37.093146,2020-04-10 00:00:00.000000,0.00017581,0.00030303,0.00057798,95,164,314,50,86,178,0.00009313,0.00015974,0.00032872,0.17174673,0.32049329,0.45085392
0,0,Burma,,,2021-01-05 03:20:37.093146,2020-04-11 00:00:00.000000,0.00017572,0.00031719,0.00059602,95,172,324,53,91,186,0.00009743,0.00016837,0.00034249,0.15422892,0.31043688,0.43841756
0,0,Burma,,,2021-01-05 03:20:37.093146,2020-04-12 00:00:00.000000,0.00017607,0.00032853,0.00061448,95,178,334,54,94,200,0.00010093,0.00017431,0.00036781,0.15309285,0.30396991,0.43883101
0,0,Burma,,,2021-01-05 03:20:37.093146,2020-04-13 00:00:00.000000,0.00017823,0.00033585,0.00066084,96,182,359,55,98,209,0.00010261,0.00018109,0.00038581,0.15294868,0.28930838,0.42517101
0,0,Burma,,,2021-01-05 03:20:37.093146,2020-04-14 00:00:00.000000,0.00018063,0.00034699,0.00066163,98,188,359,56,103,215,0.00010324,0.00018983,0.00039639,0.15285606,0.28075230,0.41552035
0,0,Burma,,,2021-01-05 03:20:37.093146,2020-04-15 00:00:00.000000,0.00019066,0.00035828,0.00065947,103,194,358,56,105,220,0.00010440,0.00019430,0.00040500,0.15269897,0.27116897,0.39546477
0,0,Burma,,,2021-01-05 03:20:37.093146,2020-04-16 00:00:00.000000,0.00020190,0.00036334,0.00065374,109,197,355,60,108,223,0.00011092,0.00019866,0.00041167,0.15229079,0.26674937,0.39104500
0,0,Burma,,,2021-01-05 03:20:37.093146,2020-04-17 00:00:00.000000,0.00020354,0.00036825,0.00066197,110,200,360,64,110,226,0.00011770,0.00020379,0.00041551,0.14276361,0.25880234,0.38453445
0,0,Burma,,,2021-01-05 03:20:37.093146,2020-04-18 00:00:00.000000,0.00020214,0.00037627,0.00067641,109,204,368,65,113,227,0.00012005,0.00020820,0.00041858,0.13663675,0.24565275,0.37534545
0,0,Burma,,,2021-01-05 03:20:37.093146,2020-04-19 00:00:00.000000,0.00020030,0.00038226,0.00069061,108,207,375,65,115,232,0.00011987,0.00021161,0.00042801,0.13543804,0.23213618,0.36348397
0,0,Burma,,,2021-01-05 03:20:37.093146,2020-04-20 00:00:00.000000,0.00019798,0.00038415,0.00069962,107,209,380,64,117,237,0.00011930,0.00021521,0.00043735,0.13357131,0.23154602,0.34840177
0,0,Burma,,,2021-01-05 03:20:37.093146,2020-04-21 00:00:00.000000,0.00020201,0.00038179,0.00070082,109,207,381,64,118,242,0.00011838,0.00021836,0.00044515,0.13379358,0.22360670,0.32918289
0,0,Burma,,,2021-01-05 03:20:37.093146,2020-04-22 00:00:00.000000,0.00020300,0.00038058,0.00069261,110,207,376,63,118,244,0.00011711,0.00021859,0.00044984,0.12314266,0.21739851,0.32109816
0,0,Burma,,,2021-01-05 03:20:37.093146,2020-04-23 00:00:00.000000,0.00020603,0.00037599,0.00068428,112,204,372,63,119,244,0.00011673,0.00021947,0.00045006,0.11871338,0.21266632,0.31315815
0,0,Burma,,,2021-01-05 03:20:37.093146,2020-04-24 00:00:00.000000,0.00020790,0.00037255,0.00069149,113,202,376,63,119,243,0.00011582,0.00021993,0.00044672,0.11767882,0.20525008,0.30813548
0,0,Burma,,,2021-01-05 03:20:37.093146,2020-04-25 00:00:00.000000,0.00020737,0.00036829,0.00069319,112,200,377,61,120,239,0.00011339,0.00022137,0.00044107,0.11643538,0.20055924,0.29976091
0,0,Burma,,,2021-01-05 03:20:37.093146,2020-04-26 00:00:00.000000,0.00020101,0.00037184,0.00068909,109,202,374,62,120,236,0.00011402,0.00022152,0.00043403,0.10888203,0.19970335,0.28758251
0,0,Burma,,,2021-01-05 03:20:37.093146,2020-04-27 00:00:00.000000,0.00019936,0.00036799,0.00068714,108,200,373,62,120,231,0.00011470,0.00022123,0.00042615,0.10756889,0.19817168,0.28684051
0,0,Burma,,,2021-01-05 03:20:37.093146,2020-04-28 00:00:00.000000,0.00019474,0.00036390,0.00068580,105,197,373,63,119,227,0.00011584,0.00022047,0.00041761,0.10748230,0.19429638,0.28624830
0,0,Burma,,,2021-01-05 03:20:37.093146,2020-04-29 00:00:00.000000,0.00018896,0.00036289,0.00068454,102,197,372,63,119,222,0.00011713,0.00021880,0.00040852,0.10747298,0.18729916,0.28214712
0,0,Burma,,,2021-01-05 03:20:37.093146,2020-04-30 00:00:00.000000,0.00018336,0.00036119,0.00068250,99,196,371,63,118,217,0.00011750,0.00021782,0.00039883,0.10767675,0.17554649,0.28026363
0,0,Burma,,,2021-01-05 03:20:37.093146,2020-05-01 00:00:00.000000,0.00017832,0.00035662,0.00067575,97,194,367,62,116,211,0.00011433,0.00021480,0.00038850,0.10952995,0.17893465,0.26135282
0,0,Burma,,,2021-01-05 03:20:37.093146,2020-05-02 00:00:00.000000,0.00017394,0.00035046,0.00066422,94,190,361,60,115,206,0.00011122,0.00021162,0.00038044,0.10878756,0.17629526,0.25437385
0,0,Burma,,,2021-01-05 03:20:37.093146,2020-05-03 00:00:00.000000,0.00016996,0.00034474,0.00064644,92,187,351,58,113,203,0.00010831,0.00020835,0.00037429,0.10845484,0.17095930,0.24840050
0,0,Burma,,,2021-01-05 03:20:37.093146,2020-05-04 00:00:00.000000,0.00017075,0.00033843,0.00062801,92,184,341,57,111,200,0.00010563,0.00020503,0.00036773,0.10407832,0.17238416,0.23747587
0,0,Burma,,,2021-01-05 03:20:37.093146,2020-05-05 00:00:00.000000,0.00017169,0.00033097,0.00060930,93,180,331,56,110,196,0.00010431,0.00020301,0.00036042,0.10058479,0.16758300,0.23096201
0,0,Burma,,,2021-01-05 03:20:37.093146,2020-05-06 00:00:00.000000,0.00016791,0.00032318,0.00059082,91,175,321,56,110,194,0.00010385,0.00020224,0.00035687,0.09814141,0.16783183,0.23635966
0,0,Burma,,,2021-01-05 03:20:37.093146,2020-05-07 00:00:00.000000,0.00016710,0.00031681,0.00057222,90,172,311,55,109,194,0.00010221,0.00020120,0.00035698,0.09668966,0.16607197,0.23182536
0,0,Burma,,,2021-01-05 03:20:37.093146,2020-05-08 00:00:00.000000,0.00016251,0.00031251,0.00055400,88,170,301,53,108,194,0.00009882,0.00019907,0.00035766,0.09451636,0.16306587,0.23170134
0,0,Burma,,,2021-01-05 03:20:37.093146,2020-05-09 00:00:00.000000,0.00015585,0.00030660,0.00053665,84,166,291,52,107,195,0.00009566,0.00019758,0.00035849,0.09316095,0.16286091,0.22623531
0,0,Burma,,,2021-01-05 03:20:37.093146,2020-05-10 00:00:00.000000,0.00015223,0.00030022,0.00052039,82,163,283,51,106,194,0.00009411,0.00019608,0.00035804,0.09271761,0.15611570,0.22640892
0,0,Burma,,,2021-01-05 03:20:37.093146,2020-05-11 00:00:00.000000,0.00014992,0.00029318,0.00050262,81,159,273,50,105,193,0.00009196,0.00019340,0.00035509,0.09259850,0.15611755,0.22695971
0,0,Burma,,,2021-01-05 03:20:37.093146,2020-05-12 00:00:00.000000,0.00014738,0.00028697,0.00048547,80,156,264,48,103,189,0.00008971,0.00019072,0.00034858,0.09260468,0.15386165,0.22808042
0,0,Burma,,,2021-01-05 03:20:37.093146,2020-05-13 00:00:00.000000,0.00014499,0.00028151,0.00046845,78,153,254,47,101,183,0.00008755,0.00018673,0.00033717,0.09259293,0.15100825,0.22888360
0,0,Burma,,,2021-01-05 03:20:37.093146,2020-05-14 00:00:00.000000,0.00014273,0.00027578,0.00047168,77,150,256,46,98,177,0.00008617,0.00018195,0.00032577,0.09258976,0.15032887,0.22972295
0,0,Burma,,,2021-01-05 03:20:37.093146,2020-05-15 00:00:00.000000,0.00013740,0.00026904,0.00047615,74,146,259,46,96,174,0.00008455,0.00017730,0.00031997,0.09272498,0.15139643,0.23447347
0,0,Burma,,,2021-01-05 03:20:37.093146,2020-05-16 00:00:00.000000,0.00013123,0.00026270,0.00046304,71,142,251,43,94,168,0.00008085,0.00017362,0.00030898,0.09392758,0.14749736,0.24939186
0,0,Burma,,,2021-01-05 03:20:37.093146,2020-05-17 00:00:00.000000,0.00012730,0.00025967,0.00045064,69,141,245,43,91,161,0.00007942,0.00016900,0.00029770,0.09066121,0.15303625,0.25788196
0,0,Burma,,,2021-01-05 03:20:37.093146,2020-05-18 00:00:00.000000,0.00012636,0.00025648,0.00043653,68,139,237,41,88,155,0.00007548,0.00016346,0.00028635,0.09051157,0.14688498,0.25996203
0,0,Burma,,,2021-01-05 03:20:37.093146,2020-05-19 00:00:00.000000,0.00012864,0.00025173,0.00042259,69,136,229,39,86,152,0.00007246,0.00015809,0.00028045,0.09109899,0.14688257,0.26053956
0,0,Burma,,,2021-01-05 03:20:37.093146,2020-05-20 00:00:00.000000,0.00012987,0.00024616,0.00040904,70,133,222,40,83,152,0.00007429,0.00015422,0.00027949,0.08936363,0.14651186,0.25557661
0,0,Burma,,,2021-01-05 03:20:37.093146,2020-05-21 00:00:00.000000,0.00012415,0.00024316,0.00040233,67,132,218,39,79,151,0.00007336,0.00014702,0.00027767,0.08794211,0.14697534,0.24871197
0,0,Burma,,,2021-01-05 03:20:37.093146,2020-05-22 00:00:00.000000,0.00011862,0.00023932,0.00039850,64,130,216,39,77,150,0.00007233,0.00014253,0.00027664,0.08601528,0.14659704,0.24641185
0,0,Burma,,,2021-01-05 03:20:37.093146,2020-05-23 00:00:00.000000,0.00011352,0.00023307,0.00039324,61,126,213,38,76,147,0.00007144,0.00014131,0.00027108,0.08200006,0.14210439,0.24095335
0,0,Burma,,,2021-01-05 03:20:37.093146,2020-05-24 00:00:00.000000,0.00011290,0.00022808,0.00038912,61,124,211,37,75,145,0.00006830,0.00013825,0.00026700,0.07946442,0.14010229,0.24152069
0,0,Burma,,,2021-01-05 03:20:37.093146,2020-05-25 00:00:00.000000,0.00011303,0.00022954,0.00038038,61,124,206,36,73,143,0.00006625,0.00013472,0.00026332,0.08259310,0.13928551,0.24865632
0,0,Burma,,,2021-01-05 03:20:37.093146,2020-05-26 00:00:00.000000,0.00011336,0.00022688,0.00036930,61,123,200,35,72,141,0.00006436,0.00013266,0.00026009,0.08439107,0.13973558,0.25212181
0,0,Burma,,,2021-01-05 03:20:37.093146,2020-05-27 00:00:00.000000,0.00011023,0.00022251,0.00036018,59,121,195,34,71,138,0.00006277,0.00013159,0.00025484,0.08517399,0.14130075,0.25028498
0,0,Burma,,,2021-01-05 03:20:37.093146,2020-05-28 00:00:00.000000,0.00010373,0.00022269,0.00035822,56,121,194,34,71,135,0.00006276,0.00013187,0.00024868,0.08543180,0.14281866,0.24924438
0,0,Burma,,,2021-01-05 03:20:37.093146,2020-05-29 00:00:00.000000,0.00009782,0.00021877,0.00035639,53,119,193,34,71,131,0.00006284,0.00013215,0.00024213,0.08588826,0.14239643,0.24777448
0,0,Burma,,,2021-01-05 03:20:37.093146,2020-05-30 00:00:00.000000,0.00009423,0.00021385,0.00035476,51,116,193,32,70,128,0.00005975,0.00012949,0.00023542,0.08387035,0.14248842,0.24573283
0,0,Burma,,,2021-01-05 03:20:37.093146,2020-05-31 00:00:00.000000,0.00009292,0.00020706,0.00035049,50,112,190,30,68,125,0.00005638,0.00012649,0.00023007,0.08145202,0.14338571,0.24334802
0,0,Burma,,,2021-01-05 03:20:37.093146,2020-06-01 00:00:00.000000,0.00009070,0.00020915,0.00034185,49,113,185,29,67,123,0.00005458,0.00012441,0.00022764,0.08173925,0.14120640,0.24063763
0,0,Burma,,,2021-01-05 03:20:37.093146,2020-06-02 00:00:00.000000,0.00009120,0.00021153,0.00033753,49,115,183,29,67,122,0.00005348,0.00012350,0.00022551,0.08244606,0.13936120,0.22598190
0,0,Burma,,,2021-01-05 03:20:37.093146,2020-06-03 00:00:00.000000,0.00009370,0.00021189,0.00033218,50,115,180,28,66,121,0.00005308,0.00012281,0.00022360,0.08399996,0.13995278,0.23016233
0,0,Burma,,,2021-01-05 03:20:37.093146,2020-06-04 00:00:00.000000,0.00009108,0.00020878,0.00032558,49,113,177,29,66,120,0.00005409,0.00012243,0.00022185,0.08686514,0.14078299,0.22762235
0,0,Burma,,,2021-01-05 03:20:37.093146,2020-06-05 00:00:00.000000,0.00008999,0.00020375,0.00031861,48,110,173,29,66,119,0.00005349,0.00012224,0.00022020,0.08905598,0.14120978,0.21140934
0,0,Burma,,,2021-01-05 03:20:37.093146,2020-06-06 00:00:00.000000,0.00008680,0.00019991,0.00031140,47,108,169,29,65,118,0.00005387,0.00012046,0.00021864,0.08943419,0.14032481,0.21450140
0,0,Burma,,,2021-01-05 03:20:37.093146,2020-06-07 00:00:00.000000,0.00008393,0.00019535,0.00030635,45,106,166,28,63,118,0.00005270,0.00011696,0.00021715,0.09020864,0.14173593,0.21201129
0,0,Burma,,,2021-01-05 03:20:37.093146,2020-06-08 00:00:00.000000,0.00008521,0.00019600,0.00030600,46,106,166,27,62,117,0.00004973,0.00011554,0.00021570,0.08848164,0.14239840,0.21227558
0,0,Burma,,,2021-01-05 03:20:37.093146,2020-06-09 00:00:00.000000,0.00008577,0.00019670,0.00030504,46,107,165,27,63,115,0.00005013,0.00011585,0.00021319,0.08977826,0.14235738,0.21262545
0,0,Burma,,,2021-01-05 03:20:37.093146,2020-06-10 00:00:00.000000,0.00008500,0.00019133,0.00030409,46,104,165,27,61,113,0.00005028,0.00011394,0.00020906,0.08969391,0.14147061,0.21276836
0,0,Burma,,,2021-01-05 03:20:37.093146,2020-06-11 00:00:00.000000,0.00008142,0.00018408,0.00030354,44,100,165,26,61,111,0.00004951,0.00011219,0.00020514,0.08688396,0.14128218,0.21325188
0,0,Burma,,,2021-01-05 03:20:37.093146,2020-06-12 00:00:00.000000,0.00008333,0.00017699,0.00030025,45,96,163,25,60,109,0.00004711,0.00011055,0.00020134,0.08761536,0.14540619,0.21561401
0,0,Burma,,,2021-01-05 03:20:37.093146,2020-06-13 00:00:00.000000,0.00008285,0.00017001,0.00029604,45,92,161,24,59,107,0.00004569,0.00010913,0.00019745,0.08934673,0.14599949,0.22316665
0,0,Burma,,,2021-01-05 03:20:37.093146,2020-06-14 00:00:00.000000,0.00008095,0.00017068,0.00029508,44,92,160,25,57,105,0.00004679,0.00010517,0.00019344,0.09109778,0.14821012,0.23202480
0,0,Burma,,,2021-01-05 03:20:37.093146,2020-06-15 00:00:00.000000,0.00007944,0.00016719,0.00029230,43,90,159,26,55,104,0.00004805,0.00010269,0.00019246,0.08874955,0.14951963,0.23545055
0,0,Burma,,,2021-01-05 03:20:37.093146,2020-06-16 00:00:00.000000,0.00007749,0.00016654,0.00029274,42,90,159,25,55,103,0.00004747,0.00010247,0.00019113,0.08802959,0.14869056,0.23875692
0,0,Burma,,,2021-01-05 03:20:37.093146,2020-06-17 00:00:00.000000,0.00007584,0.00016745,0.00029377,41,91,159,25,54,103,0.00004619,0.00010020,0.00018989,0.08660633,0.14987957,0.23476855
0,0,Burma,,,2021-01-05 03:20:37.093146,2020-06-18 00:00:00.000000,0.00007446,0.00016661,0.00029360,40,90,159,24,53,102,0.00004511,0.00009746,0.00018835,0.09017167,0.14766242,0.23099512
0,0,Burma,,,2021-01-05 03:20:37.093146,2020-06-19 00:00:00.000000,0.00007343,0.00016310,0.00029082,39,88,158,24,52,101,0.00004419,0.00009667,0.00018665,0.09401722,0.14955571,0.23164388
0,0,Burma,,,2021-01-05 03:20:37.093146,2020-06-20 00:00:00.000000,0.00007282,0.00016157,0.00029343,39,87,159,23,53,100,0.00004345,0.00009774,0.00018484,0.09546113,0.14923984,0.24226678
0,0,Burma,,,2021-01-05 03:20:37.093146,2020-06-21 00:00:00.000000,0.00007250,0.00015950,0.00029668,39,86,161,23,52,100,0.00004295,0.00009623,0.00018500,0.09485507,0.14801148,0.24416282
0,0,Burma,,,2021-01-05 03:20:37.093146,2020-06-22 00:00:00.000000,0.00007257,0.00015904,0.00029733,39,86,161,23,51,102,0.00004263,0.00009541,0.00018764,0.09144633,0.14966699,0.24426072
0,0,Burma,,,2021-01-05 03:20:37.093146,2020-06-23 00:00:00.000000,0.00007272,0.00015598,0.00029764,39,84,161,23,50,103,0.00004253,0.00009356,0.00019027,0.09099761,0.15013793,0.24430390
0,0,Burma,,,2021-01-05 03:20:37.093146,2020-06-24 00:00:00.000000,0.00007292,0.00015378,0.00029773,39,83,161,23,49,102,0.00004235,0.00009184,0.00018820,0.09115393,0.15003910,0.24431748
0,0,Burma,,,2021-01-05 03:20:37.093146,2020-06-25 00:00:00.000000,0.00007314,0.00014974,0.00029379,39,81,159,23,49,102,0.00004234,0.00009136,0.00018899,0.09142936,0.14995950,0.24429695
0,0,Burma,,,2021-01-05 03:20:37.093146,2020-06-26 00:00:00.000000,0.00007336,0.00014773,0.00029628,39,80,161,23,48,103,0.00004248,0.00008969,0.00018947,0.09158479,0.15069159,0.24419119
0,0,Burma,,,2021-01-05 03:20:37.093146,2020-06-27 00:00:00.000000,0.00007358,0.00014770,0.00029845,40,80,162,23,48,103,0.00004271,0.00008828,0.00018968,0.09164506,0.15188806,0.24263338
0,0,Burma,,,2021-01-05 03:20:37.093146,2020-06-28 00:00:00.000000,0.00007378,0.00014758,0.00029991,40,80,163,23,46,103,0.00004299,0.00008622,0.00019001,0.08873285,0.15647298,0.24415906
0,0,Burma,,,2021-01-05 03:20:37.093146,2020-06-29 00:00:00.000000,0.00007282,0.00014865,0.00029844,39,80,162,23,45,103,0.00004311,0.00008427,0.00019056,0.08829320,0.15942787,0.24376398
0,0,Burma,,,2021-01-05 03:20:37.093146,2020-06-30 00:00:00.000000,0.00007173,0.00014688,0.00029708,39,79,161,23,45,103,0.00004259,0.00008433,0.00019113,0.08875217,0.15833182,0.24380250
0,0,Burma,,,2021-01-05 03:20:37.093146,2020-07-01 00:00:00.000000,0.00007041,0.00014629,0.00029548,38,79,160,22,46,105,0.00004122,0.00008459,0.00019377,0.09047577,0.16128486,0.24378868
0,0,Burma,,,2021-01-05 03:20:37.093146,2020-07-02 00:00:00.000000,0.00006893,0.00014491,0.00029362,37,78,159,21,45,105,0.00004009,0.00008346,0.00019306,0.09231865,0.16146418,0.24377192
0,0,Burma,,,2021-01-05 03:20:37.093146,2020-07-03 00:00:00.000000,0.00006759,0.00014323,0.00029146,36,77,158,21,44,104,0.00003914,0.00008242,0.00019159,0.09348465,0.16429186,0.24393089
0,0,Burma,,,2021-01-05 03:20:37.093146,2020-07-04 00:00:00.000000,0.00006623,0.00014220,0.00028900,36,77,157,20,45,103,0.00003832,0.00008309,0.00018996,0.09579409,0.16787211,0.25819926
0,0,Burma,,,2021-01-05 03:20:37.093146,2020-07-05 00:00:00.000000,0.00006524,0.00014073,0.00028628,35,76,155,20,45,102,0.00003760,0.00008279,0.00018825,0.09690802,0.17806363,0.26199960
0,0,Burma,,,2021-01-05 03:20:37.093146,2020-07-06 00:00:00.000000,0.00006500,0.00013883,0.00028768,35,75,156,20,45,101,0.00003723,0.00008320,0.00018703,0.09925528,0.18121445,0.26389934
0,0,Burma,,,2021-01-05 03:20:37.093146,2020-07-07 00:00:00.000000,0.00006597,0.00013754,0.00028898,35,74,157,20,44,101,0.00003742,0.00008219,0.00018619,0.10267403,0.18242417,0.27004048
0,0,Burma,,,2021-01-05 03:20:37.093146,2020-07-08 00:00:00.000000,0.00006643,0.00013805,0.00029030,36,75,157,20,44,101,0.00003734,0.00008199,0.00018663,0.10408820,0.18422154,0.27547980
0,0,Burma,,,2021-01-05 03:20:37.093146,2020-07-09 00:00:00.000000,0.00006698,0.00013979,0.00029148,36,76,158,20,44,102,0.00003706,0.00008216,0.00018762,0.10459462,0.18782891,0.28319606
0,0,Burma,,,2021-01-05 03:20:37.093146,2020-07-10 00:00:00.000000,0.00006773,0.00014011,0.00029255,36,76,159,20,44,102,0.00003779,0.00008109,0.00018900,0.10487386,0.19731766,0.31824675
0,0,Burma,,,2021-01-05 03:20:37.093146,2020-07-11 00:00:00.000000,0.00006828,0.00014015,0.00029372,37,76,159,20,44,103,0.00003795,0.00008114,0.00019069,0.10594704,0.20241745,0.33130202
0,0,Burma,,,2021-01-05 03:20:37.093146,2020-07-12 00:00:00.000000,0.00006757,0.00013884,0.00029527,36,75,160,20,44,104,0.00003820,0.00008156,0.00019274,0.11267319,0.20710356,0.35553727
0,0,Burma,,,2021-01-05 03:20:37.093146,2020-07-13 00:00:00.000000,0.00006730,0.00013911,0.00029406,36,75,160,20,44,106,0.00003852,0.00008210,0.00019518,0.12446657,0.20988670,0.35660954
0,0,Burma,,,2021-01-05 03:20:37.093146,2020-07-14 00:00:00.000000,0.00006721,0.00013819,0.00029677,36,75,161,20,45,106,0.00003828,0.00008341,0.00019632,0.12528870,0.22263883,0.36062149
0,0,Burma,,,2021-01-05 03:20:37.093146,2020-07-15 00:00:00.000000,0.00006759,0.00013951,0.00030004,36,75,163,20,46,106,0.00003791,0.00008513,0.00019560,0.12795113,0.23203909,0.37424247
0,0,Burma,,,2021-01-05 03:20:37.093146,2020-07-16 00:00:00.000000,0.00006944,0.00014592,0.00030325,37,79,164,20,46,105,0.00003833,0.00008613,0.00019448,0.13167202,0.23986189,0.38351885
0,0,Burma,,,2021-01-05 03:20:37.093146,2020-07-17 00:00:00.000000,0.00007143,0.00015215,0.00030880,38,82,168,21,47,105,0.00003931,0.00008690,0.00019313,0.13421953,0.24755106,0.39546422
0,0,Burma,,,2021-01-05 03:20:37.093146,2020-07-18 00:00:00.000000,0.00007362,0.00015718,0.00031480,40,85,171,21,48,104,0.00004039,0.00008886,0.00019277,0.14088234,0.25743431,0.40155547
0,0,Burma,,,2021-01-05 03:20:37.093146,2020-07-19 00:00:00.000000,0.00007607,0.00016545,0.00032108,41,90,174,22,49,106,0.00004157,0.00009039,0.00019589,0.14851592,0.26859786,0.41052280
0,0,Burma,,,2021-01-05 03:20:37.093146,2020-07-20 00:00:00.000000,0.00008252,0.00017020,0.00032867,44,92,178,23,50,108,0.00004287,0.00009297,0.00019939,0.16925746,0.27797947,0.43009594
0,0,Burma,,,2021-01-05 03:20:37.093146,2020-07-21 00:00:00.000000,0.00009201,0.00017502,0.00033695,50,95,183,24,52,110,0.00004494,0.00009559,0.00020348,0.17110636,0.28401975,0.44503428
0,0,Burma,,,2021-01-05 03:20:37.093146,2020-07-22 00:00:00.000000,0.00009779,0.00018165,0.00034687,53,98,188,26,53,113,0.00004867,0.00009918,0.00020811,0.17341533,0.28949372,0.45481659
0,0,Burma,,,2021-01-05 03:20:37.093146,2020-07-23 00:00:00.000000,0.00010406,0.00019148,0.00035199,56,104,191,30,55,116,0.00005542,0.00010283,0.00021347,0.18103844,0.31208061,0.48514920
0,0,Burma,,,2021-01-05 03:20:37.093146,2020-07-24 00:00:00.000000,0.00010900,0.00020328,0.00035379,59,110,192,32,59,119,0.00006045,0.00010849,0.00021979,0.19156437,0.32437374,0.51559618
0,0,Burma,,,2021-01-05 03:20:37.093146,2020-07-25 00:00:00.000000,0.00011483,0.00021952,0.00036351,62,119,197,33,61,122,0.00006106,0.00011340,0.00022546,0.21596787,0.36129537,0.55766115
0,0,Burma,,,2021-01-05 03:20:37.093146,2020-07-26 00:00:00.000000,0.00012052,0.00023343,0.00038334,65,127,208,36,64,124,0.00006669,0.00011902,0.00022938,0.23331733,0.37760784,0.57303984
0,0,Burma,,,2021-01-05 03:20:37.093146,2020-07-27 00:00:00.000000,0.00012872,0.00024721,0.00041264,70,134,224,39,68,125,0.00007265,0.00012547,0.00023095,0.24549885,0.38459113,0.59108099
0,0,Burma,,,2021-01-05 03:20:37.093146,2020-07-28 00:00:00.000000,0.00013868,0.00026687,0.00043543,75,145,236,41,72,127,0.00007576,0.00013291,0.00023419,0.26533081,0.40253520,0.60534059
0,0,Burma,,,2021-01-05 03:20:37.093146,2020-07-29 00:00:00.000000,0.00014906,0.00028418,0.00045963,81,154,250,43,77,132,0.00007990,0.00014263,0.00024266,0.26893057,0.43037172,0.63468318
0,0,Burma,,,2021-01-05 03:20:37.093146,2020-07-30 00:00:00.000000,0.00016096,0.00030396,0.00048809,87,165,265,46,84,139,0.00008525,0.00015537,0.00025633,0.27993464,0.46075750,0.65944386
0,0,Burma,,,2021-01-05 03:20:37.093146,2020-07-31 00:00:00.000000,0.00017643,0.00032781,0.00053756,95,178,292,49,90,144,0.00009167,0.00016672,0.00026480,0.31293683,0.48555080,0.70773512
0,0,Burma,,,2021-01-05 03:20:37.093146,2020-08-01 00:00:00.000000,0.00019275,0.00035914,0.00059320,104,195,322,53,96,150,0.00009912,0.00017821,0.00027668,0.32149928,0.50841492,0.75864225
0,0,Burma,,,2021-01-05 03:20:37.093146,2020-08-02 00:00:00.000000,0.00020466,0.00039376,0.00064854,111,214,352,58,106,165,0.00010762,0.00019607,0.00030344,0.34938022,0.52774802,0.80885447
0,0,Burma,,,2021-01-05 03:20:37.093146,2020-08-03 00:00:00.000000,0.00021504,0.00043297,0.00072011,117,235,391,63,115,181,0.00011730,0.00021174,0.00033332,0.35916180,0.54376862,0.81977891
0,0,Burma,,,2021-01-05 03:20:37.093146,2020-08-04 00:00:00.000000,0.00024182,0.00047684,0.00080662,131,259,438,70,126,197,0.00012969,0.00023268,0.00036246,0.36296785,0.56473070,0.81755061
0,0,Burma,,,2021-01-05 03:20:37.093146,2020-08-05 00:00:00.000000,0.00027269,0.00052608,0.00090495,148,286,492,75,138,214,0.00013939,0.00025451,0.00039450,0.37961848,0.57463856,0.80850084
0,0,Burma,,,2021-01-05 03:20:37.093146,2020-08-06 00:00:00.000000,0.00030867,0.00058312,0.00101519,167,317,552,80,155,238,0.00014801,0.00028498,0.00043777,0.38502715,0.61152505,0.84892423
0,0,Burma,,,2021-01-05 03:20:37.093146,2020-08-07 00:00:00.000000,0.00035364,0.00064402,0.00113877,192,350,619,89,170,266,0.00016362,0.00031399,0.00049044,0.39429110,0.66128633,0.85925940
0,0,Burma,,,2021-01-05 03:20:37.093146,2020-08-08 00:00:00.000000,0.00041250,0.00072209,0.00127732,224,392,694,100,188,299,0.00018546,0.00034657,0.00054973,0.42253283,0.67905750,0.91165468
0,0,Burma,,,2021-01-05 03:20:37.093146,2020-08-09 00:00:00.000000,0.00047413,0.00081413,0.00143269,257,442,779,116,206,335,0.00021406,0.00037910,0.00061638,0.49025834,0.72442073,0.94274915
0,0,Burma,,,2021-01-05 03:20:37.093146,2020-08-10 00:00:00.000000,0.00054738,0.00091538,0.00163211,297,498,888,136,233,376,0.00025011,0.00042970,0.00069126,0.49854513,0.74002606,1.02713905
0,0,Burma,,,2021-01-05 03:20:37.093146,2020-08-11 00:00:00.000000,0.00063044,0.00104066,0.00184818,343,566,1005,155,263,423,0.00028572,0.00048413,0.00077749,0.55712261,0.75682027,1.04947425
0,0,Burma,,,2021-01-05 03:20:37.093146,2020-08-12 00:00:00.000000,0.00072419,0.00118324,0.00207525,394,643,1129,178,300,476,0.00032824,0.00055278,0.00087554,0.56344164,0.77536331,1.05606850
0,0,Burma,,,2021-01-05 03:20:37.093146,2020-08-13 00:00:00.000000,0.00083080,0.00133540,0.00233318,452,726,1269,204,338,543,0.00037561,0.00062250,0.00099827,0.57734372,0.80641369,1.07522399
0,0,Burma,,,2021-01-05 03:20:37.093146,2020-08-14 00:00:00.000000,0.00095220,0.00152481,0.00265334,518,829,1443,232,382,608,0.00042668,0.00070375,0.00111778,0.59976936,0.82563555,1.10599492
0,0,Burma,,,2021-01-05 03:20:37.093146,2020-08-15 00:00:00.000000,0.00109073,0.00173621,0.00301659,593,944,1641,268,439,684,0.00049257,0.00080748,0.00125768,0.62292009,0.85455517,1.13881676
0,0,Burma,,,2021-01-05 03:20:37.093146,2020-08-16 00:00:00.000000,0.00125113,0.00198342,0.00344250,680,1079,1873,311,505,776,0.00057257,0.00092967,0.00142734,0.64358188,0.86201882,1.14632505
0,0,Burma,,,2021-01-05 03:20:37.093146,2020-08-17 00:00:00.000000,0.00144420,0.00229466,0.00393011,785,1248,2138,362,585,891,0.00066704,0.00107658,0.00163830,0.67005875,0.87863389,1.14053166
0,0,Burma,,,2021-01-05 03:20:37.093146,2020-08-18 00:00:00.000000,0.00167742,0.00264670,0.00448757,912,1440,2441,422,666,1035,0.00077670,0.00122476,0.00190313,0.68809774,0.90307706,1.14278552
0,0,Burma,,,2021-01-05 03:20:37.093146,2020-08-19 00:00:00.000000,0.00195871,0.00309688,0.00512249,1065,1685,2787,491,769,1177,0.00090390,0.00141507,0.00216337,0.69956003,0.90873172,1.14333494
0,0,Burma,,,2021-01-05 03:20:37.093146,2020-08-20 00:00:00.000000,0.00230844,0.00361710,0.00584531,1256,1968,3180,572,889,1338,0.00105132,0.00163560,0.00245928,0.72146260,0.93336748,1.15892901
0,0,Burma,,,2021-01-05 03:20:37.093146,2020-08-21 00:00:00.000000,0.00270098,0.00423068,0.00666902,1469,2301,3628,664,1041,1520,0.00122213,0.00191397,0.00279534,0.74211316,0.94075324,1.17271295
0,0,Burma,,,2021-01-05 03:20:37.093146,2020-08-22 00:00:00.000000,0.00315580,0.00489732,0.00760835,1717,2664,4139,772,1208,1728,0.00142001,0.00222105,0.00317683,0.73523792,0.94599556,1.16047980
0,0,Burma,,,2021-01-05 03:20:37.093146,2020-08-23 00:00:00.000000,0.00368660,0.00570657,0.00884512,2005,3104,4812,897,1390,1984,0.00164923,0.00255506,0.00364685,0.72108045,0.94905656,1.17878342
0,0,Burma,,,2021-01-05 03:20:37.093146,2020-08-24 00:00:00.000000,0.00430690,0.00661342,0.01029252,2343,3598,5600,1028,1605,2266,0.00189090,0.00295039,0.00416538,0.72117172,0.94422458,1.24217930
0,0,Burma,,,2021-01-05 03:20:37.093146,2020-08-25 00:00:00.000000,0.00503117,0.00759653,0.01180868,2737,4133,6425,1171,1858,2589,0.00215317,0.00341490,0.00475836,0.72142492,0.93587031,1.25417095
0,0,Burma,,,2021-01-05 03:20:37.093146,2020-08-26 00:00:00.000000,0.00583684,0.00876583,0.01340655,3175,4769,7294,1339,2122,2995,0.00246268,0.00390029,0.00550547,0.71329362,0.92735979,1.20174649
0,0,Burma,,,2021-01-05 03:20:37.093146,2020-08-27 00:00:00.000000,0.00669337,0.01012800,0.01521962,3641,5510,8280,1535,2431,3518,0.00282126,0.00446864,0.00646707,0.72277227,0.91962760,1.20428557
0,0,Burma,,,2021-01-05 03:20:37.093146,2020-08-28 00:00:00.000000,0.00767400,0.01169566,0.01742904,4175,6363,9483,1759,2804,4170,0.00323382,0.00515452,0.00766422,0.72694091,0.90852751,1.19665501
0,0,Burma,,,2021-01-05 03:20:37.093146,2020-08-29 00:00:00.000000,0.00879698,0.01348042,0.01978583,4786,7334,10765,2017,3260,4816,0.00370718,0.00599175,0.00885275,0.71369547,0.90411597,1.17185462
0,0,Burma,,,2021-01-05 03:20:37.093146,2020-08-30 00:00:00.000000,0.01008310,0.01543968,0.02237933,5486,8400,12176,2312,3821,5533,0.00424974,0.00702280,0.01016941,0.69861758,0.87521949,1.13999188
0,0,Burma,,,2021-01-05 03:20:37.093146,2020-08-31 00:00:00.000000,0.01155226,0.01777689,0.02541358,6285,9672,13827,2650,4364,6331,0.00487136,0.00802122,0.01163661,0.68386153,0.86076812,1.10037187
0,0,Burma,,,2021-01-05 03:20:37.093146,2020-09-01 00:00:00.000000,0.01323547,0.02026632,0.02870898,7201,11026,15620,3037,5023,7215,0.00558247,0.00923230,0.01326198,0.68040103,0.83905386,1.09040231
0,0,Burma,,,2021-01-05 03:20:37.093146,2020-09-02 00:00:00.000000,0.01516236,0.02292710,0.03250378,8249,12474,17685,3480,5715,8185,0.00639655,0.01050400,0.01504350,0.67046183,0.81899694,1.07312550
0,0,Burma,,,2021-01-05 03:20:37.093146,2020-09-03 00:00:00.000000,0.01736575,0.02603186,0.03722826,9448,14163,20255,3987,6422,9318,0.00732851,0.01180479,0.01712647,0.63366130,0.80331786,1.06204554
0,0,Burma,,,2021-01-05 03:20:37.093146,2020-09-04 00:00:00.000000,0.01988686,0.02971295,0.04258534,10820,16166,23170,4567,7311,10737,0.00839476,0.01343793,0.01973509,0.63386612,0.79447693,1.05251507
0,0,Burma,,,2021-01-05 03:20:37.093146,2020-09-05 00:00:00.000000,0.02277205,0.03372752,0.04892530,12390,18351,26620,5231,8435,12342,0.00961469,0.01550394,0.02268469,0.63042796,0.77734495,0.98931195
0,0,Burma,,,2021-01-05 03:20:37.093146,2020-09-06 00:00:00.000000,0.02607420,0.03794859,0.05577656,14186,20647,30347,5990,9558,14257,0.01101062,0.01756758,0.02620344,0.59198897,0.76869827,0.97775472
0,0,Burma,,,2021-01-05 03:20:37.093146,2020-09-07 00:00:00.000000,0.02985541,0.04264082,0.06323254,16244,23200,34404,6860,10844,16191,0.01260813,0.01993155,0.02975931,0.57018320,0.74296372,0.96188316
0,0,Burma,,,2021-01-05 03:20:37.093146,2020-09-08 00:00:00.000000,0.03418028,0.04836982,0.06971864,18597,26317,37933,7855,12235,18425,0.01443689,0.02248803,0.03386349,0.56325852,0.71936453,0.88935558
0,0,Burma,,,2021-01-05 03:20:37.093146,2020-09-09 00:00:00.000000,0.03877672,0.05507033,0.07705975,21098,29963,41928,8995,13974,20874,0.01653335,0.02568443,0.03836487,0.55766327,0.69913999,0.87986904
0,0,Burma,,,2021-01-05 03:20:37.093146,2020-09-10 00:00:00.000000,0.04218179,0.06234418,0.08672252,22951,33921,47185,10146,15941,23527,0.01864847,0.02929958,0.04324192,0.55317386,0.68153572,0.84624143
0,0,Burma,,,2021-01-05 03:20:37.093146,2020-09-11 00:00:00.000000,0.04570677,0.06907013,0.09739974,24868,37580,52994,11387,17772,26382,0.02092841,0.03266426,0.04848840,0.54468343,0.65197959,0.82522276
0,0,Burma,,,2021-01-05 03:20:37.093146,2020-09-12 00:00:00.000000,0.04940429,0.07609711,0.10898614,26880,41404,59299,12734,19561,29198,0.02340493,0.03595166,0.05366419,0.53506234,0.62624713,0.79719536
0,0,Burma,,,2021-01-05 03:20:37.093146,2020-09-13 00:00:00.000000,0.05338986,0.08358090,0.12120074,29049,45476,65945,14184,21718,31996,0.02607060,0.03991721,0.05880560,0.50485387,0.60578028,0.77372980
0,0,Burma,,,2021-01-05 03:20:37.093146,2020-09-14 00:00:00.000000,0.05785387,0.09071674,0.13277398,31478,49358,72242,15567,23938,35028,0.02861195,0.04399684,0.06437895,0.48662298,0.58428504,0.74322016
0,0,Burma,,,2021-01-05 03:20:37.093146,2020-09-15 00:00:00.000000,0.06313676,0.09806092,0.14422550,34352,53354,78472,16860,26386,38273,0.03098795,0.04849603,0.07034304,0.47708297,0.57851929,0.72966955
0,0,Burma,,,2021-01-05 03:20:37.093146,2020-09-16 00:00:00.000000,0.06962295,0.10579339,0.15578735,37881,57561,84763,18331,29105,42151,0.03369129,0.05349388,0.07747004,0.46377478,0.57476753,0.70967558
0,0,Burma,,,2021-01-05 03:20:37.093146,2020-09-17 00:00:00.000000,0.07737926,0.11416160,0.16750638,42101,62115,91139,20076,31843,46218,0.03689960,0.05852561,0.08494499,0.45405599,0.56263140,0.69286983
0,0,Burma,,,2021-01-05 03:20:37.093146,2020-09-18 00:00:00.000000,0.08616013,0.12496087,0.17930907,46879,67990,97561,22159,34917,50544,0.04072767,0.06417561,0.09289641,0.44427626,0.54570415,0.69116106
0,0,Burma,,,2021-01-05 03:20:37.093146,2020-09-19 00:00:00.000000,0.09556193,0.13668501,0.19125508,51995,74370,104061,24575,37610,55190,0.04516802,0.06912406,0.10143526,0.43499278,0.53580752,0.67548310
0,0,Burma,,,2021-01-05 03:20:37.093146,2020-09-20 00:00:00.000000,0.10503352,0.14783875,0.20620657,57148,80438,112196,27259,40442,59248,0.05010114,0.07432854,0.10889296,0.41608292,0.51640384,0.63938523
0,0,Burma,,,2021-01-05 03:20:37.093146,2020-09-21 00:00:00.000000,0.11433320,0.15998258,0.22227861,62208,87046,120941,29525,43464,63307,0.05426587,0.07988448,0.11635275,0.40260388,0.49311051,0.61122671
0,0,Burma,,,2021-01-05 03:20:37.093146,2020-09-22 00:00:00.000000,0.12345295,0.17120656,0.23356724,67170,93153,127083,31597,46845,67503,0.05807282,0.08609834,0.12406469,0.38417886,0.48742404,0.59397107
0,0,Burma,,,2021-01-05 03:20:37.093146,2020-09-23 00:00:00.000000,0.13141436,0.18358680,0.25021614,71502,99889,136142,33677,50150,71860,0.06189633,0.09217249,0.13207227,0.38111363,0.47649112,0.57603103
0,0,Burma,,,2021-01-05 03:20:37.093146,2020-09-24 00:00:00.000000,0.13916193,0.19514056,0.26233970,75717,106175,142738,35780,54042,76402,0.06576061,0.09932494,0.14042085,0.37912406,0.47702830,0.57084511
0,0,Burma,,,2021-01-05 03:20:37.093146,2020-09-25 00:00:00.000000,0.14714592,0.20711022,0.27890837,80061,112688,151753,37898,57878,81168,0.06965342,0.10637493,0.14918085,0.37605075,0.46567437,0.56272911
0,0,Burma,,,2021-01-05 03:20:37.093146,2020-09-26 00:00:00.000000,0.15343753,0.21879170,0.29606135,83485,119044,161086,40014,62147,86171,0.07354211,0.11422134,0.15837557,0.37014973,0.45056876,0.55923347
0,0,Burma,,,2021-01-05 03:20:37.093146,2020-09-27 00:00:00.000000,0.15925867,0.23091943,0.31085209,86652,125642,169133,42112,66370,91420,0.07739894,0.12198262,0.16802205,0.36601187,0.44303772,0.55477803
0,0,Burma,,,2021-01-05 03:20:37.093146,2020-09-28 00:00:00.000000,0.16496921,0.24446861,0.32721645,89759,133014,178037,44191,70416,96923,0.08121886,0.12941969,0.17813627,0.36187333,0.44158421,0.55577725
0,0,Burma,,,2021-01-05 03:20:37.093146,2020-09-29 00:00:00.000000,0.17095838,0.25784324,0.34619578,93018,140291,188364,46259,74408,102690,0.08502026,0.13675630,0.18873597,0.35885346,0.43596422,0.56526175
0,0,Burma,,,2021-01-05 03:20:37.093146,2020-09-30 00:00:00.000000,0.17763863,0.27073364,0.36534919,96652,147305,198785,48460,78554,108728,0.08906648,0.14437647,0.19983267,0.35180461,0.43007622,0.56019531
0,0,Burma,,,2021-01-05 03:20:37.093146,2020-10-01 00:00:00.000000,0.18535208,0.28565297,0.38308715,100849,155423,208436,51122,82636,115025,0.09395913,0.15187787,0.21140621,0.34232181,0.42086374,0.54797999
0,0,Burma,,,2021-01-05 03:20:37.093146,2020-10-02 00:00:00.000000,0.19423877,0.30254743,0.40143209,105684,164615,218418,53860,87104,121508,0.09899134,0.16009017,0.22332156,0.33122685,0.41241460,0.52626449
0,0,Burma,,,2021-01-05 03:20:37.093146,2020-10-03 00:00:00.000000,0.20423350,0.31593941,0.42020943,111123,171901,228635,56715,91471,127949,0.10423856,0.16811581,0.23515908,0.32141708,0.40465053,0.51223948
0,0,Burma,,,2021-01-05 03:20:37.093146,2020-10-04 00:00:00.000000,0.21519562,0.32769213,0.43435943,117087,178296,236334,59736,96457,133959,0.10978932,0.17727883,0.24620535,0.30260723,0.39184909,0.50039736
0,0,Burma,,,2021-01-05 03:20:37.093146,2020-10-05 00:00:00.000000,0.22700843,0.34037920,0.45029043,123514,185199,245002,62963,100960,139290,0.11572167,0.18555596,0.25600313,0.29085658,0.37193707,0.48586180
0,0,Burma,,,2021-01-05 03:20:37.093146,2020-10-06 00:00:00.000000,0.23956983,0.34995379,0.46539028,130349,190409,253217,66427,105342,143977,0.12208654,0.19360939,0.26461638,0.26510027,0.35703391,0.47398882
0,0,Burma,,,2021-01-05 03:20:37.093146,2020-10-07 00:00:00.000000,0.25258600,0.36014329,0.47685097,137431,195953,259453,70139,109361,150101,0.12890909,0.20099565,0.27587247,0.23688932,0.33674157,0.45906340
0,0,Burma,,,2021-01-05 03:20:37.093146,2020-10-08 00:00:00.000000,0.26443795,0.37004519,0.48333095,143880,201340,262979,74103,111790,156787,0.13619606,0.20546046,0.28816107,0.21266984,0.31445894,0.43109919
0,0,Burma,,,2021-01-05 03:20:37.093146,2020-10-09 00:00:00.000000,0.27042746,0.37524653,0.48504766,147139,204170,263913,78305,113418,162999,0.14391751,0.20845247,0.29957771,0.20510999,0.27649040,0.41292078
0,0,Burma,,,2021-01-05 03:20:37.093146,2020-10-10 00:00:00.000000,0.27026316,0.37232715,0.48523200,147049,202582,264013,82063,115293,168197,0.15082562,0.21189818,0.30913055,0.18805309,0.25543104,0.34992096
0,0,Burma,,,2021-01-05 03:20:37.093146,2020-10-11 00:00:00.000000,0.26811575,0.36982944,0.48710137,145881,201223,265030,83535,116501,171472,0.15353020,0.21411912,0.31515070,0.17836841,0.24521664,0.31641499
0,0,Burma,,,2021-01-05 03:20:37.093146,2020-10-12 00:00:00.000000,0.26522759,0.36648148,0.48869401,144309,199401,265897,83952,116915,173968,0.15429695,0.21488026,0.31973667,0.16642787,0.23634257,0.30190382
0,0,Burma,,,2021-01-05 03:20:37.093146,2020-10-13 00:00:00.000000,0.26197188,0.36249591,0.48690293,142538,197233,264922,83711,116734,175520,0.15385320,0.21454767,0.32259073,0.16475759,0.23075587,0.29638376
0,0,Burma,,,2021-01-05 03:20:37.093146,2020-10-14 00:00:00.000000,0.25903734,0.35900526,0.48402612,140941,195334,263357,83079,115934,175858,0.15269290,0.21307590,0.32321125,0.16336469,0.22898534,0.29537066
0,0,Burma,,,2021-01-05 03:20:37.093146,2020-10-15 00:00:00.000000,0.25636597,0.35692438,0.48123990,139488,194201,261841,82223,115355,175682,0.15111838,0.21201268,0.32288826,0.16304071,0.23029072,0.30270461
0,0,Burma,,,2021-01-05 03:20:37.093146,2020-10-16 00:00:00.000000,0.25380788,0.35463484,0.47947846,138096,192956,260883,81244,115090,175307,0.14931914,0.21152482,0.32219861,0.16236498,0.23638441,0.31448082
0,0,Burma,,,2021-01-05 03:20:37.093146,2020-10-17 00:00:00.000000,0.25147195,0.35356143,0.47829297,136825,192372,260238,80256,114640,175018,0.14750458,0.21069756,0.32166638,0.16172291,0.23870405,0.32352192
0,0,Burma,,,2021-01-05 03:20:37.093146,2020-10-18 00:00:00.000000,0.24940798,0.35143842,0.47706384,135702,191216,259569,79420,114078,174963,0.14596782,0.20966497,0.32156536,0.16101937,0.24905886,0.32887667
0,0,Burma,,,2021-01-05 03:20:37.093146,2020-10-19 00:00:00.000000,0.24761868,0.34909459,0.47587661,134728,189941,258923,78716,113793,175157,0.14467394,0.20914096,0.32192361,0.16074072,0.25044705,0.34261854
0,0,Burma,,,2021-01-05 03:20:37.093146,2020-10-20 00:00:00.000000,0.24605636,0.34630923,0.47493497,133878,188426,258411,78094,113413,175551,0.14352991,0.20844285,0.32264616,0.16360453,0.25021247,0.35125389
0,0,Burma,,,2021-01-05 03:20:37.093146,2020-10-21 00:00:00.000000,0.24465249,0.34389586,0.47535577,133114,187113,258640,77519,112576,175995,0.14247377,0.20690576,0.32346200,0.17259940,0.25085778,0.33674160
0,0,Burma,,,2021-01-05 03:20:37.093146,2020-10-22 00:00:00.000000,0.24335382,0.34097235,0.47468176,132408,185522,258273,76970,111808,175044,0.14146488,0.20549243,0.32171552,0.17477671,0.24933462,0.33262859
0,0,Burma,,,2021-01-05 03:20:37.093146,2020-10-23 00:00:00.000000,0.24214067,0.33893174,0.47394379,131748,184412,257871,76427,111424,174059,0.14046719,0.20478675,0.31990557,0.17212687,0.24674879,0.32634782
0,0,Burma,,,2021-01-05 03:20:37.093146,2020-10-24 00:00:00.000000,0.24099618,0.33755532,0.47235078,131125,183663,257005,75861,111486,173047,0.13942658,0.20490135,0.31804486,0.17145952,0.23840769,0.32085000
0,0,Burma,,,2021-01-05 03:20:37.093146,2020-10-25 00:00:00.000000,0.23987582,0.33434063,0.47058632,130515,181914,256045,75220,111245,172015,0.13824831,0.20445799,0.31614715,0.17011879,0.23090723,0.30698759
0,0,Burma,,,2021-01-05 03:20:37.093146,2020-10-26 00:00:00.000000,0.23876114,0.33124943,0.46867544,129909,180232,255005,74450,110228,170968,0.13683353,0.20258914,0.31422345,0.16149317,0.22944116,0.31315144
0,0,Burma,,,2021-01-05 03:20:37.093146,2020-10-27 00:00:00.000000,0.23555125,0.32694551,0.46616638,128162,177890,253640,73545,108887,169909,0.13516978,0.20012454,0.31227826,0.15823087,0.22829677,0.30542980
0,0,Burma,,,2021-01-05 03:20:37.093146,2020-10-28 00:00:00.000000,0.23076080,0.32368204,0.45826691,125556,176114,249342,72540,107470,168838,0.13332264,0.19752131,0.31030839,0.15798935,0.22698928,0.30673721
0,0,Burma,,,2021-01-05 03:20:37.093146,2020-10-29 00:00:00.000000,0.22594716,0.32030831,0.45078847,122937,174279,245273,71480,106052,167754,0.13137515,0.19491415,0.30831664,0.15861990,0.22428857,0.31093872
0,0,Burma,,,2021-01-05 03:20:37.093146,2020-10-30 00:00:00.000000,0.22142108,0.31632223,0.44592687,120474,172110,242627,70405,104753,166661,0.12939920,0.19252631,0.30630847,0.16181199,0.22650820,0.31450990
0,0,Burma,,,2021-01-05 03:20:37.093146,2020-10-31 00:00:00.000000,0.21822084,0.31140905,0.44395872,118733,169437,241557,69347,103435,165552,0.12745378,0.19010430,0.30426985,0.16233368,0.22629183,0.31842633
0,0,Burma,,,2021-01-05 03:20:37.093146,2020-11-01 00:00:00.000000,0.21572954,0.30684211,0.44194367,117377,166952,240460,68332,102041,164421,0.12558887,0.18754242,0.30219045,0.16254817,0.23049521,0.32129752
0,0,Burma,,,2021-01-05 03:20:37.093146,2020-11-02 00:00:00.000000,0.21351053,0.30231956,0.43989382,116170,164491,239345,67380,100948,163287,0.12383867,0.18553460,0.30010592,0.16260460,0.23602543,0.32192024
0,0,Burma,,,2021-01-05 03:20:37.093146,2020-11-03 00:00:00.000000,0.21169855,0.29997349,0.43795707,115184,163214,238291,66496,100040,162184,0.12221439,0.18386547,0.29807929,0.16271982,0.23628412,0.33286349
0,0,Burma,,,2021-01-05 03:20:37.093146,2020-11-04 00:00:00.000000,0.21065138,0.29968371,0.43623994,114614,163057,237357,65676,99364,161171,0.12070765,0.18262333,0.29621797,0.16545161,0.23843488,0.34085063
0,0,Burma,,,2021-01-05 03:20:37.093146,2020-11-05 00:00:00.000000,0.21092047,0.30079330,0.43489306,114761,163661,236624,64910,98903,160339,0.11930007,0.18177522,0.29468857,0.16725015,0.24820651,0.33625273
0,0,Burma,,,2021-01-05 03:20:37.093146,2020-11-06 00:00:00.000000,0.21282599,0.30182459,0.43414002,115798,164222,236214,64190,98712,159795,0.11797568,0.18142366,0.29368826,0.17101509,0.25334812,0.34888205
0,0,Burma,,,2021-01-05 03:20:37.093146,2020-11-07 00:00:00.000000,0.21594441,0.30421317,0.43427878,117494,165521,236290,63528,99195,159613,0.11675956,0.18231266,0.29335511,0.17786252,0.26478705,0.36731054
0,0,Burma,,,2021-01-05 03:20:37.093146,2020-11-08 00:00:00.000000,0.21780705,0.30652448,0.43563503,118508,166779,237028,63105,99855,159803,0.11598209,0.18352502,0.29370411,0.18906679,0.28091903,0.38734901
0,0,Burma,,,2021-01-05 03:20:37.093146,2020-11-09 00:00:00.000000,0.22133591,0.31032174,0.43845611,120428,168845,238563,63449,100490,160323,0.11661381,0.18469150,0.29465941,0.19812562,0.29573323,0.39914094
0,0,Burma,,,2021-01-05 03:20:37.093146,2020-11-10 00:00:00.000000,0.22620861,0.31576327,0.44279139,123079,171806,240921,64554,101507,161123,0.11864409,0.18656018,0.29613029,0.20753944,0.30732106,0.40776507
0,0,Burma,,,2021-01-05 03:20:37.093146,2020-11-11 00:00:00.000000,0.23194737,0.32188692,0.44847826,126202,175138,244016,66148,102258,162178,0.12157551,0.18794092,0.29806854,0.21591165,0.30952783,0.40916996
0,0,Burma,,,2021-01-05 03:20:37.093146,2020-11-12 00:00:00.000000,0.23292607,0.32870587,0.45699597,126734,178848,248650,68045,103729,163506,0.12506102,0.19064523,0.30050894,0.21793782,0.31092327,0.41893649
0,0,Burma,,,2021-01-05 03:20:37.093146,2020-11-13 00:00:00.000000,0.23730687,0.33518445,0.46654497,129118,182373,253846,70131,105926,165166,0.12889504,0.19468302,0.30355965,0.22078618,0.31318227,0.42421617
0,0,Burma,,,2021-01-05 03:20:37.093146,2020-11-14 00:00:00.000000,0.24479004,0.34326688,0.47482075,133189,186770,258348,72340,107853,167207,0.13295483,0.19822440,0.30731157,0.22626694,0.31891483,0.42699363
0,0,Burma,,,2021-01-05 03:20:37.093146,2020-11-15 00:00:00.000000,0.25240488,0.35340562,0.48243063,137332,192287,262489,74632,109801,169623,0.13716705,0.20180402,0.31175252,0.22783916,0.32413052,0.42810390
0,0,Burma,,,2021-01-05 03:20:37.093146,2020-11-16 00:00:00.000000,0.25999997,0.36004844,0.49013914,141465,195901,266683,76979,111379,172362,0.14148111,0.20470553,0.31678491,0.22870033,0.32358861,0.42775917
0,0,Burma,,,2021-01-05 03:20:37.093146,2020-11-17 00:00:00.000000,0.26731808,0.36698838,0.50025656,145447,199677,272188,79350,112760,175355,0.14583788,0.20724242,0.32228715,0.23053247,0.32024899,0.42440248
0,0,Burma,,,2021-01-05 03:20:37.093146,2020-11-18 00:00:00.000000,0.27344191,0.37392185,0.51080739,148779,203450,277929,81453,114135,178546,0.14970414,0.20976982,0.32815112,0.23095275,0.31971569,0.41364749
0,0,Burma,,,2021-01-05 03:20:37.093146,2020-11-19 00:00:00.000000,0.27934229,0.37916084,0.51912801,151989,206300,282456,83541,116895,181884,0.15354202,0.21484254,0.33428558,0.21458308,0.31629321,0.41053071
0,0,Burma,,,2021-01-05 03:20:37.093146,2020-11-20 00:00:00.000000,0.28317557,0.38536558,0.52392337,154075,209676,285065,85770,119810,185309,0.15763709,0.22020076,0.34058203,0.20865897,0.30630705,0.39998484
0,0,Burma,,,2021-01-05 03:20:37.093146,2020-11-21 00:00:00.000000,0.28751061,0.38802623,0.53089243,156433,211124,288857,87456,122074,188684,0.16073666,0.22436057,0.34678411,0.20518583,0.29394330,0.39244101
0,0,Burma,,,2021-01-05 03:20:37.093146,2020-11-22 00:00:00.000000,0.28939314,0.39236146,0.53976544,157458,213483,293685,88603,123546,191649,0.16284515,0.22706692,0.35223340,0.18888778,0.28540410,0.37646035
0,0,Burma,,,2021-01-05 03:20:37.093146,2020-11-23 00:00:00.000000,0.28973758,0.39239268,0.54541920,157645,213500,296761,89333,124467,193806,0.16418592,0.22875918,0.35619787,0.18858831,0.27780780,0.37484304
0,0,Burma,,,2021-01-05 03:20:37.093146,2020-11-24 00:00:00.000000,0.28933466,0.39312257,0.54590972,157426,213897,297028,89712,125219,195139,0.16488284,0.23014130,0.35864737,0.18851891,0.27497702,0.37345185
0,0,Burma,,,2021-01-05 03:20:37.093146,2020-11-25 00:00:00.000000,0.28851010,0.39430591,0.54662306,156977,214541,297416,89815,125856,195841,0.16507150,0.23131299,0.35993819,0.18842018,0.27088950,0.36528246
0,0,Burma,,,2021-01-05 03:20:37.093146,2020-11-26 00:00:00.000000,0.28744632,0.39392061,0.54953624,156398,214331,299001,89699,126217,196104,0.16485898,0.23197593,0.36042044,0.18050763,0.26763916,0.34871855
0,0,Burma,,,2021-01-05 03:20:37.093146,2020-11-27 00:00:00.000000,0.28623409,0.39461736,0.54813579,155739,214710,298239,89402,126083,196064,0.16431368,0.23172969,0.36034860,0.16991343,0.26489460,0.34380541
0,0,Burma,,,2021-01-05 03:20:37.093146,2020-11-28 00:00:00.000000,0.28475453,0.39314768,0.54343416,154934,213910,295681,88943,126515,195815,0.16346969,0.23252296,0.35989036,0.16689158,0.25818255,0.33474197
0,0,Burma,,,2021-01-05 03:20:37.093146,2020-11-29 00:00:00.000000,0.28157789,0.39170768,0.54265608,153205,213127,295258,88326,126834,195412,0.16233581,0.23310937,0.35914969,0.16617535,0.25002643,0.32873633
0,0,Burma,,,2021-01-05 03:20:37.093146,2020-11-30 00:00:00.000000,0.27805697,0.39034930,0.54063285,151290,212388,294157,87552,127358,194889,0.16091255,0.23407211,0.35818896,0.16549596,0.24258253,0.32265569
0,0,Burma,,,2021-01-05 03:20:37.093146,2020-12-01 00:00:00.000000,0.27442990,0.38787638,0.53514571,149316,211042,291171,86625,127671,194216,0.15920971,0.23464763,0.35695222,0.16493328,0.23892491,0.32082912
0,0,Burma,,,2021-01-05 03:20:37.093146,2020-12-02 00:00:00.000000,0.27076866,0.38466051,0.52958588,147324,209292,288146,85562,127262,193459,0.15725658,0.23389695,0.35555952,0.16439246,0.23782434,0.31993291
0,0,Burma,,,2021-01-05 03:20:37.093146,2020-12-03 00:00:00.000000,0.26715185,0.38122472,0.52397146,145356,207423,285091,84400,126766,192633,0.15512038,0.23298546,0.35404266,0.16331065,0.23381880,0.31876504
0,0,Burma,,,2021-01-05 03:20:37.093146,2020-12-04 00:00:00.000000,0.26387561,0.37773701,0.51815370,143574,205525,281926,83206,125867,191737,0.15292581,0.23133239,0.35239435,0.15980461,0.23149698,0.30325129
0,0,Burma,,,2021-01-05 03:20:37.093146,2020-12-05 00:00:00.000000,0.26145909,0.37521188,0.51159254,142259,204152,278356,82077,124717,190706,0.15085061,0.22921836,0.35050072,0.15166607,0.23067394,0.30159261
0,0,Burma,,,2021-01-05 03:20:37.093146,2020-12-06 00:00:00.000000,0.25944040,0.36975680,0.50436114,141160,201183,274421,81098,122911,189361,0.14905208,0.22590048,0.34802848,0.14757339,0.22529393,0.30714164
0,0,Burma,,,2021-01-05 03:20:37.093146,2020-12-07 00:00:00.000000,0.25725188,0.36314007,0.49699191,139970,197583,270412,80282,121074,187518,0.14755219,0.22252392,0.34464045,0.14671787,0.22090315,0.30145243
0,0,Burma,,,2021-01-05 03:20:37.093146,2020-12-08 00:00:00.000000,0.25454000,0.35608297,0.49199790,138494,193744,267695,79550,119872,185195,0.14620589,0.22031446,0.34037231,0.14663280,0.22102367,0.30114583
0,0,Burma,,,2021-01-05 03:20:37.093146,2020-12-09 00:00:00.000000,0.25098482,0.35016626,0.49057436,136560,190524,266920,78757,118715,182522,0.14474880,0.21818828,0.33545878,0.14665006,0.21444589,0.30072128
0,0,Burma,,,2021-01-05 03:20:37.093146,2020-12-10 00:00:00.000000,0.24644147,0.34289148,0.48855669,134088,186566,265822,77774,117201,179621,0.14294214,0.21540562,0.33012714,0.14166300,0.20743200,0.29698140
0,0,Burma,,,2021-01-05 03:20:37.093146,2020-12-11 00:00:00.000000,0.24104998,0.33421225,0.48461168,131154,181844,263676,76563,115379,176585,0.14071697,0.21205597,0.32454734,0.13661312,0.20604602,0.29011354
0,0,Burma,,,2021-01-05 03:20:37.093146,2020-12-12 00:00:00.000000,0.23477909,0.32583322,0.47649295,127742,177285,259258,75164,113339,173478,0.13814591,0.20830803,0.31883722,0.13620130,0.19433875,0.28574291
0,0,Burma,,,2021-01-05 03:20:37.093146,2020-12-13 00:00:00.000000,0.22613534,0.31624554,0.46486341,123039,172068,252931,73638,111166,170344,0.13534087,0.20431362,0.31307696,0.12897749,0.18997690,0.27973098
0,0,Burma,,,2021-01-05 03:20:37.093146,2020-12-14 00:00:00.000000,0.21814683,0.30731423,0.45306322,118693,167209,246510,72037,108932,167213,0.13239841,0.20020823,0.30732231,0.12891670,0.18525625,0.26215217
0,0,Burma,,,2021-01-05 03:20:37.093146,2020-12-15 00:00:00.000000,0.20948331,0.30021917,0.44135850,113979,163348,240142,70397,106106,164106,0.12938453,0.19501351,0.30161120,0.11511520,0.18145538,0.25405822
0,0,Burma,,,2021-01-05 03:20:37.093146,2020-12-16 00:00:00.000000,0.20502467,0.29435507,0.42970909,111553,160157,233803,68667,103226,161026,0.12620516,0.18972115,0.29595185,0.10737439,0.17755661,0.24905169
0,0,Burma,,,2021-01-05 03:20:37.093146,2020-12-17 00:00:00.000000,0.20032553,0.28618377,0.41811650,108996,155712,227496,66096,100735,157972,0.12147875,0.18514291,0.29033759,0.10318748,0.17011390,0.24717140
0,0,Burma,,,2021-01-05 03:20:37.093146,2020-12-18 00:00:00.000000,0.19344228,0.27758636,0.40643828,105251,151034,221142,63590,98013,154948,0.11687409,0.18014023,0.28477998,0.10383791,0.17028905,0.24424014
0,0,Burma,,,2021-01-05 03:20:37.093146,2020-12-19 00:00:00.000000,0.18671635,0.26874108,0.39447374,101591,146221,214632,61200,94661,151962,0.11248095,0.17397916,0.27929189,0.10238351,0.16724860,0.23922770
0,0,Burma,,,2021-01-05 03:20:37.093146,2020-12-20 00:00:00.000000,0.18013760,0.25993544,0.38414850,98012,141430,209014,58970,91642,149011,0.10838150,0.16843102,0.27386945,0.10122746,0.16495398,0.23774981
0,0,Burma,,,2021-01-05 03:20:37.093146,2020-12-21 00:00:00.000000,0.17371949,0.24977303,0.37412681,94520,135900,203561,56940,88591,146064,0.10465104,0.16282332,0.26845200,0.10046100,0.16548717,0.23749064
0,0,Burma,,,2021-01-05 03:20:37.093146,2020-12-22 00:00:00.000000,0.16748427,0.24033176,0.36411021,91127,130764,198111,55056,85672,142985,0.10118842,0.15745877,0.26279425,0.09989803,0.16186077,0.23789505
0,0,Burma,,,2021-01-05 03:20:37.093146,2020-12-23 00:00:00.000000,0.16133027,0.23121105,0.35411552,87779,125801,192673,53217,82781,139635,0.09780936,0.15214442,0.25663741,0.09921343,0.16000214,0.23465190
0,0,Burma,,,2021-01-05 03:20:37.093146,2020-12-24 00:00:00.000000,0.15502442,0.22348642,0.34418751,84348,121598,187271,51542,79410,136085,0.09472984,0.14594926,0.25011260,0.09909459,0.16259985,0.23555384
0,0,Burma,,,2021-01-05 03:20:37.093146,2020-12-25 00:00:00.000000,0.14883375,0.21595715,0.33436465,80980,117501,181927,49436,75853,132420,0.09085910,0.13941225,0.24337607,0.09892689,0.16613720,0.23601509
0,0,Burma,,,2021-01-05 03:20:37.093146,2020-12-26 00:00:00.000000,0.14321288,0.20843389,0.32458166,77921,113408,176604,47190,72818,128683,0.08673113,0.13383360,0.23650816,0.09811238,0.17038547,0.24243394
0,0,Burma,,,2021-01-05 03:20:37.093146,2020-12-27 00:00:00.000000,0.13726689,0.20143598,0.31445332,74686,109600,171093,45402,70352,124870,0.08344574,0.12930201,0.22950079,0.09637514,0.16914813,0.24781459
0,0,Burma,,,2021-01-05 03:20:37.093146,2020-12-28 00:00:00.000000,0.13333136,0.19360296,0.30387741,72545,105338,165339,43738,67624,120956,0.08038753,0.12428706,0.22230671,0.09467044,0.17164659,0.26217077
0,0,Burma,,,2021-01-05 03:20:37.093146,2020-12-29 00:00:00.000000,0.12892163,0.18657529,0.29422745,70145,101515,160088,42103,64537,116948,0.07738204,0.11861386,0.21493992,0.09299042,0.17097640,0.26571873
0,0,Burma,,,2021-01-05 03:20:37.093146,2020-12-30 00:00:00.000000,0.12388886,0.17981282,0.28672661,67407,97835,156007,40498,61888,112891,0.07443271,0.11374549,0.20748432,0.09190651,0.17103710,0.27443582
0,0,Burma,,,2021-01-05 03:20:37.093146,2020-12-31 00:00:00.000000,0.11869734,0.17409277,0.27943332,64582,94723,152039,38919,59753,108843,0.07153071,0.10982071,0.20004341,0.09135702,0.17304994,0.29280682
0,0,Burma,,,2021-01-05 03:20:37.093146,2021-01-01 00:00:00.000000,0.11399706,0.16908300,0.27237894,62025,91997,148200,37362,58082,104850,0.06866919,0.10675055,0.19270475,0.08731478,0.17539550,0.29896899
0,0,Burma,,,2021-01-05 03:20:37.093146,2021-01-02 00:00:00.000000,0.10898675,0.16442431,0.26511411,59299,89462,144248,35831,56408,100943,0.06585425,0.10367254,0.18552391,0.08639123,0.17389058,0.31317638
0,0,Burma,,,2021-01-05 03:20:37.093146,2021-01-03 00:00:00.000000,0.10391456,0.15968766,0.25539728,56539,86885,138961,34535,54250,97139,0.06347242,0.09970727,0.17853400,0.08637825,0.16586817,0.32090104
0,0,Burma,,,2021-01-05 03:20:37.093146,2021-01-04 00:00:00.000000,0.09883780,0.15574287,0.24710948,53777,84739,134451,33613,52533,93452,0.06177834,0.09655077,0.17175607,0.08553998,0.16953900,0.32312917
0,0,Burma,,,2021-01-05 03:20:37.093146,2021-01-05 00:00:00.000000,0.09384857,0.15084377,0.24048993,51062,82073,130850,32755,51924,89888,0.06020070,0.09543269,0.16520637,0.08196493,0.17191965,0.32366245
0,0,Burma,,,2021-01-05 03:20:37.093146,2021-01-06 00:00:00.000000,0.08901342,0.14663370,0.23463122,48432,79783,127662,30908,51354,86875,0.05680665,0.09438481,0.15966853,0.07793694,0.17220114,0.32379165
0,0,Burma,,,2021-01-05 03:20:37.093146,2021-01-07 00:00:00.000000,0.08436916,0.14382080,0.22909689,45905,78252,124651,29063,49782,84718,0.05341540,0.09149541,0.15570375,0.07587060,0.17353030,0.32382370
0,0,Burma,,,2021-01-05 03:20:37.093146,2021-01-08 00:00:00.000000,0.07993234,0.14110208,0.22379034,43491,76773,121763,27455,47448,82623,0.05046070,0.08720672,0.15185460,0.07523435,0.17351579,0.32383177
0,0,Burma,,,2021-01-05 03:20:37.093146,2021-01-09 00:00:00.000000,0.07571119,0.13845882,0.21766557,41194,75335,118431,26225,45786,80587,0.04820028,0.08415041,0.14811235,0.07500849,0.17350872,0.32383381
0,0,Burma,,,2021-01-05 03:20:37.093146,2021-01-10 00:00:00.000000,0.07166362,0.13530036,0.21084937,38992,73616,114722,25048,44314,78605,0.04603625,0.08144643,0.14447027,0.07493106,0.17350611,0.32383433
0,0,Burma,,,2021-01-05 03:20:37.093146,2021-01-11 00:00:00.000000,0.06757971,0.13214413,0.20864609,36769,71899,113523,23921,43044,76675,0.04396605,0.07911173,0.14092304,0.07490485,0.17350515,0.32383446
0,0,Burma,,,2021-01-05 03:20:37.093146,2021-01-12 00:00:00.000000,0.06372134,0.12965198,0.20513592,34670,70543,111614,22769,42232,74795,0.04184880,0.07761923,0.13746637,0.07489598,0.17350479,0.32383450
0,0,Burma,,,2021-01-05 03:20:37.093146,2021-01-13 00:00:00.000000,0.06007853,0.12473866,0.20205258,32688,67870,109936,21561,41039,72961,0.03962870,0.07542719,0.13409670,0.07489296,0.17350466,0.32383450
0,0,Burma,,,2021-01-05 03:20:37.093146,2021-01-14 00:00:00.000000,0.05664085,0.11840587,0.19731382,30818,64424,107358,20415,39697,71163,0.03752227,0.07296018,0.13079115,0.07489192,0.17350461,0.32383451
0,0,Burma,,,2021-01-05 03:20:37.093146,2021-01-15 00:00:00.000000,0.05339782,0.11392164,0.19702503,29053,61984,107200,19329,39158,69402,0.03552519,0.07197045,0.12755547,0.07489156,0.17350459,0.32383451
0,0,Burma,,,2021-01-05 03:20:37.093146,2021-01-16 00:00:00.000000,0.05033911,0.11000818,0.19610253,27389,59855,106698,18299,38445,67685,0.03363271,0.07065898,0.12439992,0.07489143,0.17350459,0.32383451
0,0,Burma,,,2021-01-05 03:20:37.093146,2021-01-17 00:00:00.000000,0.04745470,0.10624132,0.19827040,25820,57805,107878,17324,37433,66408,0.03183995,0.06879969,0.12205327,0.07489138,0.17350458,0.32383451
0,0,Burma,,,2021-01-05 03:20:37.093146,2021-01-18 00:00:00.000000,0.04473496,0.10345688,0.20045950,24340,56290,109069,16400,36452,67669,0.03014201,0.06699607,0.12437026,0.07489137,0.17350458,0.32383451
