FIPS,HR_UID,nameid,province,region,analysisTime,dates,pointprevalence_025,pointprevalence_50,pointprevalence_975,pointinfections_025,pointinfections_50,pointinfections_975,pointinfectious_025,pointinfectious_50,pointinfectious_975,pointinfectiousprevalence_05,pointinfectiousprevalence_50,pointinfectiousprevalence_95,infectrate_025,infectrate_50,infectrate_975
56043,0,USWyomingWashakie,Wyoming,Washakie,2021-01-05 04:42:36.180970,2020-03-09 00:00:00.000000,0.00857758,0.04227530,0.14354413,0,3,11,0,1,5,0.00460634,0.02288219,0.07428645,0.35149029,0.49652823,0.63909445
56043,0,USWyomingWashakie,Wyoming,Washakie,2021-01-05 04:42:36.180970,2020-03-10 00:00:00.000000,0.00936441,0.04545940,0.14648707,0,3,11,0,1,5,0.00439218,0.02245256,0.07155878,0.35149078,0.49644526,0.63905805
56043,0,USWyomingWashakie,Wyoming,Washakie,2021-01-05 04:42:36.180970,2020-03-11 00:00:00.000000,0.01024760,0.04864642,0.14975797,0,3,11,0,1,5,0.00445406,0.02279374,0.07143408,0.35149136,0.49630492,0.63898369
56043,0,USWyomingWashakie,Wyoming,Washakie,2021-01-05 04:42:36.180970,2020-03-12 00:00:00.000000,0.01115547,0.05138551,0.15327670,0,4,11,0,1,5,0.00479411,0.02383282,0.07548750,0.35149201,0.49606829,0.63867325
56043,0,USWyomingWashakie,Wyoming,Washakie,2021-01-05 04:42:36.180970,2020-03-13 00:00:00.000000,0.01210837,0.05385959,0.16165553,0,4,12,0,1,6,0.00520346,0.02490634,0.08075515,0.35149272,0.49567167,0.63779650
56043,0,USWyomingWashakie,Wyoming,Washakie,2021-01-05 04:42:36.180970,2020-03-14 00:00:00.000000,0.01311933,0.05720650,0.17191496,1,4,13,0,2,6,0.00564933,0.02651596,0.08688601,0.35149326,0.49501478,0.63591327
56043,0,USWyomingWashakie,Wyoming,Washakie,2021-01-05 04:42:36.180970,2020-03-15 00:00:00.000000,0.01419641,0.06157680,0.18210836,1,4,14,0,2,7,0.00613575,0.02787746,0.09340158,0.34872465,0.49475856,0.63422571
56043,0,USWyomingWashakie,Wyoming,Washakie,2021-01-05 04:42:36.180970,2020-03-16 00:00:00.000000,0.02664094,0.07753543,0.21786831,2,6,17,0,2,7,0.00668786,0.02950413,0.09909115,0.33813769,0.49226595,0.62584380
56043,0,USWyomingWashakie,Wyoming,Washakie,2021-01-05 04:42:36.180970,2020-03-17 00:00:00.000000,0.03964266,0.09465267,0.25443038,3,7,19,0,2,8,0.00938106,0.03465185,0.10667934,0.33724145,0.48962786,0.60987017
56043,0,USWyomingWashakie,Wyoming,Washakie,2021-01-05 04:42:36.180970,2020-03-18 00:00:00.000000,0.04975814,0.11300099,0.28134882,3,8,21,1,3,8,0.01340342,0.04131297,0.11505890,0.32702020,0.48313487,0.60360618
56043,0,USWyomingWashakie,Wyoming,Washakie,2021-01-05 04:42:36.180970,2020-03-19 00:00:00.000000,0.05945865,0.12720697,0.32467211,4,9,25,1,3,10,0.01790898,0.05027072,0.13026828,0.30325557,0.47323181,0.58787389
56043,0,USWyomingWashakie,Wyoming,Washakie,2021-01-05 04:42:36.180970,2020-03-20 00:00:00.000000,0.06962551,0.14530228,0.35837794,5,11,27,1,4,11,0.02313321,0.05820005,0.14783875,0.27805096,0.44648099,0.58544243
56043,0,USWyomingWashakie,Wyoming,Washakie,2021-01-05 04:42:36.180970,2020-03-21 00:00:00.000000,0.07995057,0.16530648,0.38774177,6,12,30,2,5,13,0.02898103,0.06712427,0.17080082,0.27213696,0.41387233,0.56034089
56043,0,USWyomingWashakie,Wyoming,Washakie,2021-01-05 04:42:36.180970,2020-03-22 00:00:00.000000,0.09002447,0.18259942,0.41582000,7,14,32,2,5,14,0.03540799,0.07504755,0.18929157,0.26841206,0.38110931,0.55532744
56043,0,USWyomingWashakie,Wyoming,Washakie,2021-01-05 04:42:36.180970,2020-03-23 00:00:00.000000,0.11102030,0.20233284,0.46680921,8,15,36,3,6,15,0.04237857,0.08468657,0.20433263,0.26492837,0.36198384,0.49841981
56043,0,USWyomingWashakie,Wyoming,Washakie,2021-01-05 04:42:36.180970,2020-03-24 00:00:00.000000,0.13227005,0.22613224,0.51735449,10,17,40,3,7,17,0.05023531,0.09595842,0.23041956,0.25565739,0.35054894,0.49097504
56043,0,USWyomingWashakie,Wyoming,Washakie,2021-01-05 04:42:36.180970,2020-03-25 00:00:00.000000,0.15035774,0.24683542,0.56833006,11,19,44,4,8,20,0.05877419,0.11048806,0.25726882,0.23720713,0.34424184,0.48142585
56043,0,USWyomingWashakie,Wyoming,Washakie,2021-01-05 04:42:36.180970,2020-03-26 00:00:00.000000,0.16536437,0.26438292,0.59230621,12,20,46,5,9,22,0.06728821,0.12059140,0.28505333,0.23082493,0.32981383,0.46156499
56043,0,USWyomingWashakie,Wyoming,Washakie,2021-01-05 04:42:36.180970,2020-03-27 00:00:00.000000,0.18160641,0.28984972,0.60644846,14,22,47,5,10,23,0.07598477,0.13120786,0.30527775,0.22209810,0.31405299,0.43549967
56043,0,USWyomingWashakie,Wyoming,Washakie,2021-01-05 04:42:36.180970,2020-03-28 00:00:00.000000,0.18940223,0.31007349,0.65784174,14,24,51,6,11,24,0.08048529,0.14562029,0.31511918,0.21964923,0.29517802,0.41725579
56043,0,USWyomingWashakie,Wyoming,Washakie,2021-01-05 04:42:36.180970,2020-03-29 00:00:00.000000,0.20165201,0.32359007,0.70098039,15,25,54,6,12,26,0.08690006,0.15935952,0.34083243,0.21881502,0.28150076,0.41984908
56043,0,USWyomingWashakie,Wyoming,Washakie,2021-01-05 04:42:36.180970,2020-03-30 00:00:00.000000,0.20907376,0.34597089,0.71141880,16,27,55,7,13,28,0.09320219,0.17060955,0.36050357,0.19226125,0.27633336,0.39184510
56043,0,USWyomingWashakie,Wyoming,Washakie,2021-01-05 04:42:36.180970,2020-03-31 00:00:00.000000,0.21635191,0.36909500,0.71964507,16,28,56,7,14,29,0.09840241,0.18017558,0.37287303,0.17637417,0.26934885,0.40926769
56043,0,USWyomingWashakie,Wyoming,Washakie,2021-01-05 04:42:36.180970,2020-04-01 00:00:00.000000,0.22824111,0.39161199,0.73396132,17,30,57,8,14,30,0.10292807,0.18860076,0.39672169,0.16904620,0.26321006,0.39627930
56043,0,USWyomingWashakie,Wyoming,Washakie,2021-01-05 04:42:36.180970,2020-04-02 00:00:00.000000,0.24004257,0.41808474,0.76836241,18,32,59,8,15,32,0.10702131,0.20212886,0.41924373,0.15733211,0.25446899,0.37589848
56043,0,USWyomingWashakie,Wyoming,Washakie,2021-01-05 04:42:36.180970,2020-04-03 00:00:00.000000,0.25169024,0.43813034,0.80141137,19,34,62,8,16,34,0.11210217,0.21382542,0.44078755,0.15199677,0.24613258,0.36197482
56043,0,USWyomingWashakie,Wyoming,Washakie,2021-01-05 04:42:36.180970,2020-04-04 00:00:00.000000,0.26279742,0.45208265,0.83193884,20,35,64,9,17,35,0.12038600,0.22456862,0.45636029,0.14348267,0.23584293,0.33726498
56043,0,USWyomingWashakie,Wyoming,Washakie,2021-01-05 04:42:36.180970,2020-04-05 00:00:00.000000,0.26655985,0.45589676,0.85770116,20,35,66,10,18,36,0.12844347,0.23747822,0.47026386,0.13861336,0.22730163,0.32968792
56043,0,USWyomingWashakie,Wyoming,Washakie,2021-01-05 04:42:36.180970,2020-04-06 00:00:00.000000,0.27556493,0.46341912,0.89963203,21,36,70,10,19,37,0.13098811,0.24595759,0.48238920,0.13580802,0.21665062,0.32854312
56043,0,USWyomingWashakie,Wyoming,Washakie,2021-01-05 04:42:36.180970,2020-04-07 00:00:00.000000,0.29786304,0.47839216,0.93437594,23,37,72,10,19,38,0.13346780,0.25104719,0.49100123,0.13110323,0.21224791,0.32785616
56043,0,USWyomingWashakie,Wyoming,Washakie,2021-01-05 04:42:36.180970,2020-04-08 00:00:00.000000,0.32089556,0.48534285,0.96246347,25,37,75,10,20,38,0.13712179,0.26092757,0.49521174,0.12605053,0.20506502,0.32574951
56043,0,USWyomingWashakie,Wyoming,Washakie,2021-01-05 04:42:36.180970,2020-04-09 00:00:00.000000,0.33917254,0.49333119,0.99011670,26,38,77,11,20,38,0.14797192,0.26780382,0.49589790,0.11886227,0.20152605,0.32352374
56043,0,USWyomingWashakie,Wyoming,Washakie,2021-01-05 04:42:36.180970,2020-04-10 00:00:00.000000,0.34808943,0.50354026,1.01269346,27,39,79,12,21,40,0.15984912,0.27119343,0.52073635,0.11268471,0.19820497,0.32222416
56043,0,USWyomingWashakie,Wyoming,Washakie,2021-01-05 04:42:36.180970,2020-04-11 00:00:00.000000,0.34655373,0.51181872,1.02517045,27,39,80,13,21,43,0.16810277,0.27344789,0.55572240,0.10766948,0.19079788,0.31676099
56043,0,USWyomingWashakie,Wyoming,Washakie,2021-01-05 04:42:36.180970,2020-04-12 00:00:00.000000,0.34689160,0.51834749,1.03516639,27,40,80,13,21,46,0.16887973,0.27283805,0.58993371,0.10119066,0.18583339,0.30996530
56043,0,USWyomingWashakie,Wyoming,Washakie,2021-01-05 04:42:36.180970,2020-04-13 00:00:00.000000,0.34240548,0.53075273,1.05970833,26,41,82,13,21,48,0.16858437,0.27581678,0.62160811,0.09563196,0.18141893,0.31176306
56043,0,USWyomingWashakie,Wyoming,Washakie,2021-01-05 04:42:36.180970,2020-04-14 00:00:00.000000,0.33769254,0.53028102,1.08055510,26,41,84,13,21,49,0.17140773,0.27823464,0.63373171,0.09459524,0.18083547,0.30325151
56043,0,USWyomingWashakie,Wyoming,Washakie,2021-01-05 04:42:36.180970,2020-04-15 00:00:00.000000,0.33965671,0.53600531,1.09828875,26,41,85,13,22,50,0.17399014,0.28234805,0.64460646,0.09420136,0.17569793,0.30146084
56043,0,USWyomingWashakie,Wyoming,Washakie,2021-01-05 04:42:36.180970,2020-04-16 00:00:00.000000,0.33337861,0.54881470,1.11282010,26,42,86,13,22,51,0.17431190,0.28626114,0.65483006,0.09405690,0.16867467,0.30102839
56043,0,USWyomingWashakie,Wyoming,Washakie,2021-01-05 04:42:36.180970,2020-04-17 00:00:00.000000,0.33723924,0.55489504,1.12350044,26,43,87,13,22,51,0.16918370,0.28980353,0.66495541,0.09403117,0.16398927,0.29960310
56043,0,USWyomingWashakie,Wyoming,Washakie,2021-01-05 04:42:36.180970,2020-04-18 00:00:00.000000,0.34413325,0.55934456,1.13007601,26,43,88,12,22,52,0.16393867,0.28995599,0.67599081,0.09655671,0.16519548,0.29669517
56043,0,USWyomingWashakie,Wyoming,Washakie,2021-01-05 04:42:36.180970,2020-04-19 00:00:00.000000,0.34483718,0.56733259,1.13370031,26,44,88,13,22,53,0.16761065,0.29292525,0.68834200,0.09714272,0.16157833,0.28373672
56043,0,USWyomingWashakie,Wyoming,Washakie,2021-01-05 04:42:36.180970,2020-04-20 00:00:00.000000,0.32599688,0.54529382,1.10315364,25,42,86,13,23,54,0.17093810,0.29507815,0.70160653,0.09609831,0.15899861,0.26781794
56043,0,USWyomingWashakie,Wyoming,Washakie,2021-01-05 04:42:36.180970,2020-04-21 00:00:00.000000,0.30691298,0.52694318,1.07166674,23,41,83,13,22,54,0.16794474,0.29290982,0.70379192,0.09485459,0.15743402,0.28520760
56043,0,USWyomingWashakie,Wyoming,Washakie,2021-01-05 04:42:36.180970,2020-04-22 00:00:00.000000,0.28745758,0.50696240,1.03899183,22,39,81,12,22,54,0.16111976,0.28766533,0.69945098,0.09379553,0.15550687,0.29626979
56043,0,USWyomingWashakie,Wyoming,Washakie,2021-01-05 04:42:36.180970,2020-04-23 00:00:00.000000,0.26825444,0.49115046,1.00544851,20,38,78,11,21,53,0.15315724,0.27978505,0.69082181,0.09218199,0.15558930,0.29654489
56043,0,USWyomingWashakie,Wyoming,Washakie,2021-01-05 04:42:36.180970,2020-04-24 00:00:00.000000,0.24969149,0.46778290,0.97106309,19,36,75,11,20,52,0.14373195,0.26684975,0.67844843,0.08957494,0.15312657,0.29355331
56043,0,USWyomingWashakie,Wyoming,Washakie,2021-01-05 04:42:36.180970,2020-04-25 00:00:00.000000,0.22804190,0.44658570,0.93605979,17,34,73,10,20,51,0.13339470,0.25848007,0.66229240,0.08664175,0.15341181,0.28446326
56043,0,USWyomingWashakie,Wyoming,Washakie,2021-01-05 04:42:36.180970,2020-04-26 00:00:00.000000,0.20712017,0.42359438,0.90098540,16,33,70,9,19,50,0.12278018,0.25138587,0.64328168,0.08443636,0.15265487,0.26483903
56043,0,USWyomingWashakie,Wyoming,Washakie,2021-01-05 04:42:36.180970,2020-04-27 00:00:00.000000,0.19313560,0.42908609,0.93869041,15,33,73,8,19,48,0.11227796,0.24363729,0.62263755,0.08323286,0.15072192,0.25928848
56043,0,USWyomingWashakie,Wyoming,Washakie,2021-01-05 04:42:36.180970,2020-04-28 00:00:00.000000,0.18069350,0.44602439,0.97577116,14,34,76,8,18,47,0.10356726,0.24179979,0.60866772,0.08266154,0.15081020,0.25792530
56043,0,USWyomingWashakie,Wyoming,Washakie,2021-01-05 04:42:36.180970,2020-04-29 00:00:00.000000,0.16999472,0.45157351,0.96878213,13,35,75,7,18,46,0.09621450,0.24271142,0.59875736,0.08241145,0.15050902,0.25869202
56043,0,USWyomingWashakie,Wyoming,Washakie,2021-01-05 04:42:36.180970,2020-04-30 00:00:00.000000,0.16380225,0.46591479,0.98642417,12,36,76,7,19,48,0.08994833,0.24720156,0.61590285,0.08106585,0.15017862,0.26175834
56043,0,USWyomingWashakie,Wyoming,Washakie,2021-01-05 04:42:36.180970,2020-05-01 00:00:00.000000,0.16463007,0.47767875,1.02219049,12,37,79,6,19,48,0.08462177,0.24581541,0.62458311,0.07649259,0.14948224,0.26417818
56043,0,USWyomingWashakie,Wyoming,Washakie,2021-01-05 04:42:36.180970,2020-05-02 00:00:00.000000,0.16548744,0.48167302,1.04596522,12,37,81,6,19,48,0.08010345,0.24672770,0.61927431,0.07505845,0.15031473,0.26549994
56043,0,USWyomingWashakie,Wyoming,Washakie,2021-01-05 04:42:36.180970,2020-05-03 00:00:00.000000,0.16625293,0.48465093,1.02898614,12,37,80,6,19,48,0.07839537,0.25160425,0.62267112,0.07339638,0.14901630,0.26611035
56043,0,USWyomingWashakie,Wyoming,Washakie,2021-01-05 04:42:36.180970,2020-05-04 00:00:00.000000,0.21601701,0.50012235,1.07054237,16,39,83,6,20,48,0.07851073,0.25968817,0.62698402,0.06999728,0.14531112,0.26638195
56043,0,USWyomingWashakie,Wyoming,Washakie,2021-01-05 04:42:36.180970,2020-05-05 00:00:00.000000,0.23444921,0.51423541,1.10748415,18,40,86,7,20,49,0.09961267,0.26363606,0.63363389,0.06894502,0.14215874,0.26648708
56043,0,USWyomingWashakie,Wyoming,Washakie,2021-01-05 04:42:36.180970,2020-05-06 00:00:00.000000,0.25328861,0.53602674,1.14103684,19,41,89,8,21,50,0.10602741,0.26959659,0.64187273,0.06867688,0.14120868,0.26651553
56043,0,USWyomingWashakie,Wyoming,Washakie,2021-01-05 04:42:36.180970,2020-05-07 00:00:00.000000,0.27168320,0.54226324,1.17412117,21,42,91,8,21,50,0.11383689,0.27742345,0.65112957,0.06828558,0.14057699,0.26649803
56043,0,USWyomingWashakie,Wyoming,Washakie,2021-01-05 04:42:36.180970,2020-05-08 00:00:00.000000,0.28915326,0.55192659,1.20807177,22,43,94,9,22,51,0.12219774,0.28422717,0.66074414,0.06820849,0.13928388,0.29880419
56043,0,USWyomingWashakie,Wyoming,Washakie,2021-01-05 04:42:36.180970,2020-05-09 00:00:00.000000,0.29977927,0.57220322,1.24218003,23,44,96,10,22,52,0.13059154,0.29258676,0.67081868,0.06835661,0.13527769,0.29760499
56043,0,USWyomingWashakie,Wyoming,Washakie,2021-01-05 04:42:36.180970,2020-05-10 00:00:00.000000,0.29590461,0.58269317,1.27655793,23,45,99,10,23,53,0.13872313,0.30313171,0.68119653,0.06820934,0.13505244,0.29414431
56043,0,USWyomingWashakie,Wyoming,Washakie,2021-01-05 04:42:36.180970,2020-05-11 00:00:00.000000,0.39190161,0.65386716,1.31838243,30,51,102,11,24,53,0.14637731,0.31146425,0.69174456,0.06807816,0.13331973,0.29291974
56043,0,USWyomingWashakie,Wyoming,Washakie,2021-01-05 04:42:36.180970,2020-05-12 00:00:00.000000,0.43497349,0.69687940,1.35935664,33,54,106,13,26,55,0.16957924,0.33773167,0.71067459,0.06787867,0.13108729,0.29151611
56043,0,USWyomingWashakie,Wyoming,Washakie,2021-01-05 04:42:36.180970,2020-05-13 00:00:00.000000,0.47575896,0.76146644,1.39862417,37,59,109,15,28,57,0.20194813,0.36356104,0.73210329,0.06752496,0.12929649,0.28250456
56043,0,USWyomingWashakie,Wyoming,Washakie,2021-01-05 04:42:36.180970,2020-05-14 00:00:00.000000,0.47551756,0.84154814,1.43362358,37,65,111,17,30,58,0.22938619,0.38753887,0.75381025,0.06206822,0.12618953,0.25952529
56043,0,USWyomingWashakie,Wyoming,Washakie,2021-01-05 04:42:36.180970,2020-05-15 00:00:00.000000,0.49373407,0.90055215,1.46358989,38,70,114,19,33,60,0.24997166,0.42409143,0.77474250,0.06161047,0.12364653,0.25145961
56043,0,USWyomingWashakie,Wyoming,Washakie,2021-01-05 04:42:36.180970,2020-05-16 00:00:00.000000,0.54063726,0.96604423,1.49606125,42,75,116,20,35,61,0.26162541,0.45362299,0.79408008,0.06293278,0.12035501,0.25027129
56043,0,USWyomingWashakie,Wyoming,Washakie,2021-01-05 04:42:36.180970,2020-05-17 00:00:00.000000,0.55480209,1.01406033,1.59244331,43,79,124,20,37,63,0.26680101,0.48608329,0.81274605,0.05961839,0.11972449,0.24891219
56043,0,USWyomingWashakie,Wyoming,Washakie,2021-01-05 04:42:36.180970,2020-05-18 00:00:00.000000,0.58401711,1.00541961,1.56674721,45,78,122,21,39,66,0.27731102,0.50534980,0.84646024,0.05865350,0.11762112,0.24646778
56043,0,USWyomingWashakie,Wyoming,Washakie,2021-01-05 04:42:36.180970,2020-05-19 00:00:00.000000,0.61280772,1.00671646,1.53755917,47,78,120,22,40,67,0.29087038,0.51579044,0.86894233,0.05793425,0.11590247,0.24572467
56043,0,USWyomingWashakie,Wyoming,Washakie,2021-01-05 04:42:36.180970,2020-05-20 00:00:00.000000,0.63954520,1.01024309,1.52688948,49,78,119,22,41,68,0.29204033,0.52975462,0.88400373,0.05789483,0.11343944,0.24554733
56043,0,USWyomingWashakie,Wyoming,Washakie,2021-01-05 04:42:36.180970,2020-05-21 00:00:00.000000,0.62133393,0.98377124,1.53029377,48,76,119,23,42,69,0.30564530,0.53968245,0.89421961,0.05806647,0.11191590,0.24474178
56043,0,USWyomingWashakie,Wyoming,Washakie,2021-01-05 04:42:36.180970,2020-05-22 00:00:00.000000,0.59778005,0.97315855,1.53271908,46,75,119,24,42,70,0.31034423,0.54098322,0.90128883,0.05866906,0.11049068,0.23628229
56043,0,USWyomingWashakie,Wyoming,Washakie,2021-01-05 04:42:36.180970,2020-05-23 00:00:00.000000,0.56390801,0.96080263,1.54989975,44,74,120,23,41,70,0.30611121,0.53294751,0.90600703,0.06007450,0.10846657,0.21425597
56043,0,USWyomingWashakie,Wyoming,Washakie,2021-01-05 04:42:36.180970,2020-05-24 00:00:00.000000,0.53268524,0.95352339,1.53478323,41,74,119,22,42,70,0.29059317,0.53950549,0.90871646,0.06053440,0.10613483,0.21331228
56043,0,USWyomingWashakie,Wyoming,Washakie,2021-01-05 04:42:36.180970,2020-05-25 00:00:00.000000,0.52887913,0.93300252,1.48036776,41,72,115,22,42,71,0.29278983,0.54078204,0.90978021,0.05965644,0.10547739,0.20871144
56043,0,USWyomingWashakie,Wyoming,Washakie,2021-01-05 04:42:36.180970,2020-05-26 00:00:00.000000,0.51369535,0.90829650,1.42377637,40,70,111,23,41,70,0.29557932,0.52730228,0.89745154,0.05898173,0.10509155,0.19492338
56043,0,USWyomingWashakie,Wyoming,Washakie,2021-01-05 04:42:36.180970,2020-05-27 00:00:00.000000,0.48173734,0.87967752,1.36444800,37,68,106,21,39,68,0.28030233,0.51018972,0.87787830,0.05295178,0.10448282,0.19302677
56043,0,USWyomingWashakie,Wyoming,Washakie,2021-01-05 04:42:36.180970,2020-05-28 00:00:00.000000,0.44981426,0.84299223,1.30394697,35,65,101,20,38,66,0.26306439,0.48926262,0.85290105,0.04455540,0.10331680,0.19179038
56043,0,USWyomingWashakie,Wyoming,Washakie,2021-01-05 04:42:36.180970,2020-05-29 00:00:00.000000,0.42201129,0.81005839,1.27029652,32,63,99,19,36,64,0.24703903,0.47175706,0.82817367,0.04435448,0.10262030,0.19068051
56043,0,USWyomingWashakie,Wyoming,Washakie,2021-01-05 04:42:36.180970,2020-05-30 00:00:00.000000,0.39439795,0.77120171,1.23252428,30,60,96,18,35,62,0.23233297,0.45573210,0.80102899,0.04435477,0.10022747,0.18198013
56043,0,USWyomingWashakie,Wyoming,Washakie,2021-01-05 04:42:36.180970,2020-05-31 00:00:00.000000,0.36903057,0.73312836,1.21517967,28,57,94,17,34,60,0.22091352,0.44656934,0.77251518,0.04447124,0.09826064,0.17520093
56043,0,USWyomingWashakie,Wyoming,Washakie,2021-01-05 04:42:36.180970,2020-06-01 00:00:00.000000,0.34032169,0.68707272,1.16222195,26,53,90,16,33,58,0.21558112,0.43007014,0.74341791,0.04489052,0.09780926,0.16711038
56043,0,USWyomingWashakie,Wyoming,Washakie,2021-01-05 04:42:36.180970,2020-06-02 00:00:00.000000,0.31341071,0.65496664,1.11008897,24,51,86,15,31,55,0.19654880,0.40652275,0.70735391,0.04622986,0.09739954,0.16626616
56043,0,USWyomingWashakie,Wyoming,Washakie,2021-01-05 04:42:36.180970,2020-06-03 00:00:00.000000,0.28815079,0.62239049,1.05731119,22,48,82,13,29,53,0.17759270,0.38202261,0.68129116,0.04963217,0.09648342,0.16402839
56043,0,USWyomingWashakie,Wyoming,Washakie,2021-01-05 04:42:36.180970,2020-06-04 00:00:00.000000,0.25821621,0.58823306,0.99983444,20,45,78,12,28,50,0.16272404,0.36323637,0.64980753,0.05324197,0.09552760,0.15665891
56043,0,USWyomingWashakie,Wyoming,Washakie,2021-01-05 04:42:36.180970,2020-06-05 00:00:00.000000,0.23332445,0.54619374,0.94124554,18,42,73,11,26,48,0.14843673,0.34152515,0.61859558,0.05182614,0.09561174,0.15357026
56043,0,USWyomingWashakie,Wyoming,Washakie,2021-01-05 04:42:36.180970,2020-06-06 00:00:00.000000,0.21290125,0.50855131,0.88441626,16,39,69,10,24,45,0.13494625,0.31900438,0.58817373,0.05095972,0.09697494,0.15222081
56043,0,USWyomingWashakie,Wyoming,Washakie,2021-01-05 04:42:36.180970,2020-06-07 00:00:00.000000,0.19421420,0.47075631,0.82986515,15,36,64,9,23,43,0.12232230,0.29705664,0.55905615,0.05128923,0.09583456,0.15591448
56043,0,USWyomingWashakie,Wyoming,Washakie,2021-01-05 04:42:36.180970,2020-06-08 00:00:00.000000,0.17721487,0.43944229,0.77781703,13,34,60,8,21,41,0.11052068,0.27323765,0.52823567,0.05260206,0.09449698,0.16258634
56043,0,USWyomingWashakie,Wyoming,Washakie,2021-01-05 04:42:36.180970,2020-06-09 00:00:00.000000,0.16198379,0.40881288,0.73131302,12,31,57,7,19,38,0.09961950,0.25528707,0.49661278,0.05319464,0.09389655,0.16692471
56043,0,USWyomingWashakie,Wyoming,Washakie,2021-01-05 04:42:36.180970,2020-06-10 00:00:00.000000,0.14865606,0.37901091,0.68927706,11,29,53,6,18,36,0.08963619,0.23821603,0.46601350,0.05308748,0.09369086,0.16886198
56043,0,USWyomingWashakie,Wyoming,Washakie,2021-01-05 04:42:36.180970,2020-06-11 00:00:00.000000,0.13684125,0.34826332,0.64967196,10,27,50,6,17,34,0.08217422,0.22174019,0.43667989,0.05296716,0.09241995,0.17020652
56043,0,USWyomingWashakie,Wyoming,Washakie,2021-01-05 04:42:36.180970,2020-06-12 00:00:00.000000,0.12335382,0.31933622,0.59949685,9,24,46,5,16,31,0.07548046,0.20619600,0.40874672,0.04999854,0.09211630,0.16751647
56043,0,USWyomingWashakie,Wyoming,Washakie,2021-01-05 04:42:36.180970,2020-06-13 00:00:00.000000,0.11084442,0.29242211,0.56637399,8,22,44,5,14,30,0.06931466,0.18807328,0.38567280,0.04907027,0.09167976,0.16124653
56043,0,USWyomingWashakie,Wyoming,Washakie,2021-01-05 04:42:36.180970,2020-06-14 00:00:00.000000,0.09957063,0.26641160,0.53847935,7,20,42,4,13,28,0.06326518,0.17116034,0.36468084,0.04484894,0.09382963,0.16397513
56043,0,USWyomingWashakie,Wyoming,Washakie,2021-01-05 04:42:36.180970,2020-06-15 00:00:00.000000,0.08929641,0.24401996,0.51195316,6,19,39,4,12,26,0.05684894,0.15760518,0.34589901,0.04128231,0.09353382,0.17115091
56043,0,USWyomingWashakie,Wyoming,Washakie,2021-01-05 04:42:36.180970,2020-06-16 00:00:00.000000,0.07970773,0.22342119,0.48673035,6,17,37,3,11,25,0.05103707,0.14520034,0.32815474,0.04039055,0.09018997,0.17431720
56043,0,USWyomingWashakie,Wyoming,Washakie,2021-01-05 04:42:36.180970,2020-06-17 00:00:00.000000,0.07107800,0.20469962,0.46274760,5,15,36,3,10,24,0.04569818,0.13393621,0.31150150,0.04025948,0.09136490,0.17629792
56043,0,USWyomingWashakie,Wyoming,Washakie,2021-01-05 04:42:36.180970,2020-06-18 00:00:00.000000,0.06406055,0.18772447,0.43994116,4,14,34,3,9,23,0.04083585,0.12384817,0.29592019,0.04022063,0.09254675,0.18648145
56043,0,USWyomingWashakie,Wyoming,Washakie,2021-01-05 04:42:36.180970,2020-06-19 00:00:00.000000,0.05788651,0.17129583,0.41701883,4,13,32,2,9,21,0.03662719,0.11607558,0.28128617,0.04016432,0.09207148,0.19352259
56043,0,USWyomingWashakie,Wyoming,Washakie,2021-01-05 04:42:36.180970,2020-06-20 00:00:00.000000,0.05237248,0.15655922,0.39542198,4,12,30,2,8,20,0.03297046,0.10785532,0.26744270,0.04002873,0.09224190,0.19737299
56043,0,USWyomingWashakie,Wyoming,Washakie,2021-01-05 04:42:36.180970,2020-06-21 00:00:00.000000,0.04741951,0.14453079,0.37510556,3,11,29,2,7,19,0.02975371,0.10026485,0.25425059,0.03970292,0.09299891,0.19925336
56043,0,USWyomingWashakie,Wyoming,Washakie,2021-01-05 04:42:36.180970,2020-06-22 00:00:00.000000,0.05605516,0.16149284,0.38194225,4,12,29,2,7,18,0.02689521,0.09322463,0.24163581,0.03905039,0.09427116,0.20025680
56043,0,USWyomingWashakie,Wyoming,Washakie,2021-01-05 04:42:36.180970,2020-06-23 00:00:00.000000,0.05770841,0.18136709,0.41695671,4,14,32,2,7,18,0.02839914,0.09066630,0.23373605,0.03814746,0.09508940,0.20116626
56043,0,USWyomingWashakie,Wyoming,Washakie,2021-01-05 04:42:36.180970,2020-06-24 00:00:00.000000,0.05993990,0.18980367,0.45449616,4,14,35,2,7,18,0.03185754,0.09345617,0.23764205,0.03735537,0.09594726,0.20255517
56043,0,USWyomingWashakie,Wyoming,Washakie,2021-01-05 04:42:36.180970,2020-06-25 00:00:00.000000,0.06243472,0.20274344,0.49251782,4,15,38,2,7,17,0.03230877,0.09606093,0.22732804,0.03686837,0.09646248,0.20438223
56043,0,USWyomingWashakie,Wyoming,Washakie,2021-01-05 04:42:36.180970,2020-06-26 00:00:00.000000,0.06628630,0.21854161,0.48551146,5,17,37,2,8,17,0.03386506,0.10363890,0.22671145,0.03660196,0.09613995,0.20703169
56043,0,USWyomingWashakie,Wyoming,Washakie,2021-01-05 04:42:36.180970,2020-06-27 00:00:00.000000,0.06750447,0.22996839,0.50956380,5,17,39,2,8,17,0.03575959,0.10795002,0.22739350,0.03645699,0.09424396,0.21055892
56043,0,USWyomingWashakie,Wyoming,Washakie,2021-01-05 04:42:36.180970,2020-06-28 00:00:00.000000,0.06987898,0.24102731,0.54360986,5,18,42,2,8,18,0.03784178,0.11529900,0.24211989,0.03637514,0.09506015,0.21427889
56043,0,USWyomingWashakie,Wyoming,Washakie,2021-01-05 04:42:36.180970,2020-06-29 00:00:00.000000,0.07764259,0.26148534,0.53834169,6,20,42,3,9,20,0.03935676,0.12301739,0.25955453,0.03632619,0.09481871,0.21730452
56043,0,USWyomingWashakie,Wyoming,Washakie,2021-01-05 04:42:36.180970,2020-06-30 00:00:00.000000,0.08525875,0.27547696,0.53198512,6,21,41,3,10,21,0.04229612,0.12988578,0.27117886,0.03630921,0.09649329,0.21926582
56043,0,USWyomingWashakie,Wyoming,Washakie,2021-01-05 04:42:36.180970,2020-07-01 00:00:00.000000,0.09274049,0.28067788,0.56468375,7,21,44,3,10,21,0.04604918,0.13874050,0.28044344,0.03631727,0.09679688,0.22019177
56043,0,USWyomingWashakie,Wyoming,Washakie,2021-01-05 04:42:36.180970,2020-07-02 00:00:00.000000,0.09984535,0.29423999,0.61675872,7,22,48,3,11,22,0.05013507,0.14417803,0.28755182,0.03632489,0.09677993,0.21856001
56043,0,USWyomingWashakie,Wyoming,Washakie,2021-01-05 04:42:36.180970,2020-07-03 00:00:00.000000,0.10644583,0.29763702,0.64570025,8,23,50,4,11,23,0.05425614,0.14792517,0.29957242,0.03637148,0.09747191,0.20463062
56043,0,USWyomingWashakie,Wyoming,Washakie,2021-01-05 04:42:36.180970,2020-07-04 00:00:00.000000,0.11249342,0.30166350,0.64769265,8,23,50,4,11,23,0.05823497,0.15262754,0.29899746,0.03671414,0.09812384,0.19295541
56043,0,USWyomingWashakie,Wyoming,Washakie,2021-01-05 04:42:36.180970,2020-07-05 00:00:00.000000,0.11798690,0.30939224,0.64797754,9,24,50,4,12,23,0.06197424,0.15836484,0.30205587,0.03878660,0.09990174,0.19145047
56043,0,USWyomingWashakie,Wyoming,Washakie,2021-01-05 04:42:36.180970,2020-07-06 00:00:00.000000,0.12270087,0.31942627,0.66468219,9,24,51,5,12,23,0.06542855,0.16229935,0.30425504,0.04057181,0.10211046,0.19135761
56043,0,USWyomingWashakie,Wyoming,Washakie,2021-01-05 04:42:36.180970,2020-07-07 00:00:00.000000,0.12691290,0.32339095,0.65836641,9,25,51,5,12,24,0.06851149,0.16258744,0.31963961,0.03951805,0.10263314,0.19153077
56043,0,USWyomingWashakie,Wyoming,Washakie,2021-01-05 04:42:36.180970,2020-07-08 00:00:00.000000,0.13065341,0.32240188,0.65166097,10,25,50,5,13,25,0.07125896,0.16991300,0.32904242,0.03892777,0.10412674,0.19749249
56043,0,USWyomingWashakie,Wyoming,Washakie,2021-01-05 04:42:36.180970,2020-07-09 00:00:00.000000,0.13396537,0.32239126,0.66127156,10,25,51,5,13,26,0.07370347,0.17460275,0.34062325,0.03872618,0.10642313,0.19904215
56043,0,USWyomingWashakie,Wyoming,Washakie,2021-01-05 04:42:36.180970,2020-07-10 00:00:00.000000,0.13768417,0.32916616,0.70647544,10,25,55,5,13,28,0.07587356,0.17837464,0.36060617,0.03896224,0.10865505,0.19609451
56043,0,USWyomingWashakie,Wyoming,Washakie,2021-01-05 04:42:36.180970,2020-07-11 00:00:00.000000,0.14318270,0.32919098,0.74286489,11,25,57,6,13,29,0.07779483,0.17763002,0.37307140,0.04005387,0.11093407,0.20101879
56043,0,USWyomingWashakie,Wyoming,Washakie,2021-01-05 04:42:36.180970,2020-07-12 00:00:00.000000,0.14831982,0.33479165,0.76194207,11,26,59,6,14,28,0.07949148,0.17993263,0.36254469,0.04007982,0.11142225,0.19839781
56043,0,USWyomingWashakie,Wyoming,Washakie,2021-01-05 04:42:36.180970,2020-07-13 00:00:00.000000,0.15363090,0.34600026,0.78335300,11,27,61,6,13,30,0.08098711,0.17916452,0.39014905,0.03978891,0.11302281,0.20690948
56043,0,USWyomingWashakie,Wyoming,Washakie,2021-01-05 04:42:36.180970,2020-07-14 00:00:00.000000,0.15859464,0.36277089,0.78735866,12,28,61,6,14,32,0.08273414,0.18445655,0.41751768,0.03974813,0.11366686,0.21206901
56043,0,USWyomingWashakie,Wyoming,Washakie,2021-01-05 04:42:36.180970,2020-07-15 00:00:00.000000,0.16440189,0.38162945,0.78991749,12,29,61,6,14,33,0.08548427,0.19142840,0.43538000,0.03974351,0.11573829,0.21431020
56043,0,USWyomingWashakie,Wyoming,Washakie,2021-01-05 04:42:36.180970,2020-07-16 00:00:00.000000,0.17590576,0.37563469,0.87619490,13,29,68,6,15,34,0.08804882,0.19563771,0.43590436,0.03975402,0.11420354,0.21754127
56043,0,USWyomingWashakie,Wyoming,Washakie,2021-01-05 04:42:36.180970,2020-07-17 00:00:00.000000,0.18662671,0.38195928,0.96430767,14,29,75,7,16,33,0.09147650,0.20556800,0.42948303,0.03988374,0.11785898,0.21504120
56043,0,USWyomingWashakie,Wyoming,Washakie,2021-01-05 04:42:36.180970,2020-07-18 00:00:00.000000,0.17804681,0.39124935,1.02291793,13,30,79,7,16,34,0.09773255,0.20701253,0.43917157,0.04098076,0.11912476,0.20480288
56043,0,USWyomingWashakie,Wyoming,Washakie,2021-01-05 04:42:36.180970,2020-07-19 00:00:00.000000,0.17244507,0.39823728,1.05818550,13,31,82,7,16,35,0.09713017,0.20878864,0.46059657,0.04087185,0.11718407,0.20547983
56043,0,USWyomingWashakie,Wyoming,Washakie,2021-01-05 04:42:36.180970,2020-07-20 00:00:00.000000,0.19660954,0.42673410,1.10069530,15,33,85,7,16,36,0.09465732,0.21257800,0.46963044,0.04088001,0.11860002,0.22251658
56043,0,USWyomingWashakie,Wyoming,Washakie,2021-01-05 04:42:36.180970,2020-07-21 00:00:00.000000,0.24890746,0.46625499,1.14149743,19,36,89,7,17,38,0.09537834,0.22152204,0.48838858,0.04116989,0.11746927,0.22702269
56043,0,USWyomingWashakie,Wyoming,Washakie,2021-01-05 04:42:36.180970,2020-07-22 00:00:00.000000,0.25161581,0.49869776,1.15199247,19,38,89,9,17,39,0.12300067,0.22912213,0.50734169,0.04271541,0.11791228,0.22775250
56043,0,USWyomingWashakie,Wyoming,Washakie,2021-01-05 04:42:36.180970,2020-07-23 00:00:00.000000,0.25459768,0.51693146,1.15099879,19,40,89,9,19,41,0.12403668,0.24368937,0.52618543,0.04687036,0.12054448,0.23600161
56043,0,USWyomingWashakie,Wyoming,Washakie,2021-01-05 04:42:36.180970,2020-07-24 00:00:00.000000,0.25781423,0.52703983,1.14728568,20,41,89,9,20,42,0.12531679,0.25651425,0.54475177,0.05000680,0.12416722,0.24020467
56043,0,USWyomingWashakie,Wyoming,Washakie,2021-01-05 04:42:36.180970,2020-07-25 00:00:00.000000,0.26151534,0.56043420,1.26591698,20,43,98,9,21,43,0.12677017,0.27559471,0.56298445,0.04829953,0.12345771,0.24403671
56043,0,USWyomingWashakie,Wyoming,Washakie,2021-01-05 04:42:36.180970,2020-07-26 00:00:00.000000,0.26380441,0.56692485,1.33694126,20,44,104,10,22,46,0.12831301,0.28396906,0.59794654,0.04636849,0.12770852,0.24986863
56043,0,USWyomingWashakie,Wyoming,Washakie,2021-01-05 04:42:36.180970,2020-07-27 00:00:00.000000,0.36053085,0.67397970,1.42252554,28,52,111,10,22,50,0.12964000,0.29217863,0.64614690,0.04492522,0.12873838,0.25124889
56043,0,USWyomingWashakie,Wyoming,Washakie,2021-01-05 04:42:36.180970,2020-07-28 00:00:00.000000,0.43894717,0.74673495,1.52409632,34,58,118,11,24,54,0.15009905,0.32008500,0.69515364,0.04516658,0.12926088,0.25232742
56043,0,USWyomingWashakie,Wyoming,Washakie,2021-01-05 04:42:36.180970,2020-07-29 00:00:00.000000,0.53192181,0.85150292,1.58982175,41,66,124,14,28,58,0.18125672,0.35886551,0.75159786,0.04737691,0.12961341,0.25487084
56043,0,USWyomingWashakie,Wyoming,Washakie,2021-01-05 04:42:36.180970,2020-07-30 00:00:00.000000,0.64280969,0.94677147,1.67512106,50,73,130,16,31,63,0.21331650,0.39771048,0.81018426,0.04988570,0.12941989,0.25656417
56043,0,USWyomingWashakie,Wyoming,Washakie,2021-01-05 04:42:36.180970,2020-07-31 00:00:00.000000,0.72865901,1.04289829,1.75923864,56,81,137,19,34,66,0.25004737,0.44695822,0.85836738,0.05115099,0.12725653,0.26198103
56043,0,USWyomingWashakie,Wyoming,Washakie,2021-01-05 04:42:36.180970,2020-08-01 00:00:00.000000,0.80862823,1.14238447,1.84139127,63,89,143,22,38,69,0.29307154,0.49914097,0.89655682,0.05138339,0.12435072,0.26649435
56043,0,USWyomingWashakie,Wyoming,Washakie,2021-01-05 04:42:36.180970,2020-08-02 00:00:00.000000,0.86408623,1.21708927,1.92076362,67,94,149,25,43,72,0.32607385,0.55370405,0.93270286,0.05113659,0.12555665,0.26751228
56043,0,USWyomingWashakie,Wyoming,Washakie,2021-01-05 04:42:36.180970,2020-08-03 00:00:00.000000,0.91714227,1.25532500,1.91912923,71,97,149,28,47,77,0.36257627,0.60425058,0.98800192,0.05071789,0.12740577,0.26766835
56043,0,USWyomingWashakie,Wyoming,Washakie,2021-01-05 04:42:36.180970,2020-08-04 00:00:00.000000,0.94164889,1.29760246,1.91225805,73,101,149,30,49,80,0.38914161,0.63527396,1.02549967,0.05028742,0.12705515,0.26773985
56043,0,USWyomingWashakie,Wyoming,Washakie,2021-01-05 04:42:36.180970,2020-08-05 00:00:00.000000,0.93383632,1.34743291,1.89791931,72,105,148,31,52,81,0.40883158,0.66945113,1.04688469,0.04992616,0.12630708,0.26766529
56043,0,USWyomingWashakie,Wyoming,Washakie,2021-01-05 04:42:36.180970,2020-08-06 00:00:00.000000,0.94865190,1.39181323,1.90883363,74,108,148,33,55,82,0.42690070,0.70516926,1.05657782,0.04976190,0.12815806,0.26804430
56043,0,USWyomingWashakie,Wyoming,Washakie,2021-01-05 04:42:36.180970,2020-08-07 00:00:00.000000,0.99159507,1.43525061,1.87818486,77,112,146,36,57,82,0.46356004,0.74027246,1.05786635,0.04968180,0.12778920,0.26848533
56043,0,USWyomingWashakie,Wyoming,Washakie,2021-01-05 04:42:36.180970,2020-08-08 00:00:00.000000,0.99728364,1.46168031,1.92836020,77,114,150,38,58,82,0.48747969,0.75440961,1.05318161,0.04963734,0.12695878,0.26780520
56043,0,USWyomingWashakie,Wyoming,Washakie,2021-01-05 04:42:36.180970,2020-08-09 00:00:00.000000,0.99963833,1.48263264,1.99380991,78,115,155,36,60,81,0.47375569,0.77851690,1.04738851,0.04966082,0.12674190,0.26733159
56043,0,USWyomingWashakie,Wyoming,Washakie,2021-01-05 04:42:36.180970,2020-08-10 00:00:00.000000,0.95989314,1.44977690,1.97000171,74,113,153,35,62,82,0.45841203,0.80048030,1.05148905,0.04989667,0.12525564,0.26318196
56043,0,USWyomingWashakie,Wyoming,Washakie,2021-01-05 04:42:36.180970,2020-08-11 00:00:00.000000,0.91503280,1.41075597,1.94198853,71,110,151,35,63,81,0.45002675,0.81028021,1.04706923,0.05087687,0.12492592,0.25726595
56043,0,USWyomingWashakie,Wyoming,Washakie,2021-01-05 04:42:36.180970,2020-08-12 00:00:00.000000,0.87095318,1.36637233,1.90021944,67,106,148,34,62,81,0.44196855,0.79503939,1.03851807,0.05288526,0.12075051,0.25428665
56043,0,USWyomingWashakie,Wyoming,Washakie,2021-01-05 04:42:36.180970,2020-08-13 00:00:00.000000,0.82761865,1.30673526,1.83739343,64,101,143,33,60,81,0.43109466,0.77893836,1.04025344,0.05383899,0.11426159,0.24704058
56043,0,USWyomingWashakie,Wyoming,Washakie,2021-01-05 04:42:36.180970,2020-08-14 00:00:00.000000,0.78646725,1.25209892,1.80695259,61,97,141,32,58,79,0.41874690,0.75130839,1.01787551,0.05336781,0.11522058,0.24346411
56043,0,USWyomingWashakie,Wyoming,Washakie,2021-01-05 04:42:36.180970,2020-08-15 00:00:00.000000,0.74803893,1.19414394,1.82629962,58,93,142,31,56,82,0.40095775,0.72167197,1.05398884,0.05319027,0.11354553,0.23403356
56043,0,USWyomingWashakie,Wyoming,Washakie,2021-01-05 04:42:36.180970,2020-08-16 00:00:00.000000,0.71241797,1.13849649,1.80741444,55,88,141,29,53,81,0.38052256,0.68730084,1.04299490,0.05321761,0.11581574,0.22107750
56043,0,USWyomingWashakie,Wyoming,Washakie,2021-01-05 04:42:36.180970,2020-08-17 00:00:00.000000,0.69137037,1.07436093,1.75176103,53,83,136,28,51,80,0.36097413,0.66337512,1.03197475,0.05322610,0.11395189,0.21352002
56043,0,USWyomingWashakie,Wyoming,Washakie,2021-01-05 04:42:36.180970,2020-08-18 00:00:00.000000,0.66657231,1.04624022,1.71104840,52,81,133,26,49,79,0.34272980,0.63517609,1.01314592,0.05323195,0.11369694,0.21018971
56043,0,USWyomingWashakie,Wyoming,Washakie,2021-01-05 04:42:36.180970,2020-08-19 00:00:00.000000,0.62445268,1.00524014,1.69134617,48,78,132,25,47,77,0.32581389,0.61253578,0.98943707,0.05325489,0.11218154,0.20013313
56043,0,USWyomingWashakie,Wyoming,Washakie,2021-01-05 04:42:36.180970,2020-08-20 00:00:00.000000,0.60492246,0.95290706,1.67227818,47,74,130,24,46,75,0.31018226,0.59236290,0.97113511,0.05329274,0.11150783,0.19702620
56043,0,USWyomingWashakie,Wyoming,Washakie,2021-01-05 04:42:36.180970,2020-08-21 00:00:00.000000,0.56983996,0.90576705,1.64130030,44,70,128,23,43,75,0.29580703,0.55926873,0.96214795,0.05333579,0.11304869,0.18524825
56043,0,USWyomingWashakie,Wyoming,Washakie,2021-01-05 04:42:36.180970,2020-08-22 00:00:00.000000,0.53728009,0.84767633,1.59156786,41,66,124,22,42,74,0.28556803,0.54085905,0.95262194,0.05363690,0.11176043,0.18305935
56043,0,USWyomingWashakie,Wyoming,Washakie,2021-01-05 04:42:36.180970,2020-08-23 00:00:00.000000,0.50789536,0.80613093,1.58564706,39,62,123,21,40,73,0.27724838,0.52137190,0.94283531,0.05399975,0.11305310,0.18225891
56043,0,USWyomingWashakie,Wyoming,Washakie,2021-01-05 04:42:36.180970,2020-08-24 00:00:00.000000,0.49002903,0.77228951,1.52174534,38,60,118,21,39,72,0.26990517,0.50113063,0.93295031,0.05428836,0.11173499,0.18126391
56043,0,USWyomingWashakie,Wyoming,Washakie,2021-01-05 04:42:36.180970,2020-08-25 00:00:00.000000,0.48920537,0.74462594,1.45788314,38,58,113,20,37,71,0.26364743,0.47595810,0.92160328,0.05447765,0.11014477,0.18195256
56043,0,USWyomingWashakie,Wyoming,Washakie,2021-01-05 04:42:36.180970,2020-08-26 00:00:00.000000,0.47491108,0.72243393,1.40852022,37,56,109,20,35,70,0.25938331,0.45335577,0.90932988,0.05464347,0.10906110,0.18692342
56043,0,USWyomingWashakie,Wyoming,Washakie,2021-01-05 04:42:36.180970,2020-08-27 00:00:00.000000,0.45601996,0.70275398,1.36747695,35,54,106,19,33,69,0.25180493,0.43058074,0.89649529,0.05488136,0.11005635,0.18747399
56043,0,USWyomingWashakie,Wyoming,Washakie,2021-01-05 04:42:36.180970,2020-08-28 00:00:00.000000,0.43863224,0.68699436,1.32852258,34,53,103,19,32,68,0.24430701,0.41767861,0.88334430,0.05490560,0.10902847,0.18936837
56043,0,USWyomingWashakie,Wyoming,Washakie,2021-01-05 04:42:36.180970,2020-08-29 00:00:00.000000,0.42219277,0.66129400,1.29220226,32,51,100,18,31,67,0.23804552,0.39985678,0.87002164,0.05475663,0.11007603,0.18845044
56043,0,USWyomingWashakie,Wyoming,Washakie,2021-01-05 04:42:36.180970,2020-08-30 00:00:00.000000,0.40694133,0.64263397,1.25948200,31,50,98,18,30,66,0.23137673,0.38674545,0.85013530,0.05601704,0.10999617,0.19081384
56043,0,USWyomingWashakie,Wyoming,Washakie,2021-01-05 04:42:36.180970,2020-08-31 00:00:00.000000,0.40207249,0.61846809,1.24148083,31,48,96,17,29,64,0.21891013,0.37290358,0.82695682,0.05662468,0.11120707,0.19556685
56043,0,USWyomingWashakie,Wyoming,Washakie,2021-01-05 04:42:36.180970,2020-09-01 00:00:00.000000,0.38872288,0.59418452,1.24769296,30,46,97,16,28,62,0.21433202,0.36907594,0.80378632,0.05968472,0.11254224,0.20246220
56043,0,USWyomingWashakie,Wyoming,Washakie,2021-01-05 04:42:36.180970,2020-09-02 00:00:00.000000,0.37701952,0.57920362,1.25479078,29,45,97,16,28,60,0.21402813,0.36054614,0.78093016,0.06139459,0.11486680,0.20242547
56043,0,USWyomingWashakie,Wyoming,Washakie,2021-01-05 04:42:36.180970,2020-09-03 00:00:00.000000,0.37630767,0.56202411,1.23497133,29,43,96,16,26,59,0.20986217,0.34268436,0.75755868,0.06254125,0.11886028,0.20218534
56043,0,USWyomingWashakie,Wyoming,Washakie,2021-01-05 04:42:36.180970,2020-09-04 00:00:00.000000,0.36492874,0.56191826,1.19393051,28,43,93,15,25,56,0.20351218,0.32501714,0.72678717,0.06435321,0.12184969,0.20158399
56043,0,USWyomingWashakie,Wyoming,Washakie,2021-01-05 04:42:36.180970,2020-09-05 00:00:00.000000,0.35414891,0.56189715,1.16041048,27,43,90,15,24,55,0.19579236,0.31306483,0.70620866,0.06572669,0.11800272,0.20021631
56043,0,USWyomingWashakie,Wyoming,Washakie,2021-01-05 04:42:36.180970,2020-09-06 00:00:00.000000,0.34398272,0.54888045,1.13527683,26,42,88,14,24,55,0.18686059,0.31135513,0.70880605,0.06686143,0.12266420,0.19817044
56043,0,USWyomingWashakie,Wyoming,Washakie,2021-01-05 04:42:36.180970,2020-09-07 00:00:00.000000,0.33812178,0.53538526,1.10540622,26,41,86,14,23,54,0.17948407,0.30558201,0.69628207,0.06631478,0.12901147,0.20545847
56043,0,USWyomingWashakie,Wyoming,Washakie,2021-01-05 04:42:36.180970,2020-09-08 00:00:00.000000,0.32508316,0.53483103,1.08719978,25,41,84,14,23,53,0.18224763,0.29537412,0.68373366,0.06627682,0.12641756,0.22102124
56043,0,USWyomingWashakie,Wyoming,Washakie,2021-01-05 04:42:36.180970,2020-09-09 00:00:00.000000,0.31301003,0.52581201,1.08287942,24,41,84,13,22,52,0.17539181,0.29319645,0.67133872,0.06953842,0.13119757,0.22173239
56043,0,USWyomingWashakie,Wyoming,Washakie,2021-01-05 04:42:36.180970,2020-09-10 00:00:00.000000,0.30196742,0.53406580,1.07826861,23,41,84,13,22,51,0.16889270,0.29420322,0.65917862,0.06949813,0.13596716,0.20883340
56043,0,USWyomingWashakie,Wyoming,Washakie,2021-01-05 04:42:36.180970,2020-09-11 00:00:00.000000,0.29187411,0.53259939,1.07183441,22,41,83,12,22,51,0.16075607,0.29215111,0.65495474,0.06776318,0.13941648,0.21157404
56043,0,USWyomingWashakie,Wyoming,Washakie,2021-01-05 04:42:36.180970,2020-09-12 00:00:00.000000,0.28089292,0.53521703,1.06247995,21,41,82,12,22,50,0.15632850,0.29439376,0.65147986,0.07090478,0.14094511,0.22620332
56043,0,USWyomingWashakie,Wyoming,Washakie,2021-01-05 04:42:36.180970,2020-09-13 00:00:00.000000,0.27117680,0.52346691,1.05111625,21,40,82,11,22,50,0.15209488,0.29409340,0.64717462,0.07268158,0.14313402,0.23903996
56043,0,USWyomingWashakie,Wyoming,Washakie,2021-01-05 04:42:36.180970,2020-09-14 00:00:00.000000,0.27146063,0.53715277,1.05065677,21,41,82,11,23,50,0.14761549,0.29623703,0.64188232,0.07733938,0.14523686,0.24377128
56043,0,USWyomingWashakie,Wyoming,Washakie,2021-01-05 04:42:36.180970,2020-09-15 00:00:00.000000,0.26647960,0.56466906,1.08012418,20,44,84,11,22,49,0.14423245,0.29352561,0.63846121,0.08120794,0.14785211,0.24487778
56043,0,USWyomingWashakie,Wyoming,Washakie,2021-01-05 04:42:36.180970,2020-09-16 00:00:00.000000,0.26218885,0.56764432,1.14305887,20,44,89,11,23,49,0.14539183,0.29686730,0.63625726,0.08331837,0.15040573,0.24499169
56043,0,USWyomingWashakie,Wyoming,Washakie,2021-01-05 04:42:36.180970,2020-09-17 00:00:00.000000,0.25857208,0.56321074,1.19111920,20,43,92,11,22,51,0.14149545,0.29346558,0.65909657,0.08479578,0.15270252,0.24469451
56043,0,USWyomingWashakie,Wyoming,Washakie,2021-01-05 04:42:36.180970,2020-09-18 00:00:00.000000,0.25579219,0.56243311,1.19172412,19,43,93,10,22,52,0.13843637,0.29104289,0.66884088,0.08684857,0.15386361,0.24386250
56043,0,USWyomingWashakie,Wyoming,Washakie,2021-01-05 04:42:36.180970,2020-09-19 00:00:00.000000,0.25425449,0.55251996,1.19189382,19,43,93,10,22,52,0.13628036,0.29017198,0.66851022,0.09270505,0.16090975,0.24205168
56043,0,USWyomingWashakie,Wyoming,Washakie,2021-01-05 04:42:36.180970,2020-09-20 00:00:00.000000,0.24963732,0.56145900,1.18954856,19,43,92,10,22,52,0.13507132,0.28719622,0.66838434,0.10055619,0.16530156,0.24840548
56043,0,USWyomingWashakie,Wyoming,Washakie,2021-01-05 04:42:36.180970,2020-09-21 00:00:00.000000,0.26125407,0.56053397,1.16267280,20,43,90,10,22,52,0.13471846,0.28914244,0.66782616,0.09742526,0.17075341,0.24503968
56043,0,USWyomingWashakie,Wyoming,Washakie,2021-01-05 04:42:36.180970,2020-09-22 00:00:00.000000,0.25970430,0.55620159,1.13520723,20,43,88,10,22,51,0.13781786,0.29277494,0.66163786,0.09693851,0.17761090,0.23959179
56043,0,USWyomingWashakie,Wyoming,Washakie,2021-01-05 04:42:36.180970,2020-09-23 00:00:00.000000,0.25757531,0.56918919,1.10726130,20,44,86,10,23,50,0.13781056,0.29520788,0.65172158,0.09694021,0.18054906,0.24982382
56043,0,USWyomingWashakie,Wyoming,Washakie,2021-01-05 04:42:36.180970,2020-09-24 00:00:00.000000,0.26646520,0.57412695,1.10344765,20,44,86,10,23,49,0.13940149,0.29946343,0.63948072,0.09709708,0.18524691,0.27309382
56043,0,USWyomingWashakie,Wyoming,Washakie,2021-01-05 04:42:36.180970,2020-09-25 00:00:00.000000,0.27620474,0.59839455,1.10067652,21,46,85,11,23,49,0.14327041,0.30628021,0.62974714,0.09750712,0.18832504,0.29504076
56043,0,USWyomingWashakie,Wyoming,Washakie,2021-01-05 04:42:36.180970,2020-09-26 00:00:00.000000,0.28574703,0.61951918,1.09680829,22,48,85,11,24,49,0.14650280,0.30792533,0.62790792,0.09849578,0.19332902,0.29599753
56043,0,USWyomingWashakie,Wyoming,Washakie,2021-01-05 04:42:36.180970,2020-09-27 00:00:00.000000,0.29509598,0.63012833,1.10982030,23,49,86,11,24,49,0.14585522,0.31352085,0.62878024,0.10057738,0.20149205,0.30873634
56043,0,USWyomingWashakie,Wyoming,Washakie,2021-01-05 04:42:36.180970,2020-09-28 00:00:00.000000,0.30624171,0.64574107,1.15136676,23,50,89,11,25,49,0.14586067,0.32573467,0.63210248,0.10399864,0.20732276,0.31460550
56043,0,USWyomingWashakie,Wyoming,Washakie,2021-01-05 04:42:36.180970,2020-09-29 00:00:00.000000,0.31813537,0.65814520,1.19148673,24,51,92,11,25,49,0.15235603,0.33295662,0.63595691,0.11007314,0.21308214,0.31617446
56043,0,USWyomingWashakie,Wyoming,Washakie,2021-01-05 04:42:36.180970,2020-09-30 00:00:00.000000,0.33313715,0.67863499,1.22936297,26,52,95,12,26,49,0.15656082,0.33612112,0.64019228,0.12640515,0.21636744,0.31600560
56043,0,USWyomingWashakie,Wyoming,Washakie,2021-01-05 04:42:36.180970,2020-10-01 00:00:00.000000,0.35980573,0.69888106,1.26535967,28,54,98,12,26,50,0.16278371,0.34568463,0.65055677,0.13531894,0.22135068,0.32075141
56043,0,USWyomingWashakie,Wyoming,Washakie,2021-01-05 04:42:36.180970,2020-10-02 00:00:00.000000,0.37146518,0.71210270,1.29976284,28,55,101,13,27,51,0.17117161,0.34992984,0.66274651,0.14262512,0.22977932,0.35319310
56043,0,USWyomingWashakie,Wyoming,Washakie,2021-01-05 04:42:36.180970,2020-10-03 00:00:00.000000,0.39439230,0.70752635,1.33298994,30,55,104,14,27,52,0.17997359,0.35771432,0.67221298,0.15487264,0.24130796,0.36317659
56043,0,USWyomingWashakie,Wyoming,Washakie,2021-01-05 04:42:36.180970,2020-10-04 00:00:00.000000,0.40758188,0.73101578,1.36730324,31,57,106,14,28,53,0.18939896,0.36986985,0.68275268,0.16663397,0.24660469,0.37392919
56043,0,USWyomingWashakie,Wyoming,Washakie,2021-01-05 04:42:36.180970,2020-10-05 00:00:00.000000,0.42998541,0.75843444,1.39502797,33,59,108,15,29,54,0.20053306,0.38222736,0.70185077,0.18256783,0.25197706,0.38341997
56043,0,USWyomingWashakie,Wyoming,Washakie,2021-01-05 04:42:36.180970,2020-10-06 00:00:00.000000,0.46241507,0.78293561,1.42891562,36,61,111,17,30,56,0.22388177,0.39688067,0.71930984,0.18469434,0.26309451,0.38358506
56043,0,USWyomingWashakie,Wyoming,Washakie,2021-01-05 04:42:36.180970,2020-10-07 00:00:00.000000,0.47829538,0.81882293,1.46340919,37,63,114,19,31,57,0.25435130,0.40874503,0.73739724,0.18848164,0.26802935,0.38699117
56043,0,USWyomingWashakie,Wyoming,Washakie,2021-01-05 04:42:36.180970,2020-10-08 00:00:00.000000,0.49682982,0.85211046,1.49798020,38,66,116,20,32,60,0.26294080,0.41721428,0.77554493,0.19123172,0.28118291,0.39329308
56043,0,USWyomingWashakie,Wyoming,Washakie,2021-01-05 04:42:36.180970,2020-10-09 00:00:00.000000,0.51965371,0.90057205,1.53273417,40,70,119,21,33,63,0.27090317,0.43219269,0.81931412,0.19411564,0.29198607,0.40429344
56043,0,USWyomingWashakie,Wyoming,Washakie,2021-01-05 04:42:36.180970,2020-10-10 00:00:00.000000,0.54247902,0.95124417,1.59010443,42,74,124,21,35,67,0.27848216,0.44912289,0.86849875,0.19962318,0.30246053,0.41573805
56043,0,USWyomingWashakie,Wyoming,Washakie,2021-01-05 04:42:36.180970,2020-10-11 00:00:00.000000,0.54951849,0.99969875,1.72359965,42,78,134,22,37,72,0.28593413,0.48125442,0.92297336,0.21004751,0.31527210,0.43159914
56043,0,USWyomingWashakie,Wyoming,Washakie,2021-01-05 04:42:36.180970,2020-10-12 00:00:00.000000,0.58021548,1.02714254,1.77805772,45,80,138,22,39,76,0.29362021,0.50170044,0.98123055,0.21888973,0.32612511,0.45904597
56043,0,USWyomingWashakie,Wyoming,Washakie,2021-01-05 04:42:36.180970,2020-10-13 00:00:00.000000,0.59504960,1.08247344,1.83405720,46,84,143,23,40,79,0.29751253,0.51988598,1.01339214,0.22047487,0.33428807,0.47804055
56043,0,USWyomingWashakie,Wyoming,Washakie,2021-01-05 04:42:36.180970,2020-10-14 00:00:00.000000,0.61375500,1.13934694,1.88872381,47,88,147,24,41,81,0.30939670,0.53692124,1.04255235,0.22495080,0.34405422,0.49591475
56043,0,USWyomingWashakie,Wyoming,Washakie,2021-01-05 04:42:36.180970,2020-10-15 00:00:00.000000,0.64850964,1.17879556,1.94217046,50,92,151,25,43,83,0.32436890,0.55797293,1.07012829,0.23694922,0.35561347,0.50868364
56043,0,USWyomingWashakie,Wyoming,Washakie,2021-01-05 04:42:36.180970,2020-10-16 00:00:00.000000,0.68921415,1.22629337,1.99752165,53,95,155,26,46,85,0.34167881,0.59111596,1.09691370,0.24730244,0.36514817,0.53032813
56043,0,USWyomingWashakie,Wyoming,Washakie,2021-01-05 04:42:36.180970,2020-10-17 00:00:00.000000,0.74066036,1.26132424,2.10393947,57,98,164,28,47,87,0.36181827,0.60947258,1.12342711,0.25105133,0.37025081,0.55457664
56043,0,USWyomingWashakie,Wyoming,Washakie,2021-01-05 04:42:36.180970,2020-10-18 00:00:00.000000,0.78464222,1.31601434,2.15023712,61,102,167,30,50,93,0.38573778,0.64342346,1.19421312,0.26782193,0.38351592,0.55740555
56043,0,USWyomingWashakie,Wyoming,Washakie,2021-01-05 04:42:36.180970,2020-10-19 00:00:00.000000,0.86896946,1.41304486,2.20788127,67,110,172,31,52,99,0.40628477,0.66904174,1.27714495,0.27045050,0.39834582,0.58442250
56043,0,USWyomingWashakie,Wyoming,Washakie,2021-01-05 04:42:36.180970,2020-10-20 00:00:00.000000,0.93803872,1.48383382,2.29558176,73,115,179,34,54,102,0.43978133,0.70247952,1.31521782,0.26872493,0.40688352,0.58861890
56043,0,USWyomingWashakie,Wyoming,Washakie,2021-01-05 04:42:36.180970,2020-10-21 00:00:00.000000,0.99625010,1.56773200,2.39605523,77,122,187,36,57,105,0.46355016,0.73481980,1.35080459,0.27445360,0.41925344,0.59018222
56043,0,USWyomingWashakie,Wyoming,Washakie,2021-01-05 04:42:36.180970,2020-10-22 00:00:00.000000,1.04769810,1.65738313,2.50394764,81,129,195,40,60,108,0.51915433,0.78110056,1.39514076,0.29948475,0.43723423,0.59151596
56043,0,USWyomingWashakie,Wyoming,Washakie,2021-01-05 04:42:36.180970,2020-10-23 00:00:00.000000,1.10429326,1.75718439,2.64959487,86,137,206,43,64,112,0.56001652,0.83021371,1.44684269,0.33041497,0.45495729,0.62233889
56043,0,USWyomingWashakie,Wyoming,Washakie,2021-01-05 04:42:36.180970,2020-10-24 00:00:00.000000,1.16810236,1.84674007,2.82078833,91,144,220,46,67,117,0.59794738,0.87059719,1.50500178,0.33649121,0.47199270,0.66409607
56043,0,USWyomingWashakie,Wyoming,Washakie,2021-01-05 04:42:36.180970,2020-10-25 00:00:00.000000,1.24088850,1.97005734,3.01040509,96,153,234,50,73,122,0.64095684,0.93986180,1.56960212,0.35041523,0.49713309,0.67123120
56043,0,USWyomingWashakie,Wyoming,Washakie,2021-01-05 04:42:36.180970,2020-10-26 00:00:00.000000,1.35352077,2.12396006,3.22984765,105,165,252,54,78,128,0.69294906,1.00399323,1.64189561,0.35979569,0.51644544,0.69355671
56043,0,USWyomingWashakie,Wyoming,Washakie,2021-01-05 04:42:36.180970,2020-10-27 00:00:00.000000,1.50027242,2.29635477,3.44145141,117,179,268,58,84,135,0.75508330,1.07748586,1.73178336,0.36579407,0.53201835,0.70493327
56043,0,USWyomingWashakie,Wyoming,Washakie,2021-01-05 04:42:36.180970,2020-10-28 00:00:00.000000,1.66085125,2.49846812,3.63271391,129,195,283,63,89,141,0.80782514,1.14533763,1.81615703,0.37628467,0.55371305,0.72681441
56043,0,USWyomingWashakie,Wyoming,Washakie,2021-01-05 04:42:36.180970,2020-10-29 00:00:00.000000,1.83566216,2.70173060,3.92348195,143,210,306,67,96,149,0.86363965,1.23373431,1.90915486,0.39116399,0.57709231,0.72768585
56043,0,USWyomingWashakie,Wyoming,Washakie,2021-01-05 04:42:36.180970,2020-10-30 00:00:00.000000,2.00649681,2.96925728,4.25843756,156,231,332,72,104,157,0.93490208,1.33280316,2.01503379,0.41714256,0.60118438,0.73831774
56043,0,USWyomingWashakie,Wyoming,Washakie,2021-01-05 04:42:36.180970,2020-10-31 00:00:00.000000,2.19884792,3.23343222,4.65614142,171,252,363,78,113,167,1.00791059,1.45740206,2.14007773,0.43603383,0.61734943,0.75253471
56043,0,USWyomingWashakie,Wyoming,Washakie,2021-01-05 04:42:36.180970,2020-11-01 00:00:00.000000,2.44593042,3.53233796,5.08956797,190,275,397,85,123,180,1.09100370,1.58284875,2.30627515,0.44963419,0.63361549,0.80568629
56043,0,USWyomingWashakie,Wyoming,Washakie,2021-01-05 04:42:36.180970,2020-11-02 00:00:00.000000,2.70512509,3.82601314,5.58367059,211,298,435,92,134,199,1.18676985,1.71894863,2.55039795,0.45211423,0.64585539,0.82871130
56043,0,USWyomingWashakie,Wyoming,Washakie,2021-01-05 04:42:36.180970,2020-11-03 00:00:00.000000,2.97575793,4.15100920,6.07076039,232,323,473,100,145,220,1.29308233,1.85874697,2.82047970,0.45302215,0.65120797,0.85376583
56043,0,USWyomingWashakie,Wyoming,Washakie,2021-01-05 04:42:36.180970,2020-11-04 00:00:00.000000,3.20402453,4.48501082,6.67548069,250,350,521,108,157,243,1.39553592,2.01545981,3.11419653,0.46170328,0.66737362,0.85935066
56043,0,USWyomingWashakie,Wyoming,Washakie,2021-01-05 04:42:36.180970,2020-11-05 00:00:00.000000,3.46171625,4.88097803,7.35598530,270,380,574,119,172,268,1.53049924,2.20853258,3.43432232,0.46865460,0.68581148,0.86074186
56043,0,USWyomingWashakie,Wyoming,Washakie,2021-01-05 04:42:36.180970,2020-11-06 00:00:00.000000,3.82350142,5.33563029,8.08317618,298,416,630,131,188,295,1.68806512,2.41870533,3.78557756,0.47285323,0.70441145,0.86122993
56043,0,USWyomingWashakie,Wyoming,Washakie,2021-01-05 04:42:36.180970,2020-11-07 00:00:00.000000,4.24507494,5.85414776,8.82207644,331,456,688,145,206,325,1.87018364,2.64206334,4.17651116,0.47905838,0.72952305,0.89176606
56043,0,USWyomingWashakie,Wyoming,Washakie,2021-01-05 04:42:36.180970,2020-11-08 00:00:00.000000,4.70692990,6.43685875,9.68274834,367,502,755,161,224,358,2.06932330,2.87800656,4.59420160,0.50819310,0.73796569,0.91541150
56043,0,USWyomingWashakie,Wyoming,Washakie,2021-01-05 04:42:36.180970,2020-11-09 00:00:00.000000,5.06212150,7.06283767,10.69082406,395,551,834,178,244,394,2.28095849,3.12654477,5.05451767,0.54186618,0.74548441,0.92773785
56043,0,USWyomingWashakie,Wyoming,Washakie,2021-01-05 04:42:36.180970,2020-11-10 00:00:00.000000,5.46251711,7.71016270,11.77486652,426,601,919,196,265,434,2.51639105,3.40141473,5.56870488,0.54388202,0.75629227,0.93054327
56043,0,USWyomingWashakie,Wyoming,Washakie,2021-01-05 04:42:36.180970,2020-11-11 00:00:00.000000,5.96849734,8.44958916,13.12575018,465,659,1024,216,290,478,2.77429678,3.72608072,6.13392237,0.55249693,0.76621120,0.92468001
56043,0,USWyomingWashakie,Wyoming,Washakie,2021-01-05 04:42:36.180970,2020-11-12 00:00:00.000000,6.68234472,9.23242282,14.34789438,521,720,1119,238,318,526,3.05690248,4.08267826,6.74806818,0.58104467,0.77321749,0.93284708
56043,0,USWyomingWashakie,Wyoming,Washakie,2021-01-05 04:42:36.180970,2020-11-13 00:00:00.000000,7.47254777,10.14168243,15.58475611,583,791,1216,258,349,577,3.30921479,4.47407301,7.39556306,0.59447246,0.77064682,0.91191418
56043,0,USWyomingWashakie,Wyoming,Washakie,2021-01-05 04:42:36.180970,2020-11-14 00:00:00.000000,8.05268153,11.16713101,16.85465128,628,871,1315,279,385,627,3.58119455,4.94254882,8.04484450,0.58987292,0.77121493,0.92149136
56043,0,USWyomingWashakie,Wyoming,Washakie,2021-01-05 04:42:36.180970,2020-11-15 00:00:00.000000,8.56820402,12.06737763,18.27510212,668,941,1426,302,420,681,3.87112315,5.39134947,8.73124869,0.58316782,0.76209544,0.93227438
56043,0,USWyomingWashakie,Wyoming,Washakie,2021-01-05 04:42:36.180970,2020-11-16 00:00:00.000000,9.04986615,13.11462111,19.70498183,706,1023,1537,326,459,729,4.17681719,5.88634596,9.35238192,0.56265674,0.75608740,0.92727688
56043,0,USWyomingWashakie,Wyoming,Washakie,2021-01-05 04:42:36.180970,2020-11-17 00:00:00.000000,9.53006831,14.10428001,21.16599309,743,1100,1652,351,497,785,4.49755919,6.37693994,10.06210948,0.53171284,0.73734788,0.92381560
56043,0,USWyomingWashakie,Wyoming,Washakie,2021-01-05 04:42:36.180970,2020-11-18 00:00:00.000000,10.15398980,15.17062710,22.19417356,792,1184,1732,377,536,838,4.83209222,6.87817373,10.74811736,0.51390870,0.72767791,0.91529223
56043,0,USWyomingWashakie,Wyoming,Washakie,2021-01-05 04:42:36.180970,2020-11-19 00:00:00.000000,10.87687366,16.19312600,23.05824435,848,1263,1799,404,574,889,5.17955100,7.35964923,11.39053489,0.51006603,0.71436435,0.88095651
56043,0,USWyomingWashakie,Wyoming,Washakie,2021-01-05 04:42:36.180970,2020-11-20 00:00:00.000000,11.62249162,17.12409015,24.56961978,907,1336,1917,432,607,934,5.53921768,7.78626684,11.97858405,0.50495437,0.70972246,0.86306863
56043,0,USWyomingWashakie,Wyoming,Washakie,2021-01-05 04:42:36.180970,2020-11-21 00:00:00.000000,12.38425414,18.02203564,26.13482018,966,1406,2039,461,641,976,5.90952366,8.22264324,12.50905025,0.49769630,0.66780855,0.85495532
56043,0,USWyomingWashakie,Wyoming,Washakie,2021-01-05 04:42:36.180970,2020-11-22 00:00:00.000000,13.14550785,18.73385244,27.66730789,1026,1462,2159,482,685,1020,6.17640564,8.78100124,13.08106077,0.47941505,0.63814966,0.83817699
56043,0,USWyomingWashakie,Wyoming,Washakie,2021-01-05 04:42:36.180970,2020-11-23 00:00:00.000000,13.69936657,19.25879001,28.84371084,1069,1503,2251,502,722,1081,6.44176004,9.25766115,13.85961103,0.45448877,0.61497570,0.79244973
56043,0,USWyomingWashakie,Wyoming,Washakie,2021-01-05 04:42:36.180970,2020-11-24 00:00:00.000000,14.16234033,19.71823536,29.58472409,1105,1539,2309,524,758,1139,6.71367826,9.71284511,14.60179398,0.42795814,0.58955402,0.76299189
56043,0,USWyomingWashakie,Wyoming,Washakie,2021-01-05 04:42:36.180970,2020-11-25 00:00:00.000000,14.42640967,20.22860209,30.17114386,1125,1578,2354,546,782,1194,7.00124577,10.02164212,15.30404465,0.42177352,0.56627949,0.74573340
56043,0,USWyomingWashakie,Wyoming,Washakie,2021-01-05 04:42:36.180970,2020-11-26 00:00:00.000000,14.47529865,20.43586353,30.61471315,1129,1595,2389,569,803,1245,7.29494542,10.29202825,15.96329871,0.41091661,0.55286346,0.72567529
56043,0,USWyomingWashakie,Wyoming,Washakie,2021-01-05 04:42:36.180970,2020-11-27 00:00:00.000000,14.46856721,20.53712610,30.92592952,1129,1602,2413,576,816,1293,7.39127393,10.46346687,16.57336854,0.39178452,0.54470065,0.72444629
56043,0,USWyomingWashakie,Wyoming,Washakie,2021-01-05 04:42:36.180970,2020-11-28 00:00:00.000000,14.47993677,20.48471052,31.11328115,1130,1598,2428,578,823,1336,7.41743135,10.54638271,17.12709932,0.37248947,0.52957152,0.73132454
56043,0,USWyomingWashakie,Wyoming,Washakie,2021-01-05 04:42:36.180970,2020-11-29 00:00:00.000000,14.45486587,20.62451459,31.18339688,1128,1609,2433,575,827,1374,7.37937200,10.60173072,17.61585284,0.36251237,0.52105988,0.73069420
56043,0,USWyomingWashakie,Wyoming,Washakie,2021-01-05 04:42:36.180970,2020-11-30 00:00:00.000000,14.30906064,20.48931697,31.13752926,1116,1599,2430,568,831,1407,7.29017054,10.64780242,18.02784845,0.35625080,0.52025214,0.72995075
56043,0,USWyomingWashakie,Wyoming,Washakie,2021-01-05 04:42:36.180970,2020-12-01 00:00:00.000000,14.23858151,20.26391693,30.98487982,1111,1581,2418,562,835,1431,7.20481818,10.69839617,18.34539560,0.34362944,0.51808158,0.74264463
56043,0,USWyomingWashakie,Wyoming,Washakie,2021-01-05 04:42:36.180970,2020-12-02 00:00:00.000000,14.05061510,19.85926757,30.72910833,1096,1550,2398,560,833,1448,7.17857271,10.67728583,18.55767836,0.30479564,0.51158722,0.73960660
56043,0,USWyomingWashakie,Wyoming,Washakie,2021-01-05 04:42:36.180970,2020-12-03 00:00:00.000000,13.86097628,19.44074539,30.36854917,1081,1517,2370,557,826,1456,7.14075490,10.59233593,18.66580485,0.29929634,0.51499504,0.73687964
56043,0,USWyomingWashakie,Wyoming,Washakie,2021-01-05 04:42:36.180970,2020-12-04 00:00:00.000000,13.60789117,19.09540895,29.88430076,1062,1490,2332,553,821,1457,7.08995420,10.52153408,18.67950949,0.30264470,0.51655647,0.73342573
56043,0,USWyomingWashakie,Wyoming,Washakie,2021-01-05 04:42:36.180970,2020-12-05 00:00:00.000000,13.29104739,18.68248725,29.25276464,1037,1458,2283,548,809,1452,7.02380872,10.37013222,18.61226925,0.30356997,0.52045303,0.74433009
56043,0,USWyomingWashakie,Wyoming,Washakie,2021-01-05 04:42:36.180970,2020-12-06 00:00:00.000000,12.94739675,18.23193782,28.50886887,1010,1423,2225,538,800,1442,6.89524950,10.25659658,18.47964189,0.30370242,0.52023240,0.75242994
56043,0,USWyomingWashakie,Wyoming,Washakie,2021-01-05 04:42:36.180970,2020-12-07 00:00:00.000000,12.52572954,17.75879610,27.68652659,977,1386,2160,524,784,1425,6.72414976,10.05611950,18.25795664,0.30340473,0.51469570,0.75431719
56043,0,USWyomingWashakie,Wyoming,Washakie,2021-01-05 04:42:36.180970,2020-12-08 00:00:00.000000,12.08792014,17.31066506,26.82029769,943,1351,2093,510,769,1395,6.54242813,9.85988007,17.88542669,0.30252488,0.52332943,0.75763902
56043,0,USWyomingWashakie,Wyoming,Washakie,2021-01-05 04:42:36.180970,2020-12-09 00:00:00.000000,11.64125666,16.86983136,25.92173917,908,1316,2023,495,754,1362,6.35337543,9.67128387,17.45966763,0.30067726,0.53379054,0.76702250
56043,0,USWyomingWashakie,Wyoming,Washakie,2021-01-05 04:42:36.180970,2020-12-10 00:00:00.000000,11.25902577,16.28291841,24.99996339,878,1270,1951,480,736,1326,6.16125698,9.43829059,16.99176808,0.29664544,0.54539380,0.80352400
56043,0,USWyomingWashakie,Wyoming,Washakie,2021-01-05 04:42:36.180970,2020-12-11 00:00:00.000000,10.96134331,15.82890369,24.06286938,855,1235,1878,466,717,1287,5.97286281,9.19735331,16.49091920,0.29035422,0.55000812,0.83038492
56043,0,USWyomingWashakie,Wyoming,Washakie,2021-01-05 04:42:36.180970,2020-12-12 00:00:00.000000,10.67237113,15.34071328,23.21442564,832,1197,1811,452,701,1246,5.79496038,8.98408809,15.96485088,0.29084132,0.55396476,0.85874555
56043,0,USWyomingWashakie,Wyoming,Washakie,2021-01-05 04:42:36.180970,2020-12-13 00:00:00.000000,10.31919314,14.81251152,22.39084349,805,1156,1747,439,679,1203,5.62835265,8.71211505,15.42017187,0.31120079,0.55309748,0.90166181
56043,0,USWyomingWashakie,Wyoming,Washakie,2021-01-05 04:42:36.180970,2020-12-14 00:00:00.000000,9.91394060,14.33192680,21.56325900,773,1118,1683,424,649,1160,5.44361243,8.32408222,14.86258093,0.29190875,0.56312198,0.92414258
56043,0,USWyomingWashakie,Wyoming,Washakie,2021-01-05 04:42:36.180970,2020-12-15 00:00:00.000000,9.53409221,13.69498329,20.72752963,744,1068,1617,409,621,1116,5.25016374,7.95804363,14.30105233,0.28587531,0.56965456,0.94995154
56043,0,USWyomingWashakie,Wyoming,Washakie,2021-01-05 04:42:36.180970,2020-12-16 00:00:00.000000,9.17107266,13.03714112,19.88403316,715,1017,1551,395,598,1072,5.06659126,7.67191024,13.73871918,0.27472631,0.56969893,0.95751486
56043,0,USWyomingWashakie,Wyoming,Washakie,2021-01-05 04:42:36.180970,2020-12-17 00:00:00.000000,8.92704388,12.54505866,19.03814340,696,979,1485,378,577,1028,4.85475293,7.39844788,13.17849457,0.27237220,0.56917072,0.96068642
56043,0,USWyomingWashakie,Wyoming,Washakie,2021-01-05 04:42:36.180970,2020-12-18 00:00:00.000000,8.73408674,11.98412211,18.20895226,681,935,1421,362,557,985,4.64586051,7.14440169,12.62301451,0.27191588,0.57164491,0.98123060
56043,0,USWyomingWashakie,Wyoming,Washakie,2021-01-05 04:42:36.180970,2020-12-19 00:00:00.000000,8.45459419,11.46924329,17.39679383,659,895,1357,346,535,942,4.44528345,6.85482017,12.07488145,0.27186435,0.58012930,1.04226157
56043,0,USWyomingWashakie,Wyoming,Washakie,2021-01-05 04:42:36.180970,2020-12-20 00:00:00.000000,8.18266832,11.02366995,16.57956272,638,860,1294,337,509,902,4.32695887,6.52422726,11.55829422,0.27254956,0.60176353,1.07076338
56043,0,USWyomingWashakie,Wyoming,Washakie,2021-01-05 04:42:36.180970,2020-12-21 00:00:00.000000,7.91318157,10.58978163,15.88385671,617,826,1239,329,487,882,4.22117858,6.24399411,11.30987881,0.27659582,0.61798215,1.08707889
56043,0,USWyomingWashakie,Wyoming,Washakie,2021-01-05 04:42:36.180970,2020-12-22 00:00:00.000000,7.62067941,10.17582941,15.48606068,594,794,1208,318,468,863,4.08685609,5.99656739,11.05811148,0.27841163,0.61986220,1.09337328
56043,0,USWyomingWashakie,Wyoming,Washakie,2021-01-05 04:42:36.180970,2020-12-23 00:00:00.000000,7.25400841,9.85221824,15.08115183,566,768,1177,306,447,843,3.93253482,5.73821183,10.80245900,0.27682512,0.61188989,1.10225976
56043,0,USWyomingWashakie,Wyoming,Washakie,2021-01-05 04:42:36.180970,2020-12-24 00:00:00.000000,6.88186354,9.47378767,14.66778690,537,739,1144,293,424,822,3.76059381,5.43860660,10.54259352,0.28319685,0.59546083,1.10648782
56043,0,USWyomingWashakie,Wyoming,Washakie,2021-01-05 04:42:36.180970,2020-12-25 00:00:00.000000,6.46387847,9.05730221,14.24221138,504,706,1111,279,408,781,3.58081397,5.23673674,10.01236167,0.29907277,0.58896008,1.12908223
56043,0,USWyomingWashakie,Wyoming,Washakie,2021-01-05 04:42:36.180970,2020-12-26 00:00:00.000000,6.04620489,8.65893595,13.79965708,471,675,1077,265,394,740,3.40045937,5.05247912,9.49268716,0.31385825,0.58905669,1.15033800
56043,0,USWyomingWashakie,Wyoming,Washakie,2021-01-05 04:42:36.180970,2020-12-27 00:00:00.000000,5.65659991,8.29751270,13.33555333,441,647,1040,251,378,701,3.22108470,4.85545458,8.98646938,0.31970265,0.58953441,1.16524766
56043,0,USWyomingWashakie,Wyoming,Washakie,2021-01-05 04:42:36.180970,2020-12-28 00:00:00.000000,5.31791418,7.84262126,12.48506890,415,612,974,238,361,663,3.05523594,4.62684255,8.49502150,0.32126045,0.59813235,1.15078250
56043,0,USWyomingWashakie,Wyoming,Washakie,2021-01-05 04:42:36.180970,2020-12-29 00:00:00.000000,5.03633272,7.37647208,11.67046087,393,575,910,226,340,625,2.89799107,4.36060868,8.01072730,0.31817036,0.59571358,1.15473131
56043,0,USWyomingWashakie,Wyoming,Washakie,2021-01-05 04:42:36.180970,2020-12-30 00:00:00.000000,4.76623080,6.92659907,10.89211827,372,540,850,213,322,588,2.73005000,4.12702055,7.53727041,0.31571416,0.58214596,1.24628711
56043,0,USWyomingWashakie,Wyoming,Washakie,2021-01-05 04:42:36.180970,2020-12-31 00:00:00.000000,4.43589880,6.47171617,10.14498094,346,505,791,200,304,557,2.56729547,3.90628591,7.14326881,0.30738173,0.58182845,1.26062189
56043,0,USWyomingWashakie,Wyoming,Washakie,2021-01-05 04:42:36.180970,2021-01-01 00:00:00.000000,4.05127789,6.00396600,9.75055055,316,468,761,188,288,530,2.41080166,3.69644504,6.79830435,0.30350448,0.58285812,1.28085069
56043,0,USWyomingWashakie,Wyoming,Washakie,2021-01-05 04:42:36.180970,2021-01-02 00:00:00.000000,3.72713183,5.63368234,9.53448784,290,439,744,176,271,504,2.26119171,3.47809992,6.46172831,0.27823379,0.57928221,1.33092045
56043,0,USWyomingWashakie,Wyoming,Washakie,2021-01-05 04:42:36.180970,2021-01-03 00:00:00.000000,3.38207166,5.25041205,9.17495347,263,409,716,165,255,478,2.11877213,3.27039520,6.13587317,0.26454261,0.58438547,1.44405741
56043,0,USWyomingWashakie,Wyoming,Washakie,2021-01-05 04:42:36.180970,2021-01-04 00:00:00.000000,3.06425306,4.93736378,8.57662169,239,385,669,154,242,454,1.98364004,3.11129358,5.82190928,0.25152481,0.58759074,1.48174779
56043,0,USWyomingWashakie,Wyoming,Washakie,2021-01-05 04:42:36.180970,2021-01-05 00:00:00.000000,2.77987754,4.59394776,8.00320037,216,358,624,142,226,430,1.82010192,2.90408225,5.52056514,0.24807477,0.59362711,1.48203162
56043,0,USWyomingWashakie,Wyoming,Washakie,2021-01-05 04:42:36.180970,2021-01-06 00:00:00.000000,2.52504439,4.32305982,7.83516905,197,337,611,128,212,425,1.65009683,2.71944928,5.44870272,0.24342203,0.58870638,1.48208771
56043,0,USWyomingWashakie,Wyoming,Washakie,2021-01-05 04:42:36.180970,2021-01-07 00:00:00.000000,2.29014730,4.08574773,7.58461382,178,318,591,117,197,421,1.51053900,2.53030636,5.40664902,0.24224255,0.58900518,1.48209898
56043,0,USWyomingWashakie,Wyoming,Washakie,2021-01-05 04:42:36.180970,2021-01-08 00:00:00.000000,2.04843320,3.80594770,7.12462056,159,297,556,108,182,404,1.38920001,2.33642908,5.17896148,0.24198127,0.58923290,1.48210131
56043,0,USWyomingWashakie,Wyoming,Washakie,2021-01-05 04:42:36.180970,2021-01-09 00:00:00.000000,1.84938718,3.53288239,6.69025144,144,275,522,96,170,377,1.24212631,2.18094136,4.84141640,0.24192356,0.58817009,1.48210181
56043,0,USWyomingWashakie,Wyoming,Washakie,2021-01-05 04:42:36.180970,2021-01-10 00:00:00.000000,1.66912393,3.28978395,6.28076376,130,256,490,86,159,359,1.10943342,2.04094643,4.60355831,0.24191078,0.58656063,1.48210192
56043,0,USWyomingWashakie,Wyoming,Washakie,2021-01-05 04:42:36.180970,2021-01-11 00:00:00.000000,1.50600388,3.06919451,5.89166281,117,239,459,77,148,348,0.99666411,1.90325314,4.47130889,0.24190794,0.58540499,1.48210195
56043,0,USWyomingWashakie,Wyoming,Washakie,2021-01-05 04:42:36.180970,2021-01-12 00:00:00.000000,1.35849460,2.85219805,5.65250653,106,222,441,70,139,338,0.89954460,1.78761672,4.33824119,0.24190730,0.58459375,1.48210195
56043,0,USWyomingWashakie,Wyoming,Washakie,2021-01-05 04:42:36.180970,2021-01-13 00:00:00.000000,1.22517547,2.67024293,5.50887381,95,208,429,63,132,328,0.81165223,1.69732233,4.20476009,0.24190716,0.58403386,1.48210196
56043,0,USWyomingWashakie,Wyoming,Washakie,2021-01-05 04:42:36.180970,2021-01-14 00:00:00.000000,1.10473713,2.49641002,5.36496208,86,194,418,57,124,308,0.73216539,1.59481708,3.95603560,0.24190712,0.58365242,1.48210196
56043,0,USWyomingWashakie,Wyoming,Washakie,2021-01-05 04:42:36.180970,2021-01-15 00:00:00.000000,0.99597794,2.33233042,5.22104298,77,182,407,51,115,289,0.66032120,1.48436403,3.71250644,0.24190711,0.58339521,1.48210196
56043,0,USWyomingWashakie,Wyoming,Washakie,2021-01-05 04:42:36.180970,2021-01-16 00:00:00.000000,0.89779861,2.18127018,5.07739264,70,170,396,46,107,271,0.59541575,1.37837844,3.48302321,0.24190711,0.58322324,1.48210196
56043,0,USWyomingWashakie,Wyoming,Washakie,2021-01-05 04:42:36.180970,2021-01-17 00:00:00.000000,0.80919601,2.04564398,4.93428339,63,159,385,41,99,254,0.53680255,1.27396942,3.26699092,0.24190711,0.58310913,1.48210196
